

Iter     Func-count       f(x)      MeshSize     Method
    0           1       0.349018             1      
    1          30       0.349005             2     Successful Poll
    2          59       0.348978             4     Successful Poll
    3          88       0.348865             8     Successful Poll
    4         117       0.348336            16     Successful Poll
    5         146       0.346773            32     Successful Poll
    6         175       0.346772            64     Successful Poll
    7         194       0.346696           128     Successful Poll
    8         213        0.34631           256     Successful Poll
    9         262       0.346245           512     Successful Poll
   10         291       0.346245          1024     Successful Poll
   11         310       0.346062          2048     Successful Poll
   12         399       0.345776          4096     Successful Poll
   13         539        0.34306          8192     Successful Poll
   14         588        0.34306     1.638e+04     Successful Poll
   15         718        0.34273     3.277e+04     Successful Poll
   16         960        0.34273     1.638e+04     Refine Mesh
   17        1202        0.34273          8192     Refine Mesh
   18        1444        0.34273          4096     Refine Mesh
   19        1686        0.34273          2048     Refine Mesh
   20        1928        0.34273          1024     Refine Mesh
   21        2170        0.34273           512     Refine Mesh
   22        2412        0.34273           256     Refine Mesh
   23        2654        0.34273           128     Refine Mesh
   24        2896        0.34273            64     Refine Mesh
   25        2998       0.333664           128     Successful Poll
   26        3125       0.333664           256     Successful Poll
   27        3367       0.333664           128     Refine Mesh
   28        3609       0.333664            64     Refine Mesh
   29        3851       0.333664            32     Refine Mesh
   30        4093       0.333664            16     Refine Mesh

Iter     Func-count        f(x)       MeshSize      Method
   31        4143       0.316491            32     Successful Poll
   32        4152       0.316386            64     Successful Poll
   33        4161       0.316202           128     Successful Poll
   34        4371        0.31607           256     Successful Poll
   35        4374        0.31607           512     Successful Poll
   36        4616        0.31607           256     Refine Mesh
Stop requested.


Iter     Func-count       f(x)      MeshSize     Method
    0           1       0.349018             1      
    1          30       0.349005             2     Successful Poll
    2          59       0.348978             4     Successful Poll
    3          88       0.348865             8     Successful Poll
    4         117       0.348336            16     Successful Poll
    5         146       0.346773            32     Successful Poll
    6         175       0.346772            64     Successful Poll
    7         194       0.346696           128     Successful Poll
    8         213        0.34631           256     Successful Poll
    9         262       0.346245           512     Successful Poll
   10         291       0.346245          1024     Successful Poll
   11         310       0.346062          2048     Successful Poll
   12         399       0.345776          4096     Successful Poll
   13         539        0.34306          8192     Successful Poll
   14         588        0.34306     1.638e+04     Successful Poll
   15         718        0.34273     3.277e+04     Successful Poll
   16         960        0.34273     1.638e+04     Refine Mesh
   17        1202        0.34273          8192     Refine Mesh
   18        1444        0.34273          4096     Refine Mesh
   19        1686        0.34273          2048     Refine Mesh
   20        1928        0.34273          1024     Refine Mesh
   21        2170        0.34273           512     Refine Mesh
   22        2412        0.34273           256     Refine Mesh
   23        2654        0.34273           128     Refine Mesh
   24        2896        0.34273            64     Refine Mesh
   25        2998       0.333664           128     Successful Poll
   26        3125       0.333664           256     Successful Poll
   27        3367       0.333664           128     Refine Mesh
   28        3609       0.333664            64     Refine Mesh
   29        3851       0.333664            32     Refine Mesh
   30        4093       0.333664            16     Refine Mesh

Iter     Func-count        f(x)       MeshSize      Method
   31        4143       0.316491            32     Successful Poll
   32        4152       0.316386            64     Successful Poll
   33        4161       0.316202           128     Successful Poll
   34        4371        0.31607           256     Successful Poll
   35        4374        0.31607           512     Successful Poll
   36        4616        0.31607           256     Refine Mesh
   37        4858        0.31607           128     Refine Mesh
   38        5100        0.31607            64     Refine Mesh
   39        5342        0.31607            32     Refine Mesh
   40        5584        0.31607            16     Refine Mesh
   41        5687       0.314087            32     Successful Poll
   42        5694       0.314087            64     Successful Poll
   43        5936       0.314087            32     Refine Mesh
   44        6178       0.314087            16     Refine Mesh
   45        6420       0.314087             8     Refine Mesh
   46        6450       0.311829            16     Successful Poll
   47        6451       0.311829            32     Successful Poll
   48        6693       0.311829            16     Refine Mesh
   49        6935       0.311829             8     Refine Mesh
   50        7076       0.310364            16     Successful Poll
   51        7083       0.310364            32     Successful Poll
   52        7325       0.310364            16     Refine Mesh
   53        7567       0.310364             8     Refine Mesh
   54        7748       0.308634            16     Successful Poll
   55        7866       0.308596            32     Successful Poll
   56        7874       0.307921            64     Successful Poll
   57        7876       0.307921           128     Successful Poll
   58        8118       0.307921            64     Refine Mesh
   59        8360       0.307921            32     Refine Mesh
   60        8529       0.307396            64     Successful Poll

Iter     Func-count        f(x)       MeshSize      Method
   61        8538       0.306987           128     Successful Poll
   62        8780       0.306987            64     Refine Mesh
   63        9022       0.306987            32     Refine Mesh
   64        9181       0.305593            64     Successful Poll
   65        9423       0.305593            32     Refine Mesh
   66        9632       0.304381            64     Successful Poll
   67        9636       0.304381           128     Successful Poll
   68        9878       0.304381            64     Refine Mesh
   69        9927       0.304336           128     Successful Poll
   70       10137       0.304183           256     Successful Poll
   71       10143       0.304183           512     Successful Poll
   72       10353        0.30359          1024     Successful Poll
   73       10382       0.303392          2048     Successful Poll
   74       10624       0.303392          1024     Refine Mesh
   75       10866       0.303392           512     Refine Mesh
   76       11108       0.303392           256     Refine Mesh
   77       11350       0.303392           128     Refine Mesh
   78       11480       0.303218           256     Successful Poll
   79       11722       0.303218           128     Refine Mesh
   80       11964       0.303218            64     Refine Mesh
   81       12206       0.303218            32     Refine Mesh
   82       12235       0.302832            64     Successful Poll
   83       12477       0.302832            32     Refine Mesh
   84       12719       0.302832            16     Refine Mesh
   85       12737       0.302408            32     Successful Poll
   86       12979       0.302408            16     Refine Mesh
   87       13221       0.302408             8     Refine Mesh
   88       13249       0.302156            16     Successful Poll
   89       13250       0.302156            32     Successful Poll
   90       13492       0.302156            16     Refine Mesh

Iter     Func-count        f(x)       MeshSize      Method
   91       13560       0.301957            32     Successful Poll
   92       13563       0.301957            64     Successful Poll
   93       13805       0.301957            32     Refine Mesh
   94       14047       0.301957            16     Refine Mesh
   95       14289       0.301957             8     Refine Mesh
   96       14367       0.301736            16     Successful Poll
   97       14369       0.301736            32     Successful Poll
   98       14611       0.301736            16     Refine Mesh
   99       14853       0.301736             8     Refine Mesh
  100       14966       0.300842            16     Successful Poll
  101       14971       0.300304            32     Successful Poll
  102       15026       0.300215            64     Successful Poll
  103       15091       0.299522           128     Successful Poll
  104       15146       0.299226           256     Successful Poll
  105       15147       0.299226           512     Successful Poll
  106       15389       0.299226           256     Refine Mesh
  107       15631       0.299226           128     Refine Mesh
  108       15636       0.294763           256     Successful Poll
  109       15733       0.294763           512     Successful Poll
  110       15946       0.294763          1024     Successful Poll
  111       15991       0.294763          2048     Successful Poll
  112       16233       0.294763          1024     Refine Mesh
  113       16258       0.294678          2048     Successful Poll
  114       16272       0.294678          4096     Successful Poll
  115       16514       0.294678          2048     Refine Mesh
  116       16756       0.294678          1024     Refine Mesh
  117       16841       0.294108          2048     Successful Poll
  118       17083       0.294108          1024     Refine Mesh
  119       17325       0.294108           512     Refine Mesh
  120       17567       0.294108           256     Refine Mesh

Iter     Func-count        f(x)       MeshSize      Method
  121       17809       0.294108           128     Refine Mesh
  122       18051       0.294108            64     Refine Mesh
  123       18086       0.294074           128     Successful Poll
  124       18328       0.294074            64     Refine Mesh
  125       18386       0.293354           128     Successful Poll
  126       18441       0.293111           256     Successful Poll
  127       18446       0.293017           512     Successful Poll
  128       18501       0.292774          1024     Successful Poll
  129       18743       0.292774           512     Refine Mesh
  130       18788       0.292625          1024     Successful Poll
  131       18803         0.2924          2048     Successful Poll
  132       18807         0.2924          4096     Successful Poll
  133       18882       0.291717          8192     Successful Poll
  134       18957       0.291717     1.638e+04     Successful Poll
  135       19199       0.291717          8192     Refine Mesh
  136       19441       0.291717          4096     Refine Mesh
  137       19683       0.291717          2048     Refine Mesh
  138       19925       0.291717          1024     Refine Mesh
IdleTimeout has been reached.
Parallel pool using the 'local' profile is shutting down.
  139       20167       0.291717           512     Refine Mesh
  140       20409       0.291717           256     Refine Mesh
  141       20651       0.291717           128     Refine Mesh
  142       20807       0.290475           256     Successful Poll
  143       21049       0.290475           128     Refine Mesh
  144       21291       0.290475            64     Refine Mesh
  145       21533       0.290475            32     Refine Mesh
  146       21598       0.290334            64     Successful Poll
  147       21840       0.290334            32     Refine Mesh
  148       22082       0.290334            16     Refine Mesh
  149       22177       0.290059            32     Successful Poll
  150       22419       0.290059            16     Refine Mesh

Iter     Func-count        f(x)       MeshSize      Method
  151       22661       0.290059             8     Refine Mesh
  152       22894       0.288117            16     Successful Poll
  153       23136       0.288117             8     Refine Mesh
  154       23176       0.287194            16     Successful Poll
  155       23418       0.287194             8     Refine Mesh
  156       23498       0.286048            16     Successful Poll
  157       23628       0.286042            32     Successful Poll
  158       23870       0.286042            16     Refine Mesh
  159       23899       0.285529            32     Successful Poll
  160       24039       0.285278            64     Successful Poll
  161       24088       0.285075           128     Successful Poll
  162       24137       0.284714           256     Successful Poll
  163       24379       0.284714           128     Refine Mesh
  164       24621       0.284714            64     Refine Mesh
  165       24863       0.284714            32     Refine Mesh
  166       25105       0.284714            16     Refine Mesh
  167       25347       0.284714             8     Refine Mesh
  168       25447       0.279605            16     Successful Poll
  169       25496       0.279395            32     Successful Poll
  170       25498       0.279395            64     Successful Poll
  171       25740       0.279395            32     Refine Mesh
  172       25829       0.279335            64     Successful Poll
  173       26071       0.279335            32     Refine Mesh
  174       26313       0.279335            16     Refine Mesh
  175       26555       0.279335             8     Refine Mesh
  176       26672       0.278598            16     Successful Poll
  177       26709       0.278598            32     Successful Poll
  178       26746       0.278598            64     Successful Poll
  179       26760       0.278598           128     Successful Poll
  180       26777       0.278598           256     Successful Poll

Iter     Func-count        f(x)       MeshSize      Method
  181       26794       0.278573           512     Successful Poll
  182       26871       0.277489          1024     Successful Poll
  183       27113       0.277489           512     Refine Mesh
  184       27291       0.276337          1024     Successful Poll
  185       27533       0.276337           512     Refine Mesh
  186       27775       0.276337           256     Refine Mesh
  187       28017       0.276337           128     Refine Mesh
  188       28054       0.275274           256     Successful Poll
  189       28296       0.275274           128     Refine Mesh
  190       28383       0.275116           256     Successful Poll
  191       28571        0.27507           512     Successful Poll
  192       28813        0.27507           256     Refine Mesh
  193       29055        0.27507           128     Refine Mesh
  194       29297        0.27507            64     Refine Mesh
  195       29539        0.27507            32     Refine Mesh
  196       29781        0.27507            16     Refine Mesh
  197       29929       0.275049            32     Successful Poll
  198       30171       0.275049            16     Refine Mesh
  199       30339       0.275034            32     Successful Poll
  200       30581       0.275034            16     Refine Mesh
  201       30823       0.275034             8     Refine Mesh
  202       30921       0.274402            16     Successful Poll
  203       30923       0.274402            32     Successful Poll
  204       31165       0.274402            16     Refine Mesh
  205       31407       0.274402             8     Refine Mesh
  206       31417       0.274138            16     Successful Poll
  207       31659       0.274138             8     Refine Mesh
  208       31770       0.273429            16     Successful Poll
  209       32012       0.273429             8     Refine Mesh
  210       32116       0.272611            16     Successful Poll

Iter     Func-count        f(x)       MeshSize      Method
  211       32205       0.272437            32     Successful Poll
  212       32299       0.272437            64     Successful Poll
  213       32323       0.272437           128     Successful Poll
  214       32347       0.272437           256     Successful Poll
  215       32371       0.269096           512     Successful Poll
  216       32415       0.269096          1024     Successful Poll
  217       32449       0.268997          2048     Successful Poll
  218       32634        0.26854          4096     Successful Poll
  219       32876        0.26854          2048     Refine Mesh
  220       33081       0.268529          4096     Successful Poll
  221       33323       0.268529          2048     Refine Mesh
  222       33565       0.268529          1024     Refine Mesh
  223       33777       0.268528          2048     Successful Poll
  224       33919       0.267312          4096     Successful Poll
  225       34081       0.265692          8192     Successful Poll
  226       34104       0.265692     1.638e+04     Successful Poll
  227       34279         0.2629     3.277e+04     Successful Poll
  228       34454       0.262857     6.554e+04     Successful Poll
  229       34696       0.262857     3.277e+04     Refine Mesh
  230       34938       0.262857     1.638e+04     Refine Mesh
  231       35180       0.262857          8192     Refine Mesh
  232       35422       0.262857          4096     Refine Mesh
  233       35473        0.26281          8192     Successful Poll
  234       35715        0.26281          4096     Refine Mesh
  235       35746       0.262492          8192     Successful Poll
  236       35988       0.262492          4096     Refine Mesh
  237       36069        0.26236          8192     Successful Poll
  238       36311        0.26236          4096     Refine Mesh
  239       36322       0.262278          8192     Successful Poll
  240       36405       0.262278     1.638e+04     Successful Poll

Iter     Func-count        f(x)       MeshSize      Method
  241       36647       0.262278          8192     Refine Mesh
  242       36889       0.262278          4096     Refine Mesh
  243       37131       0.262278          2048     Refine Mesh
Time limit reached: increase options.MaxTime.
