
                                  Best           Mean      Stall
Generation      Func-count        f(x)           f(x)    Generations
    1              400          0.4258           5.595        0
    2              600          0.4258           6.088        1
    3              800          0.4258           6.146        2
    4             1000          0.4258           6.159        3
    5             1200          0.4258           6.087        4
    6             1400          0.4258           6.096        5
    7             1600          0.4258           6.023        6
    8             1800          0.4258             5.9        7
    9             2000          0.4258           5.692        8
   10             2200          0.3993            5.81        0
   11             2400          0.3991            5.72        0
   12             2600          0.3991           5.817        1
   13             2800          0.3421           5.888        0
   14             3000          0.3421           5.713        1
   15             3200          0.3421           5.833        2
   16             3400          0.3421           5.926        3
   17             3600          0.3421           5.953        0
   18             3800          0.3393           5.801        0
   19             4000          0.3392           5.938        0
   20             4200          0.3345            5.87        0
   21             4400          0.3337           5.843        0
   22             4600          0.3337           5.882        1
   23             4800          0.3317           5.787        0
   24             5000           0.331           5.735        0
   25             5200           0.331           5.685        1
   26             5400           0.331           5.798        2
   27             5600           0.331           5.792        3
   28             5800           0.331           5.516        4
   29             6000           0.331            5.22        0
   30             6200           0.331           5.507        1

                                  Best           Mean      Stall
Generation      Func-count        f(x)           f(x)    Generations
   31             6400           0.331           5.537        2
   32             6600           0.331            5.72        3
   33             6800           0.331           5.869        4
   34             7000           0.331           5.576        5
   35             7200           0.331           5.746        6
   36             7400           0.331           5.818        7
   37             7600           0.331           5.799        8
   38             7800           0.331           5.795        9
   39             8000           0.331           5.631       10
   40             8200           0.331           5.655       11
   41             8400           0.331           5.542       12
   42             8600           0.331           5.742       13
   43             8800           0.331           5.577       14
   44             9000           0.331           5.702       15
   45             9200           0.331           5.657       16
   46             9400           0.331           5.573       17
   47             9600           0.331           5.736       18
   48             9800           0.331            5.62       19
   49            10000           0.331           5.357       20
   50            10200           0.331           5.542       21
   51            10400           0.331           5.768       22
   52            10600           0.331           5.827       23
   53            10800           0.331           5.851       24
   54            11000           0.331           5.804       25
   55            11200           0.331           5.816       26
   56            11400           0.331           5.633       27
   57            11600           0.331           5.637       28
   58            11800           0.331           5.626       29
   59            12000           0.331           5.604       30
   60            12200           0.331           5.711       31

                                  Best           Mean      Stall
Generation      Func-count        f(x)           f(x)    Generations
   61            12400           0.331           5.666       32
   62            12600           0.331           5.678       33
   63            12800           0.331           5.614       34
   64            13000           0.331           5.805       35
   65            13200           0.331           5.772       36
   66            13400           0.331           5.545       37
   67            13600           0.331           5.849       38
   68            13800           0.331           5.864       39
   69            14000           0.331           5.805       40
   70            14200           0.331           5.645       41
   71            14400           0.331            5.58       42
   72            14600           0.331           5.733       43
   73            14800           0.331           5.504       44
   74            15000           0.331           5.762       45
   75            15200           0.331           5.707       46
Optimization terminated: stall time limit exceeded.

                                  Best           Mean      Stall
Generation      Func-count        f(x)           f(x)    Generations
    1              400          0.4258            5.57        0
    2              600          0.4258           6.042        1
    3              800          0.4258           6.124        2
    4             1000          0.4258           6.258        3
    5             1200          0.4258           6.154        4
    6             1400          0.4258           6.145        5
    7             1600          0.4258           5.956        6
    8             1800          0.4258           6.171        7
    9             2000          0.4258           6.271        8
   10             2200          0.4258           6.283        9
   11             2400          0.4258           6.209       10
   12             2600          0.4258           6.166       11
   13             2800          0.4258           6.041       12
   14             3000          0.4258           6.034       13
   15             3200          0.4258           5.943       14
   16             3400          0.4258           6.054       15
   17             3600          0.4258           5.927       16
   18             3800          0.3949           5.971        0
   19             4000          0.3583           5.724        0
   20             4200          0.3583           5.775        1
   21             4400          0.3452           5.676        0
   22             4600          0.3452           5.507        1
   23             4800          0.3452           5.651        2
   24             5000          0.3452           5.707        3
   25             5200          0.3328           5.581        0
   26             5400          0.3247           5.823        0
   27             5600          0.3247           5.619        1
   28             5800          0.3247           5.628        2
   29             6000          0.3247           5.713        3
   30             6200          0.3241           5.878        0

                                  Best           Mean      Stall
Generation      Func-count        f(x)           f(x)    Generations
   31             6400          0.3241           5.552        1
   32             6600          0.3236           5.798        0
   33             6800          0.3236           5.658        1
   34             7000          0.3227           5.517        0
   35             7200          0.3227           5.697        1
   36             7400          0.3227           5.803        2
   37             7600          0.3227           5.921        3
   38             7800          0.3227           5.737        4
   39             8000          0.3227           5.773        5
   40             8200          0.3227           5.891        6
   41             8400          0.3227           5.914        7
   42             8600          0.3227           5.885        8
   43             8800          0.3227           5.738        9
   44             9000          0.3227           5.822       10
   45             9200          0.3227           5.789       11
   46             9400          0.3227           5.811       12
   47             9600          0.3227           5.693       13
   48             9800          0.3227           5.846       14
   49            10000          0.3227           5.626       15
   50            10200          0.3227           5.814       16
   51            10400          0.3227           5.764       17
   52            10600          0.3227           5.638       18
   53            10800          0.3227           5.701       19
   54            11000          0.3227           5.804       20
   55            11200          0.3227           5.641       21
   56            11400          0.3227           5.761       22
   57            11600          0.3227           5.591       23
   58            11800          0.3227           5.509       24
   59            12000          0.3227            5.73       25
   60            12200          0.3227           5.821       26

                                  Best           Mean      Stall
Generation      Func-count        f(x)           f(x)    Generations
   61            12400          0.3227           5.832       27
   62            12600          0.3227           5.826       28
   63            12800          0.3227           5.703       29
   64            13000          0.3227           5.681       30
   65            13200          0.3227           5.699       31
   66            13400          0.3227           5.514       32
   67            13600          0.3227           5.532       33
   68            13800          0.3227           5.798       34
   69            14000          0.3227           5.806       35
   70            14200          0.3227           5.576       36
   71            14400          0.3227           5.663       37
   72            14600          0.3216           5.776        0
   73            14800          0.3184           5.602        0
   74            15000          0.3184           5.959        0
   75            15200          0.3184           5.825        1
   76            15400          0.3184            5.59        2
   77            15600          0.3184           5.659        3
   78            15800          0.3184           5.569        4
   79            16000          0.3184           5.875        5
   80            16200          0.3184           5.654        6
   81            16400          0.3184           5.659        0
   82            16600          0.3184           5.528        1
   83            16800          0.3184           5.583        2
   84            17000          0.3184           5.583        3
   85            17200          0.3184           5.622        4
   86            17400          0.3184           5.757        5
   87            17600          0.3184           5.592        6
   88            17800          0.3184           5.516        7
   89            18000          0.3184           5.628        8
   90            18200          0.3184           5.661        9

                                  Best           Mean      Stall
Generation      Func-count        f(x)           f(x)    Generations
   91            18400          0.3184           5.636       10
   92            18600          0.3184           5.752       11
   93            18800          0.3184           5.911       12
   94            19000          0.3184           5.753       13
   95            19200          0.3184           5.825       14
   96            19400          0.3184           5.765       15
   97            19600          0.3184           5.829       16
   98            19800          0.3184            5.79       17
   99            20000          0.3184           5.566       18
  100            20200          0.3184           5.435       19
Optimization terminated: time limit exceeded.
