
                                  Best           Mean      Stall
Generation      Func-count        f(x)           f(x)    Generations
    1              400          0.4258           4.798        0
    2              600          0.4258           4.668        1
    3              800          0.4258           4.686        2
    4             1000          0.4258           4.601        3
    5             1200          0.4258           4.552        4
    6             1400          0.4258           4.467        5
    7             1600          0.4258           4.482        6
    8             1800          0.4258           4.475        7
    9             2000          0.4258           4.403        8
   10             2200          0.4258           4.337        9
   11             2400          0.4258           4.299       10
   12             2600          0.4258           4.268       11
   13             2800          0.4258           4.174       12
   14             3000          0.4258           4.124       13
   15             3200          0.4258           4.089       14
   16             3400          0.4258           4.068       15
   17             3600          0.4258           4.027       16
   18             3800          0.4258           4.068       17
   19             4000          0.4258           3.998       18
   20             4200          0.4258           3.951       19
   21             4400          0.4258           3.875       20
   22             4600          0.4258           3.869       21
   23             4800          0.4258           3.817       22
   24             5000          0.4258           3.873       23
   25             5200          0.4258           3.824       24
   26             5400          0.4258           3.755       25
   27             5600          0.4258           3.696       26
   28             5800          0.4258           3.726       27
   29             6000          0.4258           3.665       28
   30             6200          0.4258           3.602       29

                                  Best           Mean      Stall
Generation      Func-count        f(x)           f(x)    Generations
   31             6400          0.4258           3.575       30
   32             6600          0.4258             3.6       31
   33             6800          0.4258           3.603       32
   34             7000          0.4258           3.549       33
   35             7200          0.4258           3.507       34
   36             7400          0.4258           3.528       35
   37             7600          0.4258           3.403       36
   38             7800          0.4258           3.355       37
   39             8000          0.4258           3.359       38
   40             8200          0.4258           3.314       39
   41             8400          0.4258           3.317       40
   42             8600          0.4258           3.262       41
   43             8800          0.4258           3.275       42
   44             9000          0.4258           3.281       43
   45             9200          0.4258           3.244       44
   46             9400          0.4258           3.214       45
   47             9600          0.4258            3.14       46
Optimization terminated: stall time limit exceeded.

                                  Best           Mean      Stall
Generation      Func-count        f(x)           f(x)    Generations
    1              400          0.4258           4.771        0
    2              600          0.4258            4.61        1
    3              800          0.4258           4.554        2
    4             1000          0.4258           4.538        3
    5             1200          0.4258           4.551        4
    6             1400          0.4258           4.501        5
    7             1600          0.4258           4.438        6
    8             1800          0.4258           4.366        7
    9             2000          0.4258           4.362        8
   10             2200          0.4258           4.287        9
   11             2400          0.4258           4.256       10
   12             2600          0.4258           4.229       11
   13             2800          0.4258           4.212       12
   14             3000          0.4258           4.213       13
   15             3200          0.4258           4.174       14
   16             3400          0.4258           4.175       15
   17             3600          0.4258           4.165       16
   18             3800          0.4258           4.136       17
   19             4000          0.4258           4.051       18
   20             4200          0.4258           3.998       19
   21             4400          0.4258           3.979       20
   22             4600          0.4258           3.952       21
   23             4800          0.4258           3.926       22
   24             5000          0.4258               4       23
   25             5200          0.4258           3.943       24
   26             5400          0.4258           3.869       25
   27             5600          0.4258           3.887       26
   28             5800          0.4258           3.851       27
   29             6000          0.4258           3.852       28
   30             6200          0.4258           3.848       29

                                  Best           Mean      Stall
Generation      Func-count        f(x)           f(x)    Generations
   31             6400          0.4258           3.811       30
   32             6600          0.4258           3.761       31
   33             6800          0.4258            3.71       32
   34             7000          0.4258           3.752       33
   35             7200          0.4258           3.719       34
   36             7400          0.4258           3.662       35
   37             7600          0.4258           3.683       36
   38             7800          0.4258           3.713       37
   39             8000          0.4258           3.657       38
   40             8200          0.4258           3.607       39
   41             8400          0.4258           3.628       40
   42             8600          0.4258           3.636       41
Optimization terminated: stall time limit exceeded.
