
                                  Best           Mean      Stall
Generation      Func-count        f(x)           f(x)    Generations
    1              400          0.4258           5.142        0
    2              600          0.4258           5.166        1
    3              800          0.4258           5.189        2
    4             1000          0.4258           5.072        3
    5             1200          0.4258           5.021        4
    6             1400          0.4258           4.958        5
    7             1600          0.4258            4.88        6
    8             1800          0.4258           4.814        7
    9             2000          0.4258           4.769        8
   10             2200          0.4258           4.789        9
   11             2400          0.4258           4.627       10
   12             2600          0.4258            4.56       11
   13             2800          0.4258           4.464       12
   14             3000          0.4258           4.499       13
   15             3200          0.4258           4.452       14
   16             3400          0.4258           4.441       15
   17             3600          0.4258           4.455       16
   18             3800          0.4258           4.261       17
   19             4000          0.4258           4.166       18
   20             4200          0.4258           4.113       19
   21             4400          0.4258           4.072       20
   22             4600          0.4258            4.14       21
   23             4800          0.4258           4.061       22
   24             5000          0.4258           3.976       23
   25             5200          0.4258           3.993       24
   26             5400          0.4258           3.836       25
   27             5600          0.4258           3.851       26
   28             5800          0.4258           3.731       27
   29             6000          0.4258            3.59       28
   30             6200          0.4258           3.513       29

                                  Best           Mean      Stall
Generation      Func-count        f(x)           f(x)    Generations
   31             6400          0.4219           3.703        0
   32             6600          0.4219           3.455        1
   33             6800          0.4219           3.429        2
   34             7000          0.4219           3.437        3
   35             7200          0.4219           3.376        4
   36             7400          0.4219           3.344        5
   37             7600          0.4219           3.256        6
   38             7800          0.4219           3.179        7
   39             8000          0.3807           3.139        0
   40             8200          0.3743            3.19        0
   41             8400          0.3743           3.382        1
   42             8600          0.3743           3.219        2
   43             8800          0.3743           2.969        3
   44             9000          0.3715           3.159        0
   45             9200          0.3632            2.91        0
   46             9400          0.3632            3.15        1
   47             9600          0.3632           3.114        2
   48             9800          0.3632           2.996        3
   49            10000          0.3455            2.98        0
   50            10200          0.3455           3.038        1
   51            10400          0.3397           2.953        0
   52            10600          0.3397           3.051        1
   53            10800          0.3397           2.972        2
   54            11000          0.3397           2.967        3
   55            11200          0.3397           3.003        4
   56            11400          0.3397           3.009        5
   57            11600          0.3397           3.029        6
   58            11800           0.332            2.88        0
   59            12000           0.332           3.101        1
   60            12200           0.332            2.97        2

                                  Best           Mean      Stall
Generation      Func-count        f(x)           f(x)    Generations
   61            12400           0.332           2.947        3
   62            12600           0.332           2.933        4
   63            12800           0.332           2.937        5
   64            13000           0.332           2.958        6
   65            13200           0.332           2.883        7
   66            13400           0.332           2.929        8
   67            13600           0.332           2.904        9
   68            13800          0.3313           2.978        0
   69            14000          0.3313           3.013        1
   70            14200          0.3267           2.894        0
   71            14400          0.3267           2.954        1
   72            14600          0.3267           2.899        2
   73            14800          0.3267           3.035        3
   74            15000          0.3267           2.951        4
   75            15200          0.3267           2.948        5
   76            15400          0.3267             2.9        6
   77            15600          0.3267           2.926        7
   78            15800          0.3267           2.924        8
   79            16000          0.3254           2.841        0
   80            16200          0.3254           2.895        1
   81            16400          0.3223           2.896        0
   82            16600          0.3223           2.902        1
   83            16800          0.3223            2.88        2
   84            17000          0.3223           2.899        3
   85            17200          0.3222            2.87        0
   86            17400          0.3222            2.93        1
   87            17600          0.3222            2.97        2
   88            17800          0.3218           2.813        0
   89            18000          0.3209           2.942        0
   90            18200          0.3209           3.044        1

                                  Best           Mean      Stall
Generation      Func-count        f(x)           f(x)    Generations
   91            18400          0.3192            2.86        0
   92            18600          0.3192           3.089        1
   93            18800          0.3192           2.937        2
   94            19000          0.3191           2.929        0
   95            19200          0.3191           2.867        1
   96            19400          0.3191           2.945        2
   97            19600          0.3178            2.88        0
   98            19800          0.3178            2.85        1
   99            20000          0.3178           2.922        2
  100            20200          0.3177           3.013        0
  101            20400          0.3171           2.891        0
  102            20600          0.3168           2.913        0
  103            20800          0.3168           2.924        1
  104            21000          0.3167           2.865        0
  105            21200          0.3167           2.798        1
  106            21400          0.3167           2.853        2
  107            21600           0.316           2.989        0
  108            21800           0.316           2.875        1
  109            22000           0.316           3.004        2
  110            22200           0.316           2.764        3
  111            22400           0.316           2.997        4
  112            22600          0.3159           2.987        0
  113            22800          0.3159           3.017        1
  114            23000          0.3159            3.01        2
  115            23200          0.3159           2.904        3
  116            23400          0.3159           2.874        4
Optimization terminated: time limit exceeded.

                                  Best           Mean      Stall
Generation      Func-count        f(x)           f(x)    Generations
    1              400          0.4258            5.04        0
    2              600          0.4258           5.237        1
    3              800          0.4258           5.178        2
    4             1000          0.4258           5.081        3
    5             1200          0.4258           4.866        4
    6             1400          0.4258           4.994        5
    7             1600          0.4258            4.95        6
    8             1800          0.4258           4.886        7
    9             2000          0.4258            4.91        8
   10             2200          0.4258           4.881        9
   11             2400          0.4258           4.799       10
   12             2600          0.4258           4.837       11
   13             2800          0.4258           4.758       12
   14             3000          0.4258           4.665       13
   15             3200          0.4258           4.703       14
   16             3400          0.4258           4.595       15
   17             3600          0.4258           4.687       16
   18             3800          0.4258           4.714       17
   19             4000          0.4258           4.606       18
   20             4200          0.4258           4.518       19
   21             4400          0.4258           4.615       20
   22             4600          0.4258           4.575       21
   23             4800          0.4258           4.436       22
   24             5000          0.4258           4.408       23
   25             5200          0.4258           4.425       24
   26             5400          0.4258           4.455       25
   27             5600          0.4258           4.262       26
   28             5800          0.4258           4.323       27
   29             6000          0.4258            4.29       28
   30             6200          0.4258           4.354       29

                                  Best           Mean      Stall
Generation      Func-count        f(x)           f(x)    Generations
   31             6400          0.4258           4.453       30
   32             6600          0.4258           4.288       31
   33             6800          0.4258           4.159       32
   34             7000          0.4258           4.116       33
   35             7200          0.4258           4.085       34
   36             7400          0.4258           4.235       35
   37             7600          0.4258           4.223       36
   38             7800          0.4258           4.204       37
   39             8000          0.3955           4.069        0
   40             8200          0.3955           4.033        1
   41             8400          0.3955           4.022        2
   42             8600          0.3955           4.067        3
   43             8800          0.3955           4.033        4
   44             9000          0.3955            3.87        5
   45             9200          0.3955            3.83        6
   46             9400          0.3955           3.827        7
   47             9600          0.3955           3.701        8
   48             9800          0.3955            3.68        9
   49            10000          0.3955           3.735       10
   50            10200          0.3955           3.546       11
   51            10400          0.3891           3.487        0
   52            10600          0.3891           3.351        1
   53            10800          0.3891            3.46        2
   54            11000          0.3891           3.379        3
   55            11200          0.3891           3.318        4
   56            11400          0.3706           3.357        0
   57            11600          0.3706           3.283        1
   58            11800          0.3706           3.191        2
   59            12000           0.367           3.199        0
   60            12200           0.367           3.227        1

                                  Best           Mean      Stall
Generation      Func-count        f(x)           f(x)    Generations
   61            12400           0.367            3.19        2
   62            12600           0.367           3.176        3
   63            12800           0.367           3.064        4
   64            13000           0.367           3.152        5
   65            13200          0.3604           3.006        0
   66            13400          0.3604           3.019        1
   67            13600          0.3604           3.045        2
   68            13800          0.3604           2.964        3
   69            14000          0.3604            3.17        4
   70            14200          0.3486           2.977        0
   71            14400          0.3486           2.992        1
   72            14600          0.3281           2.882        0
   73            14800          0.3281           2.927        1
   74            15000          0.3281           3.148        2
   75            15200          0.3281           3.018        3
   76            15400          0.3281           3.094        4
   77            15600          0.3281           2.989        5
   78            15800          0.3281           2.893        6
   79            16000          0.3281           2.964        7
   80            16200          0.3281           3.024        8
   81            16400          0.3281           2.978        9
   82            16600          0.3246           2.877        0
   83            16800          0.3246            2.92        1
   84            17000          0.3246            2.84        2
   85            17200          0.3246           2.922        3
   86            17400          0.3246           3.077        4
   87            17600          0.3246           3.012        5
   88            17800          0.3246           2.946        6
   89            18000          0.3246           2.837        7
   90            18200          0.3216           2.918        0

                                  Best           Mean      Stall
Generation      Func-count        f(x)           f(x)    Generations
   91            18400          0.3216           3.002        1
   92            18600          0.3216           2.924        2
   93            18800          0.3216           2.884        3
   94            19000          0.3216           2.904        4
   95            19200          0.3082           3.044        0
   96            19400          0.3082           3.011        1
   97            19600          0.3082           2.973        2
   98            19800          0.3082           2.914        3
   99            20000          0.3082           2.989        4
  100            20200          0.3082           2.845        5
  101            20400          0.3082           3.058        6
  102            20600          0.3082           2.884        7
  103            20800          0.3082           3.005        8
  104            21000          0.3082           3.077        9
  105            21200          0.3082           2.851       10
Optimization terminated: time limit exceeded.
