
                                  Best           Mean      Stall
Generation      Func-count        f(x)           f(x)    Generations
    1              400          0.4258           4.644        0
    2              600          0.4258           4.597        1
    3              800          0.4258           4.557        2
    4             1000          0.4258           4.437        3
    5             1200          0.4258            4.39        4
    6             1400          0.4258           4.181        5
    7             1600          0.4258           4.177        6
    8             1800          0.4258           4.082        7
    9             2000          0.4258           3.948        8
   10             2200          0.4258           3.894        9
   11             2400          0.4258           3.729       10
   12             2600          0.4258           3.652       11
   13             2800          0.4258           3.666       12
   14             3000          0.4258           3.535       13
   15             3200          0.4258            3.44       14
   16             3400          0.4258           3.409       15
   17             3600          0.4258           3.283       16
   18             3800          0.4258            3.18       17
   19             4000          0.4258           3.073       18
   20             4200          0.3767           2.852        0
   21             4400          0.3767           2.821        1
   22             4600          0.3767           2.807        2
   23             4800          0.3767           2.844        3
   24             5000          0.3767           2.601        4
   25             5200          0.3767            2.55        5
   26             5400          0.3767           2.473        6
   27             5600          0.3658           2.339        0
   28             5800          0.3658            2.29        1
   29             6000          0.3521           2.289        0
   30             6200          0.3521           2.262        1

                                  Best           Mean      Stall
Generation      Func-count        f(x)           f(x)    Generations
   31             6400          0.3419           2.384        0
   32             6600          0.3394           2.367        0
   33             6800          0.3394           2.451        1
   34             7000          0.3394           2.312        2
   35             7200           0.335           2.288        0
   36             7400          0.3314           2.252        0
   37             7600          0.3314           2.439        1
   38             7800           0.329           2.247        0
   39             8000           0.329           2.241        1
   40             8200          0.3245           2.195        0
   41             8400          0.3233           2.217        0
   42             8600          0.3233           2.207        1
   43             8800          0.3188           2.366        0
   44             9000          0.3188           2.201        1
   45             9200          0.3188           2.178        2
   46             9400          0.3173           2.304        0
   47             9600          0.3158           2.215        0
   48             9800          0.3157           2.316        0
   49            10000          0.3156           2.211        0
   50            10200          0.3156           2.239        1
   51            10400          0.3146           2.241        0
   52            10600           0.312           2.257        0
   53            10800          0.3118           2.246        0
   54            11000          0.3117           2.241        0
   55            11200          0.3115           2.219        0
   56            11400          0.3105            2.31        0
   57            11600          0.3105           2.261        1
   58            11800          0.3105           2.281        2
   59            12000            0.31           2.214        0
   60            12200          0.3098           2.347        0

                                  Best           Mean      Stall
Generation      Func-count        f(x)           f(x)    Generations
   61            12400          0.3097           2.344        0
   62            12600          0.3096           2.296        0
   63            12800           0.309           2.167        0
   64            13000           0.309           2.169        1
   65            13200          0.3087           2.071        0
   66            13400          0.3083           2.101        0
   67            13600          0.3083            2.18        1
   68            13800          0.3083           2.308        2
   69            14000          0.3078            2.38        0
   70            14200          0.3078            2.28        1
   71            14400          0.3078           2.344        2
   72            14600          0.3078           2.423        3
   73            14800          0.3078           2.285        4
   74            15000          0.3077           2.325        0
   75            15200          0.3077           2.359        1
   76            15400          0.3077           2.143        2
   77            15600          0.3077           2.261        3
   78            15800          0.3077           2.343        0
   79            16000          0.3077           2.145        1
   80            16200          0.3077           2.282        2
   81            16400          0.3077           2.196        3
   82            16600          0.3077           2.156        4
   83            16800          0.3077           2.259        5
   84            17000          0.3077           2.261        6
   85            17200          0.3077           2.188        7
   86            17400          0.3077           2.119        8
   87            17600          0.3077           2.166        9
   88            17800          0.3077           2.351       10
   89            18000          0.3077           2.283       11
   90            18200          0.3077           2.344       12

                                  Best           Mean      Stall
Generation      Func-count        f(x)           f(x)    Generations
   91            18400          0.3077           2.387       13
   92            18600          0.3077           2.161       14
   93            18800          0.3077           2.311       15
   94            19000          0.3077           2.357       16
   95            19200          0.3077            2.46       17
   96            19400          0.3077           2.163       18
   97            19600          0.3077           2.293       19
   98            19800          0.3077           2.219       20
   99            20000          0.3077           2.267       21
  100            20200          0.3077           2.158       22
  101            20400          0.3077           2.101       23
  102            20600          0.3077           2.267       24
  103            20800          0.3077           2.229       25
  104            21000          0.3077           2.263       26
  105            21200          0.3077           2.347       27
  106            21400          0.3077           2.269       28
  107            21600          0.3077             2.2       29
  108            21800          0.3077           2.291       30
  109            22000          0.3077           2.322       31
  110            22200          0.3077           2.324       32
  111            22400          0.3077           2.338       33
  112            22600          0.3077           2.185       34
  113            22800          0.3077           2.214       35
  114            23000          0.3077           2.225       36
  115            23200          0.3077            2.33       37
  116            23400          0.3077           2.386       38
  117            23600          0.3077           2.319       39
  118            23800          0.3077            2.28       40
Optimization terminated: time limit exceeded.

                                  Best           Mean      Stall
Generation      Func-count        f(x)           f(x)    Generations
    1              400          0.4258           4.783        0
    2              600          0.4258           4.704        1
    3              800          0.4258           4.619        2
    4             1000          0.4258           4.465        3
    5             1200          0.4258           4.413        4
    6             1400          0.4258           4.151        5
    7             1600          0.4258           4.094        6
    8             1800          0.4258           4.035        7
    9             2000          0.4258           3.954        8
   10             2200          0.4258           3.815        9
   11             2400          0.4258           3.719       10
   12             2600          0.4258           3.706       11
   13             2800          0.4258           3.702       12
   14             3000          0.4258           3.417       13
   15             3200          0.4258           3.353       14
   16             3400          0.4258           3.232       15
   17             3600          0.4102           3.046        0
   18             3800          0.4102           3.017        1
   19             4000          0.4102           2.872        2
   20             4200          0.4102           2.785        3
   21             4400          0.3655           2.582        0
   22             4600          0.3524           2.591        0
   23             4800          0.3524           2.473        1
   24             5000          0.3502           2.333        0
   25             5200          0.3502            2.23        1
   26             5400          0.3252           2.372        0
   27             5600          0.3252           2.386        1
   28             5800          0.3252           2.264        2
   29             6000          0.3252           2.247        3
   30             6200          0.3252           2.245        4

                                  Best           Mean      Stall
Generation      Func-count        f(x)           f(x)    Generations
   31             6400          0.3252           2.335        5
   32             6600          0.3252           2.213        0
   33             6800          0.3252           2.357        1
   34             7000          0.3252            2.33        2
   35             7200          0.3079           2.314        0
   36             7400          0.3079            2.44        1
   37             7600          0.3079           2.203        2
   38             7800          0.3079            2.39        3
   39             8000          0.3079           2.286        4
   40             8200          0.3079           2.139        5
   41             8400          0.3079           2.286        6
   42             8600          0.3079           2.194        7
   43             8800          0.3071           2.301        0
   44             9000          0.3068           2.218        0
   45             9200          0.3068           2.367        1
   46             9400          0.3068           2.254        2
   47             9600          0.3068           2.228        3
   48             9800          0.3068           2.331        4
   49            10000          0.3064           2.145        0
   50            10200          0.3064           2.178        1
   51            10400          0.3064           2.276        2
   52            10600          0.3062           2.288        0
   53            10800          0.3062           2.355        1
   54            11000          0.3062           2.185        2
   55            11200          0.3062           2.167        3
   56            11400          0.3062           2.116        4
   57            11600          0.3062           2.243        5
   58            11800          0.3062           2.186        6
   59            12000          0.3062           2.187        7
   60            12200          0.3062           2.242        8

                                  Best           Mean      Stall
Generation      Func-count        f(x)           f(x)    Generations
   61            12400          0.3062           2.265        9
   62            12600          0.3062           2.262       10
   63            12800          0.3062           2.183       11
   64            13000          0.3062           2.334       12
   65            13200          0.3062           2.188       13
   66            13400          0.3062           2.363       14
   67            13600          0.3062           2.176       15
   68            13800          0.3062           2.192       16
   69            14000          0.3062            2.26       17
   70            14200          0.3062           2.387       18
   71            14400          0.3062           2.396       19
   72            14600          0.3062           2.283       20
   73            14800          0.3062           2.178       21
   74            15000          0.3062           2.322       22
   75            15200          0.3062           2.168       23
   76            15400          0.3062            2.18       24
   77            15600          0.3062           2.124       25
   78            15800          0.3062           2.273       26
   79            16000          0.3062            2.35       27
   80            16200          0.3062           2.337       28
   81            16400          0.3062           2.272       29
   82            16600          0.3062           2.315       30
   83            16800          0.3062           2.201       31
   84            17000          0.3062           2.201       32
   85            17200          0.3062           2.188       33
   86            17400          0.3062           2.157       34
   87            17600          0.3062           2.329       35
   88            17800          0.3062           2.273       36
   89            18000          0.3062           2.206       37
   90            18200          0.3062           2.371       38

                                  Best           Mean      Stall
Generation      Func-count        f(x)           f(x)    Generations
   91            18400          0.3062           2.196       39
   92            18600          0.3062           2.261       40
   93            18800          0.3062           2.267       41
   94            19000          0.3062           2.351       42
   95            19200          0.3062           2.263       43
Optimization terminated: stall time limit exceeded.
