Iteration,Innovation,Mean Value,Action Changes,Iteration Time
0,0.6666666666666666,0.010416666666666666,N/A,0.0017311704515631482
1,0.43999999999999995,0.017291666666666664,2,0.00168498635736519
2,0.3993,0.023530729166666667,3,0.0016919506255378982
3,0.347391,0.028958713541666667,3,0.0016886517616666154
4,0.31624559999999985,0.033900051041666664,4,0.0022446935941928276
5,0.29221093439999973,0.038465846891666655,6,0.0017187080769383023
6,0.27551316671999987,0.04277074012166666,5,0.001720540779089015
7,0.2633819775978597,0.04688608352163321,8,0.0017220069408095864
8,0.2552162839234666,0.05087383795793739,5,0.0017619598476951194
9,0.24969378608250703,0.05477530336547655,6,0.0016952494894091827
10,0.246298167178712,0.058623712227643926,9,0.0017000145150010346
11,0.24444406386523146,0.06244315072553817,9,0.0017418001240372821
12,0.24378951267676782,0.06625236186111266,8,0.0018609257638336034
13,0.24412738312210205,0.07006685222239552,3,0.001783952273503673
14,0.24496873523600654,0.07389448871045812,1,0.0017755218436103955
15,0.24633679598931993,0.07774350114779123,1,0.0017597606051142634
16,0.24780248962159107,0.0816154150481286,1,0.0018469972274881875
17,0.24949347620741233,0.08551375061386941,0,0.0017722229797391097
18,0.25105119573622975,0.08943642554724801,3,0.0018129089674849344
19,0.2527202412003717,0.09338517931600382,0,0.0017978808098490923
20,0.2541119220829182,0.09735567809854942,1,0.001836367555014054
21,0.2554518480546124,0.10134711322440274,0,0.0018645911681350255
22,0.2564505430727176,0.10535415295991393,1,0.001786151516084529
23,0.257362530857867,0.10937544250456811,1,0.0017744222223199657
24,0.25803931443594363,0.11340730679262973,0,0.0018290367464112028
25,0.2585585254045565,0.11744728375207593,0,0.00176012714554441
26,0.25873048776780105,0.12148994762344782,0,0.0018847508917928663
27,0.25869442050659786,0.1255320479438634,1,0.0017982473502792251
28,0.2583471552680064,0.12956872224492602,0,0.0018371006358743405
29,0.25783534860212676,0.13359739956683422,1,0.001997645344276766
30,0.25721433818053474,0.1376163736009051,1,0.0017780876266213913
31,0.2564683237755383,0.14162369115989787,0,0.0017667248732869678
32,0.2554671782920764,0.14561536582071155,0,0.0017623263881252627
33,0.25424944067006916,0.14958801333118144,0,0.0017670914137171145
34,0.2527612487362795,0.15353740784268577,0,0.0017773545457611117
35,0.25109337696083395,0.15746074185769882,1,0.001767824494577408
36,0.24919611042675593,0.16135443108311687,0,0.001764892171136262
37,0.2470874253037783,0.1652151721034884,0,0.0018884162960942918
38,0.24477989093983496,0.1690398578994233,1,0.0018279371251207766
39,0.24242720620706454,0.17282778299640872,0,0.0017802868692022578
40,0.239910806294656,0.17657638934476272,0,0.0018286702059810561
41,0.2372329578826848,0.18028315431167966,0,0.0018283036655509233
42,0.2343933694858079,0.18394555070989538,0,0.0018037454567313704
43,0.23140212188117193,0.18756120886428873,0,0.001776988005330965
44,0.22826611289372975,0.19112786687825326,0,0.0017722229797390993
45,0.22499845531044937,0.194643467742479,0,0.0017656252519965415
46,0.2216087139495174,0.19810610389794023,0,0.001947429305347248
47,0.2181110821626807,0.2015140895567321,0,0.0017762549244706716
48,0.2145154147640109,0.2048658929124198,0,0.00175902752425397
49,0.21083582508662965,0.20816020267939836,0,0.0017520632560812793
50,0.2070820243992402,0.21139585931063648,0,0.0017579279029635575
51,0.20326737753729504,0.2145719120846567,0,0.0017483978517798399
52,0.19940126299309774,0.2176875568189239,0,0.0017549955795224115
53,0.19549590906041703,0.2207421803979929,0,0.001746565149629134
54,0.19156014406708224,0.22373530764904104,0,0.0020548256513790025
55,0.18760484325400292,0.22666663332488485,0,0.001810343184473942
56,0.18363807572848032,0.22953597825814237,0,0.001782852652213257
57,0.17966926893839863,0.23234331058530483,0,0.0017821195713529636
58,0.1757055785266801,0.23508871024978423,0,0.0020518933279378565
59,0.1717549846700925,0.2377723818852544,0,0.0018502960913594768
60,0.1678236502234568,0.24039462641999593,0,0.0019239707178181215
61,0.16391818035147715,0.24295584798798775,0,0.0018308694485619226
62,0.16004373772647548,0.24545653138996393,0,0.001996179182556193
63,0.1562056720682451,0.24789724501603025,0,0.0018055781588820763
64,0.15241936116392818,0.25027879753421667,1,0.001784685354363963
65,0.14898299276193191,0.2526066567961218,0,0.0017659917924266882
66,0.14558160429481512,0.25488136936322836,0,0.0017729560605993927
67,0.14222784410806233,0.2571036794274168,1,0.0017810199500625373
68,0.13900147022816434,0.25927557739973184,0,0.0017777210861912585
69,0.13580953599043552,0.2613976013995824,0,0.0017641590902759685
70,0.132638249928438,0.26347007405471423,0,0.0017623263881252627
71,0.12948864045858377,0.26549333406187964,0,0.0019833502675012105
72,0.1263811396443015,0.26746803936882185,0,0.0018308694485619226
73,0.1233090083805558,0.26939474262476804,0,0.0017249392642507133
74,0.1202873783385216,0.2712742329113074,0,0.0017656252519965554
75,0.11730942527552313,0.2731071926812375,0,0.001749497473070294
76,0.11438516706433804,0.27489446091661773,0,0.0017707568180185262
77,0.11150911383421322,0.2766367908202773,0,0.0017124768896258635
78,0.1086874314981813,0.2783350319374364,0,0.001748031311349707
79,0.10591605429239334,0.279989970285755,0,0.0018323356102825095
80,0.10319858775961059,0.281602448219499,0,0.0017788207074816709
81,0.10053215661577164,0.2831732631666204,0,0.0017623263881252627
82,0.09791880039979703,0.2847032444228672,0,0.0017626929285554094
83,0.09535653626393924,0.28619319030199125,0,0.0017593940646841166
84,0.0928464795799533,0.28764391654542804,0,0.0017593940646841166
85,0.09038725944999992,0.2890562174743343,0,0.001761593307264997
86,0.08797943778949244,0.2904308961897951,0,0.0017472982304894136
87,0.08562202675515242,0.2917687403578444,0,0.0018004465928600777
88,0.08331523638196646,0.2930705409263126,0,0.0020955116391248307
89,0.08105829394238995,0.29433707676916243,0,0.001865324248995326
90,0.07885116643820417,0.2955691262447594,0,0.0017956815672682258
91,0.07669318373095776,0.2967674572405556,0,0.0017901834608160805
92,0.07458413195775349,0.2979328343023955,0,0.0017751553031802314
93,0.07252337444386497,0.29906601202808086,0,0.0017626929285554094
94,0.07051055621432803,0.30016773946892983,0,0.0017872511373749622
95,0.06854503563542048,0.3012387556507332,0,0.0018264709634002174
96,0.06662634552578234,0.3022797922995736,0,0.0020353990085814344
97,0.06475382095759258,0.30329157075203594,0,0.0017535294178018523
98,0.06292690568389817,0.30427480365334686,0,0.0017278715876918593
99,0.06114490542236592,0.30523019280057134,0,0.001702580298012013
100,0.059407194333095166,0.30615843021202593,0,0.0017084449448943329
101,0.05771304970039926,0.3070601966135947,0,0.0017439993666181486
102,0.05606179275376634,0.3079361621253722,0,0.0018308694485619226
103,0.05445267687339874,0.30878698520151915,0,0.0018173074526466604
104,0.05288498461444827,0.3096133130861199,0,0.001816574371786367
105,0.051357951547677104,0.3104157810790523,0,0.001875953921469442
106,0.04987083366988329,0.3111950128551443,0,0.0018565272786718878
107,0.048422855226632366,0.3119516199680604,0,0.0018887828365244386
108,0.04701325586628866,0.31268620209097114,0,0.001786151516084522
109,0.04564125474623847,0.31339934669638114,0,0.0018195066952274852
110,0.04430608369783104,0.3140916292541598,0,0.0018217059378083378
111,0.04300696246585046,0.31476361304268863,0,0.0018363675550140401
112,0.04174312213656195,0.3154158493260724,0,0.0017505970943607063
113,0.04051378802811337,0.3160488772640117,0,0.001983716807931357
114,0.03931819629769261,0.3166632240811632,0,0.0017942154055476667
115,0.03815558210782224,0.3172594050515979,0,0.0018678900320062974
116,0.03702519142976357,0.3178379236676879,0,0.001819506695227513
117,0.03592627285488753,0.31839927168104554,0,0.0017901834608160805
118,0.03485808599937173,0.3189439292747857,0,0.0017791872479118176
119,0.033819895835290804,0.3194723651472121,0,0.001767824494577408
120,0.03281097868077133,0.3199850366890992,0,0.0017645256307061152
121,0.0318306182715915,0.3204823900995928,0,0.0020170719870742926
122,0.030878110029318145,0.3209648605688009,0,0.0018994125089985547
123,0.02995275833280104,0.321432872417751,0,0.0018407660401757453
124,0.029053879553519464,0.32188683928577466,0,0.0017978808098491061
125,0.028180800151615892,0.3223271642881437,0,0.0017964146481285193
126,0.027332858825293682,0.3227542402072889,0,0.0017773545457611117
127,0.026580250136420867,0.3231695566156705,1,0.0017707568180185262
128,0.025870917683638306,0.3235737897044773,0,0.0017575613625334108
129,0.02516616251184453,0.3239670109937249,0,0.0017579279029635575
130,0.0244664582023223,0.32434929940313617,0,0.00193973195631425
131,0.02377771654344269,0.32472082622412746,0,0.0017956815672682536
132,0.023103600285508938,0.32508181997858854,0,0.0017942154055476667
133,0.02244595021273213,0.3254325379506625,0,0.0017872511373749622
134,0.0218055204473067,0.32577324920765166,0,0.0017546290390922648
135,0.021182464642322013,0.3261042252176879,0,0.0017575613625334108
136,0.020576608159713905,0.32642573472018344,0,0.0017524297965114122
137,0.01998760350672938,0.3267380410249761,0,0.0017535294178018246
138,0.019415018477854984,0.3270414006886926,0,0.0018565272786719156
139,0.018858386858371386,0.32733606298335466,0,0.001761226766834878
140,0.01831723671887347,0.3276222698070871,0,0.0017681910350075825
141,0.017791105557414595,0.32790025583142157,0,0.0017549955795224115
142,0.017279547667437826,0.32817024876372536,0,0.0017579279029635297
143,0.016782136978592023,0.32843246965401585,0,0.001716142293927303
144,0.01629846743234043,0.3286871332076462,0,0.0016893848425268976
145,0.015828152035516338,0.3289344480832011,0,0.0018521287935102104
146,0.01537082135308259,0.32917461716684304,0,0.001971987514166773
147,0.01492612180397359,0.32940783782003014,0,0.0019708878928763607
148,0.01449371400861145,0.32963430210141464,0,0.0018524953339402739
149,0.014073271273761394,0.32985419696506724,0,0.0019426642797553684
150,0.013664478271656164,0.3300677044380618,0,0.0020947785582645095
151,0.0132670299106089,0.33027500178041513,0,0.0017370350984454164
152,0.012880630390054625,0.33047626163025967,0,0.0017234731025301264
153,0.01250499241689143,0.33067165213677363,0,0.0017069787831737737
154,0.012139836560120208,0.3308613370830255,0,0.0021383968694514977
155,0.01178489072193048,0.33104547600055567,0,0.0019961791825562347
156,0.011439889702620304,0.33122422427715914,0,0.0018550611169513287
157,0.011104574843644764,0.33139773325909105,0,0.0017132099704861292
158,0.010778693730922141,0.33156615034863673,0,0.0021310660608486187
159,0.010461999948426795,0.33172961909783094,0,0.0017055126214531868
160,0.010154252869121326,0.3318882792989109,0,0.0016937833276886027
161,0.009855217477386283,0.332042267071995,0,0.002129233358697913
162,0.00956466421399687,0.3321917149503387,0,0.0016908510042474845
163,0.009282368840444997,0.3323367519634707,0,0.0019261699603989602
164,0.009008112316552117,0.33247750371841683,0,0.001787984218235228
165,0.00874168068978494,0.3326140924791947,0,0.0020775511580478634
166,0.008482864992226176,0.33274663724469833,0,0.0018129089674849275
167,0.008231461144519094,0.3328752538250814,0,0.0017003810554311882
168,0.00798726986411464,0.33300005491670814,0,0.0016937833276886027
169,0.007750096577617591,0.3331211501757334,0,0.0016864525190857238
170,0.007519751335491619,0.33323864629035055,0,0.0017066122427435992
171,0.007296048729159302,0.3333526470517436,0,0.001695982570269483
172,0.007078807809359294,0.3334632534237648,0,0.0019283692029798405
173,0.006867852005928522,0.3335705636113575,0,0.001722740021669833
174,0.0066630090482585405,0.33367467312773647,0,0.0016915840851077224
175,0.006464110886637689,0.33377567486034027,0,0.0016831536552144866
176,0.006270993614004107,0.33387365913555905,0,0.0016908510042474845
177,0.00608349738830518,0.3339687137822513,0,0.0016974487319900144
178,0.005901466355192578,0.3340609241940512,0,0.00169048446381731
179,0.0057247485712118365,0.3341503733904764,0,0.0016794882509130193
180,0.005553195927328454,0.3342371420768409,0,0.001684619816935018
181,0.005386664072953899,0.3343213087029808,0,0.0024869768185170615
182,0.0052250123403641754,0.33440294952079896,0,0.0017381347197358288
183,0.005068103669658132,0.33448213864063736,0,0.001742533204897534
184,0.0049158045342030735,0.33455894808648434,0,0.0016915840851077224
185,0.004767984866684623,0.33463344785002624,0,0.0016970821915598955
186,0.004624517985738381,0.3347057059435534,0,0.0016857194382254859
187,0.004485280523274383,0.3347757884517296,0,0.0017003810554311882
188,0.004350152352467426,0.3348437595822369,0,0.001684253276504899
189,0.004219016516522935,0.33490968171530755,0,0.001921771475237255
190,0.004091759158199947,0.3349736154521544,0,0.0018239051803891626
191,0.003968269450172347,0.33503561966231343,0,0.0016934167872584838
192,0.003848439526238104,0.3350957515299109,0,0.0016904844638173655
193,0.003732164413419864,0.3351540665988705,0,0.001689751382957072
194,0.003619341964983862,0.33521061881707337,0,0.0016897513829570165
195,0.0035098727944042687,0.335265460579486,0,0.0016857194382254859
196,0.0034036602102988645,0.3353186427702719,0,0.0017608602264047035
197,0.003300610152349309,0.3353702148039024,0,0.0018272040442605109
198,0.0032006311282426897,0.3354202246652812,0,0.0020148727444934678
199,0.0031036341516297236,0.33546871894890035,0,0.0017645256307061152
200,0.0030095326811253736,0.33551574289704295,0,0.0017835857330735783
201,0.0029182425603593715,0.33556134043704855,0,0.0018224390186686312
202,0.0028296819590900232,0.33560555421765936,0,0.001767824494577408
203,0.002743771315381588,0.3356484256444622,0,0.0018616588446938587
204,0.0026604332788506546,0.3356899949144442,0,0.0017824861117831103
205,0.0025795926549913653,0.3357303010496785,0,0.00190381099416026
206,0.0025011763505712672,0.33576938193015615,0,0.0018829181896421465
207,0.002425113320107815,0.33580727432578283,0,0.0018447979849073315
208,0.002351334513405738,0.3358440139275548,0,0.0018865835939436137
209,0.0022797728241753384,0.33587963537793253,0,0.0018224390186686312
210,0.002210363039704559,0.33591417230042797,0,0.0018513957126498615
211,0.0021430417915953848,0.3359476573284216,0,0.0018535949552307418
212,0.0020777475075436785,0.335980122133227,0,0.001709544566184773
213,0.0020144203641657976,0.33601159745141707,0,0.0017066122427435992
214,0.0019530022408524653,0.3360421131114304,0,0.001710277647045011
215,0.0018934366746495568,0.3360716980594718,0,0.0019203053135167236
216,0.0018356688161451362,0.336100380384724,0,0.001723839642960301
217,0.001779645386357158,0.3361281873438859,0,0.0017165088343574775
218,0.001725314634611154,0.33615514538505165,0,0.001717241915217771
219,0.0016726262973849465,0.33618128017094834,0,0.0017289712089822995
220,0.001621531558122273,0.336206616601544,0,0.0017227400216698885
221,0.0015719830079872835,0.3362311788360438,0,0.0017176084556478899
222,0.0015239346075521867,0.3362549903142868,0,0.0017641590902759408
223,0.0014773416494064454,0.3362780737775588,0,0.0017839522735036972
224,0.001432160721667089,0.3363004512888348,0,0.0017806534096324045
225,0.0013883496723744101,0.33632214425246565,0,0.0017810199500625234
226,0.0013458675747689067,0.33634317343332143,0,0.0018319690698523905
227,0.0013046746934142484,0.33636355897540604,0,0.0018909820791052634
228,0.0012647324511739569,0.3363833204199556,0,0.00180741086103281
229,0.0012260033970072082,0.3364024767230338,0,0.0018524953339403294
230,0.0011884511745790388,0.33642104627263664,0,0.001837833716734627
231,0.0011520404916645285,0.3364390469053189,0,0.0017898169203859338
232,0.0011167370903320817,0.3364564959223554,0,0.002695538323268132
233,0.0010825077178917217,0.3364734101054474,0,0.0020566583535296945
234,0.0010493200985936882,0.33648980573198795,0,0.0019756529184682403
235,0.0010171429060565548,0.3365056985898951,0,0.0018235386399590436
236,0.0009859457364141191,0.3365211039920265,0,0.0018044785375916361
237,0.0009556990821663683,0.3365360367901854,0,0.0017854184352242286
238,0.0009263743067170135,0.3365505113887278,0,0.0017535294178018246
239,0.000897943619576437,0.3365645417577837,0,0.0019466962244869546
240,0.0008703800522378638,0.3365781414460999,0,0.0018250048016796305
241,0.0008436574346745301,0.33659132359351673,0,0.0018906155386751444
242,0.0008177503724837443,0.3366041009430868,0,0.0018250048016796305
243,0.0007926342246334581,0.33661648585284665,0,0.0018151082100657523
244,0.0007682850818101356,0.33662849030724995,0,0.0017953150268381068
245,0.0007446797453559903,0.3366401259282711,0,0.0017696571967281138
246,0.0007217957067702507,0.3366514039861894,0,0.0017766214649008183
247,0.0006996111277790054,0.33666233541006096,0,0.0018140085887753399
248,0.0006781048209362484,0.33667293079788807,0,0.001983716807931357
249,0.000657256230767421,0.3366832004264938,0,0.001825371342109805
250,0.0006370454154268623,0.3366931542611099,0,0.0017945819459778134
251,0.000617453028858031,0.33670280196468577,0,0.001774055681889819
252,0.0005984603034562691,0.33671215290692735,0,0.001864591168134977
253,0.000580049033198346,0.33672121617307105,0,0.0017769880053309928
254,0.0005622015572552749,0.33673000057240315,0,0.001766358332856821
255,0.0005449007440526468,0.336738514646529,0,0.001755362119952586
256,0.0005281299757804794,0.33674676667740056,0,0.0019162733687851374
257,0.0005118731333349641,0.3367547646951089,0,0.0017872511373749345
258,0.0004961145816861287,0.33676251648544775,0,0.0017850518947941096
259,0.0004808391556531677,0.3367700295972548,0,0.0017648921711362342
260,0.0004660321460880773,0.3367773113495374,0,0.0017505970943607063
261,0.0004516792864403957,0.3367843688383881,0,0.0017630594689855839
262,0.00043776673971460817,0.3367912089436961,0,0.0017516967156511187
263,0.0004242810857851137,0.33679783833566146,0,0.0017659917924267021
264,0.0004112093090845176,0.3368042634811159,0,0.0017608602264047035
265,0.00039853878663449055,0.3368104906496571,0,0.0020826827240698065
266,0.00038625727642432883,0.3368165259196012,0,0.0018096101036136347
267,0.00037435290611667615,0.33682237518375935,0,0.0017905500012462272
268,0.00036281416208226724,0.33682804415504186,0,0.0017777210861912307
269,0.0003516298787483024,0.3368335383718973,0,0.0017887172990955769
270,0.00034078922825202945,0.3368388632035887,0,0.001786151516084633
271,0.00033028171039471005,0.33684402385531365,0,0.001774055681889819
272,0.0003200971428857641,0.33684902537317124,0,0.0017813864904926424
273,0.00031022565186367146,0.3368538726489816,0,0.002123368711815621
274,0.00030065766270173655,0.33685857042496137,0,0.001890982079105319
275,0.0002913838910756361,0.3368631232982594,0,0.0017843188139338162
276,0.00028239533428332797,0.33686753572535755,0,0.001708811485324535
277,0.00027368326283150335,0.3368718120263393,0,0.0017308039111330054
278,0.0002652392122563449,0.3368759563890308,0,0.0017286046685520695
279,0.0002570549751907472,0.3368799728730182,0,0.0017018472171517196
280,0.0002491225936544911,0.33688386541354404,0,0.0017025802980120686
281,0.000241434351580333,0.3368876378252874,0,0.0019005121302889671
282,0.00023398276755093317,0.33689129380603045,0,0.0018532284148006228
283,0.00022676058775400465,0.3368948369402141,0,0.0017333696941439491
284,0.00021976077914059866,0.3368982707023882,0,0.0017036799193025365
285,0.00021297652278917667,0.3369015984605568,0,0.0016926837063981903
286,0.00020640120746005103,0.3369048234794233,0,0.0016996479745708948
287,0.00020002842334129745,0.33690794892353804,0,0.0016904844638173655
288,0.00019385195598783933,0.33691097786035035,0,0.0016952494894091341
289,0.00018786578042027935,0.33691391326316944,0,0.0017051460810230123
290,0.00018206405541919268,0.3369167580140353,0,0.0020126735019125874
291,0.00017644111797725237,0.33691951490650374,0,0.0018202397760878064
292,0.00017099147791341945,0.3369221866483461,0,0.001876320461899561
293,0.00016570981265853074,0.3369247758641689,0,0.0017788207074816986
294,0.00016059096218105223,0.336927285097953,0,0.001761226766834878
295,0.0001556299240761047,0.33692971681551664,0,0.0017194411577986513
296,0.00015082184879348232,0.3369320734069041,0,0.0017414335836071215
297,0.00014616203500946584,0.33693435718870113,0,0.0017242061833904199
298,0.0001416459251395788,0.33693657040628144,0,0.0017256723451110068
299,0.00013726910097815875,0.3369387152359842,0,0.002173584750745139
300,0.00013302727947631793,0.33694079378722597,0,0.001761226766834767
301,0.00012891630864030057,0.3369428081045485,0,0.0017154092130670096
302,0.00012493216355478898,0.33694476016960406,0,0.001709178025754543
303,0.00012107094252462869,0.336946651903081,0,0.0017055126214532423
304,0.00011732886333273851,0.33694848516657055,0,0.001709544566184773
305,0.00011370225960866814,0.336950261764377,0,0.001722740021669944
306,0.00011018757730719281,0.3369519834452724,0,0.001722006940809595
307,0.00010678137129508519,0.33695365190419885,0,0.0018444314444772125
308,0.00010348030203248537,0.3369552687839181,0,0.0017791872479118176
309,0.00010028113236611874,0.33695683567661133,0,0.001710277647045011
310,9.718072440379616e-05,0.3369583541254302,0,0.0016791217104829004
311,9.417603649896494e-05,0.33695982562600046,0,0.001657862365534557
312,9.12641203143355e-05,0.3369612516278804,0,0.0018565272786719156
313,8.84421179789957e-05,0.3369626335359738,0,0.001914807207064606
314,8.570725932942336e-05,0.3369639727119008,0,0.0017143095917766527
315,8.305685923488959e-05,0.3369652704753263,0,0.0017187080769383023
316,8.048831500472031e-05,0.3369665281052483,0,0.0018968467259875554
317,7.799910386932507e-05,0.33696774684124625,0,0.0019100421814727264
318,7.558678054200157e-05,0.33696892788469224,0,0.0016904844638173655
319,7.324897485378595e-05,0.3369700723999243,0,0.0018414991210361498
320,7.098338945731031e-05,0.3369711815153846,0,0.0018983128877081423
321,6.87877976029358e-05,0.33697225632472216,0,0.0016659262549978404
322,6.666004097646144e-05,0.33697329788786234,0,0.001671424361449958
323,6.45980276155339e-05,0.3369743072320439,0,0.0016809544126337173
324,6.259972987300577e-05,0.3369752853528232,0,0.0016633604719867856
325,6.06631824507306e-05,0.3369762332150489,0,0.0018601926829732163
326,5.878648049415652e-05,0.33697715175380666,0,0.0017242061833905309
327,5.696777774212569e-05,0.33697804187533387,0,0.0017286046685521805
328,5.5205284728451764e-05,0.3369789044579078,0,0.0017176084556478344
329,5.349726705206753e-05,0.33697974035270545,0,0.0017494974730701829
330,5.184204368079148e-05,0.3369805503846379,0,0.001826104422970043
331,5.023798531871709e-05,0.33698133535315855,0,0.001850296091359449
332,4.868351282661526e-05,0.3369820960330465,0,0.0019177395305056688
333,4.717709567793327e-05,0.3369828331751665,0,0.0021039420690180943
334,4.571725047108205e-05,0.33698354750720505,0,0.0017931157842572265
335,4.430253948433521e-05,0.3369842397343845,0,0.0016677589571484353
336,4.293156927377695e-05,0.33698491054015445,0,0.001671057821019839
337,4.16029893176989e-05,0.33698556058686246,0,0.0016662927954279594
338,4.031549069503926e-05,0.33698619051640466,0,0.0016684920380087842
339,3.9067804813358586e-05,0.3369868009508548,0,0.0016655597145676104
340,3.785870216817949e-05,0.3369873924930762,0,0.001684619816935018
341,3.668699114331431e-05,0.3369879657273128,0,0.0016695916592992521
342,3.555151684804525e-05,0.3369885212197635,0,0.001812542427054753
343,3.445115998824966e-05,0.3369890595191384,0,0.001850662631789679
344,3.3384835774884214e-05,0.33698958115719735,0,0.0017663583328568766
345,3.235149285960026e-05,0.3369900866492733,0,0.002017805067934586
346,3.1350112313803524e-05,0.33699057649477815,0,0.0017286046685521805
347,3.0379706624762692e-05,0.33699105117769423,0,0.0017319035324233623
348,2.943931873568978e-05,0.33699151116704945,0,0.0017154092130670096
349,2.8528021105762857e-05,0.33699195691737927,0,0.001709178025754543
350,2.764491480627962e-05,0.33699238886917304,0,0.002852417627369097
351,2.6789128635199e-05,0.33699280744930804,0,0.0019870156718025944
352,2.595981827024918e-05,0.33699321307146846,0,0.0018997790494287292
353,2.515616543646848e-05,0.33699360613655344,0,0.0018693561937268566
354,2.4377377109800757e-05,0.3369939870330708,0,0.0018107097249040471
355,2.3622684736476773e-05,0.33699435613751977,0,0.0017898169203859338
356,2.2891343482996096e-05,0.3369947138147617,0,0.0017942154055476944
357,2.2182631500868022e-05,0.3369950604183789,0,0.001786518056514641
358,2.1495849225096342e-05,0.33699539629102304,0,0.002044195978904928
359,2.0830318683003057e-05,0.33699572176475245,0,0.001968322109865306
360,2.018538283409671e-05,0.3369960371613593,0,0.0019206718539468426
361,1.9560404921639685e-05,0.33699634279268614,0,0.0018524953339402739
362,1.895476784800898e-05,0.33699663896093374,0,0.0018103431844740392
363,1.8367873571456528e-05,0.33699692595895836,0,0.0017289712089822995
364,1.7799142517871402e-05,0.3369972040705601,0,0.0017626929285553539
365,1.724801301153378e-05,0.3369974735707635,0,0.0017516967156511187
366,1.671394072205734e-05,0.33699773472608724,0,0.0019998445868576464
367,1.6196398134493695e-05,0.33699798779480805,0,0.0018041119971614616
368,1.569487402434261e-05,0.3369982330272147,0,0.001826470963400162
369,1.5208872962878262e-05,0.33699847066585475,0,0.0019859160505122375
370,1.4737914822780807e-05,0.3369987009457739,0,0.0018363675550141512
371,1.4281534310760235e-05,0.3369989240947474,0,0.0017516967156511187
372,1.3839280511684926e-05,0.3369991403335055,0,0.0017590275242539422
373,1.3410716439836434e-05,0.3369993498759498,0,0.0017674579541472335
374,1.2995418612563037e-05,0.3369995529293657,0,0.0018928147812560248
375,1.2592976635562858e-05,0.3369997496946256,0,0.0017762549244707548
376,1.2202992793315659e-05,0.336999940366388,0,0.0018015462141505179
377,1.1825081665278736e-05,0.33700012513328903,0,0.00178688459694476
378,1.1458869741173827e-05,0.33700030417812876,0,0.001773322601029581
379,1.1103995055397609e-05,0.33700047767805147,0,0.0017542624986621735
380,1.0760106829980909e-05,0.33700064580472067,0,0.0017678244945774635
381,1.0426865131023255e-05,0.33700080872448834,0,0.0017696571967280583
382,1.0103940531670796e-05,0.33700096659855916,0,0.0017648921711361787
383,9.79101379087327e-06,0.3370011195831496,0,0.0019232376369577864
384,9.487775534333664e-06,0.33700126782964235,0,0.0017909165416762907
385,9.193925955885973e-06,0.3370014114847354,0,0.001812175886624634
386,8.909174516166796e-06,0.33700155069058724,0,0.0017692906562979394
387,8.633239660923997e-06,0.33700168558495697,0,0.001761226766834767
388,8.365848540567433e-06,0.3370018163013404,0,0.0017711233584486452
389,8.106736745061571e-06,0.337001942969102,0,0.0017799203287720555
390,7.855648037846663e-06,0.3370020657136026,0,0.0017571948221032363
391,7.6123341092235175e-06,0.3370021846563231,0,0.0018715554363077924
392,7.376554326081475e-06,0.3370022999149844,0,0.0017824861117831103
393,7.148075499965878e-06,0.3370024116036641,0,0.001774422222319938
394,6.926671654257366e-06,0.33700251983290874,0,0.0018169409122165137
395,6.712123799816616e-06,0.3370026247098431,0,0.0017121103491957168
396,6.504219722258675e-06,0.33700272633827627,0,0.001749497473070294
397,6.302753772960412e-06,0.33700282481880395,0,0.0018616588446938032
398,6.107526661809637e-06,0.3370029202489081,0,0.0018477303083483942
399,5.9183452663716385e-06,0.33700301272305283,0,0.0017121103491957168
400,5.735022435157666e-06,0.33700310233277836,0,0.001914074126204257
401,5.557376810912118e-06,0.33700318916679106,0,0.0018239051803892181
402,5.385232643616289e-06,0.3370032733110511,0,0.0018363675550140401
403,5.21841962161651e-06,0.3370033548488577,0,0.0018022792950107558
404,5.0567727016004316e-06,0.3370034338609312,0,0.0018088770227533413
405,4.9001319494881845e-06,0.3370035104254928,0,0.0019664894077146
406,4.748342377701442e-06,0.3370035846183425,0,0.0017069787831738292
407,4.601253794145332e-06,0.33700365651293307,0,0.0017058791618833613
408,4.4587206553467484e-06,0.3370037261804433,0,0.0018305029081316926
409,4.320601920453082e-06,0.33700379368984834,0,0.0019232376369577864
410,4.1867609136547745e-06,0.3370038591079876,0,0.0017249392642507688
411,4.057065187572373e-06,0.3370039224996311,0,0.0017018472171517196
412,3.931386395185366e-06,0.3370039839275435,0,0.0017029468384421875
413,3.8096001603940555e-06,0.33700404345254603,0,0.0017447324474784143
414,3.6915859577477117e-06,0.33700410113357665,0,0.0016985483532804269
415,3.57722698948737e-06,0.33700415702774833,0,0.001708811485324424
416,3.4664100746970017e-06,0.3370042111904058,0,0.001708811485324424
417,3.3590255340623654e-06,0.33700426367517977,0,0.0018733881384584983
418,3.254967084712068e-06,0.33700431453404045,0,0.0017810199500625234
419,3.1541317313255046e-06,0.3370043638173488,0,0.0018697227341569755
420,3.0564196685858858e-06,0.3370044115739061,0,0.0020090080976111757
421,2.961734178318076e-06,0.33700445785100264,0,0.0018286702059810978
422,2.8699815367641546e-06,0.3370045026944641,0,0.0017637925498458218
423,2.781070924003093e-06,0.3370045461486973,0,0.0017843188139338162
424,2.694914327500131e-06,0.33700458825673363,0,0.0017681910350075825
425,2.6114264608662063e-06,0.3370046290602721,0,0.00184992955092933
426,2.530524679696111e-06,0.3370046685997202,0,0.0017920161629667586
427,2.4521288943049613e-06,0.33700470691423423,0,0.0017538959582319436
428,2.3761614972653278e-06,0.3370047440417576,0,0.0017256723451110068
429,2.302547283145051e-06,0.3370047800190589,0,0.0017194411577985402
430,2.2312133733312645e-06,0.33700481488176787,0,0.001723473102530182
431,2.162089147161872e-06,0.33700484866441077,0,0.00171101072790536
432,2.0951061707047414e-06,0.3370048814004447,0,0.0016948829489790151
433,2.0301981267095703e-06,0.3370049131222904,0,0.001709544566184662
434,1.9673007527268305e-06,0.3370049438613647,0,0.0017927492438271075
435,1.9063517749939862e-06,0.3370049736481112,0,0.0017887172990955769
436,1.8472908492536688e-06,0.3370050025120307,0,0.001824638261249456
437,1.7900594980677087e-06,0.3370050304817104,0,0.001916273368785082
438,1.734601056631313e-06,0.3370050575848519,0,0.0017938488651174644
439,1.6808606120161107e-06,0.33700508384829897,0,0.001723473102530182
440,1.6287849528770493e-06,0.3370051092980638,0,0.0017058791618833613
441,1.57832251647394e-06,0.33700513395935316,0,0.0017080784044641861
442,1.5294233361995424e-06,0.3370051578565928,0,0.001685352897795367
443,1.4820389918762666e-06,0.337005181013452,0,0.0018865835939435582
444,1.4361225620582174e-06,0.33700520345286705,0,0.0017909165416764017
445,1.391628580912907e-06,0.33700522519706366,0,0.0018422322018963877
446,1.3485129885804081e-06,0.3370052462675791,0,0.0018975798068477934
447,1.306733089269374e-06,0.3370052666852836,0,0.0019881152930930623
448,1.26624751065757e-06,0.33700528647040096,0,0.0017568282816731173
449,1.2270161609678754e-06,0.3370053056425285,0,0.001698181812850308
450,1.189000189236178e-06,0.33700532422065643,0,0.0017069787831738292
451,1.1521619492568802e-06,0.3370053422231869,0,0.0018576268999622725
452,1.1164649605308052e-06,0.33700535966795186,0,0.001774055681889819
453,1.0818738707812914e-06,0.3370053765722311,0,0.0017044130001627744
454,1.0483544236258857e-06,0.337005392952769,0,0.0017157757534972395
455,1.015873422285929e-06,0.3370054088257912,0,0.0017077118640339561
456,9.84398701095457e-07,0.33700542420702095,0,0.0016904844638173655
457,9.538990873372843e-07,0.3370054391116941,0,0.0016945164085488962
458,9.243443760895143e-07,0.337005453554575,0,0.001685352897795367
459,8.957052959057688e-07,0.3370054675499703,0,0.0016941498681187772
460,8.679534841057879e-07,0.33700548111174344,0,0.001800080052430042
461,8.410614537462946e-07,0.3370054942533287,0,0.0017407005027468836
462,8.15002572943091e-07,0.3370055069877439,0,0.0016992814341407758
463,7.897510299822996e-07,0.3370055193276037,0,0.00171064418747513
464,7.652818163825237e-07,0.3370055312851321,0,0.001708811485324424
465,7.415706976543479e-07,0.33700554287217427,0,0.001697082191559951
466,7.185941874807145e-07,0.33700555410020844,0,0.0017055126214531313
467,6.963295296549821e-07,0.3370055649803574,0,0.0017381347197358288
468,6.747546719074182e-07,0.3370055755233991,0,0.0018957471046970875
469,6.5384824400605e-07,0.3370055857397779,0,0.0018737546788886172
470,6.33589540437185e-07,0.3370055956396144,0,0.0017934823246874565
471,6.13958493787814e-07,0.33700560523271594,0,0.0020258689573976474
472,5.949356603959788e-07,0.33700561452858563,0,0.0019074763984617826
473,5.765021984724394e-07,0.3370056235364325,0,0.0018026458354408748
474,5.586398477905319e-07,0.3370056322651801,0,0.0017700237371582883
475,5.413309169671754e-07,0.3370056407234757,0,0.0017718564393089942
476,5.245582603841115e-07,0.33700564891969853,0,0.001785418435224173
477,5.083052652191111e-07,0.33700565686196826,0,0.002046395221485753
478,4.925558303031652e-07,0.3370056645581532,0,0.002172851669884901
479,4.772943576827893e-07,0.3370056720158775,0,0.0019052771558808468
480,4.6250572832001735e-07,0.33700567924252944,0,0.002250191700644999
481,4.481752940918571e-07,0.3370056862452684,0,0.0018715554363077924
482,4.3428885952712104e-07,0.3370056930310319,0,0.0018015462141505179
483,4.208326684004837e-07,0.33700569960654236,0,0.0018099766440438092
484,4.077933924567789e-07,0.3370057059783141,0,0.0018396664188853329
485,3.9515811534746037e-07,0.3370057121526596,0,0.002003143450728939
486,3.829143200156926e-07,0.3370057181356959,0,0.0018477303083485053
487,3.710498781145377e-07,0.3370057239333502,0,0.0017828526522132293
488,3.595530376904188e-07,0.33700572955136643,0,0.001772589520169232
489,3.484124080493922e-07,0.3370057349953103,0,0.001735202396294655
490,3.37616954372566e-07,0.33700574027057517,0,0.0017817530309228724
491,3.271559832623838e-07,0.3370057453823875,0,0.0017769880053308817
492,3.1701912982240454e-07,0.33700575033581137,0,0.0017700237371582883
493,3.071963533829436e-07,0.33700575513575437,0,0.0019111418027630833
494,2.976779235816518e-07,0.33700575978697195,0,0.0017942154055476944
495,2.8845441199520927e-07,0.33700576429407214,0,0.0018488299296388622
496,2.795166797187054e-07,0.3370057686615202,0,0.0017564617412429984
497,2.7085587283454116e-07,0.33700577289364325,0,0.0017920161629668696
498,2.6246341238572723e-07,0.3370057769946341,0,0.0018041119971614616
499,2.543309841687713e-07,0.3370057809685557,0,0.0017846853543639352
500,2.464505308164e-07,0.3370057848193453,0,0.0017898169203860448
501,2.388142471346222e-07,0.3370057885508178,0,0.001955859735240484
502,2.3141456645392466e-07,0.3370057921666705,0,0.0018664238702856828
503,2.2424416033783867e-07,0.3370057956704855,0,0.0018836512705023845
504,2.1729592247776708e-07,0.33700579906573425,0,0.0017692906562979394
505,2.1056297164201432e-07,0.3370058023557807,0,0.0018349013932934533
506,2.0403863702778136e-07,0.3370058055438844,0,0.001838933338024984
507,1.9771645445865182e-07,0.337005808633204,0,0.0018543280360909797
508,1.9159016137471063e-07,0.3370058116268002,0,0.0018550611169512177
509,1.8565368753442613e-07,0.33700581452763917,0,0.0023484245359232103
510,1.7990115320359878e-07,0.33700581733859464,0,0.0019320346072813077
511,1.7432685851109797e-07,0.33700582006245183,0,0.0018184070739371005
512,1.6892528011819286e-07,0.3370058227019093,0,0.0018019127545806368
513,1.6369106756175533e-07,0.3370058252595822,0,0.001774055681889819
514,1.5861903584352133e-07,0.3370058277380047,0,0.0017513301752209998
515,1.5370416004550913e-07,0.33700583013963215,0,0.0018587265212527404
516,1.489415699593155e-07,0.33700583246684424,0,0.001966855948144719
517,1.4432654733137484e-07,0.3370058347219465,0,0.00258191078992398
518,1.3985452046449964e-07,0.3370058369071734,0,0.0018187736143672195
519,1.3552105812553172e-07,0.33700583902468995,0,0.0018323356102825095
520,1.313218694135032e-07,0.33700584107659415,0,0.001800813133290169
521,1.2725279033287684e-07,0.337005843064919,0,0.0017909165416764017
522,1.2330979112101792e-07,0.33700584499163444,0,0.0017806534096324045
523,1.1948896661700958e-07,0.33700584685864954,0,0.001800080052430042
524,1.1578653064808764e-07,0.33700584866781413,0,0.0017773545457611117
525,1.1219881371204998e-07,0.33700585042092057,0,0.001941564658464956
526,1.0872226315072897e-07,0.3370058521197059,0,0.0017905500012462827
527,1.0535343337308989e-07,0.33700585376585335,0,0.0017978808098491061
528,1.0208898776342679e-07,0.3370058553609938,0,0.0017425332048975894
529,9.892569077796232e-08,0.3370058569067077,0,0.0017436328261879463
530,9.586040949222108e-08,0.33700585840452657,0,0.001735935477155004
531,9.289010657193009e-08,0.33700585985593445,0,0.0017703902775884073
532,9.001183892687337e-08,0.33700586126236953,0,0.0017923827033969886
533,8.722275566391824e-08,0.33700586262522503,0,0.0018011796737203989
534,8.452009255671689e-08,0.3370058639458515,0,0.002658884280253959
535,8.19011717542728e-08,0.3370058652255573,0,0.0019639236247036562
536,7.936339877639975e-08,0.33700586646561037,0,0.0017920161629667586
537,7.690426082063162e-08,0.3370058676672395,0,0.001826837503830392
538,7.452131944862828e-08,0.33700586883163514,0,0.0017645256307061707
539,7.22122142915449e-08,0.33700586995995097,0,0.0017637925498458218
540,6.997465835933969e-08,0.33700587105330504,0,0.0017527963369416977
541,6.780643350967619e-08,0.33700587211278055,0,0.0017557286603828715
542,6.570539190509095e-08,0.3370058731394272,0,0.0018217059378085043
543,6.366945279334679e-08,0.3370058741342625,0,0.0017718564393089942
544,6.169659835103536e-08,0.33700587509827185,0,0.001761226766834767
545,5.978487280233757e-08,0.3370058760324105,0,0.0017659917924266466
546,5.7932384146808236e-08,0.337005876937604,0,0.0017722229797390021
547,5.61372949514638e-08,0.33700587781474917,0,0.0017630594689854728
548,5.439782851945907e-08,0.3370058786647152,0,0.0017703902775882963
549,5.271225977931948e-08,0.33700587948834426,0,0.0017564617412428873
550,5.107891980216106e-08,0.33700588028645245,0,0.0017564617412431094
551,4.949618995220284e-08,0.3370058810598304,0,0.0018869501343736772
552,4.796250122757195e-08,0.33700588180924446,0,0.0018019127545805258
553,4.647633539828222e-08,0.3370058825354372,0,0.001761959847695227
554,4.5036220044925024e-08,0.3370058832391281,0,0.0017670914137171145
555,4.3640727191707196e-08,0.3370058839210145,0,0.0017553621199526415
556,4.2288473785234704e-08,0.33700588458177194,0,0.0017549955795224115
557,4.097812258962996e-08,0.33700588522205505,0,0.0017663583328566546
558,3.970837268718608e-08,0.33700588584249835,0,0.0017659917924266466
559,3.847796706951678e-08,0.33700588644371665,0,0.001941564658465067
560,3.728568667704657e-08,0.3370058870263055,0,0.0017773545457611117
561,3.6130349427565545e-08,0.3370058875908422,0,0.001762326388125235
562,3.501081191625843e-08,0.3370058881378861,0,0.0017527963369416977
563,3.39259634760114e-08,0.3370058886679793,0,0.0017593940646840611
564,3.287472985502582e-08,0.337005889181647,0,0.0017641590902759408
565,3.18560711351501e-08,0.33700588967939815,0,0.0017597606051142911
566,3.086897494564145e-08,0.33700589016172583,0,0.001762326388125235
567,2.991246493555533e-08,0.3370058906291081,0,0.0017564617412428873
568,2.898559391811828e-08,0.33700589108200796,0,0.0019115083431930913
569,2.8087442732749324e-08,0.33700589152087435,0,0.0017909165416765127
570,2.7217121063849437e-08,0.33700589194614183,0,0.001785418435224173
571,2.6373766733034376e-08,0.3370058923582319,0,0.0018055781588821596
572,2.555654582403477e-08,0.3370058927575529,0,0.0017799203287720555
573,2.476464629891373e-08,0.3370058931445005,0,0.0017802868692022855
574,2.399728511737198e-08,0.3370058935194581,0,0.0017564617412431094
575,2.3253700770498043e-08,0.3370058938827971,0,0.0017689241158678204
576,2.253315754124907e-08,0.3370058942348778,0,0.001864957708565207
577,2.1834940883147524e-08,0.33700589457604874,0,0.0018425987423265067
578,2.1158359210515787e-08,0.33700589490664806,0,0.001785784975654403
579,2.0502742247019423e-08,0.3370058952270034,0,0.0017821195713529914
580,1.9867440151366544e-08,0.33700589553743215,0,0.0017703902775885183
581,1.9251822580557132e-08,0.3370058958382419,0,0.0017942154055476944
582,1.8655282242596716e-08,0.33700589612973064,0,0.0017835857330736893
583,1.8077225674706376e-08,0.33700589641218737,0,0.0017949484864079324
584,1.7517079745066333e-08,0.3370058966858917,0,0.0017920161629667586
585,1.6974292409155378e-08,0.33700589695111505,0,0.001928002662549666
586,1.64483230091772e-08,0.33700589720812013,0,0.001889515917384843
587,1.593865103788339e-08,0.3370058974571615,0,0.0019232376369577864
588,1.5444771787886946e-08,0.3370058976984861,0,0.0020995435838564447
589,1.4966196795751507e-08,0.3370058979323329,0,0.0019991115059974085
590,1.450244954681601e-08,0.33700589815893367,0,0.0018030123758712158
591,1.405307321900029e-08,0.3370058983785129,0,0.001798980431139574
592,1.3617621176520434e-08,0.33700589859128827,0,0.0017879842182351169
593,1.3195662021403542e-08,0.3370058987974705,0,0.002055192191809052
594,1.2786777234263802e-08,0.3370058989972639,0,0.0018173074526466326
595,1.2390562312281084e-08,0.33700589919086643,0,0.0018935478621162627
596,1.200662452099932e-08,0.3370058993784699,0,0.0018323356102825095
597,1.1634583518826958e-08,0.3370058995602603,0,0.0019195722326563747
598,1.1274071669287178e-08,0.3370058997364177,0,0.0019386323350236712
599,1.092472950298129e-08,0.3370058999071166,0,0.001995446101695997
600,1.0586213253227506e-08,0.3370059000725262,0,0.002289044986240052
601,1.0258185169365053e-08,0.3370059002328103,0,0.0019595251395418956
602,9.940321961388054e-09,0.33700590038812783,0,0.001940098496744369
603,9.632308714535576e-09,0.33700590053863266,0,0.0018286702059810978
604,9.333838507652459e-09,0.3370059006844739,0,0.0018601926829733273
605,9.044617041431557e-09,0.33700590082579596,0,0.0018477303083483942
606,8.764357475876672e-09,0.33700590096273914,0,0.0018184070739371005
607,8.492782151148237e-09,0.3370059010954388,0,0.0018107097249040471
608,8.229622143474113e-09,0.3370059012240266,0,0.0020361320894417556
609,7.974616147987668e-09,0.33700590134863007,0,0.0021409626524624414
610,7.727512595090413e-09,0.3370059014693725,0,0.0020262354978279884
611,7.488065362215579e-09,0.33700590158637345,0,0.0018590930616828594
612,7.256037132252757e-09,0.3370059016997491,0,0.0018312359889920415
613,7.0311993866090106e-09,0.33700590180961154,0,0.0018649577085649849
614,6.813327409205261e-09,0.33700590191606977,0,0.0019716209737368207
615,6.602208058037462e-09,0.3370059020192293,0,0.001851029172219798
616,6.39762959969703e-09,0.33700590211919224,0,0.0024217326219515556
617,6.199390147065831e-09,0.3370059022160577,0,0.0021783497763370185
618,6.007293676391079e-09,0.33700590230992167,0,0.0021812820997781923
619,5.821149090534661e-09,0.33700590240087713,0,0.0019195722326563747
620,5.640772765547197e-09,0.3370059024890142,0,0.002278048773335817
621,5.465986246955268e-09,0.3370059025744202,0,0.0018997790494288402
622,5.296615181171749e-09,0.3370059026571799,0,0.00198041794406012
623,5.132491827375407e-09,0.3370059027373751,0,0.002261554453979464
624,4.973454745260675e-09,0.33700590281508525,0,0.0018682565724366107
625,4.819345443551892e-09,0.33700590289038757,0,0.0018272040442603998
626,4.670011696794596e-09,0.3370059029633565,0,0.0018803524066310917
627,4.525305442870664e-09,0.3370059030340643,0,0.001824638261249456
628,4.385081568691884e-09,0.3370059031025813,0,0.0017949484864079324
629,4.2492040303043765e-09,0.33700590316897505,0,0.0018752208406092041
630,4.117536651915277e-09,0.33700590323331153,0,0.0017766214649006518
631,3.989948850480207e-09,0.3370059032956545,0,0.0024506893159330634
632,3.866314907119417e-09,0.33700590335606573,0,0.0018656907894254449
633,3.746511288704735e-09,0.3370059034146049,0,0.0018081439418931033
634,3.6304203532289137e-09,0.33700590347133025,0,0.001786884596944871
635,3.5179272342422685e-09,0.3370059035262979,0,0.0017773545457611117
636,3.4089193898245718e-09,0.33700590357956217,0,0.001786518056514641
637,3.303288455269726e-09,0.3370059036311761,0,0.0017766214649008738
638,3.2009321790371636e-09,0.3370059036811907,0,0.0017758883840406359
639,3.1017464360849623e-09,0.33700590372965544,0,0.0018414991210360387
640,3.005635122732553e-09,0.33700590377661854,0,0.0017696571967282804
641,2.9125003034313757e-09,0.33700590382212636,0,0.0017648921711364007
642,2.822252549716797e-09,0.33700590386622403,0,0.001761959847695227
643,2.734801621273597e-09,0.3370059039089553,0,0.0017549955795224115
644,2.650059519049286e-09,0.33700590395036245,0,0.0017469316900593501
645,2.5679440102122086e-09,0.3370059039904866,0,0.001748764392209834
646,2.488372286002516e-09,0.3370059040293674,0,0.0017527963369414756
647,2.4112671789811024e-09,0.33700590406704345,0,0.0017564617412431094
648,2.3365495024907368e-09,0.337005904103552,0,0.0020856150475110358
649,2.2641483965468723e-09,0.3370059041389294,0,0.0017828526522132293
650,2.1939912525636984e-09,0.3370059041732105,0,0.0017773545457611117
651,2.126007238312244e-09,0.33700590420642934,0,0.0017931157842574486
652,2.0601295530608965e-09,0.3370059042386189,0,0.0017396008814563046
653,1.99629347080732e-09,0.337005904269811,0,0.0017425332048974784
654,1.9344357712891558e-09,0.3370059043000365,0,0.0017516967156512298
655,1.874494136300253e-09,0.3370059043293255,0,0.0017333696941439491
656,1.8164101056594717e-09,0.3370059043577069,0,0.001811809346194515
657,1.7601260310362576e-09,0.33700590438520883,0,0.0017890838395255848
658,1.705586102906942e-09,0.3370059044118587,0,0.0017843188139337052
659,1.6527361632046045e-09,0.33700590443768264,0,0.001722373481239714
660,1.6015238440969526e-09,0.3370059044627065,0,0.0017275050472618236
661,1.5518985818641085e-09,0.3370059044869549,0,0.0017275050472618236
662,1.5038106732090384e-09,0.33700590451045187,0,0.0017264054259711337
663,1.4572126560974397e-09,0.3370059045332209,0,0.0017128434300559547
664,1.4120583036181245e-09,0.33700590455528434,0,0.0017201742386587782
665,1.3683041852341482e-09,0.337005904576664,0,0.0022927103905414636
666,1.3259054132408465e-09,0.33700590459738133,0,0.001838200257164635
667,1.2848199101855862e-09,0.33700590461745666,0,0.0017385012601658367
668,1.2450075762004964e-09,0.3370059046369099,0,0.001722006940809484
669,1.2064295187852458e-09,0.3370059046557603,0,0.0017066122427435992
670,1.1690472409564556e-09,0.3370059046740267,0,0.0017176084556478344
671,1.1328222873641103e-09,0.3370059046917271,0,0.0017128434300561768
672,1.0977200676220988e-09,0.3370059047088789,0,0.0017146761322066606
673,1.0637054848050553e-09,0.3370059047254993,0,0.0017927492438269965
674,1.0307451003832568e-09,0.33700590474160474,0,0.0017758883840404138
675,9.988059615495537e-10,0.33700590475721104,0,0.0017128434300559547
676,9.678567530757576e-10,0.33700590477233383,0,0.0017168753747875964
677,9.37866173611468e-10,0.33700590478698794,0,0.001709178025754765
678,9.088056002193312e-10,0.3370059048011881,0,0.0017128434300559547
679,8.806449736109556e-10,0.33700590481494813,0,0.0017282381281220616
680,8.533563300439084e-10,0.33700590482828185,0,0.001914074126204257
681,8.269136625438378e-10,0.3370059048412024,0,0.002058857596110464
682,8.012906727028479e-10,0.3370059048537225,0,0.0026017039731518476
683,7.764614368133138e-10,0.3370059048658547,0,0.0018425987423265067
684,7.524016826243596e-10,0.337005904877611,0,0.0017656252519966387
685,7.290879774912717e-10,0.337005904889003,0,0.0017590275242538311
686,7.064957854852061e-10,0.337005904900042,0,0.0017670914137171145
687,6.846042135966179e-10,0.33700590491073895,0,0.0017912830821065207
688,6.633913418596649e-10,0.3370059049211045,0,0.0019741867567477644
689,6.428342164133127e-10,0.3370059049311487,0,0.0019008786707190861
690,6.229155732895286e-10,0.3370059049408818,0,0.0021259344948267866
691,6.036131525166688e-10,0.33700590495031324,0,0.0017854184352243951
692,5.849094819598832e-10,0.3370059049594525,0,0.0017758883840406359
693,5.667854033331032e-10,0.33700590496830846,0,0.0017758883840406359
694,5.492221122338492e-10,0.3370059049768901,0,0.0017678244945773525
695,5.322039545174739e-10,0.3370059049852058,0,0.0017898169203860448
696,5.157128751820395e-10,0.33700590499326377,0,0.0017681910350075825
697,4.997328731382034e-10,0.3370059050010721,0,0.0017810199500625234
698,4.842475795352463e-10,0.3370059050086384,0,0.0034667393882881203
699,4.6924258229053e-10,0.3370059050159704,0,0.0020511602470776324
700,4.547019913370143e-10,0.3370059050230751,0,0.0023352290804381504
701,4.4061239379278305e-10,0.33700590502995964,0,0.001863491546844509
702,4.2695915553059294e-10,0.33700590503663086,0,0.0017806534096325155
703,4.137294604134034e-10,0.33700590504309547,0,0.001786151516084633
704,4.0090990943708604e-10,0.3370059050493596,0,0.0017678244945773525
705,3.8848673583613547e-10,0.3370059050554297,0,0.002046028681055745
706,3.7644940636960555e-10,0.3370059050613118,0,0.0018469972274881563
707,3.647841959053544e-10,0.3370059050670115,0,0.0017824861117829993
708,3.534805295690724e-10,0.3370059050725347,0,0.0017780876266215717
709,3.4252770064746585e-10,0.33700590507788664,0,0.001762326388125235
710,3.3191394077647374e-10,0.3370059050830728,0,0.0017659917924266466
711,3.2162862650952917e-10,0.33700590508809825,0,0.001760860226404759
712,3.116631813737669e-10,0.337005905092968,0,0.0017575613625333553
713,3.020054206714917e-10,0.3370059050976868,0,0.0017626929285554649
714,2.926473646747141e-10,0.3370059051022594,0,0.0025225312402408218
715,2.8357965281555764e-10,0.3370059051066904,0,0.002041630195893873
716,2.7479212655334706e-10,0.337005905110984,0,0.00198041794406012
717,2.6627729882156004e-10,0.33700590511514456,0,0.0018022792950107558
718,2.5802586456347143e-10,0.33700590511917616,0,0.0017711233584485342
719,2.5003143999668964e-10,0.3370059051230829,0,0.0017645256307061707
720,2.422835890247832e-10,0.3370059051268686,0,0.0017689241158678204
721,2.347759556209361e-10,0.337005905130537,0,0.0017674579541471225
722,2.2750092781853581e-10,0.33700590513409173,0,0.0026493542290702
723,2.2045135855686127e-10,0.33700590513753625,0,0.0018151082100659188
724,2.136201840419183e-10,0.33700590514087414,0,0.0018209728569480443
725,2.070015547861459e-10,0.33700590514410844,0,0.0018055781588819375
726,2.0058733840588872e-10,0.33700590514724266,0,0.0017887172990955769
727,1.9437119275211856e-10,0.3370059051502797,0,0.001760860226404759
728,1.8834873244388817e-10,0.3370059051532227,0,0.0017670914137171145
729,1.8251234551458495e-10,0.3370059051560744,0,0.0017678244945775745
730,1.768570498383859e-10,0.3370059051588379,0,0.0019848164292217696
731,1.7137740532247037e-10,0.33700590516151563,0,0.0018451645253374505
732,1.6606656327855518e-10,0.33700590516411033,0,0.0018290367464113277
733,1.6092113058752133e-10,0.33700590516662476,0,0.0018011796737202879
734,1.559346471391443e-10,0.33700590516906126,0,0.0017964146481284082
735,1.5110264428574993e-10,0.33700590517142226,0,0.0017832191926434593
736,1.4642068807413366e-10,0.3370059051737101,0,0.0017828526522132293
737,1.4188326902253579e-10,0.337005905175927,0,0.0017960481076981782
738,1.3748711891192755e-10,0.3370059051780752,0,0.0019111418027630833
739,1.3322667968829194e-10,0.33700590518015683,0,0.001916273368785193
740,1.29098481904677e-10,0.3370059051821741,0,0.0018807189470610997
741,1.2509803609672687e-10,0.3370059051841287,0,0.0018033789163012237
742,1.2122230996780559e-10,0.3370059051860228,0,0.0017883507586653469
743,1.174657593416839e-10,0.33700590518785817,0,0.0017795537883418255
744,1.1382621234456991e-10,0.3370059051896367,0,0.0017736891414597
745,1.102988880785638e-10,0.3370059051913602,0,0.0017971477289886462
746,1.0688105261946745e-10,0.3370059051930302,0,0.0019499950883583583
747,1.0356929203148013e-10,0.33700590519464846,0,0.001901611751579324
748,1.0035955400056196e-10,0.33700590519621654,0,0.001903444453730252
749,9.725011768102476e-11,0.3370059051977361,0,0.0017920161629669806
