0.1836,0.1668,0.1690,0.1602
0.0998,0.1166,0.1126,0.1509
0.1581,0.1317,0.1338,0.1342
0.0891,0.0821,0.0692,0.1208
0.2092,0.1604,0.1401,0.1137
0.0000,0.0000,0.0000,0.0000
0.1242,0.1089,0.1751,0.0356
0.0000,0.0000,0.0000,0.0000
0.1452,0.1925,0.2242,0.2763
0.2092,0.3944,0.2542,0.2343
0.4984,0.2586,0.2249,0.1299
0.0000,0.0000,0.0000,0.0000
0.0000,0.0000,0.0000,0.0000
0.2128,0.3486,0.5251,0.3133
0.5341,0.6016,0.7459,0.5448
0.0000,0.0000,0.0000,0.0000
