0.2029,0.1900,0.1980,0.1803
0.1064,0.1091,0.0879,0.1700
0.1536,0.1446,0.1471,0.1391
0.0909,0.0922,0.0847,0.1300
0.2222,0.1461,0.1377,0.1471
0.0000,0.0000,0.0000,0.0000
0.1714,0.0982,0.1445,0.0356
0.0000,0.0000,0.0000,0.0000
0.1640,0.2334,0.2207,0.2968
0.2644,0.4008,0.3256,0.2218
0.3942,0.3028,0.2760,0.1619
0.0000,0.0000,0.0000,0.0000
0.0000,0.0000,0.0000,0.0000
0.2694,0.3698,0.5620,0.3669
0.5297,0.7409,0.6804,0.6249
0.0000,0.0000,0.0000,0.0000
