0.2679,0.2632,0.2634,0.2523
0.1044,0.1557,0.1716,0.2441
0.2383,0.2311,0.2360,0.2250
0.1410,0.1557,0.1412,0.2164
0.3007,0.2184,0.1926,0.1888
0.0000,0.0000,0.0000,0.0000
0.2510,0.1661,0.2055,0.0444
0.0000,0.0000,0.0000,0.0000
0.1995,0.2223,0.2125,0.3776
0.4070,0.4784,0.3831,0.2903
0.4312,0.4595,0.3311,0.2144
0.0000,0.0000,0.0000,0.0000
0.0000,0.0000,0.0000,0.0000
0.3262,0.5707,0.6248,0.3922
0.6620,0.8039,0.7614,0.7583
0.0000,0.0000,0.0000,0.0000
