0.2878,0.2782,0.2746,0.2691
0.1803,0.1994,0.1373,0.2404
0.2194,0.2235,0.2166,0.2251
0.1511,0.1547,0.1281,0.2119
0.3211,0.2639,0.2186,0.1714
0.0000,0.0000,0.0000,0.0000
0.1732,0.1737,0.1710,0.0673
0.0000,0.0000,0.0000,0.0000
0.2339,0.2678,0.2769,0.3692
0.3599,0.4369,0.3480,0.2551
0.4441,0.4076,0.2967,0.2039
0.0000,0.0000,0.0000,0.0000
0.0000,0.0000,0.0000,0.0000
0.3339,0.4355,0.5255,0.4490
0.6118,0.6970,0.7387,0.6360
0.0000,0.0000,0.0000,0.0000
