0.4264,0.4149,0.4046,0.3953
0.3202,0.2466,0.2561,0.3743
0.3471,0.3336,0.3229,0.3342
0.2471,0.2203,0.2293,0.3197
0.4561,0.2750,0.2896,0.2371
0.0000,0.0000,0.0000,0.0000
0.3366,0.2308,0.2727,0.0588
0.0000,0.0000,0.0000,0.0000
0.2727,0.3328,0.3673,0.5203
0.4288,0.5720,0.3999,0.3218
0.5415,0.4686,0.3151,0.2774
0.0000,0.0000,0.0000,0.0000
0.0000,0.0000,0.0000,0.0000
0.4430,0.5966,0.6794,0.4697
0.6886,0.8292,0.7765,0.7349
0.0000,0.0000,0.0000,0.0000
