0.5808,0.5617,0.5632,0.5561
0.4366,0.3301,0.3426,0.5116
0.4891,0.4789,0.4709,0.4914
0.3252,0.3510,0.3387,0.4845
0.5999,0.3859,0.4531,0.4361
0.0000,0.0000,0.0000,0.0000
0.3283,0.2657,0.4445,0.1538
0.0000,0.0000,0.0000,0.0000
0.4216,0.4359,0.3339,0.6229
0.5932,0.6693,0.5174,0.4997
0.6262,0.4683,0.3943,0.3628
0.0000,0.0000,0.0000,0.0000
0.0000,0.0000,0.0000,0.0000
0.5571,0.5200,0.7729,0.5234
0.7721,0.8564,0.8301,0.8107
0.0000,0.0000,0.0000,0.0000
