0.5970,0.5854,0.5826,0.5778
0.2749,0.4353,0.3284,0.5560
0.5034,0.4640,0.4694,0.5268
0.3388,0.4446,0.2868,0.5145
0.6237,0.3246,0.4051,0.3645
0.0000,0.0000,0.0000,0.0000
0.3781,0.1526,0.3420,0.1831
0.0000,0.0000,0.0000,0.0000
0.3708,0.4791,0.4112,0.6554
0.5014,0.7058,0.4551,0.4230
0.6515,0.5117,0.4223,0.2819
0.0000,0.0000,0.0000,0.0000
0.0000,0.0000,0.0000,0.0000
0.4299,0.4674,0.7881,0.5938
0.7889,0.9157,0.8518,0.8426
0.0000,0.0000,0.0000,0.0000
