0.5590,0.4561,0.4857,0.4518
0.2887,0.1679,0.0810,0.1755
0.1333,0.2031,0.0810,0.0842
0.0858,0.0278,0.0232,0.0589
0.5798,0.3756,0.3835,0.3935
0.0000,0.0000,0.0000,0.0000
0.2052,0.1846,0.1871,0.0422
0.0000,0.0000,0.0000,0.0000
0.3897,0.4300,0.3799,0.6228
0.4225,0.6476,0.4135,0.3621
0.5339,0.4866,0.5028,0.2090
0.0000,0.0000,0.0000,0.0000
0.0000,0.0000,0.0000,0.0000
0.3424,0.5130,0.7635,0.5112
0.7081,0.8683,0.7814,0.7630
0.0000,0.0000,0.0000,0.0000
