
                           Best        Current           Mean
Iteration   f-count         f(x)         f(x)         temperature
     0          1       0.349018       0.349018              5
    10         11       0.349018       0.547826       0.454545
    20         21       0.349018       0.555096       0.238095
    30         31       0.349018       0.538973        0.16129
    40         41       0.349018        0.51986       0.121951
    50         51       0.349018       0.523763      0.0980392
    60         61       0.349018       0.521831      0.0819672
    70         71       0.349018       0.517847      0.0704225
    80         81       0.349018       0.518168      0.0617284
    90         91       0.349018        0.52167      0.0549451
   100        101       0.349018       0.518702       0.049505
   110        111       0.349018       0.512439       0.045045
   120        121       0.349018       0.509897      0.0413223
   130        131       0.349018       0.502937      0.0381679
   140        141       0.349018       0.509698       0.035461
   150        151       0.349018       0.509978      0.0331126
   160        161       0.349018       0.507924      0.0310559
   170        171       0.349018       0.501783      0.0292398
   180        181       0.349018       0.503098      0.0276243
   190        191       0.349018       0.504154       0.026178
   200        201       0.349018        0.50162      0.0248756
   210        211       0.349018       0.498129      0.0236967
   220        221       0.349018       0.496434      0.0226244
   230        231       0.349018       0.496081       0.021645
   240        241       0.349018       0.497894      0.0207469
   250        251       0.349018       0.497719      0.0199203
   260        261       0.349018        0.49612      0.0191571
   270        271       0.349018       0.494495      0.0184502
   280        281       0.349018       0.493367      0.0177936
   290        291       0.349018       0.491232      0.0171821
   300        301       0.349018       0.489901      0.0166113

                           Best        Current           Mean
Iteration   f-count         f(x)         f(x)         temperature
   310        311       0.349018       0.489227      0.0160772
   320        321       0.349018       0.488418      0.0155763
   330        331       0.349018       0.487699      0.0151057
   340        341       0.349018       0.487774      0.0146628
   350        351       0.349018       0.487289       0.014245
   360        361       0.349018        0.48595      0.0138504
   370        371       0.349018       0.484685      0.0134771
   380        381       0.349018       0.485067      0.0131234
   390        391       0.349018       0.483954      0.0127877
   400        401       0.349018       0.482463      0.0124688
   410        411       0.349018       0.483386      0.0121655
   420        421       0.349018       0.483416      0.0118765
   430        431       0.349018       0.482874      0.0116009
   440        441       0.349018       0.483574      0.0113379
   450        451       0.349018       0.483015      0.0110865
   460        461       0.349018       0.483107       0.010846
   470        471       0.349018       0.482105      0.0106157
   480        481       0.349018       0.480808       0.010395
   490        491       0.349018       0.480608      0.0101833
   500        501       0.349018       0.481633     0.00998004
   510        511       0.349018       0.480597     0.00978474
   520        521       0.349018       0.479406     0.00959693
   530        531       0.349018          0.479      0.0094162
   540        541       0.349018       0.478209     0.00924214
   550        551       0.349018       0.478305     0.00907441
   560        561       0.349018       0.477863     0.00891266
   570        571       0.349018       0.477243     0.00875657
   580        581       0.349018       0.476567     0.00860585
   590        591       0.349018       0.476354     0.00846024
   600        601       0.349018       0.476507     0.00831947

                           Best        Current           Mean
Iteration   f-count         f(x)         f(x)         temperature
   610        611       0.349018       0.476115     0.00818331
   620        621       0.349018       0.475669     0.00805153
   630        631       0.349018       0.475063     0.00792393
   640        641       0.349018       0.474733     0.00780031
   650        651       0.349018       0.474229     0.00768049
   660        661       0.349018       0.473842      0.0075643
   670        671       0.349018       0.473981     0.00745156
   680        681       0.349018        0.47334     0.00734214
   690        691       0.349018       0.472532     0.00723589
   700        701       0.349018       0.472414     0.00713267
   710        711       0.349018       0.471507     0.00703235
   720        721       0.349018       0.470942     0.00693481
   730        731       0.349018       0.469745     0.00683995
   740        741       0.349018        0.46938     0.00674764
   750        751       0.349018       0.468582     0.00665779
   760        761       0.349018       0.468057      0.0065703
   770        771       0.349018       0.467573     0.00648508
   780        781       0.349018       0.466473     0.00640205
   790        791       0.349018       0.465942     0.00632111
   800        801       0.349018       0.465824      0.0062422
   810        811       0.349018       0.464646     0.00616523
   820        821       0.349018       0.464084     0.00609013
   830        831       0.349018       0.463861     0.00601685
   840        841       0.349018       0.463565      0.0059453
   850        851       0.349018       0.463197     0.00587544
   860        861       0.349018       0.462585      0.0058072
   870        871       0.349018       0.462182     0.00574053
   880        881       0.349018       0.461146     0.00567537
   890        891       0.349018       0.461027     0.00561167
   900        901       0.349018       0.460653     0.00554939

                           Best        Current           Mean
Iteration   f-count         f(x)         f(x)         temperature
   910        911       0.349018       0.460358     0.00548847
   920        921       0.349018         0.4599     0.00542888
   930        931       0.349018       0.459917     0.00537057
   940        941       0.349018       0.459472      0.0053135
   950        951       0.349018       0.458907     0.00525762
   960        961       0.349018       0.458768     0.00520291
   970        971       0.349018        0.45857     0.00514933
   980        981       0.349018       0.458055     0.00509684
   990        991       0.349018       0.457469     0.00504541
  1000       1001       0.349018       0.457149       0.004995
  1010       1011       0.349018       0.456902      0.0049456
  1020       1021       0.349018       0.456812     0.00489716
  1030       1031       0.349018       0.456378     0.00484966
  1040       1041       0.349018       0.456925     0.00480307
  1050       1051       0.349018       0.456624     0.00475737
  1060       1061       0.349018       0.456799     0.00471254
  1070       1071       0.349018       0.457271     0.00466853
  1080       1081       0.349018       0.456934     0.00462535
  1090       1091       0.349018        0.45651     0.00458295
  1100       1101       0.349018       0.456763     0.00454133
  1110       1111       0.349018       0.456585     0.00450045
  1120       1121       0.349018       0.456226      0.0044603
  1130       1131       0.349018       0.455989     0.00442087
  1140       1141       0.349018       0.455886     0.00438212
  1150       1151       0.349018       0.455742     0.00434405
  1160       1161       0.349018       0.455384     0.00430663
  1170       1171       0.349018        0.45516     0.00426985
  1180       1181       0.349018       0.454941      0.0042337
  1190       1191       0.349018       0.454619     0.00419815
  1200       1201       0.349018       0.454428      0.0041632

                           Best        Current           Mean
Iteration   f-count         f(x)         f(x)         temperature
  1210       1211       0.349018       0.454265     0.00412882
  1220       1221       0.349018       0.454193       0.004095
  1230       1231       0.349018        0.45384     0.00406174
  1240       1241       0.349018       0.453844     0.00402901
  1250       1251       0.349018       0.453283      0.0039968
  1260       1261       0.349018        0.45305     0.00396511
  1270       1271       0.349018       0.452686     0.00393391
  1280       1281       0.349018       0.452537      0.0039032
  1290       1291       0.349018       0.452364     0.00387297
  1300       1301       0.349018        0.45237      0.0038432
  1310       1311       0.349018       0.452419     0.00381388
  1320       1321       0.349018       0.452271     0.00378501
  1330       1331       0.349018       0.451345     0.00375657
  1340       1341       0.349018        0.45114     0.00372856
  1350       1351       0.349018       0.451111     0.00370096
  1360       1361       0.349018       0.450726     0.00367377
  1370       1371       0.349018        0.45075     0.00364697
  1380       1381       0.349018       0.450723     0.00362056
  1390       1391       0.349018       0.450219     0.00359454
  1400       1401       0.349018       0.449861     0.00356888
  1410       1411       0.349018       0.449383     0.00354359
  1420       1421       0.349018       0.449265     0.00351865
  1430       1431       0.349018       0.449195     0.00349406
  1440       1441       0.349018       0.448817     0.00346981
  1450       1451       0.349018       0.448458      0.0034459
  1460       1461       0.349018       0.448217     0.00342231
  1470       1471       0.349018        0.44786     0.00339905
  1480       1481       0.349018        0.44818      0.0033761
  1490       1491       0.349018       0.447919     0.00335345
  1500       1501       0.349018       0.447579     0.00333111

                           Best        Current           Mean
Iteration   f-count         f(x)         f(x)         temperature
  1510       1511       0.349018       0.447399     0.00330907
  1520       1521       0.349018       0.447576     0.00328731
  1530       1531       0.349018       0.447425     0.00326584
  1540       1541       0.349018       0.447358     0.00324465
  1550       1551       0.349018        0.44698     0.00322373
  1560       1561       0.349018       0.447098     0.00320307
  1570       1571       0.349018       0.447101     0.00318269
  1580       1581       0.349018       0.447047     0.00316256
  1590       1591       0.349018       0.446641     0.00314268
  1600       1601       0.349018       0.446701     0.00312305
  1610       1611       0.349018        0.44658     0.00310366
  1620       1621       0.349018       0.446638     0.00308452
  1630       1631       0.349018       0.446284      0.0030656
  1640       1641       0.349018       0.446043     0.00304692
  1650       1651       0.349018       0.445694     0.00302847
  1660       1661       0.349018       0.445224     0.00301023
  1670       1671       0.349018       0.444971     0.00299222
  1680       1681       0.349018       0.444875     0.00297442
  1690       1691       0.349018       0.444689     0.00295683
  1700       1701       0.349018       0.444689     0.00293945
  1710       1711       0.349018       0.444268     0.00292227
  1720       1721       0.349018       0.444141     0.00290529
  1730       1731       0.349018       0.444078      0.0028885
  1740       1741       0.349018       0.444212     0.00287191
  1750       1751       0.349018       0.444337     0.00285551
  1760       1761       0.349018       0.443899      0.0028393
  1770       1771       0.349018       0.443884     0.00282326
  1780       1781       0.349018       0.443851     0.00280741
  1790       1791       0.349018       0.443932     0.00279174
  1800       1801       0.349018       0.443714     0.00277624

                           Best        Current           Mean
Iteration   f-count         f(x)         f(x)         temperature
  1810       1811       0.349018       0.443684     0.00276091
  1820       1821       0.349018       0.443398     0.00274574
  1830       1831       0.349018       0.442773     0.00273075
  1840       1841       0.349018       0.442524     0.00271592
  1850       1851       0.349018       0.442546     0.00270124
  1860       1861       0.349018       0.442314     0.00268673
  1870       1871       0.349018       0.442221     0.00267237
  1880       1881       0.349018       0.441732     0.00265816
  1890       1891       0.349018       0.441643      0.0026441
  1900       1901       0.349018       0.441687     0.00263019
  1910       1911       0.349018       0.441436     0.00261643
  1920       1921       0.349018       0.441062     0.00260281
  1930       1931       0.349018       0.441034     0.00258933
  1940       1941       0.349018       0.440717     0.00257599
  1950       1951       0.349018       0.440555     0.00256279
  1960       1961       0.349018       0.440183     0.00254972
  1970       1971       0.349018       0.440145     0.00253678
  1980       1981       0.349018       0.439973     0.00252398
  1990       1991       0.349018       0.439883      0.0025113
  2000       2001       0.349018       0.439614     0.00249875
  2010       2011       0.349018       0.439227     0.00248633
  2020       2021       0.349018       0.438975     0.00247402
  2030       2031       0.349018       0.439086     0.00246184
  2040       2041       0.349018       0.438942     0.00244978
  2050       2051       0.349018       0.438802     0.00243784
  2060       2061       0.349018       0.438694     0.00242601
  2070       2071       0.349018       0.438937     0.00241429
  2080       2081       0.349018       0.439069     0.00240269
  2090       2091       0.349018        0.43914      0.0023912
  2100       2101       0.349018       0.439081     0.00237982

                           Best        Current           Mean
Iteration   f-count         f(x)         f(x)         temperature
  2110       2111       0.349018        0.43867     0.00236855
  2120       2121       0.349018       0.438489     0.00235738
  2130       2131       0.349018       0.438493     0.00234632
  2140       2141       0.349018       0.438337     0.00233536
  2150       2151       0.349018       0.438083      0.0023245
  2160       2161       0.349018       0.437875     0.00231374
  2170       2171       0.349018       0.437621     0.00230309
  2180       2181       0.349018       0.437371     0.00229253
  2190       2191       0.349018       0.436986     0.00228206
  2200       2201       0.349018       0.436909     0.00227169
  2210       2211       0.349018       0.436722     0.00226142
  2220       2221       0.349018       0.436504     0.00225124
  2230       2231       0.349018       0.436201     0.00224115
  2240       2241       0.349018       0.435946     0.00223115
  2250       2251       0.349018        0.43567     0.00222124
  2260       2261       0.349018       0.435656     0.00221141
  2270       2271       0.349018       0.435155     0.00220167
  2280       2281       0.349018       0.435123     0.00219202
  2290       2291       0.349018       0.434992     0.00218245
  2300       2301       0.349018       0.434801     0.00217297
  2310       2311       0.349018        0.43467     0.00216357
  2320       2321       0.349018       0.434771     0.00215424
  2330       2331       0.349018       0.434676       0.002145
  2340       2341       0.349018       0.434539     0.00213584
  2350       2351       0.349018       0.434363     0.00212675
  2360       2361       0.349018       0.434241     0.00211775
  2370       2371       0.349018       0.434275     0.00210881
  2380       2381       0.349018        0.43442     0.00209996
  2390       2391       0.349018       0.434201     0.00209118
  2400       2401       0.349018       0.434129     0.00208247

                           Best        Current           Mean
Iteration   f-count         f(x)         f(x)         temperature
  2410       2411       0.349018       0.434123     0.00207383
  2420       2421       0.349018       0.434035     0.00206526
  2430       2431       0.349018       0.433904     0.00205677
  2440       2441       0.349018       0.433785     0.00204834
  2450       2451       0.349018       0.433678     0.00203998
  2460       2461       0.349018       0.433363     0.00203169
  2470       2471       0.349018       0.433346     0.00202347
  2480       2481       0.349018       0.433141     0.00201532
  2490       2491       0.349018        0.43311     0.00200723
  2500       2501       0.349018       0.432867      0.0019992
  2510       2511       0.349018       0.432961     0.00199124
  2520       2521       0.349018       0.432918     0.00198334
  2530       2531       0.349018       0.432851      0.0019755
  2540       2541       0.349018       0.432523     0.00196773
  2550       2551       0.349018       0.432703     0.00196002
  2560       2561       0.349018       0.432665     0.00195236
  2570       2571       0.349018       0.432384     0.00194477
  2580       2581       0.349018       0.432347     0.00193723
  2590       2591       0.349018       0.432369     0.00192976
  2600       2601       0.349018       0.432191     0.00192234
  2610       2611       0.349018        0.43203     0.00191498
  2620       2621       0.349018       0.432007     0.00190767
  2630       2631       0.349018       0.431826     0.00190042
  2640       2641       0.349018       0.431713     0.00189322
  2650       2651       0.349018       0.431622     0.00188608
  2660       2661       0.349018       0.431603     0.00187899
  2670       2671       0.349018       0.431593     0.00187196
  2680       2681       0.349018       0.431478     0.00186498
  2690       2691       0.349018       0.431354     0.00185805
  2700       2701       0.349018       0.431468     0.00185117

                           Best        Current           Mean
Iteration   f-count         f(x)         f(x)         temperature
  2710       2711       0.349018       0.431246     0.00184434
  2720       2721       0.349018       0.431289     0.00183756
  2730       2731       0.349018       0.431336     0.00183083
  2740       2741       0.349018        0.43119     0.00182415
  2750       2751       0.349018       0.431299     0.00181752
  2760       2761       0.349018       0.431394     0.00181094
  2770       2771       0.349018       0.431416      0.0018044
  2780       2781       0.349018       0.431281     0.00179791
  2790       2791       0.349018        0.43118     0.00179147
  2800       2801       0.349018       0.431237     0.00178508
  2810       2811       0.349018       0.431151     0.00177873
  2820       2821       0.349018        0.43117     0.00177242
  2830       2831       0.349018        0.43098     0.00176616
  2840       2841       0.349018       0.431095     0.00175994
  2850       2851       0.349018       0.431141     0.00175377
  2860       2861       0.349018       0.431175     0.00174764
  2870       2871       0.349018       0.431057     0.00174155
  2880       2881       0.349018       0.430979     0.00173551
  2890       2891       0.349018       0.430918     0.00172951
  2900       2901       0.349018       0.430594     0.00172354
  2910       2911       0.349018       0.430458     0.00171762
  2920       2921       0.349018       0.430454     0.00171174
  2930       2931       0.349018       0.430165      0.0017059
  2940       2941       0.349018        0.43008      0.0017001
  2950       2951       0.349018       0.430047     0.00169434
  2960       2961       0.349018       0.429808     0.00168862
  2970       2971       0.349018       0.429634     0.00168294
  2980       2981       0.349018        0.42959     0.00167729
  2990       2991       0.349018       0.429535     0.00167168
  3000       3001       0.349018       0.429519     0.00166611

                           Best        Current           Mean
Iteration   f-count         f(x)         f(x)         temperature
  3010       3011       0.349018       0.429593     0.00166058
  3020       3021       0.349018       0.429568     0.00165508
  3030       3031       0.349018       0.429497     0.00164962
  3040       3041       0.349018       0.429417      0.0016442
  3050       3051       0.349018       0.429249     0.00163881
  3060       3061       0.349018       0.429223     0.00163345
  3070       3071       0.349018       0.429179     0.00162813
  3080       3081       0.349018        0.42916     0.00162285
  3090       3091       0.349018       0.429044      0.0016176
  3100       3101       0.349018       0.428979     0.00161238
  3110       3111       0.349018       0.429007      0.0016072
  3120       3121       0.349018       0.428786     0.00160205
  3130       3131       0.349018       0.428778     0.00159693
  3140       3141       0.349018       0.428637     0.00159185
  3150       3151       0.349018       0.428375      0.0015868
  3160       3161       0.349018       0.428191     0.00158178
  3170       3171       0.349018       0.427999     0.00157679
  3180       3181       0.349018       0.427773     0.00157183
  3190       3191       0.349018       0.427697     0.00156691
  3200       3201       0.349018       0.427646     0.00156201
  3210       3211       0.349018        0.42779     0.00155715
  3220       3221       0.349018        0.42774     0.00155231
  3230       3231       0.349018       0.427603     0.00154751
  3240       3241       0.349018        0.42744     0.00154273
  3250       3251       0.349018       0.427388     0.00153799
  3260       3261       0.349018       0.427241     0.00153327
  3270       3271       0.349018       0.427239     0.00152858
  3280       3281       0.349018       0.427253     0.00152393
  3290       3291       0.349018       0.427108      0.0015193
  3300       3301       0.349018       0.427073     0.00151469

                           Best        Current           Mean
Iteration   f-count         f(x)         f(x)         temperature
  3310       3311       0.349018       0.427156     0.00151012
  3320       3321       0.349018       0.427019     0.00150557
  3330       3331       0.349018       0.427035     0.00150105
  3340       3341       0.349018       0.426999     0.00149656
  3350       3351       0.349018       0.426953     0.00149209
  3360       3361       0.349018       0.427022     0.00148765
  3370       3371       0.349018       0.427005     0.00148324
  3380       3381       0.349018       0.426855     0.00147885
  3390       3391       0.349018       0.426769     0.00147449
  3400       3401       0.349018       0.426826     0.00147016
  3410       3411       0.349018       0.426801     0.00146585
  3420       3421       0.349018       0.426742     0.00146156
  3430       3431       0.349018       0.426715      0.0014573
  3440       3441       0.349018       0.426699     0.00145307
  3450       3451       0.349018       0.426859     0.00144886
  3460       3461       0.349018       0.426677     0.00144467
  3470       3471       0.349018       0.426642     0.00144051
  3480       3481       0.349018       0.426624     0.00143637
  3490       3491       0.349018       0.426556     0.00143225
  3500       3501       0.349018        0.42653     0.00142816
  3510       3511       0.349018        0.42651      0.0014241
  3520       3521       0.349018       0.426538     0.00142005
  3530       3531       0.349018       0.426607     0.00141603
  3540       3541       0.349018       0.426562     0.00141203
  3550       3551       0.349018       0.426449     0.00140805
  3560       3561       0.349018       0.426337      0.0014041
  3570       3571       0.349018       0.426261     0.00140017
  3580       3581       0.349018       0.426186     0.00139626
  3590       3591       0.349018       0.426171     0.00139237
  3600       3601       0.349018       0.426378      0.0013885

                           Best        Current           Mean
Iteration   f-count         f(x)         f(x)         temperature
  3610       3611       0.349018       0.426358     0.00138466
  3620       3621       0.349018        0.42631     0.00138083
  3630       3631       0.349018       0.426199     0.00137703
  3640       3641       0.349018       0.426015     0.00137325
  3650       3651       0.349018       0.425944     0.00136949
  3660       3661       0.349018       0.425739     0.00136575
  3670       3671       0.349018       0.425705     0.00136203
  3680       3681       0.349018       0.425694     0.00135833
  3690       3691       0.349018       0.425441     0.00135465
  3700       3701       0.349018       0.425453     0.00135099
  3710       3711       0.349018       0.425432     0.00134735
  3720       3721       0.349018       0.425345     0.00134372
  3730       3731       0.349018       0.425183     0.00134012
  3740       3741       0.349018       0.425258     0.00133654
  3750       3751       0.349018       0.425146     0.00133298
  3760       3761       0.349018       0.425235     0.00132943
  3770       3771       0.349018       0.425196     0.00132591
  3780       3781       0.349018         0.4252      0.0013224
  3790       3791       0.349018       0.425251     0.00131891
  3800       3801       0.349018       0.425242     0.00131544
  3810       3811       0.349018       0.425158     0.00131199
  3820       3821       0.349018       0.425053     0.00130856
  3830       3831       0.349018       0.425033     0.00130514
  3840       3841       0.349018          0.425     0.00130174
  3850       3851       0.349018       0.425046     0.00129836
  3860       3861       0.349018       0.425116       0.001295
Time limit exceeded: increase options.MaxTime.
