
                           Best        Current           Mean
Iteration   f-count         f(x)         f(x)         temperature
     0          1       0.349018       0.349018            2.5
    10         11       0.336532       0.350692       0.227273
    20         21       0.336532       0.400856       0.119048
    30         31       0.336532       0.387351      0.0806452
    40         41       0.336532       0.369574      0.0609756
    50         51       0.336532       0.379963      0.0490196
    60         61       0.336532       0.357852      0.0409836
    70         71       0.336532       0.364942      0.0352113
    80         81       0.336532       0.357347      0.0308642
    90         91       0.336532       0.343315      0.0274725
   100        101       0.336532        0.33843      0.0247525
   110        111       0.336532       0.339835      0.0225225
   120        121       0.327351       0.328842      0.0206612
   130        131       0.322166       0.324387       0.019084
   140        141       0.322166       0.327558      0.0177305
   150        151       0.322166       0.324488      0.0165563
   160        161       0.322166       0.322811       0.015528
   170        171       0.322166       0.323271      0.0146199
   180        181        0.32206       0.322537      0.0138122
   190        191       0.320963       0.321501       0.013089
   200        201       0.319928       0.320058      0.0124378
   210        211       0.319253       0.319253      0.0118483
   220        221       0.316975       0.317222      0.0113122
   230        231       0.316975       0.317836      0.0108225
   240        241       0.316975       0.318765      0.0103734
   250        251       0.316975       0.317575     0.00996016
   260        261       0.316975       0.317933     0.00957854
   270        271       0.316384       0.316619     0.00922509
   280        281       0.316248       0.316248      0.0088968
   290        291       0.315663       0.315711     0.00859107
   300        301       0.314335       0.314571     0.00830565

                           Best        Current           Mean
Iteration   f-count         f(x)         f(x)         temperature
   310        311       0.314211       0.314306     0.00803859
   320        321       0.313922       0.313922     0.00778816
   330        331       0.312999       0.312999     0.00755287
   340        341       0.312231       0.312623     0.00733138
   350        351       0.311556       0.311556     0.00712251
   360        361       0.311249       0.311677     0.00692521
   370        371       0.310919       0.311086     0.00673854
   380        381       0.310666       0.310892     0.00656168
   390        391       0.309803       0.309919     0.00639386
   400        401       0.309154       0.309484     0.00623441
   410        411       0.309092       0.309997     0.00608273
   420        421       0.309092       0.309799     0.00593824
   430        431       0.309092       0.309824     0.00580046
   440        441       0.309084       0.310603     0.00566893
   450        451       0.309084       0.310434     0.00554324
   460        461       0.309084       0.310814     0.00542299
   470        471       0.309084       0.311072     0.00530786
   480        481       0.309084       0.310715     0.00519751
   490        491       0.309084       0.309849     0.00509165
   500        501       0.308742       0.308742     0.00499002
   510        511       0.308518       0.308801     0.00489237
   520        521       0.308189       0.308344     0.00479846
   530        531       0.308189       0.309323      0.0047081
   540        541       0.308189       0.309562     0.00462107
   550        551       0.308189       0.310757     0.00453721
   560        561       0.308189        0.30966     0.00445633
   570        571       0.308189       0.310188     0.00437828
   580        581       0.308189       0.310419     0.00430293
   590        591       0.308189       0.311298     0.00423012
   600        601       0.308189       0.310655     0.00415973

                           Best        Current           Mean
Iteration   f-count         f(x)         f(x)         temperature
   610        611       0.308189       0.310447     0.00409165
   620        621       0.308189         0.3089     0.00402576
   630        631       0.308189       0.309153     0.00396197
   640        641       0.308189       0.309197     0.00390016
   650        651       0.308189       0.309498     0.00384025
   660        661       0.308189       0.309271     0.00378215
   670        671       0.308189       0.309043     0.00372578
   680        681       0.308189       0.308976     0.00367107
   690        691       0.308189       0.308472     0.00361795
   700        701       0.307348       0.307378     0.00356633
   710        711        0.30686       0.307018     0.00351617
   720        721       0.306821       0.306957     0.00346741
   730        731         0.3067       0.306989     0.00341997
   740        741       0.306573       0.306573     0.00337382
   750        751       0.305847       0.306084     0.00332889
   760        761       0.305847       0.306171     0.00328515
   770        771       0.305763       0.305763     0.00324254
   780        781       0.305251       0.305251     0.00320102
   790        791       0.304916       0.304916     0.00316056
   800        801       0.304874       0.304875      0.0031211
   810        811       0.304546       0.304569     0.00308261
   820        821       0.304328       0.304328     0.00304507
   830        831       0.304235       0.304418     0.00300842
   840        841        0.30395        0.30395     0.00297265
   850        851        0.30395       0.304097     0.00293772
   860        861        0.30395       0.304594      0.0029036
   870        871       0.303677       0.303677     0.00287026
   880        881       0.303383       0.303451     0.00283768
   890        891       0.303287       0.303287     0.00280584
   900        901       0.302913       0.302913     0.00277469

                           Best        Current           Mean
Iteration   f-count         f(x)         f(x)         temperature
   910        911       0.302775       0.302775     0.00274424
   920        921        0.30257       0.302856     0.00271444
   930        931       0.302497       0.302497     0.00268528
   940        941       0.302214       0.302347     0.00265675
   950        951        0.30221       0.302688     0.00262881
   960        961        0.30221       0.302576     0.00260146
   970        971        0.30221       0.302267     0.00257467
   980        981        0.30221       0.302314     0.00254842
   990        991       0.301884       0.301884      0.0025227
  1000       1001       0.301713       0.301749      0.0024975
  1010       1011       0.301285       0.301285      0.0024728
  1020       1021       0.301285        0.30162     0.00244858
  1030       1031       0.301285       0.301297     0.00242483
  1040       1041       0.301229       0.301229     0.00240154
  1050       1051       0.301113       0.301113     0.00237869
  1060       1061       0.300904       0.300904     0.00235627
  1070       1071       0.300762       0.300769     0.00233427
  1080       1081       0.300677       0.300894     0.00231267
  1090       1091       0.300677       0.300937     0.00229148
  1100       1101       0.300677       0.301053     0.00227066
  1110       1111       0.300677       0.301337     0.00225023
  1120       1121       0.300677       0.301072     0.00223015
  1130       1131       0.300677       0.300799     0.00221043
  1140       1141       0.300677       0.301597     0.00219106
  1150       1151       0.300677       0.301391     0.00217202
  1160       1161       0.300677       0.301333     0.00215332
  1170       1171       0.300677       0.301571     0.00213493
  1180       1181       0.300677       0.301164     0.00211685
  1190       1191       0.300514       0.300648     0.00209908
  1200       1201       0.300357       0.300357      0.0020816

                           Best        Current           Mean
Iteration   f-count         f(x)         f(x)         temperature
  1210       1211       0.300306        0.30035     0.00206441
  1220       1221       0.300193       0.300193      0.0020475
  1230       1231       0.299904       0.300109     0.00203087
  1240       1241       0.299877       0.300026      0.0020145
  1250       1251       0.299848       0.299848      0.0019984
  1260       1261       0.299555       0.299689     0.00198255
  1270       1271       0.299555       0.299831     0.00196696
  1280       1281       0.299555       0.299642      0.0019516
  1290       1291       0.299555       0.299762     0.00193648
  1300       1301       0.299314       0.299314      0.0019216
  1310       1311       0.299052       0.299077     0.00190694
  1320       1321       0.299052       0.299145     0.00189251
  1330       1331       0.299052         0.2992     0.00187829
  1340       1341       0.299052       0.299429     0.00186428
  1350       1351       0.299052       0.299393     0.00185048
  1360       1361       0.299052       0.299218     0.00183688
  1370       1371       0.299017       0.299049     0.00182349
  1380       1381       0.298877       0.299031     0.00181028
  1390       1391       0.298775       0.298775     0.00179727
  1400       1401       0.298574       0.298575     0.00178444
  1410       1411       0.298389       0.298389     0.00177179
  1420       1421       0.298338       0.298363     0.00175932
  1430       1431       0.298338       0.298514     0.00174703
  1440       1441       0.298338       0.298383     0.00173491
  1450       1451       0.298231       0.298231     0.00172295
  1460       1461       0.297986       0.297988     0.00171116
  1470       1471       0.297967       0.298004     0.00169952
  1480       1481       0.297952       0.298037     0.00168805
  1490       1491       0.297952       0.298095     0.00167673
  1500       1501       0.297952       0.298013     0.00166556

                           Best        Current           Mean
Iteration   f-count         f(x)         f(x)         temperature
  1510       1511       0.297878       0.297956     0.00165453
  1520       1521       0.297797       0.297896     0.00164366
  1530       1531       0.297797       0.297916     0.00163292
  1540       1541       0.297797       0.298047     0.00162232
  1550       1551       0.297797       0.298118     0.00161186
  1560       1561       0.297797       0.298172     0.00160154
  1570       1571       0.297797       0.297992     0.00159134
  1580       1581       0.297797       0.297934     0.00158128
  1590       1591       0.297797       0.298043     0.00157134
  1600       1601       0.297797       0.297988     0.00156152
  1610       1611       0.297797       0.297975     0.00155183
  1620       1621       0.297797       0.298098     0.00154226
  1630       1631       0.297797       0.298372      0.0015328
  1640       1641       0.297797       0.298158     0.00152346
  1650       1651       0.297797       0.297918     0.00151423
  1660       1661       0.297797       0.297973     0.00150512
  1670       1671       0.297797       0.297981     0.00149611
  1680       1681       0.297613       0.297685     0.00148721
  1690       1691       0.297613       0.297847     0.00147842
  1700       1701       0.297613       0.297621     0.00146972
  1710       1711       0.297613       0.297794     0.00146113
  1720       1721       0.297613       0.297728     0.00145264
  1730       1731       0.297456       0.297456     0.00144425
  1740       1741       0.297066       0.297215     0.00143596
  1750       1751       0.296813       0.296996     0.00142776
  1760       1761       0.296813       0.296829     0.00141965
  1770       1771       0.296794       0.296915     0.00141163
  1780       1781        0.29667       0.296719     0.00140371
  1790       1791       0.296484       0.296484     0.00139587
  1800       1801       0.296465       0.296555     0.00138812

                           Best        Current           Mean
Iteration   f-count         f(x)         f(x)         temperature
  1810       1811       0.296465       0.296772     0.00138045
  1820       1821       0.296465        0.29661     0.00137287
  1830       1831       0.296465       0.296771     0.00136537
  1840       1841       0.296465       0.296541     0.00135796
  1850       1851       0.296465        0.29657     0.00135062
  1860       1861       0.296465       0.296483     0.00134336
  1870       1871       0.296437       0.296437     0.00133618
  1880       1881       0.296067       0.296139     0.00132908
  1890       1891        0.29605        0.29605     0.00132205
  1900       1901       0.295949        0.29595      0.0013151
  1910       1911       0.295704       0.295704     0.00130822
  1920       1921       0.295586       0.295759     0.00130141
  1930       1931       0.295422       0.295422     0.00129467
  1940       1941       0.295377       0.295464       0.001288
  1950       1951       0.295353       0.295407     0.00128139
  1960       1961       0.295272       0.295272     0.00127486
  1970       1971       0.295204       0.295204     0.00126839
  1980       1981       0.295181       0.295181     0.00126199
  1990       1991        0.29515       0.295236     0.00125565
  2000       2001       0.295097       0.295236     0.00124938
  2010       2011       0.295097       0.295109     0.00124316
  2020       2021        0.29495       0.294962     0.00123701
  2030       2031       0.294563       0.294563     0.00123092
  2040       2041        0.29441        0.29441     0.00122489
  2050       2051       0.294195       0.294195     0.00121892
  2060       2061       0.294182        0.29424       0.001213
  2070       2071       0.294118       0.294181     0.00120715
  2080       2081       0.294064       0.294064     0.00120135
  2090       2091       0.294059       0.294064      0.0011956
  2100       2101       0.293986       0.294024     0.00118991

                           Best        Current           Mean
Iteration   f-count         f(x)         f(x)         temperature
  2110       2111       0.293986       0.294053     0.00118427
  2120       2121       0.293917       0.293917     0.00117869
  2130       2131       0.293833       0.294065     0.00117316
  2140       2141       0.293801       0.293801     0.00116768
  2150       2151       0.293801       0.293976     0.00116225
  2160       2161       0.293801        0.29402     0.00115687
  2170       2171       0.293801       0.294041     0.00115154
  2180       2181       0.293801       0.294043     0.00114626
  2190       2191       0.293741       0.293803     0.00114103
  2200       2201       0.293741       0.293984     0.00113585
  2210       2211       0.293741       0.293815     0.00113071
  2220       2221       0.293741       0.293887     0.00112562
  2230       2231       0.293661       0.293661     0.00112057
  2240       2241       0.293646       0.293658     0.00111557
  2250       2251       0.293537       0.293565     0.00111062
  2260       2261       0.293404       0.293668     0.00110571
  2270       2271       0.293404       0.293564     0.00110084
  2280       2281       0.293404       0.293442     0.00109601
  2290       2291       0.293403       0.293403     0.00109123
  2300       2301       0.293282        0.29334     0.00108648
  2310       2311       0.293105       0.293254     0.00108178
  2320       2321       0.293105       0.293183     0.00107712
  2330       2331       0.293021        0.29304      0.0010725
  2340       2341       0.292728       0.292786     0.00106792
  2350       2351       0.292728       0.292845     0.00106338
  2360       2361       0.292694       0.292868     0.00105887
  2370       2371       0.292694       0.292731     0.00105441
  2380       2381       0.292475       0.292536     0.00104998
  2390       2391       0.292475        0.29275     0.00104559
  2400       2401       0.292475       0.292479     0.00104123

                           Best        Current           Mean
Iteration   f-count         f(x)         f(x)         temperature
  2410       2411       0.292107       0.292107     0.00103691
  2420       2421       0.291736       0.291794     0.00103263
  2430       2431       0.291712       0.291812     0.00102838
  2440       2441       0.291677       0.291714     0.00102417
  2450       2451        0.29159       0.291711     0.00101999
  2460       2461        0.29159       0.291639     0.00101585
  2470       2471       0.291413       0.291413     0.00101174
  2480       2481       0.291197       0.291222     0.00100766
  2490       2491       0.290977       0.291028     0.00100361
  2500       2501       0.290839       0.290884      0.0009996
  2510       2511       0.290738       0.290738    0.000995619
  2520       2521       0.290674       0.290752     0.00099167
  2530       2531       0.290472       0.290613    0.000987752
  2540       2541       0.290472        0.29078    0.000983865
  2550       2551       0.290472       0.290725    0.000980008
  2560       2561       0.290399       0.290439    0.000976181
  2570       2571       0.290327       0.290327    0.000972384
  2580       2581       0.290227       0.290398    0.000968617
  2590       2591       0.290227        0.29039    0.000964878
  2600       2601       0.290227        0.29051    0.000961169
  2610       2611       0.290227       0.290433    0.000957488
  2620       2621       0.290227       0.290829    0.000953834
  2630       2631       0.290227       0.290579    0.000950209
  2640       2641       0.290227       0.290491    0.000946611
  2650       2651       0.290227        0.29028     0.00094304
  2660       2661       0.290198        0.29024    0.000939496
  2670       2671       0.290037       0.290041    0.000935979
  2680       2681       0.289851       0.289929    0.000932488
  2690       2691       0.289851       0.290146    0.000929023
  2700       2701        0.28983        0.28983    0.000925583

                           Best        Current           Mean
Iteration   f-count         f(x)         f(x)         temperature
  2710       2711       0.289786       0.289879    0.000922169
  2720       2721       0.289485       0.289485     0.00091878
  2730       2731       0.289338       0.289358    0.000915416
  2740       2741       0.289232       0.289232    0.000912076
  2750       2751       0.289178       0.289469     0.00090876
  2760       2761       0.289178       0.289235    0.000905469
  2770       2771       0.289178       0.289387    0.000902201
  2780       2781       0.289178       0.289317    0.000898957
  2790       2791       0.289178       0.289399    0.000895736
  2800       2801       0.289171       0.289277    0.000892538
  2810       2811       0.289171       0.289507    0.000889363
  2820       2821       0.289171       0.289515    0.000886211
  2830       2831       0.289171        0.28936     0.00088308
  2840       2841       0.289171       0.289295    0.000879972
  2850       2851       0.288933       0.288933    0.000876885
  2860       2861       0.288879       0.289174     0.00087382
  2870       2871       0.288879       0.288982    0.000870777
  2880       2881       0.288879       0.289036    0.000867754
  2890       2891       0.288879       0.289053    0.000864753
  2900       2901       0.288879       0.289166    0.000861772
  2910       2911       0.288879       0.289205    0.000858811
  2920       2921       0.288879       0.289216    0.000855871
  2930       2931       0.288879       0.289325    0.000852951
  2940       2941       0.288879       0.289051    0.000850051
  2950       2951       0.288705       0.288705     0.00084717
  2960       2961       0.288415       0.288415    0.000844309
  2970       2971       0.288131       0.288245    0.000841468
  2980       2981        0.28809        0.28809    0.000838645
  2990       2991        0.28809       0.288225    0.000835841
  3000       3001        0.28809       0.288491    0.000833056

                           Best        Current           Mean
Iteration   f-count         f(x)         f(x)         temperature
  3010       3011        0.28809        0.28846    0.000830289
  3020       3021        0.28809       0.288572    0.000827541
  3030       3031        0.28809       0.288123     0.00082481
  3040       3041        0.28809       0.288254    0.000822098
  3050       3051       0.288059       0.288128    0.000819403
  3060       3061       0.288059       0.288155    0.000816727
  3070       3071       0.287893       0.287893    0.000814067
  3080       3081       0.287878       0.288072    0.000811425
  3090       3091       0.287875         0.2879      0.0008088
  3100       3101       0.287875       0.287882    0.000806192
  3110       3111       0.287532       0.287713      0.0008036
  3120       3121       0.287532       0.287646    0.000801025
  3130       3131       0.287413       0.287413    0.000798467
  3140       3141        0.28735       0.287587    0.000795925
  3150       3151        0.28735       0.287414    0.000793399
  3160       3161       0.287191       0.287288    0.000790889
  3170       3171       0.287081       0.287081    0.000788395
  3180       3181       0.287035       0.287145    0.000785916
  3190       3191       0.287035       0.287043    0.000783453
  3200       3201       0.286891       0.286891    0.000781006
  3210       3211       0.286888       0.286889    0.000778574
  3220       3221       0.286888       0.286948    0.000776156
  3230       3231       0.286888       0.287051    0.000773754
  3240       3241       0.286888       0.287008    0.000771367
  3250       3251       0.286864       0.286959    0.000768994
  3260       3261       0.286864       0.287146    0.000766636
  3270       3271       0.286864        0.28721    0.000764292
  3280       3281       0.286864       0.287101    0.000761963
  3290       3291       0.286864       0.286978    0.000759648
  3300       3301       0.286864       0.287098    0.000757346

                           Best        Current           Mean
Iteration   f-count         f(x)         f(x)         temperature
  3310       3311       0.286864       0.287397    0.000755059
  3320       3321       0.286864       0.287185    0.000752785
  3330       3331       0.286864       0.287251    0.000750525
  3340       3341       0.286864       0.287273    0.000748279
  3350       3351       0.286864        0.28707    0.000746046
  3360       3361       0.286838       0.286838    0.000743826
  3370       3371       0.286772       0.286897     0.00074162
  3380       3381       0.286755       0.286755    0.000739426
  3390       3391       0.286587       0.286632    0.000737246
  3400       3401       0.286504       0.286548    0.000735078
  3410       3411       0.286446       0.286458    0.000732923
  3420       3421       0.286275       0.286275     0.00073078
  3430       3431       0.286098       0.286098    0.000728651
  3440       3441       0.286092       0.286119    0.000726533
  3450       3451       0.286087       0.286087    0.000724428
  3460       3461       0.286087       0.286199    0.000722335
  3470       3471       0.286087       0.286187    0.000720254
  3480       3481       0.286004       0.286004    0.000718184
  3490       3491       0.286004       0.286093    0.000716127
  3500       3501       0.285824       0.285824    0.000714082
  3510       3511       0.285824       0.286101    0.000712048
  3520       3521       0.285822       0.285822    0.000710026
  3530       3531       0.285627       0.285627    0.000708015
  3540       3541        0.28546       0.285653    0.000706015
  3550       3551       0.285384       0.285384    0.000704027
  3560       3561       0.285102       0.285102     0.00070205
  3570       3571        0.28495        0.28495    0.000700084
  3580       3581       0.284807       0.284823    0.000698129
  3590       3591       0.284614       0.284706    0.000696185
  3600       3601       0.284614       0.284725    0.000694252

                           Best        Current           Mean
Iteration   f-count         f(x)         f(x)         temperature
  3610       3611       0.284507       0.284525    0.000692329
  3620       3621       0.284268       0.284413    0.000690417
  3630       3631       0.284268       0.284748    0.000688516
  3640       3641       0.284268       0.284765    0.000686625
  3650       3651       0.284268       0.284881    0.000684744
  3660       3661       0.284268       0.284783    0.000682874
  3670       3671       0.284268       0.284954    0.000681013
  3680       3681       0.284268       0.284917    0.000679163
  3690       3691       0.284268       0.284885    0.000677323
  3700       3701       0.284268       0.284735    0.000675493
  3710       3711       0.284268        0.28468    0.000673673
  3720       3721       0.284268       0.284774    0.000671862
  3730       3731       0.284268       0.284787    0.000670062
  3740       3741       0.284268       0.284557    0.000668271
  3750       3751       0.284268       0.284529    0.000666489
  3760       3761       0.284268       0.284336    0.000664717
  3770       3771       0.284268       0.284834    0.000662954
  3780       3781       0.284268        0.28477    0.000661201
  3790       3791       0.284268       0.284786    0.000659457
  3800       3801       0.284268       0.284693    0.000657722
  3810       3811       0.284268       0.284324    0.000655996
  3820       3821       0.284216       0.284216    0.000654279
  3830       3831       0.284005       0.284005    0.000652571
  3840       3841       0.283801       0.283939    0.000650872
  3850       3851       0.283756       0.283756    0.000649182
  3860       3861       0.283498       0.283498    0.000647501
  3870       3871       0.283498       0.283606    0.000645828
  3880       3881       0.283498       0.283501    0.000644164
Time limit exceeded: increase options.MaxTime.
