
                           Best        Current           Mean
Iteration   f-count         f(x)         f(x)         temperature
     0          1       0.349018       0.349018              5
    10         11       0.328034       0.382532        2.08516
    20         21       0.328034       0.352893        1.64229
    30         31       0.328034       0.457801        1.45603
    40         41       0.328034        0.41619        1.34641
    50         51       0.328034       0.333788        1.27167
    60         61       0.328034       0.348121        1.21629
    70         71       0.328034       0.360948        1.17297
    80         81       0.328034       0.367892         1.1378
    90         91       0.328034       0.406058        1.10844
   100        101       0.328034       0.371211         1.0834
   110        111       0.328034       0.349705        1.06168
   120        121       0.328034       0.362217        1.04258
   130        131       0.328034       0.396751         1.0256
   140        141       0.328034       0.482818        1.01035
   150        151       0.328034       0.432788       0.996556
   160        161       0.328034       0.361953        0.98398
   170        171       0.328034       0.356659       0.972448
   180        181       0.328034       0.349523       0.961816
   190        191       0.328034       0.407714       0.951969
   200        201       0.328034       0.376953       0.942808
   210        211       0.328034       0.427156       0.934255
   220        221       0.328034       0.376373       0.926241
   230        231       0.328034       0.346024       0.918709
   240        241       0.328034       0.364394       0.911611
   250        251       0.328034       0.361708       0.904903
   260        261       0.328034       0.373715        0.89855
   270        271       0.328034       0.404054       0.892519
   280        281       0.328034       0.414872       0.886784
   290        291       0.328034       0.372281       0.881318
   300        301       0.328034       0.398543         0.8761

                           Best        Current           Mean
Iteration   f-count         f(x)         f(x)         temperature
   310        311       0.328034       0.353945       0.871112
   320        321       0.328034       0.400787       0.866335
   330        331       0.328034       0.400599       0.861754
   340        341       0.328034       0.383708       0.857356
   350        351       0.328034       0.388126       0.853128
   360        361       0.328034       0.395999       0.849058
   370        371       0.328034       0.400389       0.845137
   380        381       0.328034       0.400332       0.841354
   390        391       0.328034       0.362617       0.837702
   400        401       0.328034       0.354494       0.834173
   410        411       0.328034       0.345927       0.830759
   420        421       0.328034       0.339166       0.827454
   430        431       0.328034       0.329639       0.824252
   440        441       0.328034       0.330736       0.821147
   450        451       0.320457       0.329728       0.818134
   460        461       0.320457        0.32424       0.815209
   470        471       0.319851       0.327475       0.812366
   480        481       0.319851       0.372935       0.809603
   490        491       0.319851       0.384895       0.806914
   500        501       0.319851       0.430418       0.804297
   510        511       0.319851       0.446636       0.801749
   520        521       0.319851       0.410046       0.799265
   530        531       0.319851       0.427364       0.796843
   540        541       0.319851       0.385426       0.794481
   550        551       0.319851       0.436054       0.792175
   560        561       0.319851       0.368789       0.789924
   570        571       0.319851       0.407532       0.787725
   580        581       0.319851       0.375143       0.785577
   590        591       0.319851       0.418122       0.783476
   600        601       0.319851         0.5125       0.781422

                           Best        Current           Mean
Iteration   f-count         f(x)         f(x)         temperature
   610        611       0.319851       0.480875       0.779411
   620        621       0.319851       0.539435       0.777444
   630        631       0.319851       0.493192       0.775518
   640        641       0.319851       0.490133       0.773631
   650        651       0.319851       0.346214       0.771782
   660        661       0.319851       0.358489       0.769971
   670        671       0.319851       0.361728       0.768194
   680        681       0.319851       0.370734       0.766452
   690        691       0.319851       0.350266       0.764744
   700        701       0.319851       0.375855       0.763067
   710        711       0.319851       0.411985       0.761421
   720        721       0.319851       0.389218       0.759805
   730        731       0.319851        0.42513       0.758218
   740        741       0.319851       0.392987       0.756659
   750        751       0.319851       0.392315       0.755127
   760        761       0.319851       0.415386       0.753621
   770        771       0.319851       0.413563       0.752141
   780        781       0.319851       0.452292       0.750686
   790        791       0.319851       0.432304       0.749255
   800        801       0.319851       0.433318       0.747847
   810        811       0.319851       0.412662       0.746462
   820        821       0.319851       0.406076       0.745098
   830        831       0.319851       0.428641       0.743757
   840        841       0.319851        0.41018       0.742436
   850        851       0.319851       0.400703       0.741135
   860        861       0.319851       0.396277       0.739854
   870        871       0.319851       0.407811       0.738591
   880        881       0.319851       0.425835       0.737348
   890        891       0.319851        0.44964       0.736123
   900        901       0.319851       0.463322       0.734915

                           Best        Current           Mean
Iteration   f-count         f(x)         f(x)         temperature
   910        911       0.319851       0.456288       0.733725
   920        921       0.319851       0.441666       0.732551
   930        931       0.319851       0.446749       0.731394
   940        941       0.319851       0.493074       0.730253
   950        951       0.319851       0.484624       0.729127
   960        961       0.319851       0.518826       0.728017
   970        971       0.319851        0.54421       0.726921
   980        981       0.319851       0.537165        0.72584
   990        991       0.319851       0.523475       0.724773
  1000       1001       0.319851       0.512116       0.723719
  1010       1011       0.319851       0.530336        0.72268
  1020       1021       0.319851       0.463688       0.721653
  1030       1031       0.319851       0.480406       0.720639
  1040       1041       0.319851       0.528767       0.719638
  1050       1051       0.319851       0.505749       0.718649
  1060       1061       0.319851       0.514676       0.717672
  1070       1071       0.319851       0.500484       0.716707
  1080       1081       0.319851       0.504832       0.715754
  1090       1091       0.319851       0.480715       0.714812
  1100       1101       0.319851        0.49816        0.71388
  1110       1111       0.319851       0.504194        0.71296
  1120       1121       0.319851        0.53548        0.71205
  1130       1131       0.319851       0.564484       0.711151
  1140       1141       0.319851       0.577579       0.710262
  1150       1151       0.319851       0.551557       0.709382
  1160       1161       0.319851       0.515801       0.708513
  1170       1171       0.319851       0.510087       0.707653
  1180       1181       0.319851       0.518151       0.706802
  1190       1191       0.319851        0.52043       0.705961
  1200       1201       0.319851       0.485897       0.705128

                           Best        Current           Mean
Iteration   f-count         f(x)         f(x)         temperature
  1210       1211       0.319851       0.499814       0.704305
  1220       1221       0.319851       0.528689        0.70349
  1230       1231       0.319851       0.484412       0.702683
  1240       1241       0.319851       0.454094       0.701885
  1250       1251       0.319851        0.50216       0.701095
  1260       1261       0.319851       0.446501       0.700313
  1270       1271       0.319851       0.446031       0.699539
  1280       1281       0.319851       0.422053       0.698773
  1290       1291       0.319851       0.437709       0.698015
  1300       1301       0.319851       0.457444       0.697264
  1310       1311       0.319851       0.484774        0.69652
  1320       1321       0.319851       0.497074       0.695783
  1330       1331       0.319851       0.443991       0.695054
  1340       1341       0.319851       0.416817       0.694332
  1350       1351       0.319851       0.385679       0.693616
  1360       1361       0.319851        0.37383       0.692907
  1370       1371       0.319851       0.394637       0.692205
  1380       1381       0.319851       0.396649       0.691509
  1390       1391       0.319851       0.399062        0.69082
  1400       1401       0.319851       0.495606       0.690137
  1410       1411       0.319851       0.401395        0.68946
  1420       1421       0.319851       0.478522       0.688789
  1430       1431       0.319851       0.432938       0.688124
  1440       1441       0.319851       0.429591       0.687465
  1450       1451       0.319851       0.378114       0.686812
  1460       1461       0.319851       0.388787       0.686165
  1470       1471       0.319851       0.417325       0.685523
  1480       1481       0.319851       0.407281       0.684887
  1490       1491       0.319851       0.425785       0.684256
  1500       1501       0.319851       0.392374       0.683631

                           Best        Current           Mean
Iteration   f-count         f(x)         f(x)         temperature
  1510       1511       0.319851       0.367244       0.683011
  1520       1521       0.319851       0.369386       0.682396
  1530       1531       0.319851       0.382963       0.681786
  1540       1541       0.319851       0.371117       0.681182
  1550       1551       0.319851        0.38319       0.680582
  1560       1561       0.319851       0.388509       0.679987
  1570       1571       0.319851       0.389117       0.679397
  1580       1581       0.319851       0.407467       0.678812
  1590       1591       0.319851       0.387586       0.678231
  1600       1601       0.319851       0.376269       0.677655
  1610       1611       0.319851       0.355263       0.677084
  1620       1621       0.319851       0.348172       0.676517
  1630       1631       0.319851       0.403899       0.675954
  1640       1641       0.319851       0.390466       0.675396
  1650       1651       0.319851       0.422533       0.674842
  1660       1661       0.319851       0.428376       0.674293
  1670       1671       0.319851       0.448746       0.673748
  1680       1681       0.319851       0.493593       0.673206
  1690       1691       0.319851       0.471368       0.672669
  1700       1701       0.319851       0.458292       0.672136
  1710       1711       0.319851       0.484381       0.671607
  1720       1721       0.319851       0.509635       0.671081
  1730       1731       0.319851       0.489741        0.67056
  1740       1741       0.319851       0.494147       0.670042
  1750       1751       0.319851       0.463981       0.669528
  1760       1761       0.319851       0.465761       0.669018
  1770       1771       0.319851       0.486451       0.668512
  1780       1781       0.319851       0.460081       0.668009
  1790       1791       0.319851       0.518032        0.66751
  1800       1801       0.319851       0.431931       0.667014

                           Best        Current           Mean
Iteration   f-count         f(x)         f(x)         temperature
  1810       1811       0.319851       0.411041       0.666521
  1820       1821       0.319851       0.441495       0.666033
  1830       1831       0.319851       0.399084       0.665547
  1840       1841       0.319851       0.381442       0.665065
  1850       1851       0.319851       0.394599       0.664586
  1860       1861       0.319851       0.373458        0.66411
  1870       1871       0.319851       0.359508       0.663638
  1880       1881       0.319851       0.450069       0.663169
  1890       1891       0.319851       0.531392       0.662703
  1900       1901       0.319851       0.610506        0.66224
  1910       1911       0.319851       0.629766        0.66178
  1920       1921       0.319851       0.511094       0.661323
  1930       1931       0.319851        0.43275       0.660869
  1940       1941       0.319851       0.346505       0.660418
  1950       1951       0.319851       0.339121        0.65997
  1960       1961       0.319851        0.35859       0.659525
  1970       1971       0.319851       0.361709       0.659083
  1980       1981       0.319851       0.376625       0.658644
  1990       1991       0.319851        0.37144       0.658207
  2000       2001       0.319851       0.368518       0.657773
  2010       2011       0.319851       0.377411       0.657342
  2020       2021       0.319851       0.370333       0.656914
  2030       2031       0.319851       0.366235       0.656488
  2040       2041       0.319851       0.377782       0.656065
  2050       2051       0.319851       0.393695       0.655645
  2060       2061       0.319851       0.433558       0.655227
  2070       2071       0.319851        0.45985       0.654811
  2080       2081       0.319851       0.459781       0.654399
  2090       2091       0.319851       0.509324       0.653988
  2100       2101       0.319851         0.4959        0.65358

                           Best        Current           Mean
Iteration   f-count         f(x)         f(x)         temperature
  2110       2111       0.319851       0.460472       0.653175
  2120       2121       0.319851        0.44438       0.652772
  2130       2131       0.319851       0.414974       0.652371
  2140       2141       0.319851       0.397977       0.651973
  2150       2151       0.319851       0.429256       0.651577
  2160       2161       0.319851        0.44998       0.651184
  2170       2171       0.319851       0.467929       0.650792
  2180       2181       0.319851       0.444526       0.650403
  2190       2191       0.319851       0.452169       0.650016
  2200       2201       0.319851       0.526156       0.649632
  2210       2211       0.319851       0.496205       0.649249
  2220       2221       0.319851       0.460221       0.648869
  2230       2231       0.319851       0.458442       0.648491
  2240       2241       0.319851       0.431993       0.648115
  2250       2251       0.319851       0.412848       0.647741
  2260       2261       0.319851       0.421665        0.64737
  2270       2271       0.319851       0.446804          0.647
  2280       2281       0.319851       0.411344       0.646632
  2290       2291       0.319851        0.38857       0.646267
  2300       2301       0.319851        0.43179       0.645903
  2310       2311       0.319851       0.469063       0.645541
  2320       2321       0.319851       0.425517       0.645182
  2330       2331       0.319851       0.449233       0.644824
  2340       2341       0.319851        0.44031       0.644468
  2350       2351       0.319851       0.464983       0.644114
  2360       2361       0.319851       0.565631       0.643762
  2370       2371       0.319851        0.65443       0.643412
  2380       2381       0.319851       0.596191       0.643064
  2390       2391       0.319851       0.504425       0.642718
  2400       2401       0.319851        0.47257       0.642373

                           Best        Current           Mean
Iteration   f-count         f(x)         f(x)         temperature
  2410       2411       0.319851       0.458943        0.64203
  2420       2421       0.319851       0.471216       0.641689
  2430       2431       0.319851       0.508398        0.64135
  2440       2441       0.319851       0.471155       0.641012
  2450       2451       0.319851       0.453578       0.640676
  2460       2461       0.319851       0.463226       0.640342
  2470       2471       0.319851       0.476902        0.64001
  2480       2481       0.319851       0.482451       0.639679
  2490       2491       0.319851       0.446615        0.63935
  2500       2501       0.319851       0.525109       0.639023
  2510       2511       0.319851       0.509949       0.638697
  2520       2521       0.319851       0.498989       0.638373
  2530       2531       0.319851       0.495926       0.638051
  2540       2541       0.319851       0.468642        0.63773
  2550       2551       0.319851       0.459346        0.63741
  2560       2561       0.319851       0.490946       0.637093
  2570       2571       0.319851        0.49032       0.636776
  2580       2581       0.319851       0.534966       0.636462
  2590       2591       0.319851       0.473459       0.636149
  2600       2601       0.319851       0.525526       0.635837
  2610       2611       0.319851       0.492384       0.635527
  2620       2621       0.319851       0.471234       0.635218
  2630       2631       0.319851       0.502909       0.634911
  2640       2641       0.319851       0.512491       0.634605
  2650       2651       0.319851       0.497887       0.634301
  2660       2661       0.319851       0.542616       0.633998
  2670       2671       0.319851       0.506071       0.633697
  2680       2681       0.319851       0.508328       0.633397
  2690       2691       0.319851       0.480608       0.633098
  2700       2701       0.319851        0.48866       0.632801

                           Best        Current           Mean
Iteration   f-count         f(x)         f(x)         temperature
  2710       2711       0.319851       0.484688       0.632505
  2720       2721       0.319851       0.450711       0.632211
  2730       2731       0.319851       0.479655       0.631918
  2740       2741       0.319851       0.438441       0.631626
  2750       2751       0.319851       0.546976       0.631335
  2760       2761       0.319851       0.519059       0.631046
  2770       2771       0.319851       0.476575       0.630759
  2780       2781       0.319851       0.480903       0.630472
  2790       2791       0.319851       0.456486       0.630187
  2800       2801       0.319851       0.487474       0.629903
  2810       2811       0.319851        0.44048        0.62962
  2820       2821       0.319851       0.536762       0.629339
  2830       2831       0.319851       0.501349       0.629059
  2840       2841       0.319851       0.553299        0.62878
  2850       2851       0.319851       0.552495       0.628502
  2860       2861       0.319851       0.447629       0.628225
  2870       2871       0.319851         0.4297        0.62795
  2880       2881       0.319851       0.432769       0.627676
  2890       2891       0.319851        0.40379       0.627403
  2900       2901       0.319851       0.410911       0.627131
  2910       2911       0.319851        0.39858       0.626861
  2920       2921       0.319851       0.396121       0.626591
  2930       2931       0.319851       0.383546       0.626323
  2940       2941       0.319851       0.385255       0.626056
  2950       2951       0.319851       0.405469        0.62579
  2960       2961       0.319851       0.373835       0.625525
  2970       2971       0.319851       0.367345       0.625262
  2980       2981       0.319851       0.386348       0.624999
  2990       2991       0.319851       0.421121       0.624737
  3000       3001       0.319851       0.419812       0.624477

                           Best        Current           Mean
Iteration   f-count         f(x)         f(x)         temperature
  3010       3011       0.319851        0.41759       0.624218
  3020       3021       0.319851       0.406192       0.623959
  3030       3031       0.319851        0.41416       0.623702
  3040       3041       0.319851        0.39935       0.623446
  3050       3051       0.319851       0.405707       0.623191
  3060       3061       0.319851       0.425792       0.622937
  3070       3071       0.319851       0.404396       0.622684
  3080       3081       0.319851        0.39186       0.622432
Time limit exceeded: increase options.MaxTime.
