
                           Best        Current           Mean
Iteration   f-count         f(x)         f(x)         temperature
     0          1       0.349018       0.349018             10
    10         11       0.349018       0.484993       0.909091
    20         21       0.349018       0.470921        0.47619
    30         31       0.349018       0.466293       0.322581
    40         41       0.349018       0.482601       0.243902
    50         51       0.349018       0.479902       0.196078
    60         61       0.349018        0.48671       0.163934
    70         71       0.349018       0.474065       0.140845
    80         81       0.349018       0.461912       0.123457
    90         91       0.349018       0.433539        0.10989
   100        101       0.349018       0.438643      0.0990099
   110        111       0.349018       0.425451      0.0900901
   120        121       0.349018       0.407745      0.0826446
   130        131       0.349018       0.389681      0.0763359
   140        141       0.349018       0.399547       0.070922
   150        151       0.349018       0.392142      0.0662252
   160        161       0.349018       0.385671      0.0621118
   170        171       0.349018       0.383077      0.0584795
   180        181       0.349018       0.380387      0.0552486
   190        191       0.349018       0.371802       0.052356
   200        201       0.349018        0.36816      0.0497512
   210        211       0.349018       0.364516      0.0473934
   220        221       0.349018       0.356299      0.0452489
   230        231       0.349018       0.360093        0.04329
   240        241       0.349018       0.363115      0.0414938
   250        251       0.349018       0.362107      0.0398406
   260        261       0.349018       0.353777      0.0383142
   270        271       0.345283       0.345283      0.0369004
   280        281       0.345283       0.348505      0.0355872
   290        291       0.345283       0.354898      0.0343643
   300        301       0.345283       0.346472      0.0332226

                           Best        Current           Mean
Iteration   f-count         f(x)         f(x)         temperature
   310        311       0.345283       0.348091      0.0321543
   320        321       0.344205       0.344205      0.0311526
   330        331       0.338825       0.338825      0.0302115
   340        341       0.325866         0.3262      0.0293255
   350        351       0.324682       0.326324        0.02849
   360        361        0.32083        0.32083      0.0277008
   370        371       0.318952       0.320316      0.0269542
   380        381       0.317965       0.324214      0.0262467
   390        391        0.31635        0.31635      0.0255754
   400        401        0.31635       0.318837      0.0249377
   410        411        0.31635        0.31693      0.0243309
   420        421        0.31155       0.311947       0.023753
   430        431       0.311488       0.318051      0.0232019
   440        441       0.311488       0.318709      0.0226757
   450        451       0.311488       0.317218      0.0221729
   460        461       0.311488       0.314346       0.021692
   470        471       0.311488       0.319211      0.0212314
   480        481       0.311488       0.317175        0.02079
   490        491       0.311488       0.318033      0.0203666
   500        501       0.311488       0.316105      0.0199601
   510        511       0.311488       0.317492      0.0195695
   520        521       0.311488       0.315533      0.0191939
   530        531       0.311488       0.314153      0.0188324
   540        541       0.311488       0.312717      0.0184843
   550        551        0.31111        0.31111      0.0181488
   560        561       0.309711       0.311556      0.0178253
   570        571       0.309322       0.309798      0.0175131
   580        581       0.309322       0.316252      0.0172117
   590        591       0.309322       0.314031      0.0169205
   600        601       0.309322       0.317707      0.0166389

                           Best        Current           Mean
Iteration   f-count         f(x)         f(x)         temperature
   610        611       0.309322       0.316042      0.0163666
   620        621       0.309322       0.317458      0.0161031
   630        631       0.309322       0.314813      0.0158479
   640        641       0.309322       0.312976      0.0156006
   650        651       0.309322       0.316237       0.015361
   660        661       0.309322       0.314695      0.0151286
   670        671       0.309322       0.316088      0.0149031
   680        681       0.309322       0.316857      0.0146843
   690        691       0.309322       0.313486      0.0144718
   700        701       0.309322       0.311813      0.0142653
   710        711       0.309322       0.310585      0.0140647
   720        721       0.309322       0.310535      0.0138696
   730        731       0.309292       0.310831      0.0136799
   740        741       0.308016       0.309257      0.0134953
   750        751       0.308016       0.308513      0.0133156
   760        761       0.308016       0.308345      0.0131406
   770        771        0.30702       0.307847      0.0129702
   780        781       0.306404       0.306665      0.0128041
   790        791       0.306332       0.307013      0.0126422
   800        801       0.306332       0.306584      0.0124844
   810        811       0.305706       0.306453      0.0123305
   820        821       0.305208       0.305208      0.0121803
   830        831       0.305208       0.306531      0.0120337
   840        841       0.305208       0.306496      0.0118906
   850        851       0.305208       0.306004      0.0117509
   860        861       0.305208       0.305898      0.0116144
   870        871        0.30507        0.30507      0.0114811
   880        881        0.30507       0.307764      0.0113507
   890        891        0.30507        0.30782      0.0112233
   900        901        0.30507       0.308036      0.0110988

                           Best        Current           Mean
Iteration   f-count         f(x)         f(x)         temperature
   910        911        0.30507       0.305928      0.0109769
   920        921        0.30507       0.305686      0.0108578
   930        931       0.304135       0.304135      0.0107411
   940        941       0.303195       0.303195       0.010627
   950        951       0.302993       0.303064      0.0105152
   960        961       0.301197       0.301197      0.0104058
   970        971       0.300206       0.300206      0.0102987
   980        981       0.299581       0.299704      0.0101937
   990        991       0.299581       0.300372      0.0100908
  1000       1001       0.299581       0.300808     0.00999001
  1010       1011       0.299581       0.303285      0.0098912
  1020       1021       0.299581       0.301827     0.00979432
  1030       1031       0.299581       0.301039     0.00969932
  1040       1041       0.299581         0.3001     0.00960615
  1050       1051       0.299581       0.300409     0.00951475
  1060       1061       0.299581       0.301283     0.00942507
  1070       1071       0.299581        0.30115     0.00933707
  1080       1081       0.299581       0.301257     0.00925069
  1090       1091       0.299581       0.301345      0.0091659
  1100       1101       0.299435       0.299435     0.00908265
  1110       1111       0.299286       0.299923      0.0090009
  1120       1121       0.298275       0.298677     0.00892061
  1130       1131       0.298016       0.298063     0.00884173
  1140       1141       0.297003       0.297139     0.00876424
  1150       1151       0.297003       0.298314      0.0086881
  1160       1161       0.296556       0.296556     0.00861326
  1170       1171       0.294384       0.294384     0.00853971
  1180       1181       0.294384        0.29466      0.0084674
  1190       1191       0.294384       0.295889     0.00839631
  1200       1201       0.294384       0.295909     0.00832639

                           Best        Current           Mean
Iteration   f-count         f(x)         f(x)         temperature
  1210       1211       0.294384       0.294869     0.00825764
  1220       1221       0.294384       0.294854     0.00819001
  1230       1231       0.294384       0.295483     0.00812348
  1240       1241       0.294384       0.295202     0.00805802
  1250       1251       0.294384        0.29522     0.00799361
  1260       1261       0.294042       0.294042     0.00793021
  1270       1271       0.294042       0.294428     0.00786782
  1280       1281       0.293799       0.294017      0.0078064
  1290       1291       0.293799       0.294079     0.00774593
  1300       1301       0.293422       0.294713      0.0076864
  1310       1311       0.293422       0.294654     0.00762777
  1320       1321       0.293422       0.293513     0.00757002
  1330       1331       0.293389       0.293389     0.00751315
  1340       1341       0.292657       0.292903     0.00745712
  1350       1351       0.292657       0.293538     0.00740192
  1360       1361       0.292657       0.293411     0.00734754
  1370       1371       0.292657       0.293903     0.00729395
  1380       1381       0.292657       0.293603     0.00724113
  1390       1391       0.292657       0.293268     0.00718907
  1400       1401       0.292657       0.293031     0.00713776
  1410       1411       0.292642       0.292642     0.00708717
  1420       1421       0.292548         0.2926      0.0070373
  1430       1431       0.292515       0.294315     0.00698812
  1440       1441       0.292515       0.295047     0.00693963
  1450       1451       0.292515       0.293838      0.0068918
  1460       1461       0.292515       0.294046     0.00684463
  1470       1471       0.292515       0.293523      0.0067981
  1480       1481       0.292515       0.293206     0.00675219
  1490       1491       0.291985       0.292331     0.00670691
  1500       1501       0.291819       0.291819     0.00666223

                           Best        Current           Mean
Iteration   f-count         f(x)         f(x)         temperature
  1510       1511       0.290931       0.290931     0.00661813
  1520       1521       0.290583       0.290583     0.00657462
  1530       1531       0.290365       0.290525     0.00653168
  1540       1541       0.290365       0.290499     0.00648929
  1550       1551       0.289933       0.289933     0.00644745
  1560       1561       0.289835       0.289965     0.00640615
  1570       1571       0.289662       0.290127     0.00636537
  1580       1581       0.289662       0.290536     0.00632511
  1590       1591       0.289662         0.2914     0.00628536
  1600       1601       0.289662       0.291657      0.0062461
  1610       1611       0.289662       0.291192     0.00620732
  1620       1621       0.289662       0.291838     0.00616903
  1630       1631       0.289662       0.292077     0.00613121
  1640       1641       0.289662        0.29052     0.00609385
  1650       1651       0.289662       0.291213     0.00605694
  1660       1661       0.289662       0.291653     0.00602047
  1670       1671       0.289662       0.290884     0.00598444
  1680       1681       0.289662        0.29079     0.00594884
  1690       1691       0.289339       0.289483     0.00591366
  1700       1701       0.289339        0.28971     0.00587889
  1710       1711       0.289064       0.289489     0.00584454
  1720       1721       0.289064        0.28974     0.00581058
  1730       1731       0.289064       0.290091     0.00577701
  1740       1741       0.289064       0.289255     0.00574383
  1750       1751       0.288909       0.289249     0.00571102
  1760       1761       0.288909       0.289438     0.00567859
  1770       1771       0.288905       0.288905     0.00564653
  1780       1781       0.288637       0.289159     0.00561482
  1790       1791       0.288637       0.290157     0.00558347
  1800       1801       0.288637       0.290483     0.00555247

                           Best        Current           Mean
Iteration   f-count         f(x)         f(x)         temperature
  1810       1811       0.288637       0.291628     0.00552181
  1820       1821       0.288637        0.29062     0.00549149
  1830       1831       0.288637       0.290789      0.0054615
  1840       1841       0.288637       0.291367     0.00543183
  1850       1851       0.288637       0.290499     0.00540249
  1860       1861       0.288637       0.289653     0.00537346
  1870       1871       0.288637       0.289047     0.00534474
  1880       1881       0.288249       0.288249     0.00531632
  1890       1891       0.287904       0.288253     0.00528821
  1900       1901       0.287645       0.287645     0.00526039
  1910       1911       0.287645       0.287919     0.00523286
  1920       1921       0.287543       0.287543     0.00520562
  1930       1931        0.28739        0.28739     0.00517866
  1940       1941       0.286999       0.287788     0.00515198
  1950       1951       0.286999       0.287737     0.00512558
  1960       1961       0.286999       0.288147     0.00509944
  1970       1971       0.286999       0.288329     0.00507357
  1980       1981       0.286999        0.28785     0.00504796
  1990       1991       0.286999        0.28761      0.0050226
  2000       2001       0.286999       0.288137      0.0049975
  2010       2011       0.286999       0.288602     0.00497265
  2020       2021       0.286999        0.28761     0.00494805
  2030       2031       0.286999       0.288535     0.00492368
  2040       2041       0.286999        0.28805     0.00489956
  2050       2051       0.286999       0.288277     0.00487567
  2060       2061       0.286999       0.288293     0.00485201
  2070       2071       0.286999       0.288415     0.00482859
  2080       2081       0.286999       0.288935     0.00480538
  2090       2091       0.286999       0.288248      0.0047824
  2100       2101       0.286999       0.288177     0.00475964

                           Best        Current           Mean
Iteration   f-count         f(x)         f(x)         temperature
  2110       2111       0.286999       0.288442     0.00473709
  2120       2121       0.286999       0.287748     0.00471476
  2130       2131       0.286999       0.288016     0.00469263
  2140       2141       0.286999        0.28855     0.00467071
  2150       2151       0.286999       0.289074       0.004649
  2160       2161       0.286999       0.288975     0.00462749
  2170       2171       0.286999       0.288752     0.00460617
  2180       2181       0.286999       0.288982     0.00458505
  2190       2191       0.286999       0.289092     0.00456413
  2200       2201       0.286999       0.289076     0.00454339
  2210       2211       0.286999       0.289879     0.00452284
  2220       2221       0.286999       0.288842     0.00450248
  2230       2231       0.286999       0.288852     0.00448229
  2240       2241       0.286999        0.28842     0.00446229
  2250       2251       0.286999       0.287889     0.00444247
  2260       2261       0.286999       0.288427     0.00442282
  2270       2271       0.286999       0.288092     0.00440335
  2280       2281       0.286984       0.286995     0.00438404
  2290       2291       0.286651       0.286807     0.00436491
  2300       2301        0.28639       0.286493     0.00434594
  2310       2311       0.286371       0.286416     0.00432713
  2320       2321       0.286371       0.286748     0.00430849
  2330       2331        0.28622        0.28716        0.00429
  2340       2341        0.28622       0.287034     0.00427168
  2350       2351        0.28622       0.286423     0.00425351
  2360       2361       0.286216        0.28654     0.00423549
  2370       2371       0.286216       0.287049     0.00421763
  2380       2381       0.286216       0.287525     0.00419992
  2390       2391       0.286216       0.287387     0.00418235
  2400       2401       0.286216       0.286974     0.00416493

                           Best        Current           Mean
Iteration   f-count         f(x)         f(x)         temperature
  2410       2411       0.286216       0.286721     0.00414766
  2420       2421       0.286216       0.286818     0.00413052
  2430       2431       0.286216       0.286845     0.00411353
  2440       2441       0.286216        0.28721     0.00409668
  2450       2451       0.286216       0.286513     0.00407997
  2460       2461       0.286216       0.286715     0.00406339
  2470       2471       0.286216       0.287444     0.00404694
  2480       2481       0.286216       0.286969     0.00403063
  2490       2491       0.286216       0.287139     0.00401445
  2500       2501       0.286216       0.287179      0.0039984
  2510       2511       0.286216       0.286958     0.00398248
  2520       2521       0.286216       0.287555     0.00396668
  2530       2531       0.286216       0.287309     0.00395101
  2540       2541       0.286216       0.286808     0.00393546
  2550       2551       0.286216       0.287174     0.00392003
  2560       2561       0.286216       0.286572     0.00390472
  2570       2571       0.286205       0.286257     0.00388954
  2580       2581       0.286172       0.286713     0.00387447
  2590       2591       0.286172       0.286405     0.00385951
  2600       2601       0.285821       0.285821     0.00384468
  2610       2611       0.285512       0.285768     0.00382995
  2620       2621       0.285452       0.285638     0.00381534
  2630       2631       0.285452       0.285967     0.00380084
  2640       2641       0.285452       0.286302     0.00378644
  2650       2651       0.285452       0.285938     0.00377216
  2660       2661       0.285452       0.285466     0.00375799
  2670       2671       0.284896       0.284971     0.00374392
  2680       2681       0.284896       0.285258     0.00372995
  2690       2691       0.284896       0.285161     0.00371609
  2700       2701       0.284896       0.285067     0.00370233

                           Best        Current           Mean
Iteration   f-count         f(x)         f(x)         temperature
  2710       2711       0.284488       0.284488     0.00368868
  2720       2721       0.284488       0.285519     0.00367512
  2730       2731       0.284488       0.285161     0.00366166
  2740       2741       0.284488       0.284551      0.0036483
  2750       2751       0.284296       0.284347     0.00363504
  2760       2761       0.284296       0.285159     0.00362188
  2770       2771       0.284296       0.284435     0.00360881
  2780       2781       0.284131       0.284205     0.00359583
  2790       2791       0.283914       0.284132     0.00358295
  2800       2801       0.283889       0.284438     0.00357015
  2810       2811       0.283889       0.284766     0.00355745
  2820       2821       0.283889       0.284682     0.00354484
  2830       2831       0.283889       0.284694     0.00353232
  2840       2841       0.283889       0.284846     0.00351989
  2850       2851       0.283889       0.284529     0.00350754
  2860       2861       0.283889       0.284892     0.00349528
  2870       2871       0.283889       0.285193     0.00348311
  2880       2881       0.283889       0.285128     0.00347102
  2890       2891       0.283889       0.285824     0.00345901
  2900       2901       0.283889       0.285572     0.00344709
  2910       2911       0.283889       0.284265     0.00343525
  2920       2921       0.283826       0.284085     0.00342349
  2930       2931       0.283501       0.284096      0.0034118
  2940       2941       0.283501       0.284103      0.0034002
  2950       2951       0.283173       0.283173     0.00338868
  2960       2961       0.282762       0.282762     0.00337724
  2970       2971       0.282627       0.282851     0.00336587
  2980       2981       0.282627       0.283226     0.00335458
  2990       2991       0.282627        0.28343     0.00334336
  3000       3001       0.282627       0.283286     0.00333222

                           Best        Current           Mean
Iteration   f-count         f(x)         f(x)         temperature
  3010       3011       0.282627       0.283543     0.00332116
  3020       3021       0.282627       0.282858     0.00331016
  3030       3031       0.282627       0.283033     0.00329924
  3040       3041       0.282627       0.283283     0.00328839
  3050       3051       0.282627       0.282926     0.00327761
  3060       3061       0.282577       0.282577     0.00326691
  3070       3071        0.28256       0.282935     0.00325627
  3080       3081        0.28256       0.282783      0.0032457
  3090       3091        0.28256       0.282734      0.0032352
  3100       3101        0.28256       0.282785     0.00322477
  3110       3111       0.282354       0.282354      0.0032144
  3120       3121       0.282354       0.283648      0.0032041
  3130       3131       0.282354       0.283433     0.00319387
  3140       3141       0.282354       0.283662      0.0031837
  3150       3151       0.282354       0.283223      0.0031736
  3160       3161       0.282354       0.282971     0.00316356
  3170       3171       0.282354       0.282475     0.00315358
  3180       3181       0.282354       0.282716     0.00314367
  3190       3191       0.282234       0.282258     0.00313381
  3200       3201       0.281954       0.282078     0.00312402
  3210       3211       0.281654       0.281654     0.00311429
  3220       3221        0.28161        0.28163     0.00310463
  3230       3231       0.281438       0.281438     0.00309502
  3240       3241       0.281044       0.281055     0.00308547
  3250       3251       0.281044       0.281078     0.00307598
  3260       3261       0.281044       0.281222     0.00306654
  3270       3271       0.280865       0.280865     0.00305717
  3280       3281       0.280819       0.280889     0.00304785
  3290       3291       0.280632       0.280764     0.00303859
  3300       3301       0.280465       0.280506     0.00302939

                           Best        Current           Mean
Iteration   f-count         f(x)         f(x)         temperature
  3310       3311       0.280001       0.280034     0.00302024
  3320       3321       0.279826       0.280195     0.00301114
  3330       3331       0.279826       0.280472      0.0030021
  3340       3341       0.279826       0.280142     0.00299312
  3350       3351       0.279826       0.280411     0.00298418
  3360       3361       0.279826       0.280267      0.0029753
  3370       3371       0.279826       0.280414     0.00296648
  3380       3381       0.279826        0.28041      0.0029577
  3390       3391       0.279826       0.280076     0.00294898
  3400       3401       0.279723       0.279723     0.00294031
  3410       3411       0.279114       0.279114     0.00293169
  3420       3421       0.278769       0.279316     0.00292312
  3430       3431       0.278769       0.278927      0.0029146
  3440       3441       0.278535       0.278833     0.00290613
  3450       3451       0.278535       0.279152     0.00289771
  3460       3461       0.278535       0.279618     0.00288934
  3470       3471       0.278535       0.280097     0.00288101
  3480       3481       0.278535       0.281448     0.00287274
  3490       3491       0.278535       0.280857     0.00286451
  3500       3501       0.278535       0.281013     0.00285633
  3510       3511       0.278535        0.28093     0.00284819
  3520       3521       0.278535       0.280062      0.0028401
  3530       3531       0.278535        0.28017     0.00283206
  3540       3541       0.278535       0.280251     0.00282406
  3550       3551       0.278535       0.280535     0.00281611
  3560       3561       0.278535       0.280574      0.0028082
  3570       3571       0.278535       0.280866     0.00280034
  3580       3581       0.278535         0.2808     0.00279252
  3590       3591       0.278535       0.280338     0.00278474
  3600       3601       0.278535       0.280902     0.00277701

                           Best        Current           Mean
Iteration   f-count         f(x)         f(x)         temperature
  3610       3611       0.278535       0.280667     0.00276932
  3620       3621       0.278535       0.279996     0.00276167
  3630       3631       0.278535       0.280165     0.00275406
  3640       3641       0.278535       0.280023      0.0027465
  3650       3651       0.278535       0.278588     0.00273898
  3660       3661       0.278402       0.278826     0.00273149
  3670       3671       0.278402       0.278818     0.00272405
  3680       3681       0.278402       0.278604     0.00271665
  3690       3691       0.278299       0.278824     0.00270929
  3700       3701       0.278299       0.278866     0.00270197
  3710       3711       0.278219       0.278591     0.00269469
  3720       3721       0.278219       0.278663     0.00268745
  3730       3731       0.278219       0.278915     0.00268025
  3740       3741       0.278219       0.278536     0.00267308
  3750       3751       0.278219       0.278498     0.00266596
  3760       3761       0.277852       0.277852     0.00265887
  3770       3771       0.277462        0.27759     0.00265182
  3780       3781       0.277172       0.277172      0.0026448
  3790       3791       0.277109       0.277489     0.00263783
  3800       3801       0.277109       0.277475     0.00263089
  3810       3811       0.276975       0.277563     0.00262398
  3820       3821       0.276975       0.277765     0.00261712
  3830       3831       0.276975       0.277442     0.00261028
  3840       3841       0.276975       0.277179     0.00260349
  3850       3851       0.276901       0.276901     0.00259673
  3860       3861       0.276549       0.276549        0.00259
  3870       3871       0.276254       0.276254     0.00258331
  3880       3881       0.275819       0.275819     0.00257666
  3890       3891       0.275761       0.275761     0.00257003
  3900       3901       0.275583       0.275728     0.00256345

                           Best        Current           Mean
Iteration   f-count         f(x)         f(x)         temperature
  3910       3911       0.275469       0.275469     0.00255689
  3920       3921        0.27534       0.275487     0.00255037
Time limit exceeded: increase options.MaxTime.
