
                           Best        Current           Mean
Iteration   f-count         f(x)         f(x)         temperature
     0          1       0.349018       0.349018            2.5
    10         11       0.349018       0.395038        1.04258
    20         21       0.349018       0.375771       0.821147
    30         31       0.349018        0.41944       0.728017
    40         41       0.349018       0.378525       0.673206
    50         51       0.349018       0.372431       0.635837
    60         61       0.349018         0.3728       0.608143
    70         71       0.349018       0.363881       0.586486
    80         81       0.345308       0.345308         0.5689
    90         91       0.345308       0.362224       0.554218
   100        101       0.332944       0.332966       0.541698
   110        111       0.325639       0.342526       0.530839
   120        121       0.325639        0.32721        0.52129
   130        131       0.325639       0.331381         0.5128
   140        141       0.319785       0.319785       0.505177
   150        151       0.315503       0.337446       0.498278
   160        161       0.315503       0.327482        0.49199
   170        171       0.315503       0.321411       0.486224
   180        181       0.315503       0.327025       0.480908
   190        191       0.315503       0.342237       0.475984
   200        201       0.315503       0.352718       0.471404
   210        211       0.315503       0.355004       0.467127
   220        221       0.315503       0.349699       0.463121
   230        231       0.315503       0.323429       0.459355
   240        241       0.315503       0.330099       0.455805
   250        251       0.315503       0.325652       0.452452
   260        261       0.315503       0.330362       0.449275
   270        271       0.315503       0.342808        0.44626
   280        281       0.315503       0.329846       0.443392
   290        291       0.315503       0.327796       0.440659
   300        301       0.315503       0.317838        0.43805

                           Best        Current           Mean
Iteration   f-count         f(x)         f(x)         temperature
   310        311       0.315503       0.324115       0.435556
   320        321       0.315503       0.327711       0.433167
   330        331       0.315503       0.319498       0.430877
   340        341       0.315503       0.317374       0.428678
   350        351       0.315503       0.323568       0.426564
   360        361       0.315503       0.322725       0.424529
   370        371       0.315503       0.328688       0.422568
   380        381       0.315503       0.325637       0.420677
   390        391       0.315503       0.317124       0.418851
   400        401       0.313402       0.321796       0.417086
   410        411       0.313402       0.323549       0.415379
   420        421       0.313402       0.327543       0.413727
   430        431       0.313402       0.324983       0.412126
   440        441       0.313402       0.321261       0.410573
   450        451       0.313402       0.331616       0.409067
   460        461       0.313402       0.321841       0.407604
   470        471       0.313402       0.328912       0.406183
   480        481       0.313402       0.330925       0.404801
   490        491       0.313402       0.326683       0.403457
   500        501       0.313402       0.339938       0.402149
   510        511       0.313402       0.342697       0.400874
   520        521       0.313402       0.331378       0.399632
   530        531       0.313402       0.342404       0.398421
   540        541       0.313402       0.347391        0.39724
   550        551       0.313402       0.342062       0.396088
   560        561       0.313402       0.332892       0.394962
   570        571       0.313402       0.326685       0.393863
   580        581       0.313402       0.325788       0.392788
   590        591       0.313402        0.32103       0.391738
   600        601       0.313402       0.326995       0.390711

                           Best        Current           Mean
Iteration   f-count         f(x)         f(x)         temperature
   610        611       0.313402       0.338261       0.389706
   620        621       0.313402       0.351842       0.388722
   630        631       0.313402        0.34529       0.387759
   640        641       0.313402        0.36586       0.386816
   650        651       0.313402       0.332733       0.385891
   660        661       0.313402       0.323362       0.384985
   670        671       0.313402       0.330136       0.384097
   680        681       0.313402       0.327641       0.383226
   690        691       0.313402       0.324576       0.382372
   700        701       0.313402       0.320368       0.381533
   710        711       0.313402        0.32202        0.38071
   720        721       0.313402       0.330511       0.379902
   730        731       0.312432       0.312432       0.379109
   740        741       0.311044        0.31558       0.378329
   750        751       0.311044       0.323927       0.377563
   760        761       0.311044       0.325469       0.376811
   770        771       0.311044       0.316181       0.376071
   780        781       0.309449       0.311854       0.375343
   790        791       0.308913       0.310053       0.374627
   800        801       0.308913       0.314746       0.373923
   810        811       0.308355       0.308355       0.373231
   820        821       0.307368       0.333627       0.372549
   830        831       0.307368        0.32167       0.371878
   840        841       0.307368       0.327564       0.371218
   850        851       0.307368       0.321491       0.370567
   860        861       0.307368       0.322023       0.369927
   870        871       0.307368       0.318293       0.369296
   880        881       0.307368       0.316778       0.368674
   890        891       0.307368       0.312723       0.368061
   900        901       0.307368        0.31282       0.367458

                           Best        Current           Mean
Iteration   f-count         f(x)         f(x)         temperature
   910        911       0.305545       0.305908       0.366862
   920        921       0.302143       0.303249       0.366276
   930        931       0.301806       0.306261       0.365697
   940        941       0.301806       0.308697       0.365126
   950        951       0.301806       0.322859       0.364564
   960        961       0.301806       0.324405       0.364008
   970        971       0.301806       0.340597       0.363461
   980        981       0.301806       0.349262        0.36292
   990        991       0.301806       0.354308       0.362386
  1000       1001       0.301806       0.348842        0.36186
  1010       1011       0.301806        0.34878        0.36134
  1020       1021       0.301806       0.345861       0.360826
  1030       1031       0.301806       0.343517        0.36032
  1040       1041       0.301806        0.34083       0.359819
  1050       1051       0.301806       0.333143       0.359325
  1060       1061       0.301806       0.334085       0.358836
  1070       1071       0.301806       0.341564       0.358354
  1080       1081       0.301806       0.336798       0.357877
  1090       1091       0.301806        0.33772       0.357406
  1100       1101       0.301806       0.324661        0.35694
  1110       1111       0.301806       0.321989        0.35648
  1120       1121       0.301806       0.320371       0.356025
  1130       1131       0.301806       0.317498       0.355575
  1140       1141       0.301806       0.326246       0.355131
  1150       1151       0.301806       0.341754       0.354691
  1160       1161       0.301806       0.343792       0.354256
  1170       1171       0.301806       0.324903       0.353826
  1180       1181       0.301806       0.323769       0.353401
  1190       1191       0.301806       0.330155        0.35298
  1200       1201       0.301806       0.330435       0.352564

                           Best        Current           Mean
Iteration   f-count         f(x)         f(x)         temperature
  1210       1211       0.301806       0.329378       0.352152
  1220       1221       0.301806       0.311785       0.351745
  1230       1231       0.301806       0.310684       0.351342
  1240       1241       0.301806       0.312408       0.350943
  1250       1251       0.301806       0.317648       0.350548
  1260       1261       0.301806         0.3272       0.350157
  1270       1271       0.301806       0.317757        0.34977
  1280       1281       0.301806       0.315177       0.349387
  1290       1291       0.301806       0.310573       0.349007
  1300       1301       0.301806       0.314668       0.348632
  1310       1311       0.301806       0.311211        0.34826
  1320       1321       0.301806       0.307586       0.347892
  1330       1331       0.301806       0.326343       0.347527
  1340       1341       0.301806       0.336355       0.347166
  1350       1351       0.301806       0.361021       0.346808
  1360       1361       0.301806       0.343043       0.346454
  1370       1371       0.301806       0.342663       0.346102
  1380       1381       0.301806       0.359961       0.345755
  1390       1391       0.301806       0.359657        0.34541
  1400       1401       0.301806       0.355577       0.345068
  1410       1411       0.301806       0.345718        0.34473
  1420       1421       0.301806       0.350774       0.344395
  1430       1431       0.301806       0.347352       0.344062
  1440       1441       0.301806       0.347013       0.343733
  1450       1451       0.301806       0.348463       0.343406
  1460       1461       0.301806       0.343167       0.343083
  1470       1471       0.301806       0.346215       0.342762
* 1479       1602       0.301806       0.351952        1.81216
  1480       1603       0.301806       0.337058         1.5157
  1490       1613       0.301806       0.375112       0.909879
  1500       1623       0.301806       0.355904        0.77033

                           Best        Current           Mean
Iteration   f-count         f(x)         f(x)         temperature
  1510       1633       0.301806       0.408354       0.699281
  1520       1643       0.301806       0.344544       0.654042
  1530       1653       0.301806       0.361294       0.621832
  1540       1663       0.301806        0.38143       0.597295
  1550       1673       0.301806       0.386663       0.577738
  1560       1683       0.301806        0.36027       0.561636
  1570       1693       0.301806       0.343817        0.54805
  1580       1703       0.301806       0.338425       0.536366
  1590       1713       0.301806        0.39527       0.526163
  1600       1723       0.301806       0.374845       0.517143
  1610       1733       0.301806       0.394918       0.509083
  1620       1743       0.301806       0.381039       0.501819
  1630       1753       0.301806       0.406104       0.495222
  1640       1763       0.301806       0.401267       0.489191
  1650       1773       0.301806        0.37851       0.483647
  1660       1783       0.301806       0.380644       0.478523
  1670       1793       0.301806       0.368848       0.473768
  1680       1803       0.301806       0.382545       0.469336
  1690       1813       0.301806        0.37191       0.465191
  1700       1823       0.301806        0.38844       0.461302
  1710       1833       0.301806       0.384929       0.457642
  1720       1843       0.301806       0.381662       0.454188
  1730       1853       0.301806       0.379168        0.45092
  1740       1863       0.301806        0.38637       0.447822
  1750       1873       0.301806       0.385802       0.444879
  1760       1883       0.301806       0.376655       0.442076
  1770       1893       0.301806       0.376515       0.439404
  1780       1903       0.301806       0.395197        0.43685
  1790       1913       0.301806       0.377962       0.434407
  1800       1923       0.301806       0.380985       0.432066

                           Best        Current           Mean
Iteration   f-count         f(x)         f(x)         temperature
  1810       1933       0.301806       0.369967        0.42982
  1820       1943       0.301806       0.360638       0.427662
  1830       1953       0.301806       0.377704       0.425587
  1840       1963       0.301806       0.387645       0.423588
  1850       1973       0.301806       0.399243        0.42166
  1860       1983       0.301806       0.399442       0.419801
  1870       1993       0.301806       0.385688       0.418004
  1880       2003       0.301806       0.389152       0.416267
  1890       2013       0.301806       0.391223       0.414587
  1900       2023       0.301806       0.386454       0.412959
  1910       2033       0.301806       0.372959       0.411381
  1920       2043       0.301806       0.381238       0.409851
  1930       2053       0.301806       0.388302       0.408366
  1940       2063       0.301806       0.407316       0.406923
  1950       2073       0.301806       0.402268       0.405521
  1960       2083       0.301806       0.380282       0.404157
  1970       2093       0.301806        0.36657        0.40283
  1980       2103       0.301806       0.365702       0.401538
  1990       2113       0.301806       0.366481       0.400279
  2000       2123       0.301806       0.377199       0.399052
  2010       2133       0.301806       0.369442       0.397856
  2020       2143       0.301806       0.374271       0.396688
  2030       2153       0.301806       0.358451       0.395549
  2040       2163       0.301806       0.356993       0.394436
  2050       2173       0.301806       0.347145       0.393348
  2060       2183       0.301806       0.344946       0.392286
  2070       2193       0.301806       0.346286       0.391246
  2080       2203       0.301806       0.352238        0.39023
  2090       2213       0.301806       0.355413       0.389235
  2100       2223       0.301806       0.360641       0.388261

                           Best        Current           Mean
Iteration   f-count         f(x)         f(x)         temperature
  2110       2233       0.301806       0.364065       0.387308
  2120       2243       0.301806       0.364122       0.386373
  2130       2253       0.301806       0.369263       0.385458
  2140       2263       0.301806       0.384429       0.384561
  2150       2273       0.301806       0.381345       0.383681
  2160       2283       0.301806       0.382201       0.382818
  2170       2293       0.301806         0.3761       0.381971
  2180       2303       0.301806       0.377058        0.38114
  2190       2313       0.301806        0.38708       0.380324
  2200       2323       0.301806        0.38554       0.379523
  2210       2333       0.301806       0.372413       0.378736
  2220       2343       0.301806       0.360486       0.377963
  2230       2353       0.301806       0.361705       0.377203
  2240       2363       0.301806       0.367083       0.376457
  2250       2373       0.301806        0.37696       0.375723
  2260       2383       0.301806       0.379044       0.375001
  2270       2393       0.301806       0.381938       0.374291
  2280       2403       0.301806       0.386229       0.373592
  2290       2413       0.301806       0.386915       0.372905
  2300       2423       0.301806        0.37204       0.372229
  2310       2433       0.301806       0.372322       0.371563
  2320       2443       0.301806       0.355716       0.370907
  2330       2453       0.301806       0.340854       0.370261
  2340       2463       0.301806       0.345223       0.369625
  2350       2473       0.301806       0.339424       0.368999
  2360       2483       0.301806       0.346003       0.368381
  2370       2493       0.301806       0.342069       0.367773
  2380       2503       0.301806       0.341343       0.367173
  2390       2513       0.301806       0.338415       0.366582
  2400       2523       0.301806       0.339091       0.365999

                           Best        Current           Mean
Iteration   f-count         f(x)         f(x)         temperature
  2410       2533       0.301806       0.352607       0.365424
  2420       2543       0.301806       0.343929       0.364858
  2430       2553       0.301806       0.345179       0.364298
  2440       2563       0.301806       0.342165       0.363747
  2450       2573       0.301806       0.334211       0.363202
  2460       2583       0.301806       0.331407       0.362665
  2470       2593       0.301806        0.33276       0.362135
  2480       2603       0.301806        0.33331       0.361611
  2490       2613       0.301806       0.340146       0.361095
  2500       2623       0.301806       0.334918       0.360584
  2510       2633       0.301806       0.331974       0.360081
  2520       2643       0.301806       0.338447       0.359583
  2530       2653       0.301806       0.334623       0.359091
  2540       2663       0.301806        0.33319       0.358606
  2550       2673       0.301806       0.332195       0.358126
  2560       2683       0.301806        0.32928       0.357652
  2570       2693       0.301806       0.327497       0.357184
  2580       2703       0.301806       0.326865        0.35672
  2590       2713       0.301806       0.333537       0.356263
  2600       2723       0.301806       0.340516        0.35581
  2610       2733       0.301806       0.340835       0.355363
  2620       2743       0.301806       0.339033       0.354921
  2630       2753       0.301806       0.357267       0.354484
  2640       2763       0.301806       0.342828       0.354051
  2650       2773       0.301806       0.354532       0.353623
  2660       2783       0.301806       0.343208         0.3532
  2670       2793       0.301806       0.334004       0.352782
  2680       2803       0.301806       0.339871       0.352367
  2690       2813       0.301806       0.339563       0.351958
  2700       2823       0.301806       0.328312       0.351552

                           Best        Current           Mean
Iteration   f-count         f(x)         f(x)         temperature
  2710       2833       0.301806       0.322739       0.351151
  2720       2843       0.301806       0.337919       0.350754
  2730       2853       0.301806       0.330027       0.350361
  2740       2863       0.301806       0.336602       0.349972
  2750       2873       0.301806       0.344141       0.349587
  2760       2883       0.301806       0.344287       0.349206
  2770       2893       0.301806       0.341128       0.348828
  2780       2903       0.301806       0.348603       0.348454
  2790       2913       0.301806       0.339893       0.348084
  2800       2923       0.301806       0.338487       0.347718
  2810       2933       0.301806       0.341846       0.347355
  2820       2943       0.301806       0.350777       0.346995
  2830       2953       0.301806       0.342051       0.346639
  2840       2963       0.301806       0.347244       0.346286
  2850       2973       0.301806       0.357623       0.345936
  2860       2983       0.301806       0.364013        0.34559
  2870       2993       0.301806       0.376105       0.345247
  2880       3003       0.301806       0.379897       0.344907
  2890       3013       0.301806       0.373866        0.34457
  2900       3023       0.301806       0.373676       0.344236
  2910       3033       0.301806       0.354362       0.343905
  2920       3043       0.301806        0.35986       0.343577
* 2921       3166       0.301806       0.358449        1.65225
  2930       3175       0.301806        0.44344       0.941964
  2940       3185       0.301806       0.397219       0.783618
  2950       3195       0.301806        0.37633       0.707021
  2960       3205       0.301806       0.389535       0.659285
  2970       3215       0.301806       0.397942       0.625699
  2980       3225       0.301806       0.438071        0.60031
  2990       3235       0.301806       0.393247       0.580181
  3000       3245       0.301806       0.377893       0.563671

                           Best        Current           Mean
Iteration   f-count         f(x)         f(x)         temperature
  3010       3255       0.301806       0.386069       0.549783
  3020       3265       0.301806       0.384334       0.537867
  3030       3275       0.301806       0.397674       0.527482
  3040       3285       0.301806       0.394555       0.518314
  3050       3295       0.301806       0.447495       0.510134
  3060       3305       0.301806       0.484208        0.50277
  3070       3315       0.301806       0.489191       0.496088
  3080       3325       0.301806       0.434471       0.489985
  3090       3335       0.301806        0.44376       0.484378
  3100       3345       0.301806       0.462491       0.479201
  3110       3355       0.301806       0.468507       0.474398
  3120       3365       0.301806       0.466648       0.469924
  3130       3375       0.301806       0.465004       0.465742
  3140       3385       0.301806       0.479836        0.46182
  3150       3395       0.301806       0.475193        0.45813
  3160       3405       0.301806       0.434479       0.454649
  3170       3415       0.301806       0.445774       0.451357
  3180       3425       0.301806       0.451448       0.448236
  3190       3435       0.301806       0.434031       0.445272
  3200       3445       0.301806       0.436101       0.442451
  3210       3455       0.301806       0.411563       0.439762
  3220       3465       0.301806       0.386867       0.437193
  3230       3475       0.301806       0.380021       0.434735
  3240       3485       0.301806       0.370616       0.432381
  3250       3495       0.301806       0.386124       0.430122
  3260       3505       0.301806       0.375175       0.427952
  3270       3515       0.301806       0.389739       0.425866
  3280       3525       0.301806       0.371982       0.423856
  3290       3535       0.301806       0.370536        0.42192
  3300       3545       0.301806       0.378283       0.420051

                           Best        Current           Mean
Iteration   f-count         f(x)         f(x)         temperature
  3310       3555       0.301806       0.364591       0.418246
  3320       3565       0.301806       0.356493       0.416501
  3330       3575       0.301806       0.353445       0.414813
  3340       3585       0.301806        0.36005       0.413179
  3350       3595       0.301806       0.344409       0.411594
  3360       3605       0.301806       0.341913       0.410058
  3370       3615       0.301806       0.343621       0.408566
  3380       3625       0.301806       0.350806       0.407118
  3390       3635       0.301806       0.351041        0.40571
  3400       3645       0.301806        0.34169       0.404342
  3410       3655       0.301806       0.356966        0.40301
  3420       3665       0.301806       0.336703       0.401713
  3430       3675       0.301806       0.339908        0.40045
  3440       3685       0.301806       0.344473       0.399218
  3450       3695       0.301806       0.352744       0.398018
  3460       3705       0.301806       0.343621       0.396846
  3470       3715       0.301806       0.336062       0.395703
  3480       3725       0.301806       0.335395       0.394586
  3490       3735       0.301806       0.328369       0.393496
  3500       3745       0.301806       0.334415       0.392429
  3510       3755       0.301806       0.330331       0.391387
  3520       3765       0.301806       0.328503       0.390367
  3530       3775       0.301806       0.340135        0.38937
  3540       3785       0.301806       0.351297       0.388393
  3550       3795       0.301806       0.343016       0.387437
  3560       3805       0.301806       0.350096         0.3865
  3570       3815       0.301806        0.33861       0.385582
  3580       3825       0.301806       0.334661       0.384682
  3590       3835       0.301806       0.336623         0.3838
  3600       3845       0.301806       0.339337       0.382935

                           Best        Current           Mean
Iteration   f-count         f(x)         f(x)         temperature
  3610       3855       0.301806       0.334586       0.382086
  3620       3865       0.301806       0.323623       0.381252
  3630       3875       0.301806       0.316578       0.380435
  3640       3885       0.301806       0.325075       0.379632
  3650       3895       0.301806       0.323479       0.378843
  3660       3905       0.301806        0.31864       0.378068
  3670       3915       0.301806       0.313604       0.377307
  3680       3925       0.301806       0.318062       0.376558
  3690       3935       0.301806       0.311557       0.375822
  3700       3945       0.301806       0.312842       0.375099
  3710       3955       0.301806       0.320253       0.374387
  3720       3965       0.301806       0.317457       0.373687
  3730       3975       0.301806       0.329597       0.372998
  3740       3985       0.301806       0.322093        0.37232
  3750       3995       0.301806       0.329474       0.371653
  3760       4005       0.301806       0.333017       0.370996
  3770       4015       0.301806       0.331063       0.370349
  3780       4025       0.301806       0.325428       0.369712
  3790       4035       0.301806       0.325139       0.369084
  3800       4045       0.301806       0.329982       0.368465
  3810       4055       0.301806       0.339177       0.367856
Time limit exceeded: increase options.MaxTime.
