
                           Best        Current           Mean
Iteration   f-count         f(x)         f(x)         temperature
     0          1       0.349018       0.349018            100
    10         11       0.349018        7.15578          56.88
    20         21       0.349018        5.86163        34.0562
    30         31       0.349018        5.89215        20.3907
    40         41       0.349018        5.86278        12.2087
    50         51       0.349018        6.16078        7.30977
    60         61       0.349018        6.17934        4.37663
    70         71       0.349018        6.01408        2.62045
    80         81       0.349018        6.04307        1.56896
    90         91       0.349018         6.0288       0.939395
   100        101       0.349018        5.99617        0.56245
   110        111       0.349018        6.00724        0.33676
   120        121       0.349018        6.00179       0.201631
   130        131       0.349018        5.99917       0.120724
   140        141       0.349018        5.99532      0.0722817
   150        151       0.349018        5.99246      0.0432777
   160        161       0.349018        5.98863       0.025912
   170        171       0.349018        5.98914      0.0155145
   180        181       0.349018        5.98895     0.00928908
   190        191       0.349018        5.98846     0.00556171
   200        201       0.349018        5.98837        0.00333
   210        211       0.349018        5.98823      0.0019938
   220        221       0.349018        5.98821     0.00119376
   230        231       0.349018        5.98812    0.000714748
   240        241       0.349018         5.9881    0.000427946
   250        251       0.349018        5.98808    0.000256227
   260        261       0.349018        5.98807    0.000153413
   270        271       0.349018        5.98807    9.18538e-05
   280        281       0.349018        5.98807    5.49963e-05
   290        291       0.349018        5.98807    3.29283e-05
   300        301       0.349018        5.98807    1.97154e-05

                           Best        Current           Mean
Iteration   f-count         f(x)         f(x)         temperature
   310        311       0.349018        5.98807    1.18043e-05
   320        321       0.349018        5.98807    7.06769e-06
   330        331       0.349018        5.98807    4.23169e-06
   340        341       0.349018        5.98807    2.53367e-06
   350        351       0.349018        5.98807      1.517e-06
   360        361       0.349018        5.98807    9.08284e-07
   370        371       0.349018        5.98807    5.43823e-07
   380        381       0.349018        5.98807    3.25607e-07
   390        391       0.349018        5.98807    1.94953e-07
   400        401       0.349018        5.98807    1.16725e-07
   410        411       0.349018        5.98807    6.98879e-08
   420        421       0.349018        5.98807    4.18444e-08
   430        431       0.349018        5.98807    2.50538e-08
   440        441       0.349018        5.98807    1.50006e-08
   450        451       0.349018        5.98807    8.98144e-09
   460        461       0.349018        5.98807    5.37752e-09
   470        471       0.349018        5.98807    3.21972e-09
   480        481       0.349018        5.98807    1.92777e-09
   490        491       0.349018        5.98807    1.15422e-09
   500        501       0.349018        5.98807    6.91077e-10
   510        511       0.349018        5.98807    4.13773e-10
   520        521       0.349018        5.98807    2.47741e-10
   530        531       0.349018        5.98807    1.48332e-10
   540        541       0.349018        5.98807    8.88118e-11
   550        551       0.349018        5.98807    5.31749e-11
   560        561       0.349018        5.98807    3.18378e-11
   570        571       0.349018        5.98807    1.90624e-11
   580        581       0.349018        5.98807    1.14134e-11
   590        591       0.349018        5.98807    6.83362e-12
   600        601       0.349018        5.98807    4.09154e-12

                           Best        Current           Mean
Iteration   f-count         f(x)         f(x)         temperature
   610        611       0.349018        5.98807    2.44976e-12
   620        621       0.349018        5.98807    1.46676e-12
   630        631       0.349018        5.98807    8.78203e-13
   640        641       0.349018        5.98807    5.25813e-13
   650        651       0.349018        5.98807    3.14823e-13
   660        661       0.349018        5.98807    1.88496e-13
   670        671       0.349018        5.98807     1.1286e-13
   680        681       0.349018        5.98807    6.75733e-14
   690        691       0.349018        5.98807    4.04586e-14
   700        701       0.349018        5.98807    2.42241e-14
   710        711       0.349018        5.98807    1.45039e-14
   720        721       0.349018        5.98807    8.68399e-15
   730        731       0.349018        5.98807    5.19943e-15
   740        741       0.349018        5.98807    3.11309e-15
   750        751       0.349018        5.98807    1.86392e-15
   760        761       0.349018        5.98807      1.116e-15
   770        771       0.349018        5.98807     6.6819e-16
   780        781       0.349018        5.98807     4.0007e-16
   790        791       0.349018        5.98807    2.39537e-16
   800        801       0.349018        5.98807    2.22045e-16
   810        811       0.349018        5.98807    2.22045e-16
   820        821       0.349018        5.98807    2.22045e-16
   830        831       0.349018        5.98807    2.22045e-16
   840        841       0.349018        5.98807    2.22045e-16
   850        851       0.349018        5.98807    2.22045e-16
   860        861       0.349018        5.98807    2.22045e-16
   870        871       0.349018        5.98807    2.22045e-16
   880        881       0.349018        5.98807    2.22045e-16
   890        891       0.349018        5.98807    2.22045e-16
   900        901       0.349018        5.98807    2.22045e-16

                           Best        Current           Mean
Iteration   f-count         f(x)         f(x)         temperature
   910        911       0.349018        5.98807    2.22045e-16
   920        921       0.349018        5.98807    2.22045e-16
   930        931       0.349018        5.98807    2.22045e-16
   940        941       0.349018        5.98807    2.22045e-16
   950        951       0.349018        5.98807    2.22045e-16
   960        961       0.349018        5.98807    2.22045e-16
   970        971       0.349018        5.98807    2.22045e-16
   980        981       0.349018        5.98807    2.22045e-16
   990        991       0.349018        5.98807    2.22045e-16
  1000       1001       0.349018        5.98807    2.22045e-16
  1010       1011       0.349018        5.98807    2.22045e-16
  1020       1021       0.349018        5.98807    2.22045e-16
  1030       1031       0.349018        5.98807    2.22045e-16
  1040       1041       0.349018        5.98807    2.22045e-16
  1050       1051       0.349018        5.98807    2.22045e-16
  1060       1061       0.349018        5.98807    2.22045e-16
  1070       1071       0.349018        5.98807    2.22045e-16
  1080       1081       0.349018        5.98807    2.22045e-16
  1090       1091       0.349018        5.98807    2.22045e-16
  1100       1101       0.349018        5.98807    2.22045e-16
  1110       1111       0.349018        5.98807    2.22045e-16
  1120       1121       0.349018        5.98807    2.22045e-16
  1130       1131       0.349018        5.98807    2.22045e-16
  1140       1141       0.349018        5.98807    2.22045e-16
  1150       1151       0.349018        5.98807    2.22045e-16
  1160       1161       0.349018        5.98807    2.22045e-16
  1170       1171       0.349018        5.98807    2.22045e-16
  1180       1181       0.349018        5.98807    2.22045e-16
  1190       1191       0.349018        5.98807    2.22045e-16
  1200       1201       0.349018        5.98807    2.22045e-16

                           Best        Current           Mean
Iteration   f-count         f(x)         f(x)         temperature
  1210       1211       0.349018        5.98807    2.22045e-16
  1220       1221       0.349018        5.98807    2.22045e-16
  1230       1231       0.349018        5.98807    2.22045e-16
  1240       1241       0.349018        5.98807    2.22045e-16
  1250       1251       0.349018        5.98807    2.22045e-16
  1260       1261       0.349018        5.98807    2.22045e-16
  1270       1271       0.349018        5.98807    2.22045e-16
  1280       1281       0.349018        5.98807    2.22045e-16
  1290       1291       0.349018        5.98807    2.22045e-16
  1300       1301       0.349018        5.98807    2.22045e-16
  1310       1311       0.349018        5.98807    2.22045e-16
  1320       1321       0.349018        5.98807    2.22045e-16
  1330       1331       0.349018        5.98807    2.22045e-16
  1340       1341       0.349018        5.98807    2.22045e-16
  1350       1351       0.349018        5.98807    2.22045e-16
  1360       1361       0.349018        5.98807    2.22045e-16
  1370       1371       0.349018        5.98807    2.22045e-16
  1380       1381       0.349018        5.98807    2.22045e-16
  1390       1391       0.349018        5.98807    2.22045e-16
  1400       1401       0.349018        5.98807    2.22045e-16
  1410       1411       0.349018        5.98807    2.22045e-16
  1420       1421       0.349018        5.98807    2.22045e-16
  1430       1431       0.349018        5.98807    2.22045e-16
  1440       1441       0.349018        5.98807    2.22045e-16
  1450       1451       0.349018        5.98807    2.22045e-16
  1460       1461       0.349018        5.98807    2.22045e-16
  1470       1471       0.349018        5.98807    2.22045e-16
  1480       1481       0.349018        5.98807    2.22045e-16
  1490       1491       0.349018        5.98807    2.22045e-16
  1500       1501       0.349018        5.98807    2.22045e-16

                           Best        Current           Mean
Iteration   f-count         f(x)         f(x)         temperature
  1510       1511       0.349018        5.98807    2.22045e-16
  1520       1521       0.349018        5.98807    2.22045e-16
  1530       1531       0.349018        5.98807    2.22045e-16
  1540       1541       0.349018        5.98807    2.22045e-16
  1550       1551       0.349018        5.98807    2.22045e-16
  1560       1561       0.349018        5.98807    2.22045e-16
  1570       1571       0.349018        5.98807    2.22045e-16
  1580       1581       0.349018        5.98807    2.22045e-16
  1590       1591       0.349018        5.98807    2.22045e-16
  1600       1601       0.349018        5.98807    2.22045e-16
  1610       1611       0.349018        5.98807    2.22045e-16
  1620       1621       0.349018        5.98807    2.22045e-16
  1630       1631       0.349018        5.98807    2.22045e-16
  1640       1641       0.349018        5.98807    2.22045e-16
  1650       1651       0.349018        5.98807    2.22045e-16
  1660       1661       0.349018        5.98807    2.22045e-16
  1670       1671       0.349018        5.98807    2.22045e-16
  1680       1681       0.349018        5.98807    2.22045e-16
  1690       1691       0.349018        5.98807    2.22045e-16
  1700       1701       0.349018        5.98807    2.22045e-16
  1710       1711       0.349018        5.98807    2.22045e-16
  1720       1721       0.349018        5.98807    2.22045e-16
  1730       1731       0.349018        5.98807    2.22045e-16
  1740       1741       0.349018        5.98807    2.22045e-16
  1750       1751       0.349018        5.98807    2.22045e-16
  1760       1761       0.349018        5.98807    2.22045e-16
  1770       1771       0.349018        5.98807    2.22045e-16
  1780       1781       0.349018        5.98807    2.22045e-16
  1790       1791       0.349018        5.98807    2.22045e-16
  1800       1801       0.349018        5.98807    2.22045e-16

                           Best        Current           Mean
Iteration   f-count         f(x)         f(x)         temperature
  1810       1811       0.349018        5.98807    2.22045e-16
  1820       1821       0.349018        5.98807    2.22045e-16
  1830       1831       0.349018        5.98807    2.22045e-16
  1840       1841       0.349018        5.98807    2.22045e-16
  1850       1851       0.349018        5.98807    2.22045e-16
  1860       1861       0.349018        5.98807    2.22045e-16
  1870       1871       0.349018        5.98807    2.22045e-16
  1880       1881       0.349018        5.98807    2.22045e-16
  1890       1891       0.349018        5.98807    2.22045e-16
  1900       1901       0.349018        5.98807    2.22045e-16
  1910       1911       0.349018        5.98807    2.22045e-16
  1920       1921       0.349018        5.98807    2.22045e-16
  1930       1931       0.349018        5.98807    2.22045e-16
  1940       1941       0.349018        5.98807    2.22045e-16
  1950       1951       0.349018        5.98807    2.22045e-16
  1960       1961       0.349018        5.98807    2.22045e-16
  1970       1971       0.349018        5.98807    2.22045e-16
  1980       1981       0.349018        5.98807    2.22045e-16
  1990       1991       0.349018        5.98807    2.22045e-16
  2000       2001       0.349018        5.98807    2.22045e-16
  2010       2011       0.349018        5.98807    2.22045e-16
  2020       2021       0.349018        5.98807    2.22045e-16
  2030       2031       0.349018        5.98807    2.22045e-16
  2040       2041       0.349018        5.98807    2.22045e-16
  2050       2051       0.349018        5.98807    2.22045e-16
  2060       2061       0.349018        5.98807    2.22045e-16
  2070       2071       0.349018        5.98807    2.22045e-16
  2080       2081       0.349018        5.98807    2.22045e-16
  2090       2091       0.349018        5.98807    2.22045e-16
  2100       2101       0.349018        5.98807    2.22045e-16

                           Best        Current           Mean
Iteration   f-count         f(x)         f(x)         temperature
  2110       2111       0.349018        5.98807    2.22045e-16
  2120       2121       0.349018        5.98807    2.22045e-16
  2130       2131       0.349018        5.98807    2.22045e-16
  2140       2141       0.349018        5.98807    2.22045e-16
  2150       2151       0.349018        5.98807    2.22045e-16
  2160       2161       0.349018        5.98807    2.22045e-16
  2170       2171       0.349018        5.98807    2.22045e-16
  2180       2181       0.349018        5.98807    2.22045e-16
  2190       2191       0.349018        5.98807    2.22045e-16
  2200       2201       0.349018        5.98807    2.22045e-16
  2210       2211       0.349018        5.98807    2.22045e-16
  2220       2221       0.349018        5.98807    2.22045e-16
  2230       2231       0.349018        5.98807    2.22045e-16
  2240       2241       0.349018        5.98807    2.22045e-16
  2250       2251       0.349018        5.98807    2.22045e-16
  2260       2261       0.349018        5.98807    2.22045e-16
  2270       2271       0.349018        5.98807    2.22045e-16
  2280       2281       0.349018        5.98807    2.22045e-16
  2290       2291       0.349018        5.98807    2.22045e-16
  2300       2301       0.349018        5.98807    2.22045e-16
  2310       2311       0.349018        5.98807    2.22045e-16
  2320       2321       0.349018        5.98807    2.22045e-16
  2330       2331       0.349018        5.98807    2.22045e-16
  2340       2341       0.349018        5.98807    2.22045e-16
  2350       2351       0.349018        5.98807    2.22045e-16
  2360       2361       0.349018        5.98807    2.22045e-16
  2370       2371       0.349018        5.98807    2.22045e-16
  2380       2381       0.349018        5.98807    2.22045e-16
  2390       2391       0.349018        5.98807    2.22045e-16
  2400       2401       0.349018        5.98807    2.22045e-16

                           Best        Current           Mean
Iteration   f-count         f(x)         f(x)         temperature
  2410       2411       0.349018        5.98807    2.22045e-16
  2420       2421       0.349018        5.98807    2.22045e-16
  2430       2431       0.349018        5.98807    2.22045e-16
  2440       2441       0.349018        5.98807    2.22045e-16
  2450       2451       0.349018        5.98807    2.22045e-16
  2460       2461       0.349018        5.98807    2.22045e-16
  2470       2471       0.349018        5.98807    2.22045e-16
  2480       2481       0.349018        5.98807    2.22045e-16
  2490       2491       0.349018        5.98807    2.22045e-16
  2500       2501       0.349018        5.98807    2.22045e-16
  2510       2511       0.349018        5.98807    2.22045e-16
  2520       2521       0.349018        5.98807    2.22045e-16
  2530       2531       0.349018        5.98807    2.22045e-16
  2540       2541       0.349018        5.98807    2.22045e-16
  2550       2551       0.349018        5.98807    2.22045e-16
  2560       2561       0.349018        5.98807    2.22045e-16
  2570       2571       0.349018        5.98807    2.22045e-16
  2580       2581       0.349018        5.98807    2.22045e-16
  2590       2591       0.349018        5.98807    2.22045e-16
  2600       2601       0.349018        5.98807    2.22045e-16
  2610       2611       0.349018        5.98807    2.22045e-16
  2620       2621       0.349018        5.98807    2.22045e-16
  2630       2631       0.349018        5.98807    2.22045e-16
  2640       2641       0.349018        5.98807    2.22045e-16
  2650       2651       0.349018        5.98807    2.22045e-16
  2660       2661       0.349018        5.98807    2.22045e-16
  2670       2671       0.349018        5.98807    2.22045e-16
  2680       2681       0.349018        5.98807    2.22045e-16
  2690       2691       0.349018        5.98807    2.22045e-16
  2700       2701       0.349018        5.98807    2.22045e-16

                           Best        Current           Mean
Iteration   f-count         f(x)         f(x)         temperature
  2710       2711       0.349018        5.98807    2.22045e-16
  2720       2721       0.349018        5.98807    2.22045e-16
  2730       2731       0.349018        5.98807    2.22045e-16
  2740       2741       0.349018        5.98807    2.22045e-16
  2750       2751       0.349018        5.98807    2.22045e-16
  2760       2761       0.349018        5.98807    2.22045e-16
  2770       2771       0.349018        5.98807    2.22045e-16
  2780       2781       0.349018        5.98807    2.22045e-16
  2790       2791       0.349018        5.98807    2.22045e-16
  2800       2801       0.349018        5.98807    2.22045e-16
  2810       2811       0.349018        5.98807    2.22045e-16
  2820       2821       0.349018        5.98807    2.22045e-16
  2830       2831       0.349018        5.98807    2.22045e-16
  2840       2841       0.349018        5.98807    2.22045e-16
  2850       2851       0.349018        5.98807    2.22045e-16
  2860       2861       0.349018        5.98807    2.22045e-16
  2870       2871       0.349018        5.98807    2.22045e-16
  2880       2881       0.349018        5.98807    2.22045e-16
  2890       2891       0.349018        5.98807    2.22045e-16
  2900       2901       0.349018        5.98807    2.22045e-16
  2910       2911       0.349018        5.98807    2.22045e-16
  2920       2921       0.349018        5.98807    2.22045e-16
  2930       2931       0.349018        5.98807    2.22045e-16
  2940       2941       0.349018        5.98807    2.22045e-16
  2950       2951       0.349018        5.98807    2.22045e-16
  2960       2961       0.349018        5.98807    2.22045e-16
  2970       2971       0.349018        5.98807    2.22045e-16
  2980       2981       0.349018        5.98807    2.22045e-16
  2990       2991       0.349018        5.98807    2.22045e-16
  3000       3001       0.349018        5.98807    2.22045e-16

                           Best        Current           Mean
Iteration   f-count         f(x)         f(x)         temperature
  3010       3011       0.349018        5.98807    2.22045e-16
  3020       3021       0.349018        5.98807    2.22045e-16
  3030       3031       0.349018        5.98807    2.22045e-16
  3040       3041       0.349018        5.98807    2.22045e-16
  3050       3051       0.349018        5.98807    2.22045e-16
  3060       3061       0.349018        5.98807    2.22045e-16
  3070       3071       0.349018        5.98807    2.22045e-16
  3080       3081       0.349018        5.98807    2.22045e-16
  3090       3091       0.349018        5.98807    2.22045e-16
  3100       3101       0.349018        5.98807    2.22045e-16
  3110       3111       0.349018        5.98807    2.22045e-16
  3120       3121       0.349018        5.98807    2.22045e-16
  3130       3131       0.349018        5.98807    2.22045e-16
  3140       3141       0.349018        5.98807    2.22045e-16
  3150       3151       0.349018        5.98807    2.22045e-16
  3160       3161       0.349018        5.98807    2.22045e-16
  3170       3171       0.349018        5.98807    2.22045e-16
  3180       3181       0.349018        5.98807    2.22045e-16
  3190       3191       0.349018        5.98807    2.22045e-16
  3200       3201       0.349018        5.98807    2.22045e-16
  3210       3211       0.349018        5.98807    2.22045e-16
  3220       3221       0.349018        5.98807    2.22045e-16
  3230       3231       0.349018        5.98807    2.22045e-16
  3240       3241       0.349018        5.98807    2.22045e-16
  3250       3251       0.349018        5.98807    2.22045e-16
  3260       3261       0.349018        5.98807    2.22045e-16
  3270       3271       0.349018        5.98807    2.22045e-16
  3280       3281       0.349018        5.98807    2.22045e-16
  3290       3291       0.349018        5.98807    2.22045e-16
  3300       3301       0.349018        5.98807    2.22045e-16

                           Best        Current           Mean
Iteration   f-count         f(x)         f(x)         temperature
  3310       3311       0.349018        5.98807    2.22045e-16
  3320       3321       0.349018        5.98807    2.22045e-16
  3330       3331       0.349018        5.98807    2.22045e-16
  3340       3341       0.349018        5.98807    2.22045e-16
  3350       3351       0.349018        5.98807    2.22045e-16
  3360       3361       0.349018        5.98807    2.22045e-16
  3370       3371       0.349018        5.98807    2.22045e-16
  3380       3381       0.349018        5.98807    2.22045e-16
  3390       3391       0.349018        5.98807    2.22045e-16
  3400       3401       0.349018        5.98807    2.22045e-16
  3410       3411       0.349018        5.98807    2.22045e-16
  3420       3421       0.349018        5.98807    2.22045e-16
  3430       3431       0.349018        5.98807    2.22045e-16
  3440       3441       0.349018        5.98807    2.22045e-16
  3450       3451       0.349018        5.98807    2.22045e-16
  3460       3461       0.349018        5.98807    2.22045e-16
  3470       3471       0.349018        5.98807    2.22045e-16
  3480       3481       0.349018        5.98807    2.22045e-16
  3490       3491       0.349018        5.98807    2.22045e-16
  3500       3501       0.349018        5.98807    2.22045e-16
  3510       3511       0.349018        5.98807    2.22045e-16
  3520       3521       0.349018        5.98807    2.22045e-16
  3530       3531       0.349018        5.98807    2.22045e-16
  3540       3541       0.349018        5.98807    2.22045e-16
  3550       3551       0.349018        5.98807    2.22045e-16
  3560       3561       0.349018        5.98807    2.22045e-16
  3570       3571       0.349018        5.98807    2.22045e-16
  3580       3581       0.349018        5.98807    2.22045e-16
  3590       3591       0.349018        5.98807    2.22045e-16
  3600       3601       0.349018        5.98807    2.22045e-16

                           Best        Current           Mean
Iteration   f-count         f(x)         f(x)         temperature
  3610       3611       0.349018        5.98807    2.22045e-16
  3620       3621       0.349018        5.98807    2.22045e-16
  3630       3631       0.349018        5.98807    2.22045e-16
  3640       3641       0.349018        5.98807    2.22045e-16
  3650       3651       0.349018        5.98807    2.22045e-16
  3660       3661       0.349018        5.98807    2.22045e-16
  3670       3671       0.349018        5.98807    2.22045e-16
  3680       3681       0.349018        5.98807    2.22045e-16
  3690       3691       0.349018        5.98807    2.22045e-16
  3700       3701       0.349018        5.98807    2.22045e-16
  3710       3711       0.349018        5.98807    2.22045e-16
  3720       3721       0.349018        5.98807    2.22045e-16
  3730       3731       0.349018        5.98807    2.22045e-16
  3740       3741       0.349018        5.98807    2.22045e-16
  3750       3751       0.349018        5.98807    2.22045e-16
  3760       3761       0.349018        5.98807    2.22045e-16
  3770       3771       0.349018        5.98807    2.22045e-16
  3780       3781       0.349018        5.98807    2.22045e-16
  3790       3791       0.349018        5.98807    2.22045e-16
  3800       3801       0.349018        5.98807    2.22045e-16
  3810       3811       0.349018        5.98807    2.22045e-16
  3820       3821       0.349018        5.98807    2.22045e-16
  3830       3831       0.349018        5.98807    2.22045e-16
  3840       3841       0.349018        5.98807    2.22045e-16
  3850       3851       0.349018        5.98807    2.22045e-16
  3860       3861       0.349018        5.98807    2.22045e-16
  3870       3871       0.349018        5.98807    2.22045e-16
  3880       3881       0.349018        5.98807    2.22045e-16
  3890       3891       0.349018        5.98807    2.22045e-16
  3900       3901       0.349018        5.98807    2.22045e-16

                           Best        Current           Mean
Iteration   f-count         f(x)         f(x)         temperature
  3910       3911       0.349018        5.98807    2.22045e-16
  3920       3921       0.349018        5.98807    2.22045e-16
Time limit exceeded: increase options.MaxTime.
