
                           Best        Current           Mean
Iteration   f-count         f(x)         f(x)         temperature
     0          1       0.349018       0.349018            2.5
    10         11       0.349018       0.355297        1.04258
    20         21       0.349018       0.378342       0.821147
    30         31       0.346753       0.346753       0.728017
    40         41        0.34273       0.354507       0.673206
    50         51       0.335697       0.345521       0.635837
    60         61       0.335697       0.354258       0.608143
    70         71       0.327124       0.327124       0.586486
    80         81       0.325895        0.33424         0.5689
    90         91       0.321546       0.321546       0.554218
   100        101       0.315551       0.335249       0.541698
   110        111       0.315551       0.326934       0.530839
   120        121       0.311373       0.316678        0.52129
   130        131       0.311373       0.318914         0.5128
   140        141       0.311373       0.333316       0.505177
   150        151       0.311373       0.341387       0.498278
   160        161       0.311373       0.349822        0.49199
   170        171       0.311373       0.354256       0.486224
   180        181       0.311373       0.382318       0.480908
   190        191       0.311373       0.403951       0.475984
   200        201       0.311373       0.364575       0.471404
   210        211       0.311373       0.382611       0.467127
   220        221       0.311373       0.356744       0.463121
   230        231       0.311373       0.346373       0.459355
   240        241       0.311373       0.347469       0.455805
   250        251       0.311373       0.353834       0.452452
   260        261       0.311373       0.359101       0.449275
   270        271       0.311373       0.362964        0.44626
   280        281       0.311373       0.379242       0.443392
   290        291       0.311373       0.367463       0.440659
   300        301       0.311373       0.391736        0.43805

                           Best        Current           Mean
Iteration   f-count         f(x)         f(x)         temperature
   310        311       0.311373       0.394667       0.435556
   320        321       0.311373       0.419871       0.433167
   330        331       0.311373       0.402124       0.430877
   340        341       0.311373        0.41217       0.428678
   350        351       0.311373       0.367753       0.426564
   360        361       0.311373       0.364841       0.424529
   370        371       0.311373       0.364558       0.422568
   380        381       0.311373       0.378003       0.420677
   390        391       0.311373       0.389248       0.418851
   400        401       0.311373       0.398439       0.417086
   410        411       0.311373        0.42493       0.415379
   420        421       0.311373       0.404134       0.413727
   430        431       0.311373       0.386276       0.412126
   440        441       0.311373       0.377966       0.410573
   450        451       0.311373       0.361313       0.409067
   460        461       0.311373       0.356949       0.407604
   470        471       0.311373       0.344547       0.406183
   480        481       0.311373       0.353937       0.404801
   490        491       0.311373       0.361496       0.403457
   500        501       0.311373       0.392464       0.402149
   510        511       0.311373       0.393791       0.400874
   520        521       0.311373       0.394154       0.399632
   530        531       0.311373       0.385327       0.398421
   540        541       0.311373       0.381311        0.39724
   550        551       0.311373       0.377157       0.396088
   560        561       0.311373       0.374313       0.394962
   570        571       0.311373       0.372656       0.393863
   580        581       0.311373        0.36413       0.392788
   590        591       0.311373       0.360496       0.391738
   600        601       0.311373       0.358489       0.390711

                           Best        Current           Mean
Iteration   f-count         f(x)         f(x)         temperature
   610        611       0.311373       0.348972       0.389706
   620        621       0.311373        0.37738       0.388722
   630        631       0.311373       0.386633       0.387759
   640        641       0.311373       0.372989       0.386816
   650        651       0.311373       0.379136       0.385891
   660        661       0.311373       0.348414       0.384985
   670        671       0.311373       0.386142       0.384097
   680        681       0.311373       0.372147       0.383226
   690        691       0.311373       0.357274       0.382372
   700        701       0.311373       0.351605       0.381533
   710        711       0.311373       0.348672        0.38071
   720        721       0.311373       0.344143       0.379902
   730        731       0.311373       0.336668       0.379109
   740        741       0.311373        0.34745       0.378329
   750        751       0.311373       0.335977       0.377563
   760        761       0.311373       0.336074       0.376811
   770        771       0.311373       0.347261       0.376071
   780        781       0.311373       0.351239       0.375343
   790        791       0.311373       0.352079       0.374627
   800        801       0.311373       0.347824       0.373923
   810        811       0.311373       0.356545       0.373231
   820        821       0.311373       0.364387       0.372549
   830        831       0.311373       0.366599       0.371878
   840        841       0.311373       0.357958       0.371218
   850        851       0.311373       0.350191       0.370567
   860        861       0.311373       0.346357       0.369927
   870        871       0.311373       0.338183       0.369296
   880        881       0.311373       0.342673       0.368674
   890        891       0.311373       0.337919       0.368061
   900        901       0.311373       0.347437       0.367458

                           Best        Current           Mean
Iteration   f-count         f(x)         f(x)         temperature
   910        911       0.311373         0.3367       0.366862
   920        921       0.311373        0.34427       0.366276
   930        931       0.311373       0.358599       0.365697
   940        941       0.311373       0.362837       0.365126
   950        951       0.311373       0.365315       0.364564
   960        961       0.311373       0.358971       0.364008
   970        971       0.311373       0.357482       0.363461
   980        981       0.311373       0.360668        0.36292
   990        991       0.311373       0.359068       0.362386
  1000       1001       0.311373       0.344613        0.36186
  1010       1011       0.311373       0.348916        0.36134
  1020       1021       0.311373        0.35336       0.360826
  1030       1031       0.311373       0.353125        0.36032
  1040       1041       0.311373       0.354771       0.359819
  1050       1051       0.311373       0.357927       0.359325
  1060       1061       0.311373       0.364214       0.358836
  1070       1071       0.311373       0.352037       0.358354
  1080       1081       0.311373       0.347249       0.357877
  1090       1091       0.311373       0.340622       0.357406
  1100       1101       0.311373       0.342987        0.35694
  1110       1111       0.311373        0.33511        0.35648
  1120       1121       0.311373       0.335092       0.356025
  1130       1131       0.311373       0.342477       0.355575
  1140       1141       0.311373       0.339794       0.355131
  1150       1151       0.311373       0.340645       0.354691
  1160       1161       0.311373       0.345917       0.354256
  1170       1171       0.311373       0.337864       0.353826
  1180       1181       0.311373       0.323009       0.353401
  1190       1191       0.311373       0.334228        0.35298
  1200       1201       0.311373       0.336974       0.352564

                           Best        Current           Mean
Iteration   f-count         f(x)         f(x)         temperature
  1210       1211       0.311373       0.337375       0.352152
  1220       1221       0.311373       0.331797       0.351745
  1230       1231       0.311373       0.327515       0.351342
  1240       1241       0.311373       0.331812       0.350943
  1250       1251       0.311373       0.337494       0.350548
  1260       1261       0.311373        0.33858       0.350157
  1270       1271       0.311373       0.348023        0.34977
  1280       1281       0.311373       0.338547       0.349387
  1290       1291       0.311373       0.336666       0.349007
  1300       1301       0.311373         0.3414       0.348632
  1310       1311       0.311373       0.338971        0.34826
  1320       1321       0.311373       0.351484       0.347892
  1330       1331       0.311373        0.35722       0.347527
  1340       1341       0.311373       0.338918       0.347166
  1350       1351       0.311373       0.351277       0.346808
  1360       1361       0.311373       0.342986       0.346454
  1370       1371       0.311373       0.361818       0.346102
  1380       1381       0.311373       0.423644       0.345755
  1390       1391       0.311373       0.381484        0.34541
  1400       1401       0.311373       0.373414       0.345068
  1410       1411       0.311373       0.380523        0.34473
  1420       1421       0.311373       0.369656       0.344395
  1430       1431       0.311373       0.363979       0.344062
  1440       1441       0.311373       0.352215       0.343733
  1450       1451       0.311373       0.349099       0.343406
  1460       1461       0.311373       0.349488       0.343083
  1470       1471       0.311373       0.342618       0.342762
  1480       1481       0.311373       0.348384       0.342444
  1490       1491       0.311373       0.343744       0.342128
  1500       1501       0.311373       0.350946       0.341816

                           Best        Current           Mean
Iteration   f-count         f(x)         f(x)         temperature
  1510       1511       0.311373       0.351434       0.341505
  1520       1521       0.311373       0.340615       0.341198
  1530       1531       0.311373       0.330847       0.340893
  1540       1541       0.311373       0.333912       0.340591
  1550       1551       0.311373       0.318856       0.340291
  1560       1561       0.311373       0.319627       0.339993
  1570       1571       0.311373       0.315625       0.339698
  1580       1581       0.310107       0.313039       0.339406
  1590       1591       0.308832       0.309588       0.339116
  1600       1601       0.305619       0.306497       0.338828
  1610       1611       0.305619       0.307267       0.338542
  1620       1621       0.305619       0.309804       0.338258
  1630       1631       0.305619       0.318833       0.337977
  1640       1641       0.305619        0.31742       0.337698
  1650       1651       0.305619       0.312964       0.337421
  1660       1661       0.305619       0.309926       0.337146
  1670       1671       0.305619       0.306382       0.336874
  1680       1681       0.305619       0.313106       0.336603
  1690       1691       0.305619        0.33418       0.336335
  1700       1701       0.305619        0.32134       0.336068
  1710       1711       0.305619       0.308956       0.335803
  1720       1721       0.304848       0.305638       0.335541
  1730       1731       0.304848       0.306692        0.33528
  1740       1741       0.304848       0.306205       0.335021
  1750       1751       0.304848       0.311424       0.334764
  1760       1761       0.304848       0.313605       0.334509
  1770       1771       0.304848       0.310673       0.334256
  1780       1781       0.304848       0.316862       0.334004
  1790       1791       0.304848       0.315427       0.333755
  1800       1801       0.304848       0.320122       0.333507

                           Best        Current           Mean
Iteration   f-count         f(x)         f(x)         temperature
  1810       1811       0.304848       0.314472       0.333261
  1820       1821       0.304848       0.315149       0.333016
  1830       1831       0.304848       0.314248       0.332773
  1840       1841       0.304848       0.316168       0.332532
  1850       1851       0.304848       0.315887       0.332293
  1860       1861       0.304848       0.311948       0.332055
  1870       1871       0.304848       0.315855       0.331819
  1880       1881       0.304848       0.314165       0.331584
  1890       1891       0.304848       0.312579       0.331351
  1900       1901       0.304848       0.319543        0.33112
  1910       1911       0.304848       0.321942        0.33089
  1920       1921       0.304848       0.316214       0.330662
  1930       1931       0.304848        0.31636       0.330435
  1940       1941       0.304848       0.314677       0.330209
  1950       1951       0.304848       0.319685       0.329985
  1960       1961       0.304848       0.317182       0.329763
  1970       1971       0.304848        0.31003       0.329542
  1980       1981       0.304848       0.314002       0.329322
  1990       1991       0.304848       0.320242       0.329104
  2000       2001       0.304848       0.326754       0.328887
  2010       2011       0.304848       0.339592       0.328671
  2020       2021       0.304848       0.327697       0.328457
  2030       2031       0.304848       0.323318       0.328244
  2040       2041       0.304848        0.32607       0.328033
  2050       2051       0.304848       0.325024       0.327822
  2060       2061       0.304848       0.324555       0.327613
  2070       2071       0.304848       0.321859       0.327406
  2080       2081       0.304848       0.318348       0.327199
  2090       2091       0.304848       0.314416       0.326994
  2100       2101       0.304848        0.31343        0.32679

                           Best        Current           Mean
Iteration   f-count         f(x)         f(x)         temperature
  2110       2111       0.304848       0.309996       0.326587
  2120       2121       0.304848       0.321076       0.326386
  2130       2131       0.304848       0.322154       0.326186
  2140       2141       0.304848       0.317756       0.325987
  2150       2151       0.304848       0.319391       0.325789
  2160       2161       0.304848       0.316267       0.325592
  2170       2171       0.304848       0.313999       0.325396
  2180       2181       0.304848       0.315718       0.325202
  2190       2191       0.304848       0.327187       0.325008
  2200       2201       0.304848       0.331938       0.324816
  2210       2211       0.304848       0.330764       0.324625
  2220       2221       0.304848       0.325151       0.324435
  2230       2231       0.304848       0.328999       0.324246
  2240       2241       0.304848       0.337433       0.324058
  2250       2251       0.304848       0.323988       0.323871
  2260       2261       0.304848       0.322761       0.323685
  2270       2271       0.304848       0.327394         0.3235
  2280       2281       0.304848       0.337446       0.323316
  2290       2291       0.304848       0.346454       0.323133
  2300       2301       0.304848       0.353907       0.322952
  2310       2311       0.304848       0.347327       0.322771
  2320       2321       0.304848       0.339451       0.322591
  2330       2331       0.304848       0.345371       0.322412
  2340       2341       0.304848       0.337143       0.322234
  2350       2351       0.304848       0.328837       0.322057
  2360       2361       0.304848       0.323779       0.321881
  2370       2371       0.304848       0.320813       0.321706
  2380       2381       0.304848       0.332757       0.321532
  2390       2391       0.304848       0.323915       0.321359
  2400       2401       0.304848       0.319414       0.321186

                           Best        Current           Mean
Iteration   f-count         f(x)         f(x)         temperature
  2410       2411       0.304848       0.331906       0.321015
  2420       2421       0.304848       0.343487       0.320845
  2430       2431       0.304848       0.350723       0.320675
  2440       2441       0.304848       0.364671       0.320506
  2450       2451       0.304848       0.378431       0.320338
  2460       2461       0.304848       0.347572       0.320171
  2470       2471       0.304848       0.350948       0.320005
  2480       2481       0.304848       0.368832        0.31984
  2490       2491       0.304848       0.369811       0.319675
  2500       2501       0.304848       0.355155       0.319511
  2510       2511       0.304848       0.386799       0.319349
  2520       2521       0.304848       0.412398       0.319187
  2530       2531       0.304848       0.421484       0.319025
  2540       2541       0.304848       0.426589       0.318865
  2550       2551       0.304848       0.416745       0.318705
  2560       2561       0.304848       0.378665       0.318546
  2570       2571       0.304848       0.383342       0.318388
  2580       2581       0.304848       0.379598       0.318231
  2590       2591       0.304848       0.352576       0.318074
  2600       2601       0.304848       0.357762       0.317918
  2610       2611       0.304848       0.349082       0.317763
  2620       2621       0.304848       0.340967       0.317609
  2630       2631       0.304848       0.341894       0.317456
  2640       2641       0.304848       0.337359       0.317303
  2650       2651       0.304848       0.328969       0.317151
  2660       2661       0.304848       0.325444       0.316999
  2670       2671       0.304848       0.318257       0.316848
  2680       2681       0.304848       0.323391       0.316698
  2690       2691       0.304848       0.326459       0.316549
  2700       2701       0.304848       0.327708       0.316401

                           Best        Current           Mean
Iteration   f-count         f(x)         f(x)         temperature
  2710       2711       0.304848       0.352148       0.316253
  2720       2721       0.304848       0.343276       0.316105
  2730       2731       0.304848        0.34896       0.315959
  2740       2741       0.304848       0.335592       0.315813
  2750       2751       0.304848       0.320398       0.315668
  2760       2761       0.304848       0.324911       0.315523
  2770       2771       0.304848       0.325768       0.315379
  2780       2781       0.304848        0.32664       0.315236
  2790       2791       0.304848       0.322531       0.315093
  2800       2801       0.304848       0.324887       0.314951
  2810       2811       0.304848       0.325596        0.31481
  2820       2821       0.304848       0.318485       0.314669
  2830       2831       0.304848       0.328057       0.314529
  2840       2841       0.304848       0.328711        0.31439
  2850       2851       0.304848       0.336523       0.314251
  2860       2861       0.304848       0.316737       0.314113
  2870       2871       0.304848       0.321991       0.313975
  2880       2881       0.304848       0.318758       0.313838
  2890       2891       0.304848       0.323775       0.313702
  2900       2901       0.304848       0.321858       0.313566
  2910       2911       0.304848       0.319812        0.31343
  2920       2921       0.304848       0.324727       0.313296
  2930       2931       0.304848        0.32341       0.313162
  2940       2941       0.304848        0.32254       0.313028
  2950       2951       0.304848       0.318781       0.312895
  2960       2961       0.304848       0.321751       0.312763
  2970       2971       0.304848       0.315202       0.312631
  2980       2981       0.304848       0.317758       0.312499
  2990       2991       0.304848       0.319457       0.312369
  3000       3001       0.304848       0.325388       0.312238

                           Best        Current           Mean
Iteration   f-count         f(x)         f(x)         temperature
  3010       3011       0.304848       0.322372       0.312109
  3020       3021       0.304848       0.320508        0.31198
  3030       3031       0.304848       0.323331       0.311851
  3040       3041       0.304848       0.317061       0.311723
  3050       3051       0.304848       0.316154       0.311595
  3060       3061       0.304848       0.318771       0.311468
  3070       3071       0.304848       0.317519       0.311342
  3080       3081       0.304848        0.31426       0.311216
  3090       3091       0.304848       0.312652        0.31109
  3100       3101       0.304848        0.31614       0.310965
  3110       3111       0.304848       0.314968       0.310841
  3120       3121       0.304848       0.314329       0.310717
  3130       3131       0.304848       0.313783       0.310593
  3140       3141       0.304848       0.314776        0.31047
  3150       3151       0.304848        0.31544       0.310348
  3160       3161       0.304848       0.319703       0.310226
  3170       3171       0.304848       0.324056       0.310104
  3180       3181       0.304848       0.319263       0.309983
  3190       3191       0.304848       0.323342       0.309863
  3200       3201       0.304848       0.328053       0.309743
  3210       3211       0.304848       0.335262       0.309623
  3220       3221       0.304848       0.334043       0.309504
  3230       3231       0.304848       0.331569       0.309385
  3240       3241       0.304848       0.326881       0.309267
  3250       3251       0.304848       0.331289       0.309149
  3260       3261       0.304848        0.33558       0.309032
  3270       3271       0.304848       0.331884       0.308915
  3280       3281       0.304848       0.328332       0.308798
  3290       3291       0.304848       0.328039       0.308682
  3300       3301       0.304848        0.32153       0.308567

                           Best        Current           Mean
Iteration   f-count         f(x)         f(x)         temperature
  3310       3311       0.304848       0.321067       0.308451
  3320       3321       0.304848       0.330536       0.308337
  3330       3331       0.304848       0.336758       0.308222
  3340       3341       0.304848       0.332886       0.308108
  3350       3351       0.304848       0.325819       0.307995
  3360       3361       0.304848       0.325573       0.307882
  3370       3371       0.304848       0.338298       0.307769
  3380       3381       0.304848       0.328384       0.307657
  3390       3391       0.304848       0.318801       0.307545
  3400       3401       0.304848       0.321114       0.307434
  3410       3411       0.304848       0.314201       0.307323
  3420       3421       0.304848       0.314207       0.307213
  3430       3431       0.304848       0.325455       0.307102
  3440       3441       0.304848       0.328889       0.306993
  3450       3451       0.304848       0.323203       0.306883
  3460       3461       0.304848       0.327565       0.306774
  3470       3471       0.304848       0.319672       0.306666
  3480       3481       0.304848       0.311957       0.306558
  3490       3491       0.304848       0.318202        0.30645
  3500       3501       0.304848       0.315822       0.306342
  3510       3511       0.304848       0.315232       0.306235
  3520       3521       0.304848       0.317818       0.306129
  3530       3531       0.304848       0.321442       0.306022
  3540       3541       0.304848       0.322047       0.305917
  3550       3551       0.304848       0.318407       0.305811
  3560       3561       0.304848       0.321183       0.305706
  3570       3571       0.304848       0.327888       0.305601
  3580       3581       0.304848       0.325432       0.305497
  3590       3591       0.304848       0.316822       0.305393
  3600       3601       0.304848       0.313435       0.305289

                           Best        Current           Mean
Iteration   f-count         f(x)         f(x)         temperature
  3610       3611       0.304848       0.309463       0.305185
  3620       3621       0.304848       0.315535       0.305082
  3630       3631       0.304848        0.31619        0.30498
  3640       3641       0.304848       0.314729       0.304878
  3650       3651       0.304848        0.31313       0.304776
  3660       3661       0.304848        0.31203       0.304674
  3670       3671       0.304848       0.312224       0.304573
  3680       3681       0.304848       0.307749       0.304472
  3690       3691       0.304848       0.315135       0.304371
  3700       3701       0.304848       0.326021       0.304271
  3710       3711       0.304848       0.322844       0.304171
  3720       3721       0.304848       0.326788       0.304072
  3730       3731       0.304848       0.328845       0.303972
  3740       3741       0.304848       0.338648       0.303873
  3750       3751       0.304848       0.336314       0.303775
  3760       3761       0.304848       0.335468       0.303677
  3770       3771       0.304848       0.330794       0.303579
  3780       3781       0.304848       0.325903       0.303481
  3790       3791       0.304848       0.328121       0.303384
  3800       3801       0.304848       0.336248       0.303287
  3810       3811       0.304848       0.337557        0.30319
  3820       3821       0.304848       0.323848       0.303094
  3830       3831       0.304848       0.320121       0.302998
  3840       3841       0.304848       0.310476       0.302902
  3850       3851       0.304848       0.313236       0.302807
  3860       3861       0.304848       0.312256       0.302712
  3870       3871       0.304848       0.314056       0.302617
  3880       3881       0.304848       0.320187       0.302523
  3890       3891       0.304848       0.324521       0.302428
  3900       3901       0.304848       0.331762       0.302334

                           Best        Current           Mean
Iteration   f-count         f(x)         f(x)         temperature
  3910       3911       0.304848       0.326333       0.302241
  3920       3921       0.304848       0.331885       0.302148
Time limit exceeded: increase options.MaxTime.
