
                           Best        Current           Mean
Iteration   f-count         f(x)         f(x)         temperature
     0          1       0.349018       0.349018            100
    10         11       0.349018        6.53452        41.7032
    20         21       0.349018        6.95657        32.8459
    30         31       0.349018        6.67132        29.1207
    40         41       0.349018        6.16717        26.9283
    50         51       0.349018        6.44522        25.4335
    60         61       0.349018        6.25406        24.3257
    70         71       0.349018        6.03645        23.4594
    80         81       0.349018        6.35372         22.756
    90         91       0.349018        6.00846        22.1687
   100        101       0.349018        5.90076        21.6679
   110        111       0.349018         6.2343        21.2335
   120        121       0.349018        6.56804        20.8516
   130        131       0.349018        6.25469         20.512
   140        141       0.349018        6.16383        20.2071
   150        151       0.349018        5.99118        19.9311
   160        161       0.349018        6.08864        19.6796
   170        171       0.349018        5.89792         19.449
   180        181       0.349018        6.26222        19.2363
   190        191       0.349018        6.12698        19.0394
   200        201       0.349018        6.15788        18.8562
   210        211       0.349018        6.68892        18.6851
   220        221       0.349018        6.75382        18.5248
   230        231       0.349018        6.52392        18.3742
   240        241       0.349018        6.79181        18.2322
   250        251       0.349018        6.22608        18.0981
   260        261       0.349018        6.10985         17.971
   270        271       0.349018        6.13627        17.8504
   280        281       0.349018        6.21725        17.7357
   290        291       0.349018         6.3129        17.6264
   300        301       0.349018        6.25941         17.522

                           Best        Current           Mean
Iteration   f-count         f(x)         f(x)         temperature
   310        311       0.349018        6.67141        17.4222
   320        321       0.349018        6.64417        17.3267
   330        331       0.349018        6.43982        17.2351
   340        341       0.349018        6.51497        17.1471
   350        351       0.349018        6.37287        17.0626
   360        361       0.349018        6.38574        16.9812
   370        371       0.349018        6.08232        16.9027
   380        381       0.349018        6.35546        16.8271
   390        391       0.349018        6.24745         16.754
   400        401       0.349018        6.45956        16.6835
   410        411       0.349018        6.27618        16.6152
   420        421       0.349018        6.34578        16.5491
   430        431       0.349018        6.15797         16.485
   440        441       0.349018        5.73035        16.4229
   450        451       0.349018        5.97496        16.3627
   460        461       0.349018        5.66196        16.3042
   470        471       0.349018        6.10205        16.2473
   480        481       0.349018        5.84648        16.1921
   490        491       0.349018        6.13796        16.1383
   500        501       0.349018        6.12258        16.0859
   510        511       0.349018        6.08117         16.035
   520        521       0.349018        6.18866        15.9853
   530        531       0.349018         6.6522        15.9369
   540        541       0.349018         6.4589        15.8896
   550        551       0.349018        6.53334        15.8435
   560        561       0.349018        6.37687        15.7985
   570        571       0.349018         6.3113        15.7545
   580        581       0.349018         6.5063        15.7115
   590        591       0.349018        6.05237        15.6695
   600        601       0.349018        6.25993        15.6284

                           Best        Current           Mean
Iteration   f-count         f(x)         f(x)         temperature
   610        611       0.349018         6.1711        15.5882
   620        621       0.349018         6.3426        15.5489
   630        631       0.349018        6.32854        15.5104
   640        641       0.349018        6.62677        15.4726
   650        651       0.349018        6.23225        15.4356
   660        661       0.349018        6.13382        15.3994
   670        671       0.349018        5.95754        15.3639
   680        681       0.349018        5.78036         15.329
   690        691       0.349018        5.78667        15.2949
   700        701       0.349018        6.15302        15.2613
   710        711       0.349018        6.19743        15.2284
   720        721       0.349018        6.24837        15.1961
   730        731       0.349018        6.16445        15.1644
   740        741       0.349018        6.25231        15.1332
   750        751       0.349018        6.39822        15.1025
   760        761       0.349018        6.47203        15.0724
   770        771       0.349018        6.10696        15.0428
   780        781       0.349018        6.12472        15.0137
   790        791       0.349018        6.21075        14.9851
   800        801       0.349018         6.5491        14.9569
   810        811       0.349018        6.34871        14.9292
   820        821       0.349018        5.90663         14.902
   830        831       0.349018        5.80686        14.8751
   840        841       0.349018        5.86856        14.8487
   850        851       0.349018        6.03855        14.8227
   860        861       0.349018        5.90899        14.7971
   870        871       0.349018        6.10368        14.7718
   880        881       0.349018         6.1356         14.747
   890        891       0.349018        6.18468        14.7225
   900        901       0.349018        5.77032        14.6983

                           Best        Current           Mean
Iteration   f-count         f(x)         f(x)         temperature
   910        911       0.349018        6.19531        14.6745
   920        921       0.349018        6.20585         14.651
   930        931       0.349018        6.48456        14.6279
   940        941       0.349018        6.41345        14.6051
   950        951       0.349018        6.36744        14.5825
   960        961       0.349018         6.3923        14.5603
   970        971       0.349018        6.36305        14.5384
   980        981       0.349018         6.5728        14.5168
   990        991       0.349018        6.44297        14.4955
  1000       1001       0.349018        6.71735        14.4744
  1010       1011       0.349018        6.34672        14.4536
  1020       1021       0.349018        6.42067        14.4331
  1030       1031       0.349018        6.25797        14.4128
  1040       1041       0.349018        6.10929        14.3928
  1050       1051       0.349018        6.11497         14.373
  1060       1061       0.349018        6.52984        14.3534
  1070       1071       0.349018        6.67852        14.3341
  1080       1081       0.349018        6.53033        14.3151
  1090       1091       0.349018        6.63639        14.2962
  1100       1101       0.349018        6.76115        14.2776
  1110       1111       0.349018        6.56507        14.2592
  1120       1121       0.349018        6.47432         14.241
  1130       1131       0.349018        6.12728         14.223
  1140       1141       0.349018        6.04751        14.2052
  1150       1151       0.349018        6.20137        14.1876
  1160       1161       0.349018        6.08559        14.1703
  1170       1171       0.349018        6.14181        14.1531
  1180       1181       0.349018        5.99099         14.136
  1190       1191       0.349018        5.84921        14.1192
  1200       1201       0.349018        5.98931        14.1026

                           Best        Current           Mean
Iteration   f-count         f(x)         f(x)         temperature
  1210       1211       0.349018        6.20145        14.0861
  1220       1221       0.349018        6.12077        14.0698
  1230       1231       0.349018         6.0645        14.0537
  1240       1241       0.349018        6.29841        14.0377
  1250       1251       0.349018        5.89431        14.0219
  1260       1261       0.349018        5.61765        14.0063
  1270       1271       0.349018        5.75075        13.9908
  1280       1281       0.349018        5.51402        13.9755
  1290       1291       0.349018        5.45304        13.9603
  1300       1301       0.349018        5.69158        13.9453
  1310       1311       0.349018        5.84863        13.9304
  1320       1321       0.349018        5.81483        13.9157
  1330       1331       0.349018        6.01137        13.9011
  1340       1341       0.349018        5.98649        13.8866
  1350       1351       0.349018        6.03861        13.8723
  1360       1361       0.349018         6.2949        13.8581
  1370       1371       0.349018        6.27147        13.8441
  1380       1381       0.349018         6.1278        13.8302
  1390       1391       0.349018        6.25827        13.8164
  1400       1401       0.349018        6.33414        13.8027
  1410       1411       0.349018        6.27837        13.7892
  1420       1421       0.349018        6.10945        13.7758
  1430       1431       0.349018        6.16972        13.7625
  1440       1441       0.349018        6.17293        13.7493
  1450       1451       0.349018        6.28722        13.7362
* 1460       1583       0.349018        6.57749         67.561
  1470       1593       0.349018        6.71049        34.6397
  1480       1603       0.349018         7.0514        29.7103
  1490       1613       0.349018        6.91039         27.201
  1500       1623       0.349018        6.61197        25.5826

                           Best        Current           Mean
Iteration   f-count         f(x)         f(x)         temperature
  1510       1633       0.349018        6.22345        24.4158
  1520       1643       0.349018        6.47459        23.5176
  1530       1653       0.349018        6.73677        22.7952
  1540       1663       0.349018        6.58622        22.1961
  1550       1673       0.349018        6.24213        21.6875
  1560       1683       0.349018        6.50274        21.2477
  1570       1693       0.349018        6.94204         20.862
  1580       1703       0.349018        6.63038        20.5197
  1590       1713       0.349018        6.24518        20.2127
  1600       1723       0.349018        6.65938        19.9353
  1610       1733       0.349018        6.54196        19.6826
  1620       1743       0.349018        6.50469         19.451
  1630       1753       0.349018        6.30384        19.2377
  1640       1763       0.349018        6.35568        19.0402
  1650       1773       0.349018        6.40563        18.8566
  1660       1783       0.349018        6.42288        18.6851
  1670       1793       0.349018        6.48977        18.5246
  1680       1803       0.349018         6.0807        18.3737
  1690       1813       0.349018        6.03577        18.2316
  1700       1823       0.349018        6.25731        18.0973
  1710       1833       0.349018        6.09264        17.9701
  1720       1843       0.349018        6.04565        17.8494
  1730       1853       0.349018        6.02533        17.7346
  1740       1863       0.349018         5.6518        17.6252
  1750       1873       0.349018         5.6298        17.5208
  1760       1883       0.349018        5.99654         17.421
  1770       1893       0.349018        5.63143        17.3255
  1780       1903       0.349018        5.95886        17.2338
  1790       1913       0.349018        6.14336        17.1459
  1800       1923       0.349018        6.08039        17.0613

                           Best        Current           Mean
Iteration   f-count         f(x)         f(x)         temperature
  1810       1933       0.349018        6.33995        16.9799
  1820       1943       0.349018        6.07707        16.9015
  1830       1953       0.349018        6.38999        16.8258
  1840       1963       0.349018        6.74136        16.7528
  1850       1973       0.349018        6.68501        16.6822
  1860       1983       0.349018        6.50088        16.6139
  1870       1993       0.349018        6.49746        16.5478
  1880       2003       0.349018        5.78883        16.4838
  1890       2013       0.349018        5.65399        16.4217
  1900       2023       0.349018        5.92609        16.3615
  1910       2033       0.349018        6.58065         16.303
  1920       2043       0.349018        6.32637        16.2461
  1930       2053       0.349018        6.44496        16.1909
  1940       2063       0.349018        6.36488        16.1371
  1950       2073       0.349018        6.45615        16.0848
  1960       2083       0.349018        6.39124        16.0338
  1970       2093       0.349018        6.04658        15.9842
  1980       2103       0.349018        6.24275        15.9357
  1990       2113       0.349018        6.02503        15.8885
  2000       2123       0.349018         6.2475        15.8424
  2010       2133       0.349018        6.13724        15.7974
  2020       2143       0.349018         6.0841        15.7534
  2030       2153       0.349018        6.06694        15.7105
  2040       2163       0.349018        5.78532        15.6685
  2050       2173       0.349018        5.59805        15.6274
  2060       2183       0.349018        5.65967        15.5872
  2070       2193       0.349018        6.02725        15.5479
  2080       2203       0.349018        5.94428        15.5094
  2090       2213       0.349018        6.08584        15.4716
  2100       2223       0.349018        6.34503        15.4347

                           Best        Current           Mean
Iteration   f-count         f(x)         f(x)         temperature
  2110       2233       0.349018        6.32177        15.3985
  2120       2243       0.349018        6.38461         15.363
  2130       2253       0.349018        5.77581        15.3281
  2140       2263       0.349018        5.89361         15.294
  2150       2273       0.349018         5.8587        15.2604
  2160       2283       0.349018        5.81766        15.2275
  2170       2293       0.349018        5.77147        15.1952
  2180       2303       0.349018        5.81468        15.1635
  2190       2313       0.349018        5.85442        15.1323
  2200       2323       0.349018         5.9542        15.1017
  2210       2333       0.349018        5.77975        15.0716
  2220       2343       0.349018        5.72359         15.042
  2230       2353       0.349018        5.49459        15.0129
  2240       2363       0.349018        5.96838        14.9843
  2250       2373       0.349018        5.80065        14.9561
  2260       2383       0.349018        5.62484        14.9284
  2270       2393       0.349018        6.01138        14.9012
  2280       2403       0.349018        6.00209        14.8744
  2290       2413       0.349018        5.80402        14.8479
  2300       2423       0.349018        5.87983        14.8219
  2310       2433       0.349018        5.91063        14.7963
  2320       2443       0.349018        5.78474        14.7711
  2330       2453       0.349018        5.56681        14.7462
  2340       2463       0.349018        5.98274        14.7217
  2350       2473       0.349018        6.28154        14.6976
  2360       2483       0.349018        6.14849        14.6738
  2370       2493       0.349018        6.13537        14.6503
  2380       2503       0.349018        6.16366        14.6272
  2390       2513       0.349018        6.25247        14.6044
  2400       2523       0.349018        6.10267        14.5819

                           Best        Current           Mean
Iteration   f-count         f(x)         f(x)         temperature
  2410       2533       0.349018        6.01986        14.5597
  2420       2543       0.349018        6.12699        14.5378
  2430       2553       0.349018        6.00692        14.5161
  2440       2563       0.349018         6.1203        14.4948
  2450       2573       0.349018        6.22118        14.4737
  2460       2583       0.349018        5.93549         14.453
  2470       2593       0.349018        5.90476        14.4324
  2480       2603       0.349018        6.06897        14.4122
  2490       2613       0.349018        6.45738        14.3921
  2500       2623       0.349018        6.30185        14.3724
  2510       2633       0.349018        6.39101        14.3528
  2520       2643       0.349018        6.41525        14.3335
  2530       2653       0.349018        6.39022        14.3145
  2540       2663       0.349018        6.42051        14.2956
  2550       2673       0.349018        6.35246         14.277
  2560       2683       0.349018        6.40374        14.2586
  2570       2693       0.349018        6.60029        14.2404
  2580       2703       0.349018        6.56307        14.2225
  2590       2713       0.349018         6.7171        14.2047
  2600       2723       0.349018         6.8187        14.1871
  2610       2733       0.349018        6.67943        14.1697
  2620       2743       0.349018         6.6046        14.1525
  2630       2753       0.349018        6.73935        14.1355
  2640       2763       0.349018        6.61441        14.1187
  2650       2773       0.349018        6.62226         14.102
  2660       2783       0.349018        6.33885        14.0856
  2670       2793       0.349018        6.50724        14.0693
  2680       2803       0.349018        6.52445        14.0531
  2690       2813       0.349018        6.46775        14.0372
  2700       2823       0.349018        6.39489        14.0214

                           Best        Current           Mean
Iteration   f-count         f(x)         f(x)         temperature
  2710       2833       0.349018        6.23738        14.0058
  2720       2843       0.349018        6.19133        13.9903
  2730       2853       0.349018          6.235         13.975
  2740       2863       0.349018        6.32553        13.9598
  2750       2873       0.349018        6.30629        13.9448
  2760       2883       0.349018        6.38147        13.9299
  2770       2893       0.349018        6.36449        13.9152
  2780       2903       0.349018        6.42576        13.9006
  2790       2913       0.349018        6.41334        13.8862
  2800       2923       0.349018        6.35089        13.8719
  2810       2933       0.349018        6.37353        13.8577
  2820       2943       0.349018        6.23272        13.8436
  2830       2953       0.349018        6.20166        13.8297
  2840       2963       0.349018        6.28112        13.8159
  2850       2973       0.349018        6.35013        13.8023
  2860       2983       0.349018        6.32333        13.7888
  2870       2993       0.349018        6.27007        13.7753
* 2876       3121       0.349018        6.46243        50.6558
  2880       3125       0.349018        5.96394        36.3073
  2890       3135       0.349018        6.36923        29.6803
  2900       3145       0.349018        5.94867        27.0493
  2910       3155       0.349018        5.89598        25.4319
  2920       3165       0.349018        5.70915        24.2825
  2930       3175       0.349018        5.48817        23.4017
  2940       3185       0.349018        5.58941        22.6944
  2950       3195       0.349018        5.53869        22.1077
  2960       3205       0.349018        5.61604        21.6092
  2970       3215       0.349018        5.75149        21.1778
  2980       3225       0.349018         5.8508        20.7991
  2990       3235       0.349018        5.73075        20.4627
  3000       3245       0.349018        5.91756        20.1607

                           Best        Current           Mean
Iteration   f-count         f(x)         f(x)         temperature
  3010       3255       0.349018         5.6621        19.8876
  3020       3265       0.349018        5.79084        19.6386
  3030       3275       0.349018        5.96239        19.4103
  3040       3285       0.349018        5.78768        19.1998
  3050       3295       0.349018        5.90695        19.0049
  3060       3305       0.349018        5.65081        18.8235
  3070       3315       0.349018        5.41964        18.6541
  3080       3325       0.349018        5.62643        18.4953
  3090       3335       0.349018        5.62096        18.3461
  3100       3345       0.349018        6.16602        18.2054
  3110       3355       0.349018        6.03725        18.0724
  3120       3365       0.349018        5.26896        17.9465
  3130       3375       0.349018        5.32665        17.8269
  3140       3385       0.349018        5.45342        17.7131
  3150       3395       0.349018        5.68052        17.6047
  3160       3405       0.349018        5.78404        17.5012
  3170       3415       0.349018        5.30311        17.4022
  3180       3425       0.349018        5.27367        17.3074
  3190       3435       0.349018        5.44558        17.2165
  3200       3445       0.349018        5.55862        17.1292
  3210       3455       0.349018        5.60374        17.0452
  3220       3465       0.349018        5.92172        16.9644
  3230       3475       0.349018        5.52549        16.8865
  3240       3485       0.349018        5.54979        16.8113
  3250       3495       0.349018        6.12823        16.7388
  3260       3505       0.349018        5.94864        16.6686
  3270       3515       0.349018        5.89586        16.6008
  3280       3525       0.349018        5.64224        16.5351
  3290       3535       0.349018        5.68754        16.4715
  3300       3545       0.349018        5.50048        16.4097

                           Best        Current           Mean
Iteration   f-count         f(x)         f(x)         temperature
  3310       3555       0.349018        5.55796        16.3498
  3320       3565       0.349018        5.72973        16.2917
  3330       3575       0.349018        5.90623        16.2351
  3340       3585       0.349018        6.35251        16.1802
  3350       3595       0.349018        5.98697        16.1267
  3360       3605       0.349018        6.21085        16.0746
  3370       3615       0.349018        5.99455        16.0239
  3380       3625       0.349018        6.24475        15.9745
  3390       3635       0.349018        6.07912        15.9263
  3400       3645       0.349018        5.76182        15.8793
  3410       3655       0.349018        5.88695        15.8334
  3420       3665       0.349018        6.02787        15.7886
  3430       3675       0.349018        6.19156        15.7449
  3440       3685       0.349018        6.15727        15.7021
  3450       3695       0.349018        6.07341        15.6603
  3460       3705       0.349018        6.09416        15.6194
  3470       3715       0.349018        6.29051        15.5794
  3480       3725       0.349018        6.02444        15.5402
  3490       3735       0.349018        6.01495        15.5018
  3500       3745       0.349018        6.14615        15.4643
  3510       3755       0.349018        6.01545        15.4274
  3520       3765       0.349018        6.07133        15.3914
  3530       3775       0.349018        6.10006         15.356
  3540       3785       0.349018        6.40413        15.3213
  3550       3795       0.349018        6.02164        15.2872
  3560       3805       0.349018         6.1149        15.2538
  3570       3815       0.349018        6.41519        15.2211
  3580       3825       0.349018        5.97049        15.1889
  3590       3835       0.349018        6.01221        15.1572
  3600       3845       0.349018        6.35363        15.1262

                           Best        Current           Mean
Iteration   f-count         f(x)         f(x)         temperature
  3610       3855       0.349018        6.60129        15.0957
  3620       3865       0.349018        6.44031        15.0657
  3630       3875       0.349018        6.04295        15.0362
  3640       3885       0.349018         5.7091        15.0072
  3650       3895       0.349018         5.9553        14.9786
  3660       3905       0.349018        6.52113        14.9506
  3670       3915       0.349018        6.52273         14.923
  3680       3925       0.349018        5.79779        14.8958
  3690       3935       0.349018         5.9884        14.8691
  3700       3945       0.349018        5.90309        14.8427
  3710       3955       0.349018        6.05823        14.8168
  3720       3965       0.349018        5.55026        14.7913
  3730       3975       0.349018        6.00271        14.7661
  3740       3985       0.349018        5.95627        14.7413
  3750       3995       0.349018        5.95603        14.7169
  3760       4005       0.349018         5.9678        14.6928
  3770       4015       0.349018        6.10476        14.6691
  3780       4025       0.349018        5.96433        14.6457
  3790       4035       0.349018        5.75227        14.6226
Time limit exceeded: increase options.MaxTime.
