0.3886,0.0229,0.0233,0.0222
0.0005,0.0006,0.0028,0.3215
0.0162,0.0176,0.0059,0.2710
0.0005,0.0022,0.0025,0.2516
0.4120,0.0021,0.0036,0.0231
0.0000,0.0000,0.0000,0.0000
0.0000,0.0006,0.2279,0.0004
0.0000,0.0000,0.0000,0.0000
0.0005,0.0006,0.0037,0.4517
0.0051,0.5302,0.0123,0.0000
0.5193,0.0000,0.0000,0.0002
0.0000,0.0000,0.0000,0.0000
0.0000,0.0000,0.0000,0.0000
0.0000,0.0021,0.6045,0.0000
0.0000,0.0144,0.7370,0.0000
0.0000,0.0000,0.0000,0.0000
