it,funval,time,funcount,weight
0,26566.9045082,0.0040126670001,578,26464.6460658
10,26539.1906196,0.0086432930002,1059,26950.745829
20,26859.4595653,0.0134214589998,1548,25987.0426281
30,26973.0376224,0.0177403259995,2023,26115.7376328
40,27051.4846703,0.0218385239996,2524,26873.3510033
50,26861.7478748,0.0259311620002,3018,27089.7020488
60,26712.821411,0.0302329229999,3510,26969.7613837
70,26575.9654042,0.0352060989999,3984,27514.4803238
80,27062.7667252,0.0397516209996,4461,27923.986897
90,27786.2615278,0.043956732,4961,27695.6989152
100,27372.9163988,0.0489756659999,5446,27550.7902469
110,27173.0782961,0.0534198340001,5927,27790.4302223
120,27587.9602455,0.0591781799994,6405,27876.5109925
130,27715.2817097,0.063534251999,6892,27478.9379736
140,27405.5031797,0.0681349419992,7373,26482.9713098
150,27645.2162259,0.0732616449995,7838,27424.1425795
160,27789.433267,0.0777862129999,8322,28333.651671
170,27642.1668323,0.082713629,8807,28100.429944
180,27709.7784728,0.088359075,9284,28341.1098745
190,27660.0335008,0.0929071639994,9761,28454.4749636
200,27902.8479894,0.0977516159992,10249,28108.4508388
210,27465.9684318,0.102665774999,10726,28480.7421863
220,27733.0532894,0.107120634999,11211,28551.1883605
230,27937.8705069,0.111780767999,11683,28353.6019608
240,27787.1594128,0.117154653999,12169,28228.8892741
250,27468.9090633,0.123327395999,12646,28086.9383021
260,27632.8296031,0.128055525999,13129,27433.2030201
270,27136.4931118,0.133590637,13602,27640.5304278
280,27205.6086527,0.139328028,14084,28024.3222776
290,27009.3567518,0.144303342,14574,27169.9857917
300,27052.9559012,0.149832039,15061,27195.0764538
310,27257.123872,0.154327526,15535,27889.8309065
320,27113.2289278,0.159374686001,16030,27185.2417283
330,27234.6438203,0.163879154001,16512,27816.4386367
340,27075.9802348,0.168301940001,17000,27782.6995639
350,27405.2298857,0.172536559001,17477,27407.115413
360,27406.4281437,0.176925561001,17970,27638.0574876
370,27223.7002511,0.181124257,18453,27277.6171671
380,27226.345764,0.185818603,18932,27586.024444
390,27213.0175157,0.190102402001,19431,27647.212332
400,27344.780436,0.194521768,19914,27501.1606775
410,27591.2137298,0.198651612001,20395,27428.0602415
420,27492.4741328,0.203284376001,20879,27685.8195362
430,27671.6104746,0.20806468,21373,27957.1680467
440,27609.8080574,0.212077775001,21856,28846.9652339
450,27881.7410543,0.216371838001,22349,28222.0023728
460,27836.6447903,0.221138457001,22843,27797.8191189
470,27948.0358746,0.225394886002,23330,28162.929884
480,28004.914564,0.229690659002,23809,27620.6274736
490,27924.2211994,0.233725564001,24282,28311.4488342
500,27729.3816825,0.237801524002,24757,28496.2581207
510,27750.5101891,0.243039844002,25223,27886.4329485
520,27620.5387707,0.247327064002,25710,28257.2329358
530,27763.3284885,0.251713072002,26193,28015.9264024
540,27740.0404746,0.256910765002,26683,28573.5009073
550,27504.3661705,0.261904040001,27173,28411.845678
560,27755.3183993,0.266548351001,27650,28097.5560161
570,27674.8665226,0.271556594001,28143,28594.1537516
580,27761.6423222,0.277693412,28625,28232.842615
590,27722.6016951,0.282876138001,29120,28358.546737
600,27727.0762486,0.287072696001,29614,27936.5323731
610,27765.781173,0.291586573001,30092,29005.2151494
620,27742.6304943,0.295700166002,30572,28531.6665072
630,27946.7651996,0.299607203002,31055,28629.6488703
640,27746.7940933,0.303461210002,31549,28093.9980089
650,28142.2076699,0.307038526003,32025,28252.2727071
660,27987.9193768,0.311561810002,32511,28015.068099
670,27943.3978554,0.316151808002,32996,28660.6628816
680,27832.0181061,0.320665684002,33477,28466.6523209
690,27965.523789,0.324558181002,33966,28599.480632
700,27999.7922222,0.328959584002,34436,27887.8908535
710,27955.5675431,0.333426418002,34926,28416.2537178
720,28115.1162249,0.337853481002,35401,28155.1968585
730,27935.0688928,0.341961943002,35877,28026.1967057
740,28073.0455498,0.345821938003,36350,28487.6061778
750,28020.0679104,0.349471100003,36818,28243.844007
760,28104.8143439,0.353172435003,37297,27876.1985879
770,27993.3310612,0.357815462004,37779,27944.2317221
780,28229.6323995,0.363034965004,38260,27336.6275523
790,28175.4143213,0.367515912004,38744,28489.1014205
800,28005.3858786,0.371993865004,39230,27828.7607633
810,27938.5149358,0.376567185004,39718,28641.0782151
820,28006.8236528,0.381342357005,40195,27836.4361448
830,28003.0469343,0.385526513005,40690,28083.6980245
840,28110.7245495,0.389864624005,41181,28454.0313212
850,27953.2935266,0.394210860005,41662,28264.7766827
860,27851.4046019,0.399030936004,42153,28505.4060655
870,28070.5169711,0.403906179004,42638,28834.8985259
880,28212.1773864,0.409046994005,43117,28466.1433854
890,28008.9040948,0.413805488004,43601,27873.1427611
900,28110.6713831,0.418336898004,44069,28399.2524561
910,27975.0887518,0.423339582004,44550,28298.2092927
920,28335.7098362,0.428225089004,45045,28383.7124848
930,28313.6206333,0.432801830003,45517,28453.2257795
940,27875.7540945,0.437196818003,45994,27944.6868622
950,27728.2018778,0.441785961003,46478,27773.7820327
960,27874.1554561,0.446281876003,46952,27955.5775921
970,27846.9552463,0.451071160003,47432,28193.372251
980,27905.5908163,0.455599149002,47906,28344.763431
990,28031.92746,0.460330701003,48387,27717.5164587
1000,27837.9091161,0.464613217003,48870,28237.6112609
1010,27989.7692939,0.469165582003,49353,27342.3189164
1020,27828.9397798,0.473672188004,49839,27569.3471282
1030,27985.9054028,0.478513218004,50326,28035.7769515
1040,27700.2921535,0.483034792004,50794,27835.3314944
1050,27837.8796271,0.487626502005,51275,27813.3781912
1060,27912.2962072,0.492367462005,51758,27690.5298325
1070,28139.5146381,0.497315834005,52237,28322.6376936
1080,27710.1743918,0.501987514005,52710,28221.887859
1090,27527.6687519,0.506410300005,53199,27943.6303448
1100,27803.2240654,0.510666302005,53682,28092.5804843
1110,27677.9224,0.515654018005,54171,28064.2147956
1120,27465.9755536,0.520220068005,54664,27507.8170688
1130,27471.2547419,0.525483192005,55156,28017.5332122
1140,27765.8913325,0.534291559004,55630,27278.6145178
1150,27297.0535381,0.539161243005,56108,27419.4746595
1160,27238.480354,0.543625511005,56590,27526.5342712
1170,27251.7770396,0.548104320005,57086,27519.1265235
1180,27296.9676929,0.552909000005,57573,27141.7577393
1190,27479.4959997,0.558146037004,58059,27134.5443754
1200,27049.3443372,0.562319929004,58537,27275.6108832
1210,27042.0880457,0.566832950004,59015,27660.860218
1220,27220.1969387,0.571202707004,59493,27270.101459
1230,27232.1173739,0.575601545003,59973,26897.445947
1240,27048.6008072,0.580315563003,60469,27469.4885024
1250,26680.0723961,0.585019745003,60952,26933.2328346
1260,27308.9942212,0.589475460002,61431,27237.6767829
1270,27195.996023,0.594375079002,61918,26436.9663427
1280,27004.1570923,0.598921029003,62403,26729.0946212
1290,26821.7702858,0.603735118003,62890,27227.4574521
1300,26981.4543198,0.608074084003,63372,27142.7506249
1310,26815.2596724,0.612265082003,63854,26859.0280853
1320,26874.2150437,0.616850804004,64344,26617.9396507
1330,26905.374382,0.620949857003,64827,26923.9354949
1340,26979.5648156,0.625506071004,65322,26244.8003575
1350,26591.9466063,0.629801844004,65805,26606.1310365
1360,26412.0734548,0.634195549004,66290,26929.1355713
1370,26726.3314057,0.638479348005,66764,26415.4119133
1380,26671.9231045,0.642910260004,67251,26672.0939359
1390,26455.0953535,0.647693558004,67748,26646.7234968
1400,26544.9954578,0.652352409003,68243,26523.6851052
1410,26593.6149389,0.656824375003,68738,26477.8418271
1420,26625.9726156,0.662056709004,69232,26346.8096084
1430,26360.1500017,0.667186405004,69708,25928.2817698
1440,26195.9158018,0.671997500004,70192,25929.925458
1450,26472.134437,0.676939029004,70664,25924.1667923
1460,26059.204337,0.681942568004,71157,26142.9836398
1470,26209.4931902,0.686440193004,71645,25776.5342538
1480,26343.0052953,0.691145658004,72133,25852.0724801
1490,26680.792496,0.695390968004,72622,26497.309714
1500,26422.1943694,0.699801352004,73111,26261.1164229
1510,26558.5483135,0.704164694004,73598,26579.1958793
1520,26535.089532,0.708829532005,74082,26010.6064421
1530,26861.749689,0.712778907005,74558,25818.63233
1540,26371.8231672,0.717039186005,75044,26226.032248
1550,26353.7794423,0.721329828004,75518,25943.9352742
1560,26116.6764218,0.726009206004,76001,25880.5781686
1570,26124.6342257,0.730613317004,76483,26138.9271037
1580,26092.8940555,0.735165682005,76959,25343.7040438
1590,26075.35193,0.739786899005,77452,25833.3691077
1600,26133.4192573,0.744261859005,77943,25559.7530869
1610,26313.3472254,0.748956633005,78436,26330.1601769
1620,26144.7445078,0.753701870005,78926,25775.5783444
1630,26201.616291,0.758178112004,79416,26062.9101898
1640,26364.7163603,0.762814297004,79891,25920.8647952
1650,26585.1154071,0.767310639004,80381,25984.0552602
1660,26650.4428173,0.772060152004,80868,26275.0111391
1670,26865.6177873,0.776366617004,81349,26599.8296741
1680,26870.0572359,0.780915560003,81833,27203.9691177
1690,26983.7546128,0.785103137003,82306,27014.5796923
1700,27089.3190306,0.790077168003,82771,26865.6006318
1710,27016.4407015,0.794144147003,83252,26757.105888
1720,26730.9215737,0.798761088003,83737,27029.9881748
1730,26837.3163821,0.803151800003,84223,26549.1454288
1740,26825.1452406,0.807926117002,84707,26651.2753666
1750,27509.6888692,0.812603784003,85180,26955.1380706
1760,27221.418553,0.817267339003,85660,26563.4725496
1770,27540.872172,0.821503241003,86136,26839.4027706
1780,27376.3497364,0.826194166003,86642,26737.7361879
1790,27248.02874,0.830946244003,87136,27375.3987196
1800,27378.821632,0.834752782003,87621,26875.8969196
1810,27291.8731729,0.838772291004,88104,26819.1900957
1820,27332.7335496,0.843367421004,88588,26937.1695746
1830,27568.3327918,0.847721355004,89071,27157.2067708
1840,27407.3618151,0.851928177004,89551,26796.1275826
1850,27507.8063256,0.856454883004,90029,27290.5554895
1860,27546.2949185,0.861200120004,90511,26960.156463
1870,27535.0371323,0.865712714003,90993,27237.2133501
1880,27649.5882329,0.870481899004,91483,27195.4043807
1890,27459.3768798,0.874878598003,91973,27444.5666252
1900,27782.5286923,0.880056192003,92455,26850.1014528
1910,27588.1951018,0.884740274004,92932,27971.5665
1920,27584.2476244,0.889531697004,93414,27781.172498
1930,27641.2153743,0.894099030003,93887,27348.9147973
1940,27673.1530506,0.899373701003,94371,28156.1761969
1950,27465.4863262,0.903738754003,94844,27297.6823922
1960,27593.0377619,0.908042225003,95324,27304.8806065
1970,27617.2311358,0.912626664002,95806,27592.6780462
1980,27620.7108698,0.917316733002,96284,26981.9736513
1990,27573.314152,0.921723269003,96765,27243.7117273
2000,27571.7480284,0.926246981003,97242,26978.3963197
2010,27729.8747383,0.931043963003,97724,26875.775222
2020,27714.504651,0.935617710003,98203,26411.4722886
2030,27546.2639635,0.940309490003,98699,27552.5937385
2040,27440.9189808,0.944541543003,99187,27022.9551624
2050,27371.9177709,0.948741094003,99670,26862.4513567
2060,27262.7638683,0.952674646002,100156,27317.3393596
2070,27485.2892567,0.957067069003,100638,27195.1912534
2080,27663.0347472,0.960868476003,101118,26579.1608332
2090,27736.794812,0.965499530003,101603,26747.877709
2100,27651.3925662,0.970110056003,102090,26777.8984446
2110,27542.4481374,0.974673112003,102573,26730.1297051
2120,27378.2590673,0.978226053003,103067,26592.1444081
2130,27395.8359752,0.982738219003,103546,27098.7425695
2140,27364.1965431,0.986413896003,104035,27053.6908855
2150,27497.7055837,0.990667760003,104524,27029.0376971
2160,27552.2548453,0.994941723004,105011,26800.9522582
2170,27796.4669024,0.998658026004,105491,26850.2777971
2180,27455.0055395,1.002984163,105979,26916.6536814
2190,27568.1945145,1.007255133,106458,26870.8666007
2200,27867.4402386,1.011574855,106956,27319.1576975
2210,27530.6898077,1.015794079,107435,26785.4948067
2220,27420.4843848,1.020312659,107909,26506.0161355
2230,27619.1210892,1.025317053,108395,26904.3186095
2240,27554.4304519,1.029188594,108864,26624.5030731
2250,27649.5083532,1.03336548,109344,27381.354768
2260,27534.0650544,1.037228896,109822,27029.0704811
2270,27609.4105779,1.041528946,110306,27571.3434963
2280,27469.7742376,1.04582001501,110788,26975.4669874
2290,27510.6531137,1.050282146,111272,27169.059974
2300,27762.9437041,1.054104935,111753,27514.1258569
2310,27930.1432855,1.05842679501,112227,26249.7778365
2320,27454.7950493,1.06263661001,112706,26940.1930308
2330,27439.0260015,1.06688277601,113191,27749.4552607
2340,27450.3441084,1.07123200601,113666,27508.15654
2350,27545.4813112,1.07564709401,114147,26915.8791815
2360,27389.9764321,1.079529755,114615,27090.7624442
2370,27115.5415051,1.08406758001,115087,26772.7484918
2380,27394.830039,1.08860497801,115565,26793.0411374
2390,27231.6921903,1.09279469401,116049,26848.684316
2400,27306.136176,1.09670558001,116531,27090.0744853
2410,26993.7985572,1.10026151301,117013,27348.785068
2420,27057.3589665,1.10426733801,117491,26822.4667918
2430,27252.8915111,1.10855113701,117964,27104.5488997
2440,27139.436212,1.11230892301,118446,26682.5591674
2450,27171.4987266,1.11655166701,118927,27542.0155755
2460,27181.9918012,1.12099840201,119408,27324.8925352
2470,27360.5919931,1.12544813101,119895,26994.1896456
2480,27417.3654656,1.12973492401,120379,27521.7422323
2490,27779.9592488,1.13431166501,120862,28055.8659285
2500,27716.9743422,1.13835512301,121350,27382.0207912
2510,27587.2035442,1.14260642,121836,27976.7001376
2520,27762.9893998,1.146888936,122328,28463.5601022
2530,27586.6311729,1.150754063,122803,27608.460141
2540,27639.9892125,1.155882049,123280,27147.1481632
2550,27772.4440614,1.16040405,123758,27556.7059188
2560,27790.9486858,1.164072029,124243,27975.7269069
2570,27845.067019,1.168761671,124724,27582.4260936
2580,27675.4379516,1.172399286,125194,28340.3293364
2590,27835.5553407,1.176099767,125664,27858.0107191
2600,27778.0719997,1.179648003,126148,28112.4999117
2610,27761.5179153,1.184169578,126639,27965.8235093
2620,27881.815667,1.189079888,127121,27963.2864982
2630,27981.9847921,1.193683571,127610,28153.0121665
2640,27923.8177616,1.198307354,128080,27397.217502
2650,27719.8908715,1.202684809,128561,27496.2305958
2660,27742.7124347,1.206480656,129046,27995.0485899
2670,27745.4160237,1.210771726,129537,27661.8555894
2680,27716.4000384,1.215066644,130022,27731.3693932
2690,27668.6520174,1.21922899,130497,28201.9855408
2700,27686.3961114,1.223327616,130985,28036.5245169
2710,27861.2044241,1.227767508,131461,27283.1019732
2720,27885.4268361,1.233126426,131957,27711.2290513
2730,28007.458573,1.236910727,132442,28312.070742
2740,28171.5043464,1.240635584,132932,27750.8997881
2750,28248.5465469,1.244320669,133418,27737.7137861
2760,28122.0465114,1.247805185,133893,28287.0472868
2770,28312.1130333,1.251243942,134377,28461.4090219
2780,28104.4162496,1.2553276,134867,28048.283423
2790,28222.9055506,1.258981466,135364,28935.0250499
2800,28397.9532393,1.262504471,135850,28402.4879191
2810,27981.7136492,1.266274659,136336,27499.5736337
2820,28319.2108798,1.27270869701,136821,28069.3532384
2830,28316.1385235,1.27743853801,137302,27984.7255872
2840,28341.3861355,1.28140288,137773,28738.4771667
2850,28436.6516108,1.28559558901,138258,28932.9955215
2860,28483.2378126,1.28932771601,138752,28324.8573878
2870,28571.1627243,1.29400495501,139244,28247.3373543
2880,28650.0127563,1.297893603,139732,28673.6686124
2890,28755.7831971,1.301558589,140213,28833.5942241
2900,28946.8762391,1.305185513,140697,28852.7966968
2910,28799.0559666,1.309536881,141176,28904.682574
2920,29073.5502008,1.314166223,141662,29466.336366
2930,29079.2274357,1.317704623,142148,29215.878584
2940,29142.2125841,1.321878515,142631,29163.5916808
2950,29494.1551331,1.326132379,143108,29016.8621366
2960,28958.9883007,1.33035416801,143599,29174.1510775
2970,28875.6454275,1.33457553001,144085,28661.4708291
2980,28931.0468351,1.33920444501,144564,29114.509217
2990,28929.2832968,1.34394797101,145040,29357.4567435
3000,28853.7937038,1.34830447201,145525,29355.7850098
3010,28650.0792763,1.35280124201,146004,29097.2422677
3020,28818.0328471,1.35706023701,146498,28733.0693848
3030,28809.5804481,1.36130725801,146991,29547.3988757
3040,28743.587147,1.36574030701,147487,28534.8723519
3050,28734.196278,1.37032389101,147981,28746.6226581
3060,28488.6772258,1.37440241701,148455,28594.3461393
3070,28735.3404078,1.37866355101,148926,28597.7716709
3080,28843.1453701,1.38332197401,149404,29066.2234453
3090,28679.1216924,1.38707719401,149891,28850.3548973
3100,28660.5969377,1.39153932401,150367,28610.6290842
3110,28633.1741316,1.39604037001,150848,28758.9884946
3120,28764.6053294,1.40064662001,151333,29227.9664829
3130,28990.4776004,1.40534994701,151809,28537.1500329
3140,29073.5390275,1.40959782301,152296,29186.8223706
3150,29241.4321346,1.41462830401,152769,28870.929131
3160,29290.1601509,1.41914560201,153242,28805.5734724
3170,29390.9198636,1.423652636,153734,28573.8228204
3180,29632.4832297,1.428778484,154226,29114.8510041
3190,29360.0814918,1.433811959,154694,28928.1280564
3200,29284.8303582,1.438754771,155184,29006.0998969
3210,29417.4728706,1.44293379501,155665,28790.1342955
3220,28885.8917052,1.447494713,156160,28954.5219198
3230,28862.9387107,1.452297255,156635,29021.2627472
3240,28959.2083401,1.45703522201,157123,28587.6207239
3250,29220.5735062,1.461680815,157600,28635.4514282
3260,28829.0142913,1.46579184201,158088,28750.2940628
3270,28908.7672109,1.46995760901,158569,28470.8798687
3280,28880.8359691,1.473713684,159047,27983.9661096
3290,28960.6997336,1.47822884301,159530,28359.4036524
3300,29117.0839364,1.482690546,160013,28712.2889539
3310,29200.2207684,1.48627299401,160505,28485.3808425
3320,28996.8257878,1.490058577,160985,28269.3767632
3330,29030.2202898,1.493873669,161480,28475.9323452
3340,29107.135077,1.498105722,161959,27686.3126324
3350,29202.0491654,1.501603067,162436,28827.8214601
3360,29076.0159201,1.505830416,162912,28487.4643682
3370,29393.2445234,1.509784494,163379,28890.7574388
3380,29358.7809918,1.514066583,163861,27960.3104958
3390,29612.5996744,1.517624227,164347,28669.8384729
3400,29535.5080204,1.521110881,164842,28865.8418513
3410,29707.81747,1.525632883,165325,28971.2438613
3420,29486.0469119,1.529936354,165806,29036.7475838
3430,29627.4434797,1.534364272,166288,28897.5739932
3440,29530.6436226,1.53855356,166775,28895.3091283
3450,29534.2385283,1.543087536,167254,28124.3339323
3460,29819.0814981,1.547624505,167749,28968.8817103
3470,29443.8701252,1.551625625,168236,28567.1343232
3480,29593.9110381,1.556370861,168711,28613.8823003
3490,29515.6829636,1.560675615,169200,29245.7809791
3500,29829.0222975,1.564890134,169687,28881.8369268
3510,29947.9503732,1.569265878,170173,29071.7488643
3520,29858.3270201,1.573715607,170656,29128.5896222
3530,29762.1997672,1.578179876,171132,28360.2150867
3540,29800.613465,1.582439299,171609,28789.6131364
3550,30003.0460337,1.587095583,172087,28879.7491763
3560,29943.9692695,1.591292141,172571,29206.674541
3570,29502.1391907,1.595110653,173054,28714.5533596
3580,29633.5809255,1.599565085,173531,28680.7765034
3590,29524.0172663,1.603813389,174020,28119.6677044
3600,29537.3801894,1.608119854,174495,28064.3846389
3610,29699.1247034,1.612425036,174982,28393.4769103
3620,29760.3629659,1.617038983,175467,28356.8992277
3630,29761.2957645,1.621333901,175956,27932.7274465
3640,29626.5459453,1.625698098,176440,28528.4352926
3650,29771.45414,1.630122167,176918,28051.3213467
3660,29789.386034,1.634338825,177402,28421.0494094
3670,29896.8418063,1.63881293,177892,28448.4735345
3680,29837.868611,1.643217328,178382,28701.8779392
3690,29775.365822,1.646868628,178871,28497.4830928
3700,29881.9374831,1.651569388,179351,28169.1034342
3710,29611.3942435,1.656391174,179837,28079.5451518
3720,29609.1481225,1.660778037,180335,28343.9817621
3730,29682.5624128,1.665072528,180814,27597.8500313
3740,29502.5662766,1.669343498,181303,28299.2078118
3750,29843.0140361,1.673209907,181776,28596.5125316
3760,29629.8608344,1.677857639,182252,28446.9745449
3770,29565.4413529,1.681533316,182742,28139.2729394
3780,29753.0255415,1.685318044,183234,27984.5727822
3790,29610.6764433,1.689564637,183703,27963.3300957
3800,29712.8337798,1.693810803,184187,28150.0531974
3810,29645.4249291,1.697953049,184675,27944.9810216
3820,29485.0790175,1.702172273,185140,27518.0302775
3830,29427.2061747,1.706347448,185633,28551.5855801
3840,29578.3487681,1.710344719,186117,28599.718807
3850,29530.0907018,1.71480129,186594,28205.9614451
3860,29601.6916104,1.719509321,187072,28169.5193733
3870,29644.3711327,1.723895757,187569,27858.2057412
3880,29885.1917533,1.728179984,188057,28168.0486014
3890,29659.0949672,1.732608329,188541,28503.1920134
3900,29669.4343034,1.737074308,189021,28403.9211703
3910,29561.5731295,1.741895667,189511,27928.1534646
3920,29627.7729843,1.746364212,189982,28380.1110714
3930,29514.5486164,1.755715697,190452,28075.7541761
3940,29501.0031417,1.760544326,190946,27881.2514208
3950,29623.7507136,1.765111232,191429,28187.7742647
3960,29620.7581208,1.769768372,191911,28610.9173192
3970,29712.9975446,1.773924731,192392,28407.0930418
3980,29922.9863908,1.778171752,192880,28559.7848415
3990,29811.3626041,1.782706156,193367,28367.5435453
4000,29876.3890129,1.787356881,193851,28845.570395
4010,29941.0894171,1.790888011,194357,28177.7079224
4020,29634.7357201,1.794695833,194837,28530.2929076
4030,29634.6553563,1.798324468,195315,28061.9684056
4040,29731.6388535,1.802780612,195804,28054.2705074
4050,29559.9364519,1.806547806,196281,28362.5207101
4060,29599.4565805,1.81070673,196758,28119.4381398
4070,29524.8205302,1.81457314,197248,27656.6938373
4080,29614.5249116,1.819219589,197726,27642.9665251
4090,29322.5985344,1.823374665,198209,27508.3509741
4100,29409.4605083,1.82766103,198694,28150.4409432
4110,29494.2130204,1.831936703,199172,28046.242357
4120,29921.0501939,1.836513872,199666,27851.162993
4130,29811.578525,1.840796816,200148,28060.3547963
4140,29871.5614814,1.844933075,200639,28077.2613675
4150,29772.047793,1.84939606,201120,28291.6749783
4160,29623.2890494,1.853428827,201613,27643.1285081
4170,29829.7687877,1.857591172,202109,28024.8629758
4180,29640.5850396,1.861383171,202600,27887.7468983
4190,29705.0678971,1.865669108,203077,27688.9580047
4200,29689.6993208,1.869544498,203569,28149.4806882
4210,29867.2720028,1.874279043,204053,28181.3433696
4220,29871.2593179,1.878015019,204536,28055.0534184
4230,29806.1844845,1.881705235,205010,27834.1580371
4240,29585.1642906,1.88547414,205494,27579.2063909
4250,29713.7315262,1.88977419,205978,28250.9486139
4260,29654.6458872,1.893608953,206465,27584.123855
4270,29653.6056969,1.898176286,206962,28144.8966148
4280,29760.4513152,1.902269779,207439,28098.7038006
4290,29755.6946612,1.906211028,207915,28028.2656563
4300,29521.2345587,1.909989341,208407,27693.634539
4310,29405.9631772,1.913648339,208890,27301.7731621
4320,29336.4874615,1.917360366,209375,28228.4018731
4330,29167.0156947,1.921633474,209858,28292.8524289
4340,29295.625701,1.925652556,210330,27914.5020853
4350,29152.6014249,1.930206204,210811,27405.0515126
4360,29195.302632,1.934711955,211288,27867.2703042
4370,29292.425468,1.939004734,211783,27302.258248
4380,29131.7548637,1.943243202,212267,27984.2063367
4390,29716.6802917,1.94682009,212748,27639.7746642
4400,29633.3761217,1.951053426,213232,27878.2158607
4410,29405.9153025,1.95531456,213712,28300.5006104
4420,29590.2932022,1.958872632,214202,28622.3049234
4430,29625.8846774,1.963114521,214705,28703.3486314
4440,29708.8137165,1.967581783,215179,28256.683136
4450,29694.3359672,1.971500366,215667,28658.9974476
4460,29635.4112412,1.975903053,216157,28210.1942539
4470,29595.9742414,1.9801381,216653,27730.0665517
4480,29510.3134023,1.984083198,217133,28144.0611901
4490,29378.9384757,1.98833364,217622,28131.7530327
4500,29529.8842392,1.995917637,218101,28151.4021824
4510,29317.9850093,1.999489822,218583,28353.5983856
4520,29716.5516464,2.003790299,219067,27336.311404
4530,29388.3415783,2.007393275,219555,28115.0563606
4540,29603.75001,2.010983421,220039,28137.2374067
4550,29379.471522,2.014522677,220530,27835.0495711
4560,29457.7940747,2.018074762,221005,27405.7019666
4570,29327.6526801,2.02157168,221474,28067.0100677
4580,29244.4767102,2.025070736,221961,27717.6680226
4590,29241.396773,2.028546699,222443,28125.4105741
4600,29273.7277212,2.032107765,222926,27770.9390396
4610,29521.9126513,2.035850156,223407,28023.3204914
4620,29319.0001696,2.039547215,223889,28121.2244633
4630,29566.8558632,2.043098017,224366,27770.4922384
4640,29312.7724507,2.046597073,224851,28028.0664202
4650,29302.7974825,2.050398907,225333,27811.6219266
4660,29331.549326,2.054970089,225819,28242.4187333
4670,29582.9028278,2.058951538,226306,27970.2816269
4680,29335.2678421,2.062493359,226799,28323.8587673
4690,29125.3893388,2.066254566,227280,27434.9699038
4700,29196.2196514,2.0697703,227756,27837.211956
4710,29355.560204,2.073944193,228240,27852.939772
4720,29253.4986518,2.077648522,228720,27909.8059887
4730,29242.1604243,2.081905807,229203,27674.5527146
4740,28864.6946408,2.086703644,229689,27852.4534293
4750,28983.6960031,2.090401559,230172,28304.9471443
4760,28764.1355254,2.094051577,230666,27658.6712396
4770,28901.8719133,2.098252411,231152,27617.1783842
4780,29029.436541,2.102814613,231652,28411.0370905
4790,28833.27939,2.107337897,232137,27801.6911697
4800,28950.7871928,2.110991336,232617,27615.7846775
4810,28887.1359893,2.115605283,233101,27928.7018856
4820,28958.9633714,2.119403269,233581,27409.5328575
4830,29010.4295976,2.123929119,234059,27738.7454446
4840,29073.3871441,2.127920403,234537,27745.1959359
4850,29019.2617762,2.132206341,235008,28045.5638524
4860,28802.8900109,2.135920078,235488,27899.9906811
4870,28732.3577093,2.139769809,235983,27587.6037733
4880,28998.5545685,2.143488251,236460,27324.5528419
4890,29076.652514,2.147979462,236940,27974.3753899
4900,28846.6449024,2.15158928,237425,27712.5847207
4910,28648.7807027,2.156437581,237905,27905.1853103
4920,28618.8707957,2.161148177,238387,27951.0024988
4930,28864.978338,2.165821995,238860,27831.0657156
4940,29051.3379569,2.170466733,239338,27573.1411678
4950,28652.6704866,2.174608551,239823,27970.6646081
4960,28999.1870041,2.179305463,240299,28056.5013421
4970,29274.6080812,2.184005796,240782,28006.065015
4980,28955.1725477,2.189083746,241267,28008.5789976
4990,28872.4111415,2.193314944,241751,27985.1895569
