it,funval,time,funcount,weight
0,25968.3014775,3.07909995172e-05,10,26865.7015063
10,25973.5703979,7.99719991846e-05,21,27032.392196
20,25940.6263044,0.000132144999043,32,27146.4048655
30,26070.2691162,0.000179186999048,43,27342.1457857
40,26151.4342657,0.00021895899863,54,27504.8541783
50,26243.4302459,0.000254026998846,65,27546.6030282
60,26331.5146119,0.000298502999613,76,27644.2131215
70,26494.9241051,0.000347256000168,87,27830.6344065
80,26494.9241051,0.000401995999709,98,27646.8380788
90,26635.3684985,0.000437918999523,109,27921.5995427
100,26766.9835938,0.000510192999172,120,27934.001162
110,26896.7493841,0.000558517999707,131,28124.53351
120,26984.8337501,0.000605131999691,142,28070.2918025
130,27137.8780656,0.000650890000543,153,28337.4961267
140,27267.0478952,0.000689379000505,164,28398.6001519
150,27369.2041043,0.000728723000975,175,28524.3482221
160,27437.4521286,0.000765502000831,186,28647.9033264
170,27596.8897033,0.000800569000603,197,28893.8021661
180,27796.0539583,0.000844617000439,208,29117.4906995
190,27906.053707,0.000892514000952,219,29386.7886325
200,28070.9082335,0.000926299000639,230,29605.3580388
210,28318.6470656,0.000973340000201,241,29717.4791019
220,28685.1605084,0.00102166400029,252,30046.7634198
230,28755.4830051,0.00107683200076,263,30115.7286962
240,28785.2925472,0.00112729500052,274,30095.7472609
250,28949.5388839,0.00117818600029,285,30302.7730798
260,29041.0703781,0.00122565499987,296,30363.4999694
270,29213.0304613,0.00127440799952,307,30504.0253033
280,29357.3410799,0.00132273299914,318,30621.5354477
290,29678.2941019,0.0013714859997,329,30779.0224988
300,29990.7769334,0.0014185279997,340,31038.6910347
310,30125.9885154,0.00146343099914,351,31172.1667005
320,30211.5603247,0.00151688799906,362,31277.6925289
330,30516.2892281,0.00156435699955,373,31605.9353146
340,30516.2892281,0.00160926099943,384,31605.9353146
350,30568.6282416,0.00165929599916,395,31588.9244984
360,30605.6878938,0.00170206099847,406,31605.587592
370,30675.161783,0.00174226099898,417,31795.0220359
380,30745.8026494,0.00178459899871,428,32126.1466278
390,30865.2168683,0.00182223199863,439,32182.692038
400,31012.7489115,0.00186072099859,450,32406.6983954
410,31065.2052507,0.00189792699803,461,32541.7728917
420,31136.7085775,0.00194496899803,472,32670.8163492
430,31188.7899637,0.00199414899816,483,32559.5395026
440,31277.9798001,0.00204546699842,494,32826.7962826
450,31350.9956289,0.00208395599839,505,33019.3824604
460,31786.7490403,0.00212116199873,516,33532.8143581
470,31819.8425298,0.00216307199844,527,33677.7441478
480,31819.8425298,0.00220455399904,538,33677.7441478
490,31963.8557608,0.00224133199845,549,33815.5946083
500,32150.5208465,0.00228153099852,560,34033.4177652
510,32173.6610075,0.00233156699869,571,34029.2026275
520,32284.1556931,0.00237903699872,582,34200.6257318
530,32325.2949336,0.00242864399843,593,34268.2699634
540,32329.237939,0.00248038999871,604,34103.442174
550,32371.6608606,0.00253641299878,615,34240.556502
560,32533.5652436,0.00258131599912,626,34565.4694537
570,32738.3732317,0.00263092399928,637,34769.2159671
580,32780.2776241,0.00268822999988,648,34849.5796885
590,33124.3571154,0.00272714599942,659,35226.4455735
600,33358.1055734,0.00276734499948,670,35488.313344
610,33473.4886978,0.00282122899989,681,35582.574358
620,33714.5514891,0.00287211999967,692,35824.7131979
630,33798.1535646,0.00292044499929,703,35906.7173643
640,33849.9499801,0.00295593999908,714,35932.3277606
650,33971.795675,0.00300640299884,725,36083.2932621
660,34016.69843,0.00305558299897,736,36127.2713148
670,34204.5647424,0.00309107799876,747,36219.1916096
680,34204.5647424,0.00313127799927,758,36219.1916096
690,34336.586611,0.00317147699934,769,36289.5005268
700,34409.4681059,0.00321680799971,780,36209.9578423
710,34588.8969312,0.00326769900039,791,36552.2217508
720,34669.0938081,0.00330618699991,802,36644.9764703
730,34677.906867,0.00335707700015,813,36631.7934853
740,34686.7670301,0.00340668399986,824,36595.9511493
750,34707.8478703,0.00345757499963,835,36772.4043339
760,34915.800355,0.00350376200004,846,36872.5627936
770,34924.8699048,0.00355337000019,857,36889.8094514
780,34954.7564121,0.00359314100024,868,36925.7236401
790,34971.6073633,0.00363205800022,879,37025.7261924
800,34971.6073633,0.00367910000023,890,37025.7261924
810,34971.6073633,0.00372785299987,901,37025.7261924
820,35008.770196,0.00377575000039,912,36986.1486705
830,35059.5787193,0.00381509400086,923,37003.5983685
840,35231.5011529,0.0038638470005,934,37262.5444422
850,35289.8886459,0.00391046100049,945,37277.4236738
860,35463.2450129,0.00396092400024,956,37352.8209781
870,35473.825682,0.00401395300014,967,37363.9024689
880,35556.455304,0.00406184999974,978,37425.2602842
890,35800.54345,0.00411017499937,989,37659.9818411
900,35979.7497488,0.0041465259992,1000,37854.9898525
910,36152.4903726,0.00419741699989,1011,37938.5421534
920,36192.857176,0.00424060999921,1022,37982.0288479
930,36297.0487298,0.0042863689996,1033,38041.3454583
940,36336.1229368,0.00433725899984,1044,37965.528363
950,36426.2284169,0.0043825900002,1055,37947.6328293
960,36605.5639468,0.00442236100025,1066,38088.1406022
970,36654.0293513,0.00446683700011,1077,38323.8313488
980,36704.462136,0.00451516200064,1088,38333.2917331
990,36838.0074052,0.00456348700027,1099,38403.235938
1000,36911.8295483,0.00461266699949,1110,38407.961234
1010,37060.7626021,0.00466313000015,1121,38507.068603
1020,37098.9835172,0.00471444800041,1132,38503.4862426
1030,37098.9835172,0.00477004300046,1143,38376.7074339
1040,37305.1042441,0.00481965100062,1154,38831.7340027
1050,37408.5141053,0.0048722520005,1165,38993.9632006
1060,37488.7947865,0.00492271500025,1176,39087.5830797
1070,37552.0303854,0.00496975700025,1187,39160.5108754
1080,37567.7044555,0.00502577899988,1198,39244.6935754
1090,37567.7044555,0.00507495900001,1209,39265.0191599
1100,37660.8228329,0.00513098200008,1220,39437.6916621
1110,37660.8228329,0.00516733200038,1231,39430.7142816
1120,37783.1489385,0.00521950599978,1242,39624.8411539
1130,37795.2519876,0.00526697500027,1253,39620.7285126
1140,37795.2519876,0.00530460800019,1264,39624.4585745
1150,37881.8658687,0.00535250600024,1275,39749.0313533
1160,37983.7589162,0.00540040299984,1286,39762.2508502
1170,38062.9163441,0.00544915599949,1297,39860.5540375
1180,38073.8857948,0.00550303999989,1308,39874.5475185
1190,38128.778355,0.00555222000003,1319,39916.4960867
1200,38128.778355,0.00559241999963,1330,39978.6185203
1210,38128.778355,0.00564716000008,1341,39998.3604568
1220,38128.778355,0.00570104500002,1352,39955.2038825
1230,38128.778355,0.00576647599974,1363,39993.5352797
1240,38128.778355,0.00582249799936,1374,39998.3604568
1250,38128.778355,0.00588194199918,1385,40020.6718911
1260,38128.778355,0.00593112199931,1396,39990.331451
1270,38128.778355,0.00598714399894,1407,39998.3604568
1280,38128.778355,0.00604102799934,1418,40043.9132171
1290,38128.778355,0.00608721499975,1429,39959.8878658
1300,38128.778355,0.00613211899963,1440,39913.9996647
1310,38128.778355,0.00619797799936,1451,39927.0753323
1320,38128.778355,0.00625100699926,1462,39997.4219675
1330,38128.778355,0.0063100239995,1473,39828.3095177
1340,38145.4480503,0.00635706499997,1484,39999.2622012
1350,38145.4480503,0.00640068599932,1495,39987.9272209
1360,38145.4480503,0.00644430599914,1506,39911.8552878
1370,38145.4480503,0.0065063159991,1517,39903.7992187
1380,38145.4480503,0.00656404899928,1528,39919.7543128
1390,38145.4480503,0.00662263699905,1539,39857.1384826
1400,38145.4480503,0.00667694899948,1550,39999.2622012
1410,38145.4480503,0.00672912199934,1561,39971.5188088
1420,38145.4480503,0.00677573599933,1572,39857.0117046
1430,38145.4480503,0.00683133099938,1583,39989.1745545
1440,38145.4480503,0.00688863699907,1594,39917.9598631
1450,38145.4480503,0.00694465899869,1605,39943.9399969
1460,38145.4480503,0.00700110899925,1616,40000.358915
1470,38145.4480503,0.00705627599928,1627,40095.082754
1480,38145.4480503,0.0071114429993,1638,39993.3372326
1490,38145.4480503,0.00716062299944,1649,39999.2622012
1500,38145.4480503,0.00721621799948,1660,39999.2622012
1510,38145.4480503,0.00727437899968,1671,39981.413531
1520,38145.4480503,0.00732142099969,1682,39891.229497
1530,38184.811394,0.00736803499967,1693,39927.0468231
1540,38184.811394,0.00741507699968,1704,39917.7647872
1550,38184.811394,0.00746126399918,1715,39939.973654
1560,38184.811394,0.00750573999903,1726,39999.3630794
1570,38184.811394,0.00756561099843,1737,39987.5421462
1580,38184.811394,0.00762804899841,1748,39999.3630794
1590,38184.811394,0.0076746629984,1759,39985.1115121
1600,38184.811394,0.00773196799855,1770,39999.3630794
1610,38184.811394,0.00778499699845,1781,39965.6278573
1620,38184.811394,0.00784230199861,1792,39999.3630794
1630,38184.811394,0.00790003499878,1803,39999.3630794
1640,38184.811394,0.00797615799911,1814,39903.900097
1650,38184.811394,0.00803474699933,1825,39823.4603564
1660,38184.811394,0.0080976119998,1836,40032.4049455
1670,38184.811394,0.00815577299909,1847,40001.9902744
1680,38184.811394,0.00821564399848,1858,39954.3243363
1690,38184.811394,0.00827166699855,1869,39999.3630794
1700,38184.811394,0.00831528699928,1880,39999.3630794
1710,38184.811394,0.00836318399979,1891,39862.7047986
1720,38184.811394,0.00841963400035,1902,39863.6745475
1730,38184.811394,0.00847565700042,1913,39997.8818373
1740,38184.811394,0.00853125200047,1924,39814.312
1750,38184.811394,0.00857187900056,1935,39999.3630794
1760,38184.811394,0.00862961200073,1946,39868.4870074
1770,38184.811394,0.00869205000072,1957,39969.6295335
1780,38184.811394,0.00875320400064,1968,40183.4394225
1790,38184.811394,0.00880837100067,1979,40008.9517486
1800,38184.811394,0.00886097200055,1990,39999.3630794
1810,38184.811394,0.00891699400108,2001,39999.3630794
1820,38184.811394,0.00897472700126,2012,39986.1380567
1830,38184.811394,0.00902134100124,2023,39929.1656466
1840,38184.811394,0.00907993000055,2034,39977.7050974
1850,38184.811394,0.00913680700069,2045,39999.3630794
1860,38184.811394,0.00918898100099,2056,40069.8146782
1870,38184.811394,0.00924414800102,2067,39999.3630794
1880,38184.811394,0.00929888800056,2078,40016.1846737
1890,38184.811394,0.0093553380002,2089,39999.3630794
1900,38184.811394,0.00940879500104,2100,39999.3448879
1910,38184.811394,0.00946225200096,2111,39999.3630794
1920,38184.811394,0.00950843900046,2122,39999.3630794
1930,38184.811394,0.00954863900006,2133,39963.3367699
1940,38184.811394,0.00959739100017,2144,39999.3630794
1950,38184.811394,0.00965982900016,2155,39967.6270002
1960,38184.811394,0.00970344899997,2166,39999.3630794
1970,38184.811394,0.00976075400013,2177,39996.7181241
1980,38184.811394,0.00982832400041,2188,40047.8344671
1990,38184.811394,0.00988734000111,2199,40028.7589908
2000,38184.811394,0.00994592800089,2210,39967.4811299
2010,38184.811394,0.010009648001,2221,39992.0028044
2020,38184.811394,0.010065671001,2232,39999.3630794
2030,38184.811394,0.0101311020017,2243,39873.9442309
2040,38184.811394,0.0101764330011,2254,39999.3630794
2050,38184.811394,0.0102273240009,2265,40029.8053195
2060,38184.811394,0.0102752210014,2276,39985.861246
2070,38184.811394,0.0103303880014,2287,39999.3630794
2080,38184.811394,0.0103898320012,2298,40024.0247709
2090,38184.811394,0.0104360190016,2309,39999.3630794
2100,38184.811394,0.0104920420017,2320,40138.4216224
2110,38184.811394,0.0105348070019,2331,40023.4408706
2120,38184.811394,0.0105809930019,2342,39999.3630794
2130,38184.811394,0.0106438580015,2353,39980.0623712
2140,38184.811394,0.0107024460012,2364,39999.3630794
2150,38184.811394,0.0107507710018,2375,39992.6793956
2160,38184.811394,0.0108050830013,2386,39962.5842657
2170,38184.811394,0.010863243001,2397,40064.8094207
2180,38184.811394,0.0109209760012,2408,39936.7313023
2190,38184.811394,0.0109812750006,2419,39887.3499568
2200,38184.811394,0.0110398640008,2430,39918.4432814
2210,38184.811394,0.011097597001,2441,39894.5314894
2220,38184.811394,0.0111519090005,2452,39968.4114737
2230,38184.811394,0.0112075040006,2463,39951.6315882
2240,38184.811394,0.011261816001,2474,40010.8543019
2250,38184.811394,0.0113272470016,2485,40036.0014381
2260,38184.811394,0.0114003750014,2496,40020.3053364
2270,38184.811394,0.0114439960016,2507,40136.7243808
2280,38184.811394,0.0114991630016,2518,39999.3630794
2290,38184.811394,0.0115577510014,2529,40035.7297139
2300,38184.811394,0.0116005160016,2540,39922.9535249
2310,38201.7070028,0.0116638080017,2551,39998.0598918
2320,38201.7070028,0.0117117050022,2562,39983.0314184
2330,38201.7070028,0.0117578910031,2573,39953.5766028
2340,38201.7070028,0.0118023660025,2584,39949.7136454
2350,38201.7070028,0.0118575330025,2595,39891.9311512
2360,38201.7070028,0.0119024360029,2606,39991.7257008
2370,38201.7070028,0.0119584590029,2617,39900.2915686
2380,38201.7070028,0.0120131990034,2628,39959.897398
2390,38201.7070028,0.0120606690034,2639,39999.3812709
2400,38201.7070028,0.0121068550034,2650,39823.4785479
2410,38201.7070028,0.0121487650031,2661,39981.303322
2420,38201.7070028,0.012202222003,2672,39991.3826858
2430,38201.7070028,0.0122595280027,2683,39979.6452844
2440,38201.7070028,0.0123125570026,2694,39960.2994075
2450,38201.7070028,0.0123566050033,2705,39999.3812709
2460,38201.7070028,0.0124015080037,2716,39999.3812709
2470,38201.7070028,0.0124579580042,2727,39992.9497182
2480,38201.7070028,0.0125067110048,2738,39999.3812709
2490,38201.7070028,0.0125670100051,2749,39960.9240918
2500,38201.7070028,0.0126307300052,2760,39999.3812709
2510,38201.7070028,0.0126888910045,2771,39915.8715016
2520,38201.7070028,0.0127449140045,2782,39976.0665359
2530,38201.7070028,0.0128022200042,2793,39999.3812709
2540,38201.7070028,0.0128603810035,2804,40021.5899602
2550,38201.7070028,0.0129215350044,2815,39877.5066488
2560,38201.7070028,0.0129737090037,2826,39996.4380123
2570,38201.7070028,0.0130314430035,2837,39864.7648275
2580,38201.7070028,0.0130737810032,2848,39875.2018225
2590,38201.7070028,0.0131199680036,2859,39979.9482271
2600,38201.7070028,0.0131764180032,2870,40031.3152905
2610,38201.7070028,0.0132384280041,2881,39988.3985532
2620,38201.7070028,0.0132940230042,2892,39973.4705459
2630,38201.7070028,0.0133436310034,2903,39935.9850982
2640,38201.7070028,0.0133898180038,2914,39836.7633885
2650,38201.7070028,0.0134402810045,2925,39955.8287786
2660,38201.7070028,0.013509989004,2936,39930.680175
2670,38201.7070028,0.0135715710039,2947,39970.2769655
2680,38201.7070028,0.0136305870037,2958,39999.3812709
2690,38201.7070028,0.0136938800033,2969,40020.6877399
2700,38201.7070028,0.0137422040034,2980,40070.8582339
2710,38201.7070028,0.0137896740034,2991,39982.1444685
2720,38201.7070028,0.0138508280043,3002,39876.9838326
2730,38201.7070028,0.0139081330044,3013,39954.7809521
2740,38201.7070028,0.0139705700049,3024,39943.7239102
2750,38201.7070028,0.0140295860047,3035,39956.9119998
2760,38201.7070028,0.0140920230051,3046,39959.4382105
2770,38201.7070028,0.0141540330051,3057,39919.8733825
2780,38201.7070028,0.0142027850052,3068,40009.5037344
2790,38201.7070028,0.0142579520052,3079,39847.8128369
2800,38201.7070028,0.0143161130054,3090,39833.2809011
2810,38201.7070028,0.0143738460056,3101,39938.244847
2820,38201.7070028,0.0144345730059,3112,39999.3812709
2830,38201.7070028,0.0144794770058,3123,40042.2984387
2840,38201.7070028,0.0145645790053,3134,39805.1636105
2850,38201.7070028,0.014621029005,3145,39985.1342317
2860,38201.7070028,0.0146753410045,3156,39960.3382408
2870,38201.7070028,0.014728797004,3167,39939.8419615
2880,38201.7070028,0.0147882410038,3178,40028.4855763
2890,38201.7070028,0.0148476840041,3189,39962.3750642
2900,38201.7070028,0.0149037060046,3200,39999.3812709
2910,38201.7070028,0.0149661430041,3211,39983.0470343
2920,38201.7070028,0.0150260150049,3222,39890.7522811
2930,38201.7070028,0.0150764780046,3233,39945.272314
2940,38201.7070028,0.0151269410044,3244,40027.0511137
2950,38201.7070028,0.0151816810048,3255,39999.3812709
2960,38201.7070028,0.015239842005,3266,39990.3695374
2970,38201.7070028,0.0152971480047,3277,39891.9311512
2980,38201.7070028,0.0153732700046,3288,39993.9261882
2990,38201.7070028,0.0154186010041,3299,39999.3812709
3000,38201.7070028,0.0154664980046,3310,39999.3812709
3010,38201.7070028,0.015521238005,3321,39812.6108637
3020,38201.7070028,0.0155802540048,3332,39984.0390239
3030,38201.7070028,0.0156401250042,3343,39862.3000632
3040,38201.7070028,0.0156846010041,3354,39988.0462906
3050,38201.7070028,0.0157474660045,3365,39999.3812709
3060,38201.7070028,0.0157975020047,3376,39940.4418662
3070,38201.7070028,0.0158445440038,3387,39853.7180256
3080,38201.7070028,0.0159048430041,3398,40017.4373074
3090,38201.7070028,0.0159638590039,3409,40040.180417
3100,38201.7070028,0.0160185980039,3420,39921.8894579
3110,38201.7070028,0.0160635010034,3431,39828.6542755
3120,38201.7070028,0.0161229450032,3442,40014.2849755
3130,38201.7070028,0.0161712700037,3453,40027.8761188
3140,38201.7070028,0.0162213060039,3464,39869.1270282
3150,38201.7070028,0.0162679200039,3475,39870.0512502
3160,38201.7070028,0.0163153890044,3486,39957.2975213
3170,38201.7070028,0.0163697010048,3497,39999.3812709
3180,38201.7070028,0.0164308550047,3508,39996.0295243
3190,38201.7070028,0.0164787520052,3519,39903.3802728
3200,38201.7070028,0.016521090005,3530,39950.8905657
3210,38201.7070028,0.0165621450042,3541,39999.3812709
3220,38201.7070028,0.0166104700038,3552,39997.2174021
3230,38201.7070028,0.016724226004,3563,39924.7581626
3240,38201.7070028,0.0167746890038,3574,40020.0295358
3250,38201.7070028,0.0168187370036,3585,39983.642804
3260,38201.7070028,0.0168773250034,3596,39999.3812709
3270,38201.7070028,0.0169367690041,3607,40033.1164931
3280,38201.7070028,0.0169945020043,3618,39985.1297036
3290,38201.7070028,0.0170539450037,3629,39803.1579362
3300,38201.7070028,0.0171082570032,3640,39986.1562482
3310,38201.7070028,0.017151877003,3651,39968.711514
3320,38201.7070028,0.0171976350039,3662,39992.8044755
3330,38201.7070028,0.0172480980036,3673,39972.6082657
3340,38201.7070028,0.0173054030038,3684,39940.2580247
3350,38201.7070028,0.0173545830039,3695,39914.3558014
3360,38201.7070028,0.0174118890045,3706,39963.6839306
3370,38201.7070028,0.0174700500047,3717,39999.3812709
3380,38201.7070028,0.017513671005,3728,39930.4544443
3390,38201.7070028,0.0175829510054,3739,39908.9959261
3400,38201.7070028,0.0176291380058,3750,40040.1420858
3410,38201.7070028,0.0176890090061,3761,39966.0340445
3420,38201.7070028,0.0177356240065,3772,39991.7257008
3430,38201.7070028,0.0177809550069,3783,39877.5066488
3440,38201.7070028,0.0178288520074,3794,39965.6022136
3450,38201.7070028,0.0178758940074,3805,39999.3812709
3460,38201.7070028,0.0179207980073,3816,39902.1900207
3470,38201.7070028,0.0179695510069,3827,39919.0444749
3480,38201.7070028,0.0180200140067,3838,39999.3812709
3490,38201.7070028,0.0180807410061,3849,39828.9545906
3500,38233.1985842,0.0181359080061,3860,40033.9140716
3510,38233.1985842,0.018189365006,3871,39999.4738342
3520,38233.1985842,0.0182376900057,3882,39991.5433646
3530,38233.1985842,0.0182877250054,3893,39975.0326384
3540,38233.1985842,0.0183364780059,3904,39884.8595025
3550,38233.1985842,0.0183809540058,3915,39999.4738342
3560,38233.1985842,0.0184391140056,3926,40095.8234225
3570,38233.1985842,0.0184827340054,3937,39999.4738342
3580,38233.1985842,0.0185250720051,3948,40094.682072
3590,38233.1985842,0.0185665540057,3959,39999.4738342
3600,38233.1985842,0.0186148780058,3970,40031.8035367
3610,38233.1985842,0.0186751780057,3981,39972.700829
3620,38233.1985842,0.018726924005,3992,39952.4496546
3630,38233.1985842,0.0187850840057,4003,39923.7514301
3640,38233.1985842,0.0188419620063,4014,39999.4738342
3650,38233.1985842,0.0189014060061,4025,39989.605841
3660,38233.1985842,0.0189621330064,4036,39950.3289433
3670,38233.1985842,0.0190125960071,4047,40070.2721523
3680,38233.1985842,0.0190716120069,4058,39980.2452446
3690,38233.1985842,0.0191254960064,4069,39999.4738342
3700,38233.1985842,0.0191721100064,4080,39999.4738342
3710,38233.1985842,0.0192200070069,4091,39999.4738342
3720,38233.1985842,0.0192653380063,4102,39999.4738342
3730,38233.1985842,0.0193183670062,4113,39985.9720008
3740,38233.1985842,0.0193825150054,4124,39993.3197534
3750,38233.1985842,0.0194624860051,4135,40009.611267
3760,38233.1985842,0.0195180810051,4146,39990.1237731
3770,38233.1985842,0.0195745310057,4157,39920.5325757
3780,38233.1985842,0.0196344030055,4168,39993.7746615
3790,38233.1985842,0.0196805900059,4179,39984.5946027
3800,38233.1985842,0.0197378950061,4190,39989.0509009
3810,38233.1985842,0.0197943450057,4201,39987.4430524
3820,38233.1985842,0.0198486570062,4212,39907.5407077
3830,38233.1985842,0.0199063900063,4223,39908.1471139
3840,38233.1985842,0.0199645510056,4234,39918.9086783
3850,38233.1985842,0.020009454006,4245,39951.3507068
3860,38233.1985842,0.020064621006,4256,39999.4738342
3870,38233.1985842,0.0201291970061,4267,39943.4733381
3880,38233.1985842,0.020183082006,4278,39967.6964028
3890,38233.1985842,0.0202403880057,4289,40021.6825235
3900,38233.1985842,0.0202951270057,4300,40095.2943871
3910,38233.1985842,0.0203511500058,4311,39938.5365231
3920,38233.1985842,0.0204063170058,4322,39999.4738342
3930,38233.1985842,0.020464478006,4333,39957.518599
3940,38233.1985842,0.0205205010052,4344,39972.700829
3950,38233.1985842,0.0205773790058,4355,39974.743588
3960,38233.1985842,0.0206321190053,4366,39944.4878667
3970,38233.1985842,0.0206855760052,4377,40127.343356
3980,38233.1985842,0.0207557110052,4388,39894.177685
3990,38233.1985842,0.0208121610049,4399,39966.3581348
4000,38233.1985842,0.0208724600052,4410,39872.2361266
4010,38233.1985842,0.0209378900054,4421,39991.4752491
4020,38233.1985842,0.0209798000051,4432,39965.4688934
4030,38233.1985842,0.0210234210053,4443,40043.3917731
4040,38233.1985842,0.0210687520057,4454,39957.7189496
4050,38233.1985842,0.0211145110052,4465,39988.1056317
4060,38233.1985842,0.0211713880053,4476,40141.8279061
4070,38233.1985842,0.0212201400054,4487,39965.4688934
4080,38233.1985842,0.0212765900051,4498,39978.0493223
4090,38233.1985842,0.0213334680047,4509,40000.4244182
4100,38233.1985842,0.0213817930044,4520,39999.4738342
4110,38233.1985842,0.0214262690042,4531,39916.981089
4120,38233.1985842,0.021470745005,4542,39955.3328234
4130,38233.1985842,0.0215182140046,4553,39824.6437986
4140,38233.1985842,0.0215712430045,4564,39843.2526899
4150,38233.1985842,0.021633680004,4575,39959.0139352
4160,38233.1985842,0.0216867090039,4586,39859.0256918
4170,38233.1985842,0.0217465800033,4597,39900.9269361
4180,38233.1985842,0.0218060230036,4608,39929.2764014
4190,38233.1985842,0.0218487890033,4619,39931.3220867
4200,38233.1985842,0.0219069500026,4630,39977.2531821
4210,38233.1985842,0.0219634000023,4641,39917.0515509
4220,38233.1985842,0.0220134360015,4652,39988.9897797
4230,38233.1985842,0.0220600500015,4663,39920.6561101
4240,38233.1985842,0.0221284740019,4674,40007.8720273
4250,38233.1985842,0.0221738050022,4685,39967.594996
4260,38233.1985842,0.0222199910022,4696,39930.5933594
4270,38233.1985842,0.0222678880027,4707,39995.6423364
4280,38233.1985842,0.0223230550027,4718,39999.4738342
4290,38233.1985842,0.0223790770033,4729,40032.4219873
4300,38233.1985842,0.0224380930031,4740,39999.4738342
4310,38233.1985842,0.0224847080035,4751,39999.4738342
4320,38233.1985842,0.0225411590036,4762,39996.8466392
4330,38233.1985842,0.022586918004,4773,39999.4738342
4340,38233.1985842,0.0226519210037,4784,39999.4738342
4350,38233.1985842,0.0227130750036,4795,39999.4738342
4360,38233.1985842,0.0227554120029,4806,39958.8226652
4370,38233.1985842,0.0228169940028,4817,39994.5513803
4380,38233.1985842,0.0228610420027,4828,39999.4738342
4390,38233.1985842,0.0229110780028,4839,39951.4733351
4400,38233.1985842,0.022976082003,4850,39987.6699841
4410,38233.1985842,0.0230376650024,4861,39995.5335232
4420,38233.1985842,0.023093687003,4872,40017.5298707
4430,38233.1985842,0.0231518480032,4883,39968.1579457
4440,38233.1985842,0.0232117190026,4894,40047.4743333
4450,38233.1985842,0.0232685970022,4905,39970.7197352
4460,38233.1985842,0.0233271860025,4916,40031.5903636
4470,38233.1985842,0.0233802140028,4927,39999.4738342
4480,38233.1985842,0.0234405130022,4938,39867.830574
4490,38233.1985842,0.0234943970027,4949,39993.0882767
4500,38233.1985842,0.0235534130024,4960,39988.8998747
4510,38233.1985842,0.023609435003,4971,39950.5605509
4520,38233.1985842,0.0236697340033,4982,39940.1517827
4530,38233.1985842,0.0237223360036,4993,39999.4738342
4540,38233.1985842,0.0237680940036,5004,40020.6010836
4550,38233.1985842,0.0238258270037,5015,39979.6500324
4560,38233.1985842,0.0238869810037,5026,39901.5509143
4570,38233.1985842,0.0239455690044,5037,39995.8668566
4580,38233.1985842,0.0240011640044,5048,39942.1106311
4590,38233.1985842,0.0240610350038,5059,39999.4738342
4600,38233.1985842,0.0241097880034,5070,40014.3775388
4610,38233.1985842,0.0241559750039,5081,39999.4738342
4620,38233.1985842,0.0242098590043,5092,40007.2732755
4630,38233.1985842,0.0242701580046,5103,39955.5558953
4640,38233.1985842,0.0243321680045,5114,39902.7675838
4650,38233.1985842,0.0243899010047,5125,39989.2400622
4660,38233.1985842,0.0244463520048,5136,39963.3814887
4670,38233.1985842,0.0244899730051,5147,39999.4738342
4680,38233.1985842,0.0245382970043,5158,39944.1956003
4690,38233.1985842,0.0245951750039,5169,39923.5048308
4700,38233.1985842,0.0246648820039,5180,39970.6309499
4710,38233.1985842,0.0247221880036,5191,39949.4529946
4720,38233.1985842,0.0247880470033,5202,40044.6928528
4730,38233.1985842,0.0248457800035,5213,39924.1073912
4740,38233.1985842,0.0249047960033,5224,39931.9320786
4750,38233.1985842,0.0249582520037,5235,40025.7464089
4760,38233.1985842,0.0250185510031,5246,39969.95302
4770,38233.1985842,0.0250745740032,5257,39938.1343205
4780,38233.1985842,0.0251327340038,5268,39999.4738342
4790,38233.1985842,0.0251917500036,5279,39854.8371336
4800,38233.1985842,0.0252434960039,5290,39963.3146591
4810,38233.1985842,0.0252982360034,5301,39916.981089
4820,38233.1985842,0.0253551140031,5312,39884.8595025
4830,38233.1985842,0.0254111360027,5323,39916.4236493
4840,38233.1985842,0.0254675860033,5334,40045.0265945
4850,38233.1985842,0.0255261750035,5345,39970.178682
4860,38233.1985842,0.0255732170035,5356,39929.0256011
4870,38233.1985842,0.0256258180034,5367,39999.4738342
4880,38233.1985842,0.0256891100034,5378,39989.0739092
4890,38233.1985842,0.0257357240034,5389,39888.3234743
4900,38233.1985842,0.0257784890027,5400,39993.3635353
4910,38233.1985842,0.0258229650026,5411,39996.6242479
4920,38233.1985842,0.0258661580028,5422,39916.3840725
4930,38233.1985842,0.0259140550024,5433,39988.9897797
4940,38233.1985842,0.0259653730018,5444,40041.2145949
4950,38233.1985842,0.0260111320022,5455,39967.0196844
4960,38233.1985842,0.0260603120023,5466,40004.64212
4970,38233.1985842,0.0261064990027,5477,39947.514429
4980,38233.1985842,0.0261505470025,5488,39924.8507259
4990,38233.1985842,0.026195878002,5499,40040.2984118
