it,funval,time,funcount,weight
0,2380.57607852,9.40799999682e-06,10,2409.08934856
10,2488.82626519,1.79609999975e-05,21,2675.59685308
20,2641.06607903,2.77969999942e-05,32,2825.25759781
30,2739.58200061,3.63499999949e-05,43,3008.69322413
40,2947.17500337,4.53309999955e-05,54,3216.69584736
50,3065.22253179,5.81609999912e-05,65,3339.10504247
60,3277.15462082,6.67139999848e-05,76,3545.19921745
70,3405.11591027,7.52669999855e-05,87,3672.39723202
80,3603.60575603,8.42479999861e-05,98,3913.03612928
90,3647.41873989,9.40839999899e-05,109,3899.4044826
100,3648.41383324,0.00010477499999,120,4017.40886935
110,3677.70236723,0.000122308999991,131,3967.61781107
120,3677.70236723,0.000133427999991,142,3963.24709397
130,3677.70236723,0.000143263999995,153,3989.04321639
140,3677.70236723,0.000153099999999,164,3989.04321639
150,3677.70236723,0.000166356999998,175,3971.15014428
160,3677.70236723,0.000178331000001,186,3952.12179096
170,3677.70236723,0.000190305000004,197,4012.75902111
180,3687.46521189,0.000201424000004,208,3942.83514901
190,3687.46521189,0.000213398,219,3979.60705668
200,3687.46521189,0.000225371999996,230,3965.10417193
210,3687.46521189,0.000235634999996,241,3989.32456796
220,3687.46521189,0.000246753999996,252,3989.32456796
230,3689.32198176,0.000257872999995,263,3996.46636973
240,3689.32198176,0.000268991999995,274,4046.36966783
250,3689.32198176,0.000281393999991,285,3996.46636973
260,3689.32198176,0.000301065999992,296,3976.85949276
270,3689.32198176,0.000312611999995,307,3996.46636973
280,3689.32198176,0.000324585999998,318,3946.56307163
290,3689.32198176,0.000335704999998,329,3966.53746564
300,3689.32198176,0.000348107000001,340,3960.92995417
310,3689.32198176,0.000358370999997,351,3954.66783531
320,3689.32198176,0.000367351000001,362,3996.46636973
330,3689.32198176,0.000383174,373,3967.25666208
340,3689.32198176,0.000395148000003,384,3954.27096914
350,3689.32198176,0.000407550000006,395,4028.34762073
360,3689.32198176,0.000417814000002,406,3964.81981929
370,3689.32198176,0.000438342000002,417,4030.28493693
380,3689.32198176,0.000451599999998,428,3959.5449443
390,3689.32198176,0.000469988999996,439,4039.17529916
400,3689.32198176,0.000487949999993,450,3877.82826917
410,3689.32198176,0.000504627999995,461,3957.25261579
420,3689.32198176,0.000528148999997,472,3975.74849702
430,3689.32198176,0.000550814999997,483,3948.74247476
440,3689.32198176,0.000580322999994,494,3922.62351887
450,3689.32198176,0.000597855999999,505,3978.57329761
460,3689.32198176,0.000614106999997,516,3967.89916263
470,3689.32198176,0.000630784999998,527,3978.57329761
480,3689.32198176,0.000646607999997,538,3978.00565701
490,3689.32198176,0.000664141999998,549,3959.9806876
500,3689.32198176,0.000680392,560,3996.46636973
510,3689.32198176,0.000696214999998,571,3982.18276618
520,3689.32198176,0.000714603999995,582,3975.04096441
530,3689.32198176,0.000730426999993,593,3905.39890999
540,3689.32198176,0.000746676999995,604,4039.5964119
550,3689.32198176,0.000761217999994,615,3982.18276618
560,3689.32198176,0.000780462999991,626,3996.46636973
570,3689.32198176,0.000798851999996,637,4091.91415967
580,3689.32198176,0.000816813999997,648,3931.17983268
590,3689.32198176,0.000834347999998,659,3978.57329761
600,3689.32198176,0.000856585999998,670,3996.46636973
610,3689.32198176,0.000878823999997,681,3958.20218021
620,3689.32198176,0.000895502999995,692,3949.80377787
630,3689.32198176,0.000913036999997,703,3968.86681336
640,3689.32198176,0.000931426000001,714,3936.60856155
650,3689.32198176,0.000948532000002,725,3843.40961163
660,3689.32198176,0.000968632000003,736,3886.06814426
670,3689.32198176,0.000987021,747,3996.46636973
680,3689.32198176,0.001006266,758,3996.46636973
690,3689.32198176,0.001021234,769,3991.28690155
700,3689.32198176,0.001038768,780,3958.20218021
710,3689.32198176,0.001055874,791,3941.26725699
720,3689.32198176,0.001072553,802,3830.19515568
730,3689.32198176,0.001088804,813,3996.46636973
740,3689.32198176,0.00110419999999,824,3996.46636973
750,3689.32198176,0.00112002299999,835,3923.49500547
760,3689.32198176,0.00113883999999,846,3996.46636973
770,3689.32198176,0.00115509099999,857,3996.46636973
780,3689.32198176,0.00117091499999,868,3996.46636973
790,3689.32198176,0.00118802099998,879,3949.08448232
800,3689.32198176,0.00120555499998,890,4027.54543664
810,3689.32198176,0.00122437199998,901,3971.66224293
820,3689.32198176,0.00124147799998,912,3912.86930088
830,3689.32198176,0.00126243299998,923,3909.41765367
840,3689.32198176,0.00128039399998,934,3971.66224293
850,3689.32198176,0.00129707199997,945,3995.90366661
860,3689.32198176,0.00131374999997,956,3975.36866943
870,3689.32198176,0.00133128299997,967,3967.89916263
880,3689.32198176,0.00134924399998,978,3996.46636973
890,3689.32198176,0.00136677799998,989,3996.46636973
900,3689.32198176,0.00138388499997,1000,3931.17983268
910,3689.32198176,0.00140270199997,1011,3926.73224131
920,3689.32198176,0.00142023499998,1022,3965.38730282
930,3689.32198176,0.00143776899998,1033,3996.46636973
940,3689.32198176,0.00145658599997,1044,3996.46636973
950,3689.32198176,0.00147540199997,1055,3996.46636973
960,3689.32198176,0.00149293599997,1066,3996.46636973
970,3689.32198176,0.00151389099997,1077,3926.04655923
980,3689.32198176,0.00153527399996,1088,3996.46636973
990,3689.32198176,0.00155237999996,1099,3951.61118069
1000,3689.32198176,0.00156948599997,1110,3996.46636973
1010,3689.32198176,0.00158616399996,1121,3996.46636973
1020,3689.32198176,0.00160455399996,1132,3980.9279652
1030,3689.32198176,0.00162208799996,1143,3996.46636973
1040,3689.32198176,0.00163919399996,1154,3817.04561357
1050,3689.32198176,0.00165929299995,1165,3996.46636973
1060,3689.32198176,0.00167682699995,1176,3947.16441632
1070,3689.32198176,0.00169564299996,1187,3848.5605095
1080,3689.32198176,0.00171189399995,1198,4008.19599034
1090,3689.32198176,0.00172857199995,1209,4089.70357046
1100,3689.32198176,0.00174439499996,1220,3953.7574403
1110,3689.32198176,0.00176107299996,1231,3955.67976761
1120,3689.32198176,0.00178074499996,1242,3861.90080261
1130,3689.32198176,0.00179870599996,1253,3965.38730282
1140,3689.32198176,0.00181581199996,1264,3996.46636973
1150,3689.32198176,0.00183505699996,1275,3848.5605095
1160,3689.32198176,0.00185258999996,1286,3957.32362054
1170,3689.32198176,0.00187226199996,1297,4066.88618023
1180,3689.32198176,0.00189193399996,1308,3871.76295919
1190,3689.32198176,0.00191203299996,1319,3996.46636973
1200,3689.32198176,0.00192956699996,1330,3902.43414212
1210,3689.32198176,0.00195693699996,1341,3897.43274628
1220,3689.32198176,0.00197489899996,1352,3971.70796387
1230,3689.32198176,0.00199542699996,1363,3982.87083569
1240,3689.32198176,0.00201552599996,1374,4046.59078745
1250,3689.32198176,0.00203263199996,1385,3972.2459737
1260,3689.32198176,0.00205016599996,1396,3826.49125182
1270,3689.32198176,0.00207197599996,1407,4081.88422859
1280,3689.32198176,0.00209250399996,1418,3923.80518164
1290,3689.32198176,0.00211388699996,1429,3953.7574403
1300,3689.32198176,0.00213270399996,1440,3967.10930784
1310,3689.32198176,0.00215066499997,1451,3996.46636973
1320,3689.32198176,0.00216990999996,1462,3937.64573883
1330,3689.32198176,0.00218658899996,1473,3966.11054982
1340,3689.32198176,0.00220583299996,1484,3996.46636973
1350,3689.32198176,0.00222678799997,1495,3970.67024731
1360,3689.32198176,0.00224560399997,1506,3948.02557767
1370,3689.32198176,0.00226869699996,1517,3953.97259025
1380,3689.32198176,0.00228836899996,1528,3864.44851743
1390,3689.32198176,0.00230718599996,1539,3965.38730282
1400,3689.32198176,0.00232600199996,1550,3941.26725699
1410,3689.32198176,0.00234567399996,1561,3939.28471765
1420,3689.32198176,0.00236277999996,1572,3919.07800246
1430,3689.32198176,0.00238458999996,1583,3961.25646448
1440,3689.32198176,0.00240511699997,1594,4026.02374539
1450,3689.32198176,0.00242393299997,1605,3984.62089788
1460,3689.32198176,0.00244531599996,1616,4139.63805464
1470,3689.32198176,0.00246541599996,1627,3933.77821799
1480,3689.32198176,0.00248380499996,1638,4114.69587238
1490,3689.32198176,0.00250176599996,1649,3996.46636973
1500,3689.32198176,0.00251972699996,1660,4027.8104456
1510,3689.32198176,0.00253854399996,1671,4004.35150531
1520,3689.32198176,0.00255650499996,1682,4026.02374539
1530,3689.32198176,0.00257831599995,1693,4064.10350413
1540,3689.32198176,0.00259627799996,1704,3980.9279652
1550,3689.32198176,0.00261509499996,1715,3973.22166026
1560,3689.32198176,0.00263348399996,1726,4028.34762073
1570,3689.32198176,0.00265230099996,1737,3965.38730282
1580,3689.32198176,0.00267068999995,1748,3883.44876789
1590,3689.32198176,0.00268993399995,1759,3926.04655923
1600,3689.32198176,0.00270746799995,1770,3996.46636973
1610,3689.32198176,0.00272671199995,1781,3906.75599165
1620,3689.32198176,0.00274424499995,1792,3996.46636973
1630,3689.32198176,0.00276263399995,1803,4028.34762073
1640,3689.32198176,0.00277931299995,1814,3949.80377787
1650,3689.32198176,0.00279641899994,1825,3996.46636973
1660,3689.32198176,0.00281437999994,1836,3903.48753184
1670,3689.32198176,0.00282934799994,1847,4035.49107054
1680,3689.32198176,0.00284559899995,1858,3966.11054982
1690,3689.32198176,0.00286398799995,1869,3926.73224131
1700,3689.32198176,0.00288194999995,1880,3946.94955801
1710,3689.32198176,0.00289862899995,1891,3996.46636973
1720,3689.32198176,0.00291530799995,1902,3926.73224131
1730,3689.32198176,0.00293198699995,1913,3958.34526834
1740,3689.32198176,0.00294994799994,1924,3936.760261
1750,3689.32198176,0.00296748199994,1935,4089.70357046
1760,3689.32198176,0.00298629899994,1946,4020.68676576
1770,3689.32198176,0.00300810899994,1957,3996.46636973
1780,3689.32198176,0.00302521499994,1968,3946.85811613
1790,3689.32198176,0.00304445999994,1979,3996.46636973
1800,3689.32198176,0.00306584199994,1990,4026.02374539
1810,3689.32198176,0.00308252099994,2001,3959.5449443
1820,3689.32198176,0.00309791599994,2012,3996.46636973
1830,3689.32198176,0.00311587799994,2023,3906.75599165
1840,3689.32198176,0.00313469399994,2034,3917.37430269
1850,3689.32198176,0.00315137199994,2045,3897.86246291
1860,3689.32198176,0.00316805099995,2056,3958.79383578
1870,3689.32198176,0.00318558499995,2067,3845.77623394
1880,3689.32198176,0.00320269099995,2078,3867.07624323
1890,3689.32198176,0.00321979699995,2089,3954.27096914
1900,3689.32198176,0.00323733099995,2100,3986.10743338
1910,3689.32198176,0.00325571999995,2111,3923.80518164
1920,3689.32198176,0.00327410899995,2122,3936.60856155
1930,3689.32198176,0.00329249799994,2133,3996.46636973
1940,3689.32198176,0.00331045999994,2144,3960.92995417
1950,3689.32198176,0.00332884999995,2155,3996.46636973
1960,3689.32198176,0.00335408099994,2166,3946.85811613
1970,3689.32198176,0.00338316199994,2177,4015.90139229
1980,3689.32198176,0.00340710999994,2188,3996.46636973
1990,3689.32198176,0.00343447899994,2199,3974.70419071
2000,3689.32198176,0.00345586199994,2210,3996.46636973
2010,3689.32198176,0.00347638899994,2221,3967.89916263
2020,3689.32198176,0.00349777199993,2232,3913.66770063
2030,3689.32198176,0.00351958199993,2243,3886.06814426
2040,3689.32198176,0.00353797099994,2254,3912.86930088
2050,3689.32198176,0.00355550499993,2265,3975.56710252
2060,3689.32198176,0.00357303899993,2276,3958.20218021
2070,3689.32198176,0.00359185499993,2287,4058.62450355
2080,3689.32198176,0.00361067199993,2298,4044.1902647
2090,3689.32198176,0.00362948899993,2309,3912.86930088
2100,3689.32198176,0.00364702299993,2320,3990.50201236
2110,3689.32198176,0.00368208999993,2331,3996.46636973
2120,3689.32198176,0.00369962299992,2342,3996.46636973
2130,3689.32198176,0.00371587299992,2353,3913.33076271
2140,3689.32198176,0.00373255099992,2364,3921.12130183
2150,3689.32198176,0.00375008399993,2375,3996.46636973
2160,3689.32198176,0.00376590699992,2386,3996.46636973
2170,3689.32198176,0.00378215699993,2397,3903.48753184
2180,3689.32198176,0.00379968999993,2408,3949.80377787
2190,3689.32198176,0.00382363899993,2419,3875.04309008
2200,3689.32198176,0.00384373899993,2430,4025.61890357
2210,3689.32198176,0.00386255599993,2441,3971.70796387
2220,3689.32198176,0.00388137299993,2452,3949.97695078
2230,3689.32198176,0.00389933499993,2463,3992.52380194
2240,3689.32198176,0.00392242799992,2474,3991.28690155
2250,3689.32198176,0.00394765899993,2485,3903.48753184
2260,3689.32198176,0.00397032399992,2496,3996.46636973
2270,3689.32198176,0.00399256199992,2507,3986.74885845
2280,3689.32198176,0.00401608299993,2518,3949.03476031
2290,3689.32198176,0.00403575499993,2529,3957.32362054
2300,3689.32198176,0.00405884899993,2540,3957.32362054
2310,3689.32198176,0.00408407999992,2551,3908.45446819
2320,3689.32198176,0.00410759999992,2562,4091.91415967
2330,3689.32198176,0.00412983799992,2573,3981.53984255
2340,3689.32198176,0.00414908199992,2584,3953.97259025
2350,3689.32198176,0.00417089299992,2595,3975.36866943
2360,3689.32198176,0.00419270299992,2606,3966.11054982
2370,3689.32198176,0.00421237499992,2617,3922.62351887
2380,3689.32198176,0.00423675099992,2628,3926.73224131
2390,3689.32198176,0.00425471199991,2639,3971.66224293
2400,3689.32198176,0.00427181799991,2650,4114.69587238
2410,3689.32198176,0.00429277299991,2661,3996.46636973
2420,3689.32198176,0.00431073399992,2672,3951.68678818
2430,3689.32198176,0.00432826699992,2683,4025.61890357
2440,3689.32198176,0.00434879399992,2694,3949.97695078
2450,3689.32198176,0.00437060399992,2705,3817.04561357
2460,3689.32198176,0.00438856499991,2716,3809.8160023
2470,3689.32198176,0.00440567099992,2727,3948.02557767
2480,3689.32198176,0.00442106699992,2738,3995.34096348
2490,3689.32198176,0.00443774599992,2749,3996.46636973
2500,3689.32198176,0.00445527999992,2760,3992.52380194
2510,3689.32198176,0.00447281399993,2771,3985.91751958
2520,3689.32198176,0.00449077599993,2782,3996.46636973
2530,3689.32198176,0.00450830899993,2793,4047.19422053
2540,3689.32198176,0.00452498699993,2804,3830.19515568
2550,3689.32198176,0.00454166499993,2815,3909.41765367
2560,3689.32198176,0.00455962699994,2826,3996.46636973
2570,3689.32198176,0.00457801599993,2837,3917.37430269
2580,3689.32198176,0.00459640499993,2848,3984.62089788
2590,3689.32198176,0.00461436599993,2859,4064.10350413
2600,3689.32198176,0.00463446599993,2870,3922.19115214
2610,3689.32198176,0.00465242699993,2881,3919.07800246
2620,3689.32198176,0.00467038899993,2892,3897.43274628
2630,3689.32198176,0.00468920599992,2903,4026.39527382
2640,3689.32198176,0.00470845099992,2914,3809.8160023
2650,3689.32198176,0.00472555699992,2925,3975.74849702
2660,3689.32198176,0.00475378199992,2936,3996.46636973
2670,3689.32198176,0.00477516499992,2947,3948.02557767
2680,3689.32198176,0.00479312599992,2958,3964.58511873
2690,3689.32198176,0.00481065999992,2969,3986.68068243
2700,3689.32198176,0.00482862099992,2980,3918.4169681
2710,3689.32198176,0.00484358899992,2991,3996.46636973
2720,3689.32198176,0.00485898399992,3002,3996.46636973
2730,3689.32198176,0.00487822899992,3013,3946.94955801
2740,3689.32198176,0.00489576299992,3024,3986.68068243
2750,3689.32198176,0.00491286899992,3035,3996.46636973
2760,3689.32198176,0.00493083099992,3046,3971.66224293
2770,3689.32198176,0.00495477899992,3057,3937.64573883
2780,3689.32198176,0.00497402399992,3068,4031.67627498
2790,3689.32198176,0.00499241299992,3079,3996.46636973
2800,3689.32198176,0.00501080199992,3090,3996.46636973
2810,3689.32198176,0.00502961899992,3101,4066.88618023
2820,3689.32198176,0.00504886399992,3112,3893.28188003
2830,3689.32198176,0.00506725299993,3123,3996.46636973
2840,3689.32198176,0.00508606899993,3134,3996.46636973
2850,3689.32198176,0.00510659699993,3145,4036.01240325
2860,3689.32198176,0.00512498599993,3156,3975.04096441
2870,3689.32198176,0.00514294699993,3167,3996.46636973
2880,3689.32198176,0.00516219099993,3178,3967.89916263
2890,3689.32198176,0.00518143599992,3189,3938.04695444
2900,3689.32198176,0.00520196399992,3200,4004.35150531
2910,3689.32198176,0.00522163599992,3211,3973.0071285
2920,3689.32198176,0.00524088099992,3222,3981.53984255
2930,3689.32198176,0.00525969799993,3233,3990.50201236
2940,3689.32198176,0.00527765899993,3244,4029.88264821
2950,3689.32198176,0.00529946999993,3255,4066.88618023
2960,3689.32198176,0.00531828699994,3266,3947.15264806
2970,3689.32198176,0.00533795899994,3277,4013.37565333
2980,3689.32198176,0.00535592099994,3288,4046.36966783
2990,3689.32198176,0.00537259899994,3299,3982.18276618
3000,3689.32198176,0.00538970499994,3310,3996.46636973
3010,3689.32198176,0.00540638299994,3321,3913.66770063
3020,3689.32198176,0.00542691099994,3332,4004.35150531
3030,3689.32198176,0.00544615599994,3343,4004.35150531
3040,3689.32198176,0.00546454499994,3354,4004.35150531
3050,3689.32198176,0.00548336199994,3365,3996.46636973
3060,3689.32198176,0.00550175099993,3376,3996.46636973
3070,3689.32198176,0.00552099499993,3387,4085.13849671
3080,3689.32198176,0.00553895599994,3398,3996.46636973
3090,3689.32198176,0.00555734499994,3409,3996.46636973
3100,3689.32198176,0.00557359599994,3420,3986.74885845
3110,3689.32198176,0.00559283999994,3431,3996.46636973
3120,3689.32198176,0.00561165699995,3442,4066.88618023
3130,3689.32198176,0.00563175599994,3453,3984.53765498
3140,3689.32198176,0.00565142799994,3464,3951.68678818
3150,3689.32198176,0.00567109999994,3475,4027.54543664
3160,3689.32198176,0.00568777799994,3486,3903.48753184
3170,3689.32198176,0.00570702199994,3497,3996.46636973
3180,3689.32198176,0.00572498299994,3508,3990.50201236
3190,3689.32198176,0.00574337199993,3519,3920.22416695
3200,3689.32198176,0.00576133299993,3530,3817.04561357
3210,3689.32198176,0.00578014999993,3541,3903.14118601
3220,3689.32198176,0.00580324299992,3552,4004.35150531
3230,3689.32198176,0.00582419799993,3563,3926.04655923
3240,3689.32198176,0.00584472499992,3574,3972.2459737
3250,3689.32198176,0.00586525199992,3585,3925.3189556
3260,3689.32198176,0.00588535099992,3596,3964.81981929
3270,3689.32198176,0.00590887199992,3607,3909.41765367
3280,3689.32198176,0.00592939899992,3618,3971.66224293
3290,3689.32198176,0.00594864299991,3629,3996.46636973
3300,3689.32198176,0.00597130899992,3640,3926.04655923
3310,3689.32198176,0.00598969899992,3651,3986.10743338
3320,3689.32198176,0.00600808799992,3662,3978.00565701
3330,3689.32198176,0.00602519399992,3673,3966.61331537
3340,3689.32198176,0.00604486599993,3684,4095.09381306
3350,3689.32198176,0.00606197199993,3695,4081.88422859
3360,3689.32198176,0.00607822299992,3706,3968.86681336
3370,3689.32198176,0.00609789499993,3717,3951.61118069
3380,3689.32198176,0.00611542899993,3728,3949.03476031
3390,3689.32198176,0.00613210799992,3739,3867.07624323
3400,3689.32198176,0.00614921399992,3750,3964.81981929
3410,3689.32198176,0.00616632099992,3761,3938.04695444
3420,3689.32198176,0.00618257199991,3772,3861.90080261
3430,3689.32198176,0.00620096099991,3783,4085.13849671
3440,3689.32198176,0.00621892299991,3794,3918.4169681
3450,3689.32198176,0.0062356009999,3805,3996.46636973
3460,3689.32198176,0.0062522789999,3816,3868.9850313
3470,3689.32198176,0.0062719509999,3827,3967.25666208
3480,3689.32198176,0.0062916229999,3838,3913.66770063
3490,3689.32198176,0.00631043999991,3849,3955.67976761
3500,3689.32198176,0.00633139499991,3860,3996.46636973
3510,3689.32198176,0.00635320499991,3871,3919.07800246
3520,3689.32198176,0.00637415999991,3882,3996.46636973
3530,3689.32198176,0.00639597099991,3893,4026.02374539
3540,3689.32198176,0.00641393199991,3904,3996.46636973
3550,3689.32198176,0.00643274899991,3915,4040.4723205
3560,3689.32198176,0.00645071099991,3926,3986.10743338
3570,3689.32198176,0.00647038299991,3937,3946.94955801
3580,3689.32198176,0.00649005499991,3948,3893.28188003
3590,3689.32198176,0.00651357499991,3959,3913.33076271
3600,3689.32198176,0.00653281899991,3970,3996.46636973
3610,3689.32198176,0.00655206299991,3981,3966.61331537
3620,3689.32198176,0.00657130699991,3992,3996.46636973
3630,3689.32198176,0.00659097899991,4003,3968.86681336
3640,3689.32198176,0.00661022399991,4014,3996.46636973
3650,3689.32198176,0.00662904099991,4025,4010.06190377
3660,3689.32198176,0.00664828499991,4036,3886.06814426
3670,3689.32198176,0.00666667399991,4047,3913.33076271
3680,3689.32198176,0.00668976699991,4058,4046.36966783
3690,3689.32198176,0.00671157799991,4069,4058.62450355
3700,3689.32198176,0.00673167799991,4080,3996.46636973
3710,3689.32198176,0.00675391599991,4091,3918.4169681
3720,3689.32198176,0.00677529899991,4102,3995.90366661
3730,3689.32198176,0.00679497099991,4113,3964.58511873
3740,3689.32198176,0.00681678099991,4124,4020.18217444
3750,3689.32198176,0.00683645299991,4135,3996.46636973
3760,3689.32198176,0.00685526999992,4146,4004.35150531
3770,3689.32198176,0.00687536899992,4157,3996.46636973
3780,3689.32198176,0.00689589599993,4168,3995.34096348
3790,3689.32198176,0.00691513999993,4179,3941.26725699
3800,3689.32198176,0.00693395699993,4190,3976.89499513
3810,3689.32198176,0.00695362899993,4201,3964.81981929
3820,3689.32198176,0.00697287299993,4212,3996.46636973
3830,3689.32198176,0.00699211699993,4223,3995.34096348
3840,3689.32198176,0.00701307199993,4234,3996.46636973
3850,3689.32198176,0.00703146099993,4245,3986.74885845
3860,3689.32198176,0.00704899499993,4256,3871.76295919
3870,3689.32198176,0.00706738399993,4267,3996.46636973
3880,3689.32198176,0.00708662899994,4278,3970.67024731
3890,3689.32198176,0.00710587399993,4289,3875.04309008
3900,3689.32198176,0.00712725699993,4300,3976.89499513
3910,3689.32198176,0.00714564599993,4311,3974.70419071
3920,3689.32198176,0.00716446299994,4322,3925.3189556
3930,3689.32198176,0.00718285199994,4333,4060.22887173
3940,3689.32198176,0.00720295199994,4344,3897.43274628
3950,3689.32198176,0.00722219599994,4355,3936.760261
3960,3689.32198176,0.00724101299995,4366,3996.46636973
3970,3689.32198176,0.00726196799994,4377,3958.34526834
3980,3689.32198176,0.00728848199995,4388,4064.10350413
3990,3689.32198176,0.00730772699995,4399,3960.92995417
4000,3689.32198176,0.00732654399995,4410,3867.07624323
4010,3689.32198176,0.00735348599996,4421,3946.85811613
4020,3689.32198176,0.00737101899995,4432,4047.19422053
4030,3689.32198176,0.00739026299996,4443,3989.32456796
4040,3689.32198176,0.00740865199995,4454,3938.04695444
4050,3689.32198176,0.00742832399995,4465,4020.68676576
4060,3689.32198176,0.00744799599995,4476,3996.46636973
4070,3689.32198176,0.00746681299995,4487,4026.39527382
4080,3689.32198176,0.00748605699995,4498,3996.46636973
4090,3689.32198176,0.00750530199996,4509,3953.97259025
4100,3689.32198176,0.00752369099996,4520,3996.46636973
4110,3689.32198176,0.00754165299996,4531,4039.5964119
4120,3689.32198176,0.00756004199996,4542,4006.18388101
4130,3689.32198176,0.00757971399996,4553,3941.08423158
4140,3689.32198176,0.00759895899996,4564,3973.0071285
4150,3689.32198176,0.00761820299996,4575,3954.89856622
4160,3689.32198176,0.00763701999995,4586,3966.11054982
4170,3689.32198176,0.00765540999996,4597,3958.79383578
4180,3689.32198176,0.00767508199996,4608,3933.7685681
4190,3689.32198176,0.00769347099995,4619,4025.61890357
4200,3689.32198176,0.00771228799995,4630,3972.77542602
4210,3689.32198176,0.00773110399995,4641,4064.10350413
4220,3689.32198176,0.00774906599995,4652,3946.56307163
4230,3689.32198176,0.00776831099995,4663,3982.18276618
4240,3689.32198176,0.00778627199995,4674,3973.22166026
4250,3689.32198176,0.00780380499994,4685,3991.28690155
4260,3689.32198176,0.00782091099995,4696,3996.46636973
4270,3689.32198176,0.00783758999994,4707,4021.41801878
4280,3689.32198176,0.00785555199995,4718,3955.67976761
4290,3689.32198176,0.00787308599995,4729,3956.92033621
4300,3689.32198176,0.00789104699994,4740,3906.75599165
4310,3689.32198176,0.00790986399994,4751,3996.46636973
4320,3689.32198176,0.00792868099994,4762,4091.91415967
4330,3689.32198176,0.00794792599994,4773,3996.46636973
4340,3689.32198176,0.00797529499994,4784,3968.86681336
4350,3689.32198176,0.00803431199994,4795,3966.61331537
4360,3689.32198176,0.00805954299994,4806,4027.8104456
4370,3689.32198176,0.00807707699995,4817,3959.9806876
4380,3689.32198176,0.00809546599995,4828,3936.60856155
4390,3689.32198176,0.00811599299995,4839,3967.10930784
4400,3689.32198176,0.00813480899995,4850,3976.85949276
4410,3689.32198176,0.00815234299995,4861,3996.46636973
4420,3689.32198176,0.00817030399995,4872,3984.73674911
4430,3689.32198176,0.00818698199996,4883,3969.27530165
4440,3689.32198176,0.00820708199996,4894,3910.20628539
4450,3689.32198176,0.00822931999996,4905,3975.36866943
4460,3689.32198176,0.00824941999996,4916,4026.02374539
4470,3689.32198176,0.00826823699995,4927,3996.46636973
4480,3689.32198176,0.00828748199996,4938,3996.46636973
4490,3689.32198176,0.00830758199996,4949,3961.27750788
4500,3689.32198176,0.00832939299995,4960,3986.74885845
4510,3689.32198176,0.00835376899995,4971,3982.18276618
4520,3689.32198176,0.00837814499996,4982,3947.15264806
4530,3689.32198176,0.00840166599996,4993,3949.97695078
4540,3689.32198176,0.00842561499996,5004,3982.18276618
4550,3689.32198176,0.00844999099996,5015,4013.17450897
4560,3689.32198176,0.00847265699996,5026,4029.88264821
4570,3689.32198176,0.00849232899996,5037,3911.04851087
4580,3689.32198176,0.00851285699996,5048,4025.61890357
4590,3689.32198176,0.00853509499996,5059,3961.25646448
4600,3689.32198176,0.00855604999996,5070,3991.28690155
4610,3689.32198176,0.00857572199996,5081,4021.41801878
4620,3689.32198176,0.00859967099996,5092,3877.82826917
4630,3689.32198176,0.00862019899996,5103,3969.27530165
4640,3689.32198176,0.00864200899996,5114,3965.38730282
4650,3689.32198176,0.00866467499997,5125,3972.60894024
4660,3689.32198176,0.00869674899997,5136,4095.09381306
4670,3689.32198176,0.00872069799997,5147,3995.34096348
4680,3689.32198176,0.00874507399997,5158,3902.43414212
4690,3689.32198176,0.00876645599997,5169,3906.67965745
4700,3689.32198176,0.00879040499996,5180,3967.25666208
4710,3689.32198176,0.00881135999997,5191,4021.41801878
4720,3689.32198176,0.00883317099997,5202,3923.49500547
4730,3689.32198176,0.00885669199997,5213,3996.46636973
4740,3689.32198176,0.00887679099997,5224,3917.37430269
4750,3689.32198176,0.00890287799997,5235,3879.39226729
4760,3689.32198176,0.00892426099997,5246,4021.27049653
4770,3689.32198176,0.00894478899997,5257,3982.87083569
4780,3689.32198176,0.00896916499997,5268,3949.08448232
4790,3689.32198176,0.00898669899996,5279,3941.08423158
4800,3689.32198176,0.00900465999997,5290,3996.46636973
4810,3689.32198176,0.00902518699996,5301,3947.16441632
4820,3689.32198176,0.00904870799996,5312,4095.09381306
4830,3689.32198176,0.00906880699996,5323,3941.26725699
4840,3689.32198176,0.00908933399997,5334,3990.50201236
4850,3689.32198176,0.00911157199997,5345,3958.34526834
4860,3689.32198176,0.00913038799996,5356,3936.760261
4870,3689.32198176,0.00915219799996,5367,4020.18217444
4880,3689.32198176,0.00917571799996,5378,4085.13849671
4890,3689.32198176,0.00919538999995,5389,3949.08448232
4900,3689.32198176,0.00921634499995,5400,3953.33632756
4910,3689.32198176,0.00923943899995,5411,3981.53984255
4920,3689.32198176,0.00925868399995,5422,3956.92033621
4930,3689.32198176,0.00927963899996,5433,3972.60894024
4940,3689.32198176,0.00930102199996,5444,3951.68678818
4950,3689.32198176,0.00932112199996,5455,4044.1902647
4960,3689.32198176,0.00934207699996,5466,3843.40961163
4970,3689.32198176,0.00936559799996,5477,3946.56307163
4980,3689.32198176,0.00938783599996,5488,3972.75056502
4990,3689.32198176,0.00941135699996,5499,3951.61118069
