it,funval,time,funcount,weight
0,5999.0076856,0.000642761999984,576,5470.26622555
10,6108.44211418,0.00131374900002,1066,5756.00252398
20,6392.2569712,0.00195180699995,1553,5340.34308791
30,6166.28741884,0.00259071999994,2038,5582.95125909
40,6630.68560561,0.00323305500001,2516,6029.64944702
50,6826.86334895,0.00387325099996,3005,6024.07092405
60,6798.06527052,0.00451216399995,3494,6374.39528162
70,6813.14536873,0.005173743,3987,6517.80998717
80,6619.51465514,0.00583788799997,4460,5892.2460049
90,7036.26459247,0.00649433499996,4944,6870.8009491
100,7056.79543317,0.00713752499996,5412,6580.07822057
110,7347.18784729,0.00779311699989,5892,6431.38919082
120,7247.19315287,0.00844785299989,6382,6179.59826818
130,7257.55122955,0.00909702999991,6865,6310.13918172
140,7256.08220128,0.0097282459999,7359,6312.92641717
150,7235.09240326,0.0103851209999,7847,6744.35112611
160,7231.31968369,0.011048839,8340,6454.73926731
170,7301.58940511,0.0116847589999,8825,6377.15813954
180,7571.73241919,0.0123185399999,9307,6863.97663674
190,7368.62658716,0.012955315,9795,6276.76432476
200,7421.29647006,0.013642126,10294,7146.09581049
210,7439.20395727,0.014320384,10776,6718.09211477
220,7540.98370327,0.0149699890001,11263,6798.42888203
230,7587.12771986,0.01562772,11757,6537.90330094
240,7422.63778145,0.016273476,12231,6676.00009556
250,7384.97600173,0.016920087,12715,6984.45979897
260,7385.51532405,0.0176210100001,13184,6658.19892244
270,7622.58266803,0.0183899300001,13682,6804.08438844
280,7519.006614,0.0191276310001,14156,7103.60176873
290,7739.33120459,0.019772104,14646,7149.47871334
300,7619.03228186,0.020414867,15123,6939.00474542
310,7707.25934591,0.021070886,15601,6623.29815815
320,7864.89946754,0.0217264769999,16090,7006.55308391
330,7532.55586357,0.0223953259998,16579,6426.74769321
340,7426.21634942,0.0230577599998,17049,6681.35255208
350,7580.16166022,0.0237069369998,17537,6265.97196743
360,7511.61156358,0.0243916089998,18020,7122.3855789
370,7462.23203412,0.0250326599999,18510,6646.44133319
380,7572.08089951,0.0257113449998,19004,6565.19731195
390,7679.71512675,0.0263754899997,19492,6990.96993309
400,7672.99893264,0.0271602329998,19969,6469.74760941
410,7651.04677718,0.0277935869998,20449,6942.05137842
420,7645.47665163,0.0284414809998,20920,6503.06475164
430,7332.89322566,0.0291595099999,21400,6433.11520407
440,7557.75059869,0.0298022719999,21887,6793.25750927
450,7506.01378287,0.0308213689998,22369,7030.73508107
460,7538.7551554,0.0314795269999,22842,6643.30942117
470,7795.19361992,0.0321120249998,23317,6903.94876137
480,7724.72945146,0.0327877169998,23794,6857.4513524
490,7613.12629692,0.0334330449998,24273,6580.10564001
500,7709.90911606,0.0340835049998,24755,6743.97799865
510,7727.34081077,0.0347249849998,25223,6789.44766127
520,7641.83971659,0.0354434419997,25713,7121.46455563
530,7478.57479974,0.0360857759997,26203,6612.31131213
540,7571.80738044,0.0367520599997,26687,7056.46435826
550,7460.00085362,0.0373969599997,27179,6905.55737818
560,7577.08052789,0.0380705129996,27663,6876.1654464
570,7571.05631997,0.0387214009996,28144,6937.43591905
580,7516.8290213,0.0393731439996,28624,6858.93332883
590,7873.98225373,0.0400248869996,29107,7186.8784359
600,7745.93740236,0.0407027169997,29593,7217.91339372
610,7682.13371806,0.0413771259997,30066,6710.28222225
620,7642.73407239,0.0420566659997,30553,6772.32419676
630,7721.98233723,0.0427114029997,31029,7032.58903287
640,7602.17890202,0.0433631459997,31507,6533.36003565
650,7717.82010191,0.0440311399997,31987,6855.50903207
660,7713.31627648,0.0446927189997,32470,6398.99841014
670,7679.88567149,0.0453850889998,32952,6736.88927645
680,7820.22041217,0.0460372599997,33430,6770.29830583
690,7805.16123377,0.0466984109997,33908,6927.64684824
700,7935.92515521,0.0473608459997,34385,7228.80506489
710,8088.50925059,0.0480356819997,34874,7101.9202429
720,8083.12804889,0.0486917019997,35352,7152.32202154
730,8205.14494633,0.0493537079998,35831,6926.4570965
740,7994.92423156,0.0500178529999,36327,6927.96320655
750,8114.82412349,0.0506819969999,36821,6596.1526822
760,7930.04814707,0.0513358779999,37302,7078.3987534
770,7720.82157267,0.05199147,37773,6566.23872712
780,7939.08377355,0.0526278169999,38257,7056.73793648
790,7881.29397586,0.0532761379999,38742,6790.24686908
800,7920.49662628,0.0539479809999,39225,7025.286959
810,7597.63618884,0.0545774859999,39706,7107.65296141
820,7650.53197582,0.0552394929998,40172,6703.23609018
830,7693.49413176,0.0559844639998,40664,7050.12624813
840,7729.40509539,0.0567225929999,41150,6719.82080094
850,7482.59229657,0.0573940079998,41613,6678.83532241
860,7679.47195969,0.0580714109999,42103,7014.44373291
870,7622.49514748,0.0587398319999,42584,6921.13713716
880,7738.36348802,0.0593924299999,43068,6707.50225164
890,7635.46036065,0.0600420349999,43559,6701.53139774
900,7534.30656594,0.060715588,44038,6734.46866724
910,7633.01454106,0.061353646,44521,6539.65296839
920,7636.79575994,0.062003251,45005,6565.76663873
930,7554.43824352,0.062668252,45481,6740.14007992
940,7519.92985807,0.063337957,45968,6739.79253638
950,7597.433492,0.0640029570001,46459,6775.57661358
960,7590.23600777,0.0646478570001,46947,6759.63681039
970,7617.00661145,0.0652854870001,47424,6563.34433401
980,7638.31738899,0.065923118,47903,6351.07932413
990,7681.07898838,0.066578283,48397,6574.79973205
1000,7684.53115492,0.0672223280001,48876,6622.53923833
1010,7528.50395709,0.0678638080001,49367,6509.57864373
1020,7556.97647586,0.06854121,49857,6609.62099844
1030,7656.50753773,0.0692062100001,50336,6228.0437452
1040,7744.98400209,0.069862657,50822,7054.91047356
1050,7716.93077552,0.070510551,51300,6640.91540112
1060,7696.54039648,0.071191374,51783,6536.63804799
1070,7555.02782319,0.071865355,52265,6304.06918417
1080,7709.68516225,0.072528217,52750,6285.48996211
1090,7667.60287134,0.0731701239999,53236,6854.73028116
1100,7675.5515101,0.073871047,53719,6535.88179462
1110,7639.97458275,0.0745428900001,54197,6445.59882638
1120,7739.46967974,0.0752061790001,54672,6411.59980382
1130,7568.06065225,0.0758707520001,55158,6615.42165134
1140,7541.67536204,0.0765348970002,55626,6647.45207736
1150,7528.32986419,0.0774269810001,56124,6647.60336989
1160,7811.56320799,0.0780774410001,56610,7278.49852984
1170,7826.74998971,0.0787428690002,57102,6555.39974259
1180,7627.49286296,0.0794159950001,57586,6863.62950842
1190,7723.2325317,0.080075008,58074,6759.9321089
1200,7643.97153514,0.080746851,58560,6668.45770436
1210,7791.64489218,0.0813964559999,59044,6684.94806701
1220,7727.77243211,0.0821833379998,59534,6647.11079226
1230,7735.9403463,0.0828286659998,60016,7004.85483781
1240,7726.31385022,0.0834821199999,60513,6664.86287281
1250,7683.84065204,0.0841342909999,60994,7055.11643394
1260,7821.58626445,0.0847864609999,61479,7046.22996602
1270,7761.5646675,0.0854386309999,61969,7108.47206817
1280,7712.82776264,0.0860848149998,62454,6890.93188694
1290,7945.31219053,0.0867382689999,62930,7010.28624142
1300,7857.3468871,0.0873686289999,63413,7127.77024222
1310,7718.47620897,0.0880507359999,63892,6619.79275506
1320,7889.99651922,0.0887140259999,64384,7097.73417377
1330,7735.71508537,0.08936919,64864,7052.11915039
1340,7683.96703742,0.090064554,65353,6808.23315788
1350,7569.32538215,0.090738107,65826,6845.29339697
1360,7524.78328603,0.091393271,66303,6879.96966724
1370,7375.72903516,0.0920663969999,66795,6650.82469352
1380,7356.28082605,0.0927378119999,67283,6356.04383343
1390,7435.80251343,0.0934092269999,67761,6867.63088672
1400,7512.0423455,0.0940810689999,68260,6898.68210229
1410,7577.69549338,0.0947439309999,68746,6947.42271363
1420,7466.6520865,0.0953982399999,69228,6714.2071964
1430,7517.99627979,0.0960512659999,69711,6708.53177621
1440,7537.02852359,0.0966987319999,70186,6298.32515044
1450,7432.40102399,0.097369719,70660,6791.62103296
1460,7493.21309789,0.098026594,71139,7000.32838765
1470,7484.44740171,0.098685179,71632,6601.71863361
1480,7357.45821064,0.099365575,72099,6731.96314863
1490,7420.9548101,0.100054951,72585,6304.31583972
1500,7470.92467407,0.100704128,73071,6531.62152271
1510,7298.37567112,0.101350311,73558,6757.46390565
1520,7548.04413987,0.102058932,74044,6650.41407942
1530,7365.06111823,0.102697845,74525,6784.06014658
1540,7544.75301618,0.103356003,74996,7012.07971854
1550,7634.6410153,0.104009885,75485,6853.20242958
1560,7699.17177266,0.104671464,75976,7029.10230567
1570,7780.07012945,0.105350149,76474,6379.704431
1580,7783.8459167,0.106156275,76955,6599.66914537
1590,7972.3957085,0.106802459,77439,7080.50649345
1600,7668.76729517,0.107506803,77914,6864.44784355
1610,7890.9382591,0.108164534,78405,6380.75060862
1620,7828.7373221,0.108821836,78885,7193.85477196
1630,7945.78564376,0.109463743,79365,6695.66774095
1640,7879.00574667,0.110126605,79850,6797.18819058
1650,7871.48489273,0.110775354,80340,6757.21765366
1660,8064.76964123,0.111442493,80812,6772.47507844
1670,7822.33895057,0.112074991,81292,6367.15357165
1680,7702.70676152,0.112738708,81777,6955.88018035
1690,7782.87031583,0.113413971,82262,6620.30097579
1700,7804.00593168,0.114040482,82741,6534.99944993
1710,7847.81694261,0.114666139,83222,6329.94896882
1720,7707.22956789,0.115299921,83695,6999.21537144
1730,7715.32078823,0.115954658,84191,6693.28915407
1740,7521.98462099,0.11663377,84679,6399.7719243
1750,7637.41050902,0.117282947,85157,6166.63692908
1760,7653.07851538,0.117961205,85636,6932.15706529
1770,7647.61161058,0.118609954,86131,6876.32910889
1780,7777.18201961,0.119263835,86623,6411.01209093
1790,7652.27850716,0.119927979,87097,6352.66155782
1800,7769.03945469,0.120587848,87579,6420.1886489
1810,7592.18943954,0.121220774,88065,6548.28736947
1820,7529.11925115,0.121880643,88555,6580.84750904
1830,7468.74756323,0.122776576,89025,6477.30499419
1840,7498.29258805,0.12344286,89508,6444.48330205
1850,7554.93497991,0.12408776,90000,6187.31954387
1860,7541.4164058,0.124750622,90499,6498.6891953
1870,7481.61259136,0.125415623,90998,6989.15381437
1880,7515.65333109,0.126058385,91481,6886.1794102
1890,7602.69344935,0.126722102,91972,6862.32019038
1900,7575.03132066,0.127361015,92459,6873.00312155
1910,7718.19603129,0.128030292,92941,6787.33146997
1920,7598.39602527,0.128705128,93438,6380.05047803
1930,7879.15232816,0.129359009,93928,7065.08168993
1940,7745.65541466,0.130015456,94414,6553.18022324
1950,7615.492446,0.130728353,94888,6505.19952013
1960,7677.66274951,0.131390359,95370,6617.49684896
1970,7625.3787184,0.132074176,95861,6258.98779814
1980,7749.01914232,0.132755,96349,6349.78106569
1990,7725.73322846,0.133442665,96829,6738.12941615
2000,7793.47791821,0.134127338,97314,6902.69683471
2010,7723.21101864,0.134800036,97804,6528.42348039
2020,7698.18482657,0.135452635,98273,6818.6720527
2030,7838.01523676,0.136106944,98764,6807.09175028
2040,7687.50518158,0.136777076,99247,7226.24512091
2050,7613.91983603,0.137461321,99737,7209.01401877
2060,7676.66875328,0.138118623,100217,6106.36178981
2070,7579.6934466,0.138800301,100702,6804.35423929
2080,7605.96177539,0.139456748,101163,6981.23970102
2090,7737.15751482,0.14013244,101627,6619.39960722
2100,7671.26536748,0.140854746,102115,6859.14945568
2110,7609.00613762,0.141526588,102609,6819.83268646
2120,7513.33591884,0.142186457,103095,6361.86309135
2130,7518.90546943,0.14287284,103589,6545.75834412
2140,7513.22012891,0.14353057,104080,6290.85600599
2150,7526.89260685,0.144181457,104561,6808.93589965
2160,7535.03488041,0.144811818,105046,7336.36632547
2170,7551.09444095,0.145455435,105531,6465.01175689
2180,7550.40237025,0.146116586,106008,7070.25583392
2190,7714.12507082,0.146806818,106501,6905.77060586
2200,7778.70344533,0.147641597,106986,6675.25225529
2210,7543.7627177,0.148313868,107461,6555.41282813
2220,7735.10418043,0.148956203,107939,6657.57624833
2230,7680.88466403,0.149678509,108430,6678.44436511
2240,7700.82707037,0.150371734,108916,6756.12378007
2250,7611.8195501,0.151041011,109396,6710.81702604
2260,7654.26157216,0.151685912,109875,6971.46362333
2270,7599.25774629,0.152346208,110362,6469.85585918
2280,7734.42019817,0.153019761,110862,6968.29937151
2290,7804.42857343,0.153692887,111346,6758.42778738
2300,7687.14616117,0.154340353,111827,6552.41057174
2310,7698.47956023,0.155003215,112310,6478.65836213
2320,7824.54123637,0.155795656,112791,6084.61174763
2330,7916.95550861,0.15647263,113272,6831.0125818
2340,7703.03980572,0.157145328,113756,6624.74847216
2350,7657.86204658,0.157816315,114241,6632.94783601
2360,7678.65240451,0.158523652,114723,6661.45272176
2370,7692.97228805,0.159198488,115190,6438.36418745
2380,7854.85664175,0.159842533,115678,6858.51871043
2390,7732.87324157,0.160507961,116159,6682.93573992
2400,7773.23582904,0.161149012,116641,6719.67800659
2410,7705.67281597,0.161779373,117133,6881.26444434
2420,7720.86826122,0.162449505,117613,6864.21010357
2430,7644.89119318,0.163096116,118104,6907.42716593
2440,7778.97703379,0.16375684,118583,7188.22919438
2450,7655.08942186,0.164430821,119066,6903.20800723
2460,7774.92404286,0.165094538,119542,6795.66118118
2470,7692.85886698,0.165768947,120027,6745.51546052
2480,7626.57243435,0.166438651,120513,7045.68127138
2490,7617.20757429,0.167107072,120994,6966.25262015
2500,7496.19609823,0.1677524,121481,6922.6172133
2510,7439.60348919,0.168413552,121954,6623.86791861
2520,7603.34898464,0.169091382,122442,6484.88229217
2530,7728.86792614,0.169795298,122929,7086.97750316
2540,7683.7930927,0.17045816,123412,6134.18428742
2550,7694.05857085,0.171106054,123896,6740.68556437
2560,7664.80345255,0.171753947999,124384,6817.2375635
2570,7786.85671268,0.172429639999,124871,6405.74960127
2580,7658.65930699,0.173083093999,125336,6470.01153004
2590,7497.36893978,0.173761778999,125823,6513.88302098
2600,7641.91985773,0.174408389999,126309,6847.66952517
2610,7480.85414932,0.175056283999,126784,6396.41974616
2620,7296.04543133,0.175725988999,127275,6645.62474958
2630,7387.59660219,0.176381152999,127751,6207.23086544
2640,7233.52193214,0.177014933999,128231,6463.62312591
2650,7504.96187978,0.177686348999,128724,6585.88963307
2660,7421.6055287,0.178336808999,129212,6498.78940148
2670,7405.75596749,0.179019342999,129693,6511.91387474
2680,7524.94878901,0.179687764999,130178,6938.44226315
2690,7405.7809383,0.180338224999,130662,6326.83963973
2700,7355.88683349,0.181019047999,131135,6675.23042802
2710,7359.33283572,0.181687896999,131612,6748.59118991
2720,7453.32074132,0.182334935999,132092,6815.0171981
2730,7389.19112926,0.183049116999,132586,6891.38960591
2740,7330.26183836,0.183701715999,133063,7063.60697912
2750,7410.85334999,0.184373985999,133556,6557.54716794
2760,7350.81476132,0.185059512999,134032,6405.10331003
2770,7329.17077597,0.185722374999,134515,6676.79996421
2780,7393.80942801,0.186401059999,135009,6426.43807597
2790,7297.88416921,0.187075896999,135489,6543.8281902
2800,7579.50052147,0.187775964999,135962,6519.57549236
2810,7458.84195132,0.188446097999,136435,6540.26620964
2820,7264.12724793,0.189106821999,136924,6473.40863614
2830,7569.18122118,0.189765834999,137390,6453.57385956
2840,7314.81856878,0.190413300999,137864,6649.26931431
2850,7395.378588,0.191086853999,138337,7010.41200164
2860,7490.92249253,0.191736885999,138818,6642.62041644
2870,7675.28241165,0.192385207999,139296,6695.83884661
2880,7482.36193418,0.193027970999,139784,6888.04986571
2890,7607.0588679,0.193686127999,140269,6714.24081913
2900,7684.81756979,0.194332310999,140746,7236.83138332
2910,7637.8983704,0.195040930999,141227,7173.2620937
2920,7582.9136405,0.195699943999,141711,7088.13612056
2930,7517.40537431,0.196394879999,142188,6692.9342989
2940,7624.78654055,0.197086821999,142673,7205.09939726
2950,7625.93229085,0.197731294999,143170,6333.35679115
2960,7703.94600168,0.198367641999,143657,6712.57635994
2970,7552.10280695,0.199204130999,144143,6352.29866263
2980,7548.07456343,0.199861432999,144617,6692.85785286
2990,7666.35968893,0.200532847999,145107,6241.12955603
3000,7463.9836024,0.201184162999,145588,6831.31417143
3010,7488.22297135,0.201831628999,146059,6305.23400866
3020,7443.63886728,0.202494490999,146552,6692.06181672
3030,7419.43600472,0.203156496999,147041,6847.83893598
3040,7475.85518276,0.203883079999,147526,6464.12470509
3050,7369.20010779,0.204605812999,147995,6701.94614939
3060,7453.79649154,0.205287919999,148486,6373.36115697
3070,7418.58015576,0.205941372999,148965,6203.82195055
3080,7375.65250219,0.206620058999,149458,6409.62292877
3090,7440.91162602,0.207305585999,149948,6727.23735922
3100,7483.79707963,0.207962459999,150435,6881.55410022
3110,7445.78182651,0.208638151999,150914,6835.2190299
3120,7454.78304298,0.209294598999,151393,6459.31764077
3130,7307.89137213,0.209942919999,151871,6537.11775231
3140,7388.93498965,0.210636144999,152353,6603.97864692
3150,7395.78818563,0.211334074999,152835,6515.37630329
3160,7470.74830096,0.211998219999,153319,6389.98709349
3170,7402.48901547,0.212672199999,153810,6765.1511597
3180,7364.57448961,0.213342331999,154290,6540.55455992
3190,7296.35696954,0.214023582999,154774,6699.16934974
3200,7178.20080572,0.214709537999,155270,6299.31751231
3210,7406.08159331,0.215415592999,155753,6315.72707398
3220,7651.91928374,0.216119081999,156238,6828.72247201
3230,7294.08496348,0.216793062999,156726,6818.07813865
3240,7434.47500503,0.217493557999,157206,6889.23639874
3250,7485.76687549,0.218184644999,157693,7068.4126489
3260,7627.44362062,0.218844513999,158177,6383.35284863
3270,7531.19104997,0.219503526999,158660,6945.76384493
3280,7716.5131851,0.220157835999,159152,6638.39721972
3290,7498.43070835,0.220815565999,159647,6721.13221511
3300,7814.67339441,0.221476289999,160117,6945.69484152
3310,7860.35875126,0.222137013999,160590,6733.4843159
3320,7983.72472436,0.222806289999,161071,6553.34298793
3330,7874.22600928,0.223483691999,161548,6751.2606508
3340,7835.90750549,0.224145270999,162036,7184.07676521
3350,7974.83901721,0.224826522999,162517,7269.65125149
3360,7880.60681295,0.225539847999,163003,7061.29080532
3370,7958.67198432,0.226227512999,163485,6942.59978963
3380,7850.24360957,0.226916033999,163974,7014.2822569
3390,7899.63463083,0.227587876999,164451,7092.37571941
3400,7695.02654818,0.228286661999,164939,6868.38326835
3410,7775.84261974,0.228915738999,165431,6948.34754544
3420,7684.83718977,0.229564487999,165903,6979.91183529
3430,7898.83526498,0.230189288999,166388,6744.45148979
3440,7929.00066353,0.230842314999,166869,6864.20626628
3450,7859.12921955,0.231486359999,167337,7213.0148216
3460,7781.12647865,0.232135964999,167824,6869.5867381
3470,7612.39983232,0.232812083999,168315,6908.19566919
3480,7709.55141797,0.233458266999,168792,7175.60310331
3490,7766.70501901,0.234107871999,169281,6698.01391087
3500,7703.97702436,0.234789549999,169771,7077.01367565
3510,7797.4021186,0.235442575999,170252,6892.63655881
3520,7885.64796834,0.236087048999,170723,6793.05100135
3530,7587.27140647,0.236944064999,171212,6590.58667253
3540,7761.90351447,0.237592814999,171695,6702.60128663
3550,7607.08365323,0.238236004999,172189,6471.99054664
3560,7542.33267273,0.238872352999,172682,6562.3086872
3570,7604.82389635,0.239523239999,173162,6900.94204294
3580,7569.91432865,0.240165146999,173646,7024.98975797
3590,7647.08174173,0.240804060999,174118,6624.51678712
3600,7656.46627818,0.241498140999,174601,6810.42004036
3610,7579.25000031,0.242143468999,175072,6702.96331696
3620,7581.77929913,0.242800770999,175563,6758.91529689
3630,7769.42513589,0.243453368999,176045,6735.48658402
3640,7480.433131,0.244118796999,176525,6926.046749
3650,7663.54486512,0.244803896999,177011,6833.78993664
3660,7527.88684921,0.245487713999,177487,7078.08422397
3670,7577.41517641,0.246147581999,177967,6452.19233237
3680,7380.01170489,0.246825411999,178449,6533.59554207
3690,7325.90674213,0.247505806999,178931,6414.27882151
3700,7184.93313584,0.248163108999,179417,6679.53704808
3710,7246.77652014,0.248806298999,179901,6105.57064438
3720,7349.39752096,0.249460607999,180377,6535.77602735
3730,7403.43173914,0.250414273999,180856,6338.95303255
3740,7467.96693063,0.251129736999,181352,6773.26060236
3750,7186.91462226,0.251791742999,181825,6428.83502878
3760,7252.71773575,0.252429800999,182312,6144.8815814
3770,7215.21889344,0.253073845999,182803,6045.03250717
3780,7214.75722128,0.253743977999,183291,6650.0953676
3790,7332.30727471,0.254399141999,183776,6251.83869773
3800,7185.53371532,0.255042331999,184267,6125.66619026
3810,7383.62345878,0.255686804999,184736,6766.0104825
3820,7340.17830681,0.256330422999,185221,6272.60237106
3830,7487.07345348,0.256978316999,185707,6006.3147958
3840,7511.33506834,0.257645883999,186181,6199.87750014
3850,7608.40154714,0.258303613999,186663,6488.27084203
3860,7489.9003425,0.258962626999,187143,6807.81398378
3870,7603.18743979,0.259638318999,187632,6694.34226021
3880,7624.969142,0.260291344999,188099,6719.4546814
3890,7375.76269541,0.260946081999,188583,5993.52298645
3900,7388.35428519,0.261609798999,189076,5786.3689784
3910,7153.961561,0.262264535999,189552,6470.07698071
3920,7059.07794197,0.262917989999,190045,6497.36796967
3930,7011.45543499,0.263582989999,190543,6087.76401579
3940,7119.05827019,0.264308716999,191020,6172.44764856
3950,7275.46939539,0.264967729999,191499,6378.34084905
3960,7431.77620317,0.265651546999,191984,6369.23807381
3970,7281.56926153,0.266316974999,192473,6392.75719752
3980,7321.97804911,0.266963585999,192958,6488.61263182
3990,7305.87358207,0.267639704999,193459,6314.61163735
4000,7267.26794607,0.268312402999,193937,6148.43220666
4010,7276.07529902,0.268959013999,194422,6633.36262768
4020,7205.62848295,0.269624013999,194902,6448.63245079
4030,7380.85180205,0.270296283999,195382,6860.5076586
4040,7314.87668867,0.270992502999,195864,6180.79439848
4050,7165.36103848,0.271645956999,196345,6804.82971112
4060,7602.52177603,0.272316943999,196833,6642.4707317
4070,7518.55840848,0.272987930999,197315,6844.5622151
4080,7336.48063952,0.273655068999,197811,6448.91300088
4090,7244.37216083,0.274299114999,198301,6499.77617859
4100,7299.84840449,0.274943160999,198788,6717.68149449
4110,7295.48318903,0.275573520999,199264,6611.49549426
4120,7280.99532938,0.276201314999,199751,6806.66589328
4130,7527.9434106,0.276833813999,200242,6433.15253598
4140,7369.51883644,0.277489405999,200732,7061.88629958
4150,7281.89652471,0.278134306999,201220,6779.84057932
4160,7232.40263845,0.278765094999,201694,6998.6215979
4170,7283.42792111,0.279433516999,202165,7277.59421538
4180,7269.74223042,0.280080983999,202634,6942.95691382
4190,7304.09701156,0.280738713999,203122,7349.31303772
4200,7363.77965185,0.281422530999,203604,6930.32967383
4210,7492.78349369,0.282081971999,204079,7026.31741993
4220,7407.59571431,0.282728154999,204565,7116.69118678
4230,7275.45579367,0.283393154999,205055,7200.04702679
4240,7271.19884672,0.284053878999,205546,6999.03089014
4250,7384.74586961,0.284712463999,206027,7108.81776164
4260,7411.72026505,0.285490363999,206511,6901.83767341
4270,7361.38022518,0.286186155999,206996,6842.70082899
4280,7085.50171059,0.286860136999,207478,6937.2686598
4290,7044.11065551,0.287519149999,207961,6918.66295447
4300,7289.48623265,0.288214085999,208447,6855.7801018
4310,7319.89428421,0.288976590999,208942,6984.50181002
4320,7310.83011875,0.289689060999,209435,6748.31132173
4330,7470.14537603,0.290363896999,209916,6960.88437244
4340,7479.61504141,0.291022482999,210407,6823.95959624
4350,7682.33251789,0.291696890999,210893,6978.55185347
4360,7603.21439361,0.292353765999,211370,7003.58580698
4370,7440.3617579,0.293061531999,211857,7276.77362058
4380,7608.9268934,0.293717123999,212346,6687.50347452
4390,7800.14166456,0.294395380999,212827,6753.32883831
4400,7621.11172118,0.295073638999,213312,7598.18043919
4410,7790.78045728,0.295754889999,213795,7017.70812892
4420,7825.39164582,0.296446831999,214301,7422.31779924
4430,7823.11921619,0.297109693999,214796,7536.41969696
4440,7808.06311144,0.297776404999,215287,7277.9659199
4450,7809.48580778,0.298458082999,215768,7735.0003366
4460,7799.87540266,0.299117523999,216234,7201.18692681
4470,7886.69331768,0.299813314999,216719,7080.44257868
4480,7936.16511183,0.300449662999,217200,7635.19273024
4490,7708.89468141,0.301146736999,217687,7817.5569431
4500,7642.29773776,0.301797196999,218160,7460.77647532
4510,7702.72838683,0.302462196999,218644,7178.98552365
4520,7698.78093232,0.303218287999,219128,7238.28170925
4530,7621.85468054,0.303868747999,219621,7342.82483351
4540,7906.02540158,0.304514931999,220105,7302.73926492
4550,7730.37116552,0.305167529999,220599,7011.92348357
4560,7849.19273588,0.305813284999,221081,7115.66914245
4570,7930.34818622,0.306463744999,221579,6818.84119397
4580,8051.04605789,0.307144995999,222049,7737.99092406
4590,8020.89828842,0.307808285999,222530,7462.28559322
4600,7982.21551045,0.308480983999,223008,7569.59089433
4610,7960.96475806,0.309146838999,223496,7301.77178901
4620,7833.56067716,0.309806278999,223982,7413.77388083
4630,7744.62290758,0.310475982999,224475,7290.75919794
4640,7805.16939065,0.311199571999,224956,7057.75160863
4650,7605.27544019,0.311829076999,225435,6645.33039136
4660,7756.76831069,0.312503912999,225926,6908.69850773
4670,7634.7220391,0.313132990999,226411,6901.78444416
4680,7695.371171,0.313804405999,226894,6903.20428909
4690,7655.92957807,0.314457858999,227374,6714.63188441
4700,7710.55118588,0.315091639999,227858,6606.31428327
4710,7653.42179203,0.315743809999,228354,6928.66958913
4720,7789.19678804,0.316415224999,228845,6831.83574591
4730,7551.86595821,0.317070388999,229330,6525.61694666
4740,7699.86696269,0.317761048999,229816,7032.74070941
4750,7601.0454489,0.318449997999,230305,6824.48330374
4760,7572.73431062,0.319117563999,230783,6809.32914314
4770,7620.26970791,0.319771016999,231261,6886.69688944
4780,7753.16049837,0.320426180999,231739,7130.1198672
4790,7696.63503023,0.321097167999,232221,6674.89303662
4800,7630.69536307,0.321769865999,232712,6657.45524889
4810,7632.5628337,0.322444274999,233200,6360.31147507
4820,7640.27639731,0.323097727999,233681,6980.42561493
4830,7801.73297903,0.323728942999,234166,6749.01833021
4840,7709.73602467,0.324387527999,234656,6684.1420895
4850,7791.45508358,0.325040980999,235136,7090.06877133
4860,7517.15040599,0.325704697999,235614,7219.96381326
4870,7470.50454718,0.326376967999,236100,7030.45934057
4880,7419.15030255,0.327027000999,236575,6501.288676
4890,7494.44495673,0.327687724999,237070,6860.25914385
4900,7696.18120262,0.328378383999,237549,6510.99231586
4910,7876.63625417,0.329040390999,238022,6370.70565035
4920,7633.0359615,0.329671178999,238492,6845.55231266
4930,7689.32519361,0.330345159999,238963,6936.88800759
4940,7762.90252082,0.331005027999,239451,6782.54853587
4950,7622.94314282,0.331655915999,239946,6761.47639456
4960,7558.83303826,0.332320916999,240432,6752.60532854
4970,7481.7536415,0.333013713999,240923,7009.31070332
4980,7623.08171524,0.33367957,241399,6880.85111981
4990,7577.8511106,0.334333450999,241883,6904.29699903
