it,funval,time,funcount,weight
0,12339.5366448,1.66779998381e-05,10,12363.4824887
10,12542.200201,3.50669999989e-05,21,12352.2146972
20,12825.5044626,5.30289999006e-05,32,12683.218422
30,13152.1890286,6.71409998176e-05,43,12951.312299
40,13315.8065859,8.08249997135e-05,54,13091.3571181
50,13528.261116,9.79309995728e-05,65,13311.9310746
60,13991.1889924,0.000117175999549,76,13716.1806414
70,14245.2685999,0.000133854999603,87,13799.5699096
80,14301.3654554,0.000149677999616,98,13801.0667296
90,14301.3654554,0.000165073999597,109,13863.6066165
100,14376.7800169,0.000182606999715,120,13906.1022438
110,14464.2286405,0.000200995999649,131,14044.8228178
120,14676.7382739,0.000220667999429,142,14154.835706
130,14785.9337538,0.000239056999362,153,14317.0796632
140,14992.5926551,0.000262577999365,164,14364.3589147
150,15039.6526107,0.000280111999245,175,14597.0180271
160,15167.6437813,0.000294223999163,186,14743.9320877
170,15416.7402002,0.000308336999296,197,14793.3804567
180,15454.7607585,0.000329719999399,208,14864.9813702
190,15475.6197438,0.000350674999481,219,14819.5038775
200,15609.1235124,0.000371202999531,230,14997.7404068
210,15666.7277644,0.000385315999438,241,15063.7589387
220,15812.2088239,0.00040113899945,252,15039.9770267
230,15913.2203194,0.000416533999442,263,15392.1518387
240,15926.9947586,0.000437061999492,274,15430.4738034
250,16021.2942817,0.000452029999451,285,15451.5256908
260,16302.5941456,0.000470845999644,296,15603.8447234
270,16302.5941456,0.000489661999836,307,15410.255205
280,16392.2726744,0.000505485999838,318,15632.298304
290,16793.5099093,0.000519598999745,329,15859.5790838
300,16934.7818584,0.000535849999778,340,15913.5769497
310,16976.0027319,0.000553383999659,351,16014.4810811
320,16988.7088707,0.000567496999565,362,16118.0558946
330,16988.7088707,0.000584174999631,373,15950.9543967
340,16988.7088707,0.000601707999522,384,15950.9367602
350,16988.7088707,0.000618385999587,395,15940.2101408
360,16988.7088707,0.000632925999753,406,15987.7536136
370,16988.7088707,0.000648748999765,417,15818.485714
380,17159.8123948,0.000666710999894,428,15988.1490876
390,17159.8123948,0.000682106999875,439,15918.8220919
400,17159.8123948,0.000703916999782,450,15886.7162782
410,17159.8123948,0.000726582999732,461,15937.3634684
420,17159.8123948,0.00075138599982,472,15959.3919576
430,17159.8123948,0.000774906999823,483,15988.1490876
440,17159.8123948,0.000799282999878,494,15988.1490876
450,17159.8123948,0.000822376999849,505,15977.5758368
460,17159.8123948,0.000842476999878,516,15950.4455249
470,17159.8123948,0.000858727999912,527,15988.1490876
480,17159.8123948,0.000878827999713,538,15988.1490876
490,17159.8123948,0.000894650999726,549,15891.3543283
500,17159.8123948,0.000911756999812,560,15966.2223073
510,17208.6021811,0.000927579999825,571,15998.4700631
520,17208.6021811,0.000941692999731,582,15995.7591024
530,17208.6021811,0.000963502999639,593,15975.9147384
540,17208.6021811,0.000984885999515,604,15855.4456431
550,17208.6021811,0.00100327499945,615,15966.2647545
560,17208.6021811,0.00102294799945,626,15923.0629379
570,17208.6021811,0.0010417649994,637,16004.4540131
580,17208.6021811,0.00106015399933,648,15960.3175751
590,17208.6021811,0.00107640399938,659,15976.8000894
600,17208.6021811,0.00109479299931,670,15985.6988398
610,17208.6021811,0.00111489299934,681,15924.8716294
620,17208.6021811,0.00113242599946,692,15998.4700631
630,17208.6021811,0.00115209799947,703,15986.5695409
640,17208.6021811,0.00116963199957,714,15817.0162736
650,17208.6021811,0.0011897319996,725,15970.8574231
660,17208.6021811,0.00120812099976,736,15982.3674088
670,17208.6021811,0.00122779299977,747,15998.4700631
680,17208.6021811,0.00124832099982,758,15946.8393479
690,17208.6021811,0.00127312399991,769,15948.72617
700,17208.6021811,0.00129322299972,780,15998.4700631
710,17208.6021811,0.00131118499985,791,16181.1851014
720,17208.6021811,0.0013300019998,802,15984.5461981
730,17208.6021811,0.00134839199995,813,15974.6690186
740,17208.6021811,0.00136635399986,824,15970.7644868
750,17208.6021811,0.00138431599976,835,15872.3495033
760,17208.6021811,0.00140270499969,846,15998.4700631
770,17208.6021811,0.0014189559995,857,15935.6697993
780,17208.6021811,0.00143606199958,868,15886.8123879
790,17208.6021811,0.00145231299962,879,15994.7337135
800,17208.6021811,0.0014677089996,890,15986.9746797
810,17208.6021811,0.00148224899954,901,16010.2735351
820,17208.6021811,0.00149636099945,912,15984.8604922
830,17208.6021811,0.00151303999951,923,15972.9276166
840,17208.6021811,0.00152971799935,934,15998.4700631
850,17208.6021811,0.0015463969994,945,15998.4700631
860,17208.6021811,0.00156393099951,956,15903.0462279
870,17208.6021811,0.00158018199954,967,16054.3904432
880,17208.6021811,0.00159429399946,978,15965.5433137
890,17208.6021811,0.00161097299952,989,15987.2610143
900,17208.6021811,0.00162765199957,1000,15944.5870898
910,17208.6021811,0.00164304799955,1011,16046.1819807
920,17208.6021811,0.00165929799959,1022,15992.2727886
930,17208.6021811,0.00167554899963,1033,16064.3235619
940,17208.6021811,0.00169607699968,1044,15947.6844439
950,17208.6021811,0.00171446599961,1055,15998.4700631
960,17208.6021811,0.00173114499967,1066,15989.1803848
970,17208.6021811,0.0017452579998,1077,16045.2481766
980,17208.6021811,0.00175936999995,1088,15914.1938606
990,17208.6021811,0.00177348300008,1099,15979.8582538
1000,17208.6021811,0.00178802300002,1110,15966.6476285
1010,17208.6021811,0.00180256300018,1121,16020.7626428
1020,17208.6021811,0.00181710300012,1132,16012.8961547
1030,17208.6021811,0.00183078800023,1143,15998.4700631
1040,17208.6021811,0.00184618400044,1154,15981.4545637
1050,17208.6021811,0.00186286300027,1165,15858.3176964
1060,17208.6021811,0.00187868600028,1176,15984.2866482
1070,17208.6021811,0.00189493700032,1187,16044.7636199
1080,17208.6021811,0.0019103330003,1198,15958.7136131
1090,17208.6021811,0.00192572800029,1209,15998.4700631
1100,17208.6021811,0.0019415510003,1220,15998.4700631
1110,17208.6021811,0.0019573750003,1231,16033.6568019
1120,17208.6021811,0.00197619200048,1242,15989.4536532
1130,17208.6021811,0.00199329800057,1253,15926.7259629
1140,17208.6021811,0.00201211500075,1264,15998.4700631
1150,17208.6021811,0.00202836600079,1275,15998.4700631
1160,17208.6021811,0.00204376200077,1286,15962.598013
1170,17208.6021811,0.00206172400067,1297,15981.7578654
1180,17208.6021811,0.00207754700068,1308,15925.8501475
1190,17208.6021811,0.0020959370006,1319,16109.147797
1200,17208.6021811,0.00211304300069,1330,15998.4700631
1210,17208.6021811,0.00212929400072,1341,15982.6259901
1220,17208.6021811,0.00214640000081,1352,16040.9811537
1230,17208.6021811,0.00216393300093,1363,16042.3236236
1240,17208.6021811,0.00218103900102,1374,15951.6467328
1250,17208.6021811,0.00219771700108,1385,16079.0879746
1260,17208.6021811,0.00221482300094,1396,15978.2878507
1270,17208.6021811,0.0022319290008,1407,15995.3714259
1280,17208.6021811,0.00225031800073,1418,15998.4700631
1290,17208.6021811,0.00226956200072,1429,15954.5567618
1300,17208.6021811,0.00228923400073,1440,15973.3827316
1310,17208.6021811,0.00230676800061,1451,15919.4709717
1320,17208.6021811,0.00232387400047,1462,15964.5666918
1330,17208.6021811,0.00234311800045,1473,15911.4875655
1340,17208.6021811,0.00236065200033,1484,15989.4536532
1350,17208.6021811,0.00238032400034,1495,15968.2304072
1360,17208.6021811,0.00239828600024,1506,15855.4456431
1370,17208.6021811,0.0024171030002,1517,15935.943067
1380,17208.6021811,0.00243506400011,1528,15882.0787637
1390,17208.6021811,0.00245516400014,1539,15935.943067
1400,17208.6021811,0.00247526400017,1550,15998.4700631
1410,17208.6021811,0.0024936530001,1561,15964.9696128
1420,17208.6021811,0.00251247000006,1572,15823.3269587
1430,17208.6021811,0.00253128700001,1583,15972.8938168
1440,17208.6021811,0.00254967700016,1594,15907.7932671
1450,17208.6021811,0.00256849400012,1605,16014.1603329
1460,17208.6021811,0.00258859300016,1616,16021.1808416
1470,17208.6021811,0.00260783700014,1627,15968.1898738
1480,17208.6021811,0.00262665400032,1638,15998.4700631
1490,17208.6021811,0.00264504300048,1649,15998.4700631
1500,17208.6021811,0.00266257600038,1660,15962.9548114
1510,17208.6021811,0.00267968200046,1671,15934.0594459
1520,17208.6021811,0.00269678800055,1682,15918.957163
1530,17208.6021811,0.00271517700048,1693,16034.7800209
1540,17208.6021811,0.00273185600054,1704,16005.9366298
1550,17208.6021811,0.00275024500047,1715,15998.4700631
1560,17208.6021811,0.00276820600038,1726,15964.0049544
1570,17208.6021811,0.00278659500054,1737,15874.9778961
1580,17208.6021811,0.00280840500068,1748,16007.7759678
1590,17208.6021811,0.00282722200086,1759,16034.1079707
1600,17208.6021811,0.00284732200089,1770,15864.4682617
1610,17208.6021811,0.00287127100091,1781,15997.5192451
1620,17208.6021811,0.00288880500079,1792,15853.2518154
1630,17208.6021811,0.00290762200098,1803,15994.2920137
1640,17208.6021811,0.002927722001,1814,15976.3439818
1650,17208.6021811,0.00294525600111,1825,15998.4700631
1660,17208.6021811,0.00296364500127,1836,15998.4700631
1670,17208.6021811,0.00298032300134,1847,16038.0967438
1680,17208.6021811,0.0029952910013,1858,15992.2727886
1690,17208.6021811,0.00301239700116,1869,15858.0000721
1700,17208.6021811,0.00302907500122,1880,16019.7308597
1710,17208.6021811,0.00304489800124,1891,15948.8464238
1720,17208.6021811,0.0030637140012,1902,15914.4731423
1730,17208.6021811,0.00308124700132,1913,15952.3461478
1740,17208.6021811,0.00310177400115,1924,15959.0663329
1750,17208.6021811,0.00312529500115,1935,16040.9811537
1760,17208.6021811,0.00314625000124,1946,15898.3484644
1770,17208.6021811,0.00316592200124,1957,15975.4081055
1780,17208.6021811,0.00318858800119,1968,15964.5666918
1790,17208.6021811,0.0032082600012,1979,15930.3377276
1800,17208.6021811,0.00322750400119,1990,15998.4700631
1810,17208.6021811,0.0032450380013,2001,15950.696886
1820,17208.6021811,0.0032647100013,2012,15887.647758
1830,17208.6021811,0.00328523700114,2023,15998.4700631
1840,17208.6021811,0.0033057640012,2034,15817.0162736
1850,17208.6021811,0.00332458100115,2045,15954.684287
1860,17208.6021811,0.00334510800121,2056,15954.5567618
1870,17208.6021811,0.00336178700127,2067,15961.6708463
1880,17208.6021811,0.00338701800115,2078,15998.4700631
1890,17208.6021811,0.00341053900115,2089,15973.247986
1900,17208.6021811,0.00343192200125,2100,15928.8222249
1910,17208.6021811,0.00345544300126,2111,15998.4700631
1920,17208.6021811,0.0034755420013,2122,15977.6277311
1930,17208.6021811,0.00349478600128,2133,15963.2833243
1940,17208.6021811,0.00351360300124,2144,15968.1898738
1950,17208.6021811,0.00353113700112,2155,15970.5523491
1960,17208.6021811,0.00355508600114,2166,15970.601028
1970,17208.6021811,0.00357304800104,2177,15926.0459714
1980,17208.6021811,0.003591865001,2188,15966.5790943
1990,17208.6021811,0.00361153700101,2199,15960.1480984
2000,17208.6021811,0.00363292000111,2210,15998.4700631
2010,17208.6021811,0.00365644100111,2221,15864.9745982
2020,17208.6021811,0.00367696800117,2232,15998.4700631
2030,17208.6021811,0.00369578400114,2243,15965.5433137
2040,17208.6021811,0.00371759400105,2254,15928.0965856
2050,17208.6021811,0.00373683800103,2265,15978.2359598
2060,17208.6021811,0.00375608200102,2276,15896.8268146
2070,17208.6021811,0.00377618200105,2287,15991.8983875
2080,17208.6021811,0.00379542600103,2298,15864.2080718
2090,17208.6021811,0.00381467000102,2309,16082.7154781
2100,17208.6021811,0.00383861900104,2320,15993.1474209
2110,17208.6021811,0.003857436001,2331,16124.8381856
2120,17208.6021811,0.00387796300106,2342,15952.635931
2130,17208.6021811,0.00389849000112,2353,15934.0975171
2140,17208.6021811,0.00392030000125,2364,15998.4700631
2150,17208.6021811,0.0039408280013,2375,15905.0104987
2160,17208.6021811,0.00396092700134,2386,15872.4746818
2170,17208.6021811,0.00397888900125,2397,16012.653478
2180,17208.6021811,0.00399770500121,2408,15985.7525671
2190,17208.6021811,0.00402379200114,2419,15998.4700631
2200,17208.6021811,0.00404731300114,2430,15998.4700631
2210,17208.6021811,0.00406869600101,2441,15985.7525671
2220,17208.6021811,0.00409093400117,2452,16037.7171949
2230,17208.6021811,0.00410675700118,2463,15926.9578531
2240,17208.6021811,0.00412728400124,2474,15968.1513982
2250,17208.6021811,0.00414567300118,2485,15970.8574231
2260,17208.6021811,0.00416363400132,2496,15978.2878507
2270,17208.6021811,0.00418074000117,2507,15851.8029063
2280,17208.6021811,0.00419784600103,2518,15998.4700631
2290,17208.6021811,0.00421495200089,2529,15919.9757996
2300,17208.6021811,0.00423163000096,2540,15952.5738719
2310,17208.6021811,0.00424745300097,2551,15994.2920137
2320,17208.6021811,0.00426541400088,2562,15911.5022124
2330,17208.6021811,0.00428252000097,2573,16047.6038327
2340,17208.6021811,0.0043043300011,2584,16008.9929258
2350,17208.6021811,0.00432400200111,2595,15820.6500108
2360,17208.6021811,0.00434453000116,2606,15917.8521516
2370,17208.6021811,0.0043629190011,2617,15940.9558032
2380,17208.6021811,0.00438002600117,2628,16073.7458693
2390,17208.6021811,0.00439713200126,2639,15976.9834133
2400,17208.6021811,0.00441423800135,2650,16023.5619985
2410,17208.6021811,0.00443348300132,2661,15998.4700631
2420,17208.6021811,0.0044565760013,2672,15964.0447238
2430,17208.6021811,0.00448009700131,2683,15992.5894625
2440,17208.6021811,0.00450190700144,2694,15998.4700631
2450,17208.6021811,0.0045202960016,2705,16128.7723442
2460,17208.6021811,0.00454082300166,2716,15901.9112441
2470,17208.6021811,0.00456177800174,2727,16007.5981991
2480,17208.6021811,0.00458145000175,2738,15983.43318
2490,17208.6021811,0.00460112200176,2749,16038.8509687
2500,17208.6021811,0.00462464300176,2760,15956.8696392
2510,17208.6021811,0.00464388700175,2771,15916.1419518
2520,17208.6021811,0.00466184800189,2782,15935.6697993
2530,17208.6021811,0.00467895400175,2793,15975.8076691
2540,17208.6021811,0.00469777000171,2804,15896.0009231
2550,17208.6021811,0.00471530400182,2815,16006.315198
2560,17208.6021811,0.00473412100177,2826,15919.2167017
2570,17208.6021811,0.00475422100158,2837,15959.9346256
2580,17208.6021811,0.00477132700166,2848,15978.7550363
2590,17208.6021811,0.00478928900156,2859,16040.6081644
2600,17208.6021811,0.00480682300145,2870,15964.9696128
2610,17208.6021811,0.00482478400136,2881,15988.1490876
2620,17208.6021811,0.00484231800147,2892,15871.330636
2630,17208.6021811,0.0048585690015,2903,15983.5246647
2640,17208.6021811,0.00487824100151,2914,15935.4097832
2650,17208.6021811,0.00489705700147,2925,15921.3991881
2660,17208.6021811,0.00492057800147,2936,15978.7550363
2670,17208.6021811,0.00494110600152,2947,15849.5991452
2680,17208.6021811,0.00495949500146,2958,16053.80893
2690,17208.6021811,0.00498130600135,2969,15998.4700631
2700,17208.6021811,0.00500012300154,2980,15998.4700631
2710,17208.6021811,0.00502236100147,2991,15998.4700631
2720,17208.6021811,0.00504545400145,3002,15899.2227845
2730,17208.6021811,0.0050659820015,3013,15888.0724126
2740,17208.6021811,0.00508437100143,3024,16082.7154781
2750,17208.6021811,0.0051031870014,3035,15998.4700631
2760,17208.6021811,0.00512157600133,3046,15942.5496831
2770,17208.6021811,0.00514082000154,3057,15982.6222389
2780,17208.6021811,0.0051592090017,3068,15909.560037
2790,17208.6021811,0.00517802600189,3079,15946.5135081
2800,17208.6021811,0.00520240200194,3090,16020.5961444
2810,17208.6021811,0.00522806100207,3101,15998.4700631
2820,17208.6021811,0.00525457600224,3112,15917.3296385
2830,17208.6021811,0.00527809700225,3123,16003.7927053
2840,17208.6021811,0.0053003350024,3134,15964.0447238
2850,17208.6021811,0.00532342800238,3145,15912.1986732
2860,17208.6021811,0.00534652100259,3156,15998.4700631
2870,17208.6021811,0.00537089700265,3167,16008.5611693
2880,17208.6021811,0.00539441800265,3178,16091.353745
2890,17208.6021811,0.00541195100277,3189,15989.4536532
2900,17208.6021811,0.00543076700274,3200,15951.6329034
2910,17208.6021811,0.0054512940028,3211,15998.4700631
2920,17208.6021811,0.0054713940026,3222,16014.1603329
2930,17208.6021811,0.00548764500263,3233,15926.9578531
2940,17208.6021811,0.00550389600266,3244,16039.7707862
2950,17208.6021811,0.00552143000255,3255,15998.4700631
2960,17208.6021811,0.00554024600251,3266,15976.9834133
2970,17208.6021811,0.00555692400235,3277,15998.4700631
2980,17208.6021811,0.00557403000221,3288,15921.3991881
2990,17208.6021811,0.00559199200211,3299,15862.4528961
3000,17208.6021811,0.00560867100216,3310,15961.6708463
3010,17208.6021811,0.00562791600214,3321,15954.01505
3020,17208.6021811,0.00565058200232,3332,16008.032619
3030,17208.6021811,0.00567068100236,3343,15970.1032333
3040,17208.6021811,0.00569163600244,3354,15950.1621002
3050,17208.6021811,0.00571045300262,3365,15998.4700631
3060,17208.6021811,0.00572926900259,3376,15901.5621297
3070,17208.6021811,0.00574680300269,3387,15917.8521516
3080,17208.6021811,0.00576348200275,3398,15959.4539083
3090,17208.6021811,0.00578101600286,3409,15901.6753039
3100,17208.6021811,0.00580325400279,3420,15965.5433137
3110,17208.6021811,0.00582378100285,3431,15905.8829496
3120,17208.6021811,0.00584174200299,3442,15931.4691624
3130,17208.6021811,0.00586098700296,3453,15974.4490239
3140,17208.6021811,0.00588365200292,3464,15901.5621297
3150,17208.6021811,0.00590589000285,3475,15921.8261337
3160,17208.6021811,0.00592470600282,3486,15942.5496831
3170,17208.6021811,0.00594437800282,3497,16026.3177931
3180,17208.6021811,0.0059674710028,3508,15958.3364394
3190,17208.6021811,0.00598671600278,3519,15982.8576765
3200,17208.6021811,0.00600510500271,3530,15958.0605552
3210,17208.6021811,0.00602349400265,3541,15950.9265904
3220,17208.6021811,0.0060423110026,3552,16007.4768146
3230,17208.6021811,0.00606198300261,3563,15981.7578654
3240,17208.6021811,0.00607994500251,3574,15987.8396648
3250,17208.6021811,0.00609619600232,3585,16009.883829
3260,17208.6021811,0.00611116400228,3596,15907.7431683
3270,17208.6021811,0.00612698700229,3607,16048.6539339
3280,17208.6021811,0.00614837000217,3618,15897.9687121
3290,17208.6021811,0.00616376500216,3629,15998.4700631
3300,17208.6021811,0.00618514800226,3640,15864.2080718
3310,17208.6021811,0.00620653000215,3651,15998.4700631
3320,17208.6021811,0.00622876800207,3662,15998.4700631
3330,17208.6021811,0.00625143400225,3673,16009.883829
3340,17208.6021811,0.00627409900221,3684,16008.9929258
3350,17208.6021811,0.00629676500216,3695,15998.4700631
3360,17208.6021811,0.00632199600204,3706,15956.7175886
3370,17208.6021811,0.00634722700192,3717,15998.4700631
3380,17208.6021811,0.00636903700183,3728,15952.3299264
3390,17208.6021811,0.00639170300201,3739,15954.1485238
3400,17208.6021811,0.00641351300192,3750,15973.3827316
3410,17208.6021811,0.0064366060019,3761,15865.3691178
3420,17208.6021811,0.00645756100198,3772,15918.0097547
3430,17208.6021811,0.00647894400208,3783,15977.6277311
3440,17208.6021811,0.00650032700219,3794,15909.8269844
3450,17208.6021811,0.006520426002,3805,15966.7819172
3460,17208.6021811,0.00654095300206,3816,15975.4081055
3470,17208.6021811,0.00656404700203,3827,15950.8679741
3480,17208.6021811,0.00658756800203,3838,15998.4700631
3490,17208.6021811,0.00661023400198,3849,16033.1335609
3500,17208.6021811,0.00663332700196,3860,16014.4379897
3510,17208.6021811,0.00665556500189,3871,15987.0562972
3520,17208.6021811,0.0066790860019,3882,15998.4700631
3530,17208.6021811,0.00670474500203,3893,15985.68194
3540,17208.6021811,0.00672655500216,3904,15998.4700631
3550,17208.6021811,0.00674879300232,3915,15987.2610143
3560,17208.6021811,0.00676675400223,3926,15950.4279848
3570,17208.6021811,0.00678557100218,3937,15998.4700631
3580,17208.6021811,0.00680267700204,3948,15821.0021361
3590,17208.6021811,0.006821494002,3959,15924.8716294
3600,17208.6021811,0.0068467260021,3970,15901.5621297
3610,17208.6021811,0.006868536002,3981,16034.5540492
3620,17208.6021811,0.00688735300196,3992,15917.708252
3630,17208.6021811,0.00690916300209,4003,15989.1641584
3640,17208.6021811,0.00693054600197,4014,16028.7097191
3650,17208.6021811,0.00695021800198,4025,15947.6000791
3660,17208.6021811,0.0069668970018,4036,15914.4731423
3670,17208.6021811,0.00698571400198,4047,15998.4700631
3680,17208.6021811,0.00700495800197,4058,15907.0280136
3690,17208.6021811,0.0070233470019,4069,15993.5552077
3700,17208.6021811,0.00704430200199,4080,16091.353745
3710,17208.6021811,0.00706269100215,4091,15948.8464238
3720,17208.6021811,0.00708022400227,4102,15911.1765885
3730,17208.6021811,0.0070986130022,4113,15909.8269844
3740,17208.6021811,0.00711914000226,4124,15977.6277311
3750,17208.6021811,0.00714137800242,4135,15991.4212293
3760,17208.6021811,0.00716147800244,4146,15961.6532097
3770,17208.6021811,0.00718542600225,4157,15982.6259901
3780,17208.6021811,0.00720680900235,4168,15958.3364394
3790,17208.6021811,0.00722477000249,4179,16034.5540492
3800,17208.6021811,0.00724358700245,4190,16059.1723731
3810,17208.6021811,0.00726154900235,4201,15981.2375088
3820,17208.6021811,0.00727951000226,4212,15998.4700631
3830,17208.6021811,0.00729747100218,4223,15979.6182818
3840,17208.6021811,0.00731671500216,4234,15976.3439818
3850,17208.6021811,0.00733595900215,4245,15808.8403001
3860,17208.6021811,0.00735563100193,4256,15915.2692153
3870,17208.6021811,0.00737402000186,4267,15963.646144
3880,17208.6021811,0.00739497500194,4278,15957.6413504
3890,17208.6021811,0.0074133640021,4289,15973.247986
3900,17208.6021811,0.00743132600201,4300,15928.0965856
3910,17208.6021811,0.00744971500217,4311,16026.1258907
3920,17208.6021811,0.00746724900205,4322,16003.7927053
3930,17208.6021811,0.00748777600211,4333,15982.5456707
3940,17208.6021811,0.00750744800212,4344,15998.4700631
3950,17208.6021811,0.0075245540022,4355,15998.4700631
3960,17208.6021811,0.00754166000229,4366,15942.9940648
3970,17208.6021811,0.00756047700247,4377,15952.3299264
3980,17208.6021811,0.00757929400243,4388,15962.2580173
3990,17208.6021811,0.00759554500246,4399,16086.2408782
4000,17208.6021811,0.00761179500228,4410,16059.1723731
4010,17208.6021811,0.00762890100214,4421,15855.8320424
4020,17208.6021811,0.00764472400215,4432,15923.2080684
4030,17208.6021811,0.00766225700204,4443,15966.9399232
4040,17208.6021811,0.00768064700196,4454,15829.2021635
4050,17208.6021811,0.00769818100207,4465,15987.0562972
4060,17208.6021811,0.00771614200198,4476,15916.1419518
4070,17208.6021811,0.00773453100192,4487,15979.8644283
4080,17208.6021811,0.00775463100194,4498,15849.2383836
4090,17208.6021811,0.00777130900201,4509,15938.6189664
4100,17208.6021811,0.00778756000204,4520,16035.2220015
4110,17208.6021811,0.00780423900187,4531,15956.4716027
4120,17208.6021811,0.00782006200188,4542,15976.9834133
4130,17208.6021811,0.00783759600176,4553,16033.2939822
4140,17208.6021811,0.00785470200185,4564,15916.1419518
4150,17208.6021811,0.00787394700183,4575,15962.7684964
4160,17208.6021811,0.00789190800197,4586,15989.1641584
4170,17208.6021811,0.00790986900211,4597,15998.4700631
4180,17208.6021811,0.00792911300209,4608,15992.5894625
4190,17208.6021811,0.00795092400199,4619,15953.1452751
4200,17208.6021811,0.0079727340019,4630,16037.8327117
4210,17208.6021811,0.00799368900175,4641,15998.4700631
4220,17208.6021811,0.00801122300186,4652,15980.7124372
4230,17208.6021811,0.0080313220019,4663,15998.4700631
4240,17208.6021811,0.0080514220017,4674,15998.4700631
4250,17208.6021811,0.00807195000152,4685,15956.449915
4260,17208.6021811,0.0080929050016,4696,15967.316875
4270,17208.6021811,0.00811386000146,4707,15917.708252
4280,17208.6021811,0.00813780800127,4718,15967.24529
4290,17208.6021811,0.00815534200137,4729,16033.6568019
4300,17208.6021811,0.00817116600138,4740,15979.8582538
4310,17208.6021811,0.00818870000148,4751,15978.334658
4320,17208.6021811,0.00820409600169,4762,16010.4379631
4330,17208.6021811,0.00821863600163,4773,15998.4700631
4340,17208.6021811,0.00823403200161,4784,16047.8857737
4350,17208.6021811,0.00825156600149,4795,15934.825194
4360,17208.6021811,0.0082695270014,4806,15998.4700631
4370,17208.6021811,0.00829005400124,4817,15990.6249282
4380,17208.6021811,0.00831058100107,4828,15804.8805447
4390,17208.6021811,0.00832725900113,4839,16022.405863
4400,17208.6021811,0.00834564800107,4850,15969.61788
4410,17208.6021811,0.00836318100119,4861,15998.4700631
4420,17208.6021811,0.00838114300109,4872,15984.2866482
4430,17208.6021811,0.00840167100091,4883,15996.568427
4440,17208.6021811,0.00841963300104,4894,15899.2227845
4450,17208.6021811,0.0084380220012,4905,15911.8950248
4460,17208.6021811,0.00845683900116,4916,15998.4700631
4470,17208.6021811,0.00847437300126,4927,15953.0702621
4480,17208.6021811,0.00849404500127,4938,15998.4700631
4490,17208.6021811,0.00851200600141,4949,15929.1430675
4500,17208.6021811,0.0085295390013,4960,15928.0965856
4510,17208.6021811,0.00854664500116,4971,16015.6827328
4520,17208.6021811,0.00856588900115,4982,16003.7927053
4530,17208.6021811,0.00858427800131,4993,15998.4700631
4540,17208.6021811,0.00860266800123,5004,15972.2883003
4550,17208.6021811,0.00862062900137,5015,16032.6264431
4560,17208.6021811,0.00863987400135,5026,16021.1808416
4570,17208.6021811,0.00865740800145,5037,15964.0479197
4580,17208.6021811,0.0086800740014,5048,15998.4700631
4590,17208.6021811,0.00870316700139,5059,15998.4700631
4600,17208.6021811,0.00872711500142,5070,15975.4081055
4610,17208.6021811,0.00874978100137,5081,15996.2159606
4620,17208.6021811,0.0087715910015,5092,15998.4700631
4630,17208.6021811,0.00879425700145,5103,16028.7097191
4640,17208.6021811,0.00881564000133,5114,15998.4700631
4650,17208.6021811,0.00883616800138,5125,15998.4700631
4660,17208.6021811,0.00885926200135,5136,15998.4700631
4670,17208.6021811,0.00888107300125,5147,15998.4700631
4680,17208.6021811,0.00890416600123,5158,16030.361258
4690,17208.6021811,0.00892554900111,5169,15998.4700631
4700,17208.6021811,0.00894778700103,5180,15914.1938606
4710,17208.6021811,0.00897130800104,5191,15998.4700631
4720,17208.6021811,0.00899739500119,5202,15902.8406736
4730,17208.6021811,0.00902134400121,5213,15936.5064212
4740,17208.6021811,0.00904486500121,5224,15998.4700631
4750,17208.6021811,0.0090679580012,5235,15996.568427
4760,17208.6021811,0.00908891300128,5246,16042.3833645
4770,17208.6021811,0.00911029500139,5257,15998.4700631
4780,17208.6021811,0.00912911200135,5268,15983.1920191
4790,17208.6021811,0.00914921100139,5279,15985.7489787
4800,17208.6021811,0.00916888300117,5290,16054.3904432
4810,17208.6021811,0.0091872720011,5301,15902.7971565
4820,17208.6021811,0.00920737200113,5312,15886.8123879
4830,17208.6021811,0.00922105700101,5323,15990.6249282
4840,17208.6021811,0.00923645300099,5334,15905.8829496
4850,17208.6021811,0.00924928200106,5345,15964.4390643
4860,17208.6021811,0.00927023700092,5356,15998.4700631
4870,17208.6021811,0.00929033700095,5367,15993.9059951
4880,17208.6021811,0.00930915400113,5378,15931.4691624
4890,17208.6021811,0.00933139200129,5389,15930.8481902
4900,17208.6021811,0.00935063600127,5400,15998.4700631
4910,17208.6021811,0.00936774200136,5411,15973.3781277
4920,17208.6021811,0.00938484800122,5422,15874.9778961
4930,17208.6021811,0.00940238200133,5433,16128.7723442
4940,17208.6021811,0.00941948800141,5444,15952.4127304
4950,17208.6021811,0.00943744900133,5455,16050.9535946
4960,17208.6021811,0.00945327200134,5466,16023.6921403
4970,17208.6021811,0.00947166100127,5477,15891.2017481
4980,17208.6021811,0.00948748400128,5488,16004.4540131
4990,17208.6021811,0.00950373500109,5499,15994.5496627
