it,funval,time,funcount,weight
0,2752.76691569,1.79610000002e-05,10,3109.41561795
10,2883.2712132,3.93440000002e-05,21,3215.65541748
20,3014.20493911,8.98070000002e-05,32,3487.38399468
30,3241.05270428,0.000127013,43,3699.96724693
40,3272.57522823,0.000153528,54,3774.176356
50,3427.69201266,0.0001732,65,3761.42466355
60,3471.84383686,0.000192017,76,3765.03612023
70,3557.3018212,0.000211689,87,4003.96671056
80,3557.3018212,0.000228367,98,4039.72670133
90,3557.3018212,0.000252315,109,4003.96671056
100,3557.3018212,0.000276691,120,3781.76017485
110,3557.3018212,0.000304489,131,3869.55801512
120,3557.3018212,0.000331004,142,3968.46621136
130,3557.3018212,0.00035367,153,3979.01506151
140,3607.2823744,0.000374625,164,3823.10587097
150,3645.863889,0.000399001,175,3997.88415648
160,3645.863889,0.000417818,186,3951.22156462
170,3645.863889,0.000442195,197,4125.40916049
180,3645.863889,0.000462295,208,4036.90885729
190,3645.863889,0.000484105,219,3947.75973876
200,3645.863889,0.000499928,230,3959.76305509
210,3645.863889,0.000516606,241,3996.75875023
220,3645.863889,0.000531146,252,3981.17601724
230,3645.863889,0.000558515,263,3997.88415648
240,3645.863889,0.000579897,274,4031.70272368
250,3645.863889,0.000597858,285,3873.18074594
260,3645.863889,0.000614964,296,3973.08002968
270,3645.863889,0.000633353,307,4014.59229572
280,3645.863889,0.000652597,318,3966.23760603
290,3645.863889,0.000669276,329,3818.46340031
300,3645.863889,0.000688092,340,3972.93250743
310,3645.863889,0.00070477,351,3888.42711009
320,3645.863889,0.000725297000001,362,3904.64695575
330,3645.863889,0.000765496000001,373,4039.6826909
340,3645.863889,0.000789872000001,384,3974.639447
350,3645.863889,0.000809116000001,395,3972.08803405
360,3645.863889,0.000830071000001,406,3982.95762929
370,3645.863889,0.000866849000001,417,3997.88415648
380,3645.863889,0.000892936000001,428,3954.35979845
390,3645.863889,0.000918167,439,3997.88415648
400,3645.863889,0.000970768000001,450,4018.60202918
410,3645.863889,0.000988301,461,3909.21202949
420,3645.863889,0.001004979,472,3974.639447
430,3645.863889,0.001019519,483,4005.02595825
440,3645.863889,0.001043895,494,3997.88415648
450,3645.863889,0.001060146,505,3968.32678081
460,3645.863889,0.001075541,516,3962.34774092
470,3645.863889,0.001095213,527,3964.467878
480,3645.863889,0.001110181,538,3811.23378904
490,3645.863889,0.001128142,549,3997.88415648
500,3645.863889,0.001151236,560,3997.88415648
510,3645.863889,0.001173474,571,4058.5957963
520,3645.863889,0.001205548,582,3978.82360578
530,3645.863889,0.001228642,593,3925.22296839
540,3645.863889,0.001247886,604,3997.88415648
550,3645.863889,0.001264137,615,3997.88415648
560,3645.863889,0.001291935,626,3953.87820571
570,3645.863889,0.001308614,637,3988.1666452
580,3645.863889,0.00132401,648,4022.83580553
590,3645.863889,0.001342827,659,3978.27727951
600,3645.863889,0.001361644,670,3961.39847435
610,3645.863889,0.001381743,681,3997.88415648
620,3645.863889,0.001396284,692,3958.67040254
630,3645.863889,0.001410397,703,3997.88415648
640,3645.863889,0.001429641,714,3976.45875116
650,3645.863889,0.001444181,725,3958.85945566
660,3645.863889,0.001463853,736,3921.35577743
670,3645.863889,0.001490367,747,3976.12197746
680,3645.863889,0.001507473,758,3955.390377
690,3645.863889,0.001524152,769,4005.02595825
700,3645.863889,0.001541258,780,3948.36734475
710,3645.863889,0.001557509,791,4011.47969051
720,3645.863889,0.001581886,802,3904.90531858
730,3645.863889,0.001598992,813,3982.95762929
740,3645.863889,0.001614815,824,3976.45875116
750,3645.863889,0.001635342,835,3993.94158869
760,3645.863889,0.00165031,846,3910.25503354
770,3645.863889,0.001666133,857,3939.06352557
780,3645.863889,0.001681529,868,4017.31917904
790,3645.863889,0.001696496,879,4041.01419864
800,3645.863889,0.001725149,890,3990.7423547
810,3645.863889,0.001741827,901,4047.18610989
820,3645.863889,0.001758077,912,4061.64665848
830,3645.863889,0.001771762,923,3942.50201833
840,3645.863889,0.001785019,934,4028.23997639
850,3645.863889,0.001819231,945,3935.72602266
860,3645.863889,0.001839758,956,3849.94299148
870,3645.863889,0.001856864,967,3997.88415648
880,3645.863889,0.001870549,978,3967.95525239
890,3645.863889,0.001885944,989,4074.41253552
900,3645.863889,0.001901767,1000,3938.17804775
910,3645.863889,0.001916734,1011,4022.64256234
920,3645.863889,0.001930847,1022,3902.43636654
930,3645.863889,0.00194496,1033,3966.23760603
940,3645.863889,0.00196121,1044,3997.88415648
950,3645.863889,0.00197575,1055,4003.84851385
960,3645.863889,0.001993711,1066,3997.88415648
970,3645.863889,0.002011245,1077,3997.88415648
980,3645.863889,0.002028351,1088,3951.39473753
990,3645.863889,0.00204674,1099,3960.21162253
1000,3645.863889,0.002062564,1110,3974.19321277
1010,3645.863889,0.002077532,1121,3997.88415648
1020,3645.863889,0.002094638,1132,3966.54008061
1030,3645.863889,0.002118159,1143,3997.88415648
1040,3645.863889,0.002144673,1154,3989.9990209
1050,3645.863889,0.002169049,1165,3904.55897276
1060,3645.863889,0.002191287,1176,3997.88415648
1070,3645.863889,0.002213525,1187,4016.94470717
1080,3645.863889,0.002248165,1198,3958.33812296
1090,3645.863889,0.002266554,1209,3951.22156462
1100,3645.863889,0.002283232,1220,3982.95762929
1110,3645.863889,0.0022982,1231,3997.88415648
1120,3645.863889,0.002319155,1242,3954.35979845
1130,3645.863889,0.00233455,1253,4048.61200728
1140,3645.863889,0.002355077,1264,3914.74854945
1150,3645.863889,0.002373466,1275,3997.88415648
1160,3645.863889,0.002392283,1286,3997.88415648
1170,3645.863889,0.002410244,1297,3968.67444883
1180,3645.863889,0.002429488,1308,3976.12197746
1190,3645.863889,0.002445739,1319,3996.75875023
1200,3645.863889,0.002462418,1330,3988.1666452
1210,3645.863889,0.002477386,1341,3951.39473753
1220,3645.863889,0.002492354,1352,3997.88415648
1230,3645.863889,0.002517158,1363,3997.88415648
1240,3645.863889,0.002533837,1374,4016.94470717
1250,3645.863889,0.002553509,1385,3985.95544173
1260,3645.863889,0.002568904,1396,4036.00525786
1270,3645.863889,0.002586438,1407,3997.88415648
1280,3645.863889,0.002605254,1418,3827.04843876
1290,3645.863889,0.002618511,1429,3868.49402998
1300,3645.863889,0.002634761,1440,3997.88415648
1310,3645.863889,0.002650157,1451,3988.1666452
1320,3645.863889,0.002668546,1462,4110.90175832
1330,3645.863889,0.002691639,1473,3955.390377
1340,3645.863889,0.002710028,1484,3919.83475485
1350,3645.863889,0.002727135,1495,4057.74196466
1360,3645.863889,0.002745951,1506,3904.55897276
1370,3645.863889,0.002763912,1517,3981.17601724
1380,3645.863889,0.002783584,1528,3909.21202949
1390,3645.863889,0.002805822,1539,3997.88415648
1400,3645.863889,0.002828488,1550,4074.41253552
1410,3645.863889,0.002846449,1561,3857.8963809
1420,3645.863889,0.002861417,1572,3942.50201833
1430,3645.863889,0.002889214,1583,3973.08002968
1440,3645.863889,0.00290803,1594,3966.80508957
1450,3645.863889,0.002925564,1605,4013.42256101
1460,3645.863889,0.002939249,1616,3968.52709458
1470,3645.863889,0.002954645,1627,3976.98488927
1480,3645.863889,0.002968757,1638,3979.42344376
1490,3645.863889,0.002984152,1649,3955.17522705
1500,3645.863889,0.003003824,1660,4093.52790948
1510,3645.863889,0.003019647,1671,3968.03110211
1520,3645.863889,0.003036326,1682,3987.33530633
1530,3645.863889,0.0030483,1693,3997.88415648
1540,3645.863889,0.003064123,1704,3984.28862244
1550,3645.863889,0.003079091,1715,3951.39473753
1560,3645.863889,0.003093631,1726,3997.88415648
1570,3645.863889,0.003110737,1737,3918.79208944
1580,3645.863889,0.003129981,1748,3997.88415648
1590,3645.863889,0.003149225,1759,4047.18610989
1600,3645.863889,0.003168042,1770,3997.88415648
1610,3645.863889,0.003185575,1781,3993.94158869
1620,3645.863889,0.003202253,1792,3997.88415648
1630,3645.863889,0.003222352,1803,3997.88415648
1640,3645.863889,0.003244162,1814,3974.639447
1650,3645.863889,0.003260841,1825,3997.88415648
1660,3645.863889,0.003280085,1836,4022.68828327
1670,3645.863889,0.003294197,1847,4036.90885729
1680,3645.863889,0.003311303,1858,3910.25503354
1690,3645.863889,0.003330547,1869,3976.45875116
1700,3645.863889,0.003342521,1880,4022.83580553
1710,3645.863889,0.003366042,1891,4013.42256101
1720,3645.863889,0.003388708,1902,4022.83580553
1730,3645.863889,0.003403676,1913,3955.390377
1740,3645.863889,0.003422493,1924,3997.88415648
1750,3645.863889,0.003440027,1935,3966.80508957
1760,3645.863889,0.00345585,1946,3967.95525239
1770,3645.863889,0.003472528,1957,4058.5957963
1780,3645.863889,0.003490489,1968,3894.69966678
1790,3645.863889,0.003509733,1979,4011.47969051
1800,3645.863889,0.003524274,1990,3811.23378904
1810,3645.863889,0.003542663,2001,4074.41253552
1820,3645.863889,0.003559341,2012,4048.61200728
1830,3645.863889,0.00357773,2023,3997.88415648
1840,3645.863889,0.003599113,2034,3987.33530633
1850,3645.863889,0.003615792,2045,4074.41253552
1860,3645.863889,0.003633753,2056,3854.71247157
1870,3645.863889,0.003654281,2067,3902.43636654
1880,3645.863889,0.003673098,2078,4022.83580553
1890,3645.863889,0.003689349,2089,3973.66376045
1900,3645.863889,0.003706027,2100,3997.88415648
1910,3645.863889,0.003723133,2111,3988.1666452
1920,3645.863889,0.003739811,2122,3997.88415648
1930,3645.863889,0.003756062,2133,3948.36734475
1940,3645.863889,0.003772313,2144,3899.25671315
1950,3645.863889,0.003791557,2155,3997.88415648
1960,3645.863889,0.003809091,2166,3997.88415648
1970,3645.863889,0.003826625,2177,3926.73674234
1980,3645.863889,0.003846297,2188,4060.58195811
1990,3645.863889,0.003867252,2199,3910.25503354
2000,3645.863889,0.003886924,2210,3997.88415648
2010,3645.863889,0.003904457,2221,3910.25503354
2020,3645.863889,0.003923274,2232,3939.46474119
2030,3645.863889,0.003937815,2243,3959.76305509
2040,3645.863889,0.003957915,2254,4110.90175832
2050,3645.863889,0.003976732,2265,3955.17522705
2060,3645.863889,0.003994694,2276,4033.07301832
2070,3645.863889,0.004013939,2287,3909.21202949
2080,3645.863889,0.004031045,2298,3910.25503354
2090,3645.863889,0.004051145,2309,4073.22922437
2100,3645.863889,0.004070389,2320,3989.9990209
2110,3645.863889,0.004089633,2331,3904.64695575
2120,3645.863889,0.004109733,2342,3909.87225494
2130,3645.863889,0.004128977,2353,3904.55897276
2140,3645.863889,0.004156775,2364,3997.88415648
2150,3645.863889,0.004176019,2375,4087.67086875
2160,3645.863889,0.004197402,2386,3935.19600473
2170,3645.863889,0.004222205,2397,3958.33812296
2180,3645.863889,0.004238883,2408,3970.6930884
2190,3645.863889,0.004255989,2419,3888.42711009
2200,3645.863889,0.004273095,2430,3997.88415648
2210,3645.863889,0.004291484,2441,4033.07301832
2220,3645.863889,0.004307735,2452,3997.88415648
2230,3645.863889,0.004327835,2463,4018.60202918
2240,3645.863889,0.004349218,2474,3997.60280492
2250,3645.863889,0.004373594,2485,3976.98488927
2260,3645.863889,0.004391128,2496,4040.37793595
2270,3645.863889,0.004419781,2507,3997.88415648
2280,3645.863889,0.004453565,2518,3976.98488927
2290,3645.863889,0.004477513,2529,3932.59761943
2300,3645.863889,0.004497613,2540,3997.88415648
2310,3645.863889,0.0045237,2551,4011.47969051
2320,3645.863889,0.004543372,2562,3997.88415648
2330,3645.863889,0.004566038,2573,4039.6826909
2340,3645.863889,0.004586565,2584,3997.32145335
2350,3645.863889,0.004606238,2595,3997.88415648
2360,3645.863889,0.004624627,2606,3997.88415648
2370,3645.863889,0.004643871,2617,3978.82360578
2380,3645.863889,0.004678084,2628,3903.85192886
2390,3645.863889,0.004703743,2639,3968.52709458
2400,3645.863889,0.004739666,2650,3892.25444072
2410,3645.863889,0.004767036,2661,3981.17601724
2420,3645.863889,0.004792695,2672,3870.40281804
2430,3645.863889,0.004819209,2683,3958.67040254
2440,3645.863889,0.004844441,2694,3915.08548737
2450,3645.863889,0.004869673,2705,3968.52709458
2460,3645.863889,0.004915004,2716,4036.148346
2470,3645.863889,0.004935532,2727,3948.57043481
2480,3645.863889,0.004954349,2738,3980.97487288
2490,3645.863889,0.004974877,2749,3966.54008061
2500,3645.863889,0.004989417,2760,4028.23997639
2510,3645.863889,0.005002674,2771,3997.88415648
2520,3645.863889,0.005021918,2782,4033.07301832
2530,3645.863889,0.005036031,2793,4035.55669042
2540,3645.863889,0.005078369,2804,3879.24605592
2550,3645.863889,0.005231468,2815,3806.9885766
2560,3645.863889,0.005262259,2826,3974.639447
2570,3645.863889,0.005295188,2837,3997.88415648
2580,3645.863889,0.00532213,2848,3997.88415648
2590,3645.863889,0.005358908,2859,3894.69966678
2600,3645.863889,0.005399535,2870,3958.74140729
2610,3645.863889,0.00543674,2881,3976.12197746
2620,3645.863889,0.005471379,2892,3997.88415648
2630,3645.863889,0.005508157,2903,3997.88415648
2640,3645.863889,0.005535527,2914,3997.88415648
2650,3645.863889,0.005563325,2925,3997.88415648
2660,3645.863889,0.005596254,2936,3997.88415648
2670,3645.863889,0.005633032,2947,3968.32678081
2680,3645.863889,0.005660829,2958,3899.25671315
2690,3645.863889,0.005689054,2969,3993.94158869
2700,3645.863889,0.005715568,2980,3973.08002968
2710,3645.863889,0.005743366,2991,4075.9335581
2720,3645.863889,0.005771164,3002,3967.52833656
2730,3645.863889,0.005799389,3013,4019.64633549
2740,3645.863889,0.005838733,3024,3926.73674234
2750,3645.863889,0.005868241,3035,3983.60055293
2760,3645.863889,0.005900743,3046,3988.09846918
2770,3645.863889,0.005928113,3057,3953.10457493
2780,3645.863889,0.005953773,3068,3961.39847435
2790,3645.863889,0.005982854,3079,3973.12575061
2800,3645.863889,0.006017494,3090,4057.74196466
2810,3645.863889,0.00604187,3101,3902.43636654
2820,3645.863889,0.00606539,3112,3919.83475485
2830,3645.863889,0.006081213,3123,3909.21202949
2840,3645.863889,0.006101313,3134,4039.45195999
2850,3645.863889,0.006128255,3145,4058.5957963
2860,3645.863889,0.006153914,3156,3997.88415648
2870,3645.863889,0.006181283,3167,3962.67425123
2880,3645.863889,0.006209508,3178,3955.17522705
2890,3645.863889,0.00622918,3189,3997.88415648
2900,3645.863889,0.006248852,3200,3887.48593101
2910,3645.863889,0.006269379,3211,3935.19600473
2920,3645.863889,0.006296749,3222,3997.88415648
2930,3645.863889,0.006324119,3233,3960.21162253
2940,3645.863889,0.006354054,3244,3921.35577743
2950,3645.863889,0.006380996,3255,3904.64695575
2960,3645.863889,0.006401951,3266,4007.60166776
2970,3645.863889,0.006454125,3277,4035.55669042
2980,3645.863889,0.00647508,3288,3873.18074594
2990,3645.863889,0.006488765,3299,3954.75411431
3000,3645.863889,0.006501594,3310,3851.94142796
3010,3645.863889,0.006514851,3321,3997.88415648
3020,3645.863889,0.006536661,3332,3997.88415648
3030,3645.863889,0.006551202,3343,3997.88415648
3040,3645.863889,0.006564032,3354,3997.88415648
3050,3645.863889,0.006577717,3365,4031.70272368
3060,3645.863889,0.006599955,3376,4028.96322339
3070,3645.863889,0.006618344,3387,3857.04453547
3080,3645.863889,0.006641009,3398,3881.0453259
3090,3645.863889,0.006665386,3409,3997.88415648
3100,3645.863889,0.006683775,3420,3997.88415648
3110,3645.863889,0.006700882,3431,3997.88415648
3120,3645.863889,0.006717132,3442,3997.88415648
3130,3645.863889,0.006738087,3453,3966.80508957
3140,3645.863889,0.006753483,3464,3978.27727951
3150,3645.863889,0.006771444,3475,4021.34339771
3160,3645.863889,0.006784274,3486,3908.1737784
3170,3645.863889,0.006798387,3497,3976.98488927
3180,3645.863889,0.006821908,3508,3997.88415648
3190,3645.863889,0.006852699,3519,3997.88415648
3200,3645.863889,0.006879213,3530,4014.59229572
3210,3645.863889,0.006903589,3541,4018.60202918
3220,3645.863889,0.006928392,3552,3818.46340031
3230,3645.863889,0.006944215,3563,3950.16026151
3240,3645.863889,0.006960465,3574,3925.22296839
3250,3645.863889,0.006978426,3585,4110.90175832
3260,3645.863889,0.00699596,3596,3904.64695575
3270,3645.863889,0.007018198,3607,3946.29191163
3280,3645.863889,0.007035732,3618,3997.88415648
3290,3645.863889,0.007055832,3629,3909.87225494
3300,3645.863889,0.007077642,3640,3997.88415648
3310,3645.863889,0.007096031,3651,3904.90531858
3320,3645.863889,0.007111427,3662,4016.34486919
3330,3645.863889,0.00712810599999,3673,4048.61200728
3340,3645.863889,0.007150344,3684,3927.46434597
3350,3645.863889,0.007171726,3695,4022.64256234
3360,3645.863889,0.007190543,3706,3962.34774092
3370,3645.863889,0.007208505,3717,3899.25671315
3380,3645.863889,0.007229033,3728,4057.74196466
3390,3645.863889,0.007248277,3739,3974.19321277
3400,3645.863889,0.007266238,3750,3970.6930884
3410,3645.863889,0.007283344,3761,3997.88415648
3420,3645.863889,0.00730045,3772,3953.87820571
3430,3645.863889,0.007320977,3783,3978.44913392
3440,3645.863889,0.007338939,3794,3997.88415648
3450,3645.863889,0.007354335,3805,3909.87225494
3460,3645.863889,0.00736973,3816,3955.17522705
3470,3645.863889,0.007385553,3827,4039.6826909
3480,3645.863889,0.007402232,3838,4041.01419864
3490,3645.863889,0.007417627,3849,3923.47177608
3500,3645.863889,0.007438582,3860,4021.34339771
3510,3645.863889,0.007452695,3871,3899.28024966
3520,3645.863889,0.007467663,3882,3951.22156462
3530,3645.863889,0.007480065,3893,3951.22156462
3540,3645.863889,0.007494177,3904,3979.42344376
3550,3645.863889,0.007508289,3915,4031.70272368
3560,3645.863889,0.007521974,3926,3800.62926982
3570,3645.863889,0.007543784,3937,3960.21162253
3580,3645.863889,0.007556614,3948,3985.95544173
3590,3645.863889,0.007569444,3959,3997.88415648
3600,3645.863889,0.007583129,3970,3997.88415648
3610,3645.863889,0.007602373,3981,4014.79344008
3620,3645.863889,0.007619479,3992,3997.88415648
3630,3645.863889,0.007637868,4003,3997.88415648
3640,3645.863889,0.007669514,4014,3937.17251665
3650,3645.863889,0.007696029,4025,3912.89659752
3660,3645.863889,0.00771955,4036,4016.34486919
3670,3645.863889,0.007740077,4047,3997.88415648
3680,3645.863889,0.007764453,4058,3997.88415648
3690,3645.863889,0.007788401,4069,4060.58195811
3700,3645.863889,0.007817909,4080,3925.22296839
3710,3645.863889,0.007837581,4091,4085.89605801
3720,3645.863889,0.007859818,4102,3968.32678081
3730,3645.863889,0.007886333,4113,3997.88415648
3740,3645.863889,0.007898735,4124,4058.5957963
3750,3645.863889,0.007912847,4135,3899.25671315
3760,3645.863889,0.007936368,4146,4016.94470717
3770,3645.863889,0.007954329,4157,3979.42344376
3780,3645.863889,0.007973574,4168,3978.31278188
3790,3645.863889,0.007999233,4179,3955.17522705
3800,3645.863889,0.008019332,4190,3997.88415648
3810,3645.863889,0.00803986,4201,4016.94470717
3820,3645.863889,0.008071506,4212,3997.88415648
3830,3645.863889,0.008096737,4223,3997.88415648
3840,3645.863889,0.008112133,4234,4029.22823235
3850,3645.863889,0.008138219,4245,3978.27727951
3860,3645.863889,0.00815618,4256,4048.61200728
3870,3645.863889,0.008171148,4267,4008.24309283
3880,3645.863889,0.008194241,4278,4022.68828327
3890,3645.863889,0.008212202,4289,3988.09846918
3900,3645.863889,0.008225459,4300,4039.6826909
3910,3645.863889,0.008245987,4311,3997.88415648
3920,3645.863889,0.00826737,4322,4003.06362465
3930,3645.863889,0.008286186,4333,4033.07301832
3940,3645.863889,0.00830885199999,4344,3923.60893889
3950,3645.863889,0.008328524,4355,3997.88415648
3960,3645.863889,0.008340499,4366,4073.22922437
3970,3645.863889,0.008359316,4377,4036.148346
3980,3645.863889,0.008380271,4388,3976.98488927
3990,3645.863889,0.008395667,4399,3997.88415648
4000,3645.863889,0.008417905,4410,3910.25503354
4010,3645.863889,0.008438005,4421,4016.34486919
4020,3645.863889,0.008454256,4432,3997.88415648
4030,3645.863889,0.008476066,4443,4008.24309283
4040,3645.863889,0.008492745,4454,3997.88415648
4050,3645.863889,0.008504719,4465,4016.94470717
4060,3645.863889,0.008526102,4476,3984.28862244
4070,3645.863889,0.008543208,4487,4022.83580553
4080,3645.863889,0.00856288,4498,3947.98085838
4090,3645.863889,0.00858597299999,4509,3921.35577743
4100,3645.863889,0.00861676399999,4520,3968.03110211
4110,3645.863889,0.00864584399999,4531,4018.78342369
4120,3645.863889,0.00867449699999,4542,3997.88415648
4130,3645.863889,0.00869374199999,4553,3972.93250743
4140,3645.863889,0.00871897299999,4564,3948.36734475
4150,3645.863889,0.00874206599999,4575,4058.5957963
4160,3645.863889,0.00876216599999,4586,3904.90531858
4170,3645.863889,0.00878141099999,4597,3974.639447
4180,3645.863889,0.008805359,4608,3806.9885766
4190,3645.863889,0.008824604,4619,4061.64665848
4200,3645.863889,0.008844276,4630,3964.467878
4210,3645.863889,0.00886223799999,4641,3959.76305509
4220,3645.863889,0.008884476,4652,3997.88415648
4230,3645.863889,0.008902865,4663,3986.05645311
4240,3645.863889,0.008921682,4674,3997.88415648
4250,3645.863889,0.008938788,4685,3968.67444883
4260,3645.863889,0.008954611,4696,4016.34486919
4270,3645.863889,0.008972144,4707,3903.02093763
4280,3645.863889,0.008988822,4718,3982.95762929
4290,3645.863889,0.009006783,4729,3997.88415648
4300,3645.863889,0.009024744,4740,3974.19321277
4310,3645.863889,0.009040568,4751,3989.9990209
4320,3645.863889,0.009061951,4762,3955.390377
4330,3645.863889,0.009084617,4773,3919.45664861
4340,3645.863889,0.00910728299999,4784,4018.60202918
4350,3645.863889,0.00913764599999,4795,3956.31635296
4360,3645.863889,0.00915688999999,4806,3950.45254705
4370,3645.863889,0.00917228599999,4817,3979.42344376
4380,3645.863889,0.00919067599999,4828,3806.9885766
4390,3645.863889,0.00923001999999,4839,4125.40916049
4400,3645.863889,0.00925567899999,4850,3976.78645618
4410,3645.863889,0.00928048299999,4861,3997.88415648
4420,3645.863889,0.00930485899999,4872,3939.06352557
4430,3645.863889,0.00933736099999,4883,3909.87225494
4440,3645.863889,0.00936729699999,4894,3997.88415648
4450,3645.863889,0.00939252799999,4905,4022.83580553
4460,3645.863889,0.00941604899999,4916,3818.46340031
4470,3645.863889,0.00943956999999,4927,3976.98488927
4480,3645.863889,0.00946266399999,4938,3904.55897276
4490,3645.863889,0.00948703999999,4949,3979.99108436
4500,3645.863889,0.00951098899999,4960,3962.34774092
4510,3645.863889,0.00953493699999,4971,3988.1666452
4520,3645.863889,0.00955931399999,4982,3958.33812296
4530,3645.863889,0.00958240699999,4993,3904.64695575
4540,3645.863889,0.00959823099999,5004,3997.88415648
4550,3645.863889,0.00968033999999,5015,3869.75736819
4560,3645.863889,0.00970899299999,5026,3973.66376045
4570,3645.863889,0.00976715399999,5037,3980.97487288
4580,3645.863889,0.00979281299999,5048,3997.04010179
4590,3645.863889,0.00981419599999,5059,3974.16835177
4600,3645.863889,0.00987877199999,5070,3976.45875116
4610,3645.863889,0.00990400299999,5081,4036.148346
4620,3645.863889,0.00993137299999,5092,3997.88415648
4630,3645.863889,0.00994719599999,5103,3973.12575061
4640,3645.863889,0.00996472999999,5114,3909.87225494
4650,3645.863889,0.00998397399999,5125,3974.639447
4660,3645.863889,0.010012627,5136,3976.98488927
4670,3645.863889,0.010038714,5147,3997.88415648
4680,3645.863889,0.010063946,5158,4003.84851385
4690,3645.863889,0.010089605,5169,3997.60280492
4700,3645.863889,0.010110132,5180,3991.9197991
4710,3645.863889,0.010137501,5191,3997.88415648
4720,3645.863889,0.010164016,5202,3997.88415648
4730,3645.863889,0.010196945,5213,3827.04843876
4740,3645.863889,0.010222604,5224,3997.88415648
4750,3645.863889,0.010245697,5235,4016.34486919
4760,3645.863889,0.010271356,5246,3981.17601724
4770,3645.863889,0.010299153,5257,3980.97487288
4780,3645.863889,0.0103308,5268,4039.6826909
4790,3645.863889,0.010357315,5279,4018.60202918
4800,3645.863889,0.010374849,5290,4018.60202918
4810,3645.863889,0.010393665,5301,4013.42256101
4820,3645.863889,0.010410771,5312,3967.95525239
4830,3645.863889,0.010427878,5323,3997.88415648
4840,3645.863889,0.010449688,5334,3967.95525239
4850,3645.863889,0.010467222,5345,3942.50201833
4860,3645.863889,0.010483473,5356,3997.88415648
4870,3645.863889,0.010500151,5367,3970.6930884
4880,3645.863889,0.010515547,5378,3997.88415648
4890,3645.863889,0.010539496,5389,3948.36734475
4900,3645.863889,0.010570714,5400,3979.99108436
4910,3645.863889,0.010587392,5411,3993.94158869
4920,3645.863889,0.010601932,5422,3901.00257235
4930,3645.863889,0.01068233,5433,3974.639447
4940,3645.863889,0.010701574,5444,3984.28862244
4950,3645.863889,0.01071697,5455,3962.34774092
4960,3645.863889,0.010732793,5466,4029.22823235
4970,3645.863889,0.010752038,5477,4039.6826909
4980,3645.863889,0.01077171,5488,3997.04010179
4990,3645.863889,0.010788816,5499,3904.90531858
