it,funval,time,funcount,weight
0,4159.24120844,0.02436424,999,3740.32536496
10,4415.10918686,0.045772972,2100,3651.88385628
20,4395.1407236,0.0662177740001,3201,3955.90888926
30,4400.85879825,0.0842266650001,4302,3941.62528572
40,4369.54280106,0.103532627,5403,3941.62528572
50,4400.9916734,0.120226057,6504,3678.85497624
60,4380.37702416,0.136816424,7605,3941.62528572
70,4404.05227793,0.153057397,8706,3941.62528572
80,4390.30077585,0.169793166,9807,3941.62528572
90,4372.54196637,0.186383532,10908,3892.3233323
100,4404.05227793,0.203003834,12009,3621.05492346
110,4431.1997837,0.21945949,13110,3896.84570417
120,4400.85879825,0.236489484,14211,3941.62528572
130,4402.45382102,0.253044355,15312,3941.62528572
140,4404.05227793,0.26907364,16413,3941.62528572
150,4404.05227793,0.28559772,17514,3941.62528572
160,4395.0897159,0.303748164,18615,3719.30557807
170,4390.06348993,0.319894199,19716,3941.62528572
180,4400.85879825,0.336669311,20817,3941.62528572
190,4391.37617617,0.353029173,21918,3941.62528572
200,4402.19550807,0.369009707,23019,3941.62528572
210,4402.45382102,0.386725228,24120,3865.16094448
220,4379.54381703,0.403472971,25221,3941.62528572
230,4400.9916734,0.420210022,26322,3941.62528572
240,4404.05227793,0.436887202,27423,3941.62528572
250,4404.05227793,0.453253906,28524,3816.24898223
260,4380.62908627,0.469915263,29625,3941.62528572
270,4406.09996747,0.487741974,30726,3918.26729499
280,4404.49634759,0.504179668,31827,3941.62528572
290,4404.05227793,0.520520285,32928,3890.30198753
300,4403.96588615,0.536532037,34029,3922.56473502
310,4404.05227793,0.553643712,35130,3871.80594675
320,4426.80698415,0.569767936,36231,3941.62528572
330,4400.78740676,0.585762154,37332,3852.29862758
340,4405.9090478,0.602596282,38433,3983.19308923
350,4369.54280106,0.619027989,39534,3941.62528572
360,4400.78740676,0.635706024,40635,3948.76708749
370,4388.52503611,0.653866731,41736,3754.6735277
380,4390.06348993,0.670595229,42837,3878.93713397
390,4410.42346298,0.687339123,43938,3923.42600224
400,4404.05227793,0.704100551,45039,3941.62528572
410,4404.05227793,0.720891059,46140,3805.52485019
420,4400.9916734,0.737174798,47241,3941.62528572
430,4400.9916734,0.753839148,48342,3906.41538046
440,4400.78740676,0.770422245,49443,3880.96917241
450,4400.9916734,0.787043403,50544,3941.62528572
460,4391.73976095,0.803830917,51645,3941.62528572
470,4400.9916734,0.820452075,52746,3904.72778532
480,4390.06348993,0.838233455,53847,3941.62528572
490,4390.06348993,0.854644207,54948,3941.62528572
500,4404.05227793,0.871523666,56049,3701.21289411
510,4400.85879825,0.888064853,57150,3941.62528572
520,4414.25583542,0.904417872,58251,3239.02067176
530,4404.05227793,0.921023206,59352,3838.44079602
540,4423.8454919,0.937744006,60453,3979.88947524
550,4369.38622541,0.954435299,61554,3929.69657097
560,4392.14831325,0.972170492,62655,3893.27059603
570,4373.29255728,0.988467061,63756,3941.62528572
580,4400.85879825,1.006962194,64857,3914.02572935
590,4369.38622541,1.023519631,65958,3876.3531954
600,4399.69954616,1.040196383,67059,3911.2694658
610,4390.06348993,1.056259025,68160,3848.300102
620,4403.89825444,1.073131215,69261,3941.62528572
630,4388.8149135,1.089442752,70362,3962.52455293
640,4391.37617617,1.106131051,71463,3941.62528572
650,4391.37617617,1.122484498,72564,3941.62528572
660,4373.29255728,1.138963247,73665,3941.62528572
670,4400.9916734,1.155715694,74766,3896.84570417
680,4400.85879825,1.173062578,75867,3432.47006672
690,4400.85879825,1.191180521,76968,3941.62528572
700,4404.05227793,1.207514296,78069,3988.11470466
710,4400.85879825,1.224149994,79170,3941.62528572
720,4359.90674484,1.240346492,80271,3941.62528572
730,4400.85879825,1.257064299,81372,3983.42382014
740,4400.85879825,1.273830431,82473,3941.62528572
750,4404.05227793,1.291193566,83574,3912.06791005
760,4400.9916734,1.308027267,84675,3962.52455293
770,4401.73586768,1.325292897,85776,3902.0792522
780,4416.12661814,1.341779343,86877,3921.46521051
790,4409.64630288,1.358443265,87978,3781.01455939
800,4416.35870274,1.37726598,89079,3938.56493432
810,4385.92632223,1.394450356,90180,4104.85336762
820,4399.91511023,1.411115989,91281,3573.29630326
830,4399.74637215,1.427950117,92382,3902.0792522
840,4422.7753953,1.444899712,93483,3981.14002579
850,4395.04372152,1.461095355,94584,3985.67632104
860,4374.91961957,1.478109097,95685,3902.0792522
870,4396.72163055,1.494542942,96786,3923.84143121
880,4434.56302095,1.511251768,97887,3872.52187653
890,4403.05997522,1.527724102,98988,3902.0792522
900,4403.26424186,1.544317034,100089,3936.92748342
910,4396.65023906,1.56305379,101190,2821.99520228
920,4368.29165541,1.57953596,102291,3902.0792522
930,4395.04372152,1.596322619,103392,3965.63996563
940,4404.05227793,1.613495021,104493,3902.0792522
950,4412.4371885,1.63058959,105594,3886.30898104
960,4406.51112091,1.647351017,106695,3960.95905775
970,4399.91511023,1.664129978,107796,2313.54907404
980,4406.87608066,1.684938713,108897,2853.23336492
990,4399.91511023,1.701930217,109998,3902.0792522
1000,4386.57842057,1.71900212,111099,3902.0792522
1010,4396.72163055,1.7380934,112200,3902.0792522
1020,4396.72163055,1.754706432,113301,3902.0792522
1030,4400.43517028,1.771756953,114402,3902.0792522
1040,4417.18537435,1.789015313,115503,3902.0792522
1050,4398.21587973,1.805801972,116604,3902.0792522
1060,4428.32393703,1.822391483,117705,3846.88013946
1070,4399.91511023,1.839240151,118806,3902.0792522
1080,4431.38454156,1.855778771,119907,3902.0792522
1090,4375.40664933,1.872890446,121008,3961.19400352
1100,4400.6248209,1.889897774,122109,3798.40343225
1110,4410.70042033,1.907581649,123210,3990.09115373
1120,4417.39575356,1.92469589,124311,3902.0792522
1130,4399.02190001,1.941480839,125412,3902.0792522
1140,4396.8545057,1.958396222,126513,3798.8947625
1150,4410.8432937,1.976419654,127614,3884.18618008
1160,4399.91511023,1.993490275,128715,3596.26334434
1170,4425.62979922,2.009834314,129816,3941.62528572
1180,4403.10497803,2.026399449,130917,3902.0792522
1190,4409.24370882,2.043038995,132018,3902.0792522
1200,4399.91511023,2.061186873,133119,3882.64422964
1210,4394.67876177,2.078007317,134220,3902.0792522
1220,4440.16683166,2.094763185,135321,3902.0792522
1230,4392.02068258,2.111903085,136422,3902.0792522
1240,4396.8545057,2.128500294,137523,3902.0792522
1250,4396.65023906,2.145273696,138624,3941.62528572
1260,4399.91511023,2.16240932,139725,3827.22430504
1270,4409.37658397,2.179216934,140826,3945.60361023
1280,4387.23900847,2.196375651,141927,3909.22105397
1290,4379.12018906,2.214925523,143028,3374.36318152
1300,4385.92632223,2.231396574,144129,3783.69546286
1310,4417.19637856,2.247750449,145230,3902.0792522
1320,4410.63346579,2.264213374,146331,3886.30898104
1330,4414.96162702,2.280700676,147432,3902.0792522
1340,4385.92632223,2.297272226,148533,3902.0792522
1350,4387.62173927,2.313955393,149634,3902.0792522
1360,4417.18537435,2.330563293,150735,3902.0792522
1370,4399.91511023,2.347731846,151836,3902.0792522
1380,4396.8545057,2.364320502,152937,3925.7701959
1390,4396.8545057,2.382754053,154038,3951.39297386
1400,4388.97709713,2.399810989,155139,3902.0792522
1410,4395.04372152,2.417321236,156240,3951.39297386
1420,4399.91511023,2.433949663,157341,3982.48214552
1430,4425.62979922,2.450511804,158442,3902.0792522
1440,4396.65023906,2.467030325,159543,3902.0792522
1450,4382.54120201,2.484083839,160644,3721.30487451
1460,4406.49056192,2.500603214,161745,3771.67303147
1470,4396.65023906,2.51692031,162846,3902.0792522
1480,4399.91511023,2.533687297,163947,3902.0792522
1490,4403.9675661,2.549986859,165048,3902.0792522
1500,4399.91511023,2.567832387,166149,3983.24128901
1510,4428.19106188,2.584285904,167250,3902.0792522
1520,4415.993743,2.603493078,168351,3902.0792522
1530,4428.11967039,2.62065265,169452,3939.75178614
1540,4446.09648633,2.638214644,170553,3803.04562875
1550,4403.10497803,2.654636942,171654,3931.63662786
1560,4396.72163055,2.671857241,172755,4030.20604049
1570,4426.6867351,2.687928864,173856,3931.28895984
1580,4430.18466236,2.706282015,174957,3703.37301336
1590,4396.72163055,2.722828333,176058,3902.0792522
1600,4405.74958819,2.739320767,177159,3798.68521461
1610,4413.61493199,2.756336648,178260,3810.73313999
1620,4368.40479867,2.773277262,179361,3819.28058309
1630,4399.87423,2.78929885,180462,3902.0792522
1640,4396.72163055,2.806410952,181563,3902.0792522
1650,4395.04372152,2.823644508,182664,3886.54084767
1660,4400.38934069,2.840252836,183765,3870.73517633
1670,4399.91511023,2.856408707,184866,3895.17992803
1680,4444.16358392,2.872832716,185967,3895.17992803
1690,4370.65898942,2.890981877,187068,3827.6668718
1700,4378.96285432,2.907454212,188169,3857.22406316
1710,4385.92632223,2.924074514,189270,3745.21789476
1720,4420.69183236,2.941332874,190371,3868.260685
1730,4403.25841217,2.958286745,191472,3892.91920491
1740,4417.18537435,2.97495751,192573,3870.73517633
1750,4409.17231733,2.991896841,193674,3902.0792522
1760,4399.91511023,3.008371313,194775,3352.14679835
1770,4399.91511023,3.025333737,195876,3981.17131923
1780,4428.32393703,3.042193525,196977,3902.0792522
1790,4394.99773583,3.061195854,198078,3902.0792522
1800,4396.8545057,3.078053931,199179,3902.0792522
1810,4393.14096597,3.095087345,200280,3769.78673876
1820,4399.91511023,3.111725608,201381,3902.0792522
1830,4397.53261675,3.128336929,202482,3870.19800119
1840,4399.80484737,3.144579613,203583,3601.17063458
1850,4406.29845771,3.16160533,204684,3902.0792522
1860,4428.19106188,3.178057565,205785,3902.0792522
1870,4387.23900847,3.194663327,206886,3902.0792522
1880,4396.8545057,3.212067517,207987,3890.28493355
1890,4419.18722268,3.22897007,209088,3925.53849343
1900,4399.91511023,3.248036118,210189,3794.97454716
1910,4384.6777458,3.265118285,211290,3923.84143121
1920,4392.09275587,3.281494825,212391,3902.0792522
1930,4426.87837565,3.298809636,213492,3878.22182271
1940,4409.17231733,3.315515468,214593,3911.86493949
1950,4400.02791726,3.33215587,215694,3902.0792522
1960,4399.91511023,3.34889677,216795,3902.0792522
1970,4396.8545057,3.365566679,217896,3722.65849603
1980,4402.48159077,3.383162029,218997,3932.43507211
1990,4403.03358654,3.401006273,220098,3974.23128792
2000,4396.72163055,3.420267759,221199,3526.6074869
2010,4385.92632223,3.436802958,222300,3948.56867114
2020,4419.18722268,3.453888546,223401,3902.0792522
2030,4399.91511023,3.470676916,224502,3902.0792522
2040,4398.71127556,3.48742808,225603,3902.0792522
2050,4399.91511023,3.505231269,226704,3983.55454327
2060,4396.72163055,3.522756057,227805,3871.00018529
2070,4408.27614741,3.539725323,228906,3915.67478623
2080,4396.8545057,3.556231442,230007,3872.7221903
2090,4396.8545057,3.573255876,231108,3790.17389627
2100,4395.04372152,3.589786798,232209,3902.0792522
2110,4429.2525376,3.606777447,233310,3769.35041563
2120,4396.72163055,3.624730743,234411,3931.28895984
2130,4396.8545057,3.641405357,235512,3902.0792522
2140,4402.56782512,3.658937842,236613,3902.0792522
2150,4399.14986044,3.675680025,237714,3943.87778662
2160,4400.74831736,3.692321282,238815,3913.92472405
2170,4400.9916734,3.709406015,239916,3911.04980466
2180,4399.35412708,3.726784118,241017,3307.18974287
2190,4417.67785105,3.743676835,242118,3902.0792522
2200,4385.92632223,3.76035487,243219,3902.0792522
2210,4401.58152449,3.777326275,244320,3912.75321146
2220,4400.9916734,3.796030957,245421,3867.58507966
2230,4444.00693876,3.813181549,246522,3238.35222211
2240,4417.18537435,3.830489517,247623,3829.66308726
2250,4396.65023906,3.847701262,248724,3902.0792522
2260,4365.40563336,3.86426939,249825,4018.91808278
2270,4417.18537435,3.8809393,250926,3902.0792522
2280,4399.35412708,3.89800992,252027,3857.22406316
2290,4441.00003879,3.915526582,253128,3890.72313718
2300,4396.8545057,3.932203334,254229,3854.07613686
2310,4396.72163055,3.948866401,255330,3925.7701959
2320,4399.91511023,3.965750992,256431,4050.32845663
2330,4441.00003879,3.984434719,257532,3912.15222978
2340,4406.87608066,4.002019805,258633,3896.11489482
2350,4384.6777458,4.018800049,259734,3902.0792522
2360,4399.91511023,4.035313866,260835,3902.0792522
2370,4395.46685483,4.051552274,261936,3902.0792522
2380,4461.38372497,4.068498875,263037,3890.25154883
2390,4468.49488827,4.085142698,264138,3902.0792522
2400,4409.3945908,4.102368984,265239,3902.0792522
2410,4384.39584312,4.119180874,266340,3902.0792522
2420,4396.8545057,4.135830256,267441,3902.0792522
2430,4395.04372152,4.153962739,268542,3902.0792522
2440,4428.11967039,4.170546691,269643,3902.0792522
2450,4437.21901951,4.188443964,270744,3733.61952522
2460,4403.03358654,4.205311021,271845,3902.0792522
2470,4396.8545057,4.22213061,272946,3932.00815629
2480,4400.56804543,4.239232877,274047,3686.89901101
2490,4395.04372152,4.255960948,275148,3902.0792522
2500,4394.49816615,4.272616318,276249,3708.46709652
2510,4415.3468945,4.289399556,277350,3282.89800004
2520,4385.92632223,4.308338592,278451,3902.0792522
2530,4396.65023906,4.325476354,279552,3902.0792522
2540,4430.07185533,4.342566219,280653,3852.76553053
2550,4402.41473162,4.359671907,281754,4002.93349825
2560,4396.2015705,4.376660846,282855,3971.79732105
2570,4395.04372152,4.393817425,283956,3658.10968453
2580,4396.72163055,4.410477498,285057,3902.0792522
2590,4396.65023906,4.427747405,286158,3510.71280601
2600,4396.65023906,4.444103846,287259,3863.05455138
2610,4396.72163055,4.460893926,288360,3902.0792522
2620,4396.65023906,4.479135032,289461,3872.81599696
2630,4417.55145119,4.49657044,290562,3807.91368121
2640,4399.91511023,4.513271568,291663,3901.79790063
2650,4430.07185533,4.530315674,292764,3924.40369263
2660,4413.45195149,4.547701474,293865,3808.04702458
2670,4396.8545057,4.564452638,294966,3865.70031202
2680,4387.23900847,4.581950056,296067,3874.04412943
2690,4387.7830921,4.598903927,297168,3902.0792522
2700,4391.06334814,4.61516158,298269,3925.32396167
2710,4399.62948873,4.631593715,299370,3951.39297386
2720,4396.72163055,4.650054635,300471,3902.0792522
2730,4396.8545057,4.666652271,301572,3902.0792522
2740,4385.92632223,4.683913197,302673,3823.57152014
2750,4399.73345588,4.700496293,303774,4034.0971045
2760,4405.56339442,4.717235055,304875,3902.0792522
2770,4395.04372152,4.73369798,305976,2679.73491102
2780,4375.04168958,4.751043581,307077,3474.15717289
2790,4405.41421742,4.768017124,308178,3966.88771569
2800,4383.48053774,4.784404355,309279,3902.0792522
2810,4437.40664204,4.802221657,310380,3902.0792522
2820,4399.91511023,4.818988644,311481,4000.68315902
2830,4396.8545057,4.835948502,312582,3902.0792522
2840,4406.3248464,4.852657329,313683,3902.0792522
2850,4393.64365476,4.868840142,314784,3803.47534537
2860,4384.6777458,4.885157666,315885,3902.0792522
2870,4389.09577833,4.901962286,316986,3864.37102189
2880,4416.12661814,4.91894481,318087,3857.22406316
2890,4399.91511023,4.935775945,319188,3810.49189247
2900,4395.04372152,4.954737646,320289,3778.38858074
2910,4396.65023906,4.972193154,321390,3902.0792522
2920,4385.92632223,4.989315948,322491,3902.0792522
2930,4402.99832705,5.006746652,323592,3877.12760315
2940,4396.65023906,5.023522619,324693,3902.0792522
2950,4397.19586101,5.039816622,325794,3937.26811404
2960,4385.92632223,5.056360374,326895,3951.39297386
2970,4402.42254668,5.072815602,327996,3933.75813837
2980,4398.90437896,5.089792566,329097,3902.0792522
2990,4385.0408234,5.106806309,330198,3774.55424819
3000,4396.72163055,5.123708434,331299,3902.0792522
3010,4399.91511023,5.140637502,332400,3902.0792522
3020,4398.71127556,5.156953315,333501,3780.27425371
3030,4399.91511023,5.174220656,334602,3902.0792522
3040,4400.74831736,5.191313515,335703,3902.0792522
3050,4396.72163055,5.208036026,336804,3902.0792522
3060,4417.18537435,5.224887688,337905,3830.93183806
3070,4417.39575356,5.244088448,339006,3902.0792522
3080,4410.88756582,5.261391284,340107,3960.72467199
3090,4397.06846489,5.278491841,341208,3940.34344172
3100,4396.72163055,5.294813641,342309,3786.72450534
3110,4400.74831736,5.311451904,343410,3862.86549826
3120,4417.18537435,5.328118821,344511,3878.36344748
3130,4370.26156854,5.344848602,345612,3902.0792522
3140,4399.91511023,5.361411598,346713,3851.95483448
3150,4399.91511023,5.380412216,347814,3951.38120561
3160,4365.38418139,5.397227528,348915,3902.0792522
3170,4401.85064214,5.414197223,350016,3791.7380772
3180,4400.38934069,5.431389725,351117,3741.91186878
3190,4410.07438194,5.44780732,352218,3840.33169823
3200,4387.23900847,5.465190983,353319,3925.7701959
3210,4396.8545057,5.481633809,354420,3880.46488098
3220,4404.92457446,5.498491031,355521,3863.05455138
3230,4419.18722268,5.514850892,356622,3902.0792522
3240,4384.6777458,5.533214735,357723,3902.0792522
3250,4392.33096853,5.549987281,358824,3902.0792522
3260,4399.91511023,5.567069875,359925,3968.66853559
3270,4396.65023906,5.584628447,361026,3874.47969583
3280,4387.23900847,5.601049035,362127,3902.0792522
3290,4396.72163055,5.617678318,363228,3571.2841721
3300,4396.72163055,5.634677948,364329,3839.92111838
3310,4409.55116645,5.651414144,365430,3877.85885617
3320,4416.28731125,5.667973291,366531,3902.0792522
3330,4417.39575356,5.686971343,367632,3902.0792522
3340,4428.11967039,5.704511527,368733,3902.0792522
3350,4412.16680375,5.72198799,369834,3963.38746473
3360,4425.55840772,5.738934591,370935,3833.21894292
3370,4396.8545057,5.755099015,372036,3902.0792522
3380,4406.02851375,5.772229934,373137,3679.86286961
3390,4399.18137598,5.789494282,374238,3902.0792522
3400,4399.07451197,5.807456131,375339,3904.49129485
3410,4434.57440936,5.824354835,376440,3758.70583044
3420,4405.19843468,5.843783533,377541,3761.38443273
3430,4399.91511023,5.860615095,378642,4018.41070411
3440,4416.28731125,5.876946304,379743,3902.0792522
3450,4396.72163055,5.894137951,380844,3943.38805473
3460,4396.8545057,5.910345995,381945,3826.7341843
3470,4394.41070946,5.927360593,383046,3902.0792522
3480,4415.9223515,5.943788451,384147,3896.18143153
3490,4396.72163055,5.960644817,385248,3941.62528572
3500,4387.23900847,5.976937964,386349,3760.4162268
3510,4399.73345588,5.993859334,387450,3900.95384595
3520,4399.91511023,6.013690453,388551,3902.0792522
3530,4376.49191857,6.031039476,389652,3902.0792522
3540,4417.18537435,6.047599906,390753,3902.0792522
3550,4433.60704078,6.064478083,391854,3902.0792522
3560,4396.65023906,6.081363103,392955,3883.0187015
3570,4387.23900847,6.097765302,394056,3902.0792522
3580,4395.04372152,6.114733713,395157,3870.43270175
3590,4396.65023906,6.132009607,396258,3902.0792522
3600,4375.04701182,6.148859559,397359,3902.0792522
3610,4396.8545057,6.165502099,398460,3902.0792522
3620,4396.72163055,6.18224471,399561,3902.0792522
3630,4396.65023906,6.199222958,400662,3883.99428005
3640,4387.23900847,6.216178968,401763,3846.17749578
3650,4395.44088947,6.23258245,402864,3902.0792522
3660,4399.91511023,6.248830267,403965,3852.77729879
3670,4399.91511023,6.265317997,405066,3865.15782677
3680,4372.36935567,6.281965669,406167,3902.0792522
3690,4403.62864996,6.298817759,407268,3902.0792522
3700,4390.28993777,6.315426942,408369,3902.0792522
3710,4395.04372152,6.334111097,409470,3902.0792522
3720,4409.48832551,6.351008091,410571,3902.0792522
3730,4398.52091995,6.368124042,411672,3902.0792522
3740,4396.8545057,6.384897016,412773,3902.0792522
3750,4399.91511023,6.401377048,413874,3902.0792522
3760,4403.10576545,6.418491717,414975,3902.0792522
3770,4396.8545057,6.434666404,416076,3876.28312977
3780,4377.95417051,6.451164397,417177,3774.59791376
3790,4374.91961957,6.467995959,418278,3838.31675019
3800,4399.91511023,6.484608563,419379,3902.0792522
3810,4427.35813766,6.50178182,420480,3450.3850994
3820,4402.10518005,6.520299617,421581,3902.0792522
3830,4382.54120201,6.53709996,422682,3902.0792522
3840,4409.3945908,6.553736513,423783,3902.0792522
3850,4433.57359116,6.571077838,424884,3902.0792522
3860,4396.65023906,6.587726365,425985,3807.21603335
3870,4365.0192276,6.604074252,427086,3902.0792522
3880,4428.11967039,6.620549152,428187,3990.09115373
3890,4388.9458483,6.638046997,429288,3860.87671845
3900,4396.65023906,6.654908068,430389,3902.0792522
3910,4417.18537435,6.671489025,431490,3748.85620626
3920,4425.62979922,6.690327991,432591,3945.60361023
3930,4439.80067881,6.706982077,433692,3901.51654907
3940,4400.9916734,6.723582279,434793,3902.0792522
3950,4413.4137297,6.740458745,435894,3872.52187653
3960,4375.40664933,6.75717869,436995,3868.260685
3970,4374.04659624,6.773508616,438096,3852.76553053
3980,4399.91511023,6.789881734,439197,3902.0792522
3990,4407.21685495,6.806828335,440298,3902.0792522
4000,4396.72163055,6.823525615,441399,3902.0792522
4010,4396.8545057,6.840223323,442500,3980.93858127
4020,4396.8545057,6.857006988,443601,3902.0792522
4030,4396.8545057,6.87525622,444702,3775.11667463
4040,4382.54120201,6.891574599,445803,3811.01179246
4050,4389.42847932,6.90811664,446904,3551.47675163
4060,4399.91511023,6.924801945,448005,3902.0792522
4070,4399.91511023,6.941250758,449106,3805.19766807
4080,4399.91511023,6.958122092,450207,3902.0792522
4090,4408.15275743,6.974661567,451308,3902.0792522
4100,4416.35870274,6.991400328,452409,3922.97851941
4110,4396.8545057,7.007946646,453510,3727.17277903
4120,4377.08455836,7.024675999,454611,3817.09169324
4130,4417.18537435,7.042840556,455712,3902.0792522
4140,4417.18537435,7.059686231,456813,3902.0792522
4150,4431.40915116,7.076641385,457914,3967.33799941
4160,4403.05488535,7.093484495,459015,3902.0792522
4170,4362.15292462,7.109866167,460116,3902.0792522
4180,4429.70745262,7.126803787,461217,3984.83630375
4190,4400.38934069,7.14299387,462318,3902.0792522
4200,4440.86716365,7.159686872,463419,3902.0792522
4210,4435.43461037,7.176774171,464520,3902.0792522
4220,4396.8545057,7.193556126,465621,3902.0792522
4230,4433.05792015,7.21209659,466722,3902.0792522
4240,4395.04372152,7.228881539,467823,3902.0792522
4250,4382.54120201,7.245496282,468924,3773.07404068
4260,4406.35768677,7.262138394,470025,3902.0792522
4270,4393.1718729,7.279141873,471126,3902.0792522
4280,4397.19982408,7.295698882,472227,3890.25154883
4290,4454.99965061,7.312830229,473328,3902.0792522
4300,4396.8545057,7.329806766,474429,3902.0792522
4310,4396.8545057,7.346854294,475530,3777.37584166
4320,4394.67876177,7.363652927,476631,3886.46540363
4330,4426.6867351,7.38166695,477732,3902.0792522
4340,4403.23785318,7.398520323,478833,3774.55424819
4350,4396.65023906,7.415435277,479934,3853.26271957
4360,4395.04372152,7.432391286,481035,3706.83536321
4370,4403.25915199,7.449049649,482136,3902.0792522
4380,4387.23900847,7.466115138,483237,3902.0792522
4390,4424.97989527,7.483119472,484338,3512.35530976
4400,4417.18537435,7.500220456,485439,3910.46150814
4410,4395.72653721,7.516742826,486540,3902.0792522
4420,4395.04372152,7.535789631,487641,3062.23666913
4430,4397.32873616,7.55218627,488742,3964.54632292
4440,4400.56804543,7.568904504,489843,3704.01366948
4450,4396.8545057,7.585784392,490944,3902.0792522
4460,4396.8545057,7.602289228,492045,3902.0792522
4470,4395.04372152,7.618418585,493146,3811.01179246
4480,4415.993743,7.635224916,494247,3902.0792522
4490,4425.62979922,7.652074867,495348,3722.65849603
4500,4406.3248464,7.669100157,496449,3913.92472405
4510,4403.33593029,7.688376183,497550,3902.0792522
4520,4396.8545057,7.705383939,498651,3819.59238253
4530,4406.20111112,7.721998681,499752,3823.65174433
4540,4365.40563336,7.738795603,500853,3566.29800748
4550,4410.58041864,7.755262378,501954,3902.0792522
4560,4417.18537435,7.771512333,503055,3825.55087315
4570,4386.44319929,7.788053519,504156,4016.33339695
4580,4459.61251378,7.805813088,505257,3902.0792522
4590,4431.38454156,7.822459476,506358,3891.53040205
4600,4431.46055513,7.841248834,507459,3711.18367232
4610,4396.72163055,7.858126156,508560,3902.0792522
4620,4396.65023906,7.875127924,509661,3871.48065728
4630,4445.67876518,7.891817078,510762,4051.61516663
4640,4371.66933362,7.908463894,511863,3902.0792522
4650,4398.56154377,7.924712566,512964,3819.28058309
4660,4399.91511023,7.942036784,514065,3913.92472405
4670,4396.72163055,7.959245964,515166,3902.0792522
4680,4440.79577215,7.978386424,516267,3871.00018529
4690,4396.8545057,7.995400166,517368,3902.0792522
4700,4422.93880477,8.012307851,518469,3716.31865753
4710,4425.62979922,8.028829366,519570,3902.0792522
4720,4416.01743798,8.04553135,520671,3902.0792522
4730,4406.51112091,8.062031481,521772,3902.0792522
4740,4368.40479867,8.078631683,522873,3608.41776826
4750,4403.05488535,8.09514165,523974,3465.3459815
4760,4397.55483768,8.111977489,525075,3987.49711106
4770,4383.62999168,8.128802637,526176,3887.79564865
4780,4403.95948397,8.145105621,527277,3162.55684035
4790,4396.72163055,8.161610029,528378,3847.505841
4800,4413.30092267,8.178369746,529479,3902.0792522
4810,4398.38804481,8.194892543,530580,3882.64422964
4820,4410.56794924,8.211459816,531681,3902.0792522
4830,4402.8166727,8.228345263,532782,3902.0792522
4840,4431.42830219,8.245288443,533883,3885.28378883
4850,4403.05488535,8.263956774,534984,3931.28895984
4860,4399.91511023,8.280718201,536085,3784.10571081
4870,4396.8545057,8.297327384,537186,3580.15352737
4880,4399.91511023,8.314372345,538287,3902.0792522
4890,4396.8545057,8.331203052,539388,3902.0792522
4900,4387.56376785,8.347734402,540489,3844.02268285
4910,4402.99832705,8.364667318,541590,3857.22406316
4920,4417.18537435,8.381606222,542691,3854.64764277
4930,4437.73516762,8.398636643,543792,3902.0792522
4940,4387.23900847,8.417379386,544893,3902.0792522
4950,4396.8545057,8.433746518,545994,3902.0792522
4960,4426.9316619,8.450371952,547095,3902.0792522
4970,4394.30711295,8.466779711,548196,3902.0792522
4980,4395.87692865,8.483727167,549297,3902.0792522
4990,4399.91511023,8.500373556,550398,3802.27265599
