it,funval,time,funcount,weight
0,15524.9949428,0.482477992,999,13483.7931749
10,17074.1535093,0.932795204,2100,14400.4492707
20,17285.107447,1.373716026,3201,14035.4554022
30,17396.1082848,1.80407425,4302,14290.2305654
40,17825.4905664,2.229287381,5403,13397.0052474
50,17777.3150171,2.65487813,6504,14477.3598053
60,17428.4294653,3.082564378,7605,15402.1210063
70,18298.3731867,3.511338575,8706,14642.7203112
80,17882.8609828,3.93404951,9807,14991.2611884
90,17596.747178,4.360854365,10908,14616.5358236
100,17937.5445486,4.785511548,12009,14388.7592742
110,17945.0198351,5.21580434,13110,14028.9990808
120,18229.1564716,5.645969692,14211,14816.1781473
130,17789.1253991,6.075894703,15312,15082.8919399
140,18060.8732431,6.499543908,16413,15727.9653915
150,18165.3897103,6.923361608,17514,15300.6821914
160,18015.5362978,7.343259442,18615,15069.920853
170,18425.0952932,7.768611133,19716,14542.9569948
180,18194.8924183,8.194587197,20817,14050.4570584
190,18048.910294,8.616891006,21918,15352.564995
200,17787.1854645,9.042282041,23019,14029.761162
210,18565.7566561,9.469211343,24120,14967.5936517
220,18070.781461,9.892135249,25221,15317.3939785
230,17670.3481609,10.321745507,26322,15123.2666002
240,17793.6912871,10.754831301,27423,14895.2394857
250,17488.2470465,11.184200363,28524,13662.2623077
260,17674.4388129,11.609242005,29625,13987.7484625
270,17796.8028971,12.043826294,30726,14552.5780692
280,17664.546224,12.474966267,31827,14283.9349563
290,17977.1851063,12.899826157,32928,14116.8631211
300,17848.174123,13.328402351,34029,14553.8798113
310,17499.7633845,13.752096032,35130,15554.1037914
320,17730.4113757,14.177596974,36231,15392.6376309
330,17718.077144,14.597292956,37332,15644.0356973
340,17870.8253246,15.013390667,38433,14909.2231436
350,18036.7574514,15.432568334,39534,15715.9817311
360,17687.2670704,15.857055738,40635,15320.4967384
370,17519.9849024,16.286698071,41736,14526.4071041
380,17443.2347882,16.714523306,42837,14706.1659992
390,17722.702912,17.136948568,43938,14109.0639014
400,17893.2818188,17.563593482,45039,14773.0362772
410,18000.2804395,17.992312512,46140,13977.0139098
420,18115.1132324,18.419350866,47241,14865.4727646
430,18013.3856681,18.846522648,48342,14454.0833972
440,17956.8568787,19.275877597,49443,15096.260859
450,18018.5216522,19.708371946,50544,14676.1348772
460,17984.2838816,20.139958389,51645,13965.0462193
470,17768.9276911,20.574976319,52746,15194.5848255
480,17500.2175774,21.00930145,53847,13859.363589
490,17772.2305987,21.443686453,54948,14525.3650637
500,17452.5696338,21.872940904,56049,13400.1538791
510,17916.121381,22.304857495,57150,15089.9290304
520,18124.576694,22.731076894,58251,14671.4643806
530,17633.2931532,23.152286767,59352,15766.436937
540,17969.6077752,23.570893945,60453,15289.2152206
550,17903.8521129,23.992835532,61554,14767.1463421
560,17440.4386131,24.419840102,62655,13606.205361
570,17867.8769228,24.852054767,63756,14852.417737
580,17566.6572218,25.284724027,64857,15018.8491596
590,17972.0497931,25.722368173,65958,15514.3348997
600,18118.9827562,26.153123686,67059,14318.0985789
610,17948.4334776,26.583009781,68160,14699.4444639
620,17628.2460475,27.010680206,69261,13624.0854083
630,18005.2225098,27.438634164,70362,13939.5805846
640,17507.6114628,27.869547909,71463,15081.9741794
650,17846.5839981,28.298077061,72564,15524.8796638
660,17679.7307269,28.72798411,73665,14687.6808403
670,18215.3322603,29.151266389,74766,15006.8108227
680,17940.3959868,29.574236053,75867,15107.129826
690,17978.8300524,29.999742127,76968,14494.2537047
700,17929.7989175,30.423050065,78069,14547.9301289
710,17576.9363764,30.841170146,79170,14800.9620477
720,17564.8701406,31.263306315,80271,15093.4963903
730,18282.8031034,31.689093785,81372,14669.6439597
740,17687.7303284,32.120794411,82473,15167.1790548
750,17731.5192155,32.549984287,83574,15429.0689742
760,17531.5083299,32.983048271,84675,15183.4314215
770,17644.4291643,33.408879361,85776,14866.6818577
780,17478.9137519,33.840125392,86877,15189.6821453
790,17357.9487411,34.271096442,87978,14830.8194901
800,17525.3039002,34.705279593,89079,14313.1290425
810,17640.9854829,35.134274886,90180,14205.2724293
820,17740.9728208,35.558611329,91281,14324.1142116
830,17288.2574039,35.982417483,92382,14966.5303322
840,17433.7001217,36.420674883,93483,14140.9442645
850,17483.6796973,36.85221129,94584,14760.3849663
860,17611.2293811,37.280349567,95685,14262.491582
870,17682.3954877,37.712596733,96786,15409.6591052
880,17510.6140429,38.141314052,97887,14280.8038444
890,17890.029933,38.577559345,98988,14473.5753259
900,17651.2009655,39.009491759,100089,13641.6044575
910,17774.5711455,39.44016388,101190,15149.6237692
920,18035.5144069,39.872846396,102291,15410.7269432
930,17463.0555338,40.299283898,103392,14712.2308118
940,17588.9771333,40.728090597,104493,15880.3792505
950,17836.6153528,41.156840418,105594,14790.8034866
960,17546.4333546,41.588124082,106695,15785.0221396
970,17404.588776,42.019804608,107796,15144.5402912
980,17568.843243,42.451635668,108897,14568.6699302
990,17913.7799862,42.878643231,109998,14371.4410097
1000,18118.8154753,43.310648774,111099,14671.8448905
1010,18195.7030647,43.738791328,112200,15016.81119
1020,17709.9369525,44.167645496,113301,14799.513736
1030,17930.4647588,44.63411815,114402,15192.5969183
1040,17913.1230738,45.084237358,115503,14439.7802048
1050,18162.2758612,45.549097762,116604,13610.1697524
1060,17702.3794272,46.001135849,117705,13858.0391793
1070,17723.8159358,46.439979989,118806,15313.3141609
1080,17670.5087855,46.883239217,119907,13887.3401195
1090,17841.2670594,47.333480734,121008,14583.7894133
1100,17909.7842687,47.757470351,122109,14921.5441605
1110,18181.3953057,48.194127901,123210,15399.6493887
1120,17879.314397,48.637041158,124311,14147.2187763
1130,18128.6603927,49.061957498,125412,15357.6968679
1140,17981.2426663,49.507465752,126513,14303.0561061
1150,17899.1646613,49.948259989,127614,13086.5713008
1160,17821.5700798,50.392283861,128715,14700.9535161
1170,17907.2932722,50.876002474,129816,14906.285354
1180,17820.705497,51.426642777,130917,15110.6990152
1190,17697.4817304,51.857486386,132018,13942.8582382
1200,18263.3821195,52.286704059,133119,14839.005728
1210,18371.0280921,52.722758619,134220,14470.6529724
1220,17873.8804576,53.146627209,135321,14957.2979672
1230,17489.3050289,53.567907644,136422,13976.9033287
1240,17437.0185778,53.994233528,137523,14831.9872264
1250,17944.6208152,54.419663052,138624,14852.6865029
1260,18021.512574,54.847995484,139725,13983.735873
1270,17636.1110737,55.289928133,140826,15185.2830847
1280,17909.9005533,55.797669292,141927,13658.8258976
1290,17864.7008864,56.419115657,143028,14500.1950404
1300,18069.648112,57.036109727,144129,14710.7372902
1310,17998.0312982,57.730041118,145230,14352.4363255
1320,18234.7975459,58.353075786,146331,15222.7052138
1330,18108.3899188,58.933423425,147432,14594.3916146
1340,17807.6723308,59.407144796,148533,13585.8936898
1350,17866.8041367,60.006406239,149634,15355.2839879
1360,18239.9377393,60.598773918,150735,14837.3402965
1370,18073.2484974,61.194750132,151836,15270.2865039
1380,17554.08475,61.806186854,152937,15631.5440529
1390,17728.1964183,62.317865413,154038,14479.2955632
1400,18209.2459106,62.851766099,155139,14381.4920915
1410,17974.7289406,63.427368501,156240,15201.0479236
1420,17830.572452,64.012419894,157341,14777.4898406
1430,18030.2568049,64.596722895,158442,15099.2583883
1440,17864.9129542,65.203427637,159543,15158.2515016
1450,18188.5843557,65.748365617,160644,14926.1617302
1460,18066.9472988,66.329644257,161745,14656.2746833
1470,18595.575249,66.952007938,162846,14879.0339319
1480,18126.852301,67.55837569,163947,14588.8164426
1490,17688.7802127,68.152007511,165048,13867.9478121
1500,18143.9209804,68.753111283,166149,14256.1277646
1510,17685.0190381,69.308426688,167250,13977.2433294
1520,17744.548431,69.887822372,168351,14365.1937122
1530,18064.4852495,70.484926734,169452,14338.8598068
1540,17792.3882976,71.056120035,170553,15290.8721974
1550,18181.3249039,71.616777252,171654,14800.3694344
1560,17729.8088269,72.183538359,172755,15062.5773344
1570,17978.6609325,72.806469535,173856,14395.9098879
1580,17911.0491427,73.391105677,174957,13946.9269129
1590,18011.5280737,73.97182794,176058,14471.0779502
1600,17958.3388943,74.507487562,177159,14640.139979
1610,18020.7873904,75.088892786,178260,14965.2023887
1620,17708.1710858,75.690976311,179361,14469.229508
1630,17865.3354498,76.269403361,180462,15281.0931545
1640,17597.6626601,76.888443323,181563,15070.7580743
1650,17811.8261763,77.392507094,182664,15097.1524099
1660,17735.036977,77.985428584,183765,14572.9351254
1670,17343.750035,78.574759072,184866,15321.5491304
1680,17418.9680622,79.158648104,185967,14316.511912
1690,17452.2963272,79.769540851,187068,14329.9751978
1700,17929.882836,80.334736321,188169,14569.3473618
1710,17605.6303476,80.900548039,189270,14396.8679912
1720,17937.9650802,81.517154656,190371,14669.5863503
1730,17585.7381874,82.133292566,191472,14559.9151175
1740,17751.132188,82.739017983,192573,14310.6832958
1750,18014.2315772,83.297511276,193674,15321.6324706
1760,17871.2038292,83.861184301,194775,14624.0455428
1770,17797.1420285,84.417752729,195876,14697.962046
1780,17676.6828673,84.962540602,196977,14348.4090934
1790,17906.4443018,85.552713567,198078,15101.4459188
1800,17852.5613758,86.102330069,199179,14391.944778
1810,17809.1380879,86.677505246,200280,16026.214347
1820,17759.8827348,87.265426617,201381,14013.1678008
1830,17662.531175,87.848539032,202482,13754.4692659
1840,18029.4136347,88.41506664,203583,14090.3949302
1850,17442.9774526,88.966566526,204684,14231.3114014
1860,17587.8076768,89.586603775,205785,14543.5731148
1870,18037.1679467,90.195885981,206886,15572.136923
1880,17841.8665398,90.792849218,207987,15371.8270557
1890,17593.248544,91.418054224,209088,14803.9250371
1900,17641.0968795,91.960061071,210189,14839.6750406
1910,17464.6546452,92.546367625,211290,14778.4871612
1920,17641.0985259,93.154889464,212391,15054.245901
1930,17909.8852335,93.808480359,213492,14932.8486838
1940,17580.9333584,94.428637778,214593,13992.9598913
1950,17725.8405051,95.027665295,215694,14426.4197572
1960,17652.3281051,95.611949479,216795,14427.9009948
1970,17812.0359891,96.213308988,217896,14274.4701473
1980,18104.1434703,96.802023228,218997,13882.3309458
1990,18094.5796584,97.413619036,220098,13070.8943165
2000,18149.666733,97.950607804,221199,14014.6042296
2010,18029.0526822,98.541289247,222300,15005.4511357
2020,18378.8543928,99.119783011,223401,15097.0420443
2030,18241.9050907,99.683096808,224502,15777.2084374
2040,18210.3248565,100.254619829,225603,14918.7893706
2050,18051.759775,100.797431091,226704,14599.1221087
2060,18268.0979027,101.340739713,227805,14445.2598833
2070,17864.3515191,101.943143122,228906,15295.1119566
2080,17900.2637788,102.547012097,230007,13821.7389002
2090,17790.7322621,103.120377875,231108,14625.2522146
2100,17926.766303,103.686126299,232209,14977.2332367
2110,17874.1813158,104.23517445,233310,15486.7354526
2120,17616.8615723,104.790540318,234411,14806.5704868
2130,17854.1206504,105.35828802,235512,14368.1418887
2140,17717.9726342,105.958895287,236613,14921.0002483
2150,17928.2141129,106.518504754,237714,14681.0301822
2160,17975.181548,107.075297272,238815,15047.2896113
2170,17857.72258,107.645239689,239916,15135.6913863
2180,17812.7644596,108.222328185,241017,13599.506581
2190,17605.037082,108.805481227,242118,14642.8256697
2200,17858.0905461,109.383444273,243219,14071.8846488
2210,17691.1154537,109.948836035,244320,14334.0600471
2220,17454.9034178,110.500072487,245421,14925.4018627
2230,17592.0049388,111.101503842,246522,14118.2074712
2240,17800.3391656,111.687815528,247623,14499.9940238
2250,17756.1185527,112.242307701,248724,13502.1149351
2260,17585.4282161,112.780865527,249825,15357.9771379
2270,17850.5254378,113.356074489,250926,14280.6418857
2280,17768.9558035,113.923200812,252027,15584.9066505
2290,17883.3594968,114.505741028,253128,14682.9536787
2300,18129.215117,115.056107206,254229,15093.8621504
2310,18014.1177707,115.623499101,255330,14888.9814912
2320,17814.0503196,116.187846962,256431,14330.0492327
2330,17847.6346697,116.729689162,257532,15094.5249591
2340,17904.4640075,117.273229144,258633,14957.2785156
2350,17577.8198444,117.866645856,259734,15671.3434093
2360,17580.7888478,118.402745533,260835,14952.2674635
2370,17453.9921973,118.982762169,261936,14283.4714049
2380,17344.3010487,119.562206605,263037,14651.8276316
2390,17707.6419697,120.122792404,264138,14656.7514258
2400,17815.560706,120.697855964,265239,13954.3107211
2410,17791.643348,121.214864361,266340,14838.6492928
2420,18124.9730051,121.805017653,267441,14091.6471377
2430,17713.5480383,122.383706427,268542,13774.9073499
2440,17814.4261043,122.972482249,269643,13899.9052851
2450,17696.5157506,123.529308979,270744,13957.2550741
2460,17896.6097353,124.025514201,271845,14028.7448677
2470,17383.5339528,124.611356324,272946,15280.6120339
2480,18206.2106896,125.136459762,274047,15018.4029011
2490,17872.4468178,125.692723273,275148,13380.6027075
2500,17746.1331667,126.27514289,276249,15455.7857605
2510,17636.5051424,126.811225889,277350,13726.0035344
2520,18239.8588135,127.364136601,278451,14476.3352197
2530,17732.369972,127.98141891,279552,13684.9138743
2540,17573.4770508,128.542883536,280653,14901.7104925
2550,17704.7368289,129.09271643,281754,14218.4829937
2560,17553.4393468,129.679537879,282855,14277.5063407
2570,17602.5273086,130.271772558,283956,15313.5771274
2580,17790.8849255,130.830873118,285057,15077.2886303
2590,17661.2306887,131.460649306,286158,13087.3521099
2600,17707.6743323,132.042252962,287259,15723.3321301
2610,17600.5270802,132.612401507,288360,14699.5759776
2620,17701.2505452,133.202073262,289461,14117.4316487
2630,18105.3025855,133.805682224,290562,14906.9250783
2640,18030.8215233,134.390332478,291663,14444.4008706
2650,17743.6970192,134.9563948,292764,14943.6678785
2660,17810.1995654,135.507090698,293865,15043.6319679
2670,18411.8646027,136.090702611,294966,14131.8002317
2680,18346.331403,136.639762309,296067,15435.3125289
2690,18044.7010508,137.210480488,297168,14569.233608
2700,17871.3215594,137.75159183,298269,14754.7945679
2710,18212.1256337,138.291503605,299370,15955.3821869
2720,17982.293007,138.876773529,300471,14501.584388
2730,18243.1058733,139.439670365,301572,14989.5876305
2740,17938.4038128,140.016023726,302673,15187.21979
2750,18036.9223207,140.607909868,303774,14593.8695034
2760,18415.1517672,141.123583561,304875,15574.2758024
2770,18217.7697645,141.67233706,305976,14785.989204
2780,18451.4730123,142.28248398,307077,14476.2672951
2790,17589.2548483,142.835965609,308178,13963.5202812
2800,18302.720875,143.421352283,309279,14148.4205869
2810,17989.6769057,143.96555641,310380,15142.7035021
2820,17809.1764816,144.584397086,311481,14241.9485164
2830,17673.9456544,145.184656671,312582,15811.0192451
2840,17657.610446,145.7694519,313683,15243.5832802
2850,17583.5090778,146.373778892,314784,15212.5041696
2860,17677.9916011,146.880961964,315885,14450.743695
2870,17835.3677544,147.490543527,316986,15050.1852672
2880,17900.2540463,148.074874325,318087,15620.4557758
2890,17735.1158135,148.65117594,319188,14262.4373196
2900,17814.250198,149.255719324,320289,13700.8936127
2910,17659.0259622,149.828187031,321390,14379.6270507
2920,17771.024033,150.408417493,322491,15089.7753793
2930,18386.0253034,150.965001316,323592,14627.6788498
2940,17769.2369779,151.548548654,324693,15296.2246783
2950,17710.2319018,152.129229862,325794,14971.0577799
2960,17551.1477286,152.668201229,326895,14654.8991592
2970,18048.8119435,153.245559574,327996,14542.4600234
2980,17511.6749176,153.825929451,329097,15329.3907723
2990,18098.2456683,154.389623004,330198,15471.8590933
3000,17655.6791702,154.997984045,331299,14627.2705358
3010,17862.962104,155.549972738,332400,14310.127049
3020,17714.4452766,156.11760027,333501,14781.9913491
3030,18224.7085724,156.698865224,334602,14258.324257
3040,17785.9474483,157.282692674,335703,15607.3334484
3050,17630.864632,157.866434166,336804,14162.8548683
3060,17684.1106229,158.422483851,337905,13512.9531986
3070,17878.4038669,158.986283462,339006,13542.43664
3080,17629.9482455,159.601094792,340107,14597.6768619
3090,17924.8198565,160.176872532,341208,15555.4309767
3100,18101.8028912,160.755883328,342309,14942.9799042
3110,17810.9464855,161.299676481,343410,14628.4979922
3120,18042.070783,161.907745435,344511,13463.578431
3130,18327.4732328,162.470895441,345612,15172.9259222
3140,18210.5288885,163.034786569,346713,14316.9734839
3150,17845.7457736,163.58047679,347814,13806.77048
3160,17935.480013,164.125552901,348915,13935.9013328
3170,18106.2006921,164.72064259,350016,14331.4768556
3180,17792.5818356,165.319225348,351117,13391.1908626
3190,17788.6998317,165.897202934,352218,15329.3635716
3200,18245.0746864,166.485981322,353319,14589.879416
3210,18129.1193527,167.081387474,354420,15331.2206845
3220,17695.7983179,167.709267022,355521,15172.390166
3230,17881.6395123,168.344105337,356622,14872.4889601
3240,17634.8658947,168.962358417,357723,14564.4206837
3250,17767.6221362,169.564094688,358824,14616.8976657
3260,17411.0301025,170.134433539,359925,14503.0832075
3270,17588.8039763,170.70489085,361026,14758.1003705
3280,17761.7082675,171.310089398,362127,14838.7289249
3290,17711.5126702,171.886556943,363228,14956.8999476
3300,17796.9256986,172.421105951,364329,15263.6052462
3310,17875.5225303,172.958402628,365430,15489.5311684
3320,17694.1243656,173.559392216,366531,14405.6652504
3330,17583.0559008,174.161020718,367632,13996.4107281
3340,17794.1516719,174.7348103,368733,13578.7160468
3350,17968.807251,175.306262759,369834,14702.5117009
3360,18292.2916537,175.8268087,370935,14626.1703329
3370,17469.2569459,176.409078639,372036,14830.809636
3380,17608.188839,176.975787572,373137,13930.1716877
3390,17837.6544393,177.526002788,374238,14512.5780027
3400,17483.5819583,178.137713207,375339,14857.524095
3410,17589.3998978,178.657988872,376440,15236.2369099
3420,17595.8478163,179.225522319,377541,14444.9517209
3430,17883.4058263,179.820080864,378642,14370.105905
3440,17691.1350133,180.372167917,379743,14502.7025333
3450,17609.4496518,180.926032295,380844,15020.354408
3460,18053.8431209,181.478244222,381945,14209.0274272
3470,17972.7931324,182.033909875,383046,14321.9169309
3480,17667.1447874,182.602600124,384147,14717.5123536
3490,18088.1872439,183.17437931,385248,14589.0093701
3500,18366.6149349,183.781236296,386349,14436.9162928
3510,18094.6774506,184.318997405,387450,14832.6283393
3520,17971.7965459,184.886394004,388551,14917.6857029
3530,18102.0361907,185.448819565,389652,15009.6655516
3540,17815.8465827,186.045299982,390753,14742.5978982
3550,17838.7509034,186.600508046,391854,15441.2087792
3560,17825.5238009,187.13703837,392955,15211.400232
3570,17843.8190577,187.693982277,394056,14998.7907565
3580,17491.4165247,188.247654212,395157,14821.7245633
3590,18233.2826887,188.841215898,396258,13988.3904511
3600,18384.2614194,189.414046683,397359,13341.8203264
3610,17648.227099,189.965520482,398460,15264.6296299
3620,18297.5556631,190.571372484,399561,13525.5892865
3630,17793.0346404,191.145187298,400662,14566.5921166
3640,17893.4158673,191.721422199,401763,14721.7430911
3650,18008.1863661,192.297562161,402864,14032.7344975
3660,18045.355563,192.811602647,403965,13315.6896289
3670,17752.5022274,193.350170309,405066,14476.1150555
3680,18119.41361,193.947630051,406167,14341.6037879
3690,18201.2548192,194.527845545,407268,15098.1657014
3700,17840.1024358,195.126565152,408369,14868.0491589
3710,18261.2523158,195.679726469,409470,14203.3191475
3720,18086.4211326,196.273997203,410571,15634.9610258
3730,17824.1523548,196.870306559,411672,14915.9386988
3740,17625.1901411,197.47082573,412773,15548.0424609
3750,17697.8226627,198.069932363,413874,15062.1061155
3760,17621.5526042,198.620162974,414975,14773.259214
3770,17665.920111,199.19516538,416076,14601.71723
3780,18174.3122808,199.793884559,417177,15184.8684183
3790,17953.7774196,200.380697882,418278,14760.0463225
3800,17759.5388378,200.991265613,419379,14524.4255217
3810,17705.8853549,201.524639858,420480,14192.1254941
3820,17754.471632,202.107111221,421581,15207.0983068
3830,17604.6973012,202.675550866,422682,14821.6342299
3840,17760.8617551,203.289878949,423783,14516.7950999
3850,17966.1730751,203.860532552,424884,14803.0656852
3860,17836.4583809,204.384156739,425985,14876.5316241
3870,18097.7671963,204.931138471,427086,15112.3541232
3880,18086.2852539,205.513110764,428187,14755.9791475
3890,18289.9819324,206.073421582,429288,15726.7754304
3900,17921.9729984,206.679003735,430389,15430.9971193
3910,17431.1771114,207.226013693,431490,15191.7244751
3920,17971.2000214,207.826887388,432591,14842.9556378
3930,17675.2449749,208.413131505,433692,14820.3575064
3940,17300.8271891,209.009533661,434793,14170.5180531
3950,17824.0680677,209.619850359,435894,14218.2728888
3960,18003.2259838,210.147447869,436995,15325.8308737
3970,18096.2395723,210.743117456,438096,14013.2669113
3980,18246.7992594,211.314861146,439197,15256.9835182
3990,18044.5810092,211.885093939,440298,14882.4130953
4000,18006.8822576,212.476260769,441399,14613.8789214
4010,17867.9312662,213.003003401,442500,15350.9591792
4020,17720.5637068,213.588540607,443601,15502.2570254
4030,18082.5966932,214.166436084,444702,16217.0896602
4040,18200.1487744,214.745723144,445803,14408.1219544
4050,18121.4668551,215.321454698,446904,13973.6570249
4060,17940.7168789,215.882707635,448005,13271.4708745
4070,17757.0283094,216.449127047,449106,14390.628797
4080,17876.6604464,217.03242207,450207,14807.9039603
4090,17860.8429609,217.614895572,451308,14768.9635521
4100,17810.4958084,218.173599698,452409,14478.392116
4110,18028.5375638,218.733871599,453510,13877.2020155
4120,18188.773816,219.328649102,454611,15167.2658591
4130,18065.1969456,219.907212573,455712,13695.0479059
4140,17994.6634083,220.464980567,456813,15070.2123218
4150,17785.366468,221.028333708,457914,14692.0642459
4160,18014.8546899,221.554438282,459015,15291.9984491
4170,17512.2230133,222.140270569,460116,14167.865703
4180,17357.8251777,222.724361026,461217,14633.2606032
4190,17719.7094471,223.300943181,462318,14642.9990936
4200,17821.9367919,223.869577407,463419,14630.2213747
4210,18139.0035543,224.376433325,464520,14895.4339966
4220,18128.970522,224.960033264,465621,15231.5836155
4230,17793.4595795,225.57770602,466722,14441.2321507
4240,17760.9530625,226.110517902,467823,14358.4220492
4250,18424.3321268,226.684466143,468924,14412.858377
4260,17541.2716319,227.206219777,470025,14392.5324291
4270,17702.3640803,227.843477324,471126,14661.078791
4280,17767.5700873,228.407606227,472227,15257.7563677
4290,17970.8313387,228.996987178,473328,14499.115935
4300,17764.428684,229.551119695,474429,14105.7047802
4310,17868.4376988,230.098608624,475530,15536.0523931
4320,18195.9607984,230.69701134,476631,15141.9088485
4330,17911.5803274,231.29917954,477732,16020.5556243
4340,17970.9431749,231.839093454,478833,15677.4361488
4350,18030.8868692,232.415993355,479934,14238.8382317
4360,17966.1345542,232.926348756,481035,14509.9978542
4370,18107.9094963,233.525931794,482136,15024.4013369
4380,18057.5096914,234.099493865,483237,15235.8896606
4390,18268.4089409,234.678068455,484338,14743.3430164
4400,17783.812571,235.290561478,485439,14801.9727759
4410,17585.2427968,235.818194911,486540,14799.2514548
4420,17895.9097302,236.402491069,487641,13279.1869652
4430,17865.2500821,236.962046225,488742,14150.5184398
4440,18179.1662979,237.55406836,489843,14203.9579724
4450,18038.4002718,238.150283204,490944,13716.1492829
4460,18302.0623224,238.711263298,492045,14800.9115764
4470,18196.6473539,239.282561802,493146,15013.8185546
4480,18411.1710748,239.854288386,494247,15668.6022513
4490,17921.3525572,240.387256361,495348,14546.4714017
4500,18243.9503932,240.960265904,496449,14988.5892762
4510,18201.5432676,241.542967772,497550,14749.9695402
4520,17952.1402223,242.09222975,498651,15504.2433583
4530,17910.1548617,242.682640917,499752,13985.3886056
4540,18218.472856,243.290044871,500853,14585.551264
4550,17672.0926995,243.885548101,501954,15313.5062592
4560,17494.295965,244.461713295,503055,13898.1045434
4570,17722.2364867,244.98171569,504156,14253.8061916
4580,18436.6800285,245.559608601,505257,14997.8392641
4590,17980.8808935,246.131716652,506358,15086.6978222
4600,18072.9176867,246.709202438,507459,15275.9574923
4610,17803.4355758,247.276882999,508560,14957.9400289
4620,18125.7568113,247.788983651,509661,14700.478173
4630,18280.2277918,248.373822928,510762,15136.4037014
4640,17771.4741833,248.955808478,511863,14063.5524413
4650,18176.9534206,249.523371434,512964,14034.520951
4660,18032.9573293,250.121156619,514065,14809.959208
4670,17808.7078321,250.669762577,515166,14843.9105454
4680,17976.9747692,251.242833274,516267,14675.8872826
4690,18006.8942266,251.828661713,517368,13834.0227573
4700,17519.7818596,252.415726923,518469,14651.420924
4710,17789.6458748,252.988499974,519570,14081.1667659
4720,17849.4587963,253.502945875,520671,14700.6148627
4730,17817.9379378,254.077364107,521772,14757.3254348
4740,17688.7687721,254.675679582,522873,14910.8412409
4750,17643.9575357,255.337085405,523974,14508.3131346
4760,17960.3920424,255.96041387,525075,13775.1096295
4770,17695.0998383,256.54181268,526176,14981.2851202
4780,17680.0350224,257.116690211,527277,15324.9182978
4790,17885.0795401,257.693126537,528378,15395.4597427
4800,17983.0302911,258.301036405,529479,14677.0527419
4810,17987.3723973,258.861621348,530580,14987.1152989
4820,17726.9453009,259.369813681,531681,14958.2585529
4830,18014.416568,259.92506622,532782,14920.4821051
4840,17747.4210776,260.493168874,533883,14358.1874056
4850,17797.2140299,261.07092793,534984,14573.5166993
4860,17972.9519438,261.660363193,536085,15205.103809
4870,17935.4956695,262.24962098,537186,14565.6618848
4880,18147.1521503,262.806322835,538287,15212.1522843
4890,17824.5567458,263.361517214,539388,13842.3384007
4900,17873.0035688,263.99555368,540489,16407.0097268
4910,17534.0922743,264.586087583,541590,15289.5110562
4920,17500.7706042,265.159275458,542691,14885.1745949
4930,17587.3522514,265.748649995,543792,13655.405679
4940,17521.3206362,266.287635902,544893,13971.8060577
4950,17890.1415352,266.859568615,545994,15118.6892016
4960,17980.8899038,267.426362223,547095,14288.9824055
4970,17921.401001,267.971997705,548196,13871.330406
4980,18022.3665413,268.554153888,549297,14073.0650105
4990,17855.2153205,269.13210325,550398,15313.8852991
