it,funval,time,funcount,weight
0,24936.3813057,2.9935999919e-05,10,26429.5360174
10,25143.8258229,6.20099999651e-05,21,26614.2546865
20,24976.7745519,9.53669996306e-05,32,26388.4051545
30,25091.8961924,0.000122309999824,43,26476.3523508
40,24923.033623,0.000152673999764,54,26342.0634521
50,24667.9343105,0.000180043999535,65,26106.0539529
60,24876.2864733,0.000210834999962,76,26399.9752241
70,25004.2633155,0.0002420539995,87,26540.3737945
80,25264.0784804,0.00026942400018,98,26634.0878334
90,25282.5014797,0.000298932000078,109,26731.9999587
100,25419.0533411,0.000329722999595,120,26832.5158829
110,25619.8009265,0.000360513999112,131,27376.0324215
120,25700.1443351,0.000393442998757,142,27382.3105569
130,25812.5176851,0.000423806998697,153,27482.5147877
140,25879.6209289,0.000460157998532,164,27586.9708053
150,26077.7156387,0.000496079998811,175,27864.7883754
160,26178.3406989,0.000529008999365,186,27963.5110441
170,26546.492574,0.000561510999432,197,28292.6644952
180,26605.937129,0.000594440999521,208,28421.4607052
190,26720.0786463,0.000631218999843,219,28550.2016581
200,27015.5944649,0.000664147999487,230,28790.0916068
210,27152.0448535,0.000697504999152,241,28897.3684223
220,27562.1953424,0.000729578999199,252,29382.7796564
230,27739.4099135,0.000761224999223,263,29509.5771522
240,27980.7143988,0.000797147999037,274,29805.7194426
250,28175.8333101,0.000830504999612,285,29932.8336276
260,28186.2826902,0.000869848999173,296,29906.1745788
270,28247.4617367,0.000902349999706,307,30094.3453482
280,28380.9294215,0.000935706999371,318,30387.3486207
290,28429.9406783,0.000967353998931,329,30399.4747161
300,28609.6447282,0.00100584299889,340,30622.3257029
310,28609.6447282,0.00103919999856,351,30643.9925686
320,28852.9335341,0.00108666899905,362,30913.5340738
330,28963.7931003,0.00112130899925,373,30929.0082355
340,29129.3631938,0.00121325499913,384,31214.9895872
350,29177.3725556,0.00126072499916,395,31295.6971639
360,29258.3098428,0.00130733899914,406,31350.1136661
370,29356.4897964,0.00134240699936,417,31483.4177459
380,29492.310909,0.00138132399934,428,31545.8507291
390,29579.8378529,0.00144376199933,439,31664.151144
400,29667.852432,0.00148909299878,450,31680.5456645
410,29791.2157036,0.0015258709991,461,31872.2000969
420,29992.0777879,0.00156863599932,472,32217.3401585
430,30066.903,0.0016161049989,483,32306.7278191
440,30150.0153776,0.00166357499893,494,32496.2444867
450,30258.1705655,0.00170976199843,505,32638.877024
460,30398.0065746,0.00175038899852,516,32738.4238857
470,30605.8259003,0.00182308999774,527,32824.1148883
480,30673.6009639,0.00186072399811,538,32947.8127896
490,30746.4646695,0.00189792899801,549,32999.5907218
500,30987.2609932,0.00193342499824,560,33206.5550291
510,31056.3996597,0.00196977499854,571,33133.2299797
520,31198.9470944,0.00200484299876,582,33305.4308227
530,31576.8663048,0.00203948299895,593,33554.305728
540,31627.5658399,0.00207754399889,604,33585.9539531
550,31804.045069,0.00211432199922,615,33669.2458289
560,31804.045069,0.00215281099918,626,33699.2659512
570,32197.5289558,0.0022426179994,637,34023.4443159
580,32324.3880094,0.00229265299913,648,34170.5696203
590,32471.6410705,0.00233755699901,659,34298.9330172
600,32517.2852682,0.00237091399867,670,34503.1905277
610,32544.0740131,0.00241111299874,681,34498.6608995
620,32555.7045843,0.00244703599856,692,34652.7404751
630,32691.7383261,0.00248381399888,703,34742.7620112
640,32746.6954426,0.00251759899857,714,34830.4292762
650,32895.0024118,0.00257404899912,725,35028.9406101
660,32954.7858823,0.002618952999,736,35228.7335035
670,32967.229038,0.00266941599875,747,35197.0409346
680,33049.033041,0.00271602999874,758,35341.8191745
690,33314.2704534,0.00276734799809,769,35433.2175047
700,33314.2704534,0.00281225099843,780,35433.2175047
710,33331.7824236,0.00286185799814,791,35353.698758
720,33352.0006542,0.00290120199861,802,35479.8372568
730,33479.5960601,0.00293455899828,813,35510.3687663
740,33573.9638071,0.00296962699849,824,35624.4821726
750,33676.7784892,0.00300512199829,835,35728.2931424
760,33796.3486304,0.00303933399846,846,35915.6955845
770,33851.428035,0.00307525699827,857,35917.122393
780,34022.4417718,0.00311203599813,868,36086.5911206
790,34135.7728828,0.00314753099792,879,36217.5817227
800,34185.8507939,0.00318430899824,890,36251.9898397
810,34185.8507939,0.00322108699766,901,36271.0606398
820,34310.7820733,0.00326513499749,912,36486.9771763
830,34439.6165384,0.00330234099692,923,36469.6377177
840,34499.7726886,0.00333569799659,934,36623.3571006
850,34622.7610115,0.00337204899643,945,36832.4767102
860,34663.6818169,0.00340754499575,956,36907.0375152
870,34747.3100416,0.00344432299516,967,36910.7074683
880,34904.2707385,0.00348110099458,978,37086.3031052
890,34978.5690809,0.00352172799467,989,37181.4812021
900,34992.3287682,0.0035700529952,1000,37153.5903056
910,35005.867234,0.0036179499948,1011,37359.611939
920,35232.0863609,0.00365130699447,1022,37509.3207935
930,35376.9413314,0.00368166999488,1033,37671.0829012
940,35402.8395392,0.00371502699454,1044,37642.6096914
950,35524.6526166,0.00374496299446,1055,37835.6678652
960,35567.6618103,0.00377960299465,1066,37932.2795833
970,35585.1737805,0.0038176639946,1077,37897.3759304
980,35628.2637927,0.0038629959945,1088,37932.1097358
990,35628.2637927,0.00389977399482,1099,37975.545441
1000,35714.3297857,0.00392928199471,1110,38105.0419609
1010,35748.7120238,0.00396263899438,1121,38179.4892762
1020,36028.5005529,0.00399556899447,1132,38360.3921786
1030,36050.2695035,0.00403277499481,1143,38403.5034417
1040,36086.0162525,0.00406869799463,1154,38401.7907218
1050,36202.4547509,0.00410333799482,1165,38481.2140638
1060,36385.8707706,0.00413797799501,1176,38586.1241028
1070,36568.3335013,0.00416919699546,1187,38798.8176896
1080,36693.349889,0.00420255399513,1198,39029.0649429
1090,36911.7420936,0.0042367659953,1209,38946.4097977
1100,36953.6571375,0.00426798399531,1220,39045.9521647
1110,37153.3827493,0.00429578099465,1231,39376.6143566
1120,37153.3827493,0.00433341499411,1242,39418.5505749
1130,37182.766865,0.00436891099434,1253,39420.7144437
1140,37272.0316863,0.00440226799401,1264,39464.3671215
1150,37272.0316863,0.00443220399393,1275,39464.3671215
1160,37438.1443449,0.00447026599431,1286,39445.910979
1170,37630.7669801,0.00450405099491,1297,39774.5497068
1180,37678.0349289,0.00453526999536,1308,39879.2074457
1190,37770.7420325,0.0045707659956,1319,39997.0884632
1200,37770.7420325,0.00460626199492,1330,40069.6803622
1210,37770.7420325,0.00465244799489,1341,39862.2692734
1220,37770.7420325,0.00471574099447,1352,39997.0884632
1230,37770.7420325,0.00476705999517,1363,40015.29133
1240,37810.5590619,0.0048038379955,1374,39886.8886874
1250,37810.5590619,0.00484788599533,1385,39998.0390472
1260,37810.5590619,0.00489150599606,1396,39899.0845408
1270,37810.5590619,0.00493726499553,1407,39960.9601861
1280,37810.5590619,0.00498131299537,1418,39949.8386057
1290,37810.5590619,0.00502236799548,1429,39998.0390472
1300,37810.5590619,0.00507240399565,1440,39998.0390472
1310,37810.5590619,0.00511602499591,1451,39998.0390472
1320,37810.5590619,0.00516135599537,1462,39910.5449239
1330,37810.5590619,0.00520754299487,1473,39975.072337
1340,37849.9203572,0.00524432099519,1484,39845.6506885
1350,37849.9203572,0.00529948799522,1495,40032.3614445
1360,37849.9203572,0.0053461019952,1506,39981.6939902
1370,37849.9203572,0.00539186099559,1517,39984.9331588
1380,37849.9203572,0.0054406129957,1528,39930.7075941
1390,37849.9203572,0.0054936419956,1539,39928.089133
1400,37849.9203572,0.0055458159959,1550,39954.6811374
1410,37849.9203572,0.00559328599593,1561,39967.3720567
1420,37849.9203572,0.00564460399619,1572,39999.40869
1430,37849.9203572,0.00569720499607,1583,39979.4477902
1440,37849.9203572,0.00575536599627,1594,39999.40869
1450,37849.9203572,0.00580582899602,1605,39916.0182637
1460,37849.9203572,0.00585287099602,1616,39953.6040219
1470,37849.9203572,0.00589905799643,1627,39982.9218592
1480,37849.9203572,0.00594909399661,1638,39991.5394566
1490,37849.9203572,0.00604830899647,1649,39923.6862859
1500,37849.9203572,0.00609834499664,1660,39953.3906845
1510,37849.9203572,0.00615051899604,1671,39857.2849715
1520,37849.9203572,0.00619927099615,1682,39999.40869
1530,37849.9203572,0.00625529399622,1693,39827.740019
1540,37849.9203572,0.00632799499635,1704,39995.9645435
1550,37849.9203572,0.00637546499638,1715,39999.40869
1560,37849.9203572,0.006409677997,1726,39999.40869
1570,37849.9203572,0.00645757499751,1737,39887.8911213
1580,37849.9203572,0.00650889399731,1748,39893.0190757
1590,37849.9203572,0.00656063999668,1759,39953.1848932
1600,37849.9203572,0.00661580699671,1770,39999.40869
1610,37849.9203572,0.00666626999737,1781,40031.8628398
1620,37849.9203572,0.0067163049971,1792,39963.3617558
1630,37849.9203572,0.00676633999683,1803,39972.192305
1640,37849.9203572,0.0068215079973,1814,39971.3585066
1650,37849.9203572,0.00686256299741,1825,39996.5864074
1660,37849.9203572,0.0069031899975,1836,39831.6154316
1670,37907.0722174,0.00694039599784,1847,39999.8779346
1680,37907.0722174,0.00697973999831,1858,39936.3230717
1690,37907.0722174,0.00702421599817,1869,40072.4698336
1700,37907.0722174,0.00706527099828,1880,39932.336179
1710,37907.0722174,0.00710418799827,1891,39999.8779346
1720,37907.0722174,0.00714395899831,1902,39949.8570951
1730,37907.0722174,0.00719399399895,1913,40043.6249963
1740,37907.0722174,0.00723675899917,1924,39999.8779346
1750,37907.0722174,0.0072850839997,1935,39989.3335932
1760,37907.0722174,0.00733212599971,1946,39940.4121634
1770,37907.0722174,0.00737104199925,1957,39908.1586545
1780,37907.0722174,0.00742407099915,1968,39968.6316507
1790,37907.0722174,0.00747282299835,1979,39810.2130826
1800,37907.0722174,0.00752285799808,1990,40018.4173652
1810,37907.0722174,0.00756262899813,2001,39999.8779346
1820,37907.0722174,0.00761608599805,2012,40039.4998826
1830,37907.0722174,0.00765714099816,2023,39953.6541378
1840,37907.0722174,0.00770760399882,2034,39915.4473474
1850,37907.0722174,0.00775806699858,2045,40087.2232157
1860,37907.0722174,0.00780553599816,2056,39991.5681891
1870,37907.0722174,0.00785813799848,2067,39999.8779346
1880,37907.0722174,0.00790689099904,2078,39885.7777711
1890,37907.0722174,0.00795991999894,2089,39891.2489448
1900,37907.0722174,0.00802150199888,2100,39903.7680347
1910,37907.0722174,0.00807239299866,2111,39950.864065
1920,37907.0722174,0.0081224279993,2122,39990.4558595
1930,37907.0722174,0.00817246399947,2133,39933.1525321
1940,37907.0722174,0.0082224989992,2144,40044.2813112
1950,37907.0722174,0.00827167899934,2155,39942.5147315
1960,37907.0722174,0.00832299800004,2166,39868.1241179
1970,37907.0722174,0.00837517200034,2177,39994.5909549
1980,37907.0722174,0.00842691800062,2188,39988.3734333
1990,37907.0722174,0.00847567000073,2199,39845.9875705
2000,37907.0722174,0.0085316930008,2210,39873.1323579
2010,37907.0722174,0.00858087300094,2221,39850.5271045
2020,37907.0722174,0.00863176400071,2232,39999.8779346
2030,37907.0722174,0.00867367400133,2243,39868.7554079
2040,37907.0722174,0.00871130800169,2254,39999.8779346
2050,37907.0722174,0.00875107900174,2265,39976.8689319
2060,37907.0722174,0.00880325300113,2276,39999.8779346
2070,37907.0722174,0.00885115000074,2287,39951.6774931
2080,37907.0722174,0.00890204000098,2298,39975.1476884
2090,37907.0722174,0.00894138400145,2309,39928.4009716
2100,37907.0722174,0.00898799800143,2320,39860.3457257
2110,37907.0722174,0.00904444800199,2331,39999.8779346
2120,37907.0722174,0.00909533800223,2342,39995.5839452
2130,37907.0722174,0.00913553700229,2353,39818.9598921
2140,37907.0722174,0.00918600000205,2364,39857.5238628
2150,37907.0722174,0.00922320500194,2375,39909.9736058
2160,37907.0722174,0.00926254900241,2386,39999.8779346
2170,37907.0722174,0.00930232100291,2397,39999.1740677
2180,37907.0722174,0.00934252000297,2408,39986.5747038
2190,37907.0722174,0.00938271900304,2419,39999.8779346
2200,37907.0722174,0.00942334600313,2430,39985.6305107
2210,37907.0722174,0.00946525600284,2441,39875.2182119
2220,37907.0722174,0.00951785700272,2452,39918.4020003
2230,37907.0722174,0.00958286100285,2463,39862.1169851
2240,37907.0722174,0.00962306100337,2474,39908.7724141
2250,37907.0722174,0.00966967500335,2485,39951.7223522
2260,37907.0722174,0.00972612600344,2496,39999.8779346
2270,37907.0722174,0.00976760900357,2507,39999.8779346
2280,37907.0722174,0.00982234800358,2518,39971.1129829
2290,37907.0722174,0.00987067300412,2529,39947.7824348
2300,37907.0722174,0.009923274004,2540,39970.3571205
2310,37907.0722174,0.00997459300379,2551,39991.9963496
2320,37907.0722174,0.0100135100038,2562,39960.2559867
2330,37907.0722174,0.0100622620039,2573,39862.1169851
2340,37907.0722174,0.0101084480038,2584,40049.1513837
2350,37907.0722174,0.0101584830036,2595,39924.502306
2360,37907.0722174,0.0102089460033,2606,40020.3440272
2370,37907.0722174,0.0102619750032,2617,39997.581837
2380,37907.0722174,0.0103158590027,2628,39914.9393924
2390,37907.0722174,0.0103650390029,2639,39972.7652873
2400,37907.0722174,0.010421062002,2650,39901.2311689
2410,37907.0722174,0.0104873480013,2661,39980.1359982
2420,37907.0722174,0.0105382380016,2672,39999.8779346
2430,37907.0722174,0.0105904110014,2683,39911.0431777
2440,37907.0722174,0.0106348870013,2694,39922.0240017
2450,37907.0722174,0.010684922001,2705,40039.4998826
2460,37907.0722174,0.0107409450002,2716,39964.8891994
2470,37907.0722174,0.0107832820004,2727,39999.8779346
2480,37907.0722174,0.0108230540009,2738,39999.8779346
2490,37907.0722174,0.010879505001,2749,39951.6148184
2500,37907.0722174,0.0109325340009,2760,39999.8779346
2510,37907.0722174,0.0109898400005,2771,39977.3585631
2520,37907.0722174,0.0110377370011,2782,39999.8779346
2530,37907.0722174,0.0110933320011,2793,40035.5976222
2540,37907.0722174,0.0111502100008,2804,39959.4452713
2550,37907.0722174,0.0111955410011,2815,40079.436914
2560,37907.0722174,0.0112519910008,2826,39940.9385299
2570,37907.0722174,0.0113041650011,2837,39999.8779346
2580,37907.0722174,0.0113606150016,2848,39985.1945695
2590,37907.0722174,0.011421770002,2859,39968.2271294
2600,37907.0722174,0.0114795030022,2870,39981.6119025
2610,37907.0722174,0.0115402300025,2881,39886.192157
2620,37907.0722174,0.0115988180023,2892,39961.9280269
2630,37907.0722174,0.0116437220022,2903,39924.5114916
2640,37907.0722174,0.0116988890022,2914,40029.1730869
2650,37907.0722174,0.0117463580018,2925,39967.6722862
2660,37907.0722174,0.0118049460016,2936,39999.8779346
2670,37907.0722174,0.0118665280015,2947,39999.8779346
2680,37907.0722174,0.0119272540014,2958,40044.2531696
2690,37907.0722174,0.0120243310012,2969,39941.6693238
2700,37907.0722174,0.0120722280008,2980,39954.4484311
2710,37907.0722174,0.0121338100007,2991,40002.6172202
2720,37907.0722174,0.012185128001,3002,39810.1626456
2730,37907.0722174,0.012240295001,3013,39999.8779346
2740,37907.0722174,0.0122997390008,3024,40007.3150794
2750,37907.0722174,0.0123608930007,3035,39975.3531559
2760,37907.0722174,0.0124199090014,3046,39960.2948864
2770,37907.0722174,0.0124763590011,3057,39885.7777711
2780,37907.0722174,0.0125366580014,3068,39959.0346836
2790,37907.0722174,0.0125918250014,3079,39994.4228519
2800,37907.0722174,0.012649131002,3090,39997.9964129
2810,37907.0722174,0.0127235430018,3101,39999.8779346
2820,37907.0722174,0.0127855520022,3112,39859.4297922
2830,37907.0722174,0.0128458510026,3123,39999.8779346
2840,37907.0722174,0.012906150002,3134,40005.7800116
2850,37907.0722174,0.0129655940018,3145,39974.2678352
2860,37907.0722174,0.013024183002,3156,39999.8779346
2870,37907.0722174,0.0130814890017,3167,39948.847207
2880,37907.0722174,0.0131383660018,3178,39983.1752641
2890,37907.0722174,0.013194389001,3189,40022.0985867
2900,37907.0722174,0.0132392920004,3200,39999.8779346
2910,37907.0722174,0.0132987360003,3211,39965.1964027
2920,37907.0722174,0.0133598910006,3222,39991.947465
2930,37907.0722174,0.0134214730006,3233,39989.5413632
2940,37907.0722174,0.0134766400006,3244,39954.5263685
2950,37907.0722174,0.0135339449998,3255,39999.8779346
2960,37907.0722174,0.0135767100001,3266,39999.8779346
2970,37907.0722174,0.0136263180002,3277,39968.5232225
2980,37907.0722174,0.0136840510004,3288,39977.7971096
2990,37907.0722174,0.0137370800003,3299,39999.8779346
3000,37907.0722174,0.0137854050008,3310,39901.4083225
3010,37907.0722174,0.013842710001,3321,39931.0018487
3020,37907.0722174,0.0139060030006,3332,39999.8779346
3030,37907.0722174,0.0139539000011,3343,39947.3327852
3040,37907.0722174,0.0140150550005,3354,39924.2712759
3050,37907.0722174,0.0140620970005,3365,39965.4278312
3060,37907.0722174,0.0141168370001,3376,39999.8779346
3070,37907.0722174,0.0141608849999,3387,40013.4861272
3080,37907.0722174,0.0142177630005,3398,39846.1199331
3090,37907.0722174,0.0142772060008,3409,39934.7797907
3100,37907.0722174,0.0143195440005,3420,39918.770197
3110,37907.0722174,0.0143948110008,3431,40020.3440272
3120,37907.0722174,0.0144542540011,3442,39929.0201075
3130,37907.0722174,0.0145124150013,3453,39981.0337843
3140,37907.0722174,0.0145731410021,3464,39977.6572826
3150,37907.0722174,0.0146330120024,3475,39980.3001144
3160,37907.0722174,0.0146920280022,3486,39931.1895613
3170,37907.0722174,0.0147471950022,3497,39847.7443833
3180,37907.0722174,0.0148049280024,3508,39910.8138818
3190,37907.0722174,0.0148647990027,3519,39838.7476229
3200,37907.0722174,0.0149268080031,3530,40041.4228155
3210,37907.0722174,0.0149875350035,3541,39999.8779346
3220,37907.0722174,0.0150444120036,3552,39999.8779346
3230,37907.0722174,0.0150927360037,3563,39935.9975661
3240,37907.0722174,0.0151453370036,3574,39997.5808069
3250,37907.0722174,0.0151958000033,3585,39999.8779346
3260,37907.0722174,0.0152419860033,3596,39999.8779346
3270,37907.0722174,0.015301430004,3607,39953.3451572
3280,37907.0722174,0.0153630120039,3618,40018.1439668
3290,37907.0722174,0.0154322910039,3629,39907.0231174
3300,37907.0722174,0.0154810440035,3640,39925.2548264
3310,37907.0722174,0.0155332180038,3651,40083.3404438
3320,37907.0722174,0.0155866750038,3662,39970.1832219
3330,37907.0722174,0.0156499680043,3673,40020.9666176
3340,37907.0722174,0.0157034250042,3684,40031.2326468
3350,37907.0722174,0.015762441004,3695,39967.7614052
3360,37907.0722174,0.0158184630045,3706,39999.8779346
3370,37907.0722174,0.0158779070043,3717,39951.2823096
3380,37907.0722174,0.0159253760039,3728,39912.62722
3390,37907.0722174,0.0159822540036,3739,39959.9386655
3400,37907.0722174,0.0160382760032,3750,39981.0846981
3410,37907.0722174,0.0160942990033,3761,39855.241234
3420,37907.0722174,0.0161404850032,3772,39995.1289216
3430,37907.0722174,0.0161999280026,3783,39999.8779346
3440,37907.0722174,0.0162563780032,3794,39956.547781
3450,37907.0722174,0.0163047030028,3805,39999.8779346
3460,37907.0722174,0.0163658570027,3816,40039.6318788
3470,37907.0722174,0.0164227350024,3827,39999.8779346
3480,37907.0722174,0.0164680660027,3838,39888.8593147
3490,37907.0722174,0.0165138250031,3849,39967.9035288
3500,37907.0722174,0.016566426003,3860,40035.9505726
3510,37907.0722174,0.0166233040027,3871,39999.8779346
3520,37907.0722174,0.016683603003,3882,39986.1314428
3530,37907.0722174,0.0167400530036,3893,40081.5644366
3540,37907.0722174,0.0167977860037,3904,39999.8779346
3550,37907.0722174,0.0168491050035,3915,39999.8779346
3560,37907.0722174,0.0169085490033,3926,39860.1024813
3570,37907.0722174,0.0169624340033,3937,39935.3811581
3580,37907.0722174,0.0170659260029,3948,39985.6305107
3590,37907.0722174,0.0171116850033,3959,40014.5461828
3600,37907.0722174,0.0171732670033,3970,39934.9567023
3610,37907.0722174,0.0172211640029,3981,39959.9348742
3620,37907.0722174,0.0172759030029,3992,40003.9868629
3630,37907.0722174,0.0173250840026,4003,39920.7768431
3640,37907.0722174,0.0173755470023,4014,39922.6211667
3650,37907.0722174,0.0174354180026,4025,39958.9647953
3660,37907.0722174,0.0174803210029,4036,39959.6932136
3670,37907.0722174,0.0175286450021,4047,40071.5510798
3680,37907.0722174,0.0175697000022,4058,39994.1938334
3690,37907.0722174,0.0176073340017,4069,39945.2693344
3700,37907.0722174,0.0176483880014,4080,39905.0202901
3710,37907.0722174,0.0176902980011,4091,39999.8779346
3720,37907.0722174,0.0177399060003,4102,39962.1947131
3730,37907.0722174,0.0177848090007,4113,39981.0337843
3740,37907.0722174,0.017830140001,4124,39925.6483536
3750,37907.0722174,0.0178806030017,4135,39914.2658698
3760,37907.0722174,0.0179220850014,4146,39999.8779346
3770,37907.0722174,0.0179845220009,4157,39929.5829441
3780,37907.0722174,0.018025577001,4168,40013.8780587
3790,37907.0722174,0.0180807440011,4179,39980.4983688
3800,37907.0722174,0.0181230820008,4190,39977.2684254
3810,37907.0722174,0.0181791040004,4201,39957.475176
3820,37923.9678262,0.0182188750005,4212,39961.5827047
3830,37923.9678262,0.0182603570001,4223,39993.4184449
3840,37923.9678262,0.0183056880005,4234,39968.4682028
3850,37923.9678262,0.018351447,4245,39998.414884
3860,37923.9678262,0.0184023379998,4256,40031.8363104
3870,37923.9678262,0.0184523729995,4267,40019.1907842
3880,37923.9678262,0.0184968479989,4278,39999.8961261
3890,37923.9678262,0.0185421789993,4289,40006.3738074
3900,37923.9678262,0.018583660999,4300,40064.8044258
3910,37923.9678262,0.0186285639993,4311,39999.4268815
3920,37923.9678262,0.0186717569986,4322,39940.9567214
3930,37923.9678262,0.0187140939979,4333,39999.8961261
3940,37923.9678262,0.0187607079979,4344,39999.8961261
3950,37923.9678262,0.0188201509982,4355,39999.8961261
3960,37923.9678262,0.0188624889979,4366,39909.4371049
3970,37923.9678262,0.0189150899978,4377,39978.8059281
3980,37923.9678262,0.018965125998,4388,40015.5639186
3990,37923.9678262,0.0190211479976,4399,40018.227023
4000,37923.9678262,0.0190746039971,4410,39957.2892057
4010,37923.9678262,0.0191327639968,4421,39993.1710283
4020,37923.9678262,0.0191870759973,4432,39955.6149049
4030,37923.9678262,0.0192319789976,4443,39957.2872988
4040,37923.9678262,0.0192798769976,4454,39900.6787547
4050,37923.9678262,0.0193286289978,4465,39912.4685215
4060,37923.9678262,0.0193735329976,4476,39966.9053194
4070,37923.9678262,0.0194188639971,4487,39980.9915634
4080,37923.9678262,0.0194723199975,4498,39910.9657287
4090,37923.9678262,0.0195321919973,4509,40035.6346076
4100,37923.9678262,0.0195877869974,4520,39862.3172059
4110,37923.9678262,0.0196352559969,4531,39986.4459305
4120,37923.9678262,0.0196972659969,4542,39953.9787355
4130,37923.9678262,0.0197451629974,4553,39999.8961261
4140,37923.9678262,0.0198041799977,4564,39996.5206678
4150,37923.9678262,0.0198627689979,4575,39896.8024693
4160,37923.9678262,0.0199226399982,4586,39964.1764385
4170,37923.9678262,0.0199799449983,4597,39959.9877782
4180,37923.9678262,0.0200316909977,4608,40018.6893626
4190,37923.9678262,0.020089423997,4619,39991.7950228
4200,37923.9678262,0.0201484399968,4630,39862.8113723
4210,37923.9678262,0.0202018959963,4641,39999.8961261
4220,37923.9678262,0.0202626219962,4652,39848.3276921
4230,37923.9678262,0.0203246319961,4663,39999.8961261
4240,37923.9678262,0.0203836479959,4674,39965.5519395
4250,37923.9678262,0.0204409539965,4685,39941.6248506
4260,37923.9678262,0.0205042469961,4696,39999.8961261
4270,37923.9678262,0.0205529999957,4707,39917.4033809
4280,37923.9678262,0.0206180029963,4718,39999.8961261
4290,37923.9678262,0.0206765909961,4729,39999.8961261
4300,37923.9678262,0.0207338959963,4740,39999.8961261
4310,37923.9678262,0.0207912019969,4751,39880.1710824
4320,37923.9678262,0.0208390989965,4762,39852.7808712
4330,37923.9678262,0.0208912719963,4773,39866.7896718
4340,37923.9678262,0.0209494319961,4784,39982.0224215
4350,37923.9678262,0.0209921979958,4795,40014.278602
4360,37923.9678262,0.0210520699957,4806,39903.1193891
4370,37923.9678262,0.0211059539961,4817,39999.8961261
4380,37923.9678262,0.0211542789957,4828,39988.817459
4390,37923.9678262,0.0212021759962,4839,39868.7735994
4400,37923.9678262,0.021260763996,4850,39938.9193726
4410,37923.9678262,0.0213261939953,4861,40010.8788438
4420,37923.9678262,0.021384781995,4872,39954.1090257
4430,37923.9678262,0.021439520995,4883,39977.6258987
4440,37923.9678262,0.0214916939949,4894,39933.1054386
4450,37923.9678262,0.0215417299942,4905,39923.0171254
4460,37923.9678262,0.0215968969942,4916,40037.2076803
4470,37923.9678262,0.0216584789941,4927,39979.5271426
4480,37923.9678262,0.0217136459942,4938,39818.4898617
4490,37923.9678262,0.0217752279941,4949,39999.8961261
4500,37923.9678262,0.0218261189948,4960,39999.8961261
4510,37923.9678262,0.0218808589943,4971,39914.2130002
4520,37923.9678262,0.0219390199936,4982,39875.7166777
4530,37923.9678262,0.021999746994,4993,40049.5089857
4540,37923.9678262,0.0220600459934,5004,39997.1685848
4550,37923.9678262,0.0221058039933,5015,39905.6123561
4560,37923.9678262,0.0221686689938,5026,39959.2416555
4570,37923.9678262,0.0222204149941,5037,39906.6371862
4580,37923.9678262,0.0222811419935,5048,39955.5814576
4590,37923.9678262,0.0223388749937,5059,39999.8961261
4600,37923.9678262,0.022382495994,5070,39900.0662853
4610,37923.9678262,0.022446643994,5081,39954.3967748
4620,37923.9678262,0.0224992449939,5092,39947.5791547
4630,37923.9678262,0.022555267994,5103,39927.6627525
4640,37923.9678262,0.0225997439939,5114,39999.8961261
4650,37923.9678262,0.0226544839934,5125,39874.8587947
4660,37923.9678262,0.0227109339939,5136,39920.3371468
4670,37923.9678262,0.0227686679946,5147,39908.893946
4680,37923.9678262,0.0228234069946,5158,39925.8837128
4690,37923.9678262,0.0228772909941,5169,40071.1812506
4700,37923.9678262,0.0229333129946,5180,39967.1729555
4710,37923.9678262,0.0229876249941,5191,40078.6608002
4720,37923.9678262,0.0230445029938,5202,39908.3219252
4730,37923.9678262,0.0230898339942,5213,39999.8961261
4740,37923.9678262,0.023134309994,5224,39921.8239467
4750,37923.9678262,0.0231911879937,5235,39962.1356119
4760,37923.9678262,0.0232459279932,5246,39917.1098272
4770,37923.9678262,0.0233079379932,5257,39955.5208912
4780,37923.9678262,0.0233622499936,5268,39999.8961261
4790,37923.9678262,0.0234208379934,5279,40040.0219245
4800,37923.9678262,0.0234828479934,5290,40054.0050831
4810,37923.9678262,0.0235380149934,5301,39854.9755047
4820,37923.9678262,0.0235940379935,5312,40016.6704878
4830,37923.9678262,0.0236551919934,5323,39916.8459412
4840,37923.9678262,0.0237095039938,5334,39999.8961261
4850,37923.9678262,0.0237693759937,5345,39912.0106694
4860,37923.9678262,0.0238258259933,5356,39999.8961261
4870,37923.9678262,0.0238822769934,5367,40002.6354116
4880,37923.9678262,0.0239395829931,5378,39923.0171254
4890,37923.9678262,0.0239968889928,5389,39966.160904
4900,37923.9678262,0.0240559049935,5400,40031.2120147
4910,37923.9678262,0.0241029469935,5411,40024.3527678
4920,37923.9678262,0.0241512719931,5422,39830.2850915
4930,37923.9678262,0.0242013069928,5433,39944.5564406
4940,37923.9678262,0.0242611789927,5444,39946.2456668
4950,37923.9678262,0.0243240439931,5455,39986.8630093
4960,37923.9678262,0.0243668089934,5466,39999.8961261
4970,37923.9678262,0.0244121409933,5477,39997.0738435
4980,37923.9678262,0.024462175993,5488,39950.0405905
4990,37923.9678262,0.0245186269922,5499,39981.0519758
