it,funval,time,funcount,weight
0,2441.66208467,1.15469999997e-05,10,2751.67528397
10,2477.61537229,2.18109999999e-05,21,2971.40350787
20,2560.7394424,3.07920000004e-05,32,3011.27799437
30,2707.0047451,3.93449999994e-05,43,3151.66446838
40,2896.87240745,4.91809999996e-05,54,3363.1337833
50,3011.77055718,5.73069999987e-05,65,3414.57597456
60,3275.369983,6.7142999999e-05,76,3734.46858995
70,3332.1501567,7.56959999979e-05,87,3871.45359933
80,3332.1501567,8.46769999985e-05,98,3843.09136063
90,3482.09181629,9.40859999989e-05,109,3917.09609268
100,3534.06255618,0.000102639,120,3915.69792057
110,3534.06255618,0.000115468999999,131,3991.04298846
120,3534.06255618,0.000128298999998,142,4064.01435272
130,3534.06255618,0.000139417,153,3991.04298846
140,3534.06255618,0.000151818999999,164,3976.11646128
150,3534.06255618,0.000163792999999,175,3896.17976962
160,3534.06255618,0.000174484999999,186,3991.04298846
170,3534.06255618,0.000186458999998,197,3843.13712823
180,3543.82540085,0.000196294999999,208,3939.73209518
190,3543.82540085,0.000207841999998,219,3991.32434003
200,3543.82540085,0.000217677999999,230,3905.90648117
210,3543.82540085,0.000227941999999,241,3968.07963055
220,3543.82540085,0.000238632999999,252,4028.99687397
230,3543.82540085,0.000248468999999,263,3990.7616369
240,3543.82540085,0.000260443,274,3915.08213725
250,3543.82540085,0.000270279,285,4016.12846682
260,3543.82540085,0.000280543000001,296,3914.79596098
270,3543.82540085,0.000291235000001,307,3902.65221304
280,3543.82540085,0.000300644000001,318,3950.53773791
290,3543.82540085,0.000312618000001,329,3991.32434003
300,3543.82540085,0.000322882000001,340,3871.60872366
310,3543.82540085,0.000332718000001,351,3936.12522729
320,3543.82540085,0.000345548000002,362,3804.67397259
330,3543.82540085,0.000357950000001,373,3974.61620079
340,3543.82540085,0.000370352000001,384,3970.22663973
350,3620.98843006,0.00038361,395,3961.53694165
360,3620.98843006,0.000395585,406,4028.76685126
370,3620.98843006,0.000418250000001,417,4048.51142901
380,3620.98843006,0.000435356000001,428,3994.03000743
390,3620.98843006,0.000449041,439,3908.14201587
400,3620.98843006,0.000464864,450,3991.32434003
410,3620.98843006,0.000477264999999,461,3998.92812404
420,3620.98843006,0.000507627999999,472,3942.02782352
430,3620.98843006,0.000523450999999,483,3999.2094756
440,3620.98843006,0.000534141999999,494,3873.83317212
450,3620.98843006,0.000546115999999,505,4004.38894378
460,3620.98843006,0.000557234999999,516,3999.2094756
470,3620.98843006,0.000574340999998,527,3999.2094756
480,3620.98843006,0.000597861999999,538,4004.38894378
490,3620.98843006,0.000617534,549,3939.50336687
500,3620.98843006,0.000631218999999,560,4035.69515773
510,3620.98843006,0.000644476,571,3962.28805017
520,3620.98843006,0.00065816,582,3979.63810101
530,3620.98843006,0.000672700000001,593,3971.60991923
540,3620.98843006,0.000688951000001,604,3903.76168566
550,3620.98843006,0.000701352,615,3974.4053488
560,3620.98843006,0.000714609999999,626,3924.35452845
570,3620.98843006,0.000728723,637,3923.86440771
580,3620.98843006,0.000741552000001,648,3999.2094756
590,3620.98843006,0.000754809000002,659,3981.31640348
600,3620.98843006,0.000769776,670,3911.58035267
610,3620.98843006,0.000783460999999,681,3912.94939127
620,3620.98843006,0.000795863,692,3999.2094756
630,3620.98843006,0.000808693000002,703,3967.3282246
640,3620.98843006,0.000822378000001,714,3916.4108065
650,3620.98843006,0.000834352,725,3826.68930693
660,3620.98843006,0.000848037000001,736,3920.11740856
670,3620.98843006,0.000860439,747,3879.49385924
680,3620.98843006,0.000873697000001,758,3999.2094756
690,3620.98843006,0.000886526000002,769,3977.44729659
700,3620.98843006,0.000900211000001,780,3999.2094756
710,3620.98843006,0.000912185000001,791,3962.72379347
720,3620.98843006,0.000924587,802,3952.72005666
730,3620.98843006,0.000938272000001,813,3994.03000743
740,3620.98843006,0.000951529000002,824,3949.69266388
750,3620.98843006,0.000965214000001,835,3859.22170003
760,3620.98843006,0.000978471,846,3965.3909084
770,3620.98843006,0.000991727999999,857,3956.07943343
780,3620.98843006,0.001016104,868,4038.75550912
790,3620.98843006,0.001028078,879,3956.50054617
800,3620.98843006,0.001040908,890,3963.99957035
810,3620.98843006,0.001053738,901,3967.3282246
820,3620.98843006,0.001065713,912,4038.75550912
830,3620.98843006,0.00107897,923,3999.2094756
840,3620.98843006,0.001092227,934,3978.11177531
850,3620.98843006,0.001104201,945,3882.13537316
860,3620.98843006,0.00111532,956,3949.08505789
870,3620.98843006,0.001130715,967,3999.2094756
880,3620.98843006,0.001152953,978,3960.06672641
890,3620.98843006,0.001169631,989,3964.02061376
900,3620.98843006,0.001189731,1000,3969.85241371
910,3620.98843006,0.001206409,1011,4075.73785465
920,3620.98843006,0.001235917,1022,3999.2094756
930,3620.98843006,0.001254306,1033,3967.3282246
940,3620.98843006,0.001269701,1044,3975.49367089
950,3620.98843006,0.001281676,1055,3873.83317212
960,3620.98843006,0.001296644,1066,3922.96727283
970,3620.98843006,0.001309046,1077,3999.2094756
980,3620.98843006,0.001320592,1088,3920.11740856
990,3620.98843006,0.001334277,1099,3939.35166742
1000,3620.98843006,0.001347107,1110,3999.2094756
1010,3620.98843006,0.00135737,1121,3999.2094756
1020,3620.98843006,0.001367634,1132,4069.6292861
1030,3620.98843006,0.001378325,1143,3954.42989406
1040,3620.98843006,0.001389016,1154,3999.2094756
1050,3620.98843006,0.001400135,1165,3969.99976796
1060,3620.98843006,0.001414675,1176,3956.71569612
1070,3620.98843006,0.001425794,1187,3908.14201587
1080,3620.98843006,0.001437768,1198,3905.17724799
1090,3620.98843006,0.001448887,1209,3988.66062545
1100,3620.98843006,0.001460434,1220,4048.51142901
1110,3620.98843006,0.001473264,1231,3879.49385924
1120,3620.98843006,0.001489087,1242,3999.2094756
1130,3620.98843006,0.001502772,1253,3999.2094756
1140,3620.98843006,0.001516457,1264,3999.2094756
1150,3620.98843006,0.001529714,1275,3871.72813717
1160,3620.98843006,0.001541688,1286,4009.75832575
1170,3620.98843006,0.001553234,1297,3962.72379347
1180,3620.98843006,0.001564353,1308,3999.2094756
1190,3620.98843006,0.001574616,1319,3905.97227487
1200,3620.98843006,0.001588301,1330,3950.76868354
1210,3620.98843006,0.001600703,1341,3980.14892491
1220,3620.98843006,0.001614816,1352,3911.19757407
1230,3620.98843006,0.001625935,1363,4020.10874281
1240,3620.98843006,0.001639619,1374,3843.11067235
1250,3620.98843006,0.001653304,1385,4041.70325508
1260,3620.98843006,0.001667417,1396,4016.1187592
1270,3620.98843006,0.001679818,1407,4025.00559803
1280,3620.98843006,0.001691792,1418,3999.2094756
1290,3620.98843006,0.001704193,1429,3982.300192
1300,3620.98843006,0.001716168,1440,3999.2094756
1310,3620.98843006,0.001727715,1451,3949.69266388
1320,3620.98843006,0.001738834,1462,3903.56572259
1330,3620.98843006,0.001759361,1473,3969.35642124
1340,3620.98843006,0.001772619,1484,3951.82758819
1350,3620.98843006,0.001783738,1495,4178.63023176
1360,3620.98843006,0.001794429,1506,3940.09472428
1370,3620.98843006,0.001807686,1517,3999.2094756
1380,3620.98843006,0.001818805,1528,3955.20352483
1390,3620.98843006,0.001831634,1539,3826.68930693
1400,3620.98843006,0.001843609,1550,3955.68511757
1410,3620.98843006,0.00185986,1561,4108.66652199
1420,3620.98843006,0.001873973,1572,4023.96788146
1430,3620.98843006,0.001885947,1583,3969.65209994
1440,3620.98843006,0.001897493,1594,3951.82758819
1450,3620.98843006,0.00191631,1605,3999.2094756
1460,3620.98843006,0.001935554,1616,3974.98907957
1470,3620.98843006,0.001950949,1627,3916.07386858
1480,3620.98843006,0.001965061,1638,3924.35452845
1490,3620.98843006,0.001984733,1649,3999.2094756
1500,3620.98843006,0.001997563,1660,3999.2094756
1510,3620.98843006,0.002009965,1671,3961.53694165
1520,3620.98843006,0.002022367,1682,4036.88200955
1530,3620.98843006,0.002034341,1693,3975.96476613
1540,3620.98843006,0.002045887,1704,3940.3888447
1550,3620.98843006,0.002058716,1715,3988.85053925
1560,3620.98843006,0.002069835,1726,4024.0136024
1570,3620.98843006,0.002080954,1737,3871.08268731
1580,3620.98843006,0.002094211,1748,3999.2094756
1590,3620.98843006,0.00210533,1759,3987.28076086
1600,3620.98843006,0.002119015,1770,3999.2094756
1610,3620.98843006,0.002130134,1781,4024.0136024
1620,3620.98843006,0.002142536,1792,3999.2094756
1630,3620.98843006,0.002159214,1803,4023.42987163
1640,3620.98843006,0.002172471,1814,3843.11067235
1650,3620.98843006,0.002189149,1825,3960.18477479
1660,3620.98843006,0.002201978,1836,3975.75023437
1670,3620.98843006,0.002213952,1847,3999.2094756
1680,3620.98843006,0.002227637,1858,3999.2094756
1690,3620.98843006,0.002239184,1869,3999.2094756
1700,3620.98843006,0.002251158,1880,3877.78619595
1710,3620.98843006,0.002265271,1891,4047.65026766
1720,3620.98843006,0.00227724600001,1902,3929.47534718
1730,3620.98843006,0.00229135800001,1913,3999.2094756
1740,3620.98843006,0.00230461500001,1924,3914.22191665
1750,3620.98843006,0.00232129400001,1935,3826.68930693
1760,3620.98843006,0.002333269,1946,4028.76685126
1770,3620.98843006,0.00234567,1957,3899.4028794
1780,3620.98843006,0.002356361,1968,3851.30361537
1790,3620.98843006,0.002367907,1979,3975.5185319
1800,3620.98843006,0.002380736,1990,3969.85241371
1810,3620.98843006,0.002393993,2001,3963.67306004
1820,3620.98843006,0.00240554,2012,3980.74876289
1830,3620.98843006,0.002416659,2023,3999.2094756
1840,3620.98843006,0.002428633,2034,3951.82758819
1850,3620.98843006,0.002439325,2045,3952.72005666
1860,3620.98843006,0.00245301,2056,3999.2094756
1870,3620.98843006,0.002465412,2067,3988.85053925
1880,3620.98843006,0.002477387,2078,3993.24511823
1890,3620.98843006,0.002489361,2089,4047.65026766
1900,3620.98843006,0.002504329,2100,4048.52319727
1910,3620.98843006,0.002517586,2111,3989.4237883
1920,3620.98843006,0.002529133,2122,3979.63810101
1930,3620.98843006,0.002543246,2133,3843.11067235
1940,3620.98843006,0.002554365,2144,3999.2094756
1950,3620.98843006,0.002566767,2155,3911.19757407
1960,3620.98843006,0.00258259,2166,3900.60556878
1970,3620.98843006,0.00259542,2177,3956.71569612
1980,3620.98843006,0.002610388,2188,4036.88200955
1990,3620.98843006,0.002625356,2199,3949.08505789
2000,3620.98843006,0.002638186,2210,3975.35204611
2010,3620.98843006,0.00265016,2221,3977.44729659
2020,3620.98843006,0.002662562,2232,3928.06206147
2030,3620.98843006,0.002674536,2243,3987.47985499
2040,3620.98843006,0.002686937,2254,3998.08406936
2050,3620.98843006,0.002699339,2265,3972.01840753
2060,3620.98843006,0.002710458,2276,4023.96788146
2070,3620.98843006,0.002722432,2287,3914.22191665
2080,3620.98843006,0.002736972,2298,3951.82758819
2090,3620.98843006,0.002748519,2309,4044.06466464
2100,3620.98843006,0.002760921,2320,3974.4053488
2110,3620.98843006,0.002774178,2331,4133.77504272
2120,3620.98843006,0.002787008,2342,3873.83317212
2130,3620.98843006,0.00279941,2353,3999.2094756
2140,3620.98843006,0.002812668,2364,3999.2094756
2150,3620.98843006,0.002825497,2375,3999.2094756
2160,3620.98843006,0.002847307,2386,3961.53694165
2170,3620.98843006,0.002859281,2397,3999.2094756
2180,3620.98843006,0.002871683,2408,3867.1916233
2190,3620.98843006,0.002883229,2419,3979.60259863
2200,3620.98843006,0.002894348,2430,3903.56572259
2210,3620.98843006,0.002906322,2441,3871.72813717
2220,3620.98843006,0.002919151,2452,3975.96476613
2230,3620.98843006,0.002931553,2463,3999.2094756
2240,3620.98843006,0.002947376,2474,4108.66652199
2250,3620.98843006,0.002959778,2485,3942.02782352
2260,3620.98843006,0.002982016,2496,3904.34625676
2270,3620.98843006,0.002996984,2507,3940.3888447
2280,3620.98843006,0.003010669,2518,3916.07386858
2290,3620.98843006,0.003024354,2529,3999.2094756
2300,3620.98843006,0.003037611,2540,4038.75550912
2310,3620.98843006,0.003051296,2551,3970.05694176
2320,3620.98843006,0.003063698,2562,3999.2094756
2330,3620.98843006,0.003077811,2573,4038.75550912
2340,3620.98843006,0.003091068,2584,3938.49783578
2350,3620.98843006,0.00310347,2595,3999.2094756
2360,3620.98843006,0.003117155,2606,3871.68447159
2370,3620.98843006,0.003128702,2617,3916.4108065
2380,3620.98843006,0.003140676,2628,3967.86539973
2390,3620.98843006,0.003154361,2639,3979.63810101
2400,3620.98843006,0.003166763,2650,3999.2094756
2410,3620.98843006,0.003178738,2661,4036.13090103
2420,3620.98843006,0.003190712,2672,3999.2094756
2430,3620.98843006,0.003202687,2683,3871.72813717
2440,3620.98843006,0.003246735,2694,4009.75832575
2450,3620.98843006,0.00326042,2705,3877.78619595
2460,3620.98843006,0.003272822,2716,3952.54688374
2470,3620.98843006,0.003285652,2727,3921.82110833
2480,3620.98843006,0.003297626,2738,3900.60556878
2490,3620.98843006,0.0033096,2749,3983.67107107
2500,3620.98843006,0.003320719,2760,3999.2094756
2510,3620.98843006,0.003332693,2771,3989.4237883
2520,3620.98843006,0.00334595,2782,3920.11740856
2530,3620.98843006,0.003358352,2793,3903.56572259
2540,3620.98843006,0.003370326,2804,3999.2094756
2550,3620.98843006,0.003382301,2815,3970.64226851
2560,3620.98843006,0.003394275,2826,3999.2094756
2570,3620.98843006,0.003407104,2837,3874.50606507
2580,3620.98843006,0.00341865,2848,4024.0136024
2590,3620.98843006,0.003430624,2859,4048.8177292
2600,3620.98843006,0.003443453,2870,3981.31640348
2610,3620.98843006,0.003454999,2881,3999.2094756
2620,3620.98843006,0.003469539,2892,3960.33943048
2630,3620.98843006,0.003482796,2903,3961.53694165
2640,3620.98843006,0.003495198,2914,3999.2094756
2650,3620.98843006,0.003507172,2925,3973.41335318
2660,3620.98843006,0.003521285,2936,3957.41094118
2670,3620.98843006,0.003535397,2947,4094.65726554
2680,3620.98843006,0.003550793,2958,3975.96476613
2690,3620.98843006,0.003565333,2969,3979.63810101
2700,3620.98843006,0.003579446,2980,3859.22170003
2710,3620.98843006,0.003592276,2991,3981.31640348
2720,3620.98843006,0.003605106,3002,3999.2094756
2730,3620.98843006,0.003618364,3013,3957.41094118
2740,3620.98843006,0.003629911,3024,3963.99957035
2750,3620.98843006,0.003640602,3035,3975.35204611
2760,3620.98843006,0.003651721,3046,4030.28854251
2770,3620.98843006,0.003663267,3057,3999.2094756
2780,3620.98843006,0.003677807,3068,3983.43920445
2790,3620.98843006,0.003689353,3079,4024.0136024
2800,3620.98843006,0.003701327,3090,3951.48558063
2810,3620.98843006,0.003713301,3101,3867.1916233
2820,3620.98843006,0.003725276,3112,3900.60556878
2830,3620.98843006,0.003737251,3123,3916.4108065
2840,3620.98843006,0.003749653,3134,3999.2094756
2850,3620.98843006,0.003762055,3145,3979.77445304
2860,3620.98843006,0.00377574,3156,3999.2094756
2870,3620.98843006,0.00378857,3167,4097.83691893
2880,3620.98843006,0.003802255,3178,3944.01036287
2890,3620.98843006,0.003818933,3189,3999.2094756
2900,3620.98843006,0.003832191,3200,3998.64677248
2910,3620.98843006,0.003846731,3211,3987.28076086
2920,3620.98843006,0.00387068,3222,4048.8177292
2930,3620.98843006,0.00388735800001,3233,3999.2094756
2940,3620.98843006,0.00390275300001,3244,3999.2094756
2950,3620.98843006,0.00391643800001,3255,3960.18477479
2960,3620.98843006,0.00393055100001,3266,3999.2094756
2970,3620.98843006,0.00394380800001,3277,3905.17724799
2980,3620.98843006,0.00395706600001,3288,3922.96727283
2990,3620.98843006,0.00397075100001,3299,3955.68511757
3000,3620.98843006,0.00398400900001,3310,3944.01036287
3010,3620.98843006,0.00399641100001,3321,3921.16007398
3020,3620.98843006,0.00400924100001,3332,3984.92587205
3030,3620.98843006,0.00402164300001,3343,3999.2094756
3040,3620.98843006,0.00403789400001,3354,3949.89575394
3050,3620.98843006,0.00405115100001,3365,3960.06672641
3060,3620.98843006,0.00406526400001,3376,3916.4108065
3070,3620.98843006,0.00407766600001,3387,3974.4053488
3080,3620.98843006,0.00409092400001,3398,4038.75550912
3090,3620.98843006,0.00410460800001,3409,3975.5185319
3100,3620.98843006,0.00411658200001,3420,3916.07386858
3110,3620.98843006,0.00412898400001,3431,3975.96476613
3120,3620.98843006,0.00414181400001,3442,3988.85053925
3130,3620.98843006,0.00415421600001,3453,3985.61394156
3140,3620.98843006,0.00416790100001,3464,3999.2094756
3150,3620.98843006,0.00418073100001,3475,3999.2094756
3160,3620.98843006,0.00419356100001,3486,3999.2094756
3170,3620.98843006,0.00420510800001,3497,3999.2094756
3180,3620.98843006,0.00421793800001,3508,3999.2094756
3190,3620.98843006,0.00423547100001,3519,3972.01840753
3200,3620.98843006,0.00424701700001,3530,3999.2094756
3210,3620.98843006,0.00425813600001,3541,3972.01840753
3220,3620.98843006,0.00426925500001,3552,3960.18477479
3230,3620.98843006,0.00428080200001,3563,3982.50133636
3240,3620.98843006,0.00429149300001,3574,3999.2094756
3250,3620.98843006,0.00430304000001,3585,3969.35642124
3260,3620.98843006,0.00431415900001,3596,4048.8177292
3270,3620.98843006,0.00432442300001,3607,3999.2094756
3280,3620.98843006,0.00433554200001,3618,3999.2094756
3290,3620.98843006,0.00434666100001,3629,3935.4469736
3300,3620.98843006,0.00435692500001,3640,3826.68930693
3310,3620.98843006,0.00436932700001,3651,4028.41918325
3320,3620.98843006,0.00437959000001,3662,3960.33943048
3330,3620.98843006,0.00439113700001,3673,3910.53734862
3340,3620.98843006,0.00440182900001,3684,3974.98907957
3350,3620.98843006,0.00441380400001,3695,3940.3888447
3360,3620.98843006,0.00442577800001,3706,3873.83317212
3370,3620.98843006,0.00443860800001,3717,3977.78407028
3380,3620.98843006,0.00445186600001,3728,3999.2094756
3390,3620.98843006,0.00446298500001,3739,3991.32434003
3400,3620.98843006,0.00447453100001,3750,3999.2094756
3410,3620.98843006,0.00448693300001,3761,4028.76685126
3420,3620.98843006,0.00449676900001,3772,3998.08406936
3430,3620.98843006,0.00451729600001,3783,4024.0136024
3440,3620.98843006,0.00454808600001,3794,3832.93826155
3450,3620.98843006,0.00456391000001,3805,3956.71569612
3460,3620.98843006,0.00457673900001,3816,3940.09472428
3470,3620.98843006,0.00458828600001,3827,3956.07943343
3480,3620.98843006,0.00460325300001,3838,3871.68447159
3490,3620.98843006,0.00461608200001,3849,3989.49196432
3500,3620.98843006,0.00462891100001,3860,3988.85053925
3510,3620.98843006,0.00464045700001,3871,3951.82758819
3520,3620.98843006,0.00465328700001,3882,4028.41918325
3530,3620.98843006,0.00466697200001,3893,3871.72813717
3540,3620.98843006,0.00468023000001,3904,3956.50054617
3550,3620.98843006,0.00469348700002,3915,3998.92812404
3560,3620.98843006,0.00470546100002,3926,3832.93826155
3570,3620.98843006,0.00471743600002,3937,4097.83691893
3580,3620.98843006,0.00472941100002,3948,3871.08268731
3590,3620.98843006,0.00474138500002,3959,3999.2094756
3600,3620.98843006,0.00475335900002,3970,3999.2094756
3610,3620.98843006,0.00476490500002,3981,3949.89575394
3620,3620.98843006,0.00477645200002,3992,4012.80500964
3630,3620.98843006,0.00478757100002,4003,3999.2094756
3640,3620.98843006,0.00479954500002,4014,4178.63023176
3650,3620.98843006,0.00481152000002,4025,4004.38894378
3660,3620.98843006,0.00482520500002,4036,3888.81125013
3670,3620.98843006,0.00484017300002,4047,4078.30154264
3680,3620.98843006,0.00485257500002,4058,3979.77445304
3690,3620.98843006,0.00486412200002,4069,4147.1506406
3700,3620.98843006,0.00487566800002,4080,4030.28854251
3710,3620.98843006,0.00488721500002,4091,3951.77786618
3720,3620.98843006,0.00489918900002,4102,3950.76868354
3730,3620.98843006,0.00491372900002,4113,3998.08406936
3740,3620.98843006,0.00492527500002,4124,4088.91985368
3750,3620.98843006,0.00493853200002,4135,3982.50133636
3760,3620.98843006,0.00495050700002,4146,3999.2094756
3770,3620.98843006,0.00496333700002,4157,3874.50606507
3780,3620.98843006,0.00497531200002,4168,3999.2094756
3790,3620.98843006,0.00498771400002,4179,4020.10874281
3800,3620.98843006,0.00500011600002,4190,3874.50606507
3810,3620.98843006,0.00501123500002,4201,3922.96727283
3820,3620.98843006,0.00502278200002,4212,4020.97165462
3830,3620.98843006,0.00503518400002,4223,4023.42987163
3840,3620.98843006,0.00505271700002,4234,4041.70325508
3850,3620.98843006,0.00507581000002,4245,3967.3282246
3860,3620.98843006,0.00508864000002,4256,3999.2094756
3870,3620.98843006,0.00510531800002,4267,3928.06206147
3880,3620.98843006,0.00512242400002,4278,3905.17724799
3890,3620.98843006,0.00513311500002,4289,3949.3061775
3900,3620.98843006,0.00514765500002,4300,3828.37375788
3910,3620.98843006,0.00515963000002,4311,3959.99572167
3920,3620.98843006,0.00517417000002,4322,3929.47534718
3930,3620.98843006,0.00518913800002,4333,4016.1187592
3940,3620.98843006,0.00520196800002,4344,3929.47534718
3950,3620.98843006,0.00521565300002,4355,4030.28854251
3960,3620.98843006,0.00523062100002,4366,3999.2094756
3970,3620.98843006,0.00524174000002,4377,3938.49783578
3980,3620.98843006,0.00526312300002,4388,3905.88429189
3990,3620.98843006,0.00527552500002,4399,3869.8193491
4000,3620.98843006,0.00528878300002,4410,3909.42276333
4010,3620.98843006,0.00530118500002,4421,3947.61723075
4020,3620.98843006,0.00531358700002,4432,4033.0280428
4030,3620.98843006,0.00532641700002,4443,3999.2094756
4040,3620.98843006,0.00533967400002,4454,3999.2094756
4050,3620.98843006,0.00535164800002,4465,3978.11177531
4060,3620.98843006,0.00536704300002,4476,3960.18477479
4070,3620.98843006,0.00538585900002,4487,3999.2094756
4080,3620.98843006,0.00539868800002,4498,3924.35452845
4090,3620.98843006,0.00541750400002,4509,3963.67306004
4100,3620.98843006,0.00543332700002,4520,3970.64226851
4110,3620.98843006,0.00544701200002,4531,3942.02782352
4120,3620.98843006,0.00546369100002,4542,3999.2094756
4130,3620.98843006,0.00547951400002,4553,3992.06767383
4140,3620.98843006,0.00549833100002,4564,3999.2094756
4150,3620.98843006,0.00551543700002,4575,3936.52132386
4160,3620.98843006,0.00553083200002,4586,3999.2094756
4170,3620.98843006,0.00554793800002,4597,3987.28076086
4180,3620.98843006,0.00557060400002,4608,3982.50133636
4190,3620.98843006,0.00558557200002,4619,3961.53694165
4200,3620.98843006,0.00559882900002,4630,3952.29099314
4210,3620.98843006,0.00561123100002,4641,3962.28805017
4220,3620.98843006,0.00562363300002,4652,4020.3071759
4230,3620.98843006,0.00563646300002,4663,3949.3061775
4240,3620.98843006,0.00564800900002,4674,3905.88429189
4250,3620.98843006,0.00566254900002,4685,3999.2094756
4260,3620.98843006,0.00567580600002,4696,3999.2094756
4270,3620.98843006,0.00568863600002,4707,4028.41918325
4280,3620.98843006,0.00569975500002,4718,3916.07386858
4290,3620.98843006,0.00571172900002,4729,3999.2094756
4300,3620.98843006,0.00572327600002,4740,4036.13090103
4310,3620.98843006,0.00573525100002,4751,3969.35642124
4320,3620.98843006,0.00574679800002,4762,3916.4108065
4330,3620.98843006,0.00576304900002,4773,4041.70325508
4340,3620.98843006,0.00577630600002,4784,3851.30361537
4350,3620.98843006,0.00578956300003,4795,3984.28294842
4360,3620.98843006,0.00580110900002,4806,3908.14201587
4370,3620.98843006,0.00581393800003,4817,3961.53694165
4380,3620.98843006,0.00582805100003,4828,3970.05694176
4390,3620.98843006,0.00584130900003,4839,3951.48558063
4400,3620.98843006,0.00585328400003,4850,3965.79319712
4410,3620.98843006,0.00586611400002,4861,3913.79161674
4420,3620.98843006,0.00587937100003,4872,3916.4108065
4430,3620.98843006,0.00589262800003,4883,3999.2094756
4440,3620.98843006,0.00590930600003,4894,3947.61723075
4450,3620.98843006,0.00592299100003,4905,3999.2094756
4460,3620.98843006,0.00593582100003,4916,3999.2094756
4470,3620.98843006,0.00595121600003,4927,3823.18567253
4480,3620.98843006,0.00596490100003,4938,3965.3909084
4490,3620.98843006,0.00597986900003,4949,4072.18083986
4500,3620.98843006,0.00599612000003,4960,3989.49196432
4510,3620.98843006,0.00600937800003,4971,3991.32434003
4520,3620.98843006,0.00602434600003,4982,3999.2094756
4530,3620.98843006,0.00603803100002,4993,3999.2094756
4540,3620.98843006,0.00605043300003,5004,4041.70325508
4550,3620.98843006,0.00606326200002,5015,3973.41335318
4560,3620.98843006,0.00607651900003,5026,3979.77445304
4570,3620.98843006,0.00609790200003,5037,4104.83919136
4580,3620.98843006,0.00611201400003,5048,3929.47534718
4590,3620.98843006,0.00612569900003,5059,4023.42987163
4600,3620.98843006,0.00613938400003,5070,3859.22170003
4610,3620.98843006,0.00615135800003,5081,3999.2094756
4620,3620.98843006,0.00616718100003,5092,3987.36400375
4630,3620.98843006,0.00618300400003,5103,3969.85241371
4640,3620.98843006,0.00619668900003,5114,3994.03000743
4650,3620.98843006,0.00620909100003,5125,3999.2094756
4660,3620.98843006,0.00622619700003,5136,3999.2094756
4670,3620.98843006,0.00624116500003,5147,3999.2094756
4680,3620.98843006,0.00625613300003,5158,4072.18083986
4690,3620.98843006,0.00627152800003,5169,4034.41938085
4700,3620.98843006,0.00628564000003,5180,3871.68447159
4710,3620.98843006,0.00629932500003,5191,3999.2094756
4720,3620.98843006,0.00631172700003,5202,3940.3888447
4730,3620.98843006,0.00632327300003,5213,3984.28294842
4740,3620.98843006,0.00633482000003,5224,3922.96727283
4750,3620.98843006,0.00634551200003,5235,3949.08505789
4760,3620.98843006,0.00635705900003,5246,3956.50054617
4770,3620.98843006,0.00636860600003,5257,3979.77445304
4780,3620.98843006,0.00637886900003,5268,3928.06206147
4790,3620.98843006,0.00639255400003,5279,3903.76168566
4800,3620.98843006,0.00640495600003,5290,4075.73785465
4810,3620.98843006,0.00641650300003,5301,3982.50133636
4820,3620.98843006,0.00642805000003,5312,4016.1187592
4830,3620.98843006,0.00643788600003,5323,3999.2094756
4840,3620.98843006,0.00644986000003,5334,4020.97165462
4850,3620.98843006,0.00646140600003,5345,3998.08406936
4860,3620.98843006,0.00647551800003,5356,3998.64677248
4870,3620.98843006,0.00648620900003,5367,3999.2094756
4880,3620.98843006,0.00649775500003,5378,4020.10874281
4890,3620.98843006,0.00651144000003,5389,3999.2094756
4900,3620.98843006,0.00652213100003,5400,3999.2094756
4910,3620.98843006,0.00654522400003,5411,3922.96727283
4920,3620.98843006,0.00655719800003,5422,3957.41094118
4930,3620.98843006,0.00656960000003,5433,3951.77786618
4940,3620.98843006,0.00658242900002,5444,3920.78196773
4950,3620.98843006,0.00659397600002,5455,3999.2094756
4960,3620.98843006,0.00660552200002,5466,3977.44729659
4970,3620.98843006,0.00661706900003,5477,3992.06767383
4980,3620.98843006,0.00662818800003,5488,3999.2094756
4990,3620.98843006,0.00663930700003,5499,4023.96788146
