it,funval,time,funcount,weight
0,5990.05548642,0.000608978000059,477,5322.0970793
10,6245.42848555,0.00124276000008,846,5842.60762807
20,6547.13822928,0.0018744030001,1218,5652.42491608
30,6486.13633609,0.00250390800011,1589,6019.43568601
40,6814.34970809,0.00316548700005,1960,6004.59296778
50,6879.37227328,0.00379670300003,2332,6621.81482098
60,6977.13286925,0.00450617900003,2689,5822.31251408
70,6615.1075248,0.00518742999998,3056,5830.79858222
80,6748.48670284,0.00581607999993,3428,6151.53835348
90,6687.7606152,0.00645798699986,3805,5849.9832255
100,6594.16848891,0.00711657199986,4169,5965.68638064
110,6752.25741632,0.00774864299979,4538,5931.54482518
120,6843.04705846,0.00835633799977,4906,6411.75636193
130,6887.74773656,0.00896788099976,5276,6239.62558281
140,6864.52493454,0.00957258199981,5638,6527.2650433
150,6857.39488353,0.0101948169997,6008,6546.45928552
160,6927.85686402,0.0108204729997,6378,6196.11254224
170,6729.42786934,0.0114418519997,6750,6157.29083583
180,6748.73487712,0.0120726399998,7115,6372.9290839
190,6957.41830669,0.0127059939998,7484,6269.15963196
200,6814.85095496,0.0133397759998,7849,6399.51696856
210,6773.6092067,0.0139983619999,8221,6081.51926694
220,6767.47829729,0.014715536,8584,6464.24800489
230,6759.27911658,0.015366424,8958,6632.8927039
240,6792.68032296,0.0159831,9327,6410.84522355
250,6887.06857742,0.0166472449999,9691,6594.0414463
260,6790.42820102,0.0173028369999,10065,6187.22381774
270,6856.38773664,0.0179417499999,10442,6122.28645209
280,6806.7245516,0.0185738209999,10809,6522.19629014
290,6979.01629847,0.0195578509999,11179,6537.76518464
300,6906.83954478,0.0201903499999,11548,6501.23605058
310,6910.73138324,0.0208438029999,11912,6520.75609266
320,6863.63427356,0.0214891319999,12285,6551.66432734
330,6940.22562948,0.022123769,12647,6517.25679515
340,6998.19033677,0.022740017,13016,6464.06975992
350,6969.24760111,0.0233772190001,13381,6433.74977944
360,7004.58339086,0.0240512,13750,6660.62096126
370,7091.72434614,0.024760676,14117,6311.66328161
380,6955.06778157,0.0256095670001,14476,6472.0082279
390,7116.91226042,0.0263293060001,14846,6501.14531292
400,7019.34244548,0.0270349340001,15214,6350.43115826
410,6921.13050676,0.0277426990001,15584,6277.23988173
420,6930.88550439,0.028455169,15951,6279.23266203
430,7149.24529108,0.029159086,16324,6479.00382109
440,6978.75800169,0.029872411,16684,6667.62122438
450,7006.17367861,0.0306096850001,17044,6519.99491193
460,7005.87434531,0.031316595,17411,6475.07865754
470,6988.32220774,0.031947383,17775,6652.5142587
480,7046.96835816,0.032579454,18145,6410.79780723
490,7005.57922014,0.033201689,18511,6680.55637019
500,7091.30501614,0.033827345,18873,6522.77999336
510,7087.1721654,0.034458561,19239,6486.69638333
520,7151.33819724,0.0351167179999,19611,6657.15483725
530,7100.51451438,0.035768033,19988,6353.74650992
540,7129.26175719,0.0410961599999,20358,6530.64357603
550,7278.97057264,0.0417252379999,20720,6552.85026414
560,7323.17076889,0.0423804019999,21088,6474.59187482
570,7249.23781224,0.043024019,21456,6377.23171765
580,7236.95444976,0.04366336,21819,6660.38557585
590,7214.40431114,0.0443352029999,22185,6367.31267836
600,7190.68315955,0.044945464,22556,6640.21963162
610,7214.52316563,0.045577535,22926,6504.21646447
620,7157.34272077,0.046197204,23298,6724.37660054
630,7230.45662373,0.0468429599999,23671,6627.71798894
640,7140.86466266,0.047479735,24038,6185.61456246
650,7236.25834717,0.048116083,24404,6346.0336407
660,7274.14042116,0.048757563,24777,6360.58936419
670,7372.87097082,0.0493862119999,25146,6221.30611918
680,7250.56458028,0.0500122959999,25513,6746.85394
690,7282.6849552,0.0506683149998,25882,6596.75725229
700,7254.91752493,0.0513029519998,26251,6788.73446886
710,7327.87556683,0.0519277529997,26614,6755.57417482
720,7315.54098614,0.0525730809997,26982,6402.7825313
730,7302.91000436,0.0532184089997,27346,6601.14805692
740,7238.23734296,0.0538453479996,27710,6683.43423698
750,7296.41323619,0.0544838329996,28078,6668.78040314
760,7289.90192294,0.0551236019995,28451,6620.08374623
770,7361.76943938,0.0558001489994,28829,6313.89691479
780,7244.93688407,0.0564335029994,29195,6499.68731483
790,7151.30475412,0.0570630079994,29567,6484.99342681
800,7302.76377783,0.0576702749995,29941,6525.54745626
810,7182.07280836,0.0583113269995,30301,6277.45306124
820,7284.2131696,0.0589587939995,30667,6664.72688794
830,7232.91290611,0.0596088259996,31031,6500.39937982
840,7263.36036697,0.0602567209995,31399,6559.90448445
850,7269.09869544,0.0609144509995,31761,6556.09421524
860,7339.50506327,0.0616055379994,32124,6723.16713194
870,7285.86168118,0.0622504389994,32485,6494.54659272
880,7320.76166333,0.0628778059994,32852,6603.88927903
890,7398.58768711,0.0635175749993,33221,6497.21313154
900,7312.53785743,0.0641513569993,33585,6466.06497734
910,7324.34802818,0.0647954019994,33950,6675.21271236
920,7443.81041562,0.0654283279994,34321,6788.90657608
930,7359.78224111,0.0660569779993,34691,6608.3168642
940,7495.3293796,0.0667014509994,35059,6410.43358784
950,7553.50094979,0.0673382269994,35424,6432.80928317
960,7566.74133684,0.0679805619993,35797,6555.33641074
970,7511.08428711,0.0686134879994,36163,6653.02938552
980,7530.58342298,0.0692164789995,36523,6599.17975209
990,7419.85258463,0.0698489779995,36886,6680.70753424
1000,7485.60883976,0.0704528239995,37246,6777.44810389
1010,7498.09714962,0.0710921649995,37606,6617.23095814
1020,7546.20930829,0.0716981489995,37973,6744.98000808
1030,7527.36793762,0.0723246609996,38339,6765.36250859
1040,7517.1025941,0.0729580149996,38705,6919.56974534
1050,7558.54219947,0.0735926519997,39076,6787.84760692
1060,7510.08741389,0.0742349869997,39441,6738.31079547
1070,7516.95691655,0.0748841639997,39800,6503.67523126
1080,7488.14562964,0.0755363349997,40168,6494.54309701
1090,7483.67108224,0.0761688339996,40540,6506.76538627
1100,7463.50865492,0.0768231429997,40913,6580.46997718
1110,7437.78727634,0.0774842949997,41279,6367.23895282
1120,7420.18059047,0.0781531439997,41655,6408.11732905
1130,7509.27432295,0.0787800829996,42025,6581.86839413
1140,7379.77486951,0.0794288329996,42386,6473.57831578
1150,7459.92012289,0.0800835699996,42756,6397.73963733
1160,7472.49395846,0.0807631099996,43120,6522.79677134
1170,7372.26095478,0.0814358079996,43481,6646.70077759
1180,7474.87176278,0.0820858409996,43842,6544.1791802
1190,7460.83240446,0.0827153459996,44217,6298.67080144
1200,7329.22198207,0.0833465609996,44588,6358.62658043
1210,7328.35882349,0.0839760659997,44953,6425.75551783
1220,7358.6216494,0.0845944519997,45318,6593.78419066
1230,7400.25848515,0.0852402079997,45692,6210.63277619
1240,7337.99243102,0.0858825429998,46060,6407.52730821
1250,7348.94571918,0.0865129029997,46431,6387.84706124
1260,7388.81751183,0.0871432639997,46796,6575.56139419
1270,7365.87918077,0.0877984279997,47170,6641.11693007
1280,7381.24807326,0.0884403349996,47532,6720.14392572
1290,7388.39977581,0.0890715509996,47903,6608.85484294
1300,7383.94700499,0.0896997729996,48266,6516.67638477
1310,7386.0817742,0.0903279959996,48633,6703.51795663
1320,7461.79097753,0.0909840149995,49004,6486.99257553
1330,7366.2142321,0.0916357579996,49366,6686.52193715
1340,7460.55730209,0.0922892109995,49732,6425.43569909
1350,7367.7655149,0.0929165779995,50094,6637.95545777
1360,7362.25440733,0.0935764459996,50457,6676.14321748
1370,7439.08205442,0.0942038129996,50831,6842.83154634
1380,7337.52445094,0.0948055209996,51197,6941.00637086
1390,7458.45029174,0.0954371639996,51560,6796.00955105
1400,7256.07702295,0.0960649579996,51936,6512.82372519
1410,7359.47509462,0.0966846269996,52314,6805.08895632
1420,7437.51854513,0.0972837689997,52681,6483.25471174
1430,7417.27719614,0.0979290969997,53049,6648.94375492
1440,7516.77076765,0.0985295219997,53416,6903.71221466
1450,7434.58030362,0.0991667239997,53785,6657.99611838
1460,7634.15660577,0.0998120519997,54160,6790.30093927
1470,7411.7532457,0.100479619,54530,7008.55393144
1480,7429.5325876,0.101133073,54898,6786.13606379
1490,7402.71019704,0.101780112,55264,6739.8915302
1500,7380.59281945,0.102442546,55633,6874.56073603
1510,7575.4283397,0.103092578,56002,6836.10621368
1520,7635.09759265,0.103722938,56370,6984.54121419
1530,7643.6943206,0.104349449,56737,7102.5978644
1540,7748.56875892,0.104978526,57100,6937.94848175
1550,7683.80829372,0.105610597,57466,6802.34243522
1560,7725.05408858,0.106241813,57826,6931.50738933
1570,7681.46960711,0.106877305,58192,6892.48242447
1580,7726.22565218,0.107510659,58558,7097.34770177
1590,7693.31486072,0.108169672,58925,7195.09267941
1600,7606.93365831,0.108812007,59294,6911.21722039
1610,7652.8507375,0.109453058,59665,6885.53813711
1620,7586.67505806,0.110074438,60036,6886.65593037
1630,7663.90732448,0.110710358,60402,7121.77812718
1640,7630.59778138,0.111327889,60776,6985.56606269
1650,7551.09670611,0.111965092,61148,7084.22729923
1660,7562.56719547,0.112606999,61511,6587.78663103
1670,7607.32122861,0.113235221,61875,6909.4924452
1680,7629.17060954,0.113889958,62243,7026.42386189
1690,7596.67915515,0.11456009,62617,7018.04089559
1700,7625.34138712,0.115196438,62979,7169.63406919
1710,7654.38617185,0.115856734,63342,7107.31792646
1720,7653.45114824,0.116516174999,63702,7122.57430626
1730,7663.08974248,0.117149100999,64070,7355.33695503
1740,7661.71546579,0.117805547999,64434,6934.54584437
1750,7643.85762247,0.118447026999,64798,7109.48774048
1760,7634.46451555,0.119111599999,65165,7045.7505734
1770,7709.67363489,0.119748375,65531,7119.08093432
1780,7620.29086501,0.120417224,65905,7086.19380473
1790,7711.48412756,0.121069822,66275,7128.98292346
1800,7687.79771133,0.121708736,66642,7157.80115907
1810,7671.66091699,0.122339524,67006,6930.00276225
1820,7577.68176067,0.122969884,67375,6649.54686884
1830,7749.23916347,0.12359554,67750,7014.11779135
1840,7710.0112944,0.12420965,68124,7088.25215409
1850,7846.07054138,0.124855406,68497,7231.41532916
1860,7792.38476869,0.125488332,68869,7381.20710886
1870,7756.13985841,0.126125962,69241,7410.34477074
1880,7676.83664873,0.12680037,69618,7159.66430089
1890,7745.88167929,0.127452968,69988,7352.54444953
1900,7625.3943169,0.128098724,70359,7243.87285609
1910,7671.50736215,0.128720104,70724,7244.65900894
1920,7583.87436488,0.129354741,71086,6761.84029483
1930,7587.76995117,0.129976976,71449,7014.51573076
1940,7551.99011179,0.130606054,71811,7255.60404827
1950,7620.41741949,0.131240691,72184,7238.84337186
1960,7626.14819944,0.13189671,72552,7204.19240725
1970,7627.43254182,0.132558289,72922,7414.12878527
1980,7525.9613535,0.133213026,73283,7241.01849174
1990,7725.98580228,0.133858354,73654,7507.45903686
2000,7487.12406609,0.134499834,74020,7193.60554004
2010,7537.0562317,0.13516013,74378,7281.62849867
2020,7476.06068383,0.135842664,74750,7086.83964307
2030,7487.61491943,0.136754848,75112,7260.1941872
2040,7519.1153511,0.137404881,75487,7188.26268516
2050,7605.75630516,0.138217849,75865,7034.24743219
2060,7622.30871493,0.138854197,76240,7316.29992993
2070,7658.88182911,0.139492682,76602,7436.23461769
2080,7704.15648101,0.14010166,76972,7478.77329579
2090,7584.27340708,0.140724323,77332,7497.80770153
2100,7566.07187755,0.141358533,77693,7323.23998087
2110,7694.03799639,0.142012842,78053,7261.07322522
2120,7853.87868912,0.142673566,78410,7413.27453913
2130,7758.25099508,0.143300077,78780,7342.96729811
2140,7716.91233876,0.143950965,79152,7355.6797532
2150,7682.38589521,0.144618959,79518,7324.33731843
2160,7720.76961467,0.145602989,79884,7676.62445627
2170,7655.63136035,0.146256871,80255,7219.67284771
2180,7624.38258496,0.146885948,80617,7354.44483999
2190,7725.22427749,0.147594997,80984,7205.41586752
2200,7752.17266644,0.148232628,81353,7234.7455757
2210,7733.00445777,0.148876674,81725,7377.8472302
2220,7720.10678383,0.149542529,82092,7530.84893786
2230,7721.95889787,0.150193844,82462,7213.9452333
2240,7704.7129782,0.150857561,82829,7391.06944336
2250,7617.14272685,0.151501606,83197,7319.41202181
2260,7627.27354685,0.152116999,83564,7163.79646412
2270,7708.17695679,0.15309718,83936,7371.92677756
2280,7641.18062155,0.153745929,84304,7289.1438955
2290,7646.59872919,0.154422049,84666,7224.73385816
2300,7782.46018876,0.15508149,85040,7132.270169
2310,7671.71880331,0.155715271,85397,6984.64351394
2320,7569.89344411,0.156348197999,85770,7009.16445812
2330,7642.83955183,0.156989249999,86135,6920.61463658
2340,7652.83431612,0.157635006,86501,6875.32987406
2350,7542.14423374,0.158278196,86871,7136.74397525
2360,7599.41652987,0.158907701,87241,7067.84285417
2370,7654.98522093,0.159545331,87615,7335.93708437
2380,7660.2812139,0.160162007,87983,6692.07149634
2390,7511.87369828,0.160803059,88348,7116.68302657
2400,7562.87664768,0.161429143,88713,6864.77687456
2410,7506.42561698,0.162049668,89075,6989.79304023
2420,7681.01196668,0.162702694,89447,6977.94159197
2430,7676.80872814,0.163346312,89820,6985.75271821
2440,7581.512262,0.163998911,90187,7117.98036282
2450,7510.21811279,0.164637397,90552,7083.77165843
2460,7518.15245705,0.165269896,90927,7312.54960036
2470,7535.382893,0.165893414,91297,6675.65311519
2480,7613.98914439,0.166529762,91674,6857.33178807
2490,7619.13810197,0.167168248,92045,6950.7764549
2500,7663.73738913,0.167812721,92412,6941.79019161
2510,7667.43270232,0.168481998,92775,7243.43570543
2520,7542.92396475,0.169175651,93137,7046.02410153
2530,7562.88078294,0.169810288,93506,7036.20128985
2540,7487.71337538,0.1704368,93862,6975.57173059
2550,7456.96176523,0.171085122,94230,6901.90162503
2560,7509.52486547,0.171719759,94604,6985.30784876
2570,7430.01728827,0.172376207,94974,6978.78790368
2580,7426.85514148,0.173032227,95342,6660.94258928
2590,7485.93579425,0.173687819,95713,6687.17798196
2600,7451.01639753,0.174331009,96077,6649.69247078
2610,7490.95322298,0.174965218,96440,6675.01229701
2620,7500.16822481,0.175595151,96814,7037.50999475
2630,7466.32444187,0.176259296,97182,6788.80982155
2640,7516.84785697,0.176905052,97546,6805.35079107
2650,7471.31922724,0.177544394,97912,6726.33055438
2660,7579.01869939,0.178193144,98277,7227.48923885
2670,7516.2931509,0.178820939,98651,6851.89787143
2680,7625.19567787,0.179478669,99021,6801.9834793
2690,7590.52011664,0.180112878,99393,6920.42581309
2700,7505.42239079,0.180760772,99766,7055.58711683
2710,7542.21110753,0.181395409,100131,6854.51056165
2720,7590.17663696,0.1820185,100498,6614.63984194
2730,7489.47060804,0.182660407,100860,6785.33008359
2740,7529.43521988,0.183299321,101230,6610.99286104
2750,7552.58206559,0.183941655,101598,6872.3088403
2760,7535.21551147,0.184565173,101966,6756.02781438
2770,7589.70026938,0.185198955,102334,7103.50777861
2780,7571.56767007,0.185846849,102702,7048.14334435
2790,7578.45458951,0.186487901,103075,6847.36180591
2800,7659.46608443,0.187134512,103441,7013.12326221
2810,7597.09629133,0.187791386,103807,7105.32962539
2820,7620.27655417,0.188430299,104173,7027.0036807
2830,7585.83786981,0.189045691,104544,6962.66842037
2840,7596.78522826,0.189665361,104910,6783.52403417
2850,7562.24204318,0.19030513,105286,6774.98783485
2860,7563.86830341,0.190953879,105648,6966.44281159
2870,7632.83015959,0.191594075,106010,6772.3583575
2880,7592.42644,0.192235982,106378,6786.49801022
2890,7484.26497252,0.192875323,106751,6820.68086801
2900,7648.91631126,0.193526211,107117,6959.92023713
2910,7515.61770586,0.194171111,107494,6805.28381697
2920,7528.23885334,0.194815584,107866,6798.33278773
2930,7471.97881343,0.195454497,108228,6674.89457092
2940,7576.4650948,0.19608614,108603,6687.40553624
2950,7589.40721126,0.196752851,108976,6656.46120289
2960,7535.92191702,0.197379362,109342,6454.99318726
2970,7544.30886846,0.198243649,109704,5929.83026385
2980,7594.72705876,0.198950132,110063,6413.363223
2990,7479.80088296,0.199585625,110431,6600.72872872
3000,7426.91315276,0.200219407,110792,6709.17698523
3010,7432.64469144,0.200884835,111161,6649.95065067
3020,7483.46642283,0.201558816,111529,6365.05027501
3030,7425.30584819,0.202227665,111901,6461.16050062
3040,7433.37912796,0.202889671,112269,6416.43523658
3050,7462.82903358,0.203524308,112638,6573.32738905
3060,7550.57630154,0.204132002,113012,6634.94116096
3070,7541.06997351,0.204736703,113379,6671.58837598
3080,7603.65086838,0.205340549,113751,6491.87834494
3090,7629.70349433,0.205955942,114120,6409.38017808
3100,7626.83533477,0.206603836,114492,6789.47598816
3110,7528.40634556,0.207236762,114855,7056.25659977
3120,7492.15108742,0.207876103,115218,6523.29973183
3130,7721.09373877,0.208495772,115584,7118.25710405
3140,7543.46382979,0.209119718,115961,6786.7151056
3150,7636.770363,0.209794982,116327,6688.47332169
3160,7695.52102501,0.210426625,116705,6940.47548082
3170,7565.31937872,0.211062117,117083,6712.02441099
3180,7642.26715497,0.211698892,117445,6677.20391832
3190,7646.93250868,0.212341226,117815,6573.53407032
3200,7629.34867655,0.212961323,118181,6555.6538937
3210,7649.13344434,0.213582702,118552,6919.5773046
3220,7739.64444939,0.21422076,118915,6886.43381661
3230,7670.6074578,0.214864805,119283,7138.35249642
3240,7752.18196909,0.215490889,119652,6814.40109849
3250,7895.25332932,0.216134934,120018,7032.25530935
3260,7765.13192831,0.21680079,120384,6995.86437707
3270,7716.2726405,0.217462796,120753,6637.1114709
3280,7639.98841462,0.218113684,121114,6989.52055974
3290,7670.02418778,0.218785955,121487,7026.66851778
3300,7651.69788252,0.219460791,121850,6801.930585
3310,7728.92987522,0.220120231,122212,7193.7162608
3320,7683.45981856,0.220801909,122571,6930.97872025
3330,7747.32689652,0.221563131,122935,6850.28983386
3340,7739.68423384,0.222218295,123306,7041.03925859
3350,7840.0172303,0.222877308,123679,7044.62780208
3360,7853.70637766,0.223508952,124050,7314.70831005
3370,7859.63393074,0.224172669,124419,6937.57752784
3380,7794.87829067,0.224843656,124786,7192.21023737
3390,7755.14402166,0.225519348,125161,7137.95004055
3400,7635.17609678,0.226185631,125526,7350.66572436
3410,7800.14746066,0.226850204,125891,6817.72008237
3420,7654.24041511,0.227493394,126258,7018.03742255
3430,7632.52760675,0.228143854,126625,7176.51874835
3440,7768.35123254,0.228781484,126999,7178.61675406
3450,7777.63624754,0.229418687,127368,7015.44590845
3460,7717.0679471,0.230109774,127731,6943.46111684
3470,7770.8647073,0.230769643,128099,7247.25999844
3480,7705.34032858,0.231440631,128460,7096.46427969
3490,7716.21137532,0.232105203,128818,7265.60451813
3500,7762.14782966,0.232756519,129198,7141.82578894
3510,7753.21546174,0.233415104,129563,7160.10647766
3520,7735.91223101,0.234072834,129928,7170.09153688
3530,7779.44471793,0.234707044,130293,7326.48665666
3540,7749.98537517,0.235343392,130664,7197.78496628
3550,7743.06059664,0.236032768,131037,6932.6935068
3560,7693.09152292,0.236684511,131402,7422.27391107
3570,7762.29038719,0.23735336,131769,7331.01303057
3580,7730.40218572,0.23796918,132127,7302.35797971
3590,7741.68873115,0.23859783,132494,7128.12101946
3600,7609.52016059,0.239218354,132859,7251.54552565
3610,7748.07069936,0.239835029,133227,7308.27983426
3620,7581.94848033,0.240512431,133597,7198.75028996
3630,7629.31560845,0.241157332,133969,7245.36610215
3640,7672.79277006,0.241801805,134336,6901.10838369
3650,7666.11070034,0.242444567,134710,7304.12037357
3660,7789.96308788,0.243090751,135081,7467.00316496
3670,7789.96308788,0.243757034,135451,7275.29764754
3680,7755.41458617,0.244407922,135822,7159.14364431
3690,7716.70465476,0.245046408,136189,7335.17931202
3700,7781.95477609,0.245684893,136551,7311.58526199
3710,7664.63306438,0.246315253,136920,7323.40508863
3720,7677.89216878,0.246948606,137284,7114.35820874
3730,7669.29387311,0.247646963,137657,7037.65176846
3740,7677.1606954,0.24827989,138020,7458.62184278
3750,7587.64064115,0.248947883,138387,7096.47815132
3760,7722.51158631,0.249578671,138756,7433.34498785
3770,7694.93266818,0.250199196,139119,6970.97671469
3780,7677.54517974,0.250831695,139487,7318.44738252
3790,7727.38516853,0.251507814,139861,7184.12752973
3800,7644.67346016,0.252172814,140233,6842.72460165
3810,7637.33752897,0.252805312,140600,7076.14575176
3820,7558.34850721,0.253466036,140963,6957.99308877
3830,7633.51730703,0.254100245,141338,7374.8183865
3840,7546.48079729,0.254763534,141705,6852.9314583
3850,7483.51624094,0.255400737,142071,6762.48918905
3860,7489.6588045,0.256059322,142441,6532.3920761
3870,7492.74488787,0.256686689,142814,6467.2372608
3880,7521.05310598,0.257347413,143173,6963.48884545
3890,7580.76363191,0.257991031,143549,7203.62151354
3900,7624.82614072,0.258651754,143905,6880.39811835
3910,7521.8091118,0.259294944,144277,7162.94073052
3920,7526.93024836,0.259930009,144646,6918.15904751
3930,7548.98109097,0.26056208,145018,6924.87553308
3940,7541.45606713,0.26122152,145392,7106.92822282
3950,7463.65209408,0.261868131,145769,7141.2410959
3960,7449.21954995,0.262527571,146144,6844.78476283
3970,7503.81940716,0.263153655,146511,7030.67901104
3980,7519.82270265,0.263795562,146881,7020.15302565
3990,7527.17656357,0.264441745,147241,6596.89184536
4000,7577.34680263,0.265096909,147603,6642.6304688
4010,7555.94919007,0.265728125,147973,6808.19010336
4020,7492.43927495,0.266364472,148347,6676.42269404
4030,7565.93732296,0.267001247,148716,7075.90720807
4040,7572.29561439,0.267634601,149084,6781.65203066
4050,7695.40258723,0.26827608,149455,6952.66516459
4060,7632.04635394,0.268907724,149827,6914.03307459
4070,7650.26200355,0.269520551,150193,7406.79068117
4080,7607.70435662,0.270156043,150562,7070.48613961
4090,7604.85248259,0.270818905,150930,6896.942713
4100,7611.25901127,0.271468082,151301,6616.4945938
4110,7638.52764773,0.272112983,151672,7066.26401919
4120,7753.22794287,0.27273308,152042,7431.89865688
4130,7765.53000255,0.273391238,152409,7164.94396291
4140,7769.92282168,0.274059232,152788,7062.13969438
4150,7735.58923542,0.27472466,153160,7158.70541417
4160,7793.9830627,0.275376403,153521,6858.19591618
4170,7770.98963669,0.276034133,153890,6950.04210889
4180,7907.08345948,0.276676895,154261,7123.49019888
4190,7859.24682566,0.277311104,154630,7128.16202178
4200,7800.49503065,0.277988079,154999,7105.14494313
4210,7724.67279056,0.278648803,155363,7174.13895906
4220,7812.13260523,0.279275315,155740,7358.30172788
4230,7725.95293992,0.279903965,156103,7144.15807651
4240,7655.54106668,0.280561695,156458,7393.64529322
4250,7712.74388642,0.281243374,156820,6889.07236285
4260,7599.16992296,0.281900677,157187,7071.18709676
4270,7651.45529269,0.282574658,157562,6978.33959714
4280,7600.97849576,0.283317919,157923,6838.2718405
4290,7620.42955519,0.283929035,158287,7134.45552477
4300,7640.51542643,0.284539296,158665,7005.4151592
4310,7684.63065356,0.285151267,159031,7037.94184676
4320,7549.10317896,0.285827814,159401,6981.47761024
4330,7589.34675119,0.286452188,159766,7016.12575802
4340,7554.96136118,0.287296802,160127,6846.47133334
4350,7601.32925733,0.287932722,160489,7089.75531675
4360,7549.85004774,0.288582754,160856,7181.54445491
4370,7649.94390787,0.289191304,161221,7106.04972344
4380,7650.64305328,0.289816961,161588,7066.69510164
4390,7578.36053553,0.2904439,161954,7180.25082162
4400,7625.37388174,0.291094788,162322,6988.51816971
4410,7514.70613994,0.291746103,162687,6828.61014357
4420,7582.35563748,0.292389293,163061,7212.28885288
4430,7691.46866098,0.293043602,163426,6989.64234408
4440,7632.98888819,0.293678238,163791,6667.8609861
4450,7850.68804339,0.294353074,164155,6919.44256766
4460,7717.11542288,0.295042878,164522,7043.71070023
4470,7958.73307814,0.295689489,164881,7401.35080121
4480,7958.73307814,0.296312152,165259,7407.7544471
4490,7919.8142685,0.29696475,165633,7347.50164946
4500,7764.43733713,0.29758057,165996,7111.54683419
4510,7893.36290557,0.298219911,166365,7270.70894149
4520,8010.35684497,0.298893464,166733,7122.06108511
4530,8071.25754383,0.299520403,167104,7484.53357338
4540,7898.66318656,0.30018797,167472,7415.87853383
4550,7867.12810919,0.300818331,167841,7162.73271569
4560,7914.15988384,0.301444842,168207,7100.24935513
4570,7893.75043545,0.302080762,168573,7378.99438411
4580,7871.11140301,0.302705563,168928,7546.45701331
4590,7815.17966777,0.303317107,169291,7289.22020635
4600,7838.9011016,0.303966284,169666,7291.02159764
4610,7862.1971703,0.304579538,170034,7445.05094472
4620,7763.54103368,0.305239834,170408,7002.60175111
4630,7833.4248402,0.305848811,170778,7460.58431574
4640,8036.5432371,0.306460782,171142,7554.04335961
4650,7904.51207674,0.307068904,171504,7221.17122853
4660,7914.79925775,0.307699692,171872,7246.51421347
4670,7973.7520056,0.308309525,172237,7228.29044894
4680,7977.96369387,0.308931333,172603,7575.48899984
4690,7987.73061672,0.309565542,172961,7599.54258157
4700,7969.35948643,0.310228404,173332,7046.87780241
4710,7936.32646156,0.310876726,173686,7378.23264942
4720,7960.16145779,0.311564819,174055,7276.42354756
4730,8114.73809754,0.312219127,174416,7404.33058552
4740,7987.28823621,0.312847349,174786,7231.06089208
4750,8096.21287533,0.313506363,175155,7541.98688004
4760,8059.33282086,0.314176068,175520,7453.29029468
4770,8139.78658323,0.314829522,175883,7382.90818512
4780,8104.28676201,0.31548768,176250,7358.97890316
4790,8179.82087474,0.316150542,176628,7525.03926472
4800,8182.34848555,0.316778337,176997,7444.16019286
4810,8146.75639746,0.317428797,177361,7080.38882469
4820,8178.73352055,0.318123305,177736,7273.67915886
4830,8194.91336839,0.318763929,178107,7412.2533381
4840,8158.00772843,0.319535843,178466,7476.03682502
4850,8135.46406239,0.32019229,178832,7317.41405729
4860,8261.34808326,0.320854296,179205,7500.00142409
4870,8227.25772989,0.32151331,179573,7437.04082966
4880,8298.28299602,0.322148802,179938,7546.8877574
4890,8238.28370717,0.322796696,180306,7387.71788563
4900,8252.49375948,0.323451005,180666,7390.61801298
4910,8280.2206033,0.324105314,181031,7457.47846817
4920,8367.42582259,0.324769459,181392,7862.83016075
4930,8254.69631856,0.325413504,181762,7542.19056407
4940,8296.7949223,0.326068241,182140,7025.02355362
4950,8156.21457968,0.326716991,182507,7066.13784567
4960,8168.0012648,0.327373865999,182879,7741.51116268
4970,8228.71714635,0.328085052999,183245,7441.3274244
4980,8292.30048008,0.328747914999,183619,7417.12288381
4990,8131.08783931,0.329402222999,183984,7582.56947579
