it,funval,time,funcount,weight
0,26013.8108486,0.00336135199996,460,24992.6216309
10,26917.0734375,0.00677787000041,827,24960.9308654
20,27275.5434823,0.0101584660006,1189,25694.0766209
30,27300.880459,0.0135570230013,1554,27661.1864578
40,27107.3079094,0.0172459560008,1924,27600.5086514
50,26903.7005768,0.0209699570005,2288,27909.599822
60,27042.6269408,0.0244544720008,2662,27885.1696808
70,27274.5272999,0.0278372070015,3024,26561.3511606
80,27525.6533502,0.0312276390014,3389,28136.0437954
90,27702.3600879,0.0345714570012,3751,26958.6936321
100,27610.8947632,0.0379665940009,4116,27371.5985429
110,27587.7309646,0.0413959430016,4494,27755.0728241
120,27527.2634225,0.0448004870013,4861,26959.0163099
130,27585.3454804,0.0482584880019,5232,28555.8392753
140,27714.3240481,0.0516330970013,5595,27688.3870137
150,27768.5296479,0.0550658670008,5962,28012.2141125
160,28095.7266558,0.0584524500009,6326,27934.8239785
170,27652.009158,0.0618540010009,6688,28380.0252703
180,27587.2392943,0.0652598290008,7048,28444.8460374
190,27503.7912337,0.0686823350015,7411,28569.8355068
200,27561.2517014,0.0720843140016,7776,27895.2039006
210,27838.6884358,0.0754734630018,8145,28343.8511527
220,27941.2326593,0.0789023840016,8516,27934.15478
230,27781.3538622,0.0822983760017,8885,28031.584868
240,27650.4257668,0.0857148950017,9259,28014.9467006
250,27796.0303344,0.089090360002,9624,27790.5793148
260,27686.1269434,0.0924910560025,9991,28326.7073221
270,27709.7255141,0.0958737900028,10355,28338.4966877
280,27839.8970413,0.0992774800025,10727,28166.7209535
290,27531.7519824,0.102694427002,11095,28305.1108018
300,27601.4342162,0.106107097003,11461,28239.1073973
310,27552.3832723,0.109446211002,11834,28225.0122063
320,27331.3707857,0.112837926003,12204,27967.5639278
330,27447.7891033,0.116174046003,12579,27945.0388245
340,27600.340617,0.119525561004,12956,28338.5395211
350,27899.0877588,0.122925829003,13321,28131.2148409
360,27699.9843802,0.126317971003,13691,28422.7479413
370,27604.2574661,0.129702416003,14055,28263.0592342
380,27597.1866334,0.133094131003,14427,28525.0962674
390,27325.6150788,0.136517065002,14796,28463.803903
400,27588.7574343,0.139913057003,15158,28217.8905024
410,27533.6825849,0.143368492002,15531,27970.4502379
420,27461.3272077,0.146802972003,15898,28081.6656036
430,27451.8882223,0.150356768003,16260,28596.0200896
440,27795.3862766,0.153904576003,16629,28459.5456691
450,27543.9419366,0.157448108002,16995,28385.6470988
460,27805.6327704,0.160944598002,17366,27892.2636445
470,27596.0419061,0.164322629003,17735,28127.210994
480,27556.9627626,0.167680987002,18109,28064.1286107
490,27602.9131402,0.171066287002,18483,28688.3603023
500,27616.8882199,0.174445173002,18847,28613.5566173
510,27514.863667,0.177856133002,19215,28550.6660874
520,27493.9720297,0.181221761002,19582,28437.8020165
530,27570.1218326,0.184569855002,19947,28525.3583282
540,27523.7055664,0.187920943002,20310,28424.4456144
550,27482.1624748,0.191269037001,20673,28489.3491628
560,27496.2388083,0.194640652001,21042,28446.1056418
570,27350.3954556,0.198007991002,21411,28354.6435172
580,27528.5479241,0.201349243002,21782,28348.7167301
590,27469.0575881,0.204781585003,22152,28259.885404
600,27522.3691325,0.208339229003,22516,28413.7611687
610,27494.7687378,0.211901578004,22884,28327.3890648
620,27458.1947854,0.215360862003,23244,28434.476567
630,27437.6218314,0.218764551002,23603,28455.3587034
640,27386.885376,0.222134456002,23973,28582.9712901
650,27394.9629011,0.225539856002,24341,28739.6615638
660,27375.6168715,0.228892654002,24715,28720.1807781
670,27457.4639704,0.232293350002,25087,28300.7421561
680,27752.9735893,0.235707730001,25463,28682.4805255
690,27536.08659,0.239064377001,25835,28607.9438364
700,27423.4125013,0.242446256001,26202,28491.9167568
710,27436.7760346,0.245772968002,26568,28372.1277971
720,27458.6297995,0.249167676002,26939,28388.1652325
730,27424.3657766,0.252585050001,27299,28681.1569329
740,27537.430476,0.256052887001,27673,28517.5477945
750,27524.2883972,0.259480952001,28040,28450.2352683
760,27476.8319908,0.262845725001,28411,28675.8698625
770,27596.2197497,0.266221190001,28768,28799.157305
780,27518.9903868,0.269615898001,29137,28618.2954981
790,27477.1662606,0.273038832001,29508,28488.9054521
800,27594.773462,0.276400184001,29878,28790.6551559
810,27638.5023804,0.279741009001,30249,28770.1344431
820,27639.445719,0.283190029,30619,28530.2697267
830,27482.6513199,0.286582599,30979,28613.5355821
840,27459.8172779,0.290026916,31344,28566.2085269
850,27498.081549,0.293494326,31714,28461.423758
860,27501.1681188,0.296965157,32084,28680.5961886
870,27502.4238749,0.300431711,32455,28559.9190821
880,27548.73997,0.303860630999,32823,28781.4166713
890,27514.8125548,0.307310507,33185,28566.0400403
900,27578.1552341,0.310748836,33555,28407.2725961
910,27444.6096199,0.314228647,33926,28389.7803574
920,27473.7260397,0.317793562,34297,28665.9089859
930,27549.1818037,0.321367885,34666,28670.1294809
940,27462.9269942,0.324796378,35038,28487.676756
950,27634.2122896,0.328390799999,35404,28733.0430001
960,27653.2311896,0.331886433999,35771,28605.4297661
970,27483.7497648,0.335438518999,36149,28428.3739941
980,27454.8095995,0.339060310999,36519,28479.329782
990,27470.3967835,0.342607264,36886,28213.2285689
1000,27403.3895903,0.346173034,37252,28129.5787385
1010,27436.8320464,0.349702881,37621,28392.8195182
1020,27560.2797342,0.353294736999,37990,28534.7126087
1030,27455.7989673,0.35686906,38355,28629.9541086
1040,27428.063255,0.360433975,38716,28672.2160732
1050,27442.8459393,0.364000172,39086,28439.9873958
1060,27472.6824328,0.367544986999,39456,28659.3899719
1070,27486.8776118,0.371097071999,39816,28415.1456855
1080,27420.2954623,0.374541816,40178,28307.4893654
1090,27365.0381844,0.378058833,40555,28520.5224348
1100,27217.7221569,0.381454396999,40924,28533.1499564
1110,27464.2471442,0.384884173,41301,28831.2852065
1120,27467.5572478,0.38825921,41660,28567.8195614
1130,27354.9966691,0.391620134,42036,28546.4971853
1140,27349.1226509,0.395007145,42407,28780.774984
1150,27450.4853359,0.398395439001,42775,28672.5626339
1160,27243.4440292,0.401724716001,43146,28760.2207314
1170,27617.2962626,0.405117286001,43521,28798.6739951
1180,27281.6510373,0.408499165001,43892,28498.3554888
1190,27482.0334604,0.411834858001,44260,28928.206887
1200,27652.8032927,0.415211606001,44626,29004.1530809
1210,27504.980819,0.418620854001,44996,28845.1092351
1220,27494.6995861,0.422009575002,45361,28626.8395873
1230,27510.6536779,0.425391027002,45732,28901.348112
1240,27712.2211936,0.428813533002,46107,28408.7043895
1250,27604.8247326,0.432225775002,46480,28683.9356328
1260,27535.3110238,0.435728253002,46844,28473.9511001
1270,27565.1553913,0.439212341002,47209,28804.1522741
1280,27553.0314324,0.442633992002,47572,28347.2550083
1290,27804.0788889,0.446062913002,47936,28782.9389663
1300,27833.2388454,0.449529039002,48311,28990.5353291
1310,27877.2853036,0.452962664002,48684,28433.4145773
1320,27966.2724882,0.456409119002,49062,28608.2200725
1330,27649.8947256,0.459852152002,49431,28417.8213208
1340,27891.4877557,0.463289626002,49793,28640.9915284
1350,27715.3298638,0.466772859002,50164,28520.8574158
1360,27780.7263644,0.470218030002,50527,28770.5543442
1370,27773.7059552,0.473654649001,50893,28560.3013831
1380,27830.2121574,0.477142586002,51262,28510.1612833
1390,27804.9365523,0.480600587001,51634,28765.736656
1400,27811.5604377,0.484031646001,52004,28795.6296066
1410,27970.2635362,0.487487509002,52375,28712.5243783
1420,28067.3131644,0.490922418002,52740,28871.2736733
1430,27932.6413331,0.494382557003,53109,28415.2192858
1440,27891.1163283,0.497772561002,53482,28834.0719864
1450,28011.6055639,0.501216877003,53845,28650.5610674
1460,27968.4472755,0.504792056003,54211,28682.3102236
1470,27949.3861563,0.508214990003,54576,28918.0668252
1480,27895.9392804,0.511635785003,54936,28405.7279101
1490,27821.9852851,0.515102339003,55309,28684.2642117
1500,27903.3979464,0.518528694003,55682,28702.2176375
1510,27931.7563784,0.522001663003,56047,28915.9312548
1520,27849.4651692,0.525445980003,56422,28600.2209195
1530,27854.0876577,0.531912520003,56790,28742.2361019
1540,27798.1290086,0.535397891003,57158,28800.9688922
1550,27935.2291274,0.538868294003,57527,28824.5987546
1560,27848.9947724,0.542304912003,57899,28828.8769207
1570,27823.2689529,0.545771466002,58269,28500.0969346
1580,27860.7335593,0.549143081003,58633,28931.3730857
1590,28100.0338004,0.552524533002,59007,28857.5788044
1600,27983.6953572,0.555878187002,59370,28924.8437376
1610,28043.1264718,0.559285298003,59733,29183.6373861
1620,28094.5450572,0.562654776002,60092,29359.1823632
1630,28201.419506,0.566042643002,60462,29095.9831359
1640,28168.2510612,0.569367216002,60826,29627.1691039
1650,28212.4794471,0.572751234003,61197,28807.5913745
1660,28151.8355866,0.576133113002,61556,29210.5283448
1670,28308.9927555,0.579627465002,61926,28838.8513791
1680,28041.1100986,0.583067505002,62289,29063.2685035
1690,28047.8960281,0.586498564002,62654,28753.0334254
1700,28122.1906128,0.589943308002,63013,28855.2611716
1710,28112.6465081,0.593423547002,63384,29114.2967889
1720,28106.509555,0.596799867002,63753,28733.2215029
1730,28030.6425443,0.600174904002,64124,28788.25378
1740,28127.5781415,0.603795413002,64487,28963.3636778
1750,28290.7620032,0.607140514003,64855,28898.2330176
1760,28062.0882123,0.610512130002,65224,29202.7393822
1770,28154.9640162,0.613855092002,65587,29064.4527089
1780,28353.334746,0.617234833002,65955,28899.4102204
1790,28277.726953,0.620606876002,66332,28933.8164979
1800,28404.5898009,0.623998163002,66699,29007.6025408
1810,28454.323924,0.627408695002,67074,28925.3812232
1820,28280.4270452,0.630781593003,67438,29000.3844019
1830,28169.6433037,0.634210086003,67807,29135.5136674
1840,28234.2387386,0.637604795003,68168,28857.3942659
1850,28292.8500304,0.641049966003,68538,29052.9389213
1860,28209.7514675,0.644561424003,68903,29478.5733726
1870,28217.822454,0.648007879003,69273,29160.3226928
1880,28312.9718301,0.651389758003,69647,29130.4825667
1890,28228.467447,0.654731438002,70010,29395.6644338
1900,28243.8697236,0.658121870002,70375,28948.252001
1910,28217.5493168,0.661627768002,70747,29192.1727595
1920,28366.4435129,0.665199098003,71116,29480.368446
1930,28388.8948261,0.668815331003,71481,28981.9306044
1940,28538.3947833,0.672266062003,71840,29091.082958
1950,28478.2222649,0.675739886004,72201,28907.8259783
1960,28389.4698437,0.679276148004,72568,29502.7330034
1970,28379.6354058,0.682749117003,72937,29307.8569427
1980,28379.0053221,0.686191295003,73311,29228.5354823
1990,28298.8366648,0.689678377003,73680,29485.2140313
2000,28380.4294946,0.693221054003,74048,29167.3581863
2010,28250.5732445,0.696798798002,74407,29240.4675962
2020,28331.9389683,0.700295288003,74768,29447.8129279
2030,28487.8166062,0.703698122003,75128,29367.0231209
2040,28382.2041803,0.707102239003,75492,29092.0348197
2050,28448.5730183,0.710449478003,75861,28930.5101515
2060,28495.6953108,0.713836062004,76221,29047.9953772
2070,28653.0734581,0.717310742004,76588,29123.7267749
2080,28550.9827891,0.720737097004,76952,29518.7835425
2090,28638.4617324,0.724145918003,77320,29255.8994955
2100,28669.9183574,0.727497433003,77690,29572.8559908
2110,28822.8621393,0.730817731003,78053,29678.1518502
2120,28605.7585681,0.734245369003,78422,29588.24074
2130,28434.496032,0.737582344003,78792,29457.6250246
2140,28304.6191626,0.740968927003,79163,29284.1406993
2150,28581.4605613,0.744352517003,79524,29060.7856866
2160,28555.741178,0.747766470003,79889,29152.5627241
2170,28474.1074864,0.751119696002,80258,29496.7730125
2180,28455.0966862,0.754519537003,80621,29289.1369626
2190,28486.5787069,0.757909114003,80994,29374.513118
2200,28490.4101214,0.761317080003,81371,29862.0451642
2210,28371.5701706,0.764678432003,81746,28891.0949457
2220,28459.1328306,0.768009848003,82115,29168.9785853
2230,28457.3002769,0.771453309004,82484,29182.5769647
2240,28376.4065872,0.774829629004,82840,28854.7464682
2250,28332.163921,0.778218350004,83204,29506.5834582
2260,28284.6513271,0.781629309004,83582,29678.4350312
2270,28576.5134894,0.785170275004,83953,29835.0948063
2280,28611.5149958,0.788797199004,84315,29675.988092
2290,28658.9335355,0.792394187004,84676,29972.930291
2300,28840.6536007,0.795796594004,85050,29744.5127745
2310,28705.9649839,0.799351673004,85409,29812.4519246
2320,28702.5292129,0.802739112004,85778,30035.9222891
2330,28770.4973993,0.806110727004,86146,30067.6183551
2340,28704.8226645,0.809486191004,86513,29948.3424834
2350,28571.8496945,0.812889025004,86885,29773.0646039
2360,28770.5617469,0.816326499003,87257,29587.0324808
2370,28653.0317781,0.819936317003,87620,29365.8596059
2380,28679.3173013,0.823507647004,87983,29799.2503218
2390,28692.7251274,0.826954957003,88357,30177.4657503
2400,28764.0542513,0.830332132004,88722,29461.4693635
2410,28712.7041573,0.833726413003,89089,29881.5957508
2420,28802.8871747,0.837163032003,89457,29725.0990854
2430,28940.9133649,0.840729657002,89829,29711.3803168
2440,28680.9753447,0.844319803002,90199,29903.2315216
2450,28788.1527557,0.847737177001,90566,30063.195547
2460,28826.6406026,0.851971369001,90933,29959.0196459
2470,28969.149268,0.855311765002,91300,29714.1718814
2480,29167.958168,0.858650451001,91676,29961.7755961
2490,28967.9265244,0.861970320001,92041,30381.0727421
2500,28964.3164271,0.865300025001,92412,30061.007276
2510,29038.5023406,0.868651541002,92779,30340.3358186
2520,29223.2168746,0.871988944002,93145,30094.232374
2530,29218.0464383,0.875399475002,93513,29890.7473121
2540,29065.3600431,0.878763821002,93877,30016.3647537
2550,28946.8184251,0.882087112001,94246,30275.9236418
2560,28865.1195588,0.885468991001,94609,29951.6520037
2570,28781.1388805,0.888864983001,94984,29751.1613423
2580,28963.7003736,0.892266534001,95347,30219.3087314
2590,28872.7677546,0.895669795,95713,29619.8874858
2600,28808.7054268,0.899049535999,96076,29468.0346778
2610,28896.747881,0.902445956,96438,29846.2308376
2620,28867.6843836,0.905850073,96799,29781.493457
2630,28927.3020413,0.909227675999,97169,30022.2970257
2640,28820.0949357,0.912604850999,97537,30036.3182095
2650,28857.8369868,0.916000842998,97903,29857.6728109
2660,28792.9542153,0.919413512997,98273,29367.0875522
2670,28914.7653234,0.922840295997,98643,29769.7262059
2680,28714.9283604,0.926215760997,99013,29613.9549426
2690,28686.4967867,0.929577967998,99375,29744.1253122
2700,28606.2557302,0.933017579998,99745,29737.6568076
2710,28737.632629,0.936484133998,100122,29558.3870011
2720,28695.9106996,0.939908777998,100487,29548.495065
2730,28762.2655731,0.943343685997,100852,29161.4996683
2740,28679.4979403,0.946858564997,101210,29522.4776223
2750,28609.9361736,0.950441012998,101578,29811.802359
2760,28655.7294701,0.953850261998,101948,29700.4419395
2770,28722.7148838,0.957271056998,102315,29619.8739544
2780,28830.8863099,0.960655929998,102680,30028.2919815
2790,28654.6844519,0.964111365998,103044,29489.5218221
2800,28761.0515861,0.967527884998,103414,29566.2198561
2810,28707.2381166,0.971112042998,103792,29742.2355394
2820,28882.4106665,0.974474677999,104162,29340.8375593
2830,28894.3719916,0.977800961999,104535,29553.8202295
2840,28841.5296555,0.981194386998,104907,29670.4019185
2850,28802.7248104,0.984559159998,105278,29633.185776
2860,28791.9653812,0.987950019998,105643,29686.6881339
2870,29127.5659222,0.991300252997,106010,29767.5349942
2880,28752.8628216,0.994692822997,106381,29598.800316
2890,28756.4270856,0.998079405997,106751,29752.1641232
2900,28544.1820821,1.00150234,107122,29648.7661217
2910,28670.4232849,1.004970177,107494,29632.1899074
2920,28746.6228144,1.008381564,107860,29490.9732656
2930,28713.8633626,1.01177841,108229,29481.7081618
2940,28768.3591548,1.015292861,108596,29379.8775187
2950,28791.3967434,1.018675596,108957,29586.3207232
2960,28889.4534519,1.022077147,109326,29599.0138148
2970,28779.1567234,1.025480409,109693,29389.2546298
2980,28812.1009846,1.029699205,110059,29786.8641906
2990,28803.1746662,1.033043879,110423,29615.5264819
3000,28725.702861,1.036446286,110783,29633.3668717
3010,28754.4504484,1.039846126,111151,29601.7022975
3020,28801.3447358,1.043227578,111515,29869.1773818
3030,28848.2466019,1.046572251,111879,29208.1718256
3040,28722.2111043,1.049999034,112250,29570.5248885
3050,28695.9108605,1.053429237,112615,29542.0066747
3060,28713.2471274,1.056876975,112977,29841.932344
3070,28666.0120543,1.06027596,113355,29397.283434
3080,28617.1879388,1.063686919,113730,29410.1970351
3090,28669.5758869,1.067090609,114102,29673.3677948
3100,28702.066864,1.070508411,114476,29856.1605016
3110,28708.6581547,1.07395957,114846,29521.1933664
3120,28599.7421816,1.077498825,115218,29605.5279717
3130,28716.8943707,1.080901231,115588,29587.5360294
3140,28676.2015226,1.084286531,115955,29707.3260819
3150,28740.9892663,1.087691504,116327,29827.5388042
3160,28710.5330885,1.09107937,116697,29446.8623897
3170,28558.6442416,1.094476645,117061,29473.5293221
3180,28681.5355247,1.09788846,117427,29262.4152222
3190,28652.8734268,1.101431565,117798,29863.3488631
3200,28663.6594952,1.104860914,118165,30072.5545423
3210,28739.7833685,1.108238089,118529,29440.1596455
3220,28600.3044175,1.111678556,118896,29491.9405445
3230,28626.0555211,1.115082246,119265,29560.6785928
3240,28669.7752176,1.118479948,119634,29290.4974182
3250,28844.6895028,1.121929824,120005,29468.8782757
3260,28774.5422512,1.12528134,120377,29522.7836836
3270,28874.178567,1.128724801,120748,29570.4708744
3280,28997.7073326,1.132184512,121110,29355.5667448
3290,29042.0032518,1.135549285,121478,29590.4405074
3300,28995.5855227,1.138886261,121838,29486.7561511
3310,28976.888925,1.142242053,122209,30038.4105686
3320,28995.9537804,1.145629064,122576,29710.1994687
3330,29203.2693811,1.149045583,122941,29872.4730297
3340,29164.7609672,1.152538652,123321,29959.0190403
3350,29363.9761388,1.155902997,123689,29591.5216094
3360,29132.8898335,1.159281027,124058,30324.5843296
3370,29135.1414546,1.162659485,124427,30103.8275832
3380,29277.5234966,1.16604949,124801,30009.6791334
3390,29225.0843451,1.16946045,125167,29998.8863152
3400,29341.6567188,1.172851737,125533,30053.3410023
3410,29440.3643514,1.176273816,125898,30175.8995474
3420,29399.1058639,1.179710435,126269,30064.7304134
3430,29318.3605797,1.183496018,126640,29889.3508191
3440,29494.5215778,1.186962572,127010,30100.5963531
3450,29331.1574961,1.19035984701,127384,29859.4864661
3460,29232.6651044,1.19376995101,127757,30292.6872314
3470,29264.3859238,1.19717834401,128131,29697.5179757
3480,29301.1925031,1.20055209801,128496,29863.7514882
3490,29273.5601164,1.20394295801,128862,29966.8800418
3500,29291.3771335,1.20737786601,129230,29780.9646046
3510,29422.6808012,1.21080379301,129597,30174.9546594
3520,29380.6580038,1.21421689001,129972,30270.5703083
3530,29214.5798704,1.21756199101,130339,30001.414485
3540,29465.9328124,1.22096568001,130706,29838.3133549
3550,29328.8266471,1.22436851401,131075,29650.9185478
3560,29206.5017138,1.22779572401,131439,29948.8037007
3570,29470.4604285,1.23117717501,131805,29735.4971684
3580,29295.0569002,1.23454536901,132170,29922.3533499
3590,29293.2474198,1.23793708401,132539,30218.7009441
3600,29231.6454846,1.24134804301,132909,29716.3513287
3610,29291.3539724,1.24475943001,133275,29285.9200083
3620,29310.7864034,1.24832135101,133643,30049.2726595
3630,29341.6956681,1.25165405001,134014,30217.7025049
3640,29386.1498355,1.25500000701,134374,30013.3368241
3650,29380.5474679,1.25833869301,134743,29836.6553016
3660,29318.6899161,1.26173896101,135109,29733.7777048
3670,29363.9224777,1.26512468901,135469,30130.0310672
3680,29462.7487698,1.26850742401,135830,30389.7902583
3690,29618.2545203,1.27183670201,136192,29936.1491945
3700,29389.1349219,1.27525963601,136562,30074.6291821
3710,29361.2572136,1.27866674601,136930,30311.1204588
3720,29255.7703468,1.28203280101,137309,30037.1157999
3730,29193.5974428,1.28545359701,137678,30074.8223485
3740,29331.8530588,1.28879527701,138052,29783.7895324
3750,29254.0513737,1.29228920101,138418,29628.9482723
3760,29263.3937386,1.29586352401,138789,30039.4400222
3770,29297.7557408,1.29928731301,139162,29972.3876353
3780,29214.4485878,1.30289584801,139530,29699.2749793
3790,29321.3577045,1.30642398401,139898,29661.6595053
3800,29130.6168895,1.30985589901,140257,30081.0482176
3810,29149.6890191,1.31343321601,140623,29716.0212134
3820,29178.4686051,1.31682535901,140989,29701.5136987
3830,29183.0433884,1.32035606101,141356,30181.7302401
3840,29222.4290999,1.32426823001,141724,29896.0060709
3850,29311.6833681,1.32782972301,142096,29953.6145494
3860,29237.5607292,1.33122571501,142465,29892.4605715
3870,29219.8044955,1.33463795701,142836,29931.2398358
3880,29243.6921187,1.33805789701,143203,30170.3750396
3890,29363.3806441,1.34146415301,143571,29825.7435081
3900,29379.067639,1.34485843401,143935,29987.8676088
3910,29484.1443153,1.34828307801,144307,29850.0728424
3920,29310.5268075,1.35173723101,144673,29877.5528374
3930,29373.9569874,1.35513963801,145043,30120.6526598
3940,29303.6172016,1.358547177,145417,30016.2259245
3950,29248.9459745,1.36204067301,145778,29954.8946345
3960,29283.6689347,1.365432388,146144,30251.8023987
3970,29281.8426287,1.368816406,146515,30054.6203717
3980,29210.3637318,1.37224661001,146872,30177.36902
3990,29255.2629492,1.37585044101,147235,29886.3623477
4000,29266.4357189,1.37921949001,147602,30021.3104054
4010,29332.3360396,1.382857961,147969,30108.6942562
4020,29425.0516208,1.386412612,148341,29773.6396371
4030,29235.5352577,1.389894135,148714,29994.7644367
4040,29266.8515921,1.393545863,149092,29774.2209115
4050,29294.5330138,1.396969224,149461,29605.0499481
4060,29202.000647,1.400351531,149823,29853.8853306
4070,29302.3201365,1.403929275,150196,29941.8643081
4080,29250.2862441,1.407450997,150565,29929.1266115
4090,29206.0846646,1.410862384,150942,30100.2198325
4100,29200.3447645,1.414284463,151315,29699.9112395
4110,29282.8338651,1.417645387,151680,30138.1025209
4120,29366.6688683,1.421160266,152050,29438.090046
4130,29541.0523616,1.424721332,152421,29550.9410377
4140,29514.6471973,1.428104494,152782,29890.1928957
4150,29602.4653839,1.43149065,153143,29922.2727184
4160,29520.022903,1.434854995,153513,30058.6074255
4170,29465.7082177,1.438282206,153877,29933.2558854
4180,29598.9075261,1.441649973,154240,30039.320271
4190,29701.8478162,1.445050669,154603,29679.932105
4200,29689.3155533,1.448700259,154974,29980.4958003
4210,29625.6633803,1.452232244,155351,29861.6039211
4220,29545.2724501,1.455904927,155715,29952.5877802
4230,29466.6619964,1.459335131,156088,29740.647826
4240,29509.683803,1.462712733,156462,29806.0985756
4250,29472.06951,1.466078361,156836,30073.0681539
4260,29549.9279248,1.469440996,157210,30113.4505918
4270,29555.2767899,1.472966994,157583,30008.1514872
4280,29835.9232321,1.476532764,157955,30546.0980769
4290,29623.7754448,1.480113502,158329,29794.7560702
4300,29593.8309166,1.483799442,158696,30261.4962055
4310,29671.9549717,1.487442189,159062,30096.4718201
4320,29530.1817669,1.490957068,159433,29976.4945619
4330,29618.3171473,1.494467671,159797,29795.6801848
4340,29580.9684124,1.498107425,160169,30328.504299
4350,29526.4063558,1.501620594,160533,29866.8547343
4360,29548.0750772,1.505274888,160900,29765.7017304
4370,29397.4474449,1.508817992,161262,29826.6192986
4380,29490.1251318,1.512174212,161623,29681.0606382
4390,29489.309573,1.515667708,161988,29787.7161617
4400,29419.4017433,1.519201404,162349,29689.8136538
4410,29239.2936099,1.522608515,162717,29961.4010769
4420,29249.5234123,1.526036153,163091,29676.3058746
4430,29204.6197079,1.529402637,163457,29680.5310613
4440,29334.5473822,1.532752014,163829,29581.2229
4450,29242.8595845,1.536103529,164200,29378.4325999
4460,29155.7362567,1.539443926,164567,29696.9297277
4470,29135.3063186,1.542880973,164933,29585.2423717
4480,29030.4389608,1.546312032,165302,29371.7683927
4490,28962.0011786,1.549657133,165665,29503.6351627
4500,29043.8684695,1.553021906,166032,29573.3957643
4510,29169.6042869,1.556409345,166400,29733.6373105
4520,29097.8782365,1.559832707,166773,29665.6411423
4530,29150.3951004,1.563209882,167137,29632.127376
4540,29123.7988173,1.566565246,167510,29312.9213323
4550,29146.7922273,1.569937716,167880,29730.5043676
4560,29214.9901728,1.573355518,168250,29410.0706676
4570,29187.6468556,1.576758352,168622,29246.565585
4580,29305.0717434,1.580161186,168986,29458.7987322
4590,29256.5663657,1.583664518,169357,29512.5024227
4600,29521.0410061,1.587151599,169723,29652.6922528
4610,29472.7473553,1.590507819,170092,29881.9541661
4620,29239.6431277,1.593904238,170458,29392.7980179
4630,29390.2779521,1.597237793,170827,29528.4905715
4640,29433.5406907,1.600615396,171193,29386.3264049
4650,29361.1237955,1.604161494,171558,29419.4620724
4660,29281.9313428,1.607761048,171932,29466.7966192
4670,29244.581094,1.611316982,172299,29555.1666228
4680,29365.572937,1.614901569,172665,29232.506271
4690,29414.2519333,1.618234695,173033,29596.8740692
4700,29327.7671579,1.621657201,173404,29682.9009117
4710,29453.6064409,1.625029244,173768,29785.470487
4720,29364.5010975,1.628432506,174141,29749.0708412
4730,29262.3307317,1.631810109,174506,29586.1592908
4740,29302.1411222,1.635186856,174874,29893.474985
4750,29353.9233553,1.638539655,175242,29643.2336649
4760,29320.3793068,1.641908277,175606,29553.1232087
4770,29314.0391699,1.64529486,175977,29539.8037297
4780,29357.4338189,1.648671179,176349,29639.6195536
4790,29399.0960408,1.652052203,176719,29793.4016546
4800,29420.8177063,1.655402864,177087,29587.3760488
4810,29285.6617421,1.658798855,177450,29770.8810342
4820,29332.8939709,1.662189287,177815,29486.2402928
4830,29297.4259103,1.665569883,178182,29929.5669077
4840,29212.1174262,1.669010351,178560,29540.3914821
4850,29169.486294,1.672409337,178929,29606.1452319
4860,29350.0545538,1.675814737,179297,29510.34232
4870,29291.7570481,1.679255205,179669,29458.5983479
4880,29330.9837325,1.685627661,180034,29605.2882612
4890,29240.3289568,1.689060431,180403,29550.6861848
4900,29339.0537018,1.692486786,180769,29546.3100408
4910,29384.8441771,1.695847283,181133,29416.5553515
4920,29299.9743228,1.69939167,181500,29338.9083127
4930,29355.1140866,1.702790656,181874,29513.301053
4940,29339.3448384,1.706373104,182240,29598.1290548
4950,29227.2801485,1.709784063,182614,29516.7804876
4960,29308.5907038,1.713140283,182983,29833.2603379
4970,29227.4045933,1.716562361,183347,29537.1900412
4980,29437.2824081,1.719952365,183713,29912.6426308
4990,29365.4049454,1.723348784,184083,29645.2670495
