it,funval,time,funcount,weight
0,2017.2477517,8.55399999722e-06,10,2077.87890536
10,1916.9131666,1.7961999994e-05,21,2150.14557862
20,2050.3390709,2.82259999977e-05,32,2257.17353398
30,2116.72822913,3.84889999978e-05,43,2393.57362599
40,2267.73596117,4.96079999976e-05,54,2601.13209023
50,2345.58346938,6.03000000012e-05,65,2705.44332809
60,2647.67221132,6.97080000052e-05,76,2968.20072729
70,2717.50318512,8.04000000016e-05,87,3138.92486284
80,2884.28267854,9.06640000053e-05,98,3112.66697734
90,3047.46706978,0.000100928000002,109,3401.99580459
100,3123.41350475,0.000111619000002,120,3472.66415214
110,3123.41350475,0.000121882999998,131,3443.10677648
120,3225.62001722,0.000134711999998,142,3437.3625006
130,3452.64411146,0.000144120999998,153,3843.13392332
140,3528.62709944,0.000156949999997,164,3816.55323617
150,3538.26315567,0.000168068999997,175,3885.34438471
160,3582.40868876,0.000179614999993,186,3997.33199873
170,3582.40868876,0.000192872,197,3914.1963917
180,3582.40868876,0.000203990999999,208,3941.94986058
190,3582.40868876,0.000215964999995,219,3826.49628101
200,3582.40868876,0.000227510999991,230,3901.88420879
210,3582.40868876,0.000238201999991,241,3968.76479163
220,3582.40868876,0.000249320999991,252,3914.1963917
230,3582.40868876,0.000259583999991,263,3897.52540252
240,3582.40868876,0.00027326899999,274,4072.67706662
250,3582.40868876,0.00028395999999,285,4015.79271144
260,3582.40868876,0.000293368999991,296,3997.33199873
270,3582.40868876,0.000303632999994,307,3997.33199873
280,3582.40868876,0.000314323999994,318,3997.33199873
290,3582.40868876,0.00032629799999,329,4021.04780344
300,3582.40868876,0.00033827299999,340,3954.83821925
310,3582.40868876,0.000350246999993,351,3967.40309463
320,3582.40868876,0.000362648999989,362,3947.20758101
330,3582.40868876,0.000379754999983,373,3954.20195656
340,3582.40868876,0.000392584999986,384,3891.70228297
350,3582.40868876,0.000403703999986,395,4090.65718244
360,3582.40868876,0.000416105999989,406,3954.6230693
370,3582.40868876,0.000427652999988,417,4043.99459058
380,3582.40868876,0.000440482999984,428,4001.27456651
390,3582.40868876,0.000451173999984,439,3862.7664316
400,3582.40868876,0.000463147999987,450,3950.66940687
410,3582.40868876,0.000472983999984,461,3997.33199873
420,3582.40868876,0.000484529999987,472,3997.33199873
430,3582.40868876,0.00049650399999,483,4018.42969902
440,3582.40868876,0.00050805099999,494,3886.93377326
450,3582.40868876,0.000524301999988,505,3960.8463166
460,3582.40868876,0.000540980999986,516,4022.13612552
470,3582.40868876,0.000557231999984,527,3957.78596521
480,3582.40868876,0.000575192999982,538,4075.38140035
490,3582.40868876,0.000588021999981,549,3985.50429536
500,3582.40868876,0.00060170699998,560,3912.34443977
510,3582.40868876,0.000616246999982,571,3955.76419521
520,3582.40868876,0.000635918999983,582,3985.48652687
530,3582.40868876,0.000649175999989,593,3980.62385949
540,3582.40868876,0.000659866999989,604,3947.42870062
550,3582.40868876,0.000672696999992,615,3997.33199873
560,3582.40868876,0.000686809999991,626,3950.66940687
570,3582.40868876,0.000700921999986,637,3894.14750903
580,3582.40868876,0.000712895999989,648,3926.91218822
590,3582.40868876,0.000729146999994,659,4046.94025232
600,3582.40868876,0.000744969999992,670,3967.47894436
610,3582.40868876,0.000758226999992,681,3997.33199873
620,3582.40868876,0.000770628999994,692,3950.41351626
630,3582.40868876,0.000782174999998,703,3894.14750903
640,3592.17153342,0.000795859999997,714,3959.94081634
650,3592.17153342,0.000807834999996,725,4110.63095213
660,3592.17153342,0.000821091999995,736,3964.19707181
670,3592.17153342,0.000832210999995,747,3967.6844462
680,3592.17153342,0.000845467999994,758,4056.72810161
690,3592.17153342,0.000860435999996,769,3997.61335029
700,3592.17153342,0.000877541999991,780,3888.1563039
710,3592.17153342,0.000895503999992,791,3983.32974674
720,3592.17153342,0.000910899999994,802,3997.61335029
730,3592.17153342,0.000930143999994,813,3948.00509669
740,3592.17153342,0.000945966999993,824,3907.90297221
750,3592.17153342,0.000963499999997,835,3985.88372967
760,3592.17153342,0.000978895999999,846,3967.6844462
770,3592.17153342,0.000995574000001,857,3966.53428338
780,3592.17153342,0.001010541,868,3955.81481587
790,3592.17153342,0.001026364,879,3975.85117127
800,3592.17153342,0.001044325,890,3976.18794497
810,3592.17153342,0.001060148,901,3978.17832773
820,3592.17153342,0.001075544,912,3927.87922187
830,3592.17153342,0.00109265,923,3985.76787844
840,3592.17153342,0.00110804600001,934,3953.60739952
850,3592.17153342,0.00112386900001,945,4046.92707195
860,3592.17153342,0.00113969300001,956,4058.32499011
870,3592.17153342,0.00115551600001,967,3997.61335029
880,3592.17153342,0.00117647100001,978,3929.97621589
890,3592.17153342,0.00119314900001,989,4116.25145085
900,3592.17153342,0.00121153800001,1000,3997.61335029
910,3592.17153342,0.00122864400001,1011,4035.28588424
920,3592.17153342,0.00124446700001,1022,3997.61335029
930,3592.17153342,0.00126285600001,1033,4028.95742616
940,3592.17153342,0.00128039000001,1044,3997.61335029
950,3592.17153342,0.00129835100001,1055,3924.9521622
960,3592.17153342,0.00131674000001,1066,3976.71408308
970,3592.17153342,0.001334701,1077,3987.06450014
980,3592.17153342,0.00135351700001,1088,3872.90993975
990,3592.17153342,0.001371479,1099,3974.15410906
1000,3592.17153342,0.001389441,1110,3979.15263757
1010,3592.17153342,0.001406547,1121,3983.32974674
1020,3592.17153342,0.001421942,1132,4022.41747709
1030,3592.17153342,0.001439904,1143,3919.56394866
1040,3592.17153342,0.001455727,1154,3985.76787844
1050,3592.17153342,0.001473261,1165,3967.76029592
1060,3592.17153342,0.001491222,1176,3921.08497124
1070,3592.17153342,0.001509183,1187,4024.80441836
1080,3592.17153342,0.00152928199999,1198,4047.22160388
1090,3592.17153342,0.00154767099999,1209,3987.89583901
1100,3592.17153342,0.00156734299999,1220,3907.82663801
1110,3592.17153342,0.001585732,1231,3919.56394866
1120,3592.17153342,0.00160412099999,1242,3960.69192486
1130,3592.17153342,0.00162208199999,1253,3985.68463554
1140,3592.17153342,0.00164175399999,1264,3997.61335029
1150,3592.17153342,0.00166057099999,1275,3973.89754558
1160,3592.17153342,0.00167767699999,1286,3949.88945532
1170,3592.17153342,0.00169734899999,1297,3863.04778317
1180,3592.17153342,0.00172343499999,1308,3911.35326595
1190,3592.17153342,0.00174781099999,1319,3901.96959728
1200,3592.17153342,0.00176491699999,1330,3997.61335029
1210,3592.17153342,0.00178330599999,1341,3854.44166538
1220,3592.17153342,0.00180126799999,1352,3954.90442086
1230,3592.17153342,0.00182051299998,1363,3940.43169821
1240,3592.17153342,0.00183761899999,1374,4046.92707195
1250,3592.17153342,0.00185643599998,1385,3849.70749006
1260,3592.17153342,0.00187610799998,1396,3947.48893257
1270,3592.17153342,0.00189406899999,1407,3997.61335029
1280,3592.17153342,0.00191844599999,1418,3978.00647332
1290,3592.17153342,0.00193426899999,1429,3959.94081634
1300,3592.17153342,0.00195436899999,1440,3997.61335029
1310,3592.17153342,0.00197318599999,1451,3897.80675408
1320,3592.17153342,0.00199242999999,1462,3997.61335029
1330,3592.17153342,0.002010392,1473,3967.25753038
1340,3592.17153342,0.002029636,1484,3997.61335029
1350,3592.17153342,0.002048453,1495,3946.02110544
1360,3592.17153342,0.00206898,1506,3948.29962862
1370,3592.17153342,0.002088652,1517,3911.35326595
1380,3592.17153342,0.00210575800001,1528,3958.58864947
1390,3592.17153342,0.002124147,1539,3827.63823238
1400,3592.17153342,0.002143392,1550,3979.72027817
1410,3592.17153342,0.002162209,1561,3955.11957081
1420,3592.17153342,0.00217846,1572,3997.61335029
1430,3592.17153342,0.00219727599999,1583,3997.61335029
1440,3592.17153342,0.00221438199999,1594,3969.04614319
1450,3592.17153342,0.00223148799999,1605,3959.4922489
1460,3592.17153342,0.00225115999999,1616,4037.15938381
1470,3592.17153342,0.00227938499999,1627,3959.94081634
1480,3592.17153342,0.00229820099999,1638,3956.04554678
1490,3592.17153342,0.00231658999999,1649,3956.04554678
1500,3592.17153342,0.00233583399999,1660,3982.07494576
1510,3592.17153342,0.00235422299998,1671,3948.29962862
1520,3592.17153342,0.00237132899998,1682,3968.2562884
1530,3592.17153342,0.00239057299999,1693,4021.329155
1540,3592.17153342,0.00241109999998,1704,3934.91554865
1550,3592.17153342,0.00243376499999,1715,3968.05597463
1560,3592.17153342,0.00245899699999,1726,4027.9691702
1570,3592.17153342,0.00248208999999,1737,3912.62579133
1580,3592.17153342,0.00253811199999,1748,3912.62579133
1590,3592.17153342,0.00255735599999,1759,3955.11957081
1600,3592.17153342,0.00257702799999,1770,4044.27594215
1610,3592.17153342,0.00260012099999,1781,3914.47774326
1620,3592.17153342,0.00261893699999,1792,3997.61335029
1630,3592.17153342,0.00263775399998,1803,3997.61335029
1640,3592.17153342,0.00266041899998,1814,3997.61335029
1650,3592.17153342,0.00268094699998,1825,4028.6924172
1660,3592.17153342,0.00270061899997,1836,3997.61335029
1670,3592.17153342,0.00272029099997,1847,3899.00944347
1680,3592.17153342,0.00274167399998,1858,4035.28588424
1690,3592.17153342,0.00276177399998,1869,3970.01379392
1700,3592.17153342,0.00278187399998,1880,3872.90993975
1710,3592.17153342,0.00280368499998,1891,4056.72810161
1720,3592.17153342,0.00282506799998,1902,3863.04778317
1730,3592.17153342,0.00284345699998,1913,3973.92240658
1740,3592.17153342,0.00286355599998,1924,3997.61335029
1750,3592.17153342,0.00288237299998,1935,3955.81481587
1760,3592.17153342,0.00290118899998,1946,3948.31139688
1770,3592.17153342,0.00292214399998,1957,3964.19707181
1780,3592.17153342,0.00294480899998,1968,3898.57972684
1790,3592.17153342,0.00296405399998,1979,3942.41423755
1800,3592.17153342,0.00298201499999,1990,4056.72810161
1810,3592.17153342,0.00299997699999,2001,4029.25990073
1820,3592.17153342,0.00302007699999,2012,3831.34213624
1830,3592.17153342,0.00303932099999,2023,3997.61335029
1840,3592.17153342,0.00305728299999,2034,3997.61335029
1850,3592.17153342,0.00307738299999,2045,4014.32148953
1860,3592.17153342,0.00309705499999,2056,3972.85494443
1870,3592.17153342,0.00312057599999,2067,3899.00944347
1880,3592.17153342,0.00313981999999,2078,3980.90521105
1890,3592.17153342,0.00315863699999,2089,3940.43169821
1900,3592.17153342,0.00317531499999,2100,3979.72027817
1910,3592.17153342,0.00319242099999,2111,4058.32499011
1920,3592.17153342,0.00321423099999,2122,3962.07693473
1930,3592.17153342,0.003232193,2133,3987.06450014
1940,3592.17153342,0.0032493,2144,4024.80441836
1950,3592.17153342,0.003266834,2155,4059.77148411
1960,3592.17153342,0.003285223,2166,3997.61335029
1970,3592.17153342,0.00330404,2177,3997.61335029
1980,3592.17153342,0.003322002,2188,3997.61335029
1990,3592.17153342,0.00334124700001,2199,3982.07494576
2000,3592.17153342,0.00336177400001,2210,3993.6707825
2010,3592.17153342,0.00338101800001,2221,3914.47774326
2020,3592.17153342,0.00340282900001,2232,3997.61335029
2030,3592.17153342,0.00342378400001,2243,3968.2562884
2040,3592.17153342,0.00344345600001,2254,3982.07494576
2050,3592.17153342,0.003462273,2265,3865.59549799
2060,3592.17153342,0.003481089,2276,3997.61335029
2070,3592.17153342,0.00349819500001,2287,3863.04778317
2080,3592.17153342,0.00351572900001,2298,3869.486562
2090,3592.17153342,0.00354309900001,2309,3911.35326595
2100,3592.17153342,0.00356319900001,2320,3997.61335029
2110,3592.17153342,0.00358201600002,2331,3955.81481587
2120,3592.17153342,0.00359869400002,2342,3997.61335029
2130,3592.17153342,0.00361537200002,2353,3950.69486783
2140,3592.17153342,0.00363632700002,2364,3979.15263757
2150,3592.17153342,0.00365300500003,2375,3914.47774326
2160,3592.17153342,0.00366925600002,2386,3976.18794497
2170,3592.17153342,0.00368679000002,2397,3959.4922489
2180,3592.17153342,0.00370389600003,2408,3910.56463423
2190,3592.17153342,0.00372057400003,2419,3927.87922187
2200,3592.17153342,0.00373810800003,2430,3997.61335029
2210,3592.17153342,0.00375649700003,2441,3997.61335029
2220,3592.17153342,0.00377488700003,2452,3806.71777041
2230,3592.17153342,0.00379156500003,2463,3997.61335029
2240,3592.17153342,0.00380824300002,2474,3894.42886059
2250,3592.17153342,0.00382492200003,2485,3865.59549799
2260,3592.17153342,0.00384245600003,2496,3927.19353979
2270,3592.17153342,0.00386127300003,2507,3898.57972684
2280,3592.17153342,0.00388094500003,2518,3997.61335029
2290,3592.17153342,0.00389847900004,2529,3939.193935
2300,3592.17153342,0.00391900600004,2540,3997.61335029
2310,3592.17153342,0.00393910500004,2551,4046.92707195
2320,3592.17153342,0.00395792200003,2562,4044.27594215
2330,3592.17153342,0.00397631100003,2573,3929.97621589
2340,3592.17153342,0.00399470000003,2584,3997.61335029
2350,3592.17153342,0.00401479900002,2595,3888.1563039
2360,3592.17153342,0.00403447100002,2606,3960.69192486
2370,3592.17153342,0.00405371500002,2617,3974.36864081
2380,3592.17153342,0.00407253100002,2628,3956.04554678
2390,3592.17153342,0.00409348600002,2639,3958.06731677
2400,3592.17153342,0.00411230300001,2650,3910.56463423
2410,3592.17153342,0.00413069200001,2661,3891.98363453
2420,3592.17153342,0.00415121900001,2672,3997.61335029
2430,3592.17153342,0.00417003600001,2683,3997.61335029
2440,3592.17153342,0.00419013600001,2694,3997.61335029
2450,3592.17153342,0.00420980800001,2705,3870.13201186
2460,3592.17153342,0.004233329,2716,4027.9691702
2470,3592.17153342,0.004260699,2727,4017.22022726
2480,3592.17153342,0.004283364,2738,3997.61335029
2490,3592.17153342,0.004306885,2749,3997.61335029
2500,3592.17153342,0.004322708,2760,3978.17832773
2510,3592.17153342,0.00434109699999,2771,3927.87922187
2520,3592.17153342,0.00436290699999,2782,3979.72027817
2530,3592.17153342,0.00437958499999,2793,3980.90521105
2540,3592.17153342,0.00439711899999,2804,3818.19259413
2550,3592.17153342,0.00441550799999,2815,3972.80922349
2560,3592.17153342,0.00443347,2826,3800.40553665
2570,3592.17153342,0.00445228699999,2837,3869.486562
2580,3592.17153342,0.004475808,2848,4035.28588424
2590,3592.17153342,0.00449548,2859,3997.61335029
2600,3592.17153342,0.00451558,2870,3983.32974674
2610,3592.17153342,0.004533114,2881,3997.61335029
2620,3592.17153342,0.004554069,2892,3992.43388211
2630,3592.17153342,0.004592131,2903,3891.98363453
2640,3592.17153342,0.00463617899999,2914,4011.20888433
2650,3592.17153342,0.00465585099999,2925,3933.85084828
2660,3592.17153342,0.00467381199999,2936,3987.89583901
2670,3592.17153342,0.00469604999999,2947,3937.7555421
2680,3592.17153342,0.00471529399999,2958,3954.08899226
2690,3592.17153342,0.00473453799999,2969,3997.61335029
2700,3592.17153342,0.00475463799999,2980,4056.72810161
2710,3592.17153342,0.004776021,2991,4090.938534
2720,3592.17153342,0.004796976,3002,3987.89583901
2730,3592.17153342,0.004819641,3013,3818.19259413
2740,3592.17153342,0.00484059600001,3024,4035.28588424
2750,3592.17153342,0.00486026800001,3035,3970.42228221
2760,3592.17153342,0.00487994000001,3046,3898.57972684
2770,3592.17153342,0.00490303400001,3057,3939.193935
2780,3592.17153342,0.00492227900001,3068,3997.61335029
2790,3592.17153342,0.00494195100001,3079,3985.88372967
2800,3592.17153342,0.00496376100001,3090,4022.41747709
2810,3592.17153342,0.00498343300001,3101,3948.29962862
2820,3592.17153342,0.00500139400001,3112,3980.70406669
2830,3592.17153342,0.00502192100001,3123,3948.00509669
2840,3592.17153342,0.00504202100001,3134,3914.81468119
2850,3592.17153342,0.00506169300001,3145,4086.28547727
2860,3592.17153342,0.00508649700001,3156,3997.61335029
2870,3592.17153342,0.00511429500001,3167,3997.61335029
2880,3592.17153342,0.00513225600001,3178,4056.72810161
2890,3592.17153342,0.00515321100001,3189,4076.70541733
2900,3592.17153342,0.005172883,3200,4041.61930106
2910,3592.17153342,0.005192555,3211,3970.01379392
2920,3592.17153342,0.00522163599999,3222,3978.00647332
2930,3592.17153342,0.005241308,3233,4036.6380511
2940,3592.17153342,0.005264829,3244,3946.88549949
2950,3592.17153342,0.005290061,3255,3973.92240658
2960,3592.17153342,0.005312299,3266,3919.56394866
2970,3592.17153342,0.005329833,3277,4060.30150203
2980,3592.17153342,0.005350361,3288,3958.74330517
2990,3592.17153342,0.00536875,3299,3966.53428338
3000,3592.17153342,0.005386284,3310,3946.88549949
3010,3592.17153342,0.005405956,3321,3984.01781625
3020,3592.17153342,0.005424772,3332,3947.71005219
3030,3592.17153342,0.005441878,3343,4028.95742616
3040,3592.17153342,0.00546155,3354,3968.05597463
3050,3592.17153342,0.005480366,3365,3997.61335029
3060,3592.17153342,0.005501748,3376,3909.98422735
3070,3592.17153342,0.005528691,3387,3997.61335029
3080,3592.17153342,0.005545797,3398,3958.58864947
3090,3592.17153342,0.005566752,3409,3946.88549949
3100,3592.17153342,0.005587279,3420,3993.6707825
3110,3592.17153342,0.00560652399999,3431,3870.13201186
3120,3592.17153342,0.00562534099999,3442,3870.13201186
3130,3592.17153342,0.00564501299999,3453,4032.82325554
3140,3592.17153342,0.00566425699999,3464,3950.69486783
3150,3592.17153342,0.00568307299999,3475,4137.60112586
3160,3592.17153342,0.00570531099999,3486,3997.61335029
3170,3592.17153342,0.00572412699999,3497,3985.78564692
3180,3592.17153342,0.00574465499999,3508,3997.61335029
3190,3592.17153342,0.0057639,3519,3997.61335029
3200,3592.17153342,0.005783145,3530,3997.61335029
3210,3592.17153342,0.005800679,3541,4036.6380511
3220,3592.17153342,0.005820779,3552,4017.22022726
3230,3592.17153342,0.00583788599999,3563,3940.43169821
3240,3592.17153342,0.00585542,3574,3968.46081645
3250,3592.17153342,0.005875092,3585,4036.6380511
3260,3592.17153342,0.005893481,3596,3946.88549949
3270,3592.17153342,0.00591187,3607,3926.46593615
3280,3592.17153342,0.005931114,3618,4096.24079362
3290,3592.17153342,0.005949503,3629,3968.05597463
3300,3592.17153342,0.005969603,3640,3899.00944347
3310,3592.17153342,0.005989703,3651,3912.62579133
3320,3592.17153342,0.006007237,3662,3997.61335029
3330,3592.17153342,0.006024343,3673,3863.04778317
3340,3592.17153342,0.006046153,3684,4110.63095213
3350,3592.17153342,0.006063259,3695,3958.58864947
3360,3592.17153342,0.006080793,3706,3997.61335029
3370,3592.17153342,0.006100037,3717,3949.17255823
3380,3592.17153342,0.00611842599999,3728,3978.17832773
3390,3592.17153342,0.00613638799999,3739,3987.25441393
3400,3592.17153342,0.006157343,3750,3962.42448844
3410,3592.17153342,0.00617701499999,3761,3953.60739952
3420,3592.17153342,0.00619583199999,3772,3919.56394866
3430,3592.17153342,0.00621593199999,3783,3997.61335029
3440,3592.17153342,0.00623389299999,3794,4016.074063
3450,3592.17153342,0.00625142699998,3805,3993.6707825
3460,3592.17153342,0.00627067199999,3816,3997.61335029
3470,3592.17153342,0.00628906099998,3827,3968.05597463
3480,3592.17153342,0.00631343699999,3838,3946.88549949
3490,3592.17153342,0.00633481899999,3849,3923.3381327
3500,3592.17153342,0.00635320799999,3860,3826.77763257
3510,3592.17153342,0.00637116899998,3871,3962.40344504
3520,3592.17153342,0.00638998599999,3882,3949.17255823
3530,3592.17153342,0.00640837499999,3893,3954.90442086
3540,3592.17153342,0.00642975799999,3904,3984.01781625
3550,3592.17153342,0.00645327899999,3915,4035.28588424
3560,3592.17153342,0.00647123999999,3926,3997.61335029
3570,3592.17153342,0.00648834599998,3937,3974.36864081
3580,3592.17153342,0.00650502499999,3948,3985.88372967
3590,3592.17153342,0.00652213099999,3959,3900.73176617
3600,3592.17153342,0.00653923699999,3970,4137.60112586
3610,3592.17153342,0.00655762599999,3981,3959.94081634
3620,3592.17153342,0.00657430499999,3992,3919.56394866
3630,3592.17153342,0.00659183899999,4003,3965.73209929
3640,3592.17153342,0.00661193799998,4014,3985.88372967
3650,3592.17153342,0.00663075399999,4025,3882.82078172
3660,3592.17153342,0.00664914299999,4036,3962.07693473
3670,3592.17153342,0.00666795999999,4047,3937.7555421
3680,3592.17153342,0.00668592199999,4058,4044.27594215
3690,3592.17153342,0.00670302799999,4069,3914.01628144
3700,3592.17153342,0.00672269999999,4080,3989.72821471
3710,3592.17153342,0.00674066099999,4091,3877.89773392
3720,3592.17153342,0.006758195,4102,4075.66275191
3730,3592.17153342,0.00678000599999,4113,3800.40553665
3740,3592.17153342,0.00679924999999,4124,3997.61335029
3750,3592.17153342,0.00681849399999,4135,3973.89754558
3760,3592.17153342,0.006839449,4146,3991.64899292
3770,3592.17153342,0.006860831,4157,3954.08899226
3780,3592.17153342,0.006881786,4168,3914.81468119
3790,3592.17153342,0.006904452,4179,3970.01379392
3800,3592.17153342,0.006924552,4190,3954.90442086
3810,3592.17153342,0.006948928,4201,3946.88549949
3820,3592.17153342,0.006970739,4212,3959.4922489
3830,3592.17153342,0.006992549,4223,3960.69192486
3840,3592.17153342,0.007011794,4234,3926.46593615
3850,3592.17153342,0.007033604,4245,3827.63823238
3860,3592.17153342,0.007052421,4256,3982.07494576
3870,3592.17153342,0.007072521,4267,3912.19549143
3880,3592.17153342,0.007093476,4278,3997.61335029
3890,3592.17153342,0.00711443100001,4289,3888.1563039
3900,3592.17153342,0.00713752400001,4300,3975.85117127
3910,3592.17153342,0.00715805200001,4311,3997.61335029
3920,3592.17153342,0.00717858000001,4322,3922.75840314
3930,3592.17153342,0.00719782500001,4333,4012.53987747
3940,3592.17153342,0.00721535800001,4344,4116.25145085
3950,3592.17153342,0.00723716800001,4355,3954.48330812
3960,3592.17153342,0.00726068900001,4366,3967.25753038
3970,3592.17153342,0.00728378200001,4377,4046.92707195
3980,3592.17153342,0.007306447,4388,4075.66275191
3990,3592.17153342,0.007336383,4399,3951.12393134
4000,3592.17153342,0.007362042,4410,3947.48893257
4010,3592.17153342,0.007385135,4421,3924.9521622
4020,3592.17153342,0.00740438,4432,3987.25441393
4030,3592.17153342,0.007422769,4443,3962.07693473
4040,3592.17153342,0.007449712,4454,4046.92707195
4050,3592.17153342,0.007468529,4465,4116.25145085
4060,3592.17153342,0.007490339,4476,3958.4706011
4070,3592.17153342,0.007510867,4487,3952.75816125
4080,3592.17153342,0.007530111,4498,4088.68081002
4090,3592.17153342,0.007551493,4509,3951.12393134
4100,3592.17153342,0.007575442,4520,4116.25145085
4110,3592.17153342,0.007596824,4531,3997.61335029
4120,3592.17153342,0.00761949,4542,3897.80675408
4130,3592.17153342,0.007642583,4553,3872.90993975
4140,3592.17153342,0.007664821,4564,3954.90442086
4150,3592.17153342,0.007686631,4575,3996.7692956
4160,3592.17153342,0.00770929599999,4586,3973.7559208
4170,3592.17153342,0.00773110599999,4597,3869.486562
4180,3592.17153342,0.00775034999999,4608,3969.04614319
4190,3592.17153342,0.00777258799999,4619,3997.61335029
4200,3592.17153342,0.007793971,4630,3997.61335029
4210,3592.17153342,0.007817919,4641,4110.63095213
4220,3592.17153342,0.007840585,4652,3989.72821471
4230,3592.17153342,0.00786025699999,4663,3962.40344504
4240,3592.17153342,0.00788420599999,4674,3927.19353979
4250,3592.17153342,0.00790387799999,4685,3818.19259413
4260,3592.17153342,0.007927399,4696,3997.61335029
4270,3592.17153342,0.007949209,4707,3984.01781625
4280,3592.17153342,0.007973585,4718,3958.4706011
4290,3592.17153342,0.007995395,4729,3997.61335029
4300,3592.17153342,0.008021482,4740,3949.88945532
4310,3592.17153342,0.008042864,4751,3997.61335029
4320,3592.17153342,0.008063819,4762,3966.53428338
4330,3592.17153342,0.008086484,4773,3997.61335029
4340,3592.17153342,0.008105728,4784,4137.60112586
4350,3592.17153342,0.00813053099999,4795,3997.61335029
4360,3592.17153342,0.00815576299999,4806,3818.19259413
4370,3592.17153342,0.00817928399999,4817,3972.85494443
4380,3592.17153342,0.00820365999999,4828,3972.80922349
4390,3592.17153342,0.008226325,4839,3984.01781625
4400,3592.17153342,0.00825027299999,4850,3912.62579133
4410,3592.17153342,0.008273794,4861,3826.77763257
4420,3592.17153342,0.00829474899999,4872,3951.12393134
4430,3592.17153342,0.00831484899999,4883,3909.60144875
4440,3592.17153342,0.00833452099999,4894,3970.01379392
4450,3592.17153342,0.00835376599999,4905,3929.97621589
4460,3592.17153342,0.00837514799999,4916,3997.61335029
4470,3592.17153342,0.00839268199999,4927,3877.89773392
4480,3592.17153342,0.00841235399999,4938,3997.61335029
4490,3592.17153342,0.00843330899998,4949,3992.43388211
4500,3592.17153342,0.00845383699998,4960,3987.06450014
4510,3592.17153342,0.00847308199998,4971,4032.82325554
4520,3592.17153342,0.00849061599998,4982,4091.6455779
4530,3592.17153342,0.00850643999998,4993,3910.56463423
4540,3592.17153342,0.00852568499998,5004,3968.46081645
4550,3592.17153342,0.00854279099998,5015,3870.08834628
4560,3592.17153342,0.00855904199998,5026,4035.28588424
4570,3592.17153342,0.00857828599997,5037,3978.04197569
4580,3592.17153342,0.00859966899997,5048,3985.76787844
4590,3592.17153342,0.00861763099997,5059,3921.37114751
4600,3592.17153342,0.00863730299997,5070,3962.07693473
4610,3592.17153342,0.00865654799998,5081,4035.28588424
4620,3592.17153342,0.00867579299997,5092,3973.92240658
4630,3592.17153342,0.00869589299997,5103,4035.28588424
4640,3592.17153342,0.00872240799998,5114,3978.04197569
4650,3592.17153342,0.00874379099997,5125,3949.88945532
4660,3592.17153342,0.00876474599997,5136,4029.25990073
4670,3592.17153342,0.00878612899997,5147,3948.31139688
4680,3592.17153342,0.00880622799998,5158,3967.25753038
4690,3592.17153342,0.00882461699997,5169,4028.6924172
4700,3592.17153342,0.00884343399997,5180,3959.34916076
4710,3592.17153342,0.00886438899997,5191,4044.27594215
4720,3592.17153342,0.00888234999996,5202,3997.61335029
4730,3592.17153342,0.00889945599997,5213,4027.17072595
4740,3592.17153342,0.00891998299996,5224,3950.69486783
4750,3592.17153342,0.00893837199996,5235,3800.40553665
4760,3592.17153342,0.00895804399996,5246,3967.6844462
4770,3592.17153342,0.00897643299996,5257,3912.62579133
4780,3592.17153342,0.00899524999996,5268,3891.98363453
4790,3592.17153342,0.00901192899995,5279,3960.69192486
4800,3592.17153342,0.00902860799996,5290,3849.70749006
4810,3592.17153342,0.00904742499996,5301,3958.06731677
4820,3592.17153342,0.00906666899996,5312,3997.61335029
4830,3592.17153342,0.00908805199996,5323,3909.60144875
4840,3592.17153342,0.00910857999996,5334,3968.40364264
4850,3592.17153342,0.00912953499996,5345,3972.66170124
4860,3592.17153342,0.00915177299996,5356,3997.61335029
4870,3592.17153342,0.00917230099996,5367,3997.61335029
4880,3592.17153342,0.00919240099996,5378,4018.71105058
4890,3592.17153342,0.00921292799995,5389,3956.04554678
4900,3592.17153342,0.00923131799996,5400,4047.22160388
4910,3592.17153342,0.00924885199996,5411,3973.7559208
4920,3592.17153342,0.00926852399996,5422,4116.25145085
4930,3592.17153342,0.00928862399996,5433,3901.96959728
4940,3592.17153342,0.00930786799996,5444,3959.94081634
4950,3592.17153342,0.00932711299996,5455,3997.61335029
4960,3592.17153342,0.00934507399995,5466,3997.61335029
4970,3592.17153342,0.00936474599995,5477,3997.61335029
4980,3592.17153342,0.00938997799995,5488,3997.61335029
4990,3592.17153342,0.00941178799995,5499,3938.79271939
