it,funval,time,funcount,weight
0,24559.8735454,2.52319996434e-05,10,25372.4982775
10,24555.189912,6.84249998812e-05,21,25341.7160666
20,24852.7203203,0.00010135499906,32,25633.0789989
30,25324.6922602,0.000148824999087,43,25942.6768858
40,25528.3399621,0.000213400999201,54,26008.2117949
50,25728.0455137,0.000266429999101,65,26489.0644883
60,25890.3283656,0.000315609999234,76,26742.9477323
70,26133.2090048,0.000360514000022,87,26925.5587496
80,26178.2412657,0.000404562999393,98,27048.500769
90,26235.7916961,0.000440485999206,109,27088.3414273
100,26291.8392035,0.000475980998999,120,27259.5556127
110,26383.9637537,0.000513613998919,131,27475.6414045
120,26468.2214168,0.000561510998523,142,27500.0035436
130,26836.239613,0.00060898099855,153,27890.1180488
140,26997.2746136,0.000645330997941,164,28160.4264312
150,27204.2603347,0.00068595799803,175,28347.2120577
160,27365.3640369,0.000721453998267,186,28471.971421
170,27365.3640369,0.000773199998548,197,28358.2950955
180,27535.6261145,0.000810405998891,208,28542.1591834
190,27712.8702892,0.000845472999572,219,28660.295521
200,28062.6295874,0.000881822999872,230,28882.7136175
210,28419.9130103,0.000919883999813,241,29169.6883862
220,28505.8142578,0.00096264900003,252,29236.9809029
230,28608.4073508,0.000996861000203,263,29374.7748652
240,28787.9495573,0.00103064500036,274,29473.0207206
250,28858.2251502,0.00106528499964,285,29589.1268089
260,29109.5275472,0.00109949699981,296,29975.4402884
270,29373.5631423,0.00113199799944,307,30360.6965777
280,29436.6151821,0.00118075099908,318,30446.1680148
290,29645.9954017,0.00123035899924,329,30640.2695781
300,29722.7477349,0.00126457099941,340,30842.4775122
310,29822.518013,0.0013000659992,351,30831.4300166
320,29945.5912454,0.00133983799878,362,31075.6844539
330,30140.1420536,0.00138516899824,373,31230.8804368
340,30383.3762153,0.00141895399884,384,31484.0527108
350,30491.6337395,0.00147240999922,395,31649.9199403
360,30549.5510119,0.00150918799955,406,31881.6443048
370,30700.9397317,0.00155494699993,417,32071.777823
380,30739.5081296,0.00160113299989,428,32133.1173368
390,30876.7483315,0.0016776829998,439,32276.5670629
400,31037.2593175,0.00172173100054,450,32471.5257769
410,31119.8614792,0.00176577900038,461,32551.8958691
420,31181.598462,0.00182137400043,472,32613.7474637
430,31545.6113844,0.00186841600043,483,32718.1613737
440,31620.7074396,0.00191503000042,494,32733.3328733
450,31766.8108386,0.00195694000013,505,32756.0876956
460,31845.7452363,0.00200483699973,516,32906.2803645
470,31987.9548874,0.00205102399923,527,32828.2725346
480,32371.8922863,0.00209849399926,538,33215.134522
490,32470.5738067,0.00214510799924,549,33310.7490233
500,32589.0837033,0.00218316899918,560,33534.4444456
510,32641.0837712,0.00222465199931,571,33572.9017172
520,32697.8224316,0.00226271299925,582,33581.3122016
530,32919.9788355,0.00229906399909,593,33756.5143
540,33007.5488659,0.00233327599835,604,33813.0821767
550,33183.0373204,0.00237475799895,615,34143.9649111
560,33238.2596335,0.00242094499845,626,34144.5057797
570,33330.3809301,0.00245772299877,637,34121.5341808
580,33494.6520585,0.00250904099903,648,34342.1553268
590,33576.1035801,0.00256121499933,659,34505.1766767
600,33654.6364444,0.00259884800016,670,34688.4277385
610,33782.8884381,0.00264503499966,681,34772.6414981
620,34005.7385398,0.002682241,692,35020.2808468
630,34151.4316198,0.00272885499999,703,35175.9141807
640,34208.1737395,0.00277632399957,714,35370.1940767
650,34211.6346091,0.00283320199924,725,35443.3854791
660,34229.566315,0.00287981599922,736,35328.4225813
670,34356.4720714,0.00292899599935,747,35536.083814
680,34541.2776927,0.00297475499974,758,35763.9750152
690,34648.1440099,0.0030132439997,769,35820.3547247
700,34730.2576567,0.00305301600019,780,35843.6840511
710,34737.2510223,0.00310561700007,791,35814.5265151
720,34807.2654648,0.0031556519998,802,36006.7152147
730,34855.8575755,0.00319670599947,813,36044.2163049
740,34883.3880591,0.00323562299945,824,36116.1074638
750,34987.2285383,0.00327582199952,835,36102.5105107
760,35152.5345304,0.0033198709998,846,36219.9223957
770,35207.581219,0.00335707700015,857,36313.762473
780,35368.5660589,0.00340411900015,868,36310.6503712
790,35368.5660589,0.00345543700041,879,36290.9968736
800,35498.7430663,0.00350803800029,890,36507.9169184
810,35559.7743981,0.00354353300008,901,36600.6595396
820,35567.0240153,0.00357859999986,912,36624.8537239
830,35711.4725466,0.00361366699963,923,36692.6781516
840,35774.4551674,0.00364830699982,934,36829.6909518
850,35789.8972312,0.00369620400033,945,36870.4655097
860,35825.0369443,0.00374837700019,956,36891.0023384
870,35917.1693964,0.00382321600046,967,37035.5100363
880,36040.503983,0.00387068500004,978,37205.4970821
890,36098.2900782,0.00390489700021,989,37291.535309
900,36271.426961,0.00394210299964,1000,37532.9349397
910,36425.3637425,0.00398016499912,1011,37852.7013305
920,36425.3637425,0.00402848999875,1022,37684.9080722
930,36559.1588963,0.00406740599828,1033,37927.6099127
940,36666.5731571,0.00411744199755,1044,37994.985459
950,36694.1865106,0.00417004299743,1055,38092.4056239
960,36719.2625841,0.00420810399737,1066,38225.9485893
970,36764.2242578,0.00425984999765,1077,38390.6858372
980,36893.1795335,0.00430902999778,1088,38570.6607986
990,36957.8188543,0.00435564399777,1099,38681.3880475
1000,36957.8188543,0.00439284899767,1110,38676.5946834
1010,37031.7071927,0.00444117299776,1121,38756.1137404
1020,37098.682361,0.00449035399743,1132,38812.1484328
1030,37170.7867403,0.00453354699766,1143,38870.7229928
1040,37211.1500616,0.00457588499739,1154,39050.1689844
1050,37368.2088861,0.0046152299974,1165,39292.5901343
1060,37401.1812555,0.00472171599813,1176,39287.5970049
1070,37545.128105,0.0047726069979,1187,39485.4996688
1080,37724.5085123,0.00481023999782,1198,39512.2749563
1090,37777.4249525,0.00485300599757,1209,39647.3017636
1100,37806.8775352,0.00489833699794,1220,39744.7476154
1110,37964.208758,0.00496162999843,1231,39897.8539352
1120,38048.7144447,0.00501080999857,1242,39983.466
1130,38068.2515482,0.00505614099802,1253,39868.7802855
1140,38068.2515482,0.00510489399767,1264,39956.1827035
1150,38117.0567409,0.00515364599778,1275,39998.6602596
1160,38117.0567409,0.00520752999728,1286,39998.6602596
1170,38117.0567409,0.00524730199686,1297,39994.7605389
1180,38117.0567409,0.00535250499706,1308,39998.6602596
1190,38117.0567409,0.00540168499629,1319,39927.2040128
1200,38117.0567409,0.00548464899566,1330,39972.9340489
1210,38117.0567409,0.00552527599575,1341,40064.1350073
1220,38117.0567409,0.0055808709958,1352,40071.450972
1230,38117.0567409,0.00563945899557,1363,39967.9905027
1240,38117.0567409,0.00569676399482,1374,39990.6616744
1250,38117.0567409,0.00575663599557,1385,39955.7361711
1260,38117.0567409,0.00581479699576,1396,39879.19306
1270,38117.0567409,0.00589220199618,1407,40072.6453339
1280,38117.0567409,0.00595677799629,1418,39997.5783251
1290,38117.0567409,0.00602520299617,1429,39942.9880738
1300,38117.0567409,0.0060872119966,1440,39893.3641103
1310,38117.0567409,0.00614751099693,1451,39927.8619415
1320,38117.0567409,0.00620567199712,1462,39973.0498632
1330,38117.0567409,0.00626511599694,1473,39899.3250085
1340,38117.0567409,0.00631814499684,1484,39878.1464665
1350,38117.0567409,0.00637202899725,1495,39959.2779225
1360,38117.0567409,0.00642976299696,1506,39997.7217703
1370,38117.0567409,0.00649305599654,1517,39951.2089023
1380,38117.0567409,0.00653966999653,1528,39998.6602596
1390,38117.0567409,0.00659868599632,1539,39962.5043618
1400,38117.0567409,0.00665684699561,1550,40020.0847715
1410,38117.0567409,0.00670902099591,1561,39998.6602596
1420,38117.0567409,0.00676675399609,1572,39998.6602596
1430,38117.0567409,0.00682534199586,1583,39963.3649169
1440,38117.0567409,0.0068852139957,1594,39991.5344759
1450,38117.0567409,0.00693524899634,1605,40034.3987411
1460,38117.0567409,0.0069916989969,1616,40090.3795397
1470,38117.0567409,0.00705541999741,1627,40016.9911564
1480,38117.0567409,0.00710331699793,1638,40010.4205175
1490,38117.0567409,0.00716147699859,1649,39819.750049
1500,38117.0567409,0.00726454099913,1660,39909.3512954
1510,38117.0567409,0.00730901699899,1671,40067.3486329
1520,38117.0567409,0.00735947999874,1682,39998.6602596
1530,38117.0567409,0.00741635799932,1693,39903.4520218
1540,38117.0567409,0.00747409099949,1704,39998.6602596
1550,38117.0567409,0.0075279749999,1715,39969.0562799
1560,38117.0567409,0.00757758200052,1726,40018.0398254
1570,38117.0567409,0.00766140100041,1737,39941.1901274
1580,38117.0567409,0.00771656800043,1748,39968.9116805
1590,38117.0567409,0.00776959700033,1759,39926.4268859
1600,38117.0567409,0.00782476500081,1770,40057.5996643
1610,38117.0567409,0.00788463600111,1781,39982.9298509
1620,38117.0567409,0.00793980300114,1792,39998.6602596
1630,38117.0567409,0.00799753600131,1803,40052.0960889
1640,38117.0567409,0.00805740800115,1814,39991.9567663
1650,38117.0567409,0.00811642400095,1825,39975.1749006
1660,38117.0567409,0.00817244700102,1836,39998.6602596
1670,38117.0567409,0.00823958900128,1847,40002.7108112
1680,38117.0567409,0.00831015200129,1858,39879.5816407
1690,38117.0567409,0.00837173400123,1869,39927.8014604
1700,38122.5414663,0.00843075000193,1880,39854.1714669
1710,38122.5414663,0.00848634500198,1891,39987.439965
1720,38122.5414663,0.00854236800205,1902,39997.8674067
1730,38122.5414663,0.00860095600274,1913,39998.8081675
1740,38122.5414663,0.00867750600264,1924,39900.6386556
1750,38122.5414663,0.00873695000246,1935,39965.8173608
1760,38122.5414663,0.00879425600215,1946,39998.8081675
1770,38122.5414663,0.00885583800209,1957,39949.6632766
1780,38122.5414663,0.00891399900138,1968,39998.8081675
1790,38122.5414663,0.00897087700196,1979,39998.8081675
1800,38122.5414663,0.00903374200152,1990,39998.8081675
1810,38122.5414663,0.00909446800142,2001,39869.9855738
1820,38122.5414663,0.009141937001,2012,40000.4595733
1830,38122.5414663,0.00918513000124,2023,39950.6525851
1840,38122.5414663,0.00923944100123,2034,39971.0647752
1850,38122.5414663,0.0092971740014,2045,39956.40935
1860,38122.5414663,0.00935276900145,2056,39871.5998916
1870,38122.5414663,0.00939681700129,2067,39970.1170964
1880,38122.5414663,0.00945626000066,2078,39989.8838324
1890,38122.5414663,0.0095186970002,2089,39998.8081675
1900,38122.5414663,0.00956317300006,2100,39961.693377
1910,38122.5414663,0.00962261699988,2111,39959.4258305
1920,38122.5414663,0.00968505399942,2122,39946.5098385
1930,38123.5432993,0.00973979299943,2133,39918.0440638
1940,38123.5432993,0.00978384099926,2144,39854.0673205
1950,38123.5432993,0.00983986399933,2155,39907.832402
1960,38123.5432993,0.00989545899938,2166,39999.7305658
1970,38123.5432993,0.00995105399943,2177,39979.2630219
1980,38123.5432993,0.0100109249997,2188,39999.7305658
1990,38123.5432993,0.0100690850004,2199,39935.4975069
2000,38123.5432993,0.0101268179997,2210,39950.2533126
2010,38123.5432993,0.0101995189998,2221,39986.5401627
2020,38123.5432993,0.0102735030005,2232,39881.318678
2030,38123.5432993,0.010336796001,2243,39997.825574
2040,38123.5432993,0.0103949570012,2254,39930.3948706
2050,38123.5432993,0.0104548280005,2265,40038.3589498
2060,38123.5432993,0.0105134170008,2276,39814.1626464
2070,38123.5432993,0.0105668740007,2287,39999.7305658
2080,38123.5432993,0.0106190480001,2298,39871.861044
2090,38123.5432993,0.0106716500004,2309,39999.7305658
2100,38123.5432993,0.0107340870009,2320,39999.7305658
2110,38123.5432993,0.010853402001,2331,40019.1101317
2120,38123.5432993,0.0109068580014,2342,40092.6801264
2130,38123.5432993,0.0109598870013,2353,39982.2915753
2140,38123.5432993,0.0110171920014,2364,39995.414042
2150,38123.5432993,0.0110800570019,2375,39831.6421292
2160,38123.5432993,0.0111356520019,2386,39979.4049813
2170,38123.5432993,0.0111925290021,2397,39994.3337936
2180,38123.5432993,0.0112438470023,2408,39869.7401049
2190,38123.5432993,0.011309278002,2419,39913.8962303
2200,38123.5432993,0.0113674390022,2430,39900.7581455
2210,38123.5432993,0.0114200410026,2441,39999.7305658
2220,38123.5432993,0.0114739250021,2452,39869.4763231
2230,38123.5432993,0.0115308030017,2463,39971.9871734
2240,38123.5432993,0.0115791270018,2474,39999.7305658
2250,38123.5432993,0.011636860002,2485,39934.3266248
2260,38123.5432993,0.0116975870023,2496,39904.8981398
2270,38123.5432993,0.0117600250023,2507,39941.521955
2280,38123.5432993,0.011816903002,2518,39933.4241897
2290,38123.5432993,0.0118622340024,2529,39998.3667951
2300,38123.5432993,0.0119186840029,2540,39994.337596
2310,38123.5432993,0.0119759890031,2551,39920.4866699
2320,38123.5432993,0.012037999003,2562,39868.6080391
2330,38123.5432993,0.0120876060037,2573,40052.2757153
2340,38123.5432993,0.012132509004,2584,39999.7305658
2350,38123.5432993,0.0121744190037,2595,39890.6306625
2360,38123.5432993,0.0122321520039,2606,39984.0001571
2370,38123.5432993,0.0122830430037,2617,39999.7305658
2380,38123.5432993,0.0123386380037,2628,39976.2100499
2390,38123.5432993,0.0123848240037,2639,39999.7305658
2400,38123.5432993,0.0124344320029,2650,39964.7867025
2410,38123.5432993,0.0124913100026,2661,39941.4592902
2420,38123.5432993,0.0125507540024,2672,39976.7718705
2430,38123.5432993,0.012606776002,2683,39906.6895647
2440,38123.5432993,0.0126615160016,2694,40006.9498931
2450,38123.5432993,0.0127047090018,2705,40032.4679397
2460,38123.5432993,0.012762014002,2716,39963.6382203
2470,38123.5432993,0.0128244510024,2727,40020.0561503
2480,38123.5432993,0.012887744002,2738,39947.4507009
2490,38123.5432993,0.0129394900023,2749,39999.7305658
2500,38123.5432993,0.0129878150028,2760,39830.789796
2510,38123.5432993,0.0130464030026,2771,40010.8092329
2520,38123.5432993,0.0131041360019,2782,39991.5556396
2530,38123.5432993,0.0131610140015,2793,39966.9931919
2540,38123.5432993,0.0132072000015,2804,40038.6575323
2550,38123.5432993,0.0132589460018,2815,39921.6445057
2560,38123.5432993,0.0133162510019,2826,40084.5557042
2570,38123.5432993,0.0133692800018,2837,39999.7305658
2580,38123.5432993,0.0134282960025,2848,39958.8873148
2590,38123.5432993,0.0134915880026,2859,39878.0689593
2600,38123.5432993,0.013553597003,2870,39984.2804295
2610,38123.5432993,0.0136100470027,2881,39990.116271
2620,38123.5432993,0.0136891630018,2892,39999.7305658
2630,38123.5432993,0.0137460410024,2903,39912.2893114
2640,38123.5432993,0.0138084790024,2914,40026.4484805
2650,38123.5432993,0.013857232002,2925,39999.7305658
2660,38123.5432993,0.0139029910024,2936,39999.6759913
2670,38123.5432993,0.0139521710025,2947,39999.7305658
2680,38123.5432993,0.0140022070027,2958,40040.1632291
2690,38123.5432993,0.0140607950025,2969,39964.8963831
2700,38123.5432993,0.0141202390023,2980,39999.7305658
2710,38123.5432993,0.0141788280025,2991,39998.0443544
2720,38123.5432993,0.014241265003,3002,40076.9873338
2730,38123.5432993,0.0143007080032,3013,39999.7305658
2740,38123.5432993,0.0143486050029,3024,39999.7305658
2750,38123.5432993,0.0144050560029,3035,40024.3672903
2760,38123.5432993,0.0145012780031,3046,39996.7873073
2770,38123.5432993,0.0145594390033,3057,39999.7305658
2780,38123.5432993,0.0146060530033,3068,39908.3245992
2790,38123.5432993,0.0146620750029,3079,39999.7305658
2800,38123.5432993,0.0147287890031,3090,40033.9107734
2810,38123.5432993,0.0147890880025,3101,39983.3926093
2820,38123.5432993,0.0148643550028,3112,39994.3337936
2830,38123.5432993,0.014922516003,3123,39977.2111942
2840,38123.5432993,0.0149883750028,3134,39986.7752033
2850,38123.5432993,0.0150426870023,3145,39999.7305658
2860,38123.5432993,0.0150987090019,3156,39928.4110088
2870,38123.5432993,0.0151598640023,3167,40030.3528461
2880,38123.5432993,0.0152167420019,3178,39953.037964
2890,38123.5432993,0.0152791790015,3189,39999.7305658
2900,38123.5432993,0.0153270760011,3200,39966.5773777
2910,38123.5432993,0.0153860930013,3211,39999.7305658
2920,38123.5432993,0.0154481030013,3222,39867.2341676
2930,38123.5432993,0.0155045530009,3233,39986.2287324
2940,38123.5432993,0.0155567270012,3244,39999.7305658
2950,38123.5432993,0.0156161710011,3255,39954.1662752
2960,38123.5432993,0.0156726220011,3266,39999.7305658
2970,38123.5432993,0.0157252230019,3277,39868.4893808
2980,38123.5432993,0.0157825280021,3288,39999.7305658
2990,38123.5432993,0.0158351300015,3299,39884.6999598
3000,38123.5432993,0.0158958570019,3310,39850.779341
3010,38123.5432993,0.0159510240019,3321,39945.3215488
3020,38123.5432993,0.0159972110023,3332,39970.9764668
3030,38123.5432993,0.0160528060023,3343,39994.0313931
3040,38123.5432993,0.0161002760024,3354,39999.7305658
3050,38123.5432993,0.0161447520022,3365,39999.7305658
3060,38123.5432993,0.0161909390017,3376,39915.2335147
3070,38123.5432993,0.0162337050015,3387,39999.7305658
3080,38123.5432993,0.0162764700017,3398,39999.7305658
3090,38123.5432993,0.0163252220018,3409,39842.2012177
3100,38123.5432993,0.0163709800017,3420,39964.9326498
3110,38123.5432993,0.0164175940017,3431,39912.3236525
3120,38123.5432993,0.0164612140015,3442,39854.8099444
3130,38123.5432993,0.0165373370019,3453,39972.5141808
3140,38186.526462,0.0165805300012,3464,39999.9156924
3150,38186.526462,0.0166228670014,3475,40111.8503548
3160,38186.526462,0.0166694810014,3486,39934.586954
3170,38186.526462,0.0167208000021,3497,39999.9156924
3180,38186.526462,0.0167755390021,3508,40040.6765073
3190,38186.526462,0.0168401140027,3519,40093.185228
3200,38186.526462,0.0168892940028,3530,39900.9432721
3210,38186.526462,0.0169692650024,3541,39977.0153271
3220,38186.526462,0.0170252880025,3552,39934.99446
3230,38186.526462,0.0170783170033,3563,39964.9269572
3240,38186.526462,0.0171351950039,3574,39999.9156924
3250,38186.526462,0.0171946390037,3585,39955.9848216
3260,38186.526462,0.0172515170034,3596,39985.0364609
3270,38186.526462,0.0172985590034,3607,40087.8670539
3280,38186.526462,0.017355009003,3618,39999.9156924
3290,38186.526462,0.0174114590036,3629,39999.9156924
3300,38186.526462,0.0174661990031,3640,39825.0604832
3310,38186.526462,0.0175209380031,3651,39986.3355574
3320,38186.526462,0.0175799540029,3662,39999.9156924
3330,38186.526462,0.017644102003,3673,39954.8769493
3340,38186.526462,0.0176898610025,3684,39902.8068622
3350,38186.526462,0.0177514430025,3695,39999.9156924
3360,38186.526462,0.017805755002,3706,39911.4575126
3370,38186.526462,0.0178711860017,3717,39959.4830291
3380,38186.526462,0.0179263530017,3728,39950.9018228
3390,38186.526462,0.0179853690015,3739,40035.2110351
3400,38186.526462,0.0180435300008,3750,39987.0525871
3410,38186.526462,0.0180944210006,3761,39972.4227087
3420,38186.526462,0.018157286001,3772,39826.172872
3430,38186.526462,0.0182107420005,3783,39999.9156924
3440,38186.526462,0.0182667640001,3794,39965.2341605
3450,38186.526462,0.018327490001,3805,39968.4548751
3460,38186.526462,0.0183839400015,3816,39999.9156924
3470,38186.526462,0.0184416730017,3827,39872.0956822
3480,38186.526462,0.0185045380022,3838,40042.8328602
3490,38186.526462,0.0185661200021,3849,39969.5816324
3500,38186.526462,0.0186272740029,3860,39976.9066897
3510,38186.526462,0.0186918490026,3871,39999.9156924
3520,38186.526462,0.018745733003,3882,39800.4935499
3530,38186.526462,0.0188060320024,3893,39869.0230099
3540,38186.526462,0.0188650480022,3904,39999.9156924
3550,38186.526462,0.0189150840024,3915,39978.1652615
3560,38186.526462,0.0189758100023,3926,39904.8214333
3570,38186.526462,0.0190343990025,3937,39999.9156924
3580,38186.526462,0.0190976920021,3948,39980.1853061
3590,38186.526462,0.0191528600017,3959,39901.7461805
3600,38186.526462,0.0192105930018,3970,39957.6805
3610,38186.526462,0.0192700370017,3981,39957.1734205
3620,38186.526462,0.0193333300022,3992,39999.9156924
3630,38186.526462,0.0194295520014,4003,39999.9156924
3640,38186.526462,0.019486002001,4014,39954.2207745
3650,38186.526462,0.0195309050014,4025,40047.3445147
3660,38186.526462,0.019603179001,4036,39999.9156924
3670,38186.526462,0.0196639060014,4047,40015.2268326
3680,38186.526462,0.0197644040018,4058,39988.2165305
3690,38186.526462,0.0198221380015,4069,39999.9156924
3700,38186.526462,0.0198691800015,4080,39951.76011
3710,38186.526462,0.0199405990015,4091,40031.8558767
3720,38186.526462,0.0200026090015,4102,40033.9361775
3730,38186.526462,0.0200616250013,4113,39825.0856568
3740,38186.526462,0.0201197860015,4124,39929.6207019
3750,38186.526462,0.0201941980013,4135,40127.7364538
3760,38186.526462,0.0202408130017,4146,40014.6760995
3770,38186.526462,0.0202972630013,4157,39979.9608461
3780,38186.526462,0.0203601280009,4168,40024.3568883
3790,38186.526462,0.0204075970014,4179,39974.4075797
3800,38186.526462,0.0204495070011,4190,39960.0073445
3810,38186.526462,0.0205068130008,4201,39984.0866767
3820,38186.526462,0.0205683950007,4212,39930.0279657
3830,38186.526462,0.020626984,4223,40027.0283398
3840,38186.526462,0.0206842890002,4234,39969.4734523
3850,38186.526462,0.0207321860007,4245,39952.8915128
3860,38186.526462,0.0207852150006,4256,39999.9156924
3870,38186.526462,0.0208339680003,4267,40182.1267335
3880,38186.526462,0.0208912730004,4278,40046.6957422
3890,38186.526462,0.0209468680005,4289,40127.7364538
3900,38186.526462,0.0209917709999,4300,39999.9156924
3910,38186.526462,0.0210452279998,4311,39999.9156924
3920,38186.526462,0.0211050990001,4322,39964.3530683
3930,38186.526462,0.0211624040003,4333,39963.549058
3940,38186.526462,0.0212188540008,4344,39999.9156924
3950,38186.526462,0.0212753040005,4355,39983.4016374
3960,38186.526462,0.0213317549997,4366,39934.2005489
3970,38186.526462,0.02139291,4377,39940.9754099
3980,38186.526462,0.0214527809994,4388,39933.4519649
3990,38186.526462,0.0215062369998,4399,39975.7215082
4000,38186.526462,0.0215537060003,4410,39936.0476531
4010,38186.526462,0.0216110110005,4421,39982.67889
4020,38186.526462,0.0216567690013,4432,39839.4124991
4030,38186.526462,0.0217153570011,4443,39991.4691209
4040,38186.526462,0.021760261001,4454,39999.9156924
4050,38186.526462,0.0218021710007,4465,39960.8726623
4060,38186.526462,0.021860332,4476,39875.8176472
4070,38186.526462,0.021907374,4487,39969.2143765
4080,38186.526462,0.0219535599999,4498,39980.0918906
4090,38186.526462,0.0219997470003,4509,39989.4927591
4100,38186.526462,0.0220532040003,4520,39999.9156924
4110,38186.526462,0.0221075160007,4531,40014.6136481
4120,38186.526462,0.0221545570002,4542,39965.0377115
4130,38186.526462,0.0222118620004,4553,39999.9156924
4140,38186.526462,0.0222670290004,4564,39895.8710966
4150,38186.526462,0.0223132159999,4575,39908.0175286
4160,38186.526462,0.0223692379996,4586,39999.9156924
4170,38186.526462,0.0224265439992,4597,39999.9156924
4180,38186.526462,0.0224748689998,4608,40006.4924879
4190,38186.526462,0.0225274710001,4619,39983.0225493
4200,38186.526462,0.0225847770007,4630,39986.6906697
4210,38186.526462,0.0226326740012,4641,39988.2165305
4220,38186.526462,0.0226762950015,4652,39999.9156924
4230,38186.526462,0.0227361660018,4663,39959.4557934
4240,38186.526462,0.0227866290015,4674,39999.9156924
4250,38186.526462,0.0228332430015,4685,40092.4412321
4260,38186.526462,0.0228905490012,4696,39847.9776856
4270,38186.526462,0.0229345980015,4707,40042.5226129
4280,38186.526462,0.0229820680006,4718,39974.6748911
4290,38186.526462,0.023041939,4729,39999.9156924
4300,38186.526462,0.0230953959999,4740,39960.2937445
4310,38186.526462,0.0231574059999,4751,39925.2402773
4320,38186.526462,0.0232121459994,4762,39999.9156924
4330,38186.526462,0.0232587599994,4773,39999.9156924
4340,38186.526462,0.0233092230001,4784,39999.9156924
4350,38186.526462,0.0233613970004,4795,39926.727508
4360,38186.526462,0.0234131430007,4806,39999.9156924
4370,38186.526462,0.0234636060004,4817,39937.2062682
4380,38186.526462,0.0235405830008,4828,39888.8970724
4390,38186.526462,0.0235995990006,4839,39924.1932883
4400,38186.526462,0.02365947,4850,39958.9835074
4410,38186.526462,0.023706512,4861,39996.5402341
4420,38186.526462,0.0237680939999,4872,39903.1705276
4430,38186.526462,0.0238224060004,4883,39879.4104985
4440,38186.526462,0.023879284,4894,39999.9156924
4450,38186.526462,0.0239318849999,4905,39881.5038046
4460,38186.526462,0.0239861970003,4916,39976.6266258
4470,38186.526462,0.024043075,4927,39999.9156924
4480,38186.526462,0.0240961039999,4938,39989.7782597
4490,38186.526462,0.0241529819996,4949,39918.6067512
4500,38186.526462,0.0242047279989,4960,40006.1007501
4510,38186.526462,0.0242641719988,4971,39967.5859899
4520,38186.526462,0.0243231879986,4982,39999.9156924
4530,38186.526462,0.0243958889987,4993,40078.0262646
4540,38186.526462,0.024446778998,5004,39999.9156924
4550,38186.526462,0.0245019459981,5015,40077.4339559
4560,38186.526462,0.0245571139976,5026,39953.2862225
4570,38186.526462,0.0246221169973,5037,40011.6759504
4580,38186.526462,0.0246627439974,5048,39999.9156924
4590,38186.526462,0.0247085029978,5059,40041.6705771
4600,38186.526462,0.0247619589982,5070,39961.476192
4610,38186.526462,0.0248235409981,5081,39922.0617594
4620,38186.526462,0.0248799919982,5092,39901.0574289
4630,38186.526462,0.024931736998,5103,39999.9156924
4640,38186.526462,0.0249911809988,5114,39962.0204332
4650,38186.526462,0.0250373669987,5125,39981.8596559
4660,38186.526462,0.0251036539994,5136,39953.0996449
4670,38186.526462,0.0251613869987,5147,39972.9224744
4680,38186.526462,0.0252195469993,5158,40021.0043754
4690,38186.526462,0.0252657339997,5169,39901.4460803
4700,38186.526462,0.0253161970004,5180,39999.9156924
4710,38186.526462,0.0253764959998,5191,39910.7170355
4720,38186.526462,0.0254333739995,5202,40006.4322509
4730,38186.526462,0.0254911069997,5213,40131.8427347
4740,38186.526462,0.0255552549997,5224,39954.8769493
4750,38186.526462,0.0256112770003,5235,39999.9156924
4760,38186.526462,0.0256625949996,5246,39952.8915128
4770,38186.526462,0.0257190449993,5257,39992.4760767
4780,38186.526462,0.0257797719996,5268,39900.4561282
4790,38186.526462,0.0258280969992,5279,39916.9061641
4800,38186.526462,0.0258871139995,5290,39999.9156924
4810,38186.526462,0.0259452749988,5301,40004.5966044
4820,38186.526462,0.0259910339992,5312,39950.9542325
4830,38186.526462,0.0260457729992,5323,39998.9932941
4840,38186.526462,0.0261064999995,5334,39956.991604
4850,38186.526462,0.0261582459998,5345,40029.60371
4860,38186.526462,0.0262129860002,5356,39999.8652533
4870,38186.526462,0.0262715749996,5367,39976.1721689
4880,38186.526462,0.0263280249992,5378,39999.9156924
4890,38186.526462,0.026371216999,5389,39999.9156924
4900,38186.526462,0.0264238189993,5400,39936.0353239
4910,38186.526462,0.0264794139994,5411,39999.9156924
4920,38186.526462,0.0265256009998,5422,39927.0661663
4930,38186.526462,0.0265901769999,5433,39955.4983139
4940,38186.526462,0.0266500479993,5444,39999.9156924
4950,38186.526462,0.0267043599997,5455,39995.1666794
4960,38186.526462,0.0267535399998,5466,39941.325388
4970,38186.526462,0.0268146939998,5477,39935.8424258
4980,38186.526462,0.0268715719994,5488,39999.9156924
4990,38186.526462,0.0269305879992,5499,39889.2363213
