it,funval,time,funcount,weight
0,5973.05794899,0.000903631000028,639,4738.17960781
10,6339.82847872,0.00181025500001,1191,5277.71227511
20,6273.17085637,0.00270404999992,1729,5120.15967783
30,6437.17616983,0.0036008379999,2280,5975.36610712
40,6642.40830811,0.00449848199992,2838,5178.36905469
50,6726.65436984,0.00539612599994,3389,6031.12724958
60,6514.31703378,0.00628692699991,3940,5942.54018642
70,6861.91528854,0.00717730099996,4489,5941.8719497
80,6922.23095696,0.00809632699998,5044,6245.7493022
90,7096.06542541,0.00908848199992,5588,6389.23603096
100,7011.15329536,0.00999125699991,6134,6628.60800247
110,7035.94154825,0.0113558969999,6681,6336.8934152
120,7053.12807271,0.0123835469999,7227,6249.27042337
130,6869.56445652,0.0133064219999,7771,6345.15810085
140,6913.59898582,0.014213046,8313,6288.37508329
150,6984.22510653,0.015131645,8860,6498.66570939
160,7053.40906305,0.016024156,9404,6491.99791693
170,7278.58501811,0.016921799,9952,6621.36745859
180,6944.88870381,0.0178348379999,10504,6247.04083885
190,6986.10095072,0.018731626,11040,6791.02922681
200,7034.88487085,0.0196485129999,11594,6746.71232446
210,6976.61038355,0.0205465839999,12142,6405.71669204
220,7063.14976288,0.0214510699999,12697,6463.43397913
230,7208.55382488,0.0223996039999,13247,6513.49624587
240,7133.3112667,0.0232895489999,13795,6476.14996449
250,7219.74637946,0.0241897589998,14357,6485.30296509
260,7218.13555002,0.0250921059999,14904,6755.51902311
270,7253.61713528,0.0259991579999,15448,6570.24143999
280,7275.60100113,0.0268775569999,15988,6808.61662002
290,7383.79765196,0.027777767,16537,6423.73602426
300,7399.63496322,0.028650179,17085,6876.12833369
310,7336.32926879,0.02955381,17633,6750.71269778
320,7355.5308469,0.030458296,18184,6836.76028884
330,7337.50272697,0.031359789,18732,7001.67809518
340,7296.57500176,0.03226513,19277,6768.98226957
350,7404.92155809,0.0332115260001,19827,7022.49928492
360,7380.75502379,0.0340967670001,20376,6958.19449126
370,7387.96955473,0.035006812,20919,7158.7158596
380,7382.76155564,0.0359130090001,21471,7247.99806522
390,7470.48958408,0.0368179220001,22015,7361.26598567
400,7399.86245712,0.0377189870001,22558,7176.13818252
410,7379.12438023,0.0386525530001,23106,7039.26066816
420,7470.0071415,0.0395536180001,23655,7265.90855281
430,7401.07317525,0.0404439910001,24202,6916.24538483
440,7390.11948219,0.041360023,24746,7275.41712576
450,7473.06162611,0.042270923,25292,6940.84270703
460,7372.63096511,0.043179257,25842,6990.00461205
470,7640.79063576,0.0441611480001,26391,6863.51833957
480,7606.81882037,0.045076753,26940,6923.88770248
490,7493.65988981,0.045993213,27493,6979.30490915
500,7573.60980127,0.046905824,28042,7345.0440002
510,7616.53413549,0.047824422,28594,6871.72825068
520,7608.24559995,0.048705814,29143,7163.95541684
530,7627.51203747,0.049620991,29686,7147.61416927
540,7584.4454329,0.0505733739999,30235,6995.97201492
550,7561.2261106,0.051487696,30784,7118.42681219
560,7734.9966437,0.0524234009999,31339,7149.22862984
570,7710.42772113,0.0533304529998,31886,6827.54006813
580,7768.87018517,0.0542298069998,32427,6952.01997157
590,7779.64673494,0.0551389969999,32973,6878.09417173
600,7726.15919386,0.0560460489999,33528,6759.19363338
610,7779.95215765,0.0569479679999,34076,6846.6087849
620,7737.69987011,0.0579097599999,34634,7073.27275857
630,7634.1799511,0.0587834549999,35184,6809.50281591
640,7694.14013272,0.059685375,35741,6683.17762804
650,7680.70911984,0.060601408,36289,6455.1562205
660,7758.02874842,0.0615289870001,36841,7032.42703756
670,7721.82818506,0.062620785,37398,7072.03651485
680,7733.94192806,0.063573596,37948,6981.58616947
690,7724.14529469,0.0644750879999,38507,6928.10082486
700,7527.23509553,0.0653791459998,39060,6669.15962957
710,7626.26739215,0.0662596829999,39614,7062.46028872
720,7657.11941758,0.0671581819998,40163,6676.6240295
730,7659.17697675,0.0680425679998,40711,6734.59651824
740,7649.35025449,0.0689188289997,41257,6712.79887863
750,7669.99782781,0.0697946619997,41803,7043.87259819
760,7694.45931009,0.0707034239998,42352,6525.49399927
770,7835.87631278,0.0715796839999,42898,6761.17304566
780,7928.2763599,0.0728972819999,43453,7122.97203882
790,7686.82604893,0.0737773919999,44003,6959.52610473
800,7769.31844454,0.0746925689999,44551,6962.82413875
810,7840.12141182,0.0755996209999,45097,7034.11486407
820,7690.30625077,0.076466046,45643,7094.68031828
830,7717.14805778,0.0773551369999,46191,6939.31128962
840,7683.82178173,0.0782634709999,46737,7097.10607525
850,7775.13040805,0.0791572659999,47290,6911.93123391
860,7818.24922564,0.0800677389999,47841,6862.26746219
870,7754.49419143,0.0809743629999,48400,6628.63863902
880,7792.78127414,0.0819169099999,48943,6678.5768064
890,7858.03524089,0.0828094219999,49489,6894.21085043
900,7896.98415517,0.0836972299999,50036,6794.88034405
910,8006.18584249,0.0846008599999,50588,6863.40648273
920,7935.51564798,0.0855237349998,51133,6926.23917158
930,8062.99780701,0.0864470379998,51684,7188.8689378
940,7907.00590287,0.0873741899998,52227,7195.03176203
950,7931.8742475,0.0883081839997,52776,7063.3570564
960,7904.82053529,0.0892323409997,53324,6937.31102591
970,7906.50411695,0.0901573539998,53864,7189.98784068
980,7928.86504627,0.0910896379997,54408,7047.29891697
990,7894.16366702,0.0920018209997,54957,7208.23837622
1000,7853.07370068,0.0929067349997,55507,7367.31019255
1010,7931.67249561,0.0938056609997,56056,7226.40724513
1020,7994.98733984,0.0946802109997,56606,7364.62392415
1030,7964.71548468,0.0955842689998,57151,7454.83128457
1040,7874.30861275,0.0964896099998,57691,7199.86841667
1050,7908.18786697,0.0973825489998,58246,7175.64819519
1060,7984.46386521,0.0982733499998,58801,7146.79732887
1070,8030.63195055,0.0991945149998,59347,7100.83971392
1080,8062.05190731,0.100114396,59896,7303.73626236
1090,7835.39691584,0.101024013,60438,7122.13439253
1100,7823.68719454,0.10193192,60989,7252.51221591
1110,7827.00628009,0.102873611,61538,7067.45829149
1120,7880.19772084,0.10376655,62090,7197.0734612
1130,7854.98679059,0.104683438,62637,7498.59645048
1140,7934.1971747,0.105608023,63185,7189.88495054
1150,7998.9277283,0.106515503,63728,7219.86425508
1160,7859.13321641,0.107444792,64283,7355.89908866
1170,8038.69342236,0.108342008,64835,6817.66230882
1180,7971.29109403,0.109251626,65382,7145.8781822
1190,7770.12164043,0.110194173,65920,7022.19639736
1200,7815.3201772,0.111086257,66471,7145.21288694
1210,7819.25547214,0.111991598,67020,7065.08509132
1220,7888.12231174,0.112882399,67569,7278.48651407
1230,7873.5492442,0.113794155,68114,7127.85182036
1240,7867.33787959,0.114706338,68664,7334.02681892
1250,7856.38485579,0.115613817,69212,7239.26844984
1260,8006.23527252,0.116514882,69762,7182.85300833
1270,7979.3059874,0.117383445,70313,7245.98276592
1280,7874.44896066,0.118316584,70867,7318.78991847
1290,7913.00410901,0.119216366,71413,7218.32750376
1300,7861.56088505,0.120128978,71967,7226.4746126
1310,7900.72402179,0.121026194,72525,7022.76580147
1320,7791.6781858,0.121944793,73077,6852.40010744
1330,7682.36685921,0.122868951,73628,6553.97640052
1340,7554.931045,0.123798668,74174,6945.5534612
1350,7607.99538238,0.124724964,74726,7281.51637184
1360,7600.89830323,0.125669222,75277,7045.04723575
1370,7587.6591719,0.126589958,75835,7244.641771
1380,7612.82599632,0.127522241,76381,6998.04552314
1390,7660.01900722,0.128412187,76924,7177.30970967
1400,7648.1854084,0.129341905,77478,6964.1717939
1410,7877.04028789,0.130270767,78026,6746.08064997
1420,7665.41377682,0.13118851,78579,6490.60879097
1430,7597.62488403,0.132106681,79133,7049.29094914
1440,7707.84033347,0.133021858,79675,6954.44117521
1450,7569.50829231,0.133929765,80219,6857.56537584
1460,7655.73159002,0.134850074,80769,7338.96971976
1470,7765.43887084,0.135766106,81315,7164.61572867
1480,7626.38893651,0.136667171,81860,7065.21591924
1490,7727.87261356,0.137586197,82406,7050.49941166
1500,7736.09292936,0.138504368,82952,7031.42309812
1510,7811.31779986,0.139478562,83508,7307.92594043
1520,7969.60876529,0.140373639,84054,6901.19428227
1530,7942.65458728,0.141280263,84603,7152.69539346
1540,8002.75989174,0.142193302,85147,6990.89578909
1550,7866.75903419,0.143120026,85691,7105.31960226
1560,8114.66514843,0.14403948,86242,7595.82273807
1570,8071.03961569,0.144930709,86792,7233.82299881
1580,8069.72621781,0.145843748,87346,7352.1479283
1590,7984.39117702,0.146748234,87890,6863.5108554
1600,8078.04488192,0.147686505,88431,7173.28662434
1610,8088.25115467,0.148596978,88971,7041.68320362
1620,8123.90464236,0.149521563,89521,7341.1333448
1630,7932.98628319,0.150418779,90064,6732.68087009
1640,7874.45527517,0.151355767,90612,6794.63451742
1650,7956.18327023,0.152284201,91159,7264.74443249
1660,7992.15018965,0.153201516,91706,6789.4879326
1670,7904.72004328,0.154158604,92259,6990.49899177
1680,8035.92704824,0.1550648,92818,7015.70368135
1690,8054.25944622,0.155985537,93375,7226.41616714
1700,7995.18893271,0.15690328,93916,6844.6962094
1710,8115.45349273,0.157797502,94469,7033.75740699
1720,8081.23863003,0.158702843,95019,7025.6403044
1730,8110.30214237,0.159624435,95572,7263.14392177
1740,7985.34670075,0.160536618,96117,7077.94871268
1750,8114.33210647,0.161462914,96664,6823.5111311
1760,8001.63231796,0.162364834,97208,7336.51083572
1770,7940.75161014,0.163291985,97758,7021.94613086
1780,7949.26045039,0.164222985,98311,6930.64781855
1790,7992.99054,0.165123195,98855,7364.83075654
1800,7806.30497531,0.166049063,99405,6777.65031554
1810,7809.58734172,0.166988617,99953,7124.93814573
1820,7912.11027186,0.167885405,100500,7057.87697819
1830,7808.6484002,0.168963945,101042,7133.64746275
1840,7837.12139039,0.169869714,101578,7125.325663
1850,7801.29701595,0.170742981,102125,7120.38212687
1860,7747.74955332,0.171671843,102671,7181.70546024
1870,7855.5321239,0.172617812,103222,7214.00097438
1880,7792.93794044,0.17353641,103761,6904.49862375
1890,7861.49986976,0.174457147,104304,6882.63203291
1900,7803.42559489,0.175359922,104852,7155.44708963
1910,7832.30994794,0.176275954,105399,6906.52045001
1920,7928.85753774,0.177207382,105946,7115.94881669
1930,7811.65282798,0.178142659,106501,6417.35754731
1940,7736.55938699,0.179041586,107056,7010.92640217
1950,7887.96068659,0.179956763,107607,7032.70825263
1960,7779.45594147,0.180850985,108156,7087.38200774
1970,7804.86004236,0.181767017,108706,7051.7464145
1980,7824.3913628,0.182677917,109255,6905.77059577
1990,7912.40065092,0.183616188,109811,6798.72457092
2000,7821.53489066,0.184525806,110352,6935.90127554
2010,7654.3628478,0.185434996,110898,6855.88964302
2020,7783.11363657,0.186373266,111439,6955.58466812
2030,7625.87753622,0.187300417,111993,7115.70975801
2040,7714.89399238,0.188201909,112538,6834.25787195
2050,7735.66715477,0.189133765,113078,6949.11758953
2060,7743.93832261,0.190047659,113626,6685.04153869
2070,7763.52001241,0.190958987,114175,7269.07490674
2080,7905.58616478,0.191850216,114716,6712.8624204
2090,7943.80576602,0.192717923,115266,6954.81325509
2100,7794.88184172,0.193608296,115820,6919.69921075
2110,7921.07951517,0.194526467,116370,6961.84015871
2120,7818.63835285,0.195398451,116920,6855.06701011
2130,7740.33694752,0.196281126,117467,6958.75831428
2140,7859.74248359,0.197190743,118008,7056.90015233
2150,7726.60047695,0.198154672,118557,6835.20362955
2160,7744.91138226,0.199066856,119103,7139.25618001
2170,7769.66703132,0.199952098,119647,7122.94543833
2180,7702.4472531,0.200862571,120198,6714.28031104
2190,7686.75555331,0.201753372,120745,7174.86098292
2200,7660.9939956,0.202635193,121294,6752.22266194
2210,7651.74806955,0.20352856,121840,6861.19431915
2220,7720.08218278,0.204426631,122389,6876.13410574
2230,7710.81444533,0.205325558,122940,7061.80212253
2240,7776.8561675,0.206242873,123485,7069.50127971
2250,7654.19101453,0.207170024,124038,6880.98805202
2260,7688.9548298,0.208073654,124580,7162.64908323
2270,7619.49844699,0.208986265,125124,7094.6600518
2280,7739.18692,0.20985269,125667,7067.3166903
2290,7687.32327116,0.210750333,126214,7003.04487167
2300,7677.47105032,0.211893877,126765,6810.80562864
2310,7686.20725974,0.212834714,127320,6915.43253259
2320,7747.85049371,0.213762293,127868,7164.81795395
2330,7719.20182236,0.214672338,128421,7229.92185026
2340,7734.7845639,0.215611036,128973,6962.95601197
2350,7804.29592565,0.216534766,129521,6676.51007101
2360,7685.35548788,0.217437114,130065,7317.02603588
2370,7784.40372624,0.21835785,130613,7125.70711522
2380,7732.95809577,0.219286712,131168,6942.40175505
2390,7789.13810153,0.220201034,131709,6968.68896962
2400,7772.01245264,0.221161543,132253,7096.43450827
2410,7696.06243018,0.222145999,132801,7198.97767892
2420,7905.83989885,0.22302226,133354,6746.39703309
2430,7881.53425135,0.223933161,133904,7121.20598734
2440,7959.61168306,0.224913769,134451,6965.5314779
2450,7912.00861112,0.225821248,134996,7109.820494
2460,8064.32217109,0.226720174,135546,6745.17016046
2470,7989.31863251,0.227646897,136107,7138.37601651
2480,7893.69215556,0.228613392001,136657,7184.69663248
2490,8002.74511654,0.229521726,137207,6972.55412779
2500,7935.32798462,0.238200086,137756,7398.41260024
2510,7989.20783234,0.239139211,138311,7257.54039382
2520,7887.20511236,0.240058665,138871,7160.29001937
2530,7873.56191368,0.240960157,139421,6948.47052514
2540,7730.84169432,0.241860366,139968,6766.13615704
2550,7798.33813128,0.24275972,140525,6881.54204925
2560,7835.49501668,0.24368901,141075,7012.34058705
2570,7759.9645953,0.244597344,141628,7302.70255782
2580,7734.53134829,0.245498837,142178,7150.52893527
2590,7816.47780185,0.246421712,142723,6879.20551178
2600,7841.13084795,0.247317645,143274,6911.04309602
2610,7823.06844484,0.248224697,143822,7056.84429059
2620,7845.6925386,0.249151849,144380,6986.4185822
2630,7902.69945542,0.250112785,144929,7088.76711313
2640,7864.09809541,0.251032667,145483,6865.66756112
2650,7825.76911191,0.251943996,146035,6832.29787681
2660,7843.45865137,0.252833086,146592,6918.97408755
2670,7805.12090952,0.253726881,147143,6855.59669367
2680,7857.76610414,0.254689956,147689,6986.0514578
2690,7927.0673136,0.2555675,148235,6940.71338557
2700,7934.9080894,0.256486954,148785,7284.69028841
2710,7991.52445453,0.257365353,149331,6773.91230222
2720,7949.37957815,0.258306617,149883,7185.66912172
2730,7937.64500229,0.259203405,150435,7265.9193851
2740,7891.03444217,0.260126708,150994,7010.96942497
2750,7795.49696348,0.261027773,151551,7296.15361864
2760,7756.30901962,0.261931831,152104,7109.12917973
2770,7605.43590913,0.262829047,152657,7149.1266531
2780,7667.4733513,0.263694617,153196,7104.05318674
2790,7769.88640778,0.264595254,153742,7011.14088629
2800,7755.93600141,0.265464245,154287,6869.08818921
2810,7706.31204758,0.266443998,154835,7373.58495192
2820,7865.02184167,0.267362169,155390,7067.72753046
2830,7835.77696089,0.268271359,155938,7160.75842854
2840,7722.53024797,0.269185681,156479,7085.24502122
2850,7736.6131293,0.270104707,157033,6953.20523641
2860,7808.63221337,0.270982678,157581,7178.84092056
2870,7749.43065169,0.271882032,158133,7306.9455441
2880,7855.83814743,0.272802768,158677,7343.58543877
2890,7792.22078077,0.273730775,159226,6985.26237629
2900,7732.84915412,0.274634834,159763,6909.41344722
2910,7839.49373601,0.275552577,160316,7372.02360895
2920,7800.01617409,0.276458345,160868,7236.28929384
2930,7825.19909463,0.27740132,161419,7058.40180847
2940,7796.09127312,0.278361401,161972,6896.35153255
2950,7931.51948162,0.279282566,162522,7235.47286332
2960,7925.77816517,0.28021827,163079,6844.26785454
2970,7737.81443258,0.281151409,163636,6910.62455737
2980,7820.68264954,0.282073001,164191,7101.92042097
2990,7667.38870219,0.282992455,164744,6773.14219156
3000,7635.45738194,0.283914475,165292,6991.11191118
3010,7683.91864404,0.284842909,165836,6886.89766186
3020,7656.61868889,0.285769205,166380,7184.26150068
3030,7741.31910373,0.286687376,166930,6938.85612876
3040,7738.99854291,0.287613245,167480,7335.35331207
3050,7887.43024088,0.288519441,168025,7047.77191231
3060,7793.13728393,0.289413663,168580,7254.66603377
3070,7830.25442723,0.290307458,169131,7082.79446343
3080,7862.67476934,0.291195693,169684,7105.5870932
3090,7814.11473715,0.292116002,170230,6971.00072222
3100,7838.29751627,0.293028186,170781,7152.63030891
3110,7692.35379499,0.293951917,171327,7173.18346684
3120,7704.48293349,0.294866238,171877,7162.74153918
3130,7698.53443068,0.295809213,172425,7295.30501539
3140,7800.04975127,0.29671883,172977,7068.26181
3150,7694.28690484,0.297635291,173524,6886.9365969
3160,7704.20802278,0.298551751,174074,7072.56238334
3170,7722.1442699,0.299464362,174608,7086.9532434
3180,7753.32981359,0.300367992,175159,7308.55037683
3190,7992.26858567,0.301278893,175707,7052.17554022
3200,7862.29822232,0.302189794,176255,7080.591483
3210,7865.17108796,0.303101977,176800,7140.38403547
3220,7686.36473831,0.304007746,177356,7228.51995685
3230,7742.02000007,0.30492164,177899,7018.38549187
3240,7781.8561831,0.305836389,178445,6980.9915282
3250,7731.46054923,0.306751566,178993,6980.2739084
3260,7819.74968604,0.307648782,179542,7031.10428376
3270,7810.9495886,0.308571657,180091,6760.77172587
3280,7829.81627836,0.309470584,180635,6809.75444294
3290,8023.05402005,0.310389183,181178,6992.24539107
3300,7952.35281026,0.311312058,181731,6913.45867223
3310,7930.33687209,0.312231084,182281,7093.37342032
3320,7883.5414971,0.31314284,182823,7010.46709335
3330,7929.15338325,0.314056734,183369,7084.0159101
3340,7873.16051738,0.31498303,183921,7115.64382642
3350,7903.71639229,0.315896497,184461,6851.8223788
3360,7941.77026524,0.317143959999,185007,6776.15302386
3370,7890.72184334,0.318032195,185555,7013.10921279
3380,7856.49586959,0.318929411,186097,6996.68841992
3390,7920.16361053,0.319831758999,186646,6874.01612578
3400,7951.69204237,0.320801247999,187190,7116.3631281
3410,7805.61329637,0.321710009999,187728,7058.26188631
3420,7861.3041963,0.322611929999,188288,6798.72186934
3430,7943.11810232,0.323518980999,188828,6752.80270061
3440,7816.96061772,0.324393958999,189370,6992.34709823
3450,7854.36896381,0.325261238999,189919,6831.1613614
3460,7950.48691135,0.326130229999,190474,7041.52070481
3470,7985.4011786,0.326998792999,191027,7057.71859417
3480,8012.35561677,0.327894724999,191579,7000.29931909
3490,7931.71143809,0.328779966999,192123,7118.94119156
3500,7920.11021568,0.329698992999,192670,7170.53596976
3510,7949.89431655,0.330601340999,193210,7055.0747435
3520,7893.78212252,0.331525498999,193764,7000.89360823
3530,7920.57142367,0.332447517999,194310,7156.9799978
3540,7941.82928269,0.333371675999,194858,6954.89960513
3550,7866.58910593,0.334264186999,195405,6835.82232984
3560,7799.15017052,0.335182356999,195959,6979.32781306
3570,7851.87439632,0.336094539999,196500,6873.02314733
3580,7784.22213308,0.337011855999,197048,6905.29203948
3590,7708.98347619,0.337919762999,197594,6669.41399692
3600,7720.8977666,0.338831518999,198142,7119.93781333
3610,7705.15004532,0.339742419999,198696,6974.67540005
3620,7715.90243891,0.340676412999,199240,6825.85831827
3630,7733.0065452,0.341614256,199789,7170.07422082
3640,7709.73225119,0.342522162999,200329,6737.87163678
3650,7619.42101041,0.343436911999,200871,6657.61683846
3660,7586.34213508,0.344350806999,201420,6986.53744484
3670,7544.95952452,0.345373324999,201972,6947.6752509
3680,7613.96610172,0.346307746999,202524,6748.90227405
3690,7605.51660148,0.347172888999,203073,6633.81092201
3700,7678.49755482,0.348049578,203621,6705.79510346
3710,7595.30536114,0.349013935,204171,6907.0294412
3720,7521.75118351,0.349916282,204720,6961.6851094
3730,7626.3260073,0.350843006,205275,6940.82128535
3740,7688.68154552,0.351765453,205822,6712.51226973
3750,7552.52787282,0.352691321999,206374,6715.41358686
3760,7599.64069214,0.353601366999,206925,6415.24219057
3770,7533.66968171,0.354522530999,207474,6492.5155858
3780,7562.01293075,0.355456952999,208027,6410.62106839
3790,7597.2857167,0.356402920999,208578,6556.85930015
3800,7631.21601467,0.357279181999,209128,6837.44335795
3810,7588.67342955,0.358199062999,209675,6473.44117303
3820,7588.36213576,0.359111674999,210224,6349.63707199
3830,7630.50734691,0.360014449999,210763,6629.87700575
3840,7691.89689498,0.360902257999,211307,6796.36764539
3850,7675.51981204,0.361789209999,211862,6896.78371141
3860,7536.79215434,0.362704386999,212408,6787.57486286
3870,7539.90099826,0.363628116999,212958,6474.35050547
3880,7483.70427662,0.364547142999,213517,6554.39575427
3890,7515.10651383,0.365463603,214071,6607.95772818
3900,7571.64110012,0.366394176,214620,6944.07650499
3910,7530.57319568,0.367296951999,215166,6406.74126203
3920,7577.90645373,0.368201865999,215718,6521.36903909
3930,7609.69720442,0.369119180999,216259,6703.5672023
3940,7603.19931577,0.370033074999,216804,6649.91682101
3950,7517.87529111,0.370943120999,217358,6747.5237011
3960,7643.90723639,0.371856159999,217913,6680.96823905
3970,7646.74016508,0.372760644999,218461,6589.93356106
3980,7874.01073327,0.373717304999,219004,7156.6259839
3990,7630.03564239,0.374626922999,219555,6715.59308757
4000,7743.77224874,0.375572462999,220103,7033.42966605
4010,7687.49300562,0.376539813999,220655,6899.58704432
4020,7747.35237208,0.377415646999,221205,6679.76006956
4030,7679.84619345,0.378296611999,221761,7215.76844108
4040,7828.93337737,0.379206229999,222316,6792.81599536
4050,7694.72028888,0.380096174999,222857,6804.88287265
4060,7660.59319663,0.381020759999,223409,6171.94075866
4070,7792.82602531,0.381942351999,223957,7050.15625366
4080,7702.80092,0.382857956999,224497,6644.93391877
4090,7740.45688249,0.383759876999,225047,6801.68282391
4100,7805.12256037,0.384672915999,225589,7025.14904773
4110,7719.36380929,0.385595362999,226131,6611.68349373
4120,7766.7082733,0.386530639999,226687,6724.06443272
4130,7892.53321086,0.387468054999,227237,7037.81683261
4140,7743.3092851,0.388385798999,227784,6564.64505955
4150,7591.04165888,0.389295843999,228342,7145.53179556
4160,7621.48083814,0.390219145999,228884,6531.76243259
4170,7635.14422453,0.391146296999,229437,6918.50905326
4180,7783.5441507,0.392064894999,229980,6983.98377465
4190,7775.60487197,0.393000171999,230521,7044.32734472
4200,7775.31876143,0.393928606999,231070,6940.85886988
4210,7822.69748732,0.394839079999,231613,6922.19195902
4220,7797.5163149,0.395741426999,232159,6992.23221637
4230,7849.85862472,0.396652327999,232709,7017.28339268
4240,7876.76257699,0.397561089999,233257,7280.53380928
4250,7825.14761247,0.398486530999,233810,6815.55946132
4260,7859.93629064,0.399407267999,234363,7009.8016816
4270,7870.04667603,0.400282245999,234915,6690.64468342
4280,7875.9719106,0.401180316999,235461,6830.50586027
4290,7791.37594266,0.402076677999,236009,6829.94194509
4300,7715.48757177,0.403012809999,236551,6807.66694627
4310,7765.75648625,0.403929697999,237103,6904.57945577
4320,7784.6087091,0.404836749999,237651,6847.67331458
4330,7770.18442232,0.405747222999,238202,6969.42341457
4340,7679.31315221,0.406642727999,238750,7095.44274792
4350,7669.69193057,0.407553200999,239306,6699.2743259
4360,7765.51958603,0.408450416999,239853,6217.41791884
4370,7683.9077423,0.409324966999,240402,6655.93063009
4380,7655.01368993,0.410202082999,240950,6861.68249299
4390,7678.92336962,0.411111272999,241494,6822.25506255
4400,7691.70014495,0.412011909999,242045,6722.99267137
4410,7701.55027321,0.412907414999,242593,6161.15247953
4420,7636.22589183,0.413802919999,243136,6793.00672284
4430,7672.0289553,0.414712965999,243687,6375.26027604
4440,7647.60931673,0.415646959999,244240,6412.72294197
4450,7681.69813837,0.416533913,244797,6617.6898441
4460,7532.53632603,0.417465341,245350,6318.18156229
4470,7527.33639161,0.418386506,245902,6537.0979063
4480,7534.3682857,0.419312802,246451,6461.13765423
4490,7543.63782115,0.420236532,247001,6506.58082018
4500,7565.08503702,0.421145295,247548,6640.26443984
4510,7549.21589242,0.422040373,248105,6676.08399844
4520,7579.64372111,0.423003019999,248656,6438.41963842
4530,7460.43821631,0.423950271,249208,6625.51423462
4540,7544.90445319,0.424817124,249754,6510.75871576
4550,7467.55816309,0.425735295,250307,6390.5139739
4560,7495.13912383,0.426655176,250857,6297.67506484
4570,7557.87853645,0.427572492,251404,6491.27420244
4580,7397.60033281,0.428495367,251952,6615.51371372
4590,7530.8374196,0.429410971,252502,6560.24677428
4600,7506.81159164,0.430350952,253055,6416.3051022
4610,7552.01920833,0.431246456999,253598,6635.21673166
4620,7633.67762193,0.432168048999,254146,6470.79215942
4630,7701.76589832,0.433068257999,254689,6791.91542248
4640,7742.51126807,0.434039029999,255234,6453.96864774
4650,7762.40803912,0.434937100999,255781,6915.28874298
4660,7779.89434337,0.435867673999,256326,6667.97437986
4670,7845.40545036,0.436778574999,256874,7133.04733085
4680,7826.96335844,0.437725825999,257425,6993.37902844
4690,7853.22115162,0.438650838999,257977,7204.68998084
4700,7964.72774051,0.439570719999,258525,7218.02796703
4710,7924.01670322,0.440495732999,259067,7190.98327535
4720,7997.18635844,0.441415185999,259616,6705.00826753
4730,8016.77742368,0.442347041999,260174,7189.51086485
4740,7984.96584441,0.443249816999,260728,7241.42700432
4750,7979.02129939,0.444160717999,261265,7267.10716926
4760,8054.57594335,0.445116949999,261805,7545.37171065
4770,7924.02825162,0.446035547999,262357,7342.66890611
4780,8129.64577973,0.446970396999,262890,7550.83363499
4790,8149.97171271,0.447891561999,263438,7417.46429917
4800,8119.69205473,0.448812298999,263987,7449.74349524
4810,8059.63805408,0.449728758999,264535,7311.55428938
4820,8122.03211564,0.450648640999,265083,7706.46483128
4830,7967.17206876,0.451587766999,265628,7375.85141104
4840,8077.19473344,0.452502515999,266176,7312.65509891
4850,8002.69319318,0.453428812999,266722,7462.52427213
4860,8034.45511649,0.454341424999,267271,7395.27795063
4870,8081.1435104,0.455253608999,267816,7162.98053421
4880,8002.57833329,0.456165791999,268365,7228.32396321
4890,8139.35796503,0.457046756999,268912,7304.31474015
4900,7982.54339682,0.457961505999,269463,7443.67993494
4910,7939.69757725,0.458872833999,270004,7331.30341184
4920,7882.22430167,0.459836335999,270551,7284.96353847
4930,7877.2888312,0.460763486999,271099,6920.54247709
4940,7837.09494888,0.461687644999,271651,7427.7571112
4950,7948.73814644,0.462572885999,272202,7159.09409749
4960,7773.19044525,0.463483786999,272754,7094.30670339
4970,7934.94292607,0.464396825999,273297,7255.92425067
4980,7928.94814335,0.465313285999,273849,7139.15970027
4990,8031.70478007,0.466198526999,274398,7152.45507202
