it,funval,time,funcount,weight
0,4120.58361618,0.0245340180001,999,3497.58310367
10,4278.27060961,0.0473847950001,2100,3741.88272711
20,4446.90512495,0.0686370050001,3201,3493.45025861
30,4500.90432088,0.0885010540001,4302,3899.8236588
40,4467.34373717,0.109184486,5403,3744.26577033
50,4460.54307831,0.126601933,6504,3894.95590612
60,4438.13506897,0.144451737,7605,4007.71979379
70,4460.12731726,0.162407171,8706,4077.08127375
80,4469.77201538,0.180257831,9807,3865.80337228
90,4461.77342757,0.197755677,10908,3894.95590612
100,4459.81939232,0.215292012,12009,4070.97970919
110,4470.22029131,0.23234125,13110,3103.28809121
120,4456.36367565,0.249224558,14211,3894.95590612
130,4484.08744782,0.268752899,15312,3946.64698923
140,4466.57474873,0.286238342,16413,3894.95590612
150,4446.00721312,0.304288288,17514,3799.26035085
160,4476.82321774,0.322139803,18615,3674.90406101
170,4474.856382,0.339798873,19716,3894.95590612
180,4457.76162873,0.356911831,20817,3850.03310113
190,4467.34373717,0.374134696,21918,3147.68869529
200,4461.47056956,0.392094835,23019,3894.95590612
210,4471.62878524,0.409456259,24120,3857.28337217
220,4436.17711048,0.427069144,25221,3770.25249558
230,4454.70851564,0.446875887,26322,3712.71852291
240,4458.17816234,0.464582,27423,3894.95590612
250,4470.6213963,0.482019119,28524,3605.13692449
260,4460.54307831,0.499235569,29625,3946.54815097
270,4500.90432088,0.516332704,30726,3812.15723702
280,4423.46885783,0.534261624,31827,3894.95590612
290,4454.70851564,0.55154992,32928,3894.95590612
300,4458.2913056,0.568230949,34029,3845.05260802
310,4469.29105007,0.58573136,35130,3894.95590612
320,4510.10249419,0.602763919,36231,3982.58502906
330,4471.62878524,0.62196254,37332,3421.78318491
340,4471.62878524,0.639902579,38433,3934.89046391
350,4471.62878524,0.657012543,39534,3762.27627445
360,4495.99479056,0.674187938,40635,3819.61083823
370,4445.65608407,0.691391986,41736,3894.95590612
380,4470.6213963,0.708690117,42837,4010.26561918
390,4476.11255035,0.726445409,43938,2922.08301911
400,4481.60607874,0.744946529,45039,3894.95590612
410,4500.90432088,0.763031115,46140,3654.6071463
420,4500.90432088,0.780421619,47241,3822.70608717
430,4506.77748849,0.79910278,48342,3949.51070704
440,4511.06253656,0.816854224,49443,4036.18906816
450,4472.45461386,0.83383076,50544,3780.80134573
460,4511.06253656,0.851270017,51645,3957.22059595
470,4493.48184032,0.868038287,52746,3905.50475627
480,4510.05514762,0.884966071,53847,3817.12263761
490,4497.19538005,0.902572968,54948,3810.64153742
500,4489.10818724,0.919569177,56049,3905.50475627
510,4510.35828959,0.937339865,57150,3793.14871151
520,4530.33464901,0.954661945,58251,3844.79311644
530,4509.22194049,0.973393569,59352,3810.64153742
540,4535.61848173,0.990788351,60453,3872.23795336
550,4511.06253656,1.007843149,61554,3875.57585218
560,4523.6977581,1.0256643,62655,3984.59682331
570,4500.90432088,1.04316685,63756,3905.50475627
580,4500.90432088,1.061542239,64857,3794.86570671
590,4488.42624448,1.079484416,65958,3776.55108706
600,4511.06253656,1.097472779,67059,3905.50475627
610,4485.08983539,1.11511731,68160,3870.29485102
620,4521.54916747,1.13306077,69261,3970.82942524
630,4484.93726997,1.152260247,70362,3726.08400011
640,4472.45461386,1.169704208,71463,3905.50475627
650,4517.57949247,1.187389793,72564,3905.50475627
660,4506.90884767,1.205394835,73665,3905.50475627
670,4489.6489065,1.222846494,74766,3994.38196781
680,4497.19538005,1.240225024,75867,3870.65925817
690,4506.77748849,1.257356371,76968,3886.15530997
700,4500.90432088,1.274580946,78069,3761.92777699
710,4521.67489805,1.292214358,79170,3719.8291586
720,4497.19538005,1.310189464,80271,3830.15968837
730,4517.81257073,1.327331503,81372,3944.45954158
740,4497.72505692,1.346340247,82473,3484.94426287
750,4535.67671974,1.363794045,83574,3684.13290753
760,4510.05514762,1.381484762,84675,3855.60145817
770,4511.06253656,1.398616964,85776,3773.37783211
780,4506.77748849,1.415862922,86877,3805.26057251
790,4503.06394876,1.433455707,87978,3948.63479844
800,4497.72505692,1.45113274,89079,3625.47485791
810,4535.34033878,1.468935502,90180,3787.70305835
820,4498.42731503,1.487230493,91281,3788.43065383
830,4485.44096444,1.504768965,92382,3898.36295449
840,4491.44578582,1.523963737,93483,3893.4243142
850,4496.22707342,1.541078834,94584,3808.62317215
860,4500.90432088,1.558614313,95685,3905.50475627
870,4519.23615107,1.575745232,96786,3905.50475627
880,4488.44778706,1.591901958,97887,3865.6259921
890,4511.06253656,1.608560321,98988,3895.78724499
900,4506.77748849,1.625806279,100089,3948.43953786
910,4506.77748849,1.643147604,101190,3899.33284503
920,4531.51825468,1.660663411,102291,3490.73227788
930,4472.56775712,1.678586771,103392,3897.67262935
940,4489.08912753,1.696249263,104493,3957.09700112
950,4482.2180534,1.713736845,105594,3824.44946696
960,4504.23047441,1.732178093,106695,3905.50475627
970,4510.05514762,1.750278501,107796,3905.50475627
980,4472.2780549,1.767762662,108897,3914.63471365
990,4506.77748849,1.785406765,109998,3905.50475627
1000,4511.06253656,1.802731411,111099,3784.08147662
1010,4506.77748849,1.821821408,112200,3880.11627736
1020,4473.20520476,1.839518112,113301,3846.39000495
1030,4497.72505692,1.857312321,114402,3953.49243868
1040,4510.05514762,1.874756282,115503,3160.3464711
1050,4538.37338122,1.894108858,116604,3807.98482921
1060,4484.73671747,1.911667002,117705,3905.50475627
1070,4511.06253656,1.929590362,118806,3982.89312354
1080,4519.52799744,1.946644304,119907,3905.50475627
1090,4533.54911336,1.963785488,121008,3932.75750426
1100,4483.10322927,1.981270504,122109,3809.4985256
1110,4499.97682963,1.998350533,123210,3905.50475627
1120,4511.06253656,2.016063488,124311,3900.09445444
1130,4533.54911336,2.033750784,125412,3954.59185137
1140,4510.05514762,2.051538151,126513,3858.86613131
1150,4511.06253656,2.069169424,127614,3486.18885534
1160,4506.77748849,2.088199122,128715,3961.2279732
1170,4511.06253656,2.105072166,129816,3582.80263149
1180,4519.29956676,2.122434446,130917,3905.50475627
1190,4497.19538005,2.139573063,132018,3948.8020496
1200,4485.44096444,2.156952021,133119,3905.50475627
1210,4511.06253656,2.174475953,134220,3905.50475627
1220,4501.37855134,2.192008866,135321,3875.57585218
1230,4511.06253656,2.209265944,136422,3721.77076054
1240,4506.53287181,2.226431931,137523,3905.50475627
1250,4509.82451387,2.244224002,138624,3905.50475627
1260,4500.90432088,2.261650002,139725,3667.56041867
1270,4506.77748849,2.280986327,140826,3905.50475627
1280,4511.91191749,2.298961433,141927,3947.56202262
1290,4483.58419458,2.316349372,143028,3842.18012221
1300,4486.38942537,2.33362441,144129,3905.50475627
1310,4486.59101719,2.351809494,145230,3926.40402348
1320,4500.90432088,2.369886382,146331,3886.61277107
1330,4514.18730412,2.387289716,147432,3745.39962758
1340,4547.11726344,2.404883355,148533,3897.80025137
1350,4517.2641194,2.422318336,149634,3981.07708004
1360,4532.52768484,2.440443121,150735,3959.72815636
1370,4547.86241705,2.458029491,151836,3908.97383493
1380,4547.86241705,2.47734871,152937,4005.01022498
1390,4547.86241705,2.494772572,154038,3934.40300171
1400,4533.54911336,2.512214395,155139,3924.53929451
1410,4519.29956676,2.529870472,156240,3636.61032288
1420,4555.09056829,2.547466677,157341,3898.48172402
1430,4547.86241705,2.564148133,158442,3572.93084317
1440,4531.69481364,2.581375702,159543,3972.55041285
1450,4544.41744441,2.598666563,160644,3947.99853575
1460,4533.54911336,2.616630978,161745,3953.70704381
1470,4516.25696906,2.634196393,162846,3604.26015711
1480,4540.55157832,2.653315898,163947,3553.57442673
1490,4521.09292093,2.6707141,165048,3778.61303291
1500,4528.71510304,2.688009238,166149,3947.99853575
1510,4529.89943922,2.705393328,167250,3947.99853575
1520,4532.39906061,2.721952475,168351,3989.79707017
1530,4519.17273537,2.73982024,169452,3947.99853575
1540,4528.17453762,2.757668334,170553,3947.99853575
1550,4531.69481364,2.775795685,171654,3887.28689592
1560,4542.56237275,2.793037366,172755,3928.56351319
1570,4533.54911336,2.810595083,173856,3947.99853575
1580,4532.39906061,2.829997695,174957,3947.99853575
1590,4547.86241705,2.847439518,176058,3947.99853575
1600,4533.54911336,2.864708569,177159,3947.99853575
1610,4516.25696906,2.882189309,178260,3757.42164176
1620,4547.86241705,2.899024292,179361,3947.99853575
1630,4519.41271002,2.915899903,180462,3967.65892442
1640,4510.91465619,2.933133031,181563,3947.99853575
1650,4526.90017562,2.950517549,182664,3911.63317634
1660,4526.04960093,2.967752388,183765,3822.15643503
1670,4533.54911336,2.986902257,184866,3512.90683882
1680,4538.22636083,3.004625904,185967,3807.15891474
1690,4532.39906061,3.021814557,187068,3824.61268655
1700,4524.21287377,3.039012618,188169,3977.20824339
1710,4547.86241705,3.056637049,189270,3792.77366227
1720,4547.86241705,3.07344338,190371,3947.99853575
1730,4516.41354471,3.091229036,191472,3853.1353169
1740,4533.54911336,3.108509207,192573,3947.99853575
1750,4552.21477511,3.126059227,193674,3947.99853575
1760,4532.39906061,3.143968902,194775,3883.9991396
1770,4516.41354471,3.163245784,195876,3923.19440895
1780,4547.86241705,3.18101134,196977,3972.75694161
1790,4547.86241705,3.19764832,198078,3892.6163976
1800,4531.89536614,3.214508107,199179,3876.99793039
1810,4541.3646162,3.232190271,200280,3861.40732889
1820,4526.04960093,3.250388613,201381,3947.99853575
1830,4547.86241705,3.267984818,202482,3947.99853575
1840,4531.89536614,3.285727709,203583,3773.06755
1850,4517.70567195,3.30272905,204684,3930.49583042
1860,4533.54911336,3.323064373,205785,3942.47417062
1870,4531.69481364,3.340820094,206886,3870.53552359
1880,4544.53415807,3.359417863,207987,3909.73434622
1890,4531.89536614,3.376657407,209088,3878.26440733
1900,4534.47660461,3.394709919,210189,3898.39028215
1910,4547.86241705,3.412350601,211290,3877.57872524
1920,4519.23615107,3.430362486,212391,3794.94177765
1930,4506.77748849,3.448311078,213492,3797.03608712
1940,4531.89536614,3.465770435,214593,3773.84156863
1950,4519.41271002,3.483389734,215694,3947.99853575
1960,4519.23615107,3.502317651,216795,3685.66104323
1970,4532.39906061,3.519918989,217896,3947.99853575
1980,4556.18003666,3.537451047,218997,3956.5312498
1990,4523.18253494,3.554413899,220098,3947.99853575
2000,4537.19369863,3.572126426,221199,3824.27651851
2010,4521.28975345,3.589534465,222300,3947.99853575
2020,4547.86241705,3.606839012,223401,3736.15172772
2030,4532.39906061,3.623759954,224502,3925.61329519
2040,4528.57453578,3.641061935,225603,3947.99853575
2050,4510.1551667,3.660700183,226704,3381.26254535
2060,4519.41271002,3.67829083,227805,3916.36386933
2070,4533.54911336,3.695826309,228906,3898.68481408
2080,4533.54911336,3.713898492,230007,4051.18302544
2090,4547.86241705,3.731640955,231108,3947.99853575
2100,4517.51739006,3.748880071,232209,3937.4496856
2110,4530.34424528,3.766381766,233310,3893.61639959
2120,4532.39906061,3.784367991,234411,3947.99853575
2130,4531.69481364,3.802087361,235512,3851.83154936
2140,4547.86241705,3.822194317,236613,3816.627254
2150,4541.53142236,3.839279477,237714,3938.28102447
2160,4541.47906957,3.856436483,238815,3947.99853575
2170,4535.06854884,3.873632406,239916,3947.99853575
2180,4526.04960093,3.890621345,241017,3979.87978675
2190,4531.89536614,3.907169801,242118,3947.99853575
2200,4510.91465619,3.924609058,243219,3947.99853575
2210,4547.86241705,3.941538125,244320,3853.22827433
2220,4531.69481364,3.958963269,245421,3947.99853575
2230,4531.89536614,3.977968591,246522,3910.29030544
2240,4513.50479036,3.996236212,247623,3947.99853575
2250,4533.54911336,4.012863356,248724,3947.99853575
2260,4521.9124297,4.029984867,249825,3986.11963713
2270,4549.68259244,4.047859475,250926,3569.98702121
2280,4547.86241705,4.064983552,252027,3779.31466357
2290,4547.86241705,4.08308781,253128,3947.99853575
2300,4544.14887732,4.100772112,254229,3922.76553513
2310,4516.25696906,4.118391839,255330,3914.17996855
2320,4531.89536614,4.138134862,256431,3947.99853575
2330,4531.69481364,4.155120807,257532,3973.79465817
2340,4540.52518963,4.172702901,258633,3955.98647822
2350,4520.16330093,4.190545863,259734,3800.05737075
2360,4519.23615107,4.207833303,260835,3780.7023635
2370,4551.50702421,4.22495738,261936,3892.79942301
2380,4533.54911336,4.243072329,263037,3836.4300081
2390,4527.17128562,4.260705741,264138,3987.54456927
2400,4510.1551667,4.278191185,265239,3947.99853575
2410,4547.86241705,4.295530371,266340,3947.99853575
2420,4547.86241705,4.312060866,267441,3947.99853575
2430,4554.89744741,4.328918516,268542,3947.99853575
2440,4531.89536614,4.346261551,269643,3854.67335203
2450,4547.86241705,4.363584059,270744,3944.05596796
2460,4518.40294394,4.380994236,271845,3764.6352118
2470,4506.77748849,4.397898072,272946,3948.63479844
2480,4531.89536614,4.414954152,274047,4002.71501609
2490,4531.89536614,4.43230403,275148,3975.96184281
2500,4531.89536614,4.451327742,276249,3955.73268564
2510,4517.2641194,4.468805061,277350,4010.69633738
2520,4547.86241705,4.48610747,278451,3845.71909241
2530,4519.29956676,4.503601467,279552,3468.26555368
2540,4519.29956676,4.521649274,280653,3849.37109242
2550,4537.65239679,4.539003428,281754,3947.99853575
2560,4532.39906061,4.556073193,282855,3921.26002741
2570,4517.2641194,4.573172038,283956,3892.49246149
2580,4531.89536614,4.590306379,285057,4024.24073852
2590,4547.86241705,4.609494309,286158,3947.99853575
2600,4534.25583048,4.626778756,287259,3841.22312352
2610,4547.86241705,4.643995207,288360,3947.99853575
2620,4542.57853454,4.661798397,289461,3853.82929735
2630,4531.69481364,4.678619268,290562,4064.83736633
2640,4533.54911336,4.696067079,291663,3903.14334671
2650,4531.89536614,4.713485809,292764,2971.26660177
2660,4540.5302795,4.731224423,293865,3947.99853575
2670,4547.86241705,4.748449854,294966,3947.99853575
2680,4519.29956676,4.767764369,296067,3947.99853575
2690,4531.89536614,4.785200205,297168,3932.22826459
2700,4526.04960093,4.80261808,298269,3907.21193363
2710,4547.86241705,4.820099675,299370,3474.41319845
2720,4533.54911336,4.83812781,300471,3655.75102067
2730,4547.86241705,4.855670132,301572,3741.30845767
2740,4531.89536614,4.872932768,302673,3947.99853575
2750,4526.04960093,4.890240308,303774,3818.19366282
2760,4547.86241705,4.90809952,304875,3766.56517554
2770,4524.45344111,4.926200356,305976,3947.99853575
2780,4519.23615107,4.943562636,307077,3691.67762817
2790,4510.91465619,4.961546723,308178,3947.99853575
2800,4509.86070531,4.979112566,309279,3838.75936671
2810,4519.57958828,4.996166508,310380,3872.65346785
2820,4553.80837571,5.013387234,311481,3908.78478181
2830,4524.74095007,5.031692061,312582,3947.99853575
2840,4547.86241705,5.049131318,313683,3947.99853575
2850,4533.54911336,5.067764155,314784,3947.99853575
2860,4509.86070531,5.085294502,315885,3947.99853575
2870,4540.23970634,5.102373248,316986,3947.99853575
2880,4542.68590052,5.119677366,318087,3947.99853575
2890,4532.39906061,5.13737236,319188,3926.90083545
2900,4551.85141239,5.154505845,320289,3920.80746767
2910,4520.16330093,5.172158501,321390,3993.33471598
2920,4532.39906061,5.189822276,322491,3947.99853575
2930,4535.09514435,5.207091328,323592,4011.76103775
2940,4531.89536614,5.226851029,324693,3947.99853575
2950,4536.38242681,5.244706392,325794,3789.75303845
2960,4532.39906061,5.262680643,326895,3947.99853575
2970,4531.69481364,5.279959958,327996,3947.99853575
2980,4531.89536614,5.297248254,329097,3856.28994834
2990,4533.54911336,5.314867125,330198,3997.30048916
3000,4526.04960093,5.332518926,331299,3924.28273104
3010,4526.04960093,5.349875218,332400,3618.00967809
3020,4519.41271002,5.369707621,333501,3186.22051732
3030,4533.54911336,5.387462914,334602,3204.94549709
3040,4538.2785068,5.404811936,335703,3885.24956325
3050,4519.23615107,5.421799164,336804,3923.77813972
3060,4547.86241705,5.43985638,337905,3826.5752561
3070,4547.86241705,5.456396711,339006,3947.99853575
3080,4526.04960093,5.473637965,340107,3317.14257977
3090,4516.41354471,5.491559615,341208,3648.44669602
3100,4547.86241705,5.508972785,342309,3934.40300171
3110,4536.53623184,5.527825435,343410,3947.99853575
3120,4510.33493577,5.545027345,344511,3912.78863049
3130,4533.54911336,5.563641365,345612,3947.99853575
3140,4545.47222323,5.581328233,346713,3808.97532712
3150,4516.41354471,5.598639622,347814,3947.99853575
3160,4548.88642044,5.61601131,348915,3697.8895367
3170,4519.23615107,5.633211937,350016,3947.99853575
3180,4521.57261665,5.651154969,351117,3878.26440733
3190,4556.18003666,5.668558731,352218,3912.78863049
3200,4547.86241705,5.68796006,353319,4092.41701518
3210,4525.15212881,5.705458761,354420,3918.03422918
3220,4532.39906061,5.722919828,355521,3900.21053764
3230,4547.86241705,5.740666995,356622,3929.53782303
3240,4531.69481364,5.757994635,357723,3860.80722267
3250,4526.04960093,5.775294478,358824,3761.34816831
3260,4525.32406175,5.79292789,359925,3763.30855091
3270,4533.54911336,5.810356456,361026,3947.99853575
3280,4519.29956676,5.829959637,362127,3813.43296862
3290,4516.41354471,5.847704239,363228,3909.73434622
3300,4531.89536614,5.865001943,364329,3833.908336
3310,4519.41271002,5.882129014,365430,3947.99853575
3320,4547.86241705,5.899835554,366531,3892.6163976
3330,4521.40873523,5.917156351,367632,3947.99853575
3340,4532.39906061,5.934485702,368733,3877.37635953
3350,4532.39906061,5.952524529,369834,3317.9267562
3360,4520.16330093,5.971837761,370935,3947.99853575
3370,4533.54911336,5.989675591,372036,3947.99853575
3380,4531.89536614,6.007440292,373137,3947.99853575
3390,4547.86241705,6.024878694,374238,3370.25492319
3400,4526.04960093,6.041978395,375339,3937.9996729
3410,4520.16330093,6.059264552,376440,3281.27066949
3420,4531.89536614,6.076592619,377541,3955.14033752
3430,4542.01455784,6.09446124,378642,3947.99853575
3440,4531.69481364,6.112121594,379743,3947.99853575
3450,4519.23615107,6.1315999,380844,3482.04655374
3460,4533.54911336,6.149154623,381945,3920.39897938
3470,4531.89536614,6.166146555,383046,3947.99853575
3480,4547.86241705,6.185201485,384147,3947.99853575
3490,4519.23615107,6.203461836,385248,3926.36304875
3500,4522.6628051,6.220718485,386349,3947.99853575
3510,4531.89536614,6.238005071,387450,3909.12849062
3520,4526.04960093,6.255198428,388551,3928.42716115
3530,4547.86241705,6.272895988,389652,3989.42273108
3540,4547.86241705,6.292187838,390753,3947.99853575
3550,4540.42844907,6.309138716,391854,3919.85741666
3560,4507.65554531,6.326691729,392955,3872.65346785
3570,4533.54911336,6.344037758,394056,3942.81906757
3580,4511.51572053,6.361199041,395157,4029.54943563
3590,4531.89536614,6.378254693,396258,3841.18700007
3600,4571.51050274,6.39568668,397359,3947.99853575
3610,4554.68780422,6.413243542,398460,3947.99853575
3620,4544.37802226,6.429920721,399561,3744.24440511
3630,4531.89536614,6.450604153,400662,3958.18750737
3640,4537.37578614,6.468022883,401763,3689.03880575
3650,4547.86241705,6.485584449,402864,3392.58529444
3660,4510.91465619,6.502796623,403965,3859.32640876
3670,4530.22895188,6.519800102,405066,3749.01990762
3680,4510.91465619,6.537897517,406167,3889.13970046
3690,4532.39906061,6.555988945,407268,3905.82661585
3700,4533.54911336,6.573181019,408369,3974.05577968
3710,4526.04960093,6.592837656,409470,4095.63381968
3720,4531.69481364,6.610264512,410571,3813.52884439
3730,4530.22895188,6.627905194,411672,3853.1353169
3740,4531.89536614,6.644594348,412773,3699.63542243
3750,4520.16330093,6.662702882,413874,3794.314686
3760,4533.54911336,6.679847487,414975,3947.99853575
3770,4531.89536614,6.697084037,416076,3947.99853575
3780,4543.62743135,6.714451449,417177,3931.29039651
3790,4541.08541357,6.732176378,418278,3947.99853575
3800,4532.39906061,6.751723537,419379,3879.24979152
3810,4516.25696906,6.769086244,420480,3011.93878505
3820,4519.29956676,6.787039112,421581,3900.27464078
3830,4531.89536614,6.80479526,422682,3565.02981318
3840,4519.41271002,6.822307218,423783,3931.08944695
3850,4549.77030049,6.839946617,424884,3853.1353169
3860,4517.2641194,6.857805402,425985,3785.93537512
3870,4550.27000646,6.875267752,427086,3991.52289378
3880,4550.62989631,6.893658965,428187,3833.02330122
3890,4547.86241705,6.912858014,429288,3947.99853575
3900,4547.86241705,6.930746307,430389,3878.26724106
3910,4547.86241705,6.94722976,431490,4010.15666957
3920,4547.86241705,6.964617699,432591,3809.49902798
3930,4510.1551667,6.98229858,433692,3830.92443331
3940,4519.23615107,6.999478252,434793,3947.99853575
3950,4544.02699149,7.016775529,435894,3857.52005262
3960,4531.89536614,7.033968458,436995,3862.26057769
3970,4547.86241705,7.050892821,438096,3975.88685209
3980,4519.41271002,7.070105982,439197,4017.47688811
3990,4509.86070531,7.087227065,440298,3937.63959939
4000,4547.86241705,7.104198898,441399,3930.12037509
4010,4517.2641194,7.121872509,442500,3370.23790709
4020,4532.39906061,7.139228802,443601,3947.99853575
4030,4547.86241705,7.155754165,444702,3977.20824339
4040,4522.13252148,7.172901763,445803,3944.24888235
4050,4547.86241705,7.190106666,446904,3986.11963713
4060,4532.39906061,7.208050982,448005,3744.99323674
4070,4547.86241705,7.227636629,449106,3947.99853575
4080,4528.09292799,7.244777812,450207,4037.78524802
4090,4526.04960093,7.26225898,451308,3947.99853575
4100,4531.89536614,7.279228674,452409,3959.72815636
4110,4531.33648505,7.297177694,453510,3685.00080723
4120,4519.29956676,7.314996707,454611,3887.82812307
4130,4547.86241705,7.332655777,455712,3947.99853575
4140,4532.39906061,7.350172867,456813,3947.99853575
4150,4519.41271002,7.3672777,457914,3751.98094637
4160,4519.23615107,7.387041679,459015,3945.52740313
4170,4537.77012874,7.404230332,460116,3969.76071476
4180,4513.18213478,7.421871014,461217,3947.99853575
4190,4553.80328583,7.439826021,462318,3779.99715774
4200,4547.86241705,7.457167773,463419,3468.92702245
4210,4531.69481364,7.475050507,464520,3704.81527758
4220,4541.47906957,7.492857119,465621,3811.69855847
4230,4516.41354471,7.510115907,466722,3850.75869971
4240,4531.69481364,7.528681601,467823,3854.59753413
4250,4533.54911336,7.545332694,468924,3792.59116629
4260,4547.86241705,7.563219704,470025,3923.0468867
4270,4522.7445394,7.580856965,471126,3942.81906757
4280,4531.69481364,7.599014251,472227,3947.99853575
4290,4517.56973681,7.61633462,473328,3778.02341784
4300,4544.53415807,7.633943228,474429,3727.2499015
4310,4526.32505654,7.651730167,475530,3689.31591733
4320,4525.98423457,7.668970993,476631,3938.44639718
4330,4531.69481364,7.688000692,477732,3947.99853575
4340,4547.86241705,7.705829113,478833,3947.99853575
4350,4531.69481364,7.722786833,479934,3947.99853575
4360,4531.89536614,7.740187601,481035,3627.23235476
4370,4526.82875101,7.757575112,482136,3758.57729356
4380,4547.86241705,7.775470247,483237,3768.13421393
4390,4533.54911336,7.792873581,484338,3745.95471332
4400,4520.16330093,7.811513688,485439,3947.99853575
4410,4547.86241705,7.83058658,486540,3820.572277
4420,4531.91645813,7.847734178,487641,3947.99853575
4430,4531.69481364,7.864436162,488742,2758.25142717
4440,4533.54911336,7.881815975,489843,3923.77813972
4450,4516.41354471,7.899796641,490944,3947.99853575
4460,4532.39906061,7.917504892,492045,3947.99853575
4470,4526.04960093,7.935302095,493146,3853.22827433
4480,4532.39906061,7.954714542,494247,3850.54518014
4490,4526.04960093,7.971727857,495348,3918.64147385
4500,4531.01468011,7.989094841,496449,3947.99853575
4510,4525.30469423,8.006482352,497550,3683.90716626
4520,4534.33033599,8.023531162,498651,3947.99853575
4530,4578.66115612,8.041400211,499752,3944.05596796
4540,4516.41354471,8.059986006,500853,3911.51285362
4550,4520.16330093,8.078326328,501954,3904.86849358
4560,4551.61598644,8.09693992,503055,3989.79707017
4570,4533.54911336,8.114784593,504156,3946.8731295
4580,4531.69481364,8.132524918,505257,3722.00796912
4590,4537.46209636,8.150077076,506358,2573.16285814
4600,4531.69481364,8.167586896,507459,3903.14334671
4610,4506.77748849,8.184985098,508560,3830.43465916
4620,4520.16330093,8.202414946,509661,3922.32000072
4630,4510.91465619,8.219943155,510762,3021.84799836
4640,4547.86241705,8.237533373,511863,3969.76071476
4650,4538.2785068,8.254602283,512964,3889.17040933
4660,4527.66337245,8.271871335,514065,3947.99853575
4670,4531.69481364,8.288799547,515166,3947.99853575
4680,4533.35507849,8.306422695,516267,3907.34976041
4690,4531.89536614,8.324403361,517368,3947.99853575
4700,4516.83047241,8.341600567,518469,2512.35950589
4710,4542.29210745,8.359072326,519570,3750.15791681
4720,4519.23615107,8.376779721,520671,3927.89254039
4730,4520.16330093,8.396225098,521772,3915.29345072
4740,4531.69481364,8.413659223,522873,3853.39188038
4750,4571.29405016,8.43090176,523974,3789.54111914
4760,4513.91207064,8.448015146,525075,3947.99853575
4770,4532.65793717,8.465613063,526176,3739.15100036
4780,4532.39906061,8.482864153,527277,3947.99853575
4790,4519.23615107,8.500856366,528378,3947.99853575
4800,4533.54911336,8.518982006,529479,3863.743279
4810,4550.27000646,8.536581205,530580,3935.42486045
4820,4531.89536614,8.554244125,531681,3908.97383493
4830,4547.86241705,8.571633775,532782,3981.10935191
4840,4511.51572053,8.589055498,533883,3947.99853575
4850,4509.86070531,8.606348071,534984,3909.20581741
4860,4547.86241705,8.623864306,536085,3947.99853575
4870,4547.86241705,8.640634287,537186,3947.99853575
4880,4544.19377146,8.65752401,538287,3909.52821749
4890,4547.86241705,8.675167258,539388,3947.99853575
4900,4531.999589,8.694627603,540489,3897.87411803
4910,4533.54911336,8.71214341,541590,3947.99853575
4920,4547.86241705,8.729849095,542691,3765.48616892
4930,4547.62095791,8.747249436,543792,3947.99853575
4940,4539.25446756,8.764906369,544893,3923.77813972
4950,4507.25171895,8.782651826,545994,3947.99853575
4960,4531.89536614,8.800861713,547095,3947.99853575
4970,4537.3761716,8.818668752,548196,3837.60031028
4980,4531.69481364,8.836114852,549297,3918.84600191
4990,4519.41271002,8.855892088,550398,3872.65346785
