it,funval,time,funcount,weight
0,16088.1656285,0.659271408,999,13518.1839242
10,17867.5475619,1.24631096,2100,14896.8702279
20,18447.6100217,1.727379408,3201,15186.9637535
30,18909.386983,2.264612366,4302,15162.3544893
40,19010.785846,2.765969522,5403,15685.6950816
50,19128.9687545,3.240353756,6504,15925.1297253
60,19148.4796766,3.66524957,7605,15359.9457755
70,19141.2384622,4.124849415,8706,15722.3742712
80,19135.1586956,4.570963227,9807,15825.4699371
90,19159.3622267,4.969673854,10908,15853.9062276
100,19142.2710069,5.393472738,12009,15881.2488431
110,19181.9461211,5.864905739,13110,15942.2396632
120,19169.6421682,6.319180878,14211,15738.399551
130,19138.1287268,6.727327665,15312,15991.6454915
140,19160.6522932,7.164748148,16413,15753.3890843
150,19160.6522932,7.62409354,17514,15893.3494537
160,19185.1284562,8.019733191,18615,15783.3219989
170,19165.1189208,8.514989451,19716,15913.4290337
180,19127.8040643,8.952998812,20817,15851.1217305
190,19128.0785339,9.441265513,21918,15826.3498976
200,19122.4697407,9.891697763,23019,15851.8275118
210,19158.4644545,10.316949811,24120,15874.4934611
220,19118.0491967,10.726178561,25221,16058.3943862
230,19145.9805003,11.107974233,26322,15861.5442031
240,19121.6516915,11.557294586,27423,15617.9051527
250,19127.8049971,11.979992264,28524,15912.5346821
260,19113.4361804,12.405509885,29625,15179.6417485
270,19129.5042628,12.833866693,30726,15672.4938633
280,19244.0226554,13.282336872,31827,16121.8706707
290,19248.5920743,13.736855774,32928,15689.1049699
300,19304.9372015,14.140686261,34029,15916.0796877
310,19239.6225587,14.624568237,35130,15916.0796877
320,19258.8368976,15.059791868,36231,15924.1713963
330,19277.3396127,15.507328908,37332,15530.5460351
340,19263.9117455,15.925460535,38433,15916.0796877
350,19229.9287534,16.363791491,39534,15789.7330183
360,19234.0658024,16.815264649,40635,15916.0796877
370,19250.6007808,17.151203101,41736,15922.6513633
380,19257.6912809,17.500010484,42837,16016.2012864
390,19259.4805547,17.809935666,43938,15984.1508018
400,19259.4805547,18.110271588,45039,15851.7641593
410,19239.3739578,18.445726793,46140,15310.5968165
420,19244.6994777,18.743114902,47241,15916.0796877
430,19263.9117455,19.031000565,48342,15916.0796877
440,19259.5930084,19.328334364,49443,15743.8704185
450,19244.477818,19.62295,50544,15916.0796877
460,19254.7018589,19.913645342,51645,15223.8073105
470,19268.3543235,20.206916865,52746,15849.6467382
480,19241.7319708,20.516691514,53847,15899.9770333
490,19269.305191,20.814018042,54948,15916.0796877
500,19234.0658024,21.114174349,56049,15729.1809434
510,19274.1746883,21.422028836,57150,15226.1886156
520,19268.9973384,21.723354346,58251,15916.0796877
530,19291.2479513,22.014203216,59352,15844.6810663
540,19234.0658024,22.304106118,60453,15780.3160988
550,19273.3513219,22.597933163,61554,15894.7187571
560,19252.415215,22.891241464,62655,15916.0796877
570,19240.571631,23.188151458,63756,15916.0796877
580,19264.913071,23.481492689,64857,15916.0796877
590,19251.4246653,23.772857736,65958,15851.7093115
600,19254.4558987,24.076297562,67059,15908.2388869
610,19254.8472089,24.374699637,68160,15878.856069
620,19285.0539266,24.669935798,69261,15873.7627128
630,19282.8064186,24.9655051,70362,15766.2338234
640,19242.364905,25.25693344,71463,15916.0796877
650,19290.7258487,25.555143071,72564,15946.9424915
660,19243.7329898,25.8619605,73665,11785.2505525
670,19213.4060893,26.16210184,74766,15841.7006445
680,19234.7138265,26.456186759,75867,15951.7394825
690,19275.1700171,26.79370325,76968,15868.9508143
700,19307.1307386,27.122472957,78069,15856.7198225
710,19257.7816279,27.446707832,79170,16105.3265715
720,19243.3330549,27.765621423,80271,15806.6328579
730,19241.7319708,28.071772996,81372,15889.138201
740,19294.6598587,28.365741166,82473,15916.0796877
750,19245.6179216,28.674205913,83574,15916.0796877
760,19241.9536721,28.962786939,84675,15916.0796877
770,19265.3577952,29.262066558,85776,15833.8230092
780,19259.4805547,29.557766294,86877,15749.3734772
790,19239.2925956,29.857727164,87978,15567.4718832
800,19309.9278948,30.150754925,89079,15718.4492514
810,19235.24513,30.458731293,90180,15591.6333659
820,19242.7537775,30.767925189,91281,15916.0796877
830,19248.5920743,31.083299524,92382,15808.8072788
840,19233.6646583,31.389795358,93483,15296.8763891
850,19314.1406389,31.685723461,94584,15961.7193943
860,19247.0989299,31.986844553,95685,15839.9012589
870,19234.0658024,32.277247381,96786,15826.8045702
880,19250.1343214,32.57455381,97887,15683.7840377
890,19225.1851651,32.867389982,98988,15890.6375188
900,19226.023115,33.160255662,100089,15758.8383632
910,19268.9390832,33.456382624,101190,15996.8414988
920,19261.4721703,33.748851015,102291,15611.1522947
930,19225.1851651,34.044013619,103392,15773.197799
940,19239.6110769,34.340156404,104493,15938.2842404
950,19251.1926038,34.637742945,105594,15893.4172936
960,19270.3621668,34.940920619,106695,14968.1030909
970,19239.3739578,35.265132402,107796,15916.0796877
980,19254.6097545,35.581317995,108897,15909.6451904
990,19264.913071,35.876564847,109998,15865.2940685
1000,19211.2612559,36.167773372,111099,15794.6121245
1010,19242.364905,36.462705044,112200,15908.1576512
1020,19304.8448084,36.75657186,113301,15887.2891228
1030,19237.5844301,37.047849238,114402,15890.6375188
1040,19230.4294161,37.334960849,115503,15957.2437433
1050,19285.5395906,37.626510642,116604,15857.0149076
1060,19274.0089181,37.918920872,117705,15956.6499
1070,19209.5353424,38.21265255,118806,15646.0386776
1080,19271.5294124,38.507668469,119907,15764.0532817
1090,19233.966564,38.804443753,121008,15716.2464576
1100,19253.7038852,39.097788832,122109,15801.0917982
1110,19258.8368976,39.393191777,123210,15785.0103282
1120,19229.3411448,39.701131794,124311,15308.2939589
1130,19242.510303,40.003747532,125412,15843.4597721
1140,19253.604611,40.297301306,126513,15938.4321132
1150,19246.501745,40.593423136,127614,15916.0796877
1160,19230.5055402,40.885919752,128715,15829.4623718
1170,19242.5697114,41.184963734,129816,15874.0759109
1180,19241.7923786,41.477925636,130917,15992.723617
1190,19229.4916068,41.774504627,132018,15916.0796877
1200,19251.8614866,42.068066954,133119,15812.1665777
1210,19243.7329898,42.360485737,134220,15726.4499246
1220,19255.520947,42.652213005,135321,15877.0635328
1230,19228.9798051,42.941996591,136422,15916.0796877
1240,19235.9166244,43.232678249,137523,15911.1648322
1250,19249.2036733,43.52492084,138624,15876.5700442
1260,19295.5618654,43.815111125,139725,14836.8037953
1270,19235.24513,44.111260752,140826,15109.5824207
1280,19264.913071,44.400680834,141927,15965.6300053
1290,19259.1887139,44.697565169,143028,15928.1930672
1300,19254.342114,45.015171853,144129,15770.8607544
1310,19294.6598587,45.306246951,145230,15804.6215155
1320,19248.5920743,45.603762929,146331,10847.211001
1330,19259.7258376,45.897555761,147432,15956.2133114
1340,19229.4916068,46.193581369,148533,14481.3807284
1350,19291.2479513,46.491832054,149634,15898.3220618
1360,19241.7319708,46.785767294,150735,16052.8546321
1370,19244.0226554,47.078741171,151836,15916.0796877
1380,19244.0226554,47.373977332,152937,15915.1102649
1390,19247.0356906,47.667039733,154038,15919.1408293
1400,19223.3598186,47.959839127,155139,15923.9448946
1410,19280.4450764,48.252627403,156240,15942.1673295
1420,19241.9536721,48.549966761,157341,15916.0796877
1430,19260.0412862,48.845580539,158442,15672.3483244
1440,19264.7358679,49.13680446,159543,15887.9574591
1450,19243.2912461,49.430897077,160644,15916.0796877
1460,19311.3426071,49.721138679,161745,15880.6361074
1470,19259.4805547,50.01318626,162846,15877.757723
1480,19237.7693656,50.309705807,163947,15916.0796877
1490,19229.9287534,50.604108044,165048,15741.1365636
1500,19254.9149383,50.922730831,166149,15830.0526399
1510,19219.1057206,51.213386401,167250,15763.5756481
1520,19263.9117455,51.511567807,168351,15785.749874
1530,19291.2479513,51.817843827,169452,15761.1077017
1540,19243.7329898,52.128231302,170553,16020.551445
1550,19265.0208572,52.428802432,171654,15840.8864417
1560,19260.378274,52.725629034,172755,16022.8917875
1570,19251.1531956,53.018744464,173856,15848.0925056
1580,19255.1978024,53.30810895,174957,15916.0796877
1590,19230.4294161,53.609574302,176058,15751.9805622
1600,19275.7061941,53.904542324,177159,15778.1141557
1610,19237.4153103,54.193994051,178260,15963.2271916
1620,19298.3161355,54.483805435,179361,15813.4881647
1630,19266.2911317,54.779011232,180462,15916.0796877
1640,19267.9495561,55.069336227,181563,15957.558549
1650,19277.1504239,55.37034784,182664,15926.1730841
1660,19334.4318112,55.670790247,183765,15941.1062175
1670,19302.6644146,55.961630136,184866,15780.0387267
1680,19282.8064186,56.270246701,185967,15926.1730841
1690,19318.890054,56.566365109,187068,15668.5126738
1700,19295.4112386,56.859846182,188169,16093.0077773
1710,19268.713299,57.166448501,189270,15859.550212
1720,19292.4218177,57.468329532,190371,15903.5106901
1730,19334.4318112,57.766702527,191472,15936.8034824
1740,19266.3369243,58.066689484,192573,15893.2638879
1750,19258.3336833,58.363324497,193674,15814.9856577
1760,19286.9168497,58.652514928,194775,15789.0100098
1770,19285.2299251,58.948005115,195876,15313.053386
1780,19334.4318112,59.240993104,196977,15926.1730841
1790,19334.4318112,59.536546155,198078,15926.1730841
1800,19265.3201132,59.826729597,199179,15802.7245109
1810,19318.890054,60.116682534,200280,15926.1730841
1820,19285.5487649,60.417700134,201381,15837.4391206
1830,19293.9968417,60.708282148,202482,15889.3562307
1840,19294.2361131,60.998792317,203583,15831.8571597
1850,19323.1803945,61.288066996,204684,15839.7279349
1860,19261.198358,61.580226622,205785,15926.1730841
1870,19271.6739412,61.875199349,206886,15800.2909611
1880,19297.6710885,62.173591588,207987,15225.6745607
1890,19317.7333019,62.469843852,209088,15565.8340666
1900,19355.8771383,62.764737035,210189,15926.1730841
1910,19270.7211503,63.060642472,211290,15526.2915767
1920,19272.2047121,63.360960432,212391,15710.2578283
1930,19286.3162947,63.649539748,213492,15926.1730841
1940,19304.5277905,63.944760085,214593,15936.3852611
1950,19304.2810309,64.236638315,215694,15914.7521025
1960,19334.4318112,64.529158452,216795,15960.9970032
1970,19276.1167055,64.821625988,217896,15850.405175
1980,19288.2265038,65.114898794,218997,15926.1730841
1990,19338.7023769,65.413924815,220098,15571.5058422
2000,19308.9580071,65.707590207,221199,15706.2421866
2010,19273.6041829,65.999660454,222300,16002.8170135
2020,19321.6854765,66.291013954,223401,15499.534822
2030,19268.713299,66.583434875,224502,15912.0050779
2040,19287.2065153,66.875097568,225603,15814.1444335
2050,19300.9119182,67.174155662,226704,15852.3869629
2060,19266.2816968,67.466990551,227805,16079.9760841
2070,19268.713299,67.775988582,228906,15968.4743347
2080,19273.3513219,68.069667659,230007,15844.5259055
2090,19302.6644146,68.378039179,231108,15873.6895526
2100,19295.8111707,68.672936211,232209,15516.0240811
2110,19291.7759342,68.97744517,233310,15926.1730841
2120,19318.4223323,69.282583633,234411,15925.9753471
2130,19305.2093571,69.594026556,235512,15765.3543288
2140,19333.5136496,69.887272848,236613,15924.8002084
2150,19311.207235,70.184080205,237714,15930.4699139
2160,19295.3773428,70.477480024,238815,15926.1730841
2170,19269.1366492,70.773184465,239916,15818.3853897
2180,19278.371031,71.067563609,241017,15868.3372442
2190,19258.8520731,71.366389488,242118,15926.1730841
2200,19288.8017815,71.660611684,243219,15929.697501
2210,19313.6986031,71.952502744,244320,15778.0812712
2220,19302.0207575,72.249860918,245421,15926.1730841
2230,19282.8064186,72.548437048,246522,15869.0015372
2240,19298.8845912,72.856604577,247623,15869.6177402
2250,19302.0207575,73.161939333,248724,15417.9610684
2260,19282.5578177,73.449512382,249825,15934.0951206
2270,19286.0427579,73.74104464,250926,15798.9600468
2280,19335.247389,74.037988847,252027,15772.1062064
2290,19288.8017815,74.326502304,253128,15601.8064356
2300,19317.3610897,74.61761418,254229,15926.1730841
2310,19302.0207575,74.909816571,255330,15926.1730841
2320,19273.3513219,75.199226389,256431,15880.8096367
2330,19291.7759342,75.496865103,257532,15613.5530841
2340,19336.8948265,75.79060063,258633,15985.5878926
2350,19309.4749916,76.0833316,259734,15847.9236061
2360,19302.9313703,76.375225226,260835,15750.2758931
2370,19297.6710885,76.664093207,261936,15926.1730841
2380,19260.919607,76.956396097,263037,15952.4273243
2390,19281.0075051,77.252681717,264138,15926.1730841
2400,19309.459735,77.545177906,265239,15888.0783621
2410,19278.8133609,77.843467508,266340,15917.8143605
2420,19271.6739412,78.141165238,267441,16024.33617
2430,19307.0956054,78.449394777,268542,15832.7113317
2440,19285.137532,78.750637323,269643,15632.0927525
2450,19305.2000965,79.044428872,270744,15926.1730841
2460,19273.613276,79.337149579,271845,15898.2586653
2470,19284.9158307,79.64693278,272946,15924.2106107
2480,19276.7246382,79.967478294,274047,15873.2077553
2490,19273.3513219,80.269771155,275148,15686.3226266
2500,19307.0956054,80.577005973,276249,15818.3509163
2510,19317.709645,80.890098352,277350,15872.9002065
2520,19276.1167055,81.198638366,278451,15203.331335
2530,19318.890054,81.493118008,279552,15766.0435406
2540,19287.1374043,81.805008255,280653,15926.1730841
2550,19270.7343888,82.100579695,281754,15805.9405955
2560,19285.2299251,82.392740604,282855,15783.9507618
2570,19272.1422978,82.688464717,283956,15926.1730841
2580,19276.1167055,82.979004394,285057,15926.1730841
2590,19323.745877,83.274155024,286158,16023.6108171
2600,19265.8617063,83.565353286,287259,15787.8206624
2610,19353.700266,83.859275697,288360,15658.7347722
2620,19307.0956054,84.154007227,289461,15911.7469925
2630,19275.5508711,84.44585766,290562,16203.3986839
2640,19280.5370141,84.741329458,291663,15770.1472538
2650,19305.9467004,85.031910189,292764,15902.8990505
2660,19307.0956054,85.322368611,293865,15880.7515271
2670,19273.1126133,85.628672428,294966,15970.2303459
2680,19273.918572,85.960163718,296067,15814.1043323
2690,19309.0234095,86.264768043,297168,15892.7992179
2700,19288.2947701,86.564844807,298269,15916.0796877
2710,19336.5452337,86.881767673,299370,16022.4119802
2720,19285.8066125,87.182795537,300471,15974.805971
2730,19302.5639898,87.566575091,301572,14280.337164
2740,19288.8017815,87.882003311,302673,15035.9528921
2750,19273.2972245,88.250399763,303774,15926.1730841
2760,19309.4749916,88.545739843,304875,15752.1505038
2770,19284.4353282,88.836535256,305976,15865.7668687
2780,19288.1330472,89.283084418,307077,15703.9166378
2790,19318.890054,89.629502505,308178,10030.4658186
2800,19286.3162947,89.923843161,309279,15896.5348731
2810,19267.0583142,90.226224119,310380,15926.1730841
2820,19314.9906457,90.521719437,311481,15876.9776231
2830,19302.6644146,90.8548991,312582,15627.5550586
2840,19286.0418252,91.227698238,313683,15884.5726602
2850,19286.0427579,91.522509312,314784,15844.9705102
2860,19307.0956054,91.815389105,315885,15848.0327667
2870,19291.7759342,92.110106951,316986,15781.7267532
2880,19334.4318112,92.40473499,318087,15894.9483109
2890,19287.2065153,92.719710753,319188,15820.2419979
2900,19316.9301442,93.086327313,320289,15804.9257748
2910,19311.1447578,93.401391172,321390,15803.9217044
2920,19276.1167055,93.699633733,322491,15993.4594706
2930,19291.7759342,94.004296218,323592,15801.7990904
2940,19284.3753434,94.354785559,324693,15960.9982776
2950,19307.0956054,94.657546272,325794,15795.8427753
2960,19285.2299251,94.989090591,326895,15926.1730841
2970,19313.3727335,95.3188238,327996,15717.8883819
2980,19309.4749916,95.631858874,329097,15931.2121881
2990,19297.6710885,95.921777171,330198,16075.5617379
3000,19287.2065153,96.224009305,331299,15926.1730841
3010,19288.8017815,96.531170139,332400,15693.3577092
3020,19293.7351613,96.823119788,333501,15043.9182676
3030,19282.8064186,97.112928178,334602,15774.7905586
3040,19288.8539595,97.403171919,335703,15909.6832238
3050,19330.2154084,97.692860994,336804,15018.1141248
3060,19284.9762385,97.984438584,337905,15926.1730841
3070,19297.6710885,98.273951039,339006,15926.1730841
3080,19281.0570454,98.567596331,340107,15845.0408836
3090,19244.479686,98.857740001,341208,15842.0444607
3100,19307.0956054,99.154324123,342309,15569.9712852
3110,19294.4722613,99.44735445,343410,15926.1730841
3120,19298.6072265,99.744830228,344511,15760.9548576
3130,19288.8017815,100.035442178,345612,15932.6794267
3140,19284.3311769,100.329527525,346713,15926.1730841
3150,19307.0956054,100.622824707,347814,15859.7281556
3160,19349.6307856,100.915281979,348915,15883.9018267
3170,19302.0207575,101.2094721,350016,15918.4589831
3180,19381.7811903,101.502953601,351117,15715.3035974
3190,19419.5908365,101.795492555,352218,15947.5568079
3200,19325.4773259,102.088337281,353319,15947.5568079
3210,19342.7412738,102.37804389,354420,13178.7083378
3220,19333.7881542,102.667079512,355521,15303.2399208
3230,19369.9867417,102.95958853,356622,15947.5568079
3240,19350.0976516,103.248031425,357723,15947.5568079
3250,19333.6417101,103.539274591,358824,15819.965265
3260,19365.5555508,103.830826522,359925,15957.1645647
3270,19340.7648894,104.122056858,361026,15857.4254902
3280,19330.1334594,104.417644549,362127,15951.6684614
3290,19328.7528426,104.71154686,363228,15774.2444619
3300,19370.9996016,105.003074843,364329,15999.8784488
3310,19337.1934427,105.295837887,365430,15780.9173883
3320,19319.4152329,105.591327218,366531,15940.4289
3330,19419.7211947,105.882028975,367632,15843.643698
3340,19316.9763515,106.170822545,368733,15851.9783043
3350,19336.5805363,106.464784728,369834,15092.3941639
3360,19333.7881542,106.75838811,370935,15947.5568079
3370,19333.6122865,107.053847078,372036,15945.1526543
3380,19357.7723968,107.3451035,373137,15773.5929017
3390,19367.3815132,107.640079648,374238,15840.1773407
3400,19350.0976516,107.927309719,375339,15768.7640437
3410,19353.9152769,108.217453817,376440,15830.5083434
3420,19351.8005073,108.516224956,377541,15726.2420872
3430,19341.9009739,108.840053133,378642,15691.8866227
3440,19347.2865718,109.158348337,379743,15822.38884
3450,19347.2223132,109.450264628,380844,15958.1872062
3460,19350.0976516,109.756010358,381945,15856.8800119
3470,19360.5622248,110.044687179,383046,15570.7984305
3480,19349.7163438,110.335666483,384147,15733.1738419
3490,19348.0286683,110.625548002,385248,15817.0022738
3500,19349.207431,110.951136399,386349,15839.2403547
3510,19336.2818147,111.283933313,387450,15827.9354697
3520,19348.0286683,111.586804789,388551,15884.2898455
3530,19347.8069669,111.876233423,389652,16073.9711118
3540,19304.8212337,112.169135881,390753,15962.5507431
3550,19323.0146625,112.464005115,391854,15992.9566089
3560,19381.7811903,112.754032463,392955,15947.5568079
3570,19335.0958483,113.047119668,394056,15947.5568079
3580,19388.9355911,113.396007877,395157,15778.5962405
3590,19354.0947337,113.688430937,396258,15851.2435496
3600,19334.5650775,113.984789687,397359,15913.9858528
3610,19351.6929178,114.286626243,398460,14432.3373967
3620,19343.031728,114.576989726,399561,15887.077496
3630,19340.1407986,114.869754908,400662,15895.1397337
3640,19309.2775651,115.164367123,401763,15730.1159935
3650,19350.0976516,115.45729182,402864,15346.1652941
3660,19336.5044123,115.747405127,403965,15854.0537773
3670,19318.3584846,116.068643011,405066,15929.9102452
3680,19351.6929178,116.360662794,406167,15641.5011157
3690,19355.4775972,116.654066035,407268,15780.1674115
3700,19356.5927193,116.945056457,408369,15947.5568079
3710,19313.0450555,117.239341946,409470,15938.1037483
3720,19341.9009739,117.534199206,410571,15712.0049108
3730,19395.5658985,117.829069724,411672,15922.3347308
3740,19356.8070688,118.117785888,412773,14421.4047999
3750,19328.6497135,118.412155624,413874,15911.2468501
3760,19324.3731991,118.710646651,414975,15994.0776137
3770,19363.1224616,119.003913898,416076,15901.7087307
3780,19347.4523272,119.300197808,417177,15879.4044283
3790,19348.1210614,119.593909387,418278,15983.8292644
3800,19331.2601613,119.890282249,419379,15988.7208636
3810,19368.8113021,120.179925137,420480,15947.5568079
3820,19351.3712087,120.472860097,421581,15958.6513058
3830,19347.8673748,120.769868023,422682,15756.4043916
3840,19351.5071427,121.063364919,423783,15957.9197922
3850,19394.2732355,121.358885469,424884,15947.5568079
3860,19347.8069669,121.654988482,425985,15620.6773542
3870,19348.1210614,121.949326572,427086,15947.5568079
3880,19325.1047648,122.244032871,428187,15901.7226758
3890,19340.9730069,122.539861759,429288,15884.7565441
3900,19347.8069669,122.835715878,430389,15947.5568079
3910,19369.9867417,123.129590819,431490,16053.0953733
3920,19349.807986,123.423262626,432591,15947.5568079
3930,19346.5164226,123.720235057,433692,15876.6161321
3940,19314.8126004,124.015971572,434793,15881.1969751
3950,19304.8630527,124.308290712,435894,15877.4854723
3960,19342.1933876,124.598707225,436995,15947.5568079
3970,19348.0286683,124.892283665,438096,15947.5568079
3980,19337.1934427,125.182589843,439197,15850.9871306
3990,19349.207431,125.477899987,440298,15807.2643588
4000,19375.5606995,125.772000302,441399,15947.5568079
4010,19335.8194286,126.062996284,442500,15861.4340905
4020,19339.0078418,126.356885766,443601,15947.5568079
4030,19336.2818147,126.654634387,444702,15928.3510198
4040,19345.6679311,126.942868586,445803,15895.8591449
4050,19347.8673748,127.22948583,446904,15858.6547093
4060,19340.3033164,127.522929697,448005,15864.5485075
4070,19347.7380057,127.817313118,449106,15725.690228
4080,19335.0958483,128.10641973,450207,15961.9828995
4090,19348.0286683,128.398589191,451308,15741.5344892
4100,19348.0286683,128.688517751,452409,15804.9685479
4110,19332.3620614,128.97811873,453510,15746.6800924
4120,19325.2303294,129.269404233,454611,15932.6114095
4130,19348.1210614,129.562669769,455712,15834.821257
4140,19336.4549489,129.860016824,456813,15947.5568079
4150,19348.2953099,130.148357082,457914,15881.7697582
4160,19317.0401591,130.444739352,459015,15866.3888597
4170,19365.5555508,130.73824138,460116,15757.0881038
4180,19348.1210614,131.030829086,461217,15947.5568079
4190,19336.4549489,131.318243903,462318,15911.8552412
4200,19337.1934427,131.613681488,463419,15947.5568079
4210,19347.7943401,131.902434003,464520,15850.0718141
4220,19342.1933876,132.198735019,465621,15923.4083504
4230,19325.8243332,132.493580304,466722,15947.5568079
4240,19329.6157339,132.79143926,467823,15974.5917657
4250,19365.5555508,133.089384602,468924,15947.5568079
4260,19340.1407986,133.381836743,470025,15541.4983714
4270,19341.9009739,133.676804338,471126,15937.7058754
4280,19349.807986,133.969041369,472227,15709.708411
4290,19357.3426883,134.260696364,473328,15951.7711882
4300,19336.2818147,134.554608939,474429,15947.5568079
4310,19336.2818147,134.844166297,475530,15947.5568079
4320,19324.0894943,135.136689428,476631,15766.9683667
4330,19336.2715038,135.42793687,477732,15890.1113515
4340,19351.6929178,135.717602424,478833,15736.5150023
4350,19336.5044123,136.008575741,479934,15947.5568079
4360,19347.8673748,136.297622054,481035,15840.7383867
4370,19369.9867417,136.59561401,482136,15661.7425148
4380,19336.5805363,136.888682826,483237,15955.3193455
4390,19368.8151091,137.176293508,484338,15889.3611582
4400,19355.8201616,137.463604405,485439,15731.7856094
4410,19346.1407834,137.755537375,486540,15915.7343734
4420,19345.6860731,138.050469902,487641,15947.5568079
4430,19350.2973912,138.342701801,488742,15947.5568079
4440,19389.4078478,138.65489055,489843,15892.217941
4450,19393.8148777,138.947942687,490944,15927.4123441
4460,19367.3928207,139.24261178,492045,15663.5815107
4470,19348.0286683,139.535201625,493146,15856.4554147
4480,19328.8025109,139.829372502,494247,15810.5205292
4490,19381.7811903,140.127632596,495348,15942.1348865
4500,19355.6560101,140.423663763,496449,15793.6578918
4510,19316.898413,140.717099933,497550,15837.4990379
4520,19335.5533125,141.012726968,498651,15938.7188574
4530,19350.1528999,141.308107676,499752,15647.3520071
4540,19349.807986,141.597351565,500853,15495.1367071
4550,19336.4765843,141.891830352,501954,15910.3980945
4560,19346.6951298,142.191037269,503055,15844.6667481
4570,19336.5805363,142.483922194,504156,15872.1496827
4580,19348.0286683,142.778822647,505257,15818.9754931
4590,19348.9329615,143.074281615,506358,15947.5568079
4600,19350.0976516,143.369185062,507459,14268.0439283
4610,19335.0958483,143.661407125,508560,15757.9270449
4620,19339.3232693,143.951869825,509661,15882.9075841
4630,19350.0976516,144.24183944,510762,15921.3150422
4640,19326.4409033,144.531402785,511863,15850.5629087
4650,19339.3232693,144.827090547,512964,15957.1801406
4660,19348.7188692,145.118098504,514065,15867.4872232
4670,19349.807986,145.409121428,515166,15947.5568079
4680,19341.3201262,145.70488574,516267,15760.4443538
4690,19331.2914911,146.000293817,517368,15998.3982907
4700,19346.1407834,146.293052156,518469,15874.41858
4710,19333.6122865,146.585592393,519570,15932.2787639
4720,19335.0958483,146.879236829,520671,15947.5568079
4730,19369.9867417,147.172153828,521772,15947.5568079
4740,19369.9867417,147.462714887,522873,16025.513798
4750,19334.5650775,147.774147545,523974,15947.5568079
4760,19349.207431,148.068616924,525075,15947.5568079
4770,19341.9009739,148.362017171,526176,15243.2724433
4780,19343.4881326,148.680651505,527277,15468.9689416
4790,19373.7718593,148.9736566,528378,15925.982188
4800,19348.9329615,149.269663819,529479,15910.3014034
4810,19347.8673748,149.565178382,530580,15911.8007029
4820,19335.8208162,149.879690996,531681,15947.5568079
4830,19349.207431,150.173821674,532782,15830.8695421
4840,19310.4221862,150.477897847,533883,15909.4043199
4850,19349.807986,150.772862448,534984,15880.6035723
4860,19328.2112495,151.067156917,536085,15879.0605268
4870,19347.8069669,151.363634982,537186,15832.6734018
4880,19333.7881542,151.659943268,538287,15905.7267667
4890,19340.0415602,151.953302033,539388,15454.80587
4900,19336.2424582,152.246300714,540489,15850.7446428
4910,19341.9009739,152.538528764,541590,15947.5568079
4920,19348.9329615,152.834698063,542691,15828.0395306
4930,19352.4971171,153.133856229,543792,15376.7206862
4940,19354.9671947,153.436645168,544893,15578.8048168
4950,19351.6929178,153.72974563,545994,15947.5568079
4960,19348.9329615,154.024144447,547095,15695.2480252
4970,19350.0976516,154.320717023,548196,15954.6918246
4980,19351.6929178,154.616204644,549297,15724.7644255
4990,19340.0415602,154.912740442,550398,15746.6362122
