it,funval,time,funcount,weight
0,23705.6606015,3.20739991366e-05,10,24612.4667857
10,23613.601732,7.31289992473e-05,21,24608.47303
20,23574.4256646,0.000116321999485,32,24354.6136636
30,23822.6951231,0.000146685999425,43,24521.7765308
40,23936.3934466,0.000189877999219,54,24617.274599
50,24134.7812021,0.000227511998673,65,24880.0061741
60,24286.3525883,0.000257019998571,76,24946.5600406
70,24363.6604666,0.000302350998936,87,25059.0993969
80,24592.4280758,0.000339983998856,98,25486.373258
90,24613.5766581,0.000377189999199,109,25485.5793246
100,24772.7104341,0.000429363999501,120,25631.22164
110,24875.4064039,0.000477688999126,131,25633.1193797
120,24936.3435546,0.000522164998983,142,25736.5159675
130,25233.4369691,0.000574338999286,153,26182.4318327
140,25347.0112682,0.000619242999164,164,26316.3183343
150,25507.6293147,0.000655593998999,175,26606.8520709
160,25620.2472043,0.000693655998475,186,26763.2328885
170,25677.3527161,0.000739413998417,197,26813.241748
180,25761.2458202,0.000785172998803,208,26917.9197481
190,25886.4598917,0.00083093199828,219,27134.3319056
200,26056.0976834,0.000878828997884,230,27358.6575962
210,26344.9631569,0.000933140998313,241,27714.5658963
220,26435.8130014,0.000982320997537,252,27917.9439325
230,26519.1913738,0.00102465899818,263,27995.1142084
240,26798.966563,0.00107212799867,274,28256.4278159
250,27050.9952155,0.00112857799832,285,28383.0605818
260,27402.0197599,0.00118117899819,296,28765.0800202
270,27460.6310703,0.00123292499757,307,28772.0649593
280,27712.0561725,0.00126713699774,318,29209.8007339
290,28004.1002504,0.00131888299711,329,29585.7156929
300,28413.4201578,0.00136763599676,340,29867.3261034
310,28467.3402009,0.0014163889964,351,29980.6668381
320,28577.9606948,0.00146471399603,362,30167.7794158
330,28628.1007936,0.00151474899576,373,30164.4670662
340,28951.0257833,0.00156264699581,384,30532.655062
350,29032.5076578,0.00161225499596,395,30647.4263911
360,29083.9217765,0.00165801399635,406,30766.8500069
370,29406.5972447,0.00170890399568,417,30952.4684368
380,29521.4437166,0.00174910299484,428,31144.4165458
390,29526.1793324,0.00180854699465,439,31079.3083346
400,29884.8173824,0.00186670799485,450,31451.5283984
410,29917.8989935,0.00190776299405,461,31525.1518107
420,30146.9055138,0.00194753499363,472,31677.7652039
430,30189.276941,0.00198645099317,483,31777.0296579
440,30216.5346037,0.00202707799326,494,31826.9958459
450,30429.5895612,0.0020694159939,505,32008.4961953
460,30519.248726,0.00212201699378,516,32134.0492804
470,30599.7131515,0.0021746189941,527,32191.1329995
480,30742.2524767,0.00223149599424,538,32366.3141608
490,30834.2405633,0.00228024799435,549,32456.3576117
500,30975.2159238,0.00241068199375,560,32561.6982993
510,30975.2159238,0.00246200099355,571,32553.5233731
520,31226.6246288,0.00252144499336,582,32831.6655383
530,31344.6948384,0.00257190799402,593,32855.3281006
540,31773.5579816,0.00262108799416,604,33310.5985914
550,31932.8218912,0.00267411699406,615,33244.9786035
560,32026.003532,0.002728001994,626,33383.6858532
570,32026.003532,0.00276991199462,637,33386.899367
580,32182.2133797,0.00281267699484,648,33580.8525909
590,32379.7950392,0.00286185699497,659,33743.1523561
600,32551.0182853,0.00289991799491,670,33908.4746868
610,32636.2261673,0.00293883399445,681,34014.0158851
620,32664.6609712,0.00299015199471,692,34159.5950734
630,32685.904104,0.00304146999497,703,34141.5338738
640,32818.9394866,0.00309963099517,714,34379.8336681
650,32947.3513966,0.00315009399492,725,34375.9201649
660,33080.3498335,0.00318815499486,736,34685.8123379
670,33154.5840739,0.00323818999459,747,34753.3931508
680,33193.4538007,0.0034451739939,758,34668.3495683
690,33201.6536028,0.00349777599422,769,34933.5727001
700,33240.0257445,0.00354866599446,780,35007.2701035
710,33318.2214499,0.00360169499436,791,35099.0418491
720,33357.6599197,0.00365600699388,802,35149.0557051
730,33357.6599197,0.00370903599378,813,35186.3212948
740,33460.4370332,0.00376163699366,824,35179.9845323
750,33532.7105498,0.00381209999341,835,35511.1271412
760,33561.017838,0.00386427399371,846,35434.0122225
770,33597.9289095,0.00390703899302,857,35441.5870612
780,33745.8487777,0.00396220699349,868,35766.8618507
790,33882.938768,0.00400967699352,879,35860.105071
800,34039.744302,0.00405971199325,890,36115.0209758
810,34212.04213,0.00410974699389,901,36234.0803368
820,34225.4365025,0.00416106599459,912,36196.1178777
830,34243.3682084,0.00421281199488,923,36322.4748889
840,34270.6271514,0.00427353799478,934,36372.4165781
850,34313.0480023,0.00432613999419,945,36443.5657801
860,34451.9875088,0.00438301799386,956,36637.569067
870,34492.2036261,0.00443262499357,967,36584.0595019
880,34536.4218946,0.0044835149929,978,36752.1362498
890,34831.016247,0.00453782699333,989,36957.6726086
900,34892.0779395,0.0045887179931,1000,37107.8305061
910,34908.3081034,0.00465072799307,1011,37088.2966528
920,34908.3081034,0.00470033599231,1022,37107.8954454
930,34914.4852245,0.00475208199259,1033,37300.4812403
940,35071.2673161,0.00480468299247,1044,37338.9205422
950,35250.4084052,0.00484231699284,1055,37706.0845879
960,35394.301022,0.00490218899267,1066,37825.2879527
970,35478.5267806,0.00495949499236,1077,37888.8428156
980,35513.4835195,0.00501637299294,1088,37843.0231108
990,35556.2874895,0.00507068499246,1099,37863.9070328
1000,35620.2475739,0.00511601699236,1110,37898.755282
1010,35620.2475739,0.00517289499294,1121,38003.586872
1020,35756.0174571,0.00522250299309,1132,37992.4439757
1030,35917.8919971,0.0052627029936,1143,38239.5195763
1040,35965.308884,0.00531273799425,1154,38228.046592
1050,36042.594345,0.005363200994,1165,38572.9948165
1060,36042.594345,0.00541238099322,1176,38523.7600104
1070,36159.0983383,0.00546498199401,1187,38661.0706952
1080,36413.2040489,0.00551287999406,1198,38840.5409453
1090,36413.2040489,0.00557018499421,1209,38814.7753755
1100,36466.9365844,0.0056236409946,1220,38896.4353991
1110,36679.1970422,0.00566298499416,1231,39027.5482061
1120,36700.1236712,0.00571430299442,1242,38886.4457583
1130,36702.6031805,0.00576733199432,1253,38914.4385298
1140,36777.2980017,0.0058190779946,1264,39089.3095785
1150,36777.2980017,0.0058721069945,1275,39169.0215671
1160,36941.0335001,0.00592941299419,1286,39269.4480132
1170,37090.9050637,0.00596961199426,1297,39397.0544978
1180,37112.4771496,0.00601066599393,1308,39343.7718424
1190,37199.9682535,0.00606070199319,1319,39668.1742683
1200,37282.4806804,0.00610517699351,1330,39771.5533724
1210,37285.8921031,0.00616034399354,1341,39785.9081173
1220,37300.0222858,0.00620524699389,1352,39658.1027945
1230,37315.4115963,0.00626426299368,1363,39878.0618251
1240,37340.2946946,0.00632028499331,1374,39910.2480214
1250,37340.2946946,0.00637844599351,1385,39923.3840597
1260,37340.9648181,0.00642762599364,1396,39839.2666237
1270,37379.903614,0.00648920799358,1407,39983.9255575
1280,37386.0534605,0.00655934299357,1418,39914.97653
1290,37425.8704899,0.00661365499309,1429,39992.6607721
1300,37425.8704899,0.00667737499316,1440,39996.4922699
1310,37425.8704899,0.00673938499312,1451,39973.7101246
1320,37425.8704899,0.00680053899305,1462,39859.4110622
1330,37425.8704899,0.00685142899329,1473,39921.1258269
1340,37425.8704899,0.00691215499319,1484,40038.0455108
1350,37425.8704899,0.00697373699313,1495,39859.4110622
1360,37425.8704899,0.00702377299331,1506,39954.2769763
1370,37425.8704899,0.00708107899391,1517,39916.3385259
1380,37425.8704899,0.00714266099385,1528,39985.1240673
1390,37504.5930806,0.00720167699365,1539,39901.1198881
1400,37504.5930806,0.00725299599344,1550,39989.1090919
1410,37504.5930806,0.00731158499366,1561,39926.4982865
1420,37504.5930806,0.00737273999312,1572,39960.918134
1430,37504.5930806,0.00742191999325,1583,39933.4099253
1440,37504.5930806,0.00747794299332,1594,39960.1762693
1450,37504.5930806,0.00752541299335,1605,39981.2360767
1460,37504.5930806,0.00765370899353,1616,39999.2315554
1470,37504.5930806,0.00772940299339,1627,39992.7538741
1480,37504.5930806,0.00777430599373,1638,39957.5398223
1490,37504.5930806,0.00783246599349,1649,39988.7475008
1500,37504.5930806,0.00789960699331,1660,39999.2315554
1510,37504.5930806,0.00796845899276,1671,39999.2315554
1520,37504.5930806,0.00803046899273,1682,39999.2315554
1530,37504.5930806,0.0080805049929,1693,40005.8831708
1540,37504.5930806,0.00812797399249,1704,39999.2315554
1550,37504.5930806,0.00818570699266,1715,40032.5942567
1560,37504.5930806,0.00824728899261,1726,39860.1730124
1570,37504.5930806,0.00829347499257,1737,39999.2315554
1580,37504.5930806,0.00835377399289,1748,39975.1537642
1590,37504.5930806,0.0084286139936,1759,40035.6668443
1600,37504.5930806,0.00848891299393,1770,39911.611364
1610,37504.5930806,0.00854023099328,1781,39997.4338988
1620,37504.5930806,0.00861507099398,1792,39999.2315554
1630,37504.5930806,0.00867665299484,1803,39999.2315554
1640,37504.5930806,0.00873609699465,1814,39974.0293358
1650,37504.5930806,0.00879511299445,1825,39890.1316521
1660,37504.5930806,0.00886011599414,1836,39900.1418531
1670,37504.5930806,0.00892298099461,1847,39967.2913711
1680,37504.5930806,0.00898114099436,1858,39990.8707877
1690,37504.5930806,0.00902861099439,1869,39967.8036321
1700,37504.5930806,0.00907821899455,1880,39999.2315554
1710,37504.5930806,0.00915348599392,1891,40003.6283565
1720,37504.5930806,0.00921421199382,1902,39978.3411655
1730,37504.5930806,0.00927237199448,1913,39999.2315554
1740,37504.5930806,0.00933651999458,1924,39896.7911577
1750,37504.5930806,0.0093951089948,1935,39966.8641247
1760,37504.5930806,0.00945027599482,1946,39999.2315554
1770,37504.5930806,0.00961962599558,1957,39829.6205208
1780,37504.5930806,0.0096842019957,1968,39846.4124464
1790,37504.5930806,0.0097372309956,1979,40039.8827244
1800,37504.5930806,0.00978598299571,1990,39976.9201211
1810,37504.5930806,0.0098484209957,2001,39999.2315554
1820,37504.5930806,0.00991427899589,2012,39969.9364032
1830,37504.5930806,0.0099750049967,2023,39995.6245778
1840,37504.5930806,0.0100378699963,2034,39908.7725341
1850,37504.5930806,0.010088332996,2045,39812.4611482
1860,37504.5930806,0.0101392239967,2056,39939.7644637
1870,37504.5930806,0.0101961019973,2067,39985.4850635
1880,37504.5930806,0.0102871919971,2078,39930.3510806
1890,37504.5930806,0.0103397939965,2089,39939.3169647
1900,37504.5930806,0.0103988109968,2100,39995.3318348
1910,37504.5930806,0.010457399997,2111,39896.1378986
1920,37504.5930806,0.0105176989964,2122,40033.9130873
1930,37504.5930806,0.0105788529963,2133,39949.9581064
1940,37504.5930806,0.0106297439961,2144,39999.2315554
1950,37504.5930806,0.010682344996,2155,40020.5380244
1960,37504.5930806,0.0107439269959,2166,39913.8680577
1970,37504.5930806,0.0107948179957,2177,39892.3598968
1980,37504.5930806,0.0108448529954,2188,39907.6573545
1990,37504.5930806,0.0108983089958,2199,39845.857414
2000,37504.5930806,0.0109385079959,2210,39911.3896167
2010,37504.5930806,0.0109859769955,2221,39992.6259322
2020,37504.5930806,0.0110304529962,2232,39969.4619007
2030,37504.5930806,0.0110792049963,2243,39930.3510806
2040,37504.5930806,0.0111232529962,2254,39993.0774746
2050,37504.5930806,0.0111681569961,2265,39984.5481903
2060,37504.5930806,0.0112083569957,2276,39997.545344
2070,37504.5930806,0.0112511219959,2287,39944.4124571
2080,37504.5930806,0.0113079999965,2298,39971.7385716
2090,37504.5930806,0.0113606009963,2309,39999.2315554
2100,37504.5930806,0.0114067879958,2320,39956.307467
2110,37504.5930806,0.0114739299961,2331,39910.0328985
2120,37504.5930806,0.0115338009964,2342,39970.0959176
2130,37504.5930806,0.0115949549972,2353,39960.918134
2140,37504.5930806,0.0116445629974,2364,39993.4843087
2150,37504.5930806,0.0116975919982,2375,39968.7557067
2160,37504.5930806,0.0117540419978,2386,39989.3866476
2170,37504.5930806,0.0118169069983,2397,39999.2315554
2180,37504.5930806,0.0118725009988,2408,39958.3883044
2190,37504.5930806,0.0119246749991,2419,39999.2315554
2200,37504.5930806,0.0119725719987,2430,39861.6526351
2210,37504.5930806,0.0120208969984,2441,39982.4571937
2220,37504.5930806,0.0120743529978,2452,39999.2315554
2230,37504.5930806,0.0121752789973,2463,39983.8893084
2240,37504.5930806,0.0122342949971,2474,39949.5639299
2250,37504.5930806,0.0122920279973,2485,39906.7060157
2260,37504.5930806,0.0123544649978,2496,39995.1402433
2270,37504.5930806,0.0124198959975,2507,40031.4799437
2280,37504.5930806,0.012484042998,2518,39804.8490551
2290,37504.5930806,0.0125473349981,2529,39922.3525547
2300,37504.5930806,0.0126174699981,2540,39906.7839617
2310,37504.5930806,0.0126820449977,2551,39955.3136165
2320,37504.5930806,0.0127453379982,2562,39999.2315554
2330,37504.5930806,0.0128120519985,2573,39873.3866116
2340,37504.5930806,0.0128710679983,2584,39976.2728601
2350,37504.5930806,0.0129228139986,2595,40017.770986
2360,37504.5930806,0.0129873899987,2606,39888.2129354
2370,37504.5930806,0.0130442679992,2617,39872.035103
2380,37504.5930806,0.0131020009994,2628,39980.3815854
2390,37504.5930806,0.0131618719997,2639,39918.6943524
2400,37504.5930806,0.0132208880004,2650,39991.8712804
2410,37504.5930806,0.0132824700004,2661,39892.8583283
2420,37504.5930806,0.0133496120006,2672,40068.9057146
2430,37504.5930806,0.0134158980009,2683,39999.2315554
2440,37504.5930806,0.0134779080008,2694,39967.9156669
2450,37504.5930806,0.0135300820011,2705,39999.2315554
2460,37504.5930806,0.0135972230019,2716,39998.3091571
2470,37504.5930806,0.0136541010015,2727,39991.1304521
2480,37504.5930806,0.0137238080015,2738,39999.2315554
2490,37504.5930806,0.0137888110021,2749,39890.757171
2500,37504.5930806,0.0138478280023,2760,39855.2300582
2510,37504.5930806,0.0139055610025,2771,39862.5107251
2520,37504.5930806,0.0139641500027,2782,39939.7657841
2530,37504.5930806,0.0140248770022,2793,39959.6485072
2540,37504.5930806,0.0140838930029,2804,39981.5168556
2550,37504.5930806,0.0141454750028,2815,39849.6649485
2560,37504.5930806,0.0142062020032,2826,40025.211258
2570,37504.5930806,0.0144076270026,2837,39999.2315554
2580,37543.9564243,0.0145774050025,2848,39954.3927037
2590,37543.9564243,0.0146265850026,2859,39955.4144947
2600,37543.9564243,0.014686884002,2870,40030.6871458
2610,37543.9564243,0.0147766910022,2881,39892.1733709
2620,37543.9564243,0.014859656002,2892,39999.3324336
2630,37543.9564243,0.0149203830024,2903,39892.0019627
2640,37543.9564243,0.015007197002,2914,39999.3324336
2650,37543.9564243,0.0150700620025,2925,39999.3324336
2660,37543.9564243,0.0151303610028,2936,40028.9713197
2670,37543.9564243,0.0153826770029,2947,39940.0489365
2680,37543.9564243,0.015627722003,2958,39999.3324336
2690,37543.9564243,0.0156884490034,2969,39949.8551804
2700,37543.9564243,0.0157491750033,2980,39812.5620264
2710,37543.9564243,0.0158625030026,2991,40020.2140846
2720,37543.9564243,0.0159647120026,3002,39933.0260575
2730,37543.9564243,0.0160237280033,3013,39999.3324336
2740,37543.9564243,0.0160848830037,3024,39804.9499333
2750,37543.9564243,0.0161498860034,3035,40008.9467284
2760,37543.9564243,0.0162093300032,3046,39982.9944771
2770,37543.9564243,0.0162734770038,3057,39978.2437507
2780,37543.9564243,0.016331638004,3068,39980.2050529
2790,37543.9564243,0.0163919370043,3079,39915.1649344
2800,37543.9564243,0.0164590790037,3090,39961.0190122
2810,37560.8520331,0.0165172400039,3101,39872.4437776
2820,37560.8520331,0.0165856650037,3112,39900.7038594
2830,37560.8520331,0.0168272890032,3123,39990.9898574
2840,37560.8520331,0.016871765004,3134,39911.9437118
2850,37560.8520331,0.0169294980042,3145,39970.0141289
2860,37560.8520331,0.0169752570046,3156,39857.753989
2870,37560.8520331,0.0170201600049,3167,39996.652239
2880,37560.8520331,0.0171142430054,3178,39916.3004402
2890,37560.8520331,0.0171651330056,3189,40048.5854312
2900,37560.8520331,0.0172305640053,3200,39925.6265934
2910,37560.8520331,0.0173006990053,3211,40034.7795387
2920,37560.8520331,0.017360143006,3222,40011.381407
2930,37560.8520331,0.0174268570063,3233,39999.3506251
2940,37560.8520331,0.0174845900065,3244,39999.3506251
2950,37560.8520331,0.0175427510067,3255,40043.0491132
2960,37560.8520331,0.0176047600062,3266,40055.0079859
2970,37560.8520331,0.0176671970057,3277,39936.4947784
2980,37560.8520331,0.0177266410055,3288,39999.3506251
2990,37560.8520331,0.0177835190052,3299,40080.8722549
3000,37560.8520331,0.0178463840048,3310,39938.3989277
3010,37560.8520331,0.0179096770044,3321,39918.981183
3020,37560.8520331,0.017975536005,3332,39998.4000411
3030,37560.8520331,0.0180259990047,3343,39999.3506251
3040,37560.8520331,0.0180781730051,3354,39956.7437047
3050,37560.8520331,0.018138899005,3365,39990.5208494
3060,37560.8520331,0.0181855130049,3376,39999.3506251
3070,37560.8520331,0.0182479500045,3387,39999.3506251
3080,37560.8520331,0.0183091050039,3398,40032.6272387
3090,37560.8520331,0.0183681220042,3409,39978.1159896
3100,37560.8520331,0.0184168750038,3420,40023.4284164
3110,37560.8520331,0.0184639170038,3431,39999.3506251
3120,37560.8520331,0.0185242160042,3442,40003.5054979
3130,37560.8520331,0.0185857980041,3453,39999.3506251
3140,37560.8520331,0.018647380004,3464,39922.9410706
3150,37560.8520331,0.0187568590036,3475,39927.0343688
3160,37560.8520331,0.018817158003,3486,39991.695055
3170,37560.8520331,0.0188757470023,3497,39965.1829855
3180,37560.8520331,0.0189390400028,3508,39959.8667522
3190,37560.8520331,0.0189984830022,3519,39997.3832661
3200,37560.8520331,0.0190527950026,3530,39999.3506251
3210,37560.8520331,0.0191109560028,3541,40076.2296259
3220,37560.8520331,0.0191716830032,3552,40003.5054979
3230,37560.8520331,0.0192289880033,3563,39878.9732301
3240,37560.8520331,0.0192751750028,3574,39999.3506251
3250,37560.8520331,0.0193252100025,3585,39999.3506251
3260,37560.8520331,0.0194128780022,3596,39999.3506251
3270,37560.8520331,0.0194706110015,3607,40002.0899106
3280,37560.8520331,0.0195351860011,3618,39957.8057443
3290,37560.8520331,0.0196279860011,3629,39999.3506251
3300,37560.8520331,0.0196840080016,3640,39999.3506251
3310,37560.8520331,0.0197310500016,3651,39999.3506251
3320,37560.8520331,0.0197887830018,3662,39976.2387267
3330,37560.8520331,0.0198477990016,3673,39934.9644925
3340,37560.8520331,0.0199423100021,3684,39928.902392
3350,37560.8520331,0.0199897800021,3695,39972.6327105
3360,37560.8520331,0.020042809002,3706,39893.0638844
3370,37560.8520331,0.020088995002,3717,39951.9344121
3380,37560.8520331,0.020136037002,3728,39999.3506251
3390,37560.8520331,0.0201950530018,3739,39978.2233757
3400,37560.8520331,0.0202592010019,3750,39993.6050139
3410,37560.8520331,0.0203199280013,3761,39999.3324336
3420,37560.8520331,0.0203750950013,3772,39816.5709533
3430,37560.8520331,0.0204358220008,3783,39999.3506251
3440,37560.8520331,0.0204969760007,3794,39999.3506251
3450,37560.8520331,0.0205581310011,3805,39999.3506251
3460,37560.8520331,0.0206235620017,3816,39886.3009606
3470,37560.8520331,0.0206791560022,3827,39987.1300272
3480,37560.8520331,0.020738600002,3838,39964.5164424
3490,37560.8520331,0.0208053140022,3849,39999.3506251
3500,37560.8520331,0.020910944002,3860,39854.511972
3510,37560.8520331,0.0209720980019,3871,39991.9134804
3520,37560.8520331,0.0210473650013,3882,39999.3506251
3530,37560.8520331,0.021096118001,3893,40044.0781778
3540,37560.8520331,0.0211555610013,3904,39999.3506251
3550,37560.8520331,0.0212051690014,3915,39914.137285
3560,37560.8520331,0.0212641850012,3926,39982.6843448
3570,37560.8520331,0.0213775130014,3937,40009.195533
3580,37560.8520331,0.0214348190011,3948,39999.3506251
3590,37560.8520331,0.0214827160007,3959,40078.2918837
3600,37560.8520331,0.0215438700006,3970,39903.5300723
3610,37560.8520331,0.021604597001,3981,39999.3506251
3620,37560.8520331,0.0216554870012,3992,39999.3506251
3630,37560.8520331,0.021705950001,4003,39999.3506251
3640,37560.8520331,0.0217628280016,4014,40005.5356828
3650,37560.8520331,0.0218102980016,4025,39999.3506251
3660,37560.8520331,0.0218701690019,4036,39835.9776211
3670,37560.8520331,0.0219548440018,4047,39957.9218217
3680,37560.8520331,0.0220138600025,4058,40017.9320943
3690,37560.8520331,0.0220775800026,4069,39961.6623244
3700,37560.8520331,0.0221477150026,4080,39999.3506251
3710,37560.8520331,0.0222054490032,4091,39918.012683
3720,37560.8520331,0.0222636090029,4102,39917.5243464
3730,37560.8520331,0.0223316050033,4113,39961.9228961
3740,37560.8520331,0.0223880550029,4124,39999.3506251
3750,37560.8520331,0.0224393730032,4135,40035.785914
3760,37560.8520331,0.0225005280035,4146,39923.6282211
3770,37560.8520331,0.0225638210031,4157,39986.3233373
3780,37560.8520331,0.022623693003,4168,39960.0031855
3790,37560.8520331,0.0226809980031,4179,39862.2694175
3800,37560.8520331,0.0227391580029,4190,39933.9466841
3810,37560.8520331,0.0227913310027,4201,39957.5957405
3820,37560.8520331,0.0228546240032,4212,40019.3054715
3830,37560.8520331,0.0228991000031,4223,39950.4994802
3840,37560.8520331,0.0229585440029,4234,39983.2838113
3850,37560.8520331,0.0230149940026,4245,39910.2664869
3860,37560.8520331,0.0230628910022,4256,39989.2242501
3870,37560.8520331,0.0231184860022,4267,40032.0265382
3880,37560.8520331,0.023162534002,4278,39984.0083782
3890,37560.8520331,0.0232856980019,4289,39999.3506251
3900,37560.8520331,0.023349846002,4300,39939.9611997
3910,37560.8520331,0.0234417910015,4311,39952.5705754
3920,37560.8520331,0.023489260002,4322,39999.3506251
3930,37560.8520331,0.0235508420019,4333,39915.1831259
3940,37560.8520331,0.0236068640015,4344,39894.0544759
3950,37560.8520331,0.0236688740015,4355,40009.8949666
3960,37560.8520331,0.0237287460022,4366,39995.0341013
3970,37560.8520331,0.0237774980023,4377,39999.3506251
3980,37566.3367585,0.0238322380019,4388,39943.498037
3990,37566.3367585,0.023881846002,4399,39987.7382752
4000,37566.3367585,0.0239370130021,4410,39937.3088996
4010,37566.3367585,0.0239767850017,4421,39999.4985331
4020,37566.3367585,0.0240328080017,4432,39938.561222
4030,37566.3367585,0.0240913960024,4443,39805.1160328
4040,37566.3367585,0.0241495560022,4454,39877.623911
4050,37566.3367585,0.024201729002,4465,39999.4985331
4060,37566.3367585,0.0242846930023,4476,39921.5594252
4070,37566.3367585,0.0243488410024,4487,39978.3712837
4080,37566.3367585,0.0244074300026,4498,39900.6402696
4090,37566.3367585,0.0244643080032,4509,39999.4985331
4100,37566.3367585,0.024524180003,4520,39932.8040803
4110,37566.3367585,0.0245853340029,4531,40032.6517212
4120,37566.3367585,0.0246439230032,4542,39912.8382258
4130,37566.3367585,0.024710636003,4553,40031.8282356
4140,37566.3367585,0.0247867590024,4564,39850.8084415
4150,37566.3367585,0.0248594600025,4575,39999.4985331
4160,37566.3367585,0.0249086400017,4586,39999.4985331
4170,37566.3367585,0.0249766370016,4597,39951.3237925
4180,37566.3367585,0.0250369360019,4608,39877.5951383
4190,37566.3367585,0.0250955240017,4619,39990.6687574
4200,37566.3367585,0.0251609540019,4630,39938.6140529
4210,37566.3367585,0.0252071400018,4641,39999.4985331
4220,37566.3367585,0.0252657280016,4652,39934.1697947
4230,37566.3367585,0.0253230330018,4663,39993.0669804
4240,37566.3367585,0.0253816210015,4674,39937.7025375
4250,37566.3367585,0.0254397820017,4685,39964.2727337
4260,37566.3367585,0.0254949500013,4696,39999.4985331
4270,37566.3367585,0.0255565320012,4707,40011.3023833
4280,37566.3367585,0.0256099890012,4718,39992.8469177
4290,37566.3367585,0.0256655830017,4729,40091.203169
4300,37566.3367585,0.0257327250019,4740,39938.5468357
4310,37566.3367585,0.0257955900015,4751,39991.10034
4320,37566.3367585,0.0258524680021,4762,39999.4985331
4330,37566.3367585,0.025898226002,4773,39954.8982143
4340,37566.3367585,0.0259559590022,4784,39999.4985331
4350,37566.3367585,0.0260226730015,4795,39977.3411988
4360,37566.3367585,0.026085538002,4806,39967.2501448
4370,37566.3367585,0.026155245002,4817,39933.5169196
4380,37566.3367585,0.0262129780021,4828,39874.4612017
4390,37566.3367585,0.0262719940019,4839,39803.6526933
4400,37566.3367585,0.0263331490014,4850,39976.7201067
4410,37566.3367585,0.0263840400012,4861,39999.4985331
4420,37566.3367585,0.0264422010005,4872,39984.815168
4430,37566.3367585,0.026505066,4883,39958.2521605
4440,37566.3367585,0.0265623710002,4894,40037.3906416
4450,37566.3367585,0.0266068459996,4905,39959.8509295
4460,37566.3367585,0.026653033,4916,39983.9936759
4470,37566.3367585,0.0267030679997,4927,39910.0434278
4480,37566.3367585,0.0267629400005,4938,39983.1486806
4490,37566.3367585,0.0268211010007,4949,39950.0759083
4500,37566.3367585,0.0268749850011,4960,40011.529315
4510,37566.3367585,0.026927586001,4971,39999.4985331
4520,37566.3367585,0.0270156830011,4982,39908.496353
4530,37566.3367585,0.0270794030012,4993,39877.623911
4540,37566.3367585,0.0271439790013,5004,40029.6269814
4550,37566.3367585,0.027194442001,5015,39999.4985331
4560,37566.3367585,0.0272547410013,5026,39995.407221
4570,37566.3367585,0.0273039210015,5037,39979.0324406
4580,37566.3367585,0.0273710630017,5048,39992.1382581
4590,37566.3367585,0.0274330720013,5059,39999.4985331
4600,37566.3367585,0.0275121880013,5070,40131.4255754
4610,37566.3367585,0.0275724870016,5081,39892.6268745
4620,37566.3367585,0.0276173900011,5092,39979.5376333
4630,37566.3367585,0.0276610100009,5103,39999.4985331
4640,37566.3367585,0.0277054860007,5114,39999.4985331
4650,37566.3367585,0.0277636470009,5125,39992.8860218
4660,37566.3367585,0.027827367001,5136,39987.4677513
4670,37566.3367585,0.0278799680009,5147,39959.9762017
4680,37566.3367585,0.0282088330005,5158,39999.4985331
4690,37566.3367585,0.0282537360008,5169,39961.7380189
4700,37566.3367585,0.028296929001,5180,39999.4985331
4710,37566.3367585,0.0283520960011,5191,39950.9713915
4720,37566.3367585,0.0284474620012,5202,39882.955982
4730,37566.3367585,0.0285051950004,5213,39970.807462
4740,37566.3367585,0.0285620730001,5224,39988.9245736
4750,37566.3367585,0.0286129630003,5235,40036.2773468
4760,37566.3367585,0.0286604330004,5246,39957.4764239
4770,37566.3367585,0.0287113240011,5257,39999.4621501
4780,37566.3367585,0.0287746160011,5268,39999.4985331
4790,37566.3367585,0.0288314940008,5279,39894.6669431
4800,37566.3367585,0.0288853780012,5290,39965.763311
4810,37566.3367585,0.0289473880011,5301,39978.6986832
4820,37566.3367585,0.0290093980011,5312,39935.6181645
4830,37566.3367585,0.0290756850009,5323,39988.7093895
4840,37566.3367585,0.0291389780014,5334,39876.9687801
4850,37566.3367585,0.0292001320013,5345,39970.3514483
4860,37566.3367585,0.0292527330012,5356,39989.0274046
4870,37566.3367585,0.0293147420016,5367,39958.2590575
4880,37566.3367585,0.0293630670021,5378,39999.4985331
4890,37566.3367585,0.0294284970023,5389,39989.4432932
4900,37566.3367585,0.0294738280027,5400,39949.0337504
4910,37566.3367585,0.0295349820026,5411,39999.4985331
4920,37566.3367585,0.0295939980033,5422,39977.1870988
4930,37566.3367585,0.029659001003,5433,39908.7954009
4940,37566.3367585,0.0297128850034,5444,39954.0690296
4950,37566.3367585,0.0297719010032,5455,39868.4030689
4960,37566.3367585,0.0298343390032,5466,39989.9201968
4970,37566.3367585,0.0298890790027,5477,39999.4985331
4980,37566.3367585,0.0299369760023,5488,39875.3190847
4990,37566.3367585,0.030001551002,5499,39914.5599909
