it,funval,time,funcount,weight
0,15749.2492972,0.634618929,999,12950.6625071
10,17207.9808273,1.274841822,2100,13789.2898727
20,17933.9684304,1.874406471,3201,15539.6091653
30,18110.5880577,2.398746977,4302,16021.6100253
40,18557.383092,2.96735811,5403,15524.8842572
50,18759.0006638,3.489387579,6504,15127.9954552
60,18758.5325593,4.038083773,7605,15779.5546817
70,18693.7280661,4.62859886,8706,15171.3638152
80,19086.0510404,5.065810221,9807,15133.7441382
90,18704.4390024,5.528427158,10908,14991.708128
100,19032.4102892,5.912270859,12009,15674.5898877
110,19177.1047849,6.528081187,13110,15350.8116446
120,19247.4911105,7.062545519,14211,15924.8488925
130,19110.630041,7.611397378,15312,14647.1931982
140,19222.7142035,8.179534244,16413,14826.6619208
150,19396.3054442,8.733749725,17514,15430.457659
160,19375.276367,9.183622605,18615,15266.4470882
170,19381.33766,9.630858577,19716,15635.8737898
180,19448.0215437,10.095742074,20817,15161.5708167
190,19423.5029294,10.579495327,21918,15944.910123
200,19429.5745078,11.115961931,23019,16081.5869943
210,19423.5029294,11.637353343,24120,15914.0815946
220,19423.5029294,12.152250418,25221,15573.1107602
230,19423.5029294,12.574414384,26322,15599.1935259
240,19423.5029294,13.110573077,27423,15418.7900477
250,19436.2090683,13.564797753,28524,16260.4552839
260,19442.6769969,14.122236455,29625,15785.5817512
270,19423.5029294,14.631821226,30726,15559.4351573
280,19428.8959909,15.158516817,31827,15969.5701825
290,19430.9366283,15.624412996,32928,15851.1189521
300,19423.5029294,16.073132069,34029,15771.9902613
310,19423.5029294,16.57702093,35130,15153.4644897
320,19452.7736631,17.037738232,36231,15988.3442167
330,19433.5647603,17.481591471,37332,15736.6827527
340,19431.1762764,18.068039579,38433,15305.3611443
350,19423.5029294,18.594516638,39534,15368.2218706
360,19430.759737,19.016922228,40635,15912.9322068
370,19427.4789043,19.521720707,41736,15710.2295374
380,19423.5029294,20.006445587,42837,15610.0116467
390,19423.5029294,20.426904929,43938,15523.020755
400,19423.5029294,20.890449016,45039,15702.8350721
410,19432.394929,21.299850537,46140,15357.8927435
420,19423.5029294,21.731067488,47241,15904.3472958
430,19423.7706836,22.136223699,48342,15927.3223951
440,19423.5029294,22.534286432,49443,15916.5341248
450,19435.0307617,22.986308268,50544,15404.8638018
460,19423.5029294,23.485266719,51645,15744.7463979
470,19423.5029294,23.962294274,52746,15445.4009005
480,19423.5029294,24.440834866,53847,16133.0603743
490,19423.5029294,24.848704962,54948,15344.4082877
500,19430.759737,25.220233543,56049,13681.6747447
510,19423.5029294,25.622072022,57150,15894.2114904
520,19423.5029294,26.127575273,58251,16024.3648596
530,19441.1071321,26.605791276,59352,15034.6436534
540,19423.5029294,27.078216432,60453,15905.3767341
550,19423.5029294,27.564610013,61554,15830.5857587
560,19423.5029294,27.959087304,62655,15617.0771598
570,19471.7314125,28.440004791,63756,15489.0850813
580,19423.5029294,28.870849683,64857,15983.7655881
590,19423.5029294,29.305768824,65958,14841.840151
600,19423.5029294,29.740255181,67059,15842.4129437
610,19433.478416,30.164103672,68160,15899.654653
620,19423.5029294,30.591212588,69261,15977.5092298
630,19448.5350972,31.078868601,70362,15500.8730299
640,19434.8469983,31.530615029,71463,15902.0375674
650,19423.5029294,32.031891359,72564,15957.38129
660,19423.5029294,32.475687719,73665,15886.0712494
670,19424.2135032,32.931005476,74766,15875.2001821
680,19430.3537466,33.355926093,75867,15850.6710086
690,19448.5350972,33.860495778,76968,15916.6001165
700,19448.9152071,34.362289141,78069,15092.1237534
710,19439.5772026,34.858886948,79170,15776.9181408
720,19423.5029294,35.329829858,80271,15577.3427144
730,19423.5029294,35.77561737,81372,15839.3958174
740,19423.5029294,36.209106012,82473,15988.3442167
750,19423.5029294,36.641330513,83574,15926.1373731
760,19423.5029294,37.208216922,84675,15210.4960986
770,19430.6678497,37.652187765,85776,15896.0639432
780,19426.3736692,38.128100858,86877,14728.6545371
790,19461.2868485,38.629987877,87978,15722.222911
800,19423.5029294,39.114759799,89079,15605.8028545
810,19447.5250779,39.537790618,90180,15988.3442167
820,19436.3552079,39.961583086,91281,15911.3721728
830,19452.7736631,40.410661387,92382,15774.8366417
840,19423.5029294,40.841960875,93483,15803.9548891
850,19428.8122557,41.310586762,94584,15988.3442167
860,19447.5250779,41.814432858,95685,15847.848484
870,19423.5029294,42.291402253,96786,15952.5881117
880,19444.4666415,42.679490837,97887,15401.306693
890,19448.9152071,43.116526005,98988,15924.4677641
900,19448.5350972,43.532415448,100089,15796.100147
910,19442.5722636,43.976738677,101190,15955.6231857
920,19423.5029294,44.463760909,102291,14902.4956343
930,19423.5029294,44.931067914,103392,16012.5701002
940,19423.5029294,45.378888488,104493,16023.9621761
950,19423.5029294,45.813052822,105594,15761.5958718
960,19423.5029294,46.295696743,106695,15947.9797918
970,19423.5029294,46.752876929,107796,15332.7961646
980,19423.5029294,47.226690674,108897,15747.9636269
990,19423.5029294,47.63470104,109998,15698.1320316
1000,19471.7210484,48.090562771,111099,15484.0176242
1010,19438.3217125,48.480625829,112200,15449.7128797
1020,19423.5029294,48.8690467,113301,15684.8600045
1030,19423.5029294,49.31792657,114402,15706.0917702
1040,19423.5029294,49.77532101,115503,15892.1284184
1050,19423.5029294,50.200505489,116604,15726.044752
1060,19423.5029294,50.65622524,117705,15945.8130934
1070,19423.5029294,51.087089377,118806,15898.6993411
1080,19471.7314125,51.559933205,119907,15799.2941862
1090,19423.5029294,52.003682951,121008,14908.9774705
1100,19425.7071308,52.435354924,122109,16024.0037218
1110,19423.5029294,52.932101555,123210,15733.2461714
1120,19423.5029294,53.395110649,124311,15935.0810055
1130,19423.5029294,53.918831913,125412,13803.5485423
1140,19424.2135032,54.387397929,126513,15535.4036743
1150,19423.5029294,54.824805155,127614,15946.3598514
1160,19423.5029294,55.289973468,128715,15874.6404725
1170,19423.5029294,55.814135643,129816,15778.2099966
1180,19423.5029294,56.267108152,130917,15786.8029291
1190,19423.5029294,56.760913814,132018,15711.2125169
1200,19489.3009766,57.35750927,133119,14858.386945
1210,19437.2107636,57.894660974,134220,15813.3844966
1220,19452.7736631,58.319898482,135321,16035.167547
1230,19423.5029294,58.86406968,136422,15651.2143041
1240,19423.5029294,59.343041773,137523,16014.7008178
1250,19462.6298774,59.936185641,138624,15452.3103724
1260,19423.5029294,60.512620257,139725,15510.4397234
1270,19435.4057399,60.98098271,140826,16075.9157689
1280,19423.5029294,61.428942699,141927,15813.757659
1290,19423.5029294,61.941902079,143028,15410.5433373
1300,19455.4400901,62.445175976,144129,15975.417863
1310,19423.5029294,63.026620545,145230,15722.4777171
1320,19423.5029294,63.531725652,146331,14851.2350211
1330,19423.5029294,63.997983625,147432,15970.5865908
1340,19423.5029294,64.52436489,148533,15894.8820228
1350,19437.422003,64.960724794,149634,15755.7982341
1360,19430.759737,65.41597883,150735,16029.6449398
1370,19423.5029294,65.940864165,151836,15593.1056729
1380,19450.7453456,66.461616663,152937,15771.5794257
1390,19423.5029294,67.019791355,154038,14569.7822044
1400,19425.183244,67.570592028,155139,16002.3193822
1410,19423.5029294,68.088029361,156240,15939.6325303
1420,19423.5029294,68.631771624,157341,15296.550259
1430,19446.9666176,69.143240205,158442,15666.932323
1440,19423.5029294,69.643351609,159543,15989.5435875
1450,19484.1076502,70.116745826,160644,15598.4315852
1460,19423.5029294,70.644997645,161745,15554.3735313
1470,19423.5029294,71.125050417,162846,15952.9323382
1480,19444.4666415,71.581095611,163947,15840.116892
1490,19423.5029294,72.019415876,165048,15350.2502896
1500,19423.5029294,72.439672938,166149,15471.1670614
1510,19436.4470723,72.888818809,167250,15934.3759286
1520,19423.5029294,73.338126332,168351,15774.8719937
1530,19425.637397,73.767004021,169452,15992.1841519
1540,19423.5029294,74.168005584,170553,14937.9039249
1550,19423.5029294,74.625062178,171654,15793.0982645
1560,19423.5029294,75.08975879,172755,15811.0444089
1570,19423.5029294,75.532025008,173856,15077.2328468
1580,19423.5029294,75.992968111,174957,15919.4516173
1590,19423.5029294,76.450952283,176058,15821.0378495
1600,19423.5029294,76.913266869,177159,15851.155833
1610,19423.728299,77.392949294,178260,15949.7839159
1620,19423.5029294,77.806104324,179361,15341.1361011
1630,19430.759737,78.242465939,180462,15924.8920317
1640,19423.7706836,78.647219301,181563,15969.6242755
1650,19423.7706836,79.068801231,182664,15961.5241139
1660,19430.1102463,79.472899001,183765,15019.4989386
1670,19423.5029294,79.845354733,184866,16087.1756378
1680,19423.5029294,80.357717109,185967,16025.5768712
1690,19423.5029294,80.811833589,187068,15793.8918238
1700,19448.9152071,81.30338723,188169,15931.7888727
1710,19423.5029294,81.805225068,189270,15862.2874624
1720,19447.8806003,82.193411157,190371,15568.9822775
1730,19441.4662793,82.650399754,191472,15146.5296984
1740,19431.310779,83.084622249,192573,15863.0704407
1750,19423.5029294,83.512979057,193674,15145.4663013
1760,19423.5029294,83.940400588,194775,15754.9154832
1770,19423.5029294,84.392662337,195876,15696.760912
1780,19423.5029294,84.844949746,196977,15812.3474995
1790,19423.5029294,85.253939865,198078,15275.4793374
1800,19410.3546473,85.649617577,199179,15223.2540207
1810,19425.0764767,86.070360025,200280,15692.7884069
1820,19423.5029294,86.454173363,201381,14829.1701303
1830,19440.4527634,86.920342384,202482,15113.0606464
1840,19447.1299021,87.397900658,203583,15988.3442167
1850,19436.4188299,87.864150078,204684,15640.0647053
1860,19427.1376911,88.298842564,205785,16038.0732958
1870,19483.9349285,88.702728645,206886,15869.5084651
1880,19423.5029294,89.165010301,207987,15857.0391483
1890,19471.7314125,89.631977322,209088,15678.0425346
1900,19450.2998879,90.101582535,210189,15988.3442167
1910,19423.5029294,90.55690072,211290,15736.543505
1920,19423.5029294,91.019447949,212391,15856.1469184
1930,19452.7736631,91.410102878,213492,15988.3442167
1940,19423.5029294,91.827013128,214593,15564.5492546
1950,19428.8100804,92.283291821,215694,15793.2964973
1960,19425.7654973,92.714487389,216795,13359.0212413
1970,19423.5029294,93.106674598,217896,15627.8901965
1980,19424.2135032,93.575367627,218997,15711.534689
1990,19423.5029294,94.002837055,220098,15836.2047841
2000,19423.5029294,94.443713401,221199,15954.7463997
2010,19423.5029294,94.929577976,222300,15117.204089
2020,19423.5029294,95.371089815,223401,15711.215208
2030,19434.2342667,95.828080977,224502,15883.4981804
2040,19431.6012591,96.300636566,225603,15350.540491
2050,19427.4848283,96.726136653,226704,15988.3442167
2060,19471.7314125,97.1143685,227805,15789.860322
2070,19423.5029294,97.551845006,228906,15545.3383017
2080,19423.5029294,97.984134937,230007,15626.2215976
2090,19423.5029294,98.427988175,231108,15994.8041074
2100,19428.5943174,98.886129723,232209,16130.4971634
2110,19423.5029294,99.386864644,233310,15906.8820401
2120,19423.5029294,99.820869464,234411,15912.857045
2130,19437.2727303,100.267691896,235512,15894.494935
2140,19423.7706836,100.708412576,236613,15971.6208404
2150,19423.5029294,101.104882729,237714,15988.3442167
2160,19423.5029294,101.576050585,238815,15594.6596422
2170,19439.6308802,102.036991977,239916,15947.87601
2180,19461.6213459,102.489900765,241017,15870.0639377
2190,19423.5029294,102.915806694,242118,16035.4591657
2200,19423.5029294,103.367049346,243219,15666.5144515
2210,19447.3173658,103.873398923,244320,15632.0609132
2220,19434.2630317,104.348164622,245421,15442.15178
2230,19436.3390991,104.970043344,246522,15276.0073387
2240,19423.5029294,105.586209906,247623,15900.4318538
2250,19423.5029294,106.052623544,248724,15968.20841
2260,19451.1278861,106.43518728,249825,13698.1182267
2270,19423.5029294,106.888793142,250926,15531.0177478
2280,19423.5029294,107.356331936,252027,14993.2506647
2290,19399.3827529,107.834220357,253128,15926.9191535
2300,19396.242229,108.295384129,254229,15590.1363438
2310,19448.9152071,108.733803609,255330,15967.0991887
2320,19447.5250779,109.152333381,256431,15402.1258591
2330,19423.5029294,109.605179304,257532,15585.1698438
2340,19423.5029294,110.144890937,258633,15422.1755265
2350,19423.5029294,110.616583523,259734,15817.8940406
2360,19423.5029294,111.028852029,260835,16115.2951414
2370,19423.5029294,111.475918651,261936,15355.2323673
2380,19423.5029294,111.927671921,263037,15914.8403399
2390,19448.3705403,112.306532611,264138,15708.0745653
2400,19423.5029294,112.816291864,265239,15124.1650955
2410,19479.7845468,113.335196901,266340,15897.6946406
2420,19423.5029294,113.806551642,267441,15893.3916458
2430,19423.5029294,114.256501927,268542,15759.5966597
2440,19425.1170259,114.70104668,269643,12303.9919617
2450,19451.5530144,115.103866195,270744,15582.8112052
2460,19427.5176746,115.54291518,271845,15830.9002172
2470,19444.8944338,116.001686662,272946,15979.1400033
2480,19452.7736631,116.45709166,274047,15922.2125716
2490,19440.098669,116.90603354,275148,15921.6789022
2500,19423.5029294,117.334717074,276249,15876.1047569
2510,19423.5029294,117.778209801,277350,16103.0983267
2520,19423.5029294,118.203357502,278451,15704.9550327
2530,19438.5253069,118.639093033,279552,15853.905285
2540,19423.5029294,119.087980601,280653,15679.5968107
2550,19423.5029294,119.554901864,281754,15870.6028214
2560,19426.6888978,120.001215817,282855,15991.9350829
2570,19423.5029294,120.449366111,283956,15789.7301662
2580,19423.5029294,120.848105818,285057,15488.4307303
2590,19463.9390877,121.322501598,286158,15382.598346
2600,19423.5029294,121.744816098,287259,15955.5840119
2610,19437.9149192,122.264419066,288360,15692.2563546
2620,19423.5029294,122.841237714,289461,15995.4707228
2630,19423.5029294,123.375633195,290562,15886.4759518
2640,19423.7706836,123.826087256,291663,14650.2358533
2650,19423.5029294,124.234275526,292764,15790.5610465
2660,19423.5029294,124.712987178,293865,15809.3000238
2670,19423.5029294,125.14349337,294966,15442.6900095
2680,19423.5029294,125.61567904,296067,15349.3874468
2690,19423.5029294,126.038442576,297168,15733.5386804
2700,19423.5029294,126.492943516,298269,15268.654823
2710,19454.3457213,126.947179311,299370,15669.6691028
2720,19470.1233173,127.39675711,300471,15988.3442167
2730,19444.4666415,127.843185246,301572,15684.314166
2740,19423.5029294,128.308839801,302673,15148.3040497
2750,19423.5029294,128.816654516,303774,15957.0805247
2760,19423.5029294,129.300447113,304875,15694.405928
2770,19423.5029294,129.745259148,305976,16036.1173938
2780,19471.6386567,130.133038112,307077,15933.5234456
2790,19423.5029294,130.593716498,308178,15733.964757
2800,19431.2286067,131.109137447,309279,15846.9357786
2810,19442.7993383,131.560749592,310380,16047.5574643
2820,19470.640444,131.970707061,311481,15664.1072
2830,19455.5624211,132.383697872,312582,15531.6623712
2840,19461.9423814,132.817183949,313683,15717.7609698
2850,19513.719634,133.268021186,314784,15544.0867711
2860,19475.1323457,133.729114823,315885,15780.1263746
2870,19441.0558847,134.214190378,316986,15707.0191453
2880,19493.1770448,134.673795355,318087,15750.6124435
2890,19468.5965441,135.164110941,319188,15968.0724625
2900,19468.3456874,135.684015404,320289,15813.9832919
2910,19451.9383916,136.083417118,321390,15685.4260589
2920,19473.3795109,136.595002448,322491,14916.7102467
2930,19421.4358283,137.035877511,323592,15527.1991691
2940,19464.3562638,137.461076102,324693,15508.5314152
2950,19448.0316249,137.860964057,325794,15423.5610109
2960,19507.0453212,138.295780135,326895,15784.2474917
2970,19458.4780603,138.749856843,327996,15471.7245971
2980,19447.6367127,139.176904605,329097,15806.4572903
2990,19465.7939708,139.611980267,330198,15853.811649
3000,19495.8069729,140.003764627,331299,15371.4051699
3010,19486.9839265,140.446578669,332400,14330.5426452
3020,19470.640444,140.906753707,333501,15824.8153667
3030,19465.3928159,141.43017818,334602,15868.6119662
3040,19450.0346233,141.862972742,335703,15586.1964001
3050,19452.2571016,142.299187244,336804,15767.1604536
3060,19461.5856921,142.706460765,337905,15827.9911434
3070,19452.7367161,143.138266594,339006,15830.9627715
3080,19455.8986342,143.574984016,340107,15438.3710644
3090,19440.053664,144.036373588,341208,15802.0358791
3100,19473.397554,144.4770267,342309,15736.0656372
3110,19481.4824549,144.889598839,343410,15563.8995924
3120,19493.8667647,145.368714197,344511,14280.0957952
3130,19437.4840423,145.851746427,345612,15963.2734685
3140,19464.6075085,146.315615959,346713,15808.7043306
3150,19496.2630715,146.784389387,347814,15363.425502
3160,19453.2445461,147.237848992,348915,15516.8212906
3170,19530.0164595,147.66312114,350016,15822.4828073
3180,19519.0678553,148.079967671,351117,15876.0775825
3190,19465.180035,148.536322486,352218,15008.8210181
3200,19441.1103491,148.97570718,353319,15588.5534085
3210,19445.0644844,149.437527399,354420,15855.1461356
3220,19445.7922386,149.949093913,355521,15429.9749479
3230,19457.6705558,150.41160137,356622,15886.3593915
3240,19449.9381845,150.892426056,357723,15565.1764575
3250,19464.9769608,151.330349887,358824,15709.8277581
3260,19423.4142423,151.785039849,359925,15883.5613016
3270,19477.2936671,152.314962936,361026,15508.86878
3280,19441.1247883,152.84223372,362127,15807.2852978
3290,19452.8724089,153.336186922,363228,15583.0670389
3300,19474.3504579,153.930570984,364329,15864.4420473
3310,19489.1995959,154.311871006,365430,15692.1867431
3320,19474.6481622,154.834229769,366531,16224.2452271
3330,19473.1543098,155.268778136,367632,15703.6858836
3340,19466.8354174,155.777081231,368733,16026.8580546
3350,19466.2027279,156.232726998,369834,15602.8228882
3360,19471.4072043,156.697066948,370935,15883.8428405
3370,19455.8986342,157.181582279,372036,15772.8292106
3380,19461.0888798,157.583947627,373137,15772.9999978
3390,19472.7484025,158.097427888,374238,14234.5375818
3400,19469.7110119,158.563794912,375339,15290.218668
3410,19452.0790408,159.049252789,376440,15503.9085991
3420,19452.2949881,159.481118489,377541,15864.4420473
3430,19423.0720287,159.938264462,378642,14121.8039188
3440,19527.1948795,160.416469774,379743,15961.9894686
3450,19470.77998,160.840302442,380844,15666.7866523
3460,19479.1484513,161.28691062,381945,15919.2451273
3470,19492.7684321,161.742218541,383046,15972.4869748
3480,19533.6711163,162.167385486,384147,15066.3440037
3490,19511.1485074,162.61251655,385248,15932.0639203
3500,19481.9619285,163.048989782,386349,15784.222529
3510,19480.4466489,163.444877044,387450,15872.8468267
3520,19519.008463,163.914062301,388551,15932.0639203
3530,19508.8983964,164.373853734,389652,15715.3434306
3540,19518.5604404,164.878750573,390753,15970.5156677
3550,19493.300506,165.355306,391854,15233.0997381
3560,19496.2550403,165.792010592,392955,15881.0722867
3570,19470.77998,166.248109243,394056,15647.3470712
3580,19508.7303961,166.645593789,395157,13357.0964564
3590,19513.1079685,167.101463218,396258,15804.1178385
3600,19505.7545074,167.580732102,397359,15901.6795113
3610,19513.6047808,168.057729294,398460,15781.1075883
3620,19470.77998,168.514447614,399561,15994.0275622
3630,19478.0367875,168.99053861,400662,15088.5188477
3640,19547.4495173,169.430318882,401763,15591.9948692
3650,19556.1187894,169.893145796,402864,14214.6132007
3660,19535.9439698,170.387469345,403965,14643.7042026
3670,19523.4262929,170.855009849,405066,15605.6885363
3680,19520.8965462,171.386578544,406167,15494.2817563
3690,19495.6978064,171.840667226,407268,15873.8682705
3700,19504.3611548,172.306896119,408369,15876.753713
3710,19542.0536664,172.697631447,409470,15837.6033685
3720,19529.9399751,173.159177113,410571,15717.2775094
3730,19513.9614701,173.635299328,411672,15825.9794827
3740,19497.4613754,174.16902211,412773,15994.3702966
3750,19513.9614701,174.676962983,413874,15470.0848775
3760,19486.7818235,175.181454407,414975,15340.036882
3770,19497.4556736,175.744143831,416076,15823.3136904
3780,19504.3885679,176.19210553,417177,15849.4722199
3790,19534.4144817,176.663606527,418278,15900.7492454
3800,19512.7789007,177.165387915,419379,16023.1253871
3810,19485.9582474,177.660662137,420480,15760.3548048
3820,19508.8007826,178.153506007,421581,15991.4752953
3830,19487.219901,178.646111674,422682,15881.4755389
3840,19510.3304349,179.133972533,423783,15848.5930536
3850,19513.6047808,179.571693656,424884,15677.5518334
3860,19515.1407462,180.086669419,425985,15808.2528422
3870,19477.519302,180.596409427,427086,15482.6199246
3880,19494.8588622,181.083830659,428187,15848.3710734
3890,19505.2636348,181.588750164,429288,15604.0044348
3900,19512.7632956,182.149700751,430389,15846.9508537
3910,19505.5247376,182.680798601,431490,15616.3649583
3920,19522.6595327,183.145358365,432591,15654.3643458
3930,19510.0793486,183.651738305,433692,16001.2156445
3940,19470.77998,184.105536183,434793,15604.9729519
3950,19506.5717209,184.537114928,435894,15584.5413509
3960,19470.77998,184.970234933,436995,15394.8113812
3970,19517.0558087,185.478753137,438096,15934.1789396
3980,19547.0837934,185.925327959,439197,15738.0991063
3990,19519.7086727,186.382848556,440298,15741.1675533
4000,19533.9251352,186.810514705,441399,15909.6718921
4010,19492.9839166,187.253021691,442500,15783.0061139
4020,19511.5102082,187.737306089,443601,15695.276337
4030,19518.2104757,188.182511566,444702,15817.1603112
4040,19499.156797,188.669767724,445803,16018.0605614
4050,19493.9692403,189.100462938,446904,15932.0639203
4060,19533.6711163,189.52945481,448005,15375.6184232
4070,19508.8983964,189.981469803,449106,15751.6223612
4080,19500.7115032,190.464884355,450207,15719.2539861
4090,19512.7789007,190.889426927,451308,15932.0639203
4100,19540.4279494,191.336989199,452409,14084.5795648
4110,19496.1782144,191.782269087,453510,15893.1046908
4120,19492.5699657,192.177604249,454611,15787.6052201
4130,19519.008463,192.628310197,455712,15888.7510822
4140,19529.0767945,193.061287794,456813,15561.723903
4150,19517.046043,193.50147904,457914,15845.1957329
4160,19495.6978064,193.970171641,459015,15777.9221702
4170,19491.1869639,194.393989341,460116,15287.0123223
4180,19539.0030152,194.816710111,461217,15908.2628758
4190,19512.7074042,195.252661179,462318,15693.9147641
4200,19505.2636348,195.711306931,463419,15655.3577232
4210,19482.3865063,196.140391604,464520,15578.7220557
4220,19470.77998,196.601291086,465621,15850.6671043
4230,19530.2828508,197.045053661,466722,15813.0801842
4240,19504.7558048,197.465459546,467823,15842.8925234
4250,19493.9895518,197.872921234,468924,15902.5038656
4260,19501.9572732,198.336179222,470025,15896.3623535
4270,19496.2550403,198.749528835,471126,15959.3183623
4280,19495.6566824,199.185572704,472227,15895.4856512
4290,19486.3686266,199.636932533,473328,15843.5127939
4300,19534.3799645,200.095136519,474429,15070.7390025
4310,19505.2636348,200.509408152,475530,15863.6469713
4320,19514.0937121,200.945738976,476631,15980.2161047
4330,19503.5119794,201.369684116,477732,15989.8409225
4340,19496.1922576,201.80059615,478833,15897.3861852
4350,19503.3242999,202.217899842,479934,15227.5166804
4360,19504.8914976,202.618603758,481035,15910.1366087
4370,19510.497149,203.052211715,482136,15918.3717163
4380,19484.7424235,203.43228865,483237,15932.0639203
4390,19498.3664757,203.866547923,484338,15656.4917138
4400,19513.6047808,204.324000096,485439,15466.3059316
4410,19507.9177229,204.77570162,486540,15760.2137466
4420,19533.6711163,205.258027795,487641,15493.1386377
4430,19492.8025576,205.68234756,488742,15818.6763458
4440,19476.1508587,206.095810073,489843,15871.2951023
4450,19511.7469117,206.492942233,490944,15629.0283734
4460,19495.5127781,206.906293557,492045,15562.4855101
4470,19539.0030152,207.344151957,493146,15644.6259953
4480,19493.300506,207.79552932,494247,15644.2682072
4490,19530.690891,208.215905697,495348,15689.7715464
4500,19486.0954746,208.650433964,496449,15932.0639203
4510,19520.0450041,209.062067833,497550,15980.2949125
4520,19513.1079685,209.520914154,498651,15756.2755668
4530,19520.6814031,209.944383745,499752,15932.0639203
4540,19509.6896445,210.382408502,500853,15686.454777
4550,19480.0474544,210.784385541,501954,15988.6735989
4560,19493.300506,211.220499972,503055,15880.4259113
4570,19538.7309149,211.644873621,504156,15258.2550576
4580,19485.055194,212.034782296,505257,15433.6010721
4590,19487.2890358,212.468212778,506358,15350.6710292
4600,19494.8588622,212.888480959,507459,15534.3736635
4610,19500.3636577,213.314058023,508560,15753.4101957
4620,19516.9960495,213.73218238,509661,15815.2065567
4630,19543.2322037,214.196819549,510762,15797.3822164
4640,19496.7197563,214.620858346,511863,15738.0489564
4650,19497.1556803,215.017522226,512964,15677.3680386
4660,19542.0388749,215.449340029,514065,15949.4977096
4670,19480.8483114,215.856347977,515166,15817.0354004
4680,19513.6047808,216.29892852,516267,15551.0270487
4690,19525.4152241,216.752737945,517368,15907.4478243
4700,19476.9388354,217.222662614,518469,15908.7898867
4710,19503.5119794,217.607880364,519570,15704.4021351
4720,19526.0778567,218.069698017,520671,15782.6908541
4730,19497.13016,218.595839797,521772,15443.9736306
4740,19497.1442472,219.049538032,522873,15885.2563096
4750,19519.7086727,219.506911944,523974,15577.7554387
4760,19479.7529288,219.921776731,525075,15394.1063804
4770,19502.6113975,220.358185815,526176,15637.0598484
4780,19520.6814031,220.720971888,527277,15569.177328
4790,19516.747047,221.17701922,528378,15383.2264931
4800,19513.6047808,221.6549333,529479,15503.9214683
4810,19493.9570353,222.136831394,530580,15966.7836141
4820,19483.9334686,222.612312557,531681,15798.5684553
4830,19508.8983964,223.064394692,532782,15757.6543881
4840,19470.77998,223.452260041,533883,15671.9089014
4850,19516.3021704,223.914709337,534984,14923.9482017
4860,19531.2622934,224.31570534,536085,15781.8081829
4870,19499.823,224.760515665,537186,14845.4238539
4880,19535.916976,225.218082876,538287,15727.9452458
4890,19470.77998,225.673135488,539388,15726.8993873
4900,19493.300506,226.092884498,540489,15709.755766
4910,19530.8227876,226.496528101,541590,13678.4630657
4920,19495.7306915,226.900729363,542691,15962.6200084
4930,19470.77998,227.329567708,543792,15895.3677953
4940,19473.5026482,227.823554694,544893,15437.868425
4950,19504.3140768,228.257881109,545994,15932.0639203
4960,19528.5316229,228.735198614,547095,15922.1138699
4970,19518.4280209,229.152456547,548196,15758.6175497
4980,19505.2636348,229.541320894,549297,15935.1625575
4990,19554.283487,230.014894726,550398,15922.5013643
