it,funval,time,funcount,weight
0,16395.0982028,0.569007567,999,13114.9164285
10,17747.9050753,1.038289046,2100,16130.6256051
20,18180.6085712,1.520980009,3201,16184.309397
30,18336.4519933,1.984054534,4302,15848.7753516
40,18449.6923235,2.381684909,5403,15910.3689626
50,18507.989914,2.73482185,6504,15956.8915888
60,18447.1786258,3.081518765,7605,15770.0922758
70,18463.6422453,3.504430697,8706,15956.8915888
80,18442.2612796,3.91454426,9807,15956.8915888
90,18501.8623429,4.242636993,10908,15956.8915888
100,18453.9900169,4.646792068,12009,14998.7941194
110,18450.660018,5.086627935,13110,15956.8915888
120,18452.0932211,5.45895922,14211,15767.0135113
130,18417.6594009,5.809701733,15312,15862.3011689
140,18488.7016244,6.18794532,16413,15956.8915888
150,18463.4524807,6.53742754,17514,15956.8915888
160,18462.7685775,6.968220259,18615,15933.6923593
170,18453.8067945,7.329359869,19716,15984.5474163
180,18474.9530952,7.745029926,20817,15843.8004612
190,18446.0431696,8.158693436,21918,15984.5474163
200,18461.3211302,8.524052269,23019,15984.5474163
210,18459.3843779,8.880846925,24120,15990.9414779
220,18471.6000265,9.329370133,25221,15981.9077514
230,18457.3572098,9.69125899,26322,15984.5474163
240,18464.1017943,10.079061474,27423,15901.6038299
250,18432.6522929,10.411234443,28524,15984.5474163
260,18467.5729488,10.732908105,29625,15984.5474163
270,18464.6455159,11.158148179,30726,15984.5474163
280,18432.6522929,11.471238848,31827,15949.1984136
290,18465.2355387,11.822778933,32928,15897.972378
300,18459.070337,12.246530774,34029,15984.5474163
310,18492.4627867,12.64900389,35130,15910.9489826
320,18467.5729488,13.010749484,36231,15984.5474163
330,18447.2719947,13.377271532,37332,15984.5474163
340,18432.920047,13.757481895,38433,15984.5474163
350,18433.4546123,14.126786681,39534,15984.5474163
360,18522.1679852,14.477942734,40635,15984.5474163
370,18432.6522929,14.833206821,41736,15666.8776039
380,18479.373033,15.297120828,42837,15984.5474163
390,18432.6522929,15.706736603,43938,15984.5474163
400,18446.3576957,16.131408754,45039,15984.5474163
410,18458.8427848,16.546211958,46140,14429.1911202
420,18433.1878012,16.920712726,47241,15984.5474163
430,18432.6522929,17.258884809,48342,15984.5474163
440,18432.6522929,17.56704464,49443,15984.5474163
450,18468.3244885,17.959899415,50544,15984.5474163
460,18432.6522929,18.332642103,51645,15984.5474163
470,18453.8067945,18.743187596,52746,15984.5474163
480,18473.7473624,19.117979597,53847,15984.5474163
490,18432.6522929,19.53103755,54948,15907.9429637
500,18471.6000265,19.898208348,56049,15984.5474163
510,18457.9522147,20.282035371,57150,15811.8030101
520,18439.5049943,20.697551901,58251,15984.5474163
530,18441.3824568,21.122695325,59352,15984.5474163
540,18473.7473624,21.575851724,60453,15984.5474163
550,18432.6522929,21.99188828,61554,15984.5474163
560,18447.0902036,22.362554713,62655,15997.1945117
570,18457.3572098,22.736561542,63756,15840.8514345
580,18554.0508568,23.123498884,64857,15984.5474163
590,18439.0923273,23.482247914,65958,15971.7592932
600,18453.5066688,23.86877471,67059,15984.5474163
610,18447.1918403,24.253569512,68160,15984.5474163
620,18453.8067945,24.638740648,69261,15984.5474163
630,18437.6717982,25.049679581,70362,15984.5474163
640,18468.0524258,25.381952192,71463,15984.5474163
650,18432.6522929,25.771460583,72564,15984.5474163
660,18459.3843779,26.204151653,73665,15984.5474163
670,18452.7469487,26.599577477,74766,15984.5474163
680,18460.6617005,27.054318758,75867,15984.5474163
690,18432.6522929,27.433056284,76968,15964.4120112
700,18432.6522929,27.898796797,78069,15952.3611433
710,18459.3843779,28.235893761,79170,15984.5474163
720,18462.9935967,28.60345971,80271,15984.5474163
730,18459.070337,28.989364698,81372,15945.5312615
740,18465.2355387,29.418260776,82473,15984.5474163
750,18475.8361528,29.838208217,83574,15984.5474163
760,18461.9230265,30.288008396,84675,15984.5474163
770,18446.0431696,30.677252498,85776,15984.5474163
780,18464.1074154,31.004796124,86877,15984.5474163
790,18446.3576957,31.446881017,87978,15984.5474163
800,18446.3587805,31.754484044,89079,15984.5474163
810,18473.7473624,32.157624726,90180,15984.5474163
820,18447.1918403,32.587104978,91281,15918.7448376
830,18474.8833619,32.922502021,92382,15766.0088341
840,18446.57223,33.29111401,93483,15984.5474163
850,18464.8032391,33.661165478,94584,15984.5474163
860,18475.8361528,34.086018954,95685,15984.5474163
870,18436.5596884,34.505263761,96786,15984.5474163
880,18433.4546123,34.880553122,97887,15984.5474163
890,18444.1509771,35.240919963,98988,15984.5474163
900,18452.7469487,35.56571592,100089,15984.5474163
910,18458.8427848,35.945083806,101190,15984.5474163
920,18437.6402927,36.287035486,102291,16024.9569242
930,18467.5729488,36.650894968,103392,15859.8985544
940,18471.6000265,37.055983609,104493,15984.5474163
950,18439.5049943,37.432438324,105594,15956.8915888
960,18432.6522929,37.833650292,106695,15984.5474163
970,18473.7473624,38.214095436,107796,15984.5474163
980,18459.3843779,38.633689636,108897,15984.5474163
990,18457.3572098,39.079670019,109998,15897.5110602
1000,18458.8427848,39.431103191,111099,15936.3103883
1010,18446.0431696,39.81582743,112200,15984.5474163
1020,18432.6522929,40.239314982,113301,15984.5474163
1030,18437.5470451,40.571076548,114402,15984.5474163
1040,18464.1017943,40.975229058,115503,15984.5474163
1050,18471.6000265,41.372031925,116604,15984.5474163
1060,18459.3843779,41.729888871,117705,15984.5474163
1070,18475.8361528,42.105617859,118806,15940.7616402
1080,18457.6844606,42.504146733,119907,15984.5474163
1090,18432.6522929,42.946149517,121008,15896.8054196
1100,18432.6522929,43.273287728,122109,15971.4040651
1110,18475.8361528,43.69513908,123210,15515.3781851
1120,18457.3572098,44.052447775,124311,15984.5474163
1130,18457.6844606,44.433405675,125412,15984.5474163
1140,18467.5729488,44.809220193,126513,15984.5474163
1150,18471.6000265,45.162688137,127614,16042.2147566
1160,18457.6844606,45.529542472,128715,15984.5474163
1170,18467.0117441,45.941828939,129816,15984.5474163
1180,18452.1914547,46.297690029,130917,15893.1898972
1190,18458.8427848,46.632850153,132018,15984.5474163
1200,18432.6522929,47.057048464,133119,15948.6753662
1210,18459.070337,47.415796638,134220,16026.5458768
1220,18446.3587805,47.76286604,135321,15984.5474163
1230,18447.1918403,48.15460849,136422,15984.5474163
1240,18432.6522929,48.540672993,137523,15984.5474163
1250,18432.6522929,48.872962283,138624,15984.5474163
1260,18432.6522929,49.244491292,139725,15084.7205863
1270,18465.2355387,49.664258692,140826,15984.5474163
1280,18432.6522929,50.08100173,141927,15984.5474163
1290,18459.3843779,50.486814816,143028,15853.4931002
1300,18459.070337,50.899311261,144129,15984.5474163
1310,18432.920047,51.343919307,145230,15984.5474163
1320,18432.6522929,51.669849826,146331,15895.6373902
1330,18447.2719947,52.054117332,147432,15841.4390295
1340,18451.7960977,52.414291301,148533,15712.6647655
1350,18465.2355387,52.758091297,149634,15984.5474163
1360,18458.8427848,53.168164661,150735,15984.5474163
1370,18475.8361528,53.541105352,151836,15984.5474163
1380,18432.6522929,53.968324176,152937,15984.5474163
1390,18467.8570191,54.373011679,154038,15984.5474163
1400,18461.9230265,54.759039832,155139,15984.5474163
1410,18441.3824568,55.152416772,156240,15984.5474163
1420,18432.6522929,55.548450719,157341,15961.2561578
1430,18438.0369918,55.872271627,158442,15984.5474163
1440,18458.8427848,56.210530951,159543,15802.9531251
1450,18433.4546123,56.577448151,160644,15984.5474163
1460,18432.6522929,56.925814196,161745,15984.5474163
1470,18453.8067945,57.365843362,162846,15984.5474163
1480,18505.3130047,57.69946137,163947,15984.5474163
1490,18457.3572098,58.081524752,165048,15984.5474163
1500,18432.6522929,58.494932098,166149,15984.5474163
1510,18432.6522929,58.905782935,167250,15753.7688294
1520,18452.1914547,59.222153274,168351,15906.8903462
1530,18439.5055367,59.609002948,169452,15989.4622718
1540,18439.5055367,59.965165106,170553,15912.0161989
1550,18441.7087097,60.374395994,171654,15989.4622718
1560,18463.5276852,60.852989187,172755,15840.2305923
1570,18439.5055367,61.209406653,173856,15989.4622718
1580,18441.7087097,61.572049462,174957,15989.4622718
1590,18466.2376218,61.902435269,176058,15917.9500618
1600,18473.9885189,62.276365977,177159,13774.5482875
1610,18490.246374,62.680269593,178260,15801.7520169
1620,18463.5276852,63.112178058,179361,15902.4259157
1630,18452.3335944,63.45443551,180462,15989.4622718
1640,18459.9557149,63.85192476,181563,16023.2732082
1650,18464.5377044,64.237026189,182664,15989.4622718
1660,18439.5055367,64.588522653,183765,15923.0840278
1670,18454.0450842,64.931559288,184866,15989.4622718
1680,18439.5055367,65.319803538,185967,15989.4622718
1690,18439.5055367,65.756934072,187068,15989.4622718
1700,18439.5055367,66.135725482,188169,15989.4622718
1710,18454.9558505,66.519240746,189270,15989.4622718
1720,18512.1032636,66.893012367,190371,15989.4622718
1730,18439.5055367,67.249696688,191472,15972.6250154
1740,18439.5055367,67.598335148,192573,15989.4622718
1750,18482.6893966,67.93378907,193674,15968.8203206
1760,18439.5055367,68.390603612,194775,15989.4622718
1770,18439.5055367,68.781326966,195876,15989.4622718
1780,18439.5055367,69.150717283,196977,15989.4622718
1790,18439.5055367,69.559201917,198078,15989.4622718
1800,18463.1625356,69.93431594,199179,15989.4622718
1810,18439.5055367,70.307844226,200280,15989.4622718
1820,18468.2955665,70.675372114,201381,16148.7688961
1830,18446.3587805,71.158292727,202482,15994.3771272
1840,18454.0450842,71.603336123,203583,15989.4622718
1850,18527.0092055,71.982494032,204684,15989.4622718
1860,18439.7732908,72.372385173,205785,15989.4622718
1870,18482.6893966,72.750788702,206886,15989.4622718
1880,18470.9550381,73.088955653,207987,15840.9664119
1890,18439.7732908,73.483826384,209088,15946.183997
1900,18468.7762703,73.866352915,210189,15989.4622718
1910,18440.2161105,74.261034624,211290,15989.4622718
1920,18439.5055367,74.657856308,212391,15989.4622718
1930,18453.0137922,75.032220228,213492,15977.4532697
1940,18456.9658647,75.426041927,214593,15989.4622718
1950,18456.9658647,75.778615649,215694,15989.4622718
1960,18439.5055367,76.134601614,216795,15989.4622718
1970,18474.4424907,76.500179833,217896,15726.9476303
1980,18439.5055367,76.898126244,218997,15923.1237391
1990,18439.5055367,77.266592403,220098,15989.4622718
2000,18439.5055367,77.697373147,221199,15989.4622718
2010,18468.7762703,78.064369462,222300,15886.9931317
2020,18439.5055367,78.408263969,223401,15989.4622718
2030,18439.5055367,78.745448602,224502,15989.4622718
2040,18439.5055367,79.099302717,225603,15989.4622718
2050,18465.9235808,79.483823821,226704,15989.4622718
2060,18448.2357007,79.826252761,227805,15989.4622718
2070,18454.0450842,80.17902748,228906,15945.09529
2080,18439.5055367,80.525050843,230007,15989.4622718
2090,18468.7762703,80.903155442,231108,15989.4622718
2100,18481.4313286,81.240684335,232209,15989.4622718
2110,18459.3132982,81.619339752,233310,15989.4622718
2120,18439.5055367,82.057196441,234411,15989.4622718
2130,18439.5055367,82.387706695,235512,15892.9034528
2140,18439.5055367,82.791488858,236613,15989.4622718
2150,18465.9235808,83.12069306,237714,15989.4622718
2160,18439.5055367,83.485537854,238815,15916.7813217
2170,18446.3582381,83.890898056,239916,15989.4622718
2180,18439.5055367,84.188384526,241017,15989.4622718
2190,18445.8706389,84.535575381,242118,16077.2330869
2200,18439.5055367,84.937155131,243219,15989.4622718
2210,18465.9235808,85.298558602,244320,15929.5867191
2220,18465.9235808,85.723332961,245421,15989.4622718
2230,18470.9606593,86.069075784,246522,16119.9140478
2240,18440.9063903,86.424040513,247623,15989.4622718
2250,18441.7087097,86.797778777,248724,15989.4622718
2260,18470.9550381,87.12307808,249825,15989.4622718
2270,18480.3361285,87.484520467,250926,16161.229108
2280,18439.5055367,87.847333055,252027,15989.4622718
2290,18439.7732908,88.196773792,253128,15989.4622718
2300,18439.5055367,88.573940549,254229,15989.4622718
2310,18441.7087097,88.951043158,255330,15989.4622718
2320,18439.5055367,89.341385046,256431,15989.4622718
2330,18439.5055367,89.691668259,257532,15989.4622718
2340,18439.5055367,90.080593332,258633,15989.4622718
2350,18439.5055367,90.470814621,259734,15989.4622718
2360,18439.5055367,90.838299744,260835,15299.4812034
2370,18482.6893966,91.201782036,261936,15989.4622718
2380,18444.8182477,91.625828959,263037,15989.4622718
2390,18463.5276852,92.025314493,264138,15989.4622718
2400,18439.5055367,92.428273423,265239,16029.7712275
2410,18439.5055367,92.79241986,266340,15989.4622718
2420,18439.5055367,93.130327654,267441,15989.4622718
2430,18439.5055367,93.533662064,268542,16017.6322163
2440,18440.7355838,93.91651019,269643,15989.4622718
2450,18439.5055367,94.324290907,270744,15989.4622718
2460,18439.5055367,94.716437917,271845,15989.4622718
2470,18489.9455455,95.088387309,272946,15989.4622718
2480,18439.5055367,95.448599339,274047,15978.9394091
2490,18440.2161105,95.841199661,275148,15989.4622718
2500,18441.7087097,96.236273955,276249,16121.7471294
2510,18470.9606593,96.560052525,277350,15989.4622718
2520,18459.6001925,96.998524607,278451,15989.4622718
2530,18470.9550381,97.363074749,279552,15989.4622718
2540,18439.5055367,97.723937667,280653,15989.4622718
2550,18439.7732908,98.063870397,281754,15989.4622718
2560,18454.0450842,98.433038762,282855,15953.2502259
2570,18470.9550381,98.780591411,283956,15989.4622718
2580,18439.5055367,99.168124046,285057,15989.4622718
2590,18440.2161105,99.543830796,286158,15989.4622718
2600,18463.5276852,99.86762305,287259,15989.4622718
2610,18485.2907851,100.211434592,288360,15959.7823392
2620,18439.5055367,100.568639367,289461,15989.4622718
2630,18502.9913769,100.938220417,290562,15887.9660172
2640,18466.2376218,101.328183831,291663,15989.4622718
2650,18439.5055367,101.781989835,292764,15873.1312865
2660,18439.5055367,102.212088901,293865,15989.4622718
2670,18482.6893966,102.581669523,294966,15989.4622718
2680,18470.9606593,102.968108222,296067,15989.4622718
2690,18459.6001925,103.349265408,297168,15903.2617024
2700,18498.0871337,103.683852905,298269,15989.4622718
2710,18439.5055367,104.055861313,299370,15989.4622718
2720,18439.5055367,104.425072443,300471,15989.4622718
2730,18509.9913028,104.780312153,301572,16020.0467023
2740,18471.3123229,105.201653315,302673,16073.1959568
2750,18441.7087097,105.63043521,303774,15989.4622718
2760,18439.5055367,106.05172762,304875,15989.4622718
2770,18439.5055367,106.424953555,305976,15989.4622718
2780,18482.6893966,106.870592244,307077,15974.1842277
2790,18482.6893966,107.258373346,308178,15989.4622718
2800,18462.512296,107.599391459,309279,15948.2982161
2810,18439.5055367,107.996242651,310380,15989.4622718
2820,18470.9606593,108.338026691,311481,15989.4622718
2830,18440.2161105,108.694768746,312582,15906.3455429
2840,18465.9235808,109.045462078,313683,15989.4622718
2850,18466.2376218,109.417276331,314784,15989.4622718
2860,18439.5055367,109.784618191,315885,15989.4622718
2870,18507.9127498,110.170589894,316986,15989.4622718
2880,18439.5055367,110.565531616,318087,15989.4622718
2890,18439.5055367,111.020312668,319188,15989.4622718
2900,18439.5055367,111.392413449,320289,15553.4747568
2910,18468.7762703,111.70875043,321390,15989.4622718
2920,18465.9235808,112.171091958,322491,15989.4622718
2930,18456.9658647,112.526106295,323592,15989.4622718
2940,18456.9658647,112.960884311,324693,15976.6741486
2950,18439.5055367,113.421541315,325794,15989.4622718
2960,18446.7623443,113.797186055,326895,15989.4622718
2970,18439.5055367,114.20857659,327996,15989.4622718
2980,18439.5055367,114.605732699,329097,15650.2300159
2990,18465.9235808,115.001501074,330198,15989.4622718
3000,18442.7720425,115.407123427,331299,15989.4622718
3010,18469.8266955,115.8375783,332400,15989.4622718
3020,18439.5055367,116.198782913,333501,15989.4622718
3030,18465.9235808,116.562355867,334602,15989.4622718
3040,18470.9606593,116.935468475,335703,15913.283843
3050,18470.9550381,117.307658636,336804,15989.4622718
3060,18439.5055367,117.729140069,337905,15989.4622718
3070,18439.5055367,118.131602066,339006,15965.2352884
3080,18500.0078957,118.478231413,340107,15989.4622718
3090,18439.5055367,118.864715443,341208,10140.5185841
3100,18465.9235808,119.264780446,342309,15652.8000397
3110,18439.5055367,119.68116896,343410,15989.4622718
3120,18446.3582381,120.041971578,344511,15659.966923
3130,18439.5055367,120.40799755,345612,15989.4622718
3140,18463.5276852,120.795885565,346713,15529.6832472
3150,18439.7732908,121.191585515,347814,15981.6214709
3160,18470.9550381,121.598780347,348915,15989.4622718
3170,18446.3587805,121.965113373,350016,15819.4137906
3180,18439.5055367,122.374437489,351117,15905.8202518
3190,18468.263138,122.760454951,352218,15824.1741541
3200,18482.6893966,123.169070874,353319,15947.4638113
3210,18459.6001925,123.543365086,354420,16003.7215267
3220,18454.0450842,123.877766553,355521,15989.4622718
3230,18464.5377044,124.219187515,356622,15989.4622718
3240,18466.2376218,124.646582103,357723,15430.939739
3250,18482.6893966,125.041770581,358824,15872.4138073
3260,18441.7087097,125.365946868,359925,15989.4622718
3270,18446.7623443,125.718759648,361026,16146.4507988
3280,18439.5055367,126.087392592,362127,15989.4622718
3290,18470.9606593,126.468854695,363228,15989.4622718
3300,18446.3582381,126.813481344,364329,15989.4622718
3310,18470.9550381,127.200425956,365430,13553.0164942
3320,18495.9236462,127.556988397,366531,15894.0384365
3330,18470.9550381,127.992873607,367632,15922.5845328
3340,18470.9550381,128.335853792,368733,15989.4622718
3350,18470.9606593,128.727645422,369834,16065.7850005
3360,18447.295461,129.111995465,370935,15989.4622718
3370,18439.5055367,129.520373612,372036,15989.4622718
3380,18478.7878855,129.932338912,373137,15989.4622718
3390,18439.5055367,130.341203301,374238,15989.4622718
3400,18439.5055367,130.72289206,375339,15909.9493717
3410,18439.5055367,131.089781463,376440,15989.4622718
3420,18461.2831087,131.474356451,377541,15890.6820235
3430,18462.6920004,131.795355277,378642,15989.4622718
3440,18439.5055367,132.175560935,379743,15989.4622718
3450,18439.5055367,132.518213965,380844,15477.1744883
3460,18439.5055367,132.928930946,381945,15989.4622718
3470,18439.5055367,133.309286282,383046,15989.4622718
3480,18439.5055367,133.64840861,384147,15989.4622718
3490,18439.5055367,134.014449976,385248,15989.4622718
3500,18439.5055367,134.37627383,386349,15886.2896901
3510,18439.5055367,134.766489132,387450,15989.4622718
3520,18482.6893966,135.132806763,388551,15989.4622718
3530,18454.0450842,135.500490317,389652,15989.4622718
3540,18482.6893966,135.830355243,390753,15989.4622718
3550,18439.5055367,136.203784742,391854,15859.4517085
3560,18459.6001925,136.563876174,392955,15989.4622718
3570,18459.6001925,136.959710407,394056,15989.4622718
3580,18459.6001925,137.424168817,395157,15699.2255684
3590,18457.3360325,137.858298511,396258,15989.4622718
3600,18490.954242,138.262799558,397359,15989.4622718
3610,18518.1919097,138.656798733,398460,15989.4622718
3620,18446.3587805,139.062708468,399561,15888.8199299
3630,18439.5055367,139.397682135,400662,16017.1447893
3640,18449.1053202,139.820515378,401763,15989.4622718
3650,18439.5055367,140.237650574,402864,15989.4622718
3660,18468.7762703,140.638014507,403965,15989.4622718
3670,18459.6001925,141.052727049,405066,15851.8989065
3680,18439.5055367,141.38189875,406167,15989.4622718
3690,18466.2376218,141.769656331,407268,15995.8563333
3700,18446.7623443,142.101072781,408369,15989.4622718
3710,18459.6001925,142.468445432,409470,15989.4622718
3720,18441.7087097,142.86118859,410571,15989.4622718
3730,18482.6893966,143.292380309,411672,15989.4622718
3740,18470.9550381,143.73415045,412773,15989.4622718
3750,18470.9550381,144.199958104,413874,15837.8147161
3760,18439.5055367,144.58541534,414975,15989.4622718
3770,18459.6001925,144.981796541,416076,15989.4622718
3780,18439.5055367,145.455681275,417177,15989.4622718
3790,18439.5055367,145.807544237,418278,15989.4622718
3800,18468.7762703,146.244059379,419379,16030.8929914
3810,18439.5055367,146.655751836,420480,15989.4622718
3820,18465.9235808,147.035495202,421581,15989.4622718
3830,18446.7562806,147.386593949,422682,16000.0355225
3840,18439.5055367,147.664452435,423783,15989.4622718
3850,18464.5377044,147.973196012,424884,15989.4622718
3860,18439.5055367,148.305799199,425985,15989.4622718
3870,18439.5055367,148.710023554,427086,15989.4622718
3880,18482.0416616,149.021850508,428187,15989.4622718
3890,18448.2357007,149.307128343,429288,15989.4622718
3900,18464.5377044,149.579761337,430389,15989.4622718
3910,18465.9235808,149.851405598,431490,15989.4622718
3920,18439.5055367,150.124127972,432591,15989.4622718
3930,18439.5055367,150.400548689,433692,15977.5920426
3940,18464.5377044,150.672313976,434793,15981.2389648
3950,18502.5624421,150.945599569,435894,15989.4622718
3960,18439.5055367,151.219674182,436995,15989.4622718
3970,18439.5055367,151.490232632,438096,15989.4622718
3980,18472.2611194,151.763025569,439197,15989.4622718
3990,18439.5055367,152.03423063,440298,15989.4622718
4000,18439.5055367,152.307875879,441399,15967.1982624
4010,18470.9550381,152.581614784,442500,16003.6456867
4020,18439.5055367,152.853769663,443601,15989.4622718
4030,18458.1756419,153.128530231,444702,15989.4622718
4040,18454.0450842,153.398235942,445803,15851.3912525
4050,18468.7762703,153.669848557,446904,15989.4622718
4060,18439.7732908,153.950820783,448005,15979.3711655
4070,18439.5055367,154.222214867,449106,15970.856637
4080,18441.7087097,154.496156052,450207,15989.4622718
4090,18469.1101728,154.7701678,451308,15527.8418891
4100,18439.5055367,155.042166158,452409,15989.4622718
4110,18439.5055367,155.327895167,453510,15989.4622718
4120,18439.5055367,155.603265568,454611,15989.4622718
4130,18463.5276852,155.875972974,455712,15732.3328375
4140,18439.5055367,156.158992802,456813,15989.4622718
4150,18460.6130677,156.435747087,457914,15989.4622718
4160,18439.5055367,156.706290142,459015,16111.3420235
4170,18465.9235808,156.980367749,460116,15989.4622718
4180,18449.1240592,157.252275872,461217,15989.4622718
4190,18439.5055367,157.524150211,462318,15967.0906331
4200,18440.2161105,157.798293675,463419,15989.4622718
4210,18439.5055367,158.070321968,464520,15989.4622718
4220,18454.0450842,158.341414557,465621,15989.4622718
4230,18470.9550381,158.61377813,466722,15989.4622718
4240,18480.8076849,158.885957813,467823,15629.8389735
4250,18466.2376218,159.156516691,468924,15989.4622718
4260,18439.5055367,159.426397739,470025,15989.4622718
4270,18439.5055367,159.697701161,471126,15756.1744965
4280,18439.5055367,159.969401445,472227,15989.4622718
4290,18454.0450842,160.245311543,473328,15989.4622718
4300,18456.9658647,160.516322878,474429,15989.4622718
4310,18467.0353141,160.787722094,475530,15989.4622718
4320,18519.6244078,161.059391587,476631,15989.4622718
4330,18453.5740089,161.332681029,477732,15989.4622718
4340,18440.2161105,161.606216371,478833,15989.4622718
4350,18470.9606593,161.878557278,479934,16027.4405705
4360,18439.5055367,162.151251427,481035,15958.3090836
4370,18439.5055367,162.42506902,482136,15989.4622718
4380,18482.6893966,162.697154191,483237,15989.4622718
4390,18470.9606593,162.967063036,484338,15989.4622718
4400,18470.9606593,163.238866385,485439,15964.7082284
4410,18439.5055367,163.510118489,486540,15989.4622718
4420,18455.7638474,163.780469528,487641,15989.4622718
4430,18439.5055367,164.055023967,488742,15827.1054746
4440,18468.7762703,164.325935231,489843,16214.5831343
4450,18439.5055367,164.597529457,490944,16129.9322628
4460,18459.6001925,164.871518966,492045,15989.4622718
4470,18454.0450842,165.142189889,493146,15989.4622718
4480,18463.5276852,165.420424709,494247,16082.3459536
4490,18504.0338222,165.71520884,495348,15989.4622718
4500,18441.7087097,165.98824169,496449,15989.4622718
4510,18488.9990782,166.26115608,497550,15980.1725934
4520,18439.5055367,166.534585792,498651,15989.4622718
4530,18439.5055367,166.80666626,499752,15946.4889722
4540,18439.5055367,167.0796371,500853,15989.4622718
4550,18439.5055367,167.351986133,501954,15989.4622718
4560,18449.2380237,167.622637812,503055,15989.4622718
4570,18454.1000402,167.896999807,504156,15989.4622718
4580,18470.9606593,168.170045914,505257,15981.2389648
4590,18439.5055367,168.444192372,506358,15989.4622718
4600,18470.9606593,168.717667416,507459,16008.3140531
4610,18439.5055367,168.990356861,508560,15989.4622718
4620,18463.5276852,169.261535408,509661,15989.4622718
4630,18464.5377044,169.535251648,510762,15845.5068424
4640,18441.7087097,169.807347083,511863,15989.4622718
4650,18439.5055367,170.078446087,512964,16020.6870449
4660,18439.5055367,170.347910602,514065,15989.4622718
4670,18468.0537382,170.623258765,515166,15989.4622718
4680,18463.5276852,170.897112281,516267,15828.8240926
4690,18448.2357007,171.167879853,517368,15989.4622718
4700,18439.5055367,171.439235021,518469,15989.4622718
4710,18468.7762703,171.709181928,519570,15989.4622718
4720,18472.8226412,171.979455134,520671,15989.4622718
4730,18448.0308977,172.252319062,521772,15989.4622718
4740,18446.7623443,172.526313276,522873,15989.4622718
4750,18464.5377044,172.799401293,523974,15995.9386793
4760,18446.7623443,173.070528949,525075,16079.2389168
4770,18482.6893966,173.344580468,526176,15989.4622718
4780,18448.5017453,173.615172703,527277,15989.4622718
4790,18439.5055367,173.88595225,528378,15989.4622718
4800,18456.9658647,174.158175981,529479,15989.4622718
4810,18446.3582381,174.430837629,530580,16034.5861753
4820,18439.5055367,174.703462498,531681,15989.4622718
4830,18482.6893966,174.974726148,532782,15989.4622718
4840,18461.9442146,175.247832555,533883,15989.4622718
4850,18456.9658647,175.519708176,534984,15989.4622718
4860,18459.6001925,175.791518367,536085,15989.4622718
4870,18439.5055367,176.063086078,537186,15989.4622718
4880,18439.5055367,176.33430012,538287,15997.3843082
4890,18440.2161105,176.605175889,539388,15989.4622718
4900,18441.7087097,176.874707545,540489,15989.4622718
4910,18439.5055367,177.148295489,541590,15989.4622718
4920,18464.5377044,177.418564846,542691,15989.4622718
4930,18439.5055367,177.690630346,543792,15989.4622718
4940,18470.9606593,177.966378792,544893,15989.4622718
4950,18439.7732908,178.238183851,545994,14653.9358597
4960,18466.7659166,178.509481286,547095,15989.4622718
4970,18439.5055367,178.782331956,548196,15989.4622718
4980,18439.5055367,179.054552693,549297,15996.9288385
4990,18439.5055367,179.326645135,550398,15989.4622718
