it,funval,time,funcount,weight
0,4711.80141261,7.69799999034e-06,10,4780.18108412
10,5061.77971169,1.75339999942e-05,21,5003.4150556
20,5334.76765934,2.95079998978e-05,32,5118.65165513
30,5404.94362987,4.19099999363e-05,43,5343.42072317
40,5571.45094688,5.34559999323e-05,54,5512.75979865
50,5724.40296536,6.58579999708e-05,65,5687.03878704
60,5753.5728619,7.86880000305e-05,76,5974.0182091
70,5793.45965992,9.1090000069e-05,87,6040.89991874
80,5959.52601654,0.000104775000068,98,6168.92540504
90,6074.36041069,0.000116748999972,109,6225.65682689
100,6110.93352487,0.000127012999997,120,6249.76975408
110,6179.98619272,0.000136849,131,6312.63088641
120,6218.2044781,0.000147540000057,142,6449.4302611
130,6433.09068293,0.000158232000103,153,6654.38207943
140,6568.1159012,0.000170206000121,164,6643.094682
150,6775.04212957,0.000182180000024,175,7039.01848655
160,6805.89424392,0.000195438000105,186,7055.27586888
170,6858.34878895,0.000209123000104,197,7102.34761642
180,7018.0161834,0.00022067000009,208,7184.59013152
190,7069.44898616,0.000232644000107,219,7209.8515451
200,7257.59589758,0.000244619000114,230,7525.13869066
210,7259.26994509,0.00025659400012,241,7589.36512672
220,7338.22219554,0.000268996000045,252,7676.8249733
230,7496.02229379,0.000281398000084,263,7771.29608138
240,7496.02229379,0.000295938000022,274,7804.44502161
250,7496.02229379,0.000309195,285,7821.63759242
260,7496.02229379,0.000322453000081,296,7832.48210176
270,7616.33636245,0.000334000000066,307,7903.49636182
280,7655.54811566,0.000347257000044,318,7943.06085532
290,7678.06785707,0.000359658999969,329,7974.45242654
300,7700.15736922,0.000372489000029,340,7998.38576285
310,7700.15736922,0.000387885000009,351,7939.37141866
320,7700.15736922,0.000401570000008,362,7956.44483306
330,7700.15736922,0.000419960000045,373,7956.22579048
340,7700.15736922,0.000436211000078,384,7963.46303778
350,7700.15736922,0.00045075200012,395,8067.93563512
360,7700.15736922,0.0004661480001,406,8020.88484019
370,7700.15736922,0.000480261000121,417,7854.38882577
380,7700.15736922,0.0005093420001,428,7975.53580876
390,7700.15736922,0.000538850000112,439,7928.54031271
400,7700.15736922,0.000564937000149,450,7988.03369658
410,7700.15736922,0.000583326000196,461,8013.63917391
420,7700.15736922,0.000602998000204,472,7901.11978827
430,7700.15736922,0.000621814000169,483,8049.18403037
440,7700.15736922,0.000640203000216,494,7931.08790243
450,7700.15736922,0.000662441000259,505,7959.64520721
460,7700.15736922,0.000687245000222,516,7998.38576285
470,7700.15736922,0.000707345000137,527,8066.11678622
480,7700.15736922,0.000725734000071,538,7956.0448814
490,7700.15736922,0.000744550000036,549,8027.84934874
500,7721.2231375,0.000764650000065,560,7883.66553372
510,7721.2231375,0.000787316000014,571,7999.86514394
520,7721.2231375,0.000811264000049,582,7986.39610211
530,7721.2231375,0.000831791999985,593,8082.51371295
540,7721.2231375,0.000851892000014,604,7935.75589592
550,7721.2231375,0.000873275000004,615,7999.86514394
560,7721.2231375,0.000893375000032,626,7976.39148254
570,7721.2231375,0.000913901999979,637,7907.03177523
580,7721.2231375,0.000936140000022,648,7915.96136169
590,7721.2231375,0.000957522000022,659,7970.35797185
600,7721.2231375,0.000977621000061,670,7874.94134219
610,7721.2231375,0.000998149000111,681,8102.69007323
620,7721.2231375,0.0010152550002,692,7999.86514394
630,7721.2231375,0.00103278900019,703,7880.87448636
640,7721.2231375,0.00105160600026,714,7970.11747955
650,7721.2231375,0.00106956800028,725,7937.6406957
660,7721.2231375,0.00108881200026,736,7927.17000225
670,7721.2231375,0.00110634600026,747,8004.813321
680,7721.2231375,0.00112473500019,758,7926.09322519
690,7721.2231375,0.00114312400012,769,7999.86514394
700,7721.2231375,0.00116236800011,780,7884.05887509
710,7721.2231375,0.00118246700004,791,7973.62792838
720,7721.2231375,0.00120171100002,802,8023.13173913
730,7721.2231375,0.00122181100005,813,7999.86514394
740,7721.2231375,0.00124148300006,824,7937.97623147
750,7721.2231375,0.00126201,835,7975.93180763
760,7721.2231375,0.00128039900005,846,7815.89988385
770,7721.2231375,0.00129665000009,857,7924.20860486
780,7721.2231375,0.00131290000013,868,7981.16177248
790,7721.2231375,0.00132829600022,879,8041.18942845
800,7721.2231375,0.00135438300026,890,7999.86514394
810,7721.2231375,0.00137277200031,901,8031.93646642
820,7721.2231375,0.00139244400032,912,7897.80182528
830,7721.2231375,0.00141168900029,923,8034.41035972
840,7721.2231375,0.0014313610003,934,7995.42700067
850,7721.2231375,0.0014506050004,945,7999.86514394
860,7721.2231375,0.00146899400045,956,7970.11747955
870,7721.2231375,0.00148866600045,967,7912.32963971
880,7721.2231375,0.0015091930004,978,7906.17229263
890,7721.2231375,0.00152544400044,989,7987.96613344
900,7721.2231375,0.00154169500047,1000,7852.65646538
910,7721.2231375,0.00155965600038,1011,7927.48234699
920,7721.2231375,0.00157676200035,1022,7996.90638176
930,7721.2231375,0.00159557900031,1033,7999.86514394
940,7721.2231375,0.00161439600026,1044,7993.7783702
950,7721.2231375,0.00163150200035,1055,7852.65646538
960,7721.2231375,0.0016498910004,1066,7926.95959774
970,7721.2231375,0.00166657000045,1077,7999.86514394
980,7721.2231375,0.00168495900039,1088,7874.94134219
990,7721.2231375,0.00170505900041,1099,7992.70614962
1000,7721.2231375,0.00172344800035,1110,8033.51407416
1010,7721.2231375,0.0017401270004,1121,7957.9262293
1020,7721.2231375,0.00175637800044,1132,7999.86514394
1030,7721.2231375,0.00177391100044,1143,7999.86514394
1040,7721.2231375,0.00178973400045,1154,7999.86514394
1050,7721.2231375,0.00180726800045,1165,7970.35797185
1060,7721.2231375,0.0018277960005,1176,7933.97573343
1070,7721.2231375,0.00184618500043,1187,7940.36981515
1080,7721.2231375,0.00186371800044,1198,8006.82236442
1090,7721.2231375,0.00188552900045,1209,7995.93094654
1100,7721.2231375,0.00190263500042,1220,7878.71019998
1110,7721.2231375,0.00191931300049,1231,7986.56963927
1120,7721.2231375,0.00193898500049,1242,7873.38522683
1130,7721.2231375,0.00195694600052,1253,7989.98980068
1140,7721.2231375,0.00197447900052,1264,7924.20860486
1150,7721.2231375,0.0019932950006,1275,7878.71019998
1160,7721.2231375,0.00200997300067,1286,7961.13194054
1170,7721.2231375,0.00202708000074,1297,7883.91039606
1180,7721.2231375,0.00204546900068,1308,7911.34362765
1190,7721.2231375,0.00206214700074,1319,7976.59854876
1200,7721.2231375,0.00208010900076,1330,7977.01518984
1210,7721.2231375,0.00209807100077,1341,7901.7260249
1220,7721.2231375,0.00211432200069,1352,7951.26144648
1230,7721.2231375,0.00213313900065,1363,8031.54488137
1240,7721.2231375,0.00215837000064,1374,8023.13173913
1250,7721.2231375,0.00218060800069,1385,8030.79552424
1260,7721.2231375,0.00220626800069,1396,7999.86514394
1270,7721.2231375,0.00222636700073,1407,7999.86514394
1280,7721.2231375,0.00224817700075,1418,7999.86514394
1290,7721.2231375,0.00226998800076,1429,7855.86820686
1300,7721.2231375,0.00229137100075,1440,7883.91039606
1310,7721.2231375,0.00231360900079,1451,7932.66366594
1320,7721.2231375,0.00233456400076,1462,7999.86514394
1330,7721.2231375,0.00236107800083,1473,7911.47438628
1340,7721.2231375,0.00238673700085,1484,8023.13173913
1350,7721.2231375,0.00240769200082,1495,7932.36791192
1360,7721.2231375,0.00242693700079,1506,7999.86514394
1370,7721.2231375,0.00244318800071,1517,7926.09322519
1380,7721.2231375,0.00246200500067,1528,8024.09685784
1390,7721.2231375,0.00247782900067,1539,8020.83560884
1400,7721.2231375,0.00249279700063,1550,7803.58690586
1410,7721.2231375,0.0025120420006,1561,7984.48626603
1420,7721.2231375,0.00253128600059,1572,7999.86514394
1430,7721.2231375,0.00255266900058,1583,7956.09739183
1440,7721.2231375,0.00257276800062,1594,7999.86514394
1450,7721.2231375,0.00259329500057,1605,7971.82806379
1460,7721.2231375,0.00261382300062,1616,7999.86514394
1470,7721.2231375,0.00263520500062,1627,7985.02061276
1480,7721.2231375,0.0026561600007,1638,8013.77958489
1490,7721.2231375,0.00267754300069,1649,7999.86514394
1500,7721.2231375,0.00269721500069,1660,7999.86514394
1510,7721.2231375,0.0027185980008,1671,7992.90792347
1520,7721.2231375,0.00273998100079,1682,7946.68312525
1530,7721.2231375,0.00276093600087,1693,8007.45869415
1540,7721.2231375,0.00278189100084,1704,7999.86514394
1550,7721.2231375,0.00280241900077,1715,7961.13194054
1560,7721.2231375,0.00282380100077,1726,7999.86514394
1570,7721.2231375,0.00284646700072,1737,7999.86514394
1580,7721.2231375,0.00286913300067,1748,7999.86514394
1590,7721.2231375,0.00288966000062,1759,8034.41035972
1600,7721.2231375,0.00290933200063,1770,7861.89119887
1610,7721.2231375,0.00293028700059,1781,7982.59787112
1620,7721.2231375,0.00295038700062,1792,7968.6341935
1630,7721.2231375,0.00297348000061,1803,8015.118555
1640,7721.2231375,0.00299400800054,1814,7928.06513499
1650,7721.2231375,0.00301496300051,1825,8056.42582448
1660,7721.2231375,0.00303591800059,1836,7884.05887509
1670,7721.2231375,0.00305730100058,1847,7929.44415974
1680,7721.2231375,0.00308638100057,1858,8013.88368402
1690,7721.2231375,0.00310947400055,1869,7927.48234699
1700,7721.2231375,0.00312743500058,1880,7999.86514394
1710,7721.2231375,0.00314325800048,1891,7977.01518984
1720,7721.2231375,0.00316079200059,1902,7970.35797185
1730,7721.2231375,0.00317576000054,1913,7975.1881409
1740,7721.2231375,0.00320270200052,1924,8076.98384091
1750,7721.2231375,0.00322109100057,1935,7970.35797185
1760,7721.2231375,0.00324033500067,1946,7999.86514394
1770,7721.2231375,0.00325872400072,1957,7997.24234567
1780,7721.2231375,0.00327796900069,1968,7999.86514394
1790,7721.2231375,0.00329721400067,1979,7989.98980068
1800,7721.2231375,0.00331731300071,1990,8050.66341146
1810,7721.2231375,0.00333741300074,2001,8033.51407416
1820,7721.2231375,0.00335794100067,2012,7999.86514394
1830,7721.2231375,0.00337932400066,2023,7959.48016262
1840,7721.2231375,0.00339814000063,2034,7951.99847131
1850,7721.2231375,0.00342380000063,2045,7951.99847131
1860,7721.2231375,0.00344090700071,2056,7988.0275622
1870,7721.2231375,0.00346100700074,2067,7999.86514394
1880,7721.2231375,0.0034776850008,2078,8033.51407416
1890,7721.2231375,0.0034952190008,2089,7966.26440494
1900,7721.2231375,0.00351189800085,2100,7977.3660666
1910,7721.2231375,0.0035302870009,2111,7918.28378344
1920,7721.2231375,0.00354653800082,2122,7985.84660387
1930,7721.2231375,0.00356449900084,2133,7805.33319478
1940,7721.2231375,0.00358246000087,2144,7992.70614962
1950,7721.2231375,0.00359999400087,2155,7999.86514394
1960,7721.2231375,0.00362308700085,2166,7999.86514394
1970,7721.2231375,0.00364404200081,2177,7989.61255867
1980,7721.2231375,0.00366670800088,2188,7964.16811243
1990,7721.2231375,0.0036885180009,2199,7991.63947626
2000,7721.2231375,0.00370990100089,2210,7929.44415974
2010,7721.2231375,0.00373042800095,2221,7968.18540652
2020,7721.2231375,0.00374967200094,2232,8026.1023595
2030,7721.2231375,0.00377191000098,2243,7853.96618207
2040,7721.2231375,0.00379029900091,2254,8013.77958489
2050,7721.2231375,0.0038095430009,2265,7926.09322519
2060,7721.2231375,0.00382921500091,2276,7993.63068679
2070,7721.2231375,0.00384931400095,2287,7979.85489861
2080,7721.2231375,0.00386941300087,2298,7995.91597373
2090,7721.2231375,0.00389122400088,2309,7982.59253605
2100,7721.2231375,0.00391517300091,2320,7992.90792347
2110,7721.2231375,0.00393570000085,2331,7951.99847131
2120,7721.2231375,0.00395665500082,2342,7941.94241464
2130,7721.2231375,0.00397632700083,2353,7977.01518984
2140,7721.2231375,0.00400027600085,2364,7937.97623147
2150,7721.2231375,0.00402593500087,2375,7999.86514394
2160,7721.2231375,0.00404774500089,2386,7930.79605264
2170,7721.2231375,0.0040657060008,2397,7903.29598226
2180,7721.2231375,0.00408323900081,2408,7999.86514394
2190,7721.2231375,0.00409906300081,2419,8029.32872983
2200,7721.2231375,0.00411616900078,2430,7965.5902128
2210,7721.2231375,0.00413840700082,2441,8045.62537711
2220,7721.2231375,0.00415978900082,2452,7951.86616492
2230,7721.2231375,0.00418117100082,2463,7955.93887027
2240,7721.2231375,0.00420169800088,2474,8035.13354613
2250,7721.2231375,0.00422222500083,2485,7930.0196938
2260,7721.2231375,0.00423975900082,2496,7999.86514394
2270,7721.2231375,0.00425772100084,2507,7999.86514394
2280,7721.2231375,0.00427611000089,2518,7976.18998046
2290,7721.2231375,0.0042919330009,2529,7963.7646612
2300,7721.2231375,0.00430818400082,2540,7989.51307767
2310,7721.2231375,0.0043235800008,2551,7999.86514394
2320,7721.2231375,0.00434111300081,2562,7976.98903577
2330,7721.2231375,0.00435779200075,2573,7951.26144648
2340,7721.2231375,0.00437532600074,2584,7989.61255867
2350,7721.2231375,0.00439286000073,2595,8048.33354988
2360,7721.2231375,0.00441082100076,2606,7996.2503075
2370,7721.2231375,0.00443006500075,2617,7999.86514394
2380,7721.2231375,0.00444973700075,2628,8026.1023595
2390,7721.2231375,0.00448352100079,2639,8041.80405858
2400,7721.2231375,0.00450191000084,2650,7872.84249959
2410,7721.2231375,0.00452158200085,2661,7940.1592033
2420,7721.2231375,0.00454168200088,2672,7961.44248729
2430,7721.2231375,0.00456178200091,2683,7866.43322941
2440,7721.2231375,0.00458273700087,2694,7903.65117652
2450,7721.2231375,0.0046028370009,2705,7967.79382147
2460,7721.2231375,0.0046242190009,2716,7999.86514394
2470,7721.2231375,0.00464474700095,2727,7946.68312525
2480,7721.2231375,0.00466484700098,2738,8061.8515707
2490,7721.2231375,0.00468537500092,2749,7943.92928911
2500,7721.2231375,0.00470804100087,2760,7999.86514394
2510,7721.2231375,0.00473070700093,2771,7976.98903577
2520,7721.2231375,0.00476235300096,2782,7996.2503075
2530,7721.2231375,0.00478459100088,2793,7905.97049833
2540,7721.2231375,0.00480853900081,2804,7928.06513499
2550,7721.2231375,0.00483120500087,2815,7967.79382147
2560,7721.2231375,0.00485301600077,2826,7999.86514394
2570,7721.2231375,0.00487439800077,2837,7815.89988385
2580,7721.2231375,0.00489578100076,2848,7919.0951813
2590,7721.2231375,0.00491716300075,2859,7932.36791192
2600,7721.2231375,0.00493982800072,2870,8029.32872983
2610,7721.2231375,0.00495565100061,2881,7966.21621373
2620,7721.2231375,0.00497404000066,2892,7976.06712293
2630,7721.2231375,0.00499071800061,2903,8020.40723625
2640,7721.2231375,0.00500568600057,2914,7968.18540652
2650,7721.2231375,0.00502108100056,2925,7959.97862992
2660,7721.2231375,0.0050394700005,2936,8004.813321
2670,7721.2231375,0.00505743200051,2947,7903.29598226
2680,7721.2231375,0.00507753200054,2958,7985.05212904
2690,7721.2231375,0.00509677600053,2969,7976.06712293
2700,7721.2231375,0.00511473800054,2980,7903.86718589
2710,7721.2231375,0.0051352650006,2991,7999.86514394
2720,7721.2231375,0.0051527990006,3002,7968.6341935
2730,7721.2231375,0.00517076100061,3013,7929.44415974
2740,7721.2231375,0.00518872200064,3024,8030.97736806
2750,7721.2231375,0.00520497200057,3035,7908.47569422
2760,7721.2231375,0.00522336100062,3046,7991.63947626
2770,7721.2231375,0.00524132200064,3057,8013.33418578
2780,7721.2231375,0.00525928400066,3068,7870.92653996
2790,7721.2231375,0.00527938400069,3079,7962.66172214
2800,7721.2231375,0.00529820100076,3090,7927.17000225
2810,7721.2231375,0.0053165900008,3101,7999.86514394
2820,7721.2231375,0.0053341240008,3112,7937.40324307
2830,7721.2231375,0.00535208600081,3123,7999.86514394
2840,7721.2231375,0.0053691920009,3134,7967.81051993
2850,7721.2231375,0.00539143000083,3145,7821.43717327
2860,7721.2231375,0.00540939100085,3156,7970.11747955
2870,7721.2231375,0.00542692500085,3167,8142.87864232
2880,7721.2231375,0.00544574200092,3178,7943.92928911
2890,7721.2231375,0.00546370300094,3189,8010.97939163
2900,7721.2231375,0.00549064500092,3200,7985.02061276
2910,7721.2231375,0.0055137380009,3211,7994.91696688
2920,7721.2231375,0.00553683100088,3222,7999.86514394
2930,7721.2231375,0.00555906900081,3233,7938.67912356
2940,7721.2231375,0.00558087900072,3244,7845.25881343
2950,7721.2231375,0.00560269000073,3255,7999.86514394
2960,7721.2231375,0.00562535500069,3266,7958.78095934
2970,7721.2231375,0.00564588200064,3277,7895.09696873
2980,7721.2231375,0.00566812000056,3288,7999.86514394
2990,7721.2231375,0.00568950300055,3299,7999.86514394
3000,7721.2231375,0.00571687300055,3310,7999.86514394
3010,7721.2231375,0.00573569000051,3321,8070.40194832
3020,7721.2231375,0.00575493400049,3332,7903.16119096
3030,7721.2231375,0.00577588900046,3343,7968.93476364
3040,7721.2231375,0.00579598800039,3354,7997.23485739
3050,7721.2231375,0.00581566000039,3365,7985.950703
3060,7721.2231375,0.0058353320004,3376,7999.86514394
3070,7721.2231375,0.00586099100042,3387,7903.29598226
3080,7721.2231375,0.00588109100033,3398,7999.86514394
3090,7721.2231375,0.00590161800039,3409,7999.86514394
3100,7721.2231375,0.0059234280003,3420,7951.86616492
3110,7721.2231375,0.00594438300027,3431,7954.86698926
3120,7721.2231375,0.00596533800035,3442,7961.1245883
3130,7721.2231375,0.0059858660004,3453,8117.38000543
3140,7721.2231375,0.0060072480004,3464,7999.86514394
3150,7721.2231375,0.00602777500046,3475,7928.06513499
3160,7721.2231375,0.00604787500049,3486,8016.79789978
3170,7721.2231375,0.00607225100043,3497,7967.63049295
3180,7721.2231375,0.00609320600051,3508,7975.01562674
3190,7721.2231375,0.00611544400056,3519,7952.51481697
3200,7721.2231375,0.00613682600056,3530,7980.95100917
3210,7721.2231375,0.00615863700057,3541,7952.91782114
3220,7721.2231375,0.00617916400051,3552,7932.66366594
3230,7721.2231375,0.0062005470005,3563,7935.75589592
3240,7721.2231375,0.00622235700052,3574,7891.29094852
3250,7721.2231375,0.00624459500057,3585,7998.11161958
3260,7721.2231375,0.00626811600057,3596,7999.86514394
3270,7721.2231375,0.00628736000056,3607,7987.96613344
3280,7721.2231375,0.00631216400052,3618,7975.93180763
3290,7721.2231375,0.00633397400054,3629,7938.67912356
3300,7721.2231375,0.00635578400056,3640,7901.7260249
3310,7721.2231375,0.00637802200049,3651,7999.86514394
3320,7721.2231375,0.00640026000042,3662,7999.86514394
3330,7721.2231375,0.00642207000044,3673,7951.39673801
3340,7721.2231375,0.00644430800048,3684,7930.0196938
3350,7721.2231375,0.00646611900049,3695,7994.68911081
3360,7721.2231375,0.00648835700053,3706,8105.67035051
3370,7721.2231375,0.00650888500047,3717,7991.63947626
3380,7721.2231375,0.00652984000044,3728,8035.61851854
3390,7721.2231375,0.00655122200044,3739,7999.86514394
3400,7721.2231375,0.00657260500043,3750,7846.17451733
3410,7721.2231375,0.00659398800053,3761,7987.39622963
3420,7721.2231375,0.00661708100051,3772,7815.89988385
3430,7721.2231375,0.00664060200052,3783,7907.07400304
3440,7721.2231375,0.00666198400052,3794,7999.86514394
3450,7721.2231375,0.00668379400054,3805,7999.86514394
3460,7721.2231375,0.00670389300058,3816,8029.71811427
3470,7721.2231375,0.0067257030006,3827,7999.86514394
3480,7721.2231375,0.00675606600055,3838,7947.39071282
3490,7721.2231375,0.00677787700056,3849,7999.86514394
3500,7721.2231375,0.00679925900056,3860,7939.83440795
3510,7721.2231375,0.00681978600051,3871,7940.36981515
3520,7721.2231375,0.0068411690005,3882,7998.87785139
3530,7721.2231375,0.00686126800053,3893,7995.42700067
3540,7721.2231375,0.00688179500048,3904,7807.86922783
3550,7721.2231375,0.00690232200043,3915,7926.09322519
3560,7721.2231375,0.00692156700052,3926,7915.18338104
3570,7721.2231375,0.00694166700055,3937,7957.52426249
3580,7721.2231375,0.00696390500048,3948,7999.86514394
3590,7721.2231375,0.00698443300053,3959,7995.91597373
3600,7721.2231375,0.00700496100058,3970,8048.33354988
3610,7721.2231375,0.0070250610006,3981,7985.84660387
3620,7721.2231375,0.00704473300061,3992,8045.55986881
3630,7721.2231375,0.00706526000056,4003,7928.06513499
3640,7721.2231375,0.00708536000059,4014,8045.62537711
3650,7721.2231375,0.00710631500067,4025,7989.61255867
3660,7721.2231375,0.00712769800077,4036,7978.38816098
3670,7721.2231375,0.00714822500072,4047,7999.86514394
3680,7721.2231375,0.00716789700073,4058,7927.66417846
3690,7721.2231375,0.0071867140008,4069,7960.54662137
3700,7721.2231375,0.00720595800078,4080,7924.20860486
3710,7721.2231375,0.00722605800081,4091,7951.26144648
3720,7721.2231375,0.00724573000082,4102,8078.20838494
3730,7721.2231375,0.00726625800087,4113,8004.813321
3740,7721.2231375,0.00728721300095,4124,8056.42582448
3750,7721.2231375,0.00730731300098,4135,7986.39610211
3760,7721.2231375,0.00732784100092,4146,7999.86514394
3770,7721.2231375,0.00734794000084,4157,7999.86514394
3780,7721.2231375,0.00736803900088,4168,7972.232805
3790,7721.2231375,0.00738813900091,4179,7968.75291982
3800,7721.2231375,0.00740823900094,4190,7952.70710023
3810,7721.2231375,0.00742833900097,4201,7999.86514394
3820,7721.2231375,0.00744843800089,4212,7965.33059829
3830,7721.2231375,0.00746853800081,4223,7932.56728352
3840,7721.2231375,0.00748821100092,4234,7999.86514394
3850,7721.2231375,0.00750702800099,4245,7999.86514394
3860,7721.2231375,0.00752755600092,4256,8033.57402556
3870,7721.2231375,0.00754851100089,4267,7883.66553372
3880,7721.2231375,0.00756903800084,4278,7965.5902128
3890,7721.2231375,0.00758828300081,4289,8102.69007323
3900,7721.2231375,0.0076075270008,4300,7985.02061276
3910,7721.2231375,0.00762506100079,4311,7936.50566909
3920,7721.2231375,0.00764045600079,4322,7985.40579815
3930,7721.2231375,0.00765628000079,4333,7999.86514394
3940,7721.2231375,0.0076819390008,4344,7999.86514394
3950,7721.2231375,0.00770546000081,4355,7977.08449334
3960,7721.2231375,0.00772641500077,4366,7908.47569422
3970,7721.2231375,0.0077486530007,4377,7965.5902128
3980,7721.2231375,0.00776960800079,4388,7999.86514394
3990,7721.2231375,0.00778928000079,4399,7895.09696873
4000,7721.2231375,0.00780681400079,4410,7999.86514394
4010,7721.2231375,0.00782392000076,4421,7803.58690586
4020,7721.2231375,0.0078384600007,4432,7974.92731532
4030,7721.2231375,0.00785556600067,4443,7989.61255867
4040,7721.2231375,0.00787438300063,4454,7982.59253605
4050,7721.2231375,0.00789320000069,4465,7999.86514394
4060,7721.2231375,0.00791244400068,4476,8021.6391789
4070,7721.2231375,0.00793168800067,4487,7999.86514394
4080,7721.2231375,0.00795264300064,4498,7977.63664857
4090,7721.2231375,0.00797274300066,4509,7987.39622963
4100,7721.2231375,0.00799369800063,4520,7993.7783702
4110,7721.2231375,0.00801379800066,4531,7971.04686007
4120,7721.2231375,0.00803432600071,4542,7992.74712069
4130,7721.2231375,0.00805357000081,4553,8026.1023595
4140,7721.2231375,0.00807367000073,4564,8034.41035972
4150,7721.2231375,0.00809376900065,4575,7941.75431048
4160,7721.2231375,0.00811301300064,4586,7925.31659232
4170,7721.2231375,0.0081335400007,4597,7938.00438334
4180,7721.2231375,0.00815363900074,4608,8004.813321
4190,7721.2231375,0.00817416700079,4619,7980.95100917
4200,7721.2231375,0.00819512200076,4630,7908.47569422
4210,7721.2231375,0.00821522200067,4641,7972.232805
4220,7721.2231375,0.00823361100061,4652,7999.86514394
4230,7721.2231375,0.00825456600057,4663,7999.86514394
4240,7721.2231375,0.0082746660006,4674,7960.54662137
4250,7721.2231375,0.00829433800061,4685,8030.37196605
4260,7721.2231375,0.00831785900061,4696,7915.5451992
4270,7721.2231375,0.00834009600067,4707,8006.82236442
4280,7721.2231375,0.00836190700068,4718,8007.02413826
4290,7721.2231375,0.00838200700071,4729,7931.8229315
4300,7721.2231375,0.00840210700073,4740,7986.39610211
4310,7721.2231375,0.0084230620007,4751,7959.97862992
4320,7721.2231375,0.00844316200062,4762,7959.45801844
4330,7721.2231375,0.00846326100066,4773,7811.2329691
4340,7721.2231375,0.00848549800071,4784,7967.81051993
4350,7721.2231375,0.00850602600065,4795,7999.86514394
4360,7721.2231375,0.00852527000063,4806,7907.8825139
4370,7721.2231375,0.00854280400063,4817,7873.38522683
4380,7721.2231375,0.00856247600063,4828,8005.04117708
4390,7721.2231375,0.00858214800064,4839,7907.07400304
4400,7721.2231375,0.00860182000065,4850,7999.86514394
4410,7721.2231375,0.00862149200066,4861,7907.8825139
4420,7721.2231375,0.00864159200069,4872,7999.86514394
4430,7721.2231375,0.00866254700065,4883,7898.91835331
4440,7721.2231375,0.00868221900055,4894,8010.97939163
4450,7721.2231375,0.0087027470006,4905,8016.79789978
4460,7721.2231375,0.00871771500056,4916,7967.63049295
4470,7721.2231375,0.0087322550005,4927,7999.86514394
4480,7721.2231375,0.00874936100047,4938,7919.0951813
4490,7721.2231375,0.00876732300048,4949,7999.86514394
4500,7721.2231375,0.00878485600049,4960,7999.86514394
4510,7721.2231375,0.00880495500053,4971,7975.06286274
4520,7721.2231375,0.00883446300043,4982,7947.39071282
4530,7721.2231375,0.00885156900051,4993,8030.97736806
4540,7721.2231375,0.00886739200052,5004,7987.46400334
4550,7721.2231375,0.00888620900048,5015,8048.33354988
4560,7721.2231375,0.00890246000051,5026,7899.06292694
4570,7721.2231375,0.00891828300053,5037,7999.86514394
4580,7721.2231375,0.00893624400055,5048,7985.40579815
4590,7721.2231375,0.00895591600056,5059,7999.86514394
4600,7721.2231375,0.00897345000055,5070,7952.70710023
4610,7721.2231375,0.00899355000058,5081,7976.06712293
4620,7721.2231375,0.00900980000063,5092,7999.86514394
4630,7721.2231375,0.00902733300063,5103,7908.47569422
4640,7721.2231375,0.00904529400066,5114,7968.75291982
4650,7721.2231375,0.00906411100061,5125,7999.86514394
4660,7721.2231375,0.00908592200062,5136,7805.33319478
4670,7721.2231375,0.00910602200065,5147,7943.3044634
4680,7721.2231375,0.00912612200068,5158,7977.01518984
4690,7721.2231375,0.00914622100072,5169,7995.91597373
4700,7721.2231375,0.00916760300072,5180,7957.70517157
4710,7721.2231375,0.00918513700071,5191,7940.1592033
4720,7721.2231375,0.00920480900072,5202,7903.65117652
4730,7721.2231375,0.00923132300068,5213,7919.0951813
4740,7721.2231375,0.00925997600064,5224,7844.93233031
4750,7721.2231375,0.00928178600066,5235,8033.88625016
4760,7721.2231375,0.00930573500068,5246,7907.8825139
4770,7721.2231375,0.00932497900067,5257,7951.86616492
4780,7721.2231375,0.00934379600073,5268,7999.86514394
4790,7721.2231375,0.00936603400078,5279,8024.71466115
4800,7721.2231375,0.00938741600078,5290,7931.23681944
4810,7721.2231375,0.00941435800075,5301,7874.94134219
4820,7721.2231375,0.00944814300078,5312,7831.22525446
4830,7721.2231375,0.0094738020008,5323,7963.67374547
4840,7721.2231375,0.00949689500078,5334,7996.90638176
4850,7721.2231375,0.00951913300071,5345,7947.39071282
4860,7721.2231375,0.00954094300073,5356,8010.97939163
4870,7721.2231375,0.00956660200075,5367,7979.46980382
4880,7721.2231375,0.0095909780008,5378,8030.97736806
4890,7721.2231375,0.00961407200077,5389,7897.80182528
4900,7721.2231375,0.00964101400075,5400,7978.89467905
4910,7721.2231375,0.00966667300077,5411,8057.78787325
4920,7721.2231375,0.00969233200078,5422,7984.72717064
4930,7721.2231375,0.00971670800072,5433,7954.86698926
4940,7721.2231375,0.00974108400067,5444,8102.69007323
4950,7721.2231375,0.00976588800063,5455,7999.86514394
4960,7721.2231375,0.00979111900062,5466,7844.93233031
4970,7721.2231375,0.00981335700067,5477,8022.36422128
4980,7721.2231375,0.00983516700069,5488,7999.86514394
4990,7721.2231375,0.00985740500062,5499,7963.67374547
