it,funval,time,funcount,weight
0,6181.46515077,0.000976331000061,714,5238.95161703
10,6269.22059261,0.00191246300005,1351,5342.23632217
20,6760.69332114,0.00285201700001,1992,5456.03198997
30,6170.5695723,0.00374923200002,2623,6411.5454033
40,6536.52932014,0.00466654700006,3273,5506.29137372
50,6463.87500585,0.00558899400005,3906,6003.98486255
60,6606.7925255,0.00651015799997,4535,5853.95274831
70,6756.83128458,0.00749119299996,5167,6134.42430574
80,6631.48812457,0.00841192899998,5799,5719.44982813
90,6794.46612979,0.00932667799998,6428,5569.66714489
100,6517.79960434,0.010252974,7067,5709.00225745
110,6712.2451937,0.011187396,7702,5515.53260811
120,7042.85393003,0.012113264,8324,6155.52154607
130,6751.09356627,0.013093016,8939,6348.99205377
140,6869.04060203,0.014005627,9568,5666.68382759
150,6766.08664691,0.0149041259999,10187,6102.51596252
160,6662.85682096,0.0158009139999,10832,6064.80884887
170,6860.42061545,0.0167233609999,11449,6326.43914839
180,6883.54696361,0.01762186,12076,6178.43482399
190,6788.91416205,0.018525918,12703,6192.89753326
200,6963.04309847,0.01944751,13341,6236.69679032
210,6962.18537077,0.0203541339999,13980,6434.23821397
220,6804.01509343,0.021259475,14612,5987.59473453
230,6827.10303886,0.02216952,15249,6233.08995355
240,6991.32349966,0.0230701570001,15880,6297.94277135
250,6996.20383383,0.0240370800001,16530,6454.29218454
260,6912.12870137,0.0249710740001,17152,6567.67218544
270,7098.37392984,0.025855888,17776,6492.68277866
280,7053.2357298,0.026821956,18413,6648.2699992
290,7107.24709833,0.027729863,19050,6583.30353079
300,7045.73812829,0.0286458960001,19686,6804.94303283
310,7027.5907424,0.0295790340001,20328,6690.28835055
320,7172.73237471,0.0304848020002,20955,6645.58959141
330,7174.73482075,0.0314175130002,21587,6550.42871772
340,7169.7936759,0.0323416700003,22209,6864.83346724
350,7193.65543991,0.0332807960003,22832,6177.08795607
360,6961.49802345,0.0342117960004,23454,6292.53915225
370,7117.97326109,0.0351432240003,24084,6297.16627188
380,7137.8088854,0.0360562630003,24718,6099.35824897
390,7023.16983839,0.0369846970003,25348,6491.25102548
400,7156.61499589,0.0379131320003,25982,6460.54942971
410,6994.14824109,0.0388466980003,26618,6440.85212323
420,7002.37069241,0.0397499010003,27248,6788.46016469
430,6872.82799098,0.0406526760003,27884,5866.08544018
440,7061.26593491,0.0415593000002,28518,6407.07895897
450,7024.38415245,0.0424770440003,29157,6466.91762197
460,6898.78739532,0.0433875170003,29785,6569.12160323
470,7015.99499807,0.0443155240004,30417,6405.08936992
480,7136.57013585,0.0452614920003,31056,6935.20150518
490,7224.30581885,0.0461843670004,31687,6353.20080574
500,6968.64628259,0.0471363220004,32319,6252.90036813
510,7310.42501154,0.0480365310004,32932,6250.63604544
520,6989.77262615,0.0489632550004,33565,6078.28319065
530,7097.92758438,0.0498643200004,34186,6124.13809132
540,7012.14467583,0.0508184130005,34816,6824.95386083
550,7060.45624884,0.0517276030005,35445,6490.68431239
560,7098.9950444,0.0526346540005,36061,6687.22908932
570,6998.99110041,0.0535780560004,36699,6086.33685827
580,7162.593928,0.0546702810004,37318,6626.05575319
590,7077.26986373,0.0555841760004,37940,6285.50822322
600,7154.37588274,0.0565258680003,38580,6202.7024816
610,7107.87116135,0.0574543030003,39208,5990.13851457
620,7120.70305231,0.0583711910003,39847,6662.92187653
630,7180.48354451,0.0593612070003,40471,6548.71763869
640,7274.61533101,0.0602682590003,41095,6906.11459708
650,7435.24679214,0.0611641910002,41728,7095.81799929
660,7400.74270762,0.0620755200002,42352,6636.15722701
670,7471.89709344,0.0629919800002,42982,6444.40745388
680,7340.53230043,0.0639896940003,43605,6267.87697406
690,7235.07333911,0.0649108580002,44243,6644.67534649
700,7306.81209568,0.0658311670002,44865,6675.50029382
710,7460.20339216,0.0667638780002,45490,6862.78560846
720,7272.27113456,0.0677209650001,46117,6408.88320703
730,7268.31026892,0.0686502550001,46748,6447.5936457
740,7228.58340427,0.0695748410001,47386,6118.0794214
750,7237.71197619,0.070522947,48022,6499.95325407
760,7392.69275418,0.071439834,48657,6428.33127008
770,7404.94505141,0.0723627089999,49280,6779.3149151
780,7515.35055116,0.073284728,49913,6605.51117179
790,7372.10551671,0.07420632,50548,6603.12890327
800,7472.81048296,0.07512107,51174,6503.09798805
810,7590.53082982,0.0760332540001,51790,6493.38791311
820,7548.38421895,0.0769522800001,52423,6619.5193845
830,7515.06166646,0.0778956820001,53056,6502.12702747
840,7590.99146596,0.078829249,53698,6643.2290933
850,7418.50269917,0.079759394,54322,6943.03783148
860,7454.58296879,0.080676282,54952,7154.36901358
870,7551.33541603,0.081598301,55588,6845.16263887
880,7612.92849945,0.082501076,56220,6718.56904013
890,7531.52188593,0.083439774,56839,6578.73816713
900,7539.11284979,0.0843639320001,57476,6503.39510852
910,7704.86391215,0.0853107550001,58098,6654.05636869
920,7669.44772315,0.0862195170001,58737,6583.20631177
930,7642.10209408,0.0871402530001,59365,6939.72707733
940,7750.09994566,0.0880588520001,59986,6960.24232577
950,7618.06970047,0.0889513640002,60609,6570.86437678
960,7656.83241215,0.0898703900002,61245,6985.93466998
970,7801.78702316,0.0907889890002,61884,7186.35380992
980,7690.15353623,0.0917246940002,62518,6441.29243399
990,7725.37267575,0.0926317460002,63156,6407.83580976
1000,7718.72103953,0.0935713000001,63783,6871.58615068
1010,7719.84717859,0.0944907540002,64419,6839.49991627
1020,7732.50357323,0.0954375770002,65061,6618.77104768
1030,7735.8867846,0.0963715710002,65693,6427.0245876
1040,7765.39312312,0.0972905970002,66317,6883.31884635
1050,7803.30592498,0.0982036360002,66943,6834.40898142
1060,7817.60273527,0.0991384850001,67577,7131.62231709
1070,7723.13590662,0.10006136,68203,6806.85592363
1080,7757.36914332,0.100977393,68815,6956.75176048
1090,7642.79119113,0.101901978,69443,7244.80738842
1100,7597.96181011,0.102832551,70074,6579.55371797
1110,7655.99195547,0.103751577,70696,6937.33212596
1120,7637.54810974,0.104642378,71323,6886.21524145
1130,7696.84867451,0.105559693,71955,6774.38943441
1140,7701.78728509,0.106450494,72586,7172.48417414
1150,7656.77147596,0.107354552,73219,7121.581752
1160,7631.86207863,0.108247492,73851,7168.58091362
1170,7852.1958184,0.109159676,74482,6858.67939321
1180,7771.02062061,0.110073998,75113,6969.86667539
1190,7866.4758963,0.111022532,75749,6882.5990074
1200,7706.96491114,0.111921886,76379,6944.99737695
1210,7553.28563215,0.112859301001,77017,6982.64607396
1220,7558.96655949,0.113775333001,77648,6724.09266067
1230,7690.90256291,0.114690510001,78278,6746.62990902
1240,7829.44267814,0.115593285001,78910,6944.45722427
1250,7745.63150392,0.116485796,79543,6980.29134714
1260,7751.15136442,0.117412948,80173,7054.78457069
1270,7776.1032546,0.118350363001,80806,6739.38483743
1280,7728.63165099,0.119278797001,81435,6701.3915202
1290,7690.27734258,0.120208087001,82075,6657.16528081
1300,7722.04757003,0.121110862001,82723,6903.30478977
1310,7688.46578116,0.122030316001,83333,7126.2042595
1320,7683.91477934,0.122948486,83958,6388.57494239
1330,7624.49751824,0.12388248,84590,6808.00164685
1340,7615.37574344,0.124795092001,85205,6938.84897311
1350,7573.087547,0.125729941001,85841,6860.15746505
1360,7552.05718842,0.126651106001,86461,6800.74494804
1370,7511.42610347,0.127588522001,87095,6063.36105571
1380,7611.4344718,0.128525509,87728,5940.99175859
1390,7528.738539,0.129427429001,88362,6366.44311177
1400,7566.31099047,0.130354152001,88993,6636.74790946
1410,7625.53081825,0.131451081,89630,6476.69493906
1420,7690.1225039,0.132397477,90260,6890.21831332
1430,7756.2877496,0.133300253,90893,6830.33047198
1440,7839.83996061,0.13422997,91524,6944.099256
1450,7804.21156827,0.135142153,92162,6865.51170107
1460,7754.79927309,0.13605904,92802,6980.02334618
1470,7778.67499062,0.136976783,93430,6183.3613286
1480,7790.95088655,0.137912487001,94053,6336.17589927
1490,7964.21782305,0.138834079001,94682,6680.77608583
1500,7823.2391334,0.13975225,95317,6991.38608902
1510,7800.42475778,0.140677263,95954,6637.62129905
1520,7654.95758128,0.141595861,96598,6454.42680127
1530,7705.78735481,0.142518736001,97228,7075.65144473
1540,7803.46683794,0.143450164,97858,6522.33028009
1550,7753.86072067,0.144365769001,98493,6886.08088152
1560,7732.98069511,0.145282657001,99125,6944.87820573
1570,7902.12589936,0.14620596,99763,6732.06455227
1580,7618.27662545,0.147127552,100386,6703.90948206
1590,7728.3385137,0.148029472,101017,6697.16285665
1600,7841.07497489,0.148941228,101644,6627.12830438
1610,7729.99990496,0.149861109,102281,6716.92275417
1620,7752.94795325,0.150798096,102905,6833.80427455
1630,7763.14906008,0.151734656,103526,6652.12375825
1640,7889.25658857,0.152658386,104150,7082.20094708
1650,7751.33208911,0.153569714,104778,6839.71212822
1660,7789.3277097,0.154554171,105411,6998.12499962
1670,7935.9235242,0.155472769,106044,7013.07419569
1680,7890.6249912,0.156387519,106659,7093.83756766
1690,8044.93535384,0.157321086,107306,6890.89477735
1700,7984.85441887,0.15843726,107939,6732.86381106
1710,7869.54874891,0.159375531,108564,7465.38356365
1720,7953.35320314,0.160268042,109195,6869.75107471
1730,8049.16951245,0.161208451,109819,7065.14824965
1740,7815.81066238,0.162131754,110427,6855.28116029
1750,8130.02980599,0.163080716,111065,6524.54337804
1760,8012.48300306,0.16400915,111687,7645.3006028
1770,7939.47525978,0.164917912,112321,7074.40393381
1780,8016.81471577,0.165857894,112952,6952.47907816
1790,8093.81781374,0.166794027,113585,7549.44206313
1800,8191.71284192,0.167747265,114207,7255.82205062
1810,8206.65595705,0.168669284001,114837,7504.35614238
1820,8182.43491676,0.169627226001,115470,7110.16675568
1830,8067.77628135,0.170563786001,116098,7483.05253004
1840,8066.16422919,0.171487517001,116734,6796.39537821
1850,8143.71282738,0.172409109001,117355,7088.8390749
1860,8124.36616627,0.173333267001,117986,7275.55400544
1870,8132.05548753,0.174265122001,118617,7186.23433332
1880,8110.45205646,0.175196122001,119257,7361.86844396
1890,8222.69254973,0.176129689001,119889,7208.85279786
1900,8053.76527108,0.177049998001,120524,7130.76070522
1910,7908.93139571,0.177979287001,121156,7241.17261981
1920,7996.56033729,0.178930387,121800,6749.41000578
1930,7892.28202089,0.179859249001,122437,7011.85825918
1940,7789.31375312,0.180778275001,123074,6579.85229413
1950,7854.11335303,0.181690886001,123706,6835.51658452
1960,7602.66307802,0.182808343001,124354,6623.15275743
1970,7673.30646364,0.183691874001,124979,7277.37111975
1980,7981.03110934,0.184569846001,125606,7505.45568869
1990,7818.34656936,0.185448245001,126245,6480.8765746
2000,7997.0352365,0.186330920001,126863,6801.710691
2010,7991.66678775,0.187213595001,127489,7028.58460312
2020,8163.28602292,0.188097126001,128118,7191.44573306
2030,8022.89301396,0.189015724001,128741,7457.59556683
2040,8056.47599798,0.189924059001,129379,7206.17005287
2050,8077.7376665,0.190839236001,130016,7628.6019869
2060,8046.81708026,0.191734741,130653,7212.97257467
2070,8199.9096337,0.192634095,131272,7187.14615765
2080,7787.76881714,0.19352789,131919,7148.70095326
2090,7903.71856199,0.194425534001,132551,7078.87338317
2100,7842.00833335,0.195361238001,133175,6733.4752757
2110,7981.38125965,0.196286251001,133796,7208.7375714
2120,7881.20759394,0.197216824001,134439,7385.36467413
2130,7954.96077437,0.198142692001,135073,7757.63151378
2140,7995.8257246,0.199087805001,135706,7124.9849189
2150,7776.48680469,0.200079959001,136334,6787.15476068
2160,7720.78197268,0.201022506001,136950,7089.60624005
2170,7864.23335509,0.201956927001,137572,6789.47433531
2180,7950.69042915,0.202873387001,138202,7266.63344691
2190,7788.6049053,0.203829619001,138838,7161.48087308
2200,7777.57567615,0.204748645001,139483,6733.5368097
2210,7919.743878,0.205712575001,140109,7436.60088882
2220,7755.71068986,0.206644003001,140737,6524.50497192
2230,7794.53904766,0.207592965001,141366,7105.43581096
2240,7790.15144946,0.208517550001,142006,7309.16396479
2250,7859.28088731,0.209433155001,142633,7378.43934472
2260,7914.72174632,0.210354747001,143255,7292.8400055
2270,7800.21757356,0.211271207001,143902,7429.8284731
2280,7827.70920749,0.212192799001,144539,7325.65506263
2290,7831.1004176,0.213116957001,145162,7181.82581051
2300,7741.9838878,0.214043681001,145782,7394.48733132
2310,7856.11151505,0.214935764001,146422,7275.93651596
2320,7745.19216544,0.215832125001,147055,7228.58628131
2330,7609.64797638,0.216771251001,147681,6873.70051247
2340,7405.42260386,0.217714653001,148299,6569.24823307
2350,7636.02727223,0.218611442001,148937,6428.96288069
2360,7402.5522185,0.219524909001,149569,6666.34339952
2370,7566.72927584,0.220444791001,150200,6868.32537474
2380,7712.00124883,0.221362535001,150826,6972.33174001
2390,7769.21525302,0.222304654001,151456,7300.53734499
2400,7582.99735357,0.223229239001,152099,6947.49033039
2410,7662.05103793,0.224154680001,152735,6275.37165555
2420,7595.06180062,0.225086108001,153357,6454.39207457
2430,7494.11057391,0.226018819001,153999,7050.0536916
2440,7528.35221078,0.226942977001,154622,6804.2659455
2450,7359.56672173,0.227875688001,155246,6532.91399182
2460,7281.40558164,0.228802412001,155880,6271.19795456
2470,7360.54539306,0.229730846001,156514,6131.61396892
2480,7627.26400581,0.230635331001,157156,6764.1489292
2490,7470.06604028,0.231551364001,157777,6545.86562924
2500,7373.84551129,0.232475522001,158418,6587.81907256
2510,7350.56726399,0.233388561001,159033,6368.99095702
2520,7559.78561714,0.234302883001,159670,6515.59167979
2530,7603.3323768,0.235206513001,160301,6711.06625382
2540,7427.46784932,0.236120407001,160941,7045.8129851
2550,7548.22510521,0.237049697001,161570,6482.60213293
2560,7464.81134981,0.237979414001,162197,6854.4819852
2570,7337.08967371,0.238918540001,162819,6705.96844548
2580,7526.78313656,0.239912406001,163451,6875.41107283
2590,7457.16091599,0.240905416001,164092,6627.57731667
2600,7423.06615883,0.241905696001,164721,6827.57464926
2610,7599.24400406,0.242920089001,165360,6943.51377898
2620,7571.79928316,0.243924646001,166001,7026.89864078
2630,7523.24135314,0.244912524001,166627,6940.29059701
2640,7554.16471028,0.245914087001,167262,6733.67956456
2650,7607.05395308,0.246900682001,167884,6813.61527561
2660,7737.74804616,0.247899679001,168526,7142.1930382
2670,7516.0539303,0.248905091001,169150,6677.9567357
2680,7529.6962135,0.249901950001,169779,6939.19855868
2690,7645.48094467,0.250899664002,170398,7167.48445643
2700,7506.48796365,0.251903793001,171019,6377.44043628
2710,7576.81563633,0.252931443002,171655,7001.19398486
2720,7705.12003705,0.253943270002,172287,6988.61319955
2730,7714.7624071,0.254927299001,172909,6949.17185484
2740,7618.59444041,0.255916032001,173539,7244.61564766
2750,7693.0926285,0.256911608001,174176,6711.39220258
2760,7663.54793791,0.257874683002,174812,7246.68000767
2770,7775.61595726,0.258908320002,175440,7036.17077933
2780,7770.49746509,0.259925706002,176072,6875.2270209
2790,7826.71250353,0.260928124002,176698,7207.47762639
2800,7820.33660263,0.261927977002,177329,7060.17477075
2810,7724.70800965,0.262929540002,177964,6977.56512609
2820,7719.29724232,0.263928538002,178586,6897.8051355
2830,7853.23140916,0.264897600002,179219,7231.59752999
2840,7764.37967573,0.265914131002,179863,7039.34140081
2850,7695.90538419,0.266906713002,180493,7310.12979928
2860,7698.81604935,0.267883473001,181129,6510.44289183
2870,7838.94348827,0.268873917002,181760,7320.0944137
2880,7912.54048105,0.269861368002,182395,7154.60402993
2890,8038.56082816,0.270830429002,183025,7020.49261646
2900,7764.73348146,0.271878178002,183656,7191.33595567
2910,7966.46794111,0.272811744002,184284,7207.02359831
2920,7719.12143237,0.273757284002,184909,7163.24337976
2930,7784.21462102,0.274682725002,185541,6817.43689438
2940,7882.98642457,0.275624416002,186162,7062.00236704
2950,7635.69948276,0.276564825002,186781,6845.44298807
2960,7723.57854897,0.277510366002,187411,6738.44918115
2970,7638.82308576,0.278426827002,188035,6793.3295882
2980,7739.01261078,0.279354834002,188661,7005.00680333
2990,7834.70916562,0.280272149002,189297,7110.3092878
3000,7757.15546045,0.281238216002,189931,6837.87312222
3010,7800.26003761,0.282155531002,190559,7327.57686408
3020,7810.38599023,0.283079689002,191192,6833.08079856
3030,7784.26880263,0.284029078002,191816,7223.80558009
3040,7856.90420288,0.284956657002,192444,6830.50068673
3050,7771.65519554,0.285861998002,193082,6962.04759905
3060,7691.24897677,0.286792998002,193701,7213.44224431
3070,7729.31332043,0.287736400002,194342,7127.69412957
3080,7686.81124989,0.288660985002,194967,7374.2449811
3090,7780.91302872,0.289618500002,195589,7012.40319366
3100,7669.44468726,0.290531539002,196217,7002.76984814
3110,7708.22631834,0.291609651002,196845,6696.6201039
3120,7604.6659757,0.292541507002,197478,6544.06145892
3130,7742.58487498,0.293453690002,198112,6899.46706766
3140,7877.83323013,0.294385974002,198751,6905.85194484
3150,7919.81753553,0.295314836002,199368,7299.16018543
3160,7877.25001741,0.296252251002,199997,7060.18259073
3170,7857.99325415,0.297167428002,200631,7084.82115786
3180,7770.86337644,0.298062506002,201259,7192.06398031
3190,7686.0249637,0.298985808002,201890,7263.68699476
3200,7868.53918789,0.299880030002,202521,7484.46900235
3210,7862.4935147,0.300773824002,203158,7148.51971219
3220,7904.31409745,0.301692850001,203795,6837.33725436
3230,7815.29878576,0.302637108001,204427,6824.11012225
3240,7999.08359031,0.303583503002,205059,7101.23568981
3250,7890.19955459,0.304494404002,205699,7128.21382487
3260,7802.16221497,0.305456623002,206326,6958.60954887
3270,7850.2705766,0.306420553002,206961,7060.25431555
3280,7995.53165653,0.307388759002,207587,6992.77228778
3290,7761.95485689,0.308385618002,208207,7027.97103292
3300,7542.84841736,0.309383760002,208834,6916.33341749
3310,7610.81331536,0.310356671002,209473,6993.71863982
3320,7697.56131321,0.311369353002,210103,6967.4682896
3330,7618.7046366,0.312342691002,210731,6968.87206137
3340,7792.04228264,0.313336984001,211356,6549.11502085
3350,7844.68364551,0.314298348002,211988,6803.61507073
3360,7851.12635255,0.315346953001,212602,6657.18625312
3370,7871.67808355,0.316248017001,213231,6852.94637366
3380,7682.19813822,0.317167471002,213858,6544.28605356
3390,7645.58170085,0.318089918002,214490,6644.3471403
3400,7771.30014279,0.319003812002,215131,6938.62196123
3410,7797.25606752,0.319945076002,215765,6971.67909177
3420,7742.73086774,0.320902591002,216399,6955.6309859
3430,7857.8242556,0.321818623002,217012,7027.45960543
3440,7839.85040514,0.322742781002,217652,6761.39971114
3450,7978.543946,0.323663090002,218283,6883.27566689
3460,8016.82145687,0.324591525002,218907,7251.02233747
3470,7985.96509133,0.325555027002,219526,7335.51401351
3480,7894.84255821,0.326498002002,220168,7577.69553189
3490,7904.32980587,0.327426009002,220800,6788.65929316
3500,7951.19529339,0.328352305002,221435,6640.29150904
3510,7858.90688823,0.329276036001,222064,6603.72343611
3520,7755.80308515,0.330218583002,222690,7022.51115146
3530,7773.18855447,0.331165834001,223316,7027.56953173
3540,7564.82625908,0.332087853001,223938,7096.62613329
3550,7778.63391177,0.333004314001,224569,7158.05899988
3560,7765.74464189,0.333910083001,225204,7324.72599215
3570,8017.5127673,0.334836379001,225827,7053.30160667
3580,7463.59455968,0.335765669001,226460,6563.2379656
3590,7768.41935257,0.336689399001,227083,6787.42606289
3600,7669.5476106,0.337625959001,227726,6687.85448444
3610,7650.97983816,0.338582191001,228358,6931.52948435
3620,7855.97487418,0.339510626001,229000,6532.44424621
3630,7724.33841635,0.340435639001,229628,6444.70112103
3640,7838.20591098,0.341340553001,230250,6766.71082017
3650,7724.55779168,0.342265138001,230880,6425.98525917
3660,7823.48138876,0.343217949001,231513,6887.2380732
3670,7751.22727683,0.344150232001,232136,6975.26697719
3680,7858.42690757,0.345041033001,232774,7270.52385579
3690,7770.05265034,0.345926274001,233399,6937.09825802
3700,7901.01266191,0.346822634001,234029,7118.59267588
3710,7735.73210654,0.347744654001,234657,6739.66446238
3720,7841.96901131,0.348679503001,235289,6861.83383851
3730,7873.66097429,0.349657545001,235907,6949.14213541
3740,7999.49707031,0.350816912001,236532,7167.11897482
3750,7952.73803269,0.351746629001,237150,7159.60149808
3760,7990.54050362,0.352680623001,237779,7167.37688755
3770,7956.9915086,0.353645408001,238414,6807.9422482
3780,8012.09633046,0.354592231001,239043,7287.82750498
3790,8078.29327376,0.355533067001,239684,6985.61960357
3800,8100.27712429,0.356448672001,240318,7522.66998312
3810,8045.22030066,0.357412174001,240967,7127.00550988
3820,8158.26344478,0.358365840001,241606,7258.5757864
3830,8174.10917105,0.359307104001,242231,7026.73535585
3840,8245.75442479,0.360252644001,242865,7584.60993148
3850,8247.28824477,0.361178940001,243490,7201.13133369
3860,8064.6577754,0.362124481001,244099,7521.18070404
3870,8056.05069378,0.363180356001,244736,7331.27055468
3880,8295.52814705,0.364162675001,245364,6813.20477533
3890,7899.70777461,0.365260460001,245989,7065.59792581
3900,7826.86471501,0.366212416001,246617,7170.97242267
3910,7952.16978417,0.367358953001,247257,7044.46157253
3920,7786.06342617,0.368318606001,247879,7111.41746746
3930,7806.3368634,0.369271844001,248506,7306.62867345
3940,7850.92252193,0.370204555001,249135,6960.53628244
3950,7987.32210542,0.371150523001,249763,6861.07591116
3960,7883.11399009,0.372066556001,250396,7066.19783825
3970,7850.89025982,0.372983871001,251026,7527.65840611
3980,7848.54217641,0.373899476001,251658,6769.17723543
3990,7678.64269252,0.374798830001,252280,7215.70816564
4000,7838.22980922,0.375856844001,252915,6888.63161265
4010,7584.67822133,0.376808799001,253542,6969.8071439
4020,7804.47467549,0.377722693001,254175,7001.84836817
4030,7631.5642991,0.378653266001,254809,6567.17287631
4040,7667.28620706,0.379568871001,255442,6735.19495568
4050,7562.16429629,0.380506286001,256079,7235.52596852
4060,7715.40172642,0.381441991001,256715,7032.77847462
4070,7631.15053331,0.382339634001,257351,6765.37645531
4080,7534.63226536,0.383237278001,257989,6537.2892147
4090,7587.70518285,0.384147324001,258615,6679.64595616
4100,7502.61842439,0.385079607001,259240,6518.04947953
4110,7807.17899045,0.385965704001,259875,6449.33534143
4120,7480.66213581,0.386874894001,260500,6677.39351007
4130,7588.91607789,0.387800335001,261124,6745.31497752
4140,7424.20487465,0.388727058001,261756,6782.84910158
4150,7618.77078082,0.389633254001,262376,6794.89561713
4160,7626.87702663,0.390565110001,263019,6763.10657296
4170,7536.89106473,0.391486274001,263638,6839.16516759
4180,7590.96406074,0.392371944001,264287,6795.88904482
4190,7553.78544413,0.393329031001,264912,6725.21224395
4200,7719.49708768,0.394250195001,265545,7209.17747807
4210,7679.34584469,0.399641187001,266177,7002.99283102
4220,7861.26220424,0.400563634001,266817,6898.5968922
4230,7667.52975885,0.401451869001,267442,6782.49288771
4240,7776.88468696,0.402379448001,268081,6464.04224678
4250,7702.30175457,0.403306599001,268717,6912.51783949
4260,7710.42804285,0.404251285001,269356,7033.53792505
4270,7582.54802113,0.405191693001,269982,6376.99575013
4280,7680.55297027,0.406108154001,270619,6788.69538902
4290,7583.52239757,0.407019910001,271245,6436.95922424
4300,7693.28929563,0.407957325001,271872,6471.17654804
4310,7678.90897812,0.408856679001,272498,6859.67975576
4320,7685.95344794,0.409748335001,273134,6277.91490604
4330,7636.68263026,0.410684467001,273774,6650.23593489
4340,7588.38282701,0.411667641001,274388,6808.66344085
4350,7715.32112777,0.412599924001,275028,6938.65924872
4360,7716.75952136,0.413527075001,275664,7150.17881145
4370,7811.88573598,0.414496565001,276303,6791.08407221
4380,7845.22398187,0.415417302001,276933,6613.87241559
4390,7771.15505074,0.416349158001,277555,6444.91391569
4400,7585.25514829,0.417282297001,278191,6482.66602569
4410,7629.56423567,0.418221423001,278820,6856.168042
4420,7821.03899131,0.419165253001,279441,6675.86826102
4430,7875.15825035,0.420111649001,280086,6896.53276745
4440,7790.93551438,0.421072585001,280705,6814.47407452
4450,7830.02397555,0.422062601001,281325,7093.4208303
4460,7615.09144552,0.423000016001,281947,6826.69812208
4470,7533.04452539,0.423932299001,282573,7079.26539245
4480,7615.77147909,0.424875273001,283203,6562.60399863
4490,7749.44760189,0.425814399001,283841,6581.86769202
4500,7834.49324488,0.426780467001,284466,6774.61308182
4510,8042.77291877,0.427718310001,285089,6837.766083
4520,7993.9537838,0.428648455001,285726,6746.42557169
4530,7861.2894862,0.429595706001,286359,6662.77780771
4540,7819.2701838,0.430542957001,286990,6379.98596682
4550,7910.12077139,0.431477378001,287621,7048.13080649
4560,7996.82300327,0.432414793001,288243,6958.92064826
4570,7986.23694073,0.433368887001,288881,7196.38861661
4580,7993.66437207,0.434298177001,289507,6485.44663318
4590,7953.9063974,0.435237303001,290127,6833.77358256
4600,7864.26947684,0.436176857001,290748,6896.11680996
4610,8115.42079452,0.437109995001,291368,7310.83447128
4620,8089.74734884,0.438043134001,291993,7117.64576768
4630,8057.57162156,0.438974990001,292616,7158.92272609
4640,8204.15313457,0.439942341001,293246,6810.60423661
4650,8018.49667827,0.440875052001,293886,6486.62746356
4660,7962.32623873,0.441819737001,294510,6528.50682795
4670,7956.40369652,0.442743895001,295134,7095.46489386
4680,8003.51088916,0.443656934001,295758,6969.61449933
4690,8005.99525594,0.444598626001,296403,6681.72980208
4700,8040.80025167,0.445528343001,297045,7310.26357979
4710,8002.72560844,0.446442664001,297676,6822.25020702
4720,7978.94662464,0.447398469001,298324,6577.35618237
4730,7916.4975787,0.448351707001,298946,6711.76055684
4740,7825.65928672,0.449314781001,299572,7069.94067819
4750,8079.1459423,0.450288547001,300201,6864.28058394
4760,7933.95938058,0.451215271001,300839,6925.37624186
4770,7865.52497642,0.452156963001,301479,7273.14639273
4780,8004.39690602,0.453090101001,302102,6531.65278772
4790,7934.45014018,0.454026233001,302725,7187.20129937
4800,7686.66515818,0.454961082001,303355,6867.90837038
4810,7738.05922721,0.455892083001,303983,6819.31520576
4820,7918.43227697,0.456829498001,304617,6773.78003742
4830,7891.60524419,0.457724576001,305245,6833.66745813
4840,8055.11968982,0.458655576001,305864,6593.51627782
4850,8053.52905835,0.459592563001,306506,6740.76191285
4860,7905.47875154,0.460522280001,307146,7271.09048825
4870,7943.17496974,0.461447720001,307766,6736.28809522
4880,7929.74859532,0.462459547001,308397,7018.30892562
4890,7896.13967524,0.463420483001,309015,7149.28237392
4900,7730.43922638,0.464389544001,309651,6907.01249154
4910,7825.9085872,0.465315412001,310296,6313.35967293
4920,7862.34508907,0.466231017001,310930,7236.4586008
4930,7887.72168605,0.467161590001,311571,6805.03190442
4940,7731.77719047,0.468140487001,312203,6933.52120706
4950,7653.95530815,0.469088594001,312825,6720.16674248
4960,7792.43380148,0.470023015001,313455,7369.35657843
4970,7772.01893105,0.470952305001,314078,7131.44928745
4980,7537.73080693,0.471879884001,314705,7066.4070052
4990,7438.35545458,0.472812167001,315336,6603.53060874
