it,funval,time,funcount,weight
0,25485.2539069,0.00224817100025,281,27087.4911543
10,25537.587396,0.00473625500035,469,26671.3079463
20,25837.0023225,0.00684971600003,649,24828.4502911
30,25691.5021808,0.00904143699972,840,26809.9071795
40,26024.2367522,0.0111065719993,1029,25834.4378065
50,25826.2693312,0.0131498969995,1214,26453.2676488
60,26186.4604686,0.0153591519993,1401,25674.9224842
70,26257.8777387,0.0173605679993,1588,25335.8806288
80,26903.281263,0.0197075269989,1777,26183.3873457
90,26543.1513824,0.0221109369986,1963,25760.0648182
100,26953.0663642,0.0241166289989,2149,26170.1189485
110,26592.1427252,0.0260953789984,2338,26133.489833
120,26121.0614598,0.0284269429985,2525,26484.8211044
130,26702.2437396,0.0308414709989,2717,26365.2082955
140,26033.3969637,0.0330626999985,2906,26147.5230502
150,26260.0827439,0.0354203499983,3091,26082.171224
160,26260.0827439,0.0381256819983,3277,25600.7305785
170,26262.0688293,0.0403747079981,3469,25085.342897
180,26647.9840454,0.0427409109989,3663,26099.2697363
190,26829.5523392,0.0454381179989,3849,26594.2997316
200,26720.6868889,0.0478051769987,4038,26272.9360435
210,26443.969349,0.0501897699987,4227,26861.4171125
220,26558.2256849,0.0523241849987,4416,26460.251815
230,26571.3002299,0.0541241759984,4603,26431.4858492
240,26646.1519173,0.0559515369978,4792,26970.9513547
250,26755.3979346,0.0579131809973,4978,26505.8037588
260,26847.7174336,0.0602849439974,5167,26588.1182822
270,26943.8549635,0.062567754997,5354,26820.3390477
280,26943.8549635,0.0650447199969,5543,27384.6838877
290,27020.8898372,0.0673566119967,5727,26722.658568
300,26775.6087589,0.0696543909971,5914,26878.0015434
310,26752.7555155,0.0719709859977,6100,26679.228159
320,26690.1162097,0.0739651319982,6290,26750.5920547
330,26679.8509269,0.0759100969981,6480,26629.1607667
340,26761.8164388,0.078011583998,6669,27129.3217894
350,26503.0654414,0.080436375998,6858,27017.7348424
360,26516.7869414,0.0826199719977,7050,26873.6657799
370,26865.9191008,0.0850032809976,7241,26712.3369615
380,26718.7672847,0.0869683459978,7428,26658.8380069
390,26701.0850722,0.088871828998,7615,26629.4436257
400,26625.086765,0.0911512189987,7805,27088.4551643
410,26700.425848,0.0930914799992,7993,26609.4395435
420,26755.5906653,0.094886339999,8183,27070.9378221
430,26609.6971325,0.0967329449986,8372,27055.8699198
440,26816.747883,0.0986689289984,8560,26973.2750089
450,26783.3265893,0.100994505999,8743,26891.5262177
460,26885.8628126,0.103303831998,8936,27196.7917877
470,26792.2396038,0.105711516999,9119,27173.5177151
480,26963.6804323,0.108002880999,9301,27127.5335944
490,27006.8688428,0.110339149,9492,27194.2125631
500,26946.8528999,0.112383756999,9677,27020.7921779
510,26843.8532153,0.114757230999,9858,26801.8734281
520,27011.7971839,0.116685945999,10044,26725.0800609
530,26912.0560053,0.118893916999,10231,27458.5800261
540,26974.5830832,0.120802958998,10416,27073.0133273
550,27070.3781269,0.123048564998,10601,27007.9364289
560,26938.3925836,0.124919973999,10787,27540.3926452
570,26932.2439292,0.127259234999,10964,26913.33952
580,26953.4763274,0.129523656999,11153,27306.3905735
590,26936.9221607,0.131827850998,11341,26909.4799965
600,26936.9221607,0.134143163998,11526,27094.2815062
610,27018.1128805,0.136418704998,11714,27058.3389656
620,26960.9592041,0.138790467998,11901,27240.5331196
630,26960.9592041,0.141056172997,12090,27164.7679297
640,26971.8676585,0.143423659997,12280,26712.1363449
650,27013.4214491,0.145672258997,12461,27093.7996413
660,26986.9245003,0.147999117998,12650,27235.1227267
670,26996.7334394,0.150230182998,12834,27459.4133076
680,26916.4652072,0.152506151998,13020,26809.8577536
690,26950.7175407,0.154791528998,13215,27513.1891144
700,27094.8238106,0.156890449997,13398,27332.614281
710,26939.9374363,0.158759292997,13591,27429.0610353
720,26947.4564578,0.160940322998,13789,27453.7115872
730,26948.9955103,0.163219285998,13975,27598.3666898
740,26997.416742,0.165264321998,14157,27444.3682547
750,26963.0229169,0.167753261998,14343,27328.0050362
760,27008.0710412,0.169973635998,14522,27092.5692949
770,27201.9593126,0.172246183998,14714,27644.1917391
780,27063.0054,0.174523007998,14897,27481.5821669
790,27172.3862135,0.176979018998,15077,27045.0897672
800,27319.2569729,0.179192977998,15269,27337.1270865
810,27201.854242,0.181194820998,15454,26995.9244076
820,27195.2728169,0.183594808997,15642,27008.6601604
830,27269.7481087,0.185592803997,15833,27443.0121562
840,27282.9087781,0.187964566997,16024,27611.4340654
850,27427.7187987,0.190295702997,16213,27218.5685935
860,27419.0611572,0.192111516997,16403,27073.485444
870,27508.4978793,0.194424691997,16588,27721.1779544
880,27313.1397518,0.196778065997,16775,27272.4650364
890,27105.0533526,0.198868005997,16959,27334.7062844
900,27053.0171404,0.201318884997,17148,27393.1841285
910,26957.2103314,0.203537548997,17339,27386.0425036
920,27027.5471221,0.205828912997,17521,27330.4167318
930,27281.2159389,0.208174588997,17705,27213.8827334
940,27140.8597303,0.210451412997,17884,27375.0085378
950,27105.3194322,0.212652969997,18069,27409.1905202
960,27124.5438227,0.214894726997,18258,27887.5693169
970,27218.9751868,0.217326361997,18449,27600.134217
980,27392.6846547,0.219582230997,18635,27452.5745264
990,27427.3531513,0.222168247997,18823,27515.4010675
1000,27406.5128693,0.224475435997,19011,27467.0788141
1010,27371.1028391,0.230065286997,19199,27579.5158025
1020,27308.7258236,0.232381454997,19385,27597.2158914
1030,27376.2801312,0.234714300997,19574,27565.9663183
1040,27575.8333193,0.236971024998,19757,27663.3753181
1050,27421.5461725,0.239253835997,19945,27549.8690166
1060,27286.9388899,0.241531942997,20132,27553.6805236
1070,27305.6554436,0.243490593997,20321,27904.1316887
1080,27524.3178764,0.245640832997,20512,27464.3434094
1090,27277.9091951,0.247821007998,20696,27809.8759059
1100,27486.1538889,0.250097831999,20880,27430.1456895
1110,27145.5613907,0.252055626998,21063,27391.6781992
1120,27142.5652266,0.253923614999,21252,27552.3088607
1130,27092.836522,0.256040068999,21440,27423.7227225
1140,27163.9201327,0.257965789999,21630,27378.1776371
1150,27196.5968366,0.260247745999,21818,27205.820871
1160,27207.2729366,0.262550228998,22001,27720.439417
1170,27183.9531887,0.264864257999,22184,27931.4318925
1180,27210.8125808,0.267073511998,22374,27805.2995255
1190,27149.1503354,0.269342637997,22560,27408.4788592
1200,27145.2592866,0.271677194997,22748,27572.3338047
1210,27201.0605295,0.274072478996,22938,27711.6283649
1220,27273.9807181,0.276070472996,23121,27630.088452
1230,27301.7698346,0.278333184996,23306,27850.4233751
1240,27348.3561825,0.280667313997,23500,27649.5852736
1250,27290.993132,0.282581059997,23687,27385.7186833
1260,27190.9767582,0.284972922997,23875,27630.3551586
1270,27127.0198599,0.286766926997,24066,27409.924508
1280,27175.4628129,0.289065133997,24252,27458.4398381
1290,27142.5460398,0.290999835996,24437,27410.1485
1300,26970.8625563,0.293413936996,24628,27443.9527155
1310,26975.5434406,0.295343934997,24816,27506.2404932
1320,27082.3727017,0.297353047997,25009,27688.7575413
1330,27352.2659441,0.299572566997,25200,27379.5502115
1340,27346.5778144,0.301888734997,25392,27533.917466
1350,27241.8941594,0.304325927997,25583,27880.7769239
1360,27136.2506688,0.306675880996,25766,27807.3331042
1370,27381.9317923,0.308727331996,25950,27883.4965844
1380,27255.5742618,0.310987476996,26142,27674.6980879
1390,27221.5214703,0.313015833996,26334,27904.5995658
1400,27200.8079063,0.315605272996,26519,27697.6704703
1410,27145.158153,0.317921868997,26707,28000.793269
1420,27107.4363995,0.319979306996,26899,27856.7918906
1430,27072.2707359,0.322697895996,27086,27921.9343551
1440,27100.4343513,0.324751484997,27275,27504.2312633
1450,27149.5422045,0.326743491997,27464,27641.3313298
1460,27212.2001882,0.328981398997,27654,27327.661135
1470,27270.6216508,0.330939193997,27848,27879.8815379
1480,27263.8924323,0.333176673997,28037,27572.252529
1490,27171.054524,0.335324345997,28227,27921.1296157
1500,27236.0854429,0.337667882996,28413,27995.0807089
1510,27151.0062027,0.340027670996,28606,27774.5524973
1520,27130.5138187,0.342089385997,28794,27600.7182083
1530,27179.6035271,0.344539836997,28978,27896.4536199
1540,27003.789596,0.346927849997,29160,27325.7859285
1550,26992.9881507,0.348878374996,29350,27872.1728457
1560,26996.7558832,0.351230465996,29540,27798.1371328
1570,27190.2558042,0.353694174996,29728,27927.3005184
1580,27141.769936,0.355557457996,29916,27930.7495743
1590,27155.6748874,0.357912969996,30106,27946.6174237
1600,27160.9794952,0.360139758996,30291,27575.2640828
1610,27197.719646,0.362568399995,30475,27638.6804799
1620,27087.400238,0.364843941995,30662,27668.2406059
1630,26985.9703622,0.367092540994,30852,27460.9019137
1640,26837.9888811,0.369692670994,31040,27886.2459021
1650,26965.3301151,0.371372918995,31228,27446.9626415
1660,26999.2530839,0.373157086995,31414,27736.7305014
1670,26944.675469,0.375064845995,31602,27653.9197437
1680,26952.724048,0.376745948995,31782,27882.1615093
1690,26917.8047672,0.378728119995,31964,27723.3332749
1700,26875.9259468,0.380558901995,32150,27672.7662625
1710,26724.7952047,0.382374287995,32340,27777.8392677
1720,26852.268274,0.384191812995,32525,27231.3849807
1730,26852.268274,0.385946899995,32708,27712.2486117
1740,26839.8278052,0.387879035996,32900,27712.5469187
1750,26774.294696,0.389586225996,33087,27610.0888207
1760,26855.7900448,0.391800611996,33268,27355.3275344
1770,26947.5543231,0.393522342995,33456,27648.5237135
1780,26971.0413278,0.395764526996,33642,28064.1795957
1790,26971.0413278,0.397829661995,33832,27720.7945194
1800,26957.9613054,0.400073556995,34019,27767.9504073
1810,27093.1846985,0.402268271995,34200,28016.3694283
1820,27049.8372021,0.404312024995,34391,27422.5243407
1830,27036.305466,0.406114154996,34581,27846.4464374
1840,27072.41004,0.408178007995,34767,27691.9866628
1850,27096.8674474,0.409886908995,34959,27983.9404573
1860,27072.41004,0.412018758995,35150,27578.7392838
1870,26942.0206954,0.414230579995,35339,27671.0580158
1880,26935.9557608,0.416190512995,35530,27731.888889
1890,27009.3497516,0.418304401995,35718,27932.0994612
1900,27198.2728018,0.420535894995,35906,27622.9790665
1910,26898.0588098,0.422288415994,36093,27667.4981761
1920,26956.8658963,0.424119197995,36282,27487.2782956
1930,26956.4531346,0.426371645995,36469,27447.0488949
1940,26914.9199411,0.428784463995,36652,27545.643445
1950,26904.1242475,0.431092078995,36843,27758.7802009
1960,26781.2337283,0.432987436994,37029,27117.5102212
1970,26861.0722837,0.434865688994,37221,27537.0380382
1980,26974.1511019,0.437157480995,37413,27192.2014868
1990,26913.7862106,0.439457397995,37597,27441.0664896
2000,26994.0666113,0.441457101995,37784,27712.9080462
2010,26975.4204313,0.443493584995,37973,27193.5095221
2020,26905.6930667,0.445779816995,38159,27350.6779891
2030,26983.4074497,0.447593919996,38348,27056.4576687
2040,26955.3011425,0.449877158996,38534,27202.3539002
2050,27017.0917584,0.451855480997,38723,27227.5613692
2060,26927.0278226,0.454084407997,38904,27408.0106463
2070,26912.5360971,0.456346691996,39092,27471.328838
2080,27023.2596475,0.458699637996,39281,27689.8889711
2090,27072.2347777,0.460599699996,39467,28036.5345731
2100,26956.1161417,0.462497195996,39652,27379.9547772
2110,26774.2339519,0.464572594995,39841,27528.5893306
2120,27016.4520079,0.466973010995,40019,27531.4951348
2130,26835.7904518,0.469180126996,40207,27636.0766378
2140,26836.1148865,0.471668210996,40398,27646.4367395
2150,26839.1464931,0.474016879995,40584,27529.3643274
2160,26743.6316505,0.476501542996,40769,27302.1439577
2170,26946.9832895,0.478411012996,40956,28089.0168729
2180,27155.0600427,0.480745569996,41151,27551.9550991
2190,27037.9858576,0.482975779995,41338,27369.9161854
2200,27005.416731,0.485212831995,41526,28001.6765723
2210,27071.9967918,0.487487089996,41709,27047.240578
2220,27108.1623015,0.489762630996,41893,27791.545368
2230,27033.1387972,0.492102747996,42083,27554.6146556
2240,27189.5808044,0.494335095996,42273,28042.0927746
2250,27180.0977853,0.496686759996,42463,27881.4337838
2260,27209.3667773,0.498907989996,42652,28099.1753847
2270,27209.3667773,0.500938057996,42837,27850.4104388
2280,27269.5651773,0.502933486996,43023,28108.2111186
2290,27063.2036697,0.505244095995,43215,27970.4835284
2300,27027.7412637,0.507114221996,43399,28049.527696
2310,26987.5882745,0.509307652996,43583,27771.4820867
2320,27118.2020688,0.511708068996,43772,27775.3829957
2330,27045.6319398,0.514192303996,43959,27750.98873
2340,26947.2848607,0.516065423996,44148,27961.266528
2350,27016.5458495,0.517917159997,44340,28164.05355
2360,27016.5458495,0.520255565997,44528,27578.3652217
2370,27208.5776095,0.522651705997,44715,28076.9728193
2380,26867.2462362,0.524896883997,44900,28054.3428001
2390,26932.8746646,0.527202360997,45088,27896.4621001
2400,26772.7338468,0.529096862997,45272,27554.6006615
2410,26832.6004549,0.531241113997,45456,27751.5628293
2420,27069.3073298,0.533547017996,45645,27624.9505306
2430,26685.9644615,0.535678439996,45829,28031.8381458
2440,26785.5412457,0.537927466997,46023,27776.4705023
2450,26886.1934794,0.540165801996,46207,27918.2446659
2460,26802.4603673,0.542529866997,46388,27881.5401774
2470,26886.2077553,0.544914886998,46571,27582.3483891
2480,26742.5551691,0.547195987997,46757,27863.8115803
2490,26727.2671753,0.549312014997,46941,27872.1937285
2500,26805.6732447,0.551893755996,47126,27739.0846994
2510,26686.1778526,0.554177421996,47319,27744.781921
2520,26607.387276,0.556206634997,47505,27851.3331301
2530,26580.2192629,0.557912114997,47694,27703.5650837
2540,26677.6298016,0.559627002996,47878,27987.1290359
2550,26737.4735458,0.561662630997,48062,27942.2736052
2560,26775.5554206,0.563436107996,48248,27920.0104212
2570,26768.8642642,0.565783922996,48430,27888.1119594
2580,26736.2642583,0.567733164997,48620,27878.3014643
2590,26782.0245335,0.569435650997,48807,27804.4370632
2600,26887.0989306,0.571733001997,48992,27897.3652957
2610,26801.8990437,0.574119732996,49178,28045.8968477
2620,26766.4759285,0.576463698996,49366,28161.9313142
2630,26865.3397173,0.578758911996,49560,28144.1291204
2640,26861.0489536,0.580738089996,49751,28071.7190464
2650,26761.7804179,0.582772006996,49940,27863.4752735
2660,26763.1184268,0.585096727997,50132,28219.1479696
2670,26876.2960772,0.587282461996,50319,27861.5952886
2680,26850.3740719,0.592986496997,50512,27610.2670031
2690,26877.3542212,0.594944291996,50702,27927.9041181
2700,27045.8618957,0.597168086996,50889,28339.2143606
2710,27222.8511048,0.599488103997,51075,28213.9006798
2720,27087.3157497,0.601504486996,51261,27791.8229157
2730,27038.5335764,0.603779599996,51449,27933.743446
2740,27101.039472,0.606116294997,51636,28014.9405268
2750,27117.4965913,0.608056983998,51823,27965.8809088
2760,27179.3485501,0.610109289998,52008,27957.6021374
2770,27175.2597312,0.612097447998,52193,27595.6556601
2780,27249.9336527,0.614813898998,52385,28209.8686148
2790,27150.3685899,0.616695571998,52566,28079.3424615
2800,27330.2052283,0.618783373999,52751,28175.2665762
2810,27062.0683003,0.621102535998,52935,28003.2778722
2820,26957.5876099,0.623539729998,53125,27850.2149227
2830,27081.8102724,0.626257035999,53318,27778.6806762
2840,27146.9483786,0.628524878998,53494,27937.1845671
2850,27172.6918765,0.631069412998,53684,28011.9731118
2860,27379.4611627,0.633645165998,53862,28047.1663121
2870,27187.7172443,0.635889915998,54044,27812.2930287
2880,27161.2382184,0.638271086998,54234,27998.8202937
2890,27270.0554871,0.640559885997,54417,28181.6849796
2900,27291.7967,0.642612191997,54599,27903.4019457
2910,27301.1553713,0.644813748996,54785,28082.0707881
2920,27219.8136746,0.647097414996,54973,27804.3497437
2930,27159.3030542,0.649511086996,55167,28219.0604822
2940,27086.8481438,0.651919627997,55349,27852.7285271
2950,27073.9892298,0.654138718997,55534,27778.8181655
2960,27052.292427,0.655866863997,55720,27864.7694749
2970,27116.5019153,0.658222802997,55907,28065.6602321
2980,27164.5567928,0.660125002997,56099,27652.3117187
2990,27086.2895284,0.662552788996,56283,27719.2516745
3000,27169.4347565,0.664866818996,56470,27599.0590155
3010,27173.4754011,0.667181703996,56661,27503.1432138
3020,27086.9346088,0.669218614996,56845,27815.9056167
3030,26980.6465932,0.671522380996,57030,28161.6310776
3040,27005.5885206,0.673859075996,57212,27979.5154902
3050,27020.4986036,0.675848089996,57404,27678.2530571
3060,27082.5416894,0.678065041996,57595,28252.8349197
3070,26952.0466857,0.680197746996,57783,27816.1329674
3080,27007.4528899,0.682271862996,57972,27701.5308803
3090,26980.5520358,0.684301931996,58162,27929.1694744
3100,27051.7255114,0.686506909996,58342,27800.3047794
3110,27140.0323593,0.688768338996,58527,27833.4345509
3120,27051.3192534,0.691093487996,58716,27841.1958861
3130,27056.0195039,0.693336954996,58903,27554.6446366
3140,27073.8680037,0.695512425996,59092,27762.2210903
3150,27079.7598436,0.697482194995,59280,27577.0039648
3160,26936.6505388,0.699392519996,59463,27841.6008896
3170,27040.9221997,0.701598352996,59650,27735.0290444
3180,27005.2701428,0.703545455995,59837,28015.01828
3190,27025.980002,0.705903105995,60025,27575.9535355
3200,27130.2650597,0.708097820995,60210,27806.9136887
3210,27051.5811823,0.710337010995,60397,27681.4429027
3220,27084.5964165,0.712888815995,60588,27747.1731522
3230,27091.0982976,0.714823945996,60778,27569.8811543
3240,27109.5858905,0.716759502996,60969,27720.2948387
3250,27155.921901,0.719065406995,61159,27788.5544107
3260,27145.4706104,0.721266108996,61346,27207.2829938
3270,27197.8436727,0.723627607997,61532,27645.0167774
3280,27197.8436727,0.725870646997,61716,27622.9512413
3290,27165.2829297,0.728164148997,61905,27370.5775068
3300,27301.991445,0.730052235997,62091,27833.331257
3310,27141.6263905,0.732064770998,62280,27989.1034694
3320,27323.048094,0.734064475998,62465,27890.6616744
3330,27148.6917707,0.736111649998,62645,28086.6427034
3340,27229.1995836,0.738357254998,62826,27626.9170578
3350,27248.1073144,0.740400579997,63017,27416.9500971
3360,27242.2363932,0.742402422998,63204,27904.9284972
3370,27070.5129972,0.744673259998,63392,27443.3209668
3380,27138.2369862,0.746944524999,63570,27664.152001
3390,27091.8865531,0.749175589999,63752,28011.9825105
3400,27145.183024,0.751141938,63939,27676.9132886
3410,27145.183024,0.753260103,64125,27614.5024923
3420,27442.1354807,0.755482188,64314,27619.2234905
3430,27508.7143737,0.757730787001,64504,27736.654246
3440,27455.6565187,0.759404621001,64693,28026.8397339
3450,27521.4519342,0.761110101,64878,28010.9829922
3460,27600.8312984,0.763377517,65063,27901.6181852
3470,27615.2660144,0.765862179999,65249,27946.1831758
3480,27509.0353916,0.768089823999,65438,27889.73845
3490,27546.6980905,0.770304637998,65624,27953.112977
3500,27370.7147059,0.772357371998,65810,27853.6837795
3510,27227.9641444,0.774700481998,65995,27504.1687313
3520,27383.0746025,0.777007669998,66180,27750.2967628
3530,27224.7114986,0.779061258998,66372,27994.9674698
3540,27299.6853803,0.781340220998,66562,27838.7820218
3550,27396.5819774,0.783688034998,66753,28120.3776994
3560,27387.1956354,0.786208193997,66936,27773.1334554
3570,27403.7603616,0.788415310998,67124,28086.4643512
3580,27497.2952792,0.790716510998,67311,28112.6874759
3590,27303.9730082,0.793139591998,67497,27945.2932695
3600,27537.3289887,0.795549843997,67682,27965.6154164
3610,27461.4097217,0.797374210996,67871,28452.536823
3620,27624.0744823,0.799159660996,68055,28162.4885827
3630,27542.478769,0.800916886996,68249,28035.485973
3640,27467.0946039,0.803076961995,68440,27955.8521294
3650,27467.0946039,0.804796126995,68628,28291.5732061
3660,27450.484245,0.806699609995,68813,28283.2450672
3670,27603.4093444,0.808495751995,69001,28261.0287656
3680,27533.1388984,0.810825176995,69189,28218.9836255
3690,27669.1518196,0.812515260995,69381,27921.5954926
3700,27678.1796356,0.814213470994,69564,27898.303742
3710,27734.7177586,0.816196924995,69755,28073.4473866
3720,27580.1606431,0.817957999995,69932,27940.4766721
3730,27551.349728,0.820194624995,70120,28311.6149608
3740,27444.8207453,0.822004451995,70309,28547.7995571
3750,27563.6943862,0.823931027995,70497,27838.3518993
3760,27485.2124373,0.825934581995,70680,28022.5661018
3770,27506.3473049,0.828170778995,70867,28311.4027132
3780,27727.0813909,0.830169627995,71054,28748.393905
3790,27721.8304445,0.831925998995,71237,28198.0398312
3800,27817.0525798,0.833856850994,71429,28289.6015646
3810,27823.4231004,0.835836027994,71611,28426.4439561
3820,27876.9149875,0.838091041995,71796,28250.152991
3830,27754.8741423,0.840095022994,71985,28506.7180945
3840,27812.4304693,0.841967287994,72175,28357.4746084
3850,27812.4625073,0.844235130994,72363,28134.9430541
3860,27802.9144676,0.846232696994,72550,28551.6879812
3870,27958.5773579,0.848499684994,72732,28457.5035059
3880,27817.4928712,0.850725190993,72916,28641.6002
3890,27807.038548,0.852990467993,73108,28034.7770415
3900,27628.6013592,0.855030371993,73291,27864.6637931
3910,27614.1067068,0.856975336993,73476,28537.9390081
3920,27667.3169099,0.859176037993,73669,28188.3233236
3930,27799.0181579,0.861241172994,73857,28113.9319789
3940,27749.2067123,0.863143372994,74046,28496.2053286
3950,27779.3955575,0.865520695995,74237,28250.8747306
3960,27795.3989115,0.867848837995,74423,28543.3810349
3970,27876.6567422,0.870260371995,74613,28518.0136876
3980,27846.7246357,0.872150169995,74802,28512.3731662
3990,27785.1610512,0.874368404995,74991,28576.6367926
4000,27776.0744426,0.876435250995,75177,28659.2360173
4010,27952.475707,0.878706087995,75363,28323.5038232
4020,27943.2089102,0.880586049995,75555,28846.949475
4030,27928.6197775,0.882827377995,75741,28042.503383
4040,27861.8181098,0.884759941996,75927,28236.4368036
4050,28129.3264463,0.887144961996,76116,28300.0905851
4060,27730.2789286,0.889560345995,76306,28162.4809313
4070,27843.8950882,0.891765323995,76490,27952.966188
4080,27912.0135798,0.894066951995,76675,28425.7784474
4090,27798.8402783,0.896079913995,76861,28602.3588875
4100,27837.3578622,0.898218605995,77050,27940.0294465
4110,27863.6219996,0.900474474995,77241,28386.9610839
4120,27802.8331504,0.902744028995,77427,28144.5978256
4130,27904.4450847,0.905023418995,77615,28028.4612223
4140,27941.9399578,0.907272017996,77805,28383.9454491
4150,27995.9329279,0.909466304995,77989,27970.6977359
4160,28006.1768946,0.911774774995,78172,28455.6926828
4170,27979.7528107,0.914017386995,78360,28392.4102851
4180,27826.6374587,0.916174467994,78549,28076.759076
4190,27952.6804883,0.918399973993,78740,28042.9554112
4200,27855.232982,0.920344938993,78926,27875.1568356
4210,27898.4158473,0.922302733993,79117,28366.2130961
4220,27934.730106,0.924662094993,79303,28544.6342509
4230,27942.3987446,0.926572847994,79494,28474.3707138
4240,27956.9713819,0.928474620993,79682,28522.4571239
4250,28042.0404876,0.930363563994,79874,28810.401033
4260,27965.593151,0.932316226993,80059,28768.9151975
4270,27969.1409897,0.934270600993,80246,28549.650271
4280,28042.6286123,0.936226684993,80435,28675.0795734
4290,27963.1567479,0.938288398993,80623,28460.594464
4300,27991.622507,0.940708914993,80809,28449.7874391
4310,28138.9756407,0.942974192993,80998,28410.3240053
4320,28011.0638548,0.945353653992,81184,28557.6351125
4330,28085.4546391,0.947252004993,81368,28476.0692802
4340,28144.2596771,0.949565179993,81552,28794.3930992
4350,28049.5540169,0.951344643994,81739,28425.714069
4360,28039.6176743,0.956659513994,81924,28461.7012658
4370,28115.8016621,0.958690865994,82114,28499.8287772
4380,27982.868479,0.960941175994,82303,28784.0475575
4390,27977.102104,0.962982363993,82485,28115.4743188
4400,28050.2394529,0.965339585993,82671,28246.6393619
4410,27947.53983,0.967790036993,82859,28023.2685804
4420,27890.4901541,0.969645622993,83045,28706.8222168
4430,27785.2319558,0.971739838993,83235,28859.0135642
4440,28022.9666428,0.973628781993,83423,28733.5202624
4450,27742.9139114,0.975660560994,83607,28342.6872109
4460,27841.2148826,0.977950214993,83794,28847.8376992
4470,27790.6289718,0.979886626994,83984,28703.0219634
4480,27911.9488442,0.981869652994,84171,28960.7153752
4490,27827.2310991,0.983702144993,84358,28649.5061036
4500,27900.2540331,0.985956730993,84543,28851.5738284
4510,27931.3806393,0.987873043993,84733,29006.3282254
4520,28067.5088502,0.989783369993,84927,28839.6372083
4530,28042.4082361,0.992166251994,85113,29129.9793894
4540,28175.5244384,0.994405014993,85300,28787.2712006
4550,27894.8314622,0.996845201994,85476,28365.4087639
4560,28044.0901654,0.999191305994,85661,28626.0715461
4570,28140.039568,1.00128894299,85846,28760.0088979
4580,28042.4134337,1.00338315899,86032,28385.8201499
4590,28069.6836094,1.00540895099,86224,28998.7671498
4600,28042.7521585,1.00766695799,86414,28253.5102134
4610,28034.426875,1.00946138999,86607,28560.8103007
4620,27986.3403859,1.01151754499,86793,28861.6402455
4630,28150.8169479,1.01390897999,86980,28428.5877648
4640,27997.6945165,1.01577910599,87164,28631.7930601
4650,28249.9933485,1.01776341599,87353,28820.2408667
4660,28100.602758,1.01966304999,87538,28609.5511703
4670,28084.9943527,1.02185391599,87734,28439.5083667
4680,28123.8551465,1.02413501699,87923,28206.3252919
4690,28123.8551465,1.02616422999,88106,28449.115125
4700,28002.187522,1.02799330099,88295,28669.2500275
4710,27936.0101295,1.03024617699,88481,28863.2853147
4720,27872.1427383,1.03252813299,88669,28761.9747695
4730,27995.5392989,1.03444701199,88858,27942.9734266
4740,27942.4102666,1.03642875499,89045,28382.2533057
4750,28025.1913995,1.03848875899,89235,27990.9571611
4760,28074.6638092,1.04043885599,89430,28797.486662
4770,28159.8810241,1.04239579499,89619,28735.4366461
4780,28250.5917809,1.04443612699,89806,27948.5775264
4790,28393.0802038,1.04638622399,89998,28644.7937574
4800,28101.3990366,1.04863482299,90186,28885.4310996
4810,28038.6454129,1.05099974299,90381,28363.2017981
4820,28044.6040958,1.05329110699,90566,28298.6107589
4830,27931.3746241,1.05563464499,90758,28784.0378544
4840,27918.3445924,1.05790548199,90943,28815.9514096
4850,27942.2139331,1.06029777199,91125,28477.4035834
4860,27992.3643548,1.06236761199,91309,28335.0831291
4870,27986.266374,1.06439297699,91499,28466.5545303
4880,28211.1725765,1.06680365599,91689,27969.8663654
4890,27994.6394071,1.06888803599,91871,28921.8373181
4900,27888.3451327,1.07100620099,92051,28607.3788503
4910,28035.1642504,1.07332621799,92238,28713.2521483
4920,27792.4675014,1.07559021299,92427,28588.3093545
4930,27974.0590416,1.07800046399,92611,28691.2803837
4940,28012.5073421,1.07974742599,92795,28236.9314555
4950,27849.7266061,1.08196993799,92979,28475.0082015
4960,27837.6564263,1.08365788299,93167,28787.2760871
4970,27970.4152526,1.08534540099,93353,28362.7029705
4980,27944.3726448,1.08764788399,93536,28443.7900416
4990,27854.1588314,1.08992043199,93723,28318.5333537
