it,funval,time,funcount,weight
0,2321.84409897,0.000628650000001,10,2874.02517995
10,2579.58573965,0.000730004000001,21,2944.25566805
20,2686.39926533,0.000802278000002,32,3071.95571376
30,2718.44333089,0.000863005000001,43,3161.10511344
40,2950.60933938,0.000911758000001,54,3327.64671622
50,3228.57852852,0.000955806,65,3602.43122451
60,3415.11865237,0.000982748000002,76,3700.30804913
70,3598.27986994,0.001007552,87,3871.71181607
80,3613.82174934,0.001034922,98,3951.66929519
90,3613.82174934,0.001058016,109,4050.29673852
100,3613.82174934,0.001102064,120,4064.68689703
110,3661.34763633,0.001139697,131,4011.30197319
120,3661.34763633,0.001174337,142,3983.91809681
130,3661.34763633,0.001198286,153,3962.53507591
140,3661.34763633,0.001222235,164,4041.25503576
150,3661.34763633,0.001245328,175,4030.80057721
160,3661.34763633,0.001271415,186,3999.45650134
170,3661.34763633,0.001298784,197,3970.2467937
180,3661.34763633,0.001336417,208,3952.53801888
190,3661.34763633,0.001378755,219,4014.38302852
200,3661.34763633,0.001401421,230,3999.45650134
210,3661.34763633,0.001425369,241,4009.24218864
220,3661.34763633,0.00144718,252,3843.35769809
230,3661.34763633,0.001468991,263,3999.45650134
240,3661.34763633,0.001488663,274,3889.99945496
250,3661.34763633,0.001528007,285,3980.02147878
260,3661.34763633,0.001593011,296,4031.33775234
270,3661.34763633,0.001616104,307,4112.47410318
280,3661.34763633,0.001663146,318,3980.39595065
290,3661.34763633,0.001699069,329,3999.45650134
300,3661.34763633,0.001796574,340,3999.45650134
310,3661.34763633,0.001831642,351,3802.2486877
320,3661.34763633,0.00186671,362,3916.32089432
330,3661.34763633,0.001884671,373,3999.45650134
340,3661.34763633,0.001909902,384,3982.7483621
350,3661.34763633,0.001929574,395,3991.57136576
360,3661.34763633,0.001950529,406,3878.03322169
370,3661.34763633,0.001968918,417,3929.03669084
380,3661.34763633,0.001991156,428,3999.45650134
390,3661.34763633,0.002016387,439,4044.31169038
400,3661.34763633,0.002041618,450,3893.82678559
410,3661.34763633,0.002066849,461,3999.45650134
420,3661.34763633,0.002091225,472,3914.46894238
430,3661.34763633,0.002114746,483,4024.26062814
440,3661.34763633,0.002143827,494,3874.7530908
450,3661.34763633,0.002167348,505,3999.45650134
460,3661.34763633,0.002194718,516,3871.97516291
470,3661.34763633,0.002218666,527,3878.03322169
480,3661.34763633,0.002242614,538,3999.45650134
490,3661.34763633,0.002266135,549,4020.35576855
500,3661.34763633,0.002289656,560,3974.69809548
510,3661.34763633,0.002313605,571,3950.15454793
520,3661.34763633,0.002337554,582,3949.33208362
530,3661.34763633,0.002362786,593,4074.80156924
540,3661.34763633,0.002392294,604,4095.10025435
550,3661.34763633,0.002426506,615,3913.19641701
560,3671.11048099,0.00245858,626,4019.3092275
570,3671.11048099,0.002490653,637,3999.7378529
580,3671.11048099,0.002519306,648,3942.55620082
590,3671.11048099,0.00254967,659,3911.72595137
600,3671.11048099,0.002577467,670,3829.76273499
610,3671.11048099,0.002603982,681,3958.95125079
620,3671.11048099,0.002630924,692,3948.14560805
630,3671.11048099,0.0026553,703,3910.02747482
640,3671.11048099,0.002680959,714,4037.41038685
650,3671.11048099,0.002708329,725,3990.02034162
660,3671.11048099,0.002733988,736,3999.7378529
670,3671.11048099,0.002764352,747,3921.68845127
680,3671.11048099,0.002790011,758,3951.29706084
690,3671.11048099,0.002813532,769,3920.64578586
700,3671.11048099,0.002837908,780,3993.77349553
710,3671.11048099,0.002862711,791,3957.24407342
720,3671.11048099,0.002887088,802,3963.25217077
730,3671.11048099,0.002913175,813,3981.27714019
740,3671.11048099,0.002936696,824,4018.19856562
750,3671.11048099,0.002962356,835,3937.57971908
760,3671.11048099,0.00298716,846,3981.27714019
770,3671.11048099,0.003011963,857,3987.80913816
780,3671.11048099,0.00303805,868,4046.22727185
790,3671.11048099,0.003062426,879,3808.84227302
800,3671.11048099,0.003085947,890,4037.41038685
810,3671.11048099,0.003111606,901,3894.10813715
820,3671.11048099,0.003135554,912,3999.7378529
830,3671.11048099,0.003174898,923,3950.12959931
840,3671.11048099,0.003207827,934,4043.74380367
850,3671.11048099,0.003236907,945,3977.97567389
860,3671.11048099,0.003263421,956,3999.7378529
870,3671.11048099,0.003290791,967,4036.65927833
880,3671.11048099,0.00331816,978,4029.59090727
890,3671.11048099,0.003344675,989,3974.9337261
900,3671.11048099,0.003371617,1000,3975.51745687
910,3671.11048099,0.003398987,1011,3912.10872997
920,3671.11048099,0.003423363,1022,3965.9192857
930,3671.11048099,0.003445173,1033,3912.68913684
940,3671.11048099,0.00347853,1044,3908.67039316
950,3671.11048099,0.003503334,1055,3999.7378529
960,3671.11048099,0.003528993,1066,3999.7378529
970,3671.11048099,0.00355508,1077,3999.7378529
980,3671.11048099,0.003583305,1088,3949.8345548
990,3671.11048099,0.00360982,1099,3950.12959931
1000,3671.11048099,0.003634624,1110,3964.54899105
1010,3671.11048099,0.003685087,1121,3937.04970116
1020,3671.11048099,0.003715023,1132,4020.63712011
1030,3671.11048099,0.003764203,1143,3999.7378529
1040,3671.11048099,0.00378430300001,1154,3952.81937044
1050,3671.11048099,0.003804402,1165,3957.02892347
1060,3671.11048099,0.003824502,1176,3977.97567389
1070,3671.11048099,0.003845029,1187,3999.7378529
1080,3671.11048099,0.003865128,1198,3939.02621308
1090,3671.11048099,0.00391046000001,1209,3964.54899105
1100,3671.11048099,0.00392927700001,1220,3856.56616799
1110,3671.11048099,0.00394852200001,1231,4034.94775815
1120,3671.11048099,0.00396819400001,1242,3906.41266918
1130,3671.11048099,0.003987866,1253,3906.50065217
1140,3671.11048099,0.00400582700001,1264,3965.9192857
1150,3671.11048099,0.00402507100001,1275,3999.17514978
1160,3671.11048099,0.00404559900001,1286,3987.91014954
1170,3671.11048099,0.00406484400001,1297,3970.18047724
1180,3671.11048099,0.00408494400001,1308,3942.55620082
1190,3671.11048099,0.00410846500001,1319,3949.0100021
1200,3671.11048099,0.00413369600001,1330,4150.42798869
1210,3671.11048099,0.00415336800001,1341,3980.30283034
1220,3671.11048099,0.00417517800001,1352,4022.98256237
1230,3671.11048099,0.00419485000001,1363,3916.9391838
1240,3671.11048099,0.00421452200001,1374,3894.10813715
1250,3671.11048099,0.00423462200001,1385,3964.20143734
1260,3671.11048099,0.00425600400001,1396,3999.7378529
1270,3671.11048099,0.00427524900001,1407,3999.7378529
1280,3671.11048099,0.00429534900001,1418,4046.22727185
1290,3671.11048099,0.00431502100001,1429,3999.7378529
1300,3671.11048099,0.00433469300001,1440,3999.7378529
1310,3671.11048099,0.00435564800001,1451,3926.76648864
1320,3671.11048099,0.004374892,1462,3829.76273499
1330,3671.11048099,0.00439541900001,1473,3972.54678482
1340,3671.11048099,0.00444203400001,1484,3843.63904965
1350,3671.11048099,0.00446683700001,1495,3999.7378529
1360,3671.11048099,0.00451430600001,1506,3913.47776857
1370,3671.11048099,0.00453526100001,1517,4112.75545474
1380,3671.11048099,0.00455536,1528,3964.54899105
1390,3671.11048099,0.004576742,1539,3929.3180424
1400,3671.11048099,0.004599408,1550,3975.51745687
1410,3671.11048099,0.004619508,1561,4031.6191039
1420,3671.11048099,0.00463918,1572,3956.21349487
1430,3671.11048099,0.004658852,1583,3999.7378529
1440,3671.11048099,0.004678524,1594,3965.9192857
1450,3671.11048099,0.004698196,1605,3912.68913684
1460,3671.11048099,0.004719151,1616,3926.76648864
1470,3671.11048099,0.004739679,1627,3999.7378529
1480,3671.11048099,0.004758068,1638,3904.87463406
1490,3671.11048099,0.004778167,1649,4018.19856562
1500,3671.11048099,0.004798694,1660,3999.7378529
1510,3671.11048099,0.004818793,1671,4058.85260422
1520,3671.11048099,0.004840176,1682,3999.7378529
1530,3671.11048099,0.004862414,1693,3968.09130246
1540,3671.11048099,0.004885508,1704,3871.61106461
1550,3671.11048099,0.004906036,1715,3932.1007185
1560,3671.11048099,0.00492613600001,1726,4041.53638732
1570,3671.11048099,0.00494751900001,1737,3910.02747482
1580,3671.11048099,0.00496804600001,1748,3970.58531906
1590,3671.11048099,0.00499327800001,1759,3987.91014954
1600,3671.11048099,0.005019365,1770,3960.71315209
1610,3671.11048099,0.005057426,1781,3972.54678482
1620,3671.11048099,0.005083941,1792,3966.32157442
1630,3671.11048099,0.005107034,1803,3904.87463406
1640,3671.11048099,0.005127989,1814,3920.64578586
1650,3671.11048099,0.005150227,1825,3987.91014954
1660,3671.11048099,0.00517332,1836,3999.7378529
1670,3671.11048099,0.005195986,1847,3980.13097593
1680,3671.11048099,0.005219934,1858,3999.7378529
1690,3671.11048099,0.005243883,1869,3941.31843761
1700,3671.11048099,0.005265694,1880,3999.7378529
1710,3671.11048099,0.005286221,1891,4112.75545474
1720,3671.11048099,0.005308031,1902,3981.84478078
1730,3671.11048099,0.005330269,1913,3999.7378529
1740,3671.11048099,0.005352079,1924,3962.81642747
1750,3671.11048099,0.005372606,1935,3952.81937044
1760,3671.11048099,0.005391422,1946,3999.45650134
1770,3671.11048099,0.005418791,1957,4024.68950195
1780,3671.11048099,0.005439318,1968,3867.7200006
1790,3671.11048099,0.005459846,1979,3999.7378529
1800,3671.11048099,0.005480374,1990,3985.45424935
1810,3671.11048099,0.005499619,2001,3999.7378529
1820,3671.11048099,0.005521429,2012,3950.22104118
1830,3671.11048099,0.005543667,2023,4039.28388642
1840,3671.11048099,0.005564194,2034,4046.40044476
1850,3671.11048099,0.005584721,2045,3978.31244758
1860,3671.11048099,0.005607387,2056,4046.40044476
1870,3671.11048099,0.005658278,2067,3906.41266918
1880,3671.11048099,0.005679661,2078,4038.00204243
1890,3671.11048099,0.005700616,2089,3958.95125079
1900,3671.11048099,0.005719433,2100,3925.46263531
1910,3671.11048099,0.00573867700001,2111,3952.81937044
1920,3671.11048099,0.005763481,2122,3958.95125079
1930,3671.11048099,0.005782298,2133,3999.7378529
1940,3671.11048099,0.005800687,2144,3999.7378529
1950,3671.11048099,0.00581907600001,2155,3999.7378529
1960,3671.11048099,0.00583917600001,2166,3999.7378529
1970,3671.11048099,0.005858421,2177,4098.36529623
1980,3671.11048099,0.005877238,2188,3976.27861167
1990,3671.11048099,0.005896055,2199,3982.8285693
2000,3671.11048099,0.005916155,2210,3999.7378529
2010,3671.11048099,0.005936682,2221,4034.94775815
2020,3671.11048099,0.005985862,2232,3901.11040957
2030,3671.11048099,0.006031621,2243,3968.09130246
2040,3671.11048099,0.006051293,2254,3999.7378529
2050,3671.11048099,0.00607438600001,2265,3909.95114063
2060,3671.11048099,0.00609491400001,2276,3909.95114063
2070,3671.11048099,0.00611672500001,2287,3989.9521656
2080,3671.11048099,0.006135542,2298,4095.38160591
2090,3671.11048099,0.006155214,2309,4095.38160591
2100,3671.11048099,0.006173175,2320,3989.37891655
2110,3671.11048099,0.00619199200001,2331,3989.9521656
2120,3671.11048099,0.006211236,2342,3951.29706084
2130,3671.11048099,0.00623048,2353,3952.01395793
2140,3671.11048099,0.00625998800001,2364,3987.91014954
2150,3671.11048099,0.00628265300001,2375,3976.02204819
2160,3671.11048099,0.00630318000001,2386,3960.52409897
2170,3671.11048099,0.00632285200001,2397,4127.26285691
2180,3671.11048099,0.00634295100001,2408,3999.7378529
2190,3671.11048099,0.00636347900001,2419,3925.32547251
2200,3671.11048099,0.00638272400001,2430,3949.8345548
2210,3671.11048099,0.00640367900001,2441,4020.63712011
2220,3671.11048099,0.00642420600001,2452,4112.75545474
2230,3671.11048099,0.00644345100001,2463,3920.64578586
2240,3671.11048099,0.00646269600001,2474,3890.28080652
2250,3671.11048099,0.00648450600001,2485,3999.45650134
2260,3671.11048099,0.00650588900001,2496,3894.10813715
2270,3671.11048099,0.00652898200001,2507,3906.50065217
2280,3671.11048099,0.00657131900001,2518,3999.7378529
2290,3671.11048099,0.00659655100001,2529,4011.58332475
2300,3671.11048099,0.006616223,2540,4041.53638732
2310,3671.11048099,0.00663675,2551,3890.28080652
2320,3671.11048099,0.00666412000001,2562,3910.02747482
2330,3671.11048099,0.00668593000001,2573,3951.29706084
2340,3671.11048099,0.006709451,2584,3999.7378529
2350,3671.11048099,0.006729551,2595,3999.7378529
2360,3671.11048099,0.006756921,2606,3906.41266918
2370,3671.11048099,0.006786429,2617,3999.7378529
2380,3671.11048099,0.006807812,2628,4005.70221027
2390,3671.11048099,0.00683389900001,2639,3980.30283034
2400,3671.11048099,0.00685442600001,2650,3999.7378529
2410,3671.11048099,0.00687666400001,2661,3925.32547251
2420,3671.11048099,0.00689761900001,2672,3985.45424935
2430,3671.11048099,0.00691771800001,2683,3999.7378529
2440,3671.11048099,0.00693824600001,2694,4031.6191039
2450,3671.11048099,0.00695834600001,2705,3970.52814526
2460,3671.11048099,0.006978446,2716,3937.57971908
2470,3671.11048099,0.007002394,2727,3984.19944837
2480,3671.11048099,0.007023777,2738,3978.64015261
2490,3671.11048099,0.00704601500001,2749,3970.58531906
2500,3671.11048099,0.007070818,2760,4020.63712011
2510,3671.11048099,0.007096478,2771,3999.7378529
2520,3671.11048099,0.007123848,2782,3882.89902232
2530,3671.11048099,0.00714908,2793,3999.7378529
2540,3671.11048099,0.007170463,2804,3925.46263531
2550,3671.11048099,0.007192701,2815,3982.8285693
2560,3671.11048099,0.007216222,2826,3999.7378529
2570,3671.11048099,0.007239315,2837,4150.42798869
2580,3671.11048099,0.007261553,2848,3912.68913684
2590,3671.11048099,0.00728208,2859,4049.641151
2600,3671.11048099,0.007300897,2870,3999.7378529
2610,3671.11048099,0.007332543,2881,3922.34948563
2620,3671.11048099,0.00735520799999,2892,4011.58332475
2630,3671.11048099,0.00737658999999,2903,3999.7378529
2640,3671.11048099,0.00739797199999,2914,3968.39377703
2650,3671.11048099,0.00742234799999,2925,3969.88479854
2660,3671.11048099,0.00744501399999,2936,3977.97567389
2670,3671.11048099,0.00746896299999,2947,3944.53874017
2680,3671.11048099,0.00749162799999,2958,3925.32547251
2690,3671.11048099,0.00751643199999,2969,3851.83199267
2700,3671.11048099,0.00753909799999,2980,3999.7378529
2710,3671.11048099,0.00756047999999,2991,4018.7984036
2720,3671.11048099,0.00758314599999,3002,3970.58531906
2730,3671.11048099,0.00760410099999,3013,3986.14231886
2740,3671.11048099,0.00762847699999,3024,3999.7378529
2750,3671.11048099,0.00765071499999,3035,3999.7378529
2760,3671.11048099,0.00767124199999,3046,3960.71315209
2770,3671.11048099,0.00769604499999,3057,3910.02747482
2780,3671.11048099,0.00776831799999,3068,3957.24407342
2790,3671.11048099,0.00779825299999,3079,3999.7378529
2800,3671.11048099,0.00782134599999,3090,3999.7378529
2810,3671.11048099,0.00784443899999,3101,3999.7378529
2820,3671.11048099,0.00786624899999,3112,3870.3477264
2830,3671.11048099,0.00788763199999,3123,3999.7378529
2840,3671.11048099,0.00790986899999,3134,3999.7378529
2850,3671.11048099,0.00793167899999,3145,3970.18047724
2860,3671.11048099,0.00795135099999,3156,3980.30283034
2870,3671.11048099,0.00797230599999,3167,3927.07666481
2880,3671.11048099,0.00799368899999,3178,3999.7378529
2890,3671.11048099,0.00801678199999,3189,3999.7378529
2900,3671.11048099,0.00804072999999,3200,3894.10813715
2910,3671.11048099,0.00806339499999,3211,3958.17004939
2920,3671.11048099,0.00808691599999,3222,4005.70221027
2930,3671.11048099,0.00810787099999,3233,3984.81132572
2940,3671.11048099,0.00812968199999,3244,3952.30624348
2950,3671.11048099,0.00815191999999,3255,3970.58531906
2960,3671.11048099,0.00817330299999,3266,3978.31244758
2970,3671.11048099,0.00819382999999,3277,3999.7378529
2980,3671.11048099,0.00821606799999,3288,4031.08192877
2990,3671.11048099,0.00823659499999,3299,3905.70562529
3000,3671.11048099,0.00825840599999,3310,3989.9521656
3010,3671.11048099,0.00827936099999,3321,3974.78620385
3020,3671.11048099,0.00830031599999,3332,3987.89238105
3030,3671.11048099,0.00832383699999,3343,3999.7378529
3040,3671.11048099,0.00834607499999,3354,3968.39377703
3050,3671.11048099,0.00836788499999,3365,3999.7378529
3060,3671.11048099,0.00838926799999,3376,3912.68913684
3070,3671.11048099,0.00841407099999,3387,3802.53003926
3080,3671.11048099,0.00844229599999,3398,3999.7378529
3090,3671.11048099,0.00846453399999,3409,3984.19944837
3100,3671.11048099,0.00848634399999,3420,3911.72595137
3110,3671.11048099,0.00850601599999,3431,4043.74380367
3120,3671.11048099,0.008528682,3442,3827.21768423
3130,3671.11048099,0.00855391299999,3453,4046.22727185
3140,3671.11048099,0.00857657799999,3464,3999.7378529
3150,3671.11048099,0.00859838899999,3475,3939.02621308
3160,3671.11048099,0.00862062699999,3486,3944.53874017
3170,3671.11048099,0.00864329299999,3497,4019.3092275
3180,3671.11048099,0.00866424799999,3508,3974.78620385
3190,3671.11048099,0.008686486,3519,3969.80894881
3200,3671.11048099,0.008708724,3530,3980.13097593
3210,3671.11048099,0.008729251,3541,4005.70221027
3220,3671.11048099,0.008750206,3552,3957.24407342
3230,3671.11048099,0.008772017,3563,3958.95125079
3240,3671.11048099,0.008791689,3574,3999.7378529
3250,3671.11048099,0.008811788,3585,4058.85260422
3260,3671.11048099,0.00883146,3596,3925.32547251
3270,3671.11048099,0.00885156,3607,3999.7378529
3280,3671.11048099,0.008871232,3618,3974.78620385
3290,3671.11048099,0.00889347,3629,3999.7378529
3300,3671.11048099,0.008914425,3640,3999.7378529
3310,3671.11048099,0.008938373,3651,3999.7378529
3320,3671.11048099,0.008960611,3662,3974.97944704
3330,3671.11048099,0.008983704,3673,3999.7378529
3340,3671.11048099,0.009005514,3684,4058.85260422
3350,3671.11048099,0.009028179,3695,3999.7378529
3360,3671.11048099,0.009049134,3706,4049.05157457
3370,3671.11048099,0.009070945,3717,3974.78620385
3380,3671.11048099,0.0090919,3728,3999.7378529
3390,3671.11048099,0.009116276,3739,3978.31244758
3400,3671.11048099,0.009135948,3750,3920.64578586
3410,3671.11048099,0.00915562,3761,3980.67730221
3420,3671.11048099,0.009174864,3772,3928.59043877
3430,3671.11048099,0.009196247,3783,3968.65878599
3440,3671.11048099,0.009216346,3794,4003.68042069
3450,3671.11048099,0.009236873,3805,3900.70422945
3460,3671.11048099,0.00925568999999,3816,3932.1007185
3470,3671.11048099,0.00927578999999,3827,3939.88004472
3480,3671.11048099,0.009295034,3838,3934.45131585
3490,3671.11048099,0.009325398,3849,3945.35571675
3500,3671.11048099,0.009348919,3860,4049.05157457
3510,3671.11048099,0.009370301,3871,3999.7378529
3520,3671.11048099,0.009391256,3882,4095.38160591
3530,3671.11048099,0.009411784,3893,4088.40997989
3540,3671.11048099,0.00943445,3904,3968.39377703
3550,3671.11048099,0.00945925399999,3915,3970.58531906
3560,3671.11048099,0.00948363,3926,3969.88479854
3570,3671.11048099,0.009520408,3937,3929.3180424
3580,3671.11048099,0.009545212,3948,3999.7378529
3590,3671.11048099,0.009566167,3959,4127.26285691
3600,3671.11048099,0.009586694,3970,3901.13394608
3610,3671.11048099,0.009610642,3981,4003.68042069
3620,3671.11048099,0.009633308,3992,3828.90213518
3630,3671.11048099,0.009656401,4003,3980.13097593
3640,3671.11048099,0.009677356,4014,4046.22727185
3650,3671.11048099,0.00970130500001,4025,3957.02892347
3660,3671.11048099,0.009723971,4036,3912.68913684
3670,3671.11048099,0.00974321500001,4047,3999.7378529
3680,3671.11048099,0.009766736,4058,3951.29706084
3690,3671.11048099,0.009791112,4069,3829.76273499
3700,3671.11048099,0.00981164,4080,3851.83199267
3710,3671.11048099,0.009832595,4091,3960.52409897
3720,3671.11048099,0.009853122,4102,3983.02971366
3730,3671.11048099,0.00987536,4113,3999.7378529
3740,3671.11048099,0.009898881,4124,3999.7378529
3750,3671.11048099,0.009921974,4135,3960.19181938
3760,3671.11048099,0.009942929,4146,3999.7378529
3770,3671.11048099,0.009965167,4157,3889.33962743
3780,3671.11048099,0.009987405,4168,3993.77349553
3790,3671.11048099,0.010007505,4179,3994.55838472
3800,3671.11048099,0.010027605,4190,3999.7378529
3810,3671.11048099,0.010050698,4201,3999.7378529
3820,3671.11048099,0.010071653,4212,3906.50065217
3830,3671.11048099,0.010091753,4223,3999.7378529
3840,3671.11048099,0.010116129,4234,3867.7200006
3850,3671.11048099,0.010137084,4245,3986.14231886
3860,3671.11048099,0.010157183,4256,3872.25651447
3870,3671.11048099,0.010178993,4267,3980.67730221
3880,3671.11048099,0.01020337,4278,3999.7378529
3890,3671.11048099,0.010224325,4289,3910.02747482
3900,3671.11048099,0.010246991,4300,3912.10872997
3910,3671.11048099,0.01027094,4311,3871.61106461
3920,3671.11048099,0.010292322,4322,3994.55838472
3930,3671.11048099,0.010313705,4333,3984.81132572
3940,3671.11048099,0.010337654,4344,4014.66438008
3950,3671.11048099,0.010358609,4355,3999.7378529
3960,3671.11048099,0.010378281,4366,3981.84478078
3970,3671.11048099,0.010401375,4377,3950.43589949
3980,3671.11048099,0.010422758,4388,3999.7378529
3990,3671.11048099,0.010441574,4399,3999.7378529
4000,3671.11048099,0.010461674,4410,3999.7378529
4010,3671.11048099,0.010483912,4421,3968.09130246
4020,3671.11048099,0.010504439,4432,3927.07666481
4030,3671.11048099,0.010524538,4443,3910.02747482
4040,3671.11048099,0.010545493,4454,3999.7378529
4050,3671.11048099,0.010566876,4465,4031.6191039
4060,3671.11048099,0.010589969,4476,3999.7378529
4070,3671.11048099,0.010611352,4487,3922.34948563
4080,3671.11048099,0.010634873,4498,3921.68845127
4090,3671.11048099,0.010656684,4509,3989.9521656
4100,3671.11048099,0.010677211,4520,3965.9192857
4110,3671.11048099,0.010698166,4531,4041.53638732
4120,3671.11048099,0.010719976,4542,3969.88479854
4130,3671.11048099,0.010740503,4553,3881.09975234
4140,3671.11048099,0.01076103,4564,3929.3180424
4150,3671.11048099,0.010783696,4575,3999.7378529
4160,3671.11048099,0.010802513,4586,3966.32157442
4170,3671.11048099,0.010820902,4597,3951.29706084
4180,3671.11048099,0.010840574,4608,3951.29706084
4190,3671.11048099,0.010858963,4619,3974.97944704
4200,3671.11048099,0.010876496,4630,3890.28080652
4210,3671.11048099,0.010895313,4641,3980.67730221
4220,3671.11048099,0.010917123,4652,3900.70422945
4230,3671.11048099,0.010935512,4663,3986.14231886
4240,3671.11048099,0.010953901,4674,3921.68845127
4250,3671.11048099,0.010976567,4685,3958.17004939
4260,3671.11048099,0.010996667,4696,3989.18900275
4270,3671.11048099,0.011015911,4707,4034.94775815
4280,3671.11048099,0.011036011,4718,3960.52409897
4290,3671.11048099,0.011056539,4729,3949.0100021
4300,3671.11048099,0.01108006,4740,3980.16647831
4310,3671.11048099,0.011101443,4751,3981.27714019
4320,3671.11048099,0.011127102,4762,3956.21349487
4330,3671.11048099,0.011148484,4773,3999.7378529
4340,3671.11048099,0.011169011,4784,3955.73190213
4350,3671.11048099,0.011190821,4795,3999.7378529
4360,3671.11048099,0.011213487,4806,3978.31244758
4370,3671.11048099,0.011236153,4817,3999.7378529
4380,3671.11048099,0.011260101,4828,3958.95125079
4390,3671.11048099,0.011284049,4839,3983.02971366
4400,3671.11048099,0.011306287,4850,3954.88266386
4410,3671.11048099,0.011328952,4861,3999.7378529
4420,3671.11048099,0.011350334,4872,3871.61106461
4430,3671.11048099,0.011372572,4883,4005.70221027
4440,3671.11048099,0.011395665,4894,4127.26285691
4450,3671.11048099,0.011417475,4905,4024.68950195
4460,3671.11048099,0.011438858,4916,4112.75545474
4470,3671.11048099,0.011461523,4927,3999.7378529
4480,3671.11048099,0.011483333,4938,3999.7378529
4490,3671.11048099,0.011505571,4949,4044.59304194
4500,3671.11048099,0.011528664,4960,4016.44599214
4510,3671.11048099,0.011549619,4971,3964.54899105
4520,3671.11048099,0.01157143,4982,3882.89902232
4530,3671.11048099,0.011594096,4993,3999.7378529
4540,3671.11048099,0.011616761,5004,3999.7378529
4550,3671.11048099,0.011638572,5015,4004.91732108
4560,3671.11048099,0.011659954,5026,3956.60781073
4570,3671.11048099,0.011681764,5037,3968.39377703
4580,3671.11048099,0.011704857,5048,3937.57971908
4590,3671.11048099,0.011726667,5059,3949.0100021
4600,3671.11048099,0.011753181,5070,3999.45650134
4610,3671.11048099,0.011773281,5081,3980.67730221
4620,3671.11048099,0.011792526,5092,3909.95114063
4630,3671.11048099,0.011813909,5103,3956.60781073
4640,3671.11048099,0.011832298,5114,3974.9337261
4650,3671.11048099,0.011850687,5125,3875.42158526
4660,3671.11048099,0.011871215,5136,3901.11040957
4670,3671.11048099,0.011890887,5147,3999.7378529
4680,3671.11048099,0.011909704,5158,4031.6191039
4690,3671.11048099,0.011931514,5169,3829.76273499
4700,3671.11048099,0.011951186,5180,4037.41038685
4710,3671.11048099,0.011978128,5191,3999.7378529
4720,3671.11048099,0.012016616,5202,3964.20143734
4730,3671.11048099,0.012045268,5213,3999.7378529
4740,3671.11048099,0.012067933,5224,3922.34948563
4750,3671.11048099,0.012090599,5235,4098.36529623
4760,3671.11048099,0.012113264,5246,3980.13097593
4770,3671.11048099,0.012139779,5257,3999.7378529
4780,3671.11048099,0.012162017,5268,3988.00823229
4790,3671.11048099,0.012184255,5279,3969.38203299
4800,3671.11048099,0.012209486,5290,3957.02892347
4810,3671.11048099,0.012230441,5301,3999.7378529
4820,3671.11048099,0.01225439,5312,3963.25217077
4830,3671.11048099,0.012277483,5323,3961.47366338
4840,3671.11048099,0.012302715,5334,3851.83199267
4850,3671.11048099,0.012324953,5345,3954.88266386
4860,3671.11048099,0.012348047,5356,3999.45650134
4870,3671.11048099,0.01236943,5367,4112.75545474
4880,3671.11048099,0.012392096,5378,3927.07666481
4890,3671.11048099,0.012413051,5389,4049.05157457
4900,3671.11048099,0.012434434,5400,3856.56616799
4910,3671.11048099,0.012454106,5411,3999.45650134
4920,3671.11048099,0.012474206,5422,4031.08192877
4930,3671.11048099,0.012505852,5433,3999.7378529
4940,3671.11048099,0.012525952,5444,3975.51745687
4950,3671.11048099,0.012544769,5455,3990.02034162
4960,3671.11048099,0.012564869,5466,3939.88004472
4970,3671.11048099,0.012584113,5477,4009.5235402
4980,3671.11048099,0.012612766,5488,3843.63904965
4990,3671.11048099,0.012631583,5499,3904.29006296
