it,funval,time,funcount,weight
0,3324.87667284,0.000415679000014,587,2957.85643694
10,3190.80936216,0.000808692000021,1088,2684.74026093
20,3454.07582509,0.00121752800004,1560,2517.74805214
30,3542.26968092,0.00161695600005,2048,3199.07732349
40,3586.11893765,0.00202237100004,2526,3669.19808773
50,3775.45191975,0.00242607500005,2996,3033.07998772
60,3717.72492948,0.00283020700004,3475,3211.77134218
70,3669.3449581,0.00323433900004,3962,3094.6458358
80,3880.29486605,0.00363547700005,4441,3601.92638664
90,3851.30857345,0.00405158300006,4914,3689.22645018
100,3714.36023665,0.00444716200008,5402,3477.49808961
110,3968.50900056,0.00483033900008,5873,3272.95458769
120,3798.61883342,0.00527894700008,6365,3027.91063656
130,3763.35337547,0.00570531700009,6849,3172.31192315
140,3959.44254962,0.00609790200011,7333,3255.55684704
150,3811.55544887,0.00651144300011,7813,3458.3551677
160,4067.36194157,0.0069014630001,8298,3401.00165061
170,3991.83432919,0.00730602300013,8773,3432.41917564
180,3902.45081168,0.00771143800014,9265,3624.33527117
190,3908.77486459,0.00812882700015,9748,3762.03155869
200,3951.95563772,0.00852269600014,10236,3659.29235138
210,3895.26231808,0.00896360600015,10719,3707.35110517
220,4038.33704511,0.00935790200018,11201,3644.89950806
230,3972.32973907,0.00977529100015,11682,3560.08347761
240,4063.71715181,0.0101948180001,12161,3633.7123828
250,4074.19442153,0.0105912520002,12628,3806.71095095
260,4094.05316044,0.0110201880001,13110,3530.72987416
270,4156.38803202,0.0114439920002,13594,3463.47236533
280,4076.19321146,0.0118387160001,14072,3546.04824882
290,3992.64803735,0.0122291630001,14547,3573.09694019
300,4168.88462988,0.0126277360001,15021,3835.7624643
310,4142.82200812,0.0130378550001,15497,3345.58156734
320,4222.00339444,0.0134466910001,15988,3209.44112759
330,4101.8028406,0.0159659940001,16486,3443.65919393
340,4193.63308974,0.0163598620001,16964,3638.44948049
350,4114.5389158,0.0167520190001,17438,3392.14906858
360,3995.62972146,0.0171591450001,17914,3708.79810133
370,4092.01916012,0.0175709740001,18391,3346.78465654
380,4040.09206363,0.0179455980002,18885,3287.88345811
390,4133.65822406,0.0183788110002,19373,3663.07841941
400,4007.36941822,0.0188034710002,19844,3589.05419622
410,4073.98354521,0.0191960570002,20328,3661.64084178
420,4052.48887392,0.0196267040002,20818,3972.05255873
430,4047.0256895,0.0200265590001,21293,3919.32425328
440,4051.41550634,0.0204353950001,21785,3519.69475155
450,4023.0967662,0.0208386720001,22292,3261.4033448
460,4082.8927085,0.0212428040001,22771,3545.16930968
470,4039.48170847,0.0216272640002,23242,3554.7631309
480,4075.37929237,0.0220134350001,23718,3608.24294401
490,4097.5520643,0.0224787220001,24190,3429.19959833
500,4139.54836101,0.0229983200001,24666,3809.83945769
510,4178.03398098,0.0234358090001,25161,3271.25168495
520,3941.36659334,0.0238506320001,25645,3036.66458036
530,4080.43665192,0.0245066520002,26126,3306.87494488
540,3908.29539625,0.0249035140002,26614,3827.21732412
550,4022.66466593,0.0252948170002,27097,3153.42678874
560,3971.40009614,0.0257104950002,27574,3592.38408225
570,4179.71075592,0.0261283120002,28077,3487.38215811
580,4119.98744911,0.0265619520002,28569,3620.02304274
590,4055.85230403,0.0269541100002,29058,3902.05508443
600,3985.45375457,0.0273723540002,29551,3579.92818095
610,3854.2694983,0.0278068490002,30037,3125.52211865
620,4045.05451851,0.0282302250002,30529,3040.64574506
630,3981.10850052,0.0286634370001,31014,3559.46709134
640,4043.87105128,0.0290756940002,31482,3830.34984514
650,3975.08028979,0.0294841020002,31960,3411.73702621
660,3887.89577281,0.0299108990002,32442,3728.81846329
670,3994.17972357,0.0303419730001,32913,3374.5044004
680,3804.77943987,0.0307726190001,33396,3350.05209511
690,3978.99938422,0.0311814550002,33892,3801.43117568
700,3971.01952726,0.0315757510002,34386,3686.15357401
710,3984.29041715,0.0320021210002,34865,3721.32305894
720,4012.91428036,0.0324083910002,35351,3235.08360115
730,4151.52189103,0.0328125230002,35843,3961.12916176
740,4151.27559228,0.0332572820002,36335,3729.42580684
750,4077.97149239,0.0336592760002,36822,3708.44492955
760,4171.17831969,0.0340668290002,37320,3623.30195126
770,4107.21952445,0.0345013250002,37804,3805.34825947
780,3963.1299312,0.0348840740002,38279,3787.09609969
790,4021.59414743,0.0352629740002,38764,3704.26045602
800,4037.27274634,0.0356649670002,39253,3672.5930389
810,4072.63968879,0.0360802180002,39736,3507.29891282
820,4069.36090743,0.0364792180002,40234,3480.42062797
830,4126.8363915,0.0368743700002,40722,3465.87464115
840,4006.44384117,0.0372528430002,41200,3880.63519398
850,4010.02891108,0.0376642450002,41690,3734.34811497
860,3975.68630761,0.0380504160002,42166,3518.75227533
870,4088.84895458,0.0384395800002,42663,3484.7571879
880,4162.76600279,0.0388903260002,43151,3672.08764065
890,4096.45613645,0.0393107090002,43632,3719.67989782
900,4142.25363373,0.0397238220002,44103,3709.10223827
910,4196.82390802,0.0401253890002,44576,3675.78597217
920,4338.92903035,0.0405474830002,45072,3493.37127936
930,4164.08766358,0.0409396410001,45547,3657.30442802
940,4091.90141596,0.0414519700001,46040,3474.40125765
950,4222.68188327,0.0418424170001,46518,3621.98737755
960,4097.19490549,0.0422332920001,47010,3598.04179484
970,4093.43203779,0.0452854510001,47488,4085.2476831
980,4152.41851172,0.0457105380002,47979,3415.34042626
990,4148.43890624,0.0461121040001,48468,3704.18899822
1000,4027.84053741,0.0465324870001,48956,3710.35518447
1010,4104.29035667,0.0469327700002,49426,3809.76614027
1020,4171.56928945,0.0473326260002,49901,3732.0117276
1030,4136.19866088,0.0477504430002,50389,3689.57069743
1040,4179.42049333,0.0481498710002,50875,3431.3506814
1050,4151.53853836,0.0485937750002,51354,3434.31066325
1060,4177.14605751,0.0489983350002,51837,3391.01580283
1070,4291.17690708,0.0493977630002,52330,3610.03880753
1080,4085.60167722,0.0498036060002,52813,3603.15938602
1090,3982.71522299,0.0502291200002,53299,3471.79122648
1100,4079.05322421,0.0506264090002,53778,3375.84535683
1110,3958.08133775,0.0510198500002,54260,3462.17330539
1120,3961.01318561,0.0514231270002,54747,3849.23355725
1130,4055.66451271,0.0518298250002,55226,3683.93745861
1140,4031.88600727,0.0522245490002,55704,3764.5436932
1150,3996.99177374,0.0526346680002,56192,3644.39219484
1160,3923.68234839,0.0530589000002,56677,3803.79685818
1170,4033.76268348,0.0534600390002,57161,3639.43299415
1180,4063.47921039,0.0538671650002,57639,3663.69245288
1190,4096.08168555,0.0542807060002,58118,3775.88940397
1200,4050.42916271,0.0546929630002,58592,3474.38659853
1210,4133.48211961,0.0551026540002,59083,3738.00110505
1220,4129.01071624,0.0555072140002,59566,3826.61728159
1230,4080.67848521,0.0559160510002,60055,3251.09663519
1240,4112.37458715,0.0563244600002,60532,3421.91191715
1250,4110.2857868,0.0567320130002,61003,3680.96762578
1260,4181.02951446,0.0571489740001,61468,3541.01606557
1270,4094.73835215,0.0575539610001,61936,3764.36326819
1280,4026.169749,0.0579521060001,62416,3773.61067697
1290,4047.05570262,0.0583652180001,62899,3815.06712804
1300,4057.46671491,0.0587826080001,63376,3155.55458094
1310,4079.00594024,0.0591922990001,63849,3775.24276605
1320,4092.87162994,0.0596092610001,64334,3689.99313665
1330,4011.13550001,0.0600210900001,64823,3449.56871935
1340,4120.8494644,0.0604590070001,65293,3656.27872742
1350,4113.32011088,0.0608622840001,65772,3901.02474279
1360,4110.04789023,0.0612732590001,66250,3534.41644437
1370,4130.03180844,0.0616983460001,66733,3797.48642987
1380,4137.49610999,0.0621067550001,67209,3608.02965877
1390,4195.44293642,0.0625173020001,67689,3733.91165549
1400,4254.74448775,0.0629287040001,68180,3811.75982124
1410,4212.37757073,0.0633110260001,68683,3732.59213794
1420,4220.10286399,0.0636856500001,69174,3510.33185367
1430,4029.53889275,0.0641282700001,69661,3534.63651871
1440,4086.79638411,0.0645542130001,70149,3912.47790727
1450,4083.95496945,0.0649570620001,70640,3509.23079811
1460,4146.573027,0.0653513580001,71119,3534.44001648
1470,4064.42826568,0.0657328240001,71601,3153.49506748
1480,4081.84597845,0.0661519240001,72081,3622.82081843
1490,4069.950581,0.0665449370001,72564,3189.63995135
1500,4106.14209856,0.0669512070001,73038,3488.34771914
1510,4140.62006439,0.0673514900001,73533,3407.09424763
1520,4231.16650207,0.0677440750001,74015,3991.29732939
1530,4148.42650656,0.0681657410001,74500,3668.09226482
1540,4106.78743774,0.0685578990002,74982,3627.37602429
1550,4210.35485306,0.0689492020002,75473,3941.52161847
1560,4168.07886954,0.0693323790001,75953,3305.25273448
1570,4132.13102799,0.0697523340001,76432,3342.27404802
1580,4215.78683985,0.0701577490001,76922,3640.73183619
1590,4092.29904971,0.0705640200001,77422,3494.03989051
1600,4178.28539267,0.0729272300001,77904,3703.95058683
1610,4192.08177437,0.0733536000002,78384,3862.17576819
1620,3977.29544736,0.0737769770002,78867,3520.34184758
1630,3995.89102311,0.0741802540002,79345,3505.27673411
1640,4115.56313076,0.0746117560002,79831,3329.71619343
1650,4005.76113242,0.0750141770002,80316,3021.17648807
1660,3944.71053629,0.0754131770002,80798,3628.98855322
1670,4052.19885835,0.0758104670002,81272,3281.56833324
1680,4093.3298606,0.0762128880002,81745,3300.81852969
1690,4060.18422842,0.0766221520002,82237,3360.67897465
1700,4076.64533283,0.0770044740002,82704,3679.04866454
1710,4244.12790801,0.0773880790002,83193,3593.73640849
1720,4180.24868003,0.0778088890002,83671,3464.70348692
1730,4155.06901455,0.0782335480002,84162,3744.99908639
1740,4244.67733918,0.0786376800002,84643,3554.24956837
1750,4239.14899675,0.0790401010002,85127,3466.54083388
1760,4124.85658165,0.0794382460003,85611,3581.64462207
1770,4179.75718366,0.0798342530003,86100,3922.61764785
1780,4196.52881896,0.0802619060003,86578,3471.38932448
1790,4254.6844596,0.0806634720003,87064,3683.08728554
1800,4254.78468102,0.0810526360003,87539,3345.59601146
1810,4300.76071146,0.0814734460002,88026,3773.38012759
1820,4278.59338629,0.0818591890003,88514,3493.34219636
1830,4284.61026147,0.0822599000003,89003,3532.79736698
1840,4251.44030153,0.0826811380003,89476,3428.28951544
1850,4182.10264178,0.0830677360003,89957,3419.22526828
1860,4255.27363998,0.0834688740003,90434,3310.7300558
1870,4295.50438054,0.0838524780003,90910,3528.33691695
1880,4347.74631596,0.0842506230003,91397,3582.35163547
1890,4193.7894866,0.0846496230003,91870,3302.16732693
1900,4252.06774939,0.0850529000003,92347,3646.75762765
1910,4333.2463738,0.0854420640003,92833,3533.20059953
1920,4266.88335677,0.0858585980003,93321,3305.81360951
1930,4283.82863873,0.0863388520003,93794,3518.12525855
1940,4212.40428756,0.0867292990003,94290,3492.88470957
1950,4166.59101393,0.0871432680003,94776,3991.54960649
1960,4248.23847342,0.0875811840003,95258,3275.24729694
1970,4222.41104454,0.0879754800003,95737,4020.84057928
1980,4107.14432033,0.0883693490003,96228,3124.85881821
1990,4027.75127653,0.0887794680003,96704,2973.40020845
2000,4028.74366143,0.0891934360003,97183,3319.37172492
2010,4132.9262961,0.0896022720003,97660,3259.26845832
2020,4173.27276919,0.0899940020003,98146,3738.35783743
2030,3969.74748245,0.0903942850003,98640,3934.85609534
2040,3947.61997205,0.0908270700003,99124,3704.46663427
2050,4035.05587618,0.0912333410003,99601,3470.79155847
2060,3980.21982197,0.0916396110003,100094,3684.86810665
2070,4147.97385211,0.0920732510003,100579,3637.42382355
2080,4177.32184784,0.0924812320003,101058,3626.33040655
2090,4205.83896399,0.0929105950003,101545,3563.81772972
2100,4162.48558867,0.0933271290003,102033,3550.86851697
2110,4171.55084924,0.0937346820003,102525,3666.63367377
2120,4094.57004233,0.0941255560003,102995,3626.15513351
2130,4072.03888828,0.0945386690003,103480,3351.29117217
2140,4175.38091398,0.0949560580003,103972,3608.59813493
2150,4092.24767776,0.0953755850003,104467,3561.15005816
2160,4066.69183859,0.0957895530003,104936,3728.3290336
2170,4218.73812673,0.0962159220003,105414,3881.45897076
2180,4220.83970745,0.0966268960003,105896,3875.18082697
2190,4171.5765322,0.0970400090003,106379,3747.37262842
2200,4112.50317993,0.0974539770003,106856,3859.42876375
2210,4103.12580358,0.0978871890003,107339,3667.7499965
2220,4176.72067512,0.0982930320003,107826,3774.11119745
2230,4019.00162192,0.0987087100003,108315,3659.94187747
2240,4123.10426406,0.0991248160003,108795,3496.26549154
2250,4093.68284234,0.0995434880003,109272,3689.3943195
2260,4198.27226887,0.0999638700003,109757,3775.09595934
2270,4082.60530938,0.100373562,110238,3093.41137754
2280,4172.47251382,0.100810623,110730,3243.06369431
2290,4203.9605527,0.101229723,111211,3638.15581748
2300,4186.56878091,0.101655237,111705,3536.80696551
2310,4083.40114168,0.102065784,112190,3722.38769824
2320,4151.84184536,0.10250028,112691,3650.91755947
2330,4066.47220113,0.102936914,113180,3669.99591826
2340,4078.18766629,0.103340618,113654,3791.38744244
2350,4016.09763834,0.103773831,114138,3533.43129403
2360,4046.41367932,0.104199346,114625,3751.74584053
2370,4129.72409805,0.104638545,115121,3675.50349015
2380,4007.88434972,0.105073468,115610,3633.68742964
2390,3895.37283531,0.105484015,116093,3577.45122565
2400,4022.48634505,0.105904397,116586,3940.48833492
2410,4132.06148893,0.106314089,117074,3274.31099986
2420,4109.38218282,0.106718648,117556,3258.14260392
2430,4001.98452207,0.107152715,118035,3569.47487601
2440,4199.1684064,0.107566255,118508,3403.80425212
2450,3980.04323567,0.108004599,118987,3700.50233406
2460,3974.08553926,0.108407448,119471,3531.56566808
2470,3959.64380053,0.10880602,119960,3841.20561681
2480,4134.41203282,0.109187059,120444,3461.54853317
2490,4211.29136414,0.109573658,120927,3614.43328996
2500,4106.58705233,0.109978218,121418,3285.77438745
2510,4190.71367778,0.110392186,121905,3371.8428332
2520,4094.05272418,0.110805299,122389,3693.33478017
2530,4028.74100828,0.111209859,122883,3701.93848005
2540,4019.54036394,0.111652052,123366,3133.69121275
2550,3985.09841038,0.112043782,123856,3301.70241886
2560,3990.60638082,0.112426959,124333,3540.16838392
2570,4143.71197976,0.112833657,124814,3493.32706155
2580,4062.31400287,0.113239072,125307,3618.12849727
2590,4208.40348321,0.113638928,125786,3383.96646957
2600,4115.14908867,0.114070002,126269,3758.45810019
2610,4179.61667391,0.114480976,126752,3440.32620789
2620,4128.79776648,0.114886391,127231,3278.78494856
2630,4243.57815349,0.115315327,127696,3646.40330921
2640,4228.90031022,0.115740841,128175,3551.13244034
2650,4198.09296111,0.116172771,128656,3438.18342014
2660,4132.56693558,0.116579897,129126,3609.81124973
2670,4235.55637067,0.117010971,129605,3698.61163433
2680,4241.38284674,0.117423228,130088,3736.57201509
2690,4221.63325625,0.117832065,130570,3589.35491472
2700,4181.05805952,0.118237053,131033,3610.58526128
2710,4244.43433694,0.118639474,131518,3718.03213589
2720,4129.51227247,0.119056863,131995,3623.59127416
2730,4097.12079656,0.119570047,132474,3483.43957091
2740,3997.97827364,0.120000266,132942,3633.42765011
2750,4106.66131656,0.120406536,133428,3704.83035732
2760,4009.17241039,0.120816228,133909,3273.68493564
2770,4025.7473727,0.121224637,134393,3299.0294116
2780,4006.74080394,0.121634329,134882,3323.00181622
2790,4128.14589363,0.122037606,135357,3442.68155903
2800,4032.24598478,0.122448581,135841,3416.03359352
2810,3988.90775879,0.122861694,136327,3503.08240192
2820,4112.09719255,0.123305598,136802,3159.0017545
2830,4092.54307051,0.123713578,137268,3135.48296038
2840,4188.85819411,0.124136527,137742,3637.00659259
2850,4175.03290176,0.126610927,138215,3714.64315285
2860,4325.10775101,0.127020191,138699,3633.49846258
2870,4271.3305624,0.127426889,139174,3572.22645249
2880,4255.75539795,0.1278276,139654,3470.29988562
2890,4306.84052715,0.128227883,140155,3623.64907992
2900,4195.35795298,0.128630304,140638,3610.02949855
2910,4205.84455922,0.129032725,141120,3403.98513579
2920,4233.71481958,0.1294236,141596,3526.02613689
2930,4095.81126611,0.129847404,142070,3417.96359952
2940,4068.80547516,0.130264365,142544,3467.60876046
2950,4021.79593365,0.130678333,143017,3211.64250565
2960,4169.79103516,0.131077761,143512,3651.54369652
2970,4194.06792548,0.131479755,144001,3291.96345359
2980,4244.58702336,0.131895006,144487,3379.90763551
2990,4232.43529761,0.132299994,144964,3425.8876881
3000,4281.57824282,0.132703271,145463,3614.08000106
3010,4174.37440514,0.133115528,145952,3735.37585075
3020,4070.01740267,0.133525219,146430,3502.0110713
3030,4048.3314601,0.133939187,146912,3635.8706501
3040,4127.06941032,0.134347168,147388,3478.51749634
3050,4125.95221459,0.134954435,147879,3523.28305438
3060,4132.83346968,0.135344027,148360,3145.21321543
3070,4193.33556947,0.135727204,148839,3378.02538151
3080,4206.44547069,0.136114658,149319,3535.71551313
3090,4182.74572973,0.136509381,149793,3720.31144723
3100,4175.75903846,0.136891275,150267,3285.79324789
3110,4176.68325836,0.137312085,150757,3547.99434601
3120,4186.47899086,0.137725198,151232,3718.12543578
3130,4122.97057566,0.138134035,151718,3524.49558756
3140,4198.0783445,0.138541588,152204,3567.84129785
3150,4151.34895225,0.138944009,152688,3783.73292052
3160,4097.00255552,0.139348997,153174,3503.05637952
3170,4075.77278844,0.139774939,153649,3818.40274962
3180,4190.43834099,0.140177788,154137,3706.8796159
3190,4006.28040465,0.140595178,154615,3405.30062296
3200,4189.3950339,0.141001448,155107,3715.17120071
3210,4151.70274725,0.141412422,155582,3175.78869824
3220,4222.14155871,0.141837509,156077,3872.85646237
3230,4118.80012562,0.142242069,156564,3281.21039373
3240,4245.21884474,0.142665017,157047,3665.81569687
3250,4216.67851894,0.143047339,157534,3686.89705172
3260,4244.86909534,0.143464728,158026,3775.72277387
3270,4175.86783965,0.143890671,158506,3272.24585512
3280,4268.5989898,0.144285395,159000,3706.59871631
3290,4293.70686419,0.144679264,159483,3899.66261698
3300,4261.81101001,0.145056881,159966,3678.89507477
3310,4217.44475649,0.14547983,160456,2966.07480794
3320,4354.08364422,0.145889094,160946,3584.55228176
3330,4193.58329131,0.146275265,161435,3875.38281457
3340,4281.21690532,0.146701208,161899,3541.95915263
3350,4320.99016771,0.147120735,162379,3911.02162651
3360,4172.26131544,0.147549244,162860,3673.37053546
3370,4123.849392,0.147945251,163333,3608.26027927
3380,4162.59941128,0.148345962,163817,3736.13678437
3390,4127.30752586,0.148760786,164300,3405.31095836
3400,4023.45507058,0.149138831,164786,3652.16946601
3410,4166.94596545,0.149516021,165276,3752.91473887
3420,4179.20237257,0.149928706,165761,3768.91018293
3430,3893.210315,0.150340536,166239,3382.18163153
3440,4038.89333446,0.15075151,166719,3362.65460124
3450,3850.41014674,0.151180874,167202,3109.9007938
3460,3839.84210688,0.151584151,167690,3534.59580994
3470,3903.72316775,0.153939663,168180,3413.92982238
3480,4052.8341209,0.154345933,168674,3382.53512796
3490,3914.33357326,0.154756052,169161,3249.31765853
3500,4064.36591915,0.155151631,169642,3056.33620007
3510,4018.05844838,0.155560467,170133,3657.13454761
3520,4161.90446775,0.155968448,170624,3728.48750136
3530,4102.08492457,0.156406365,171107,3585.58582872
3540,4098.17955041,0.156818623,171589,3444.63301508
3550,4143.81971124,0.157224894,172070,3764.21531936
3560,4275.85312214,0.157634586,172541,3861.82799748
3570,4247.75843965,0.158039573,173033,3453.25573998
3580,4113.75932062,0.158450548,173512,3789.3576272
3590,4135.13926921,0.158849548,173990,3468.11958338
3600,4096.91755847,0.159257956,174476,3538.02262859
3610,4142.71594757,0.159665937,174967,3753.5968325
3620,4153.32400226,0.160089741,175454,3712.2393037
3630,4059.91566027,0.160499861,175931,3795.77169437
3640,4082.5273287,0.160904849,176418,3438.60611947
3650,4052.0555062,0.161335496,176901,3231.12032315
3660,4147.35048443,0.16174476,177392,3682.98158572
3670,4042.03841121,0.162154452,177881,3787.20334641
3680,4155.26981389,0.162562005,178361,3360.08851838
3690,4048.02777172,0.163013606,178835,3390.27333536
3700,3914.27253324,0.163422014,179320,3224.97283697
3710,3984.065301,0.163842825,179794,3361.16977574
3720,4095.68336279,0.164249951,180270,3526.44051629
3730,3870.6898799,0.164713527,180752,3365.3479448
3740,4048.6133255,0.165121507,181239,3032.28656974
3750,4028.89770179,0.165515803,181710,3731.6872535
3760,4164.68657402,0.16590069,182198,3498.857123
3770,4183.49126188,0.166332619,182675,3794.30448104
3780,4036.94994908,0.166743166,183176,3643.30804149
3790,4034.08630477,0.16715243,183667,3650.11921698
3800,4092.20190183,0.167566398,184145,3513.70617988
3810,4109.84696364,0.168000038,184629,3907.86183152
3820,4236.70560641,0.168419993,185105,3478.7247586
3830,4123.28862727,0.168837382,185588,3712.19567418
3840,4149.49960519,0.169244507,186076,3373.76660236
3850,4149.79681428,0.169655053,186568,3453.70313043
3860,4031.61192099,0.170077146,187049,3900.83579071
3870,4118.22744435,0.170465454,187531,3304.87400076
3880,4086.5999376,0.170884554,188018,3804.86927862
3890,4101.04365119,0.171303227,188499,3687.7630642
3900,4077.97048412,0.171725748,188986,3497.78825504
3910,3974.25562613,0.172110208,189459,3456.16533304
3920,3927.66099158,0.172514339,189941,3147.15741684
3930,3934.57905933,0.17291505,190419,3424.70296729
3940,3926.78945526,0.17331234,190909,3242.38127923
3950,3985.24401298,0.173729302,191391,3736.78048209
3960,3954.56196164,0.174131724,191874,3474.1574733
3970,3952.44181324,0.174522599,192368,3576.8220426
3980,3981.05658866,0.174932718,192852,3665.565905
3990,3969.11262489,0.175323592,193338,3860.79653761
4000,4052.469101,0.175722592,193825,3536.61767711
4010,4017.40734803,0.176117743,194298,3872.11464194
4020,4095.13290901,0.176519737,194771,3514.40639334
4030,4116.31364672,0.176911039,195250,3619.79532652
4040,4112.83242923,0.177330567,195737,3263.19856251
4050,4247.1901637,0.177731277,196222,3799.5421432
4060,4312.1070025,0.178122152,196708,3869.21502012
4070,4053.06635311,0.178510461,197185,3701.94461131
4080,3979.31744582,0.178912027,197656,3456.21656719
4090,4028.95552354,0.179330699,198142,3617.66459062
4100,3960.85869162,0.179727133,198617,3719.56265062
4110,4079.05981097,0.182233179,199090,3560.2916256
4120,4041.55719511,0.182636455,199573,3624.89409773
4130,4117.20449248,0.183035883,200051,3183.71854064
4140,4049.00866404,0.183427185,200543,3750.14231754
4150,4017.78241387,0.183835166,201036,3450.84625397
4160,3996.63136299,0.184255548,201520,3536.86691272
4170,4143.60795564,0.184742644,202000,3762.57167437
4180,4095.40203771,0.185156185,202497,3575.74804239
4190,4053.34148268,0.185599661,202968,3064.24274317
4200,3993.24566433,0.186004221,203456,3191.62789905
4210,4047.19888908,0.186446414,203936,3534.91959803
4220,3978.89660365,0.186864231,204432,3345.80075028
4230,3939.99677296,0.187271784,204919,2949.47408895
4240,3990.62411276,0.187653678,205405,3640.01725404
4250,3971.92069141,0.188039849,205881,3518.70888229
4260,4023.85506383,0.18845681,206360,3181.06018042
4270,4111.18033143,0.188865218,206827,3540.48209006
4280,4067.13843152,0.18926764,207302,3237.47663219
4290,4163.95598371,0.189679042,207779,3316.78131893
4300,4058.78592885,0.190083602,208266,3305.04243583
4310,4187.01081197,0.190489017,208753,3767.20679298
4320,4146.05450764,0.190918808,209234,3610.49574614
4330,4101.76373657,0.191322512,209711,3404.16833402
4340,4061.11173678,0.191750592,210190,3457.22562804
4350,4091.95121161,0.192165416,210676,3667.78797068
4360,4023.5229627,0.192574252,211149,3904.25102785
4370,3984.92784794,0.192996773,211632,3498.12336324
4380,3996.20709254,0.193395345,212134,3567.82789468
4390,4034.9222838,0.193801615,212607,3844.79115256
4400,3980.81739341,0.194244235,213094,3982.83891533
4410,4039.85605368,0.194654354,213597,3454.47229734
4420,4101.69430897,0.195075592,214082,3635.43610575
4430,4041.21223968,0.195484428,214566,3685.59836145
4440,4032.20654251,0.195883001,215060,3626.16423469
4450,3983.33869408,0.196290554,215543,3370.53782751
4460,3936.42929232,0.19669939,216029,3304.7859508
4470,3972.88086994,0.197095824,216499,3610.92899457
4480,4038.79020891,0.197505088,216972,3678.17320302
4490,4031.47045161,0.197913068,217462,3771.17396579
4500,4058.20687819,0.198347991,217951,3421.8073894
4510,3944.62511275,0.198772651,218433,3779.2445028
4520,4032.17622694,0.199216982,218929,3609.68043775
4530,3941.08841626,0.199621969,219405,3419.43481153
4540,3935.24238711,0.20002995,219890,3536.26213281
4550,3948.72886177,0.20045632,220379,3566.10559425
4560,3924.55498844,0.200867722,220870,3526.85253781
4570,3984.12096207,0.201273137,221336,3487.79232281
4580,4021.60217706,0.201684539,221818,3715.10873291
4590,3877.50897844,0.202095086,222289,3747.64414773
4600,3857.02279394,0.202495369,222771,3355.9098374
4610,3819.02497457,0.202904633,223251,3533.57226284
4620,3862.41379947,0.203291659,223735,3356.54057009
4630,3879.52069949,0.203688093,224226,3427.72869917
4640,3894.32228888,0.204077257,224717,3769.01142416
4650,3913.89416435,0.204479251,225199,3855.72722032
4660,3983.61426364,0.204891936,225683,3231.79116738
4670,4010.40122091,0.205318305,226181,3484.40051192
4680,4017.39251207,0.205716877,226664,3505.54173361
4690,4013.61473459,0.206136405,227162,3469.23474203
4700,4023.32379589,0.206548662,227639,3628.97353231
4710,4083.44133038,0.206943813,228113,3774.39595933
4720,4075.17964396,0.207343668,228606,3590.85874235
4730,3995.98980365,0.207753787,229096,3815.72239558
4740,4005.2027523,0.208158775,229585,3478.68540602
4750,4023.1933717,0.211101027,230075,3262.05715592
4760,4005.0472815,0.211547496,230559,3389.48709011
4770,4157.48148987,0.211961891,231038,3714.73633775
4780,4061.31384545,0.212382273,231514,3559.2519453
4790,4079.44926421,0.2128018,231997,3629.28669202
4800,4051.97849539,0.213238861,232481,3206.85396636
4810,4077.03127355,0.213694739,232957,3700.24812548
4820,3976.29998224,0.214136076,233449,3573.09177659
4830,4005.47762703,0.214562018,233929,3297.50001368
4840,4026.46438301,0.214981545,234404,2919.63691016
4850,4082.61423942,0.215401072,234897,3569.9619828
4860,4188.07859105,0.215825303,235389,3388.46501333
4870,4059.77693301,0.216241837,235872,3167.58447989
4880,4079.56496552,0.216651528,236339,3478.70656634
4890,4071.31885787,0.217063357,236816,3556.25772389
4900,4046.77069833,0.217521801,237303,3425.79919161
4910,4034.55495612,0.217928072,237798,3620.59883679
4920,4064.11739535,0.21835658,238287,3188.32250265
4930,4113.15614824,0.218786799,238756,3617.9316102
4940,4088.94404699,0.219231985,239241,3537.10463987
4950,4166.19089674,0.219635261,239726,3759.35146196
4960,4196.70874045,0.22004367,240217,3243.63333413
4970,4080.35330192,0.220471323,240693,3651.52785363
4980,4217.18687356,0.220878449,241193,3630.96302891
4990,4140.93873203,0.221288568,241675,3699.07593512
