it,funval,time,funcount,weight
0,2350.02564789,9.40900000046e-06,10,2573.76849314
10,2510.76192114,2.30939999994e-05,21,2725.85288046
20,2174.28465876,3.72070000054e-05,32,2425.35693172
30,1924.58492753,5.8590000009e-05,43,2084.57455179
40,1429.78461946,7.56960000103e-05,54,1807.24508241
50,1440.87098625,8.80980000062e-05,65,1787.71381626
60,1509.80574972,0.000103921000004,76,2112.25096391
70,1681.21023098,0.000121454999999,87,2232.87660196
80,2018.63312989,0.000138133999997,98,2465.5917153
90,2076.21870909,0.000145832000001,109,2416.47023588
100,2537.68781892,0.000161227000007,120,2799.00357193
110,2614.08822689,0.000188596000015,131,2981.2079163
120,2510.83048252,0.000203991000021,142,2957.43077464
130,2455.91217269,0.000280541000009,153,3032.49621896
140,2337.55112468,0.000295937000018,164,3056.23875903
150,2045.90431614,0.000332715000013,175,2767.05399021
160,2351.57174695,0.000348966000018,186,2832.77950627
170,2448.75475648,0.00036778300003,197,2822.25369461
180,2211.68951405,0.000392159000029,208,2697.39590188
190,2407.47127664,0.000415253000028,219,2924.29503938
200,2581.64953122,0.000438774000031,230,3213.76945687
210,2321.2503827,0.000456308000039,241,2841.28473105
220,2031.63399374,0.000473842000048,252,2504.84978349
230,2085.820437,0.000491375000053,263,2702.06639261
240,2283.8904044,0.000508053000061,274,2694.85498242
250,2449.5647386,0.000517889000065,285,2790.25765856
260,2249.11885093,0.000539272000054,296,2562.27095009
270,2410.14864234,0.000546970000045,307,2754.80561253
280,2252.3248753,0.000566642000052,318,2489.36164053
290,2390.15681767,0.000575195000053,329,2531.84891579
300,2194.75766687,0.000595722000043,340,2303.35221762
310,2140.23651625,0.000611545000041,351,2161.56925715
320,2163.12158125,0.000628651000042,362,2212.8919519
330,2422.93938652,0.000646613000043,373,2384.80791635
340,2489.36025689,0.000663719000045,384,2599.76574471
350,2800.16705343,0.000682108000049,395,2695.33010961
360,2895.0292147,0.000703063000046,406,2884.6324607
370,2848.70192631,0.000718458000051,417,2904.45841422
380,2970.89185715,0.000727866000048,428,2987.31747611
390,3078.57760772,0.000735564000053,439,3144.34998618
400,3141.08743686,0.000743689000046,450,3284.99654758
410,3464.34245461,0.00075181400004,461,3646.07923413
420,3489.44766523,0.000764216000036,472,3665.91264846
430,3566.86611764,0.000780466000037,483,3792.35160824
440,3701.02456588,0.000798427000035,494,3927.38123637
450,3721.52154162,0.000813394000033,505,3972.2876095
460,3721.52154162,0.000830072000042,516,3947.52920364
470,3721.52154162,0.000847178000043,527,4017.14279854
480,3721.52154162,0.000862146000046,538,3934.16650811
490,3760.97046927,0.000880107000043,549,3964.24524405
500,3760.97046927,0.000898496000033,560,3989.1968931
510,3760.97046927,0.000914747000024,571,3925.43439109
520,3760.97046927,0.000931853000026,582,3898.12943336
530,3760.97046927,0.00095024200003,593,3989.1968931
540,3760.97046927,0.000962644000026,604,3952.27546767
550,3760.97046927,0.000977184000021,615,3915.35404224
560,3760.97046927,0.000990014000024,626,3951.07579171
570,3760.97046927,0.00100583800003,637,4014.0010199
580,3760.97046927,0.00102166100002,648,3941.47299813
590,3760.97046927,0.00103534600004,659,3933.81475495
600,3760.97046927,0.00105159700003,670,3923.91035605
610,3760.97046927,0.00106699300004,681,3989.1968931
620,3760.97046927,0.00108110500004,692,3942.70747415
630,3760.97046927,0.00109521800005,703,3963.40077067
640,3800.40422059,0.00111189700004,714,3882.67164081
650,3800.40422059,0.00112643700004,725,3999.74574325
660,3800.40422059,0.00114311600004,736,3999.74574325
670,3800.40422059,0.00116278800004,747,3978.64804295
680,3800.40422059,0.00117903900005,758,3878.3224636
690,3800.40422059,0.00119015800006,769,3999.74574325
700,3800.40422059,0.00120897500005,780,3921.69634162
710,3800.40422059,0.00122822000006,791,3913.48565891
720,3800.40422059,0.00124874700006,802,3994.56627507
730,3800.40422059,0.00126756400006,813,3920.65367621
740,3800.40422059,0.00128680800006,824,3999.74574325
750,3800.40422059,0.00130605200006,835,3827.22557458
760,3800.40422059,0.00132658000007,846,3987.91803988
770,3800.40422059,0.00135779800007,857,4134.31131037
780,3800.40422059,0.00137704200007,868,3851.80457825
790,3800.40422059,0.00140441100008,879,3957.55034265
800,3800.40422059,0.00142878700008,890,3995.80317546
810,3800.40422059,0.00144974200008,901,3971.17853615
820,3800.40422059,0.00148609300008,912,3976.02993854
830,3800.40422059,0.00150576500008,923,3916.94707414
840,3800.40422059,0.00152629200007,934,3940.92511234
850,3800.40422059,0.00154724700006,945,3886.7281414
860,3800.40422059,0.00156820200007,956,3955.73979248
870,3800.40422059,0.00158915700007,967,4098.34965007
880,3800.40422059,0.00160840100007,978,3969.81683916
890,3800.40422059,0.00162807300006,989,3912.69702718
900,3800.40422059,0.00165073900007,1000,3980.31072069
910,3800.40422059,0.00167041100006,1011,3906.76690535
920,3800.40422059,0.00169692500006,1022,4020.64501046
930,3800.40422059,0.00172001800006,1033,3977.98356423
940,3800.40422059,0.00174653300006,1044,3999.74574325
950,3800.40422059,0.00176706000006,1055,3978.64804295
960,3800.40422059,0.00178630500007,1066,3999.74574325
970,3800.40422059,0.00180897000007,1077,3921.69634162
980,3800.40422059,0.00182821400007,1088,3878.3224636
990,3800.40422059,0.00184916900007,1099,4047.17735267
1000,3800.40422059,0.00187055100007,1110,3987.90027139
1010,3800.40422059,0.00189834800005,1121,3949.84244515
1020,3800.40422059,0.00193769200006,1132,3939.03410342
1030,3800.40422059,0.00195437000005,1143,3930.01161483
1040,3800.40422059,0.00199499700005,1154,4024.50414911
1050,3800.40422059,0.00200953700005,1165,4000.58979793
1060,3800.40422059,0.00202022900004,1176,3999.74574325
1070,3800.40422059,0.00203263100003,1187,4084.7333022
1080,3800.40422059,0.00204759900004,1198,4058.16515854
1090,3800.40422059,0.00206042800004,1209,4037.41827719
1100,3800.40422059,0.00207710600003,1220,3999.74574325
1110,3800.40422059,0.00208908000002,1231,3999.74574325
1120,3800.40422059,0.00210105400002,1242,3960.19970973
1130,3800.40422059,0.00211644900001,1253,3994.56627507
1140,3800.40422059,0.00212927800001,1264,3999.74574325
1150,3800.40422059,0.00214168000001,1275,3999.74574325
1160,3800.40422059,0.00215279800001,1286,3984.20733872
1170,3800.40422059,0.00216605600001,1297,3953.08315139
1180,3800.40422059,0.00218957700001,1308,3909.95903097
1190,3800.40422059,0.00220967700001,1319,3991.86060767
1200,3800.40422059,0.00222763900001,1330,4061.90387707
1210,3800.40422059,0.002243034,1341,3963.26006112
1220,3800.40422059,0.00225928500001,1352,3974.98733738
1230,3800.40422059,0.00227724600001,1363,3949.62132553
1240,3800.40422059,0.00229392500002,1374,4034.9556485
1250,3800.40422059,0.00230632700003,1385,3926.77437899
1260,3800.40422059,0.00232043900003,1396,3957.94720882
1270,3800.40422059,0.00233241300003,1407,3932.91318629
1280,3800.40422059,0.00234567000003,1418,3993.78138587
1290,3800.40422059,0.00235978300002,1429,3939.88793506
1300,3800.40422059,0.00237560600002,1440,3979.02787054
1310,3800.40422059,0.00239057400002,1451,3859.75796767
1320,3800.40422059,0.00240468700002,1462,3999.74574325
1330,3800.40422059,0.00241751700001,1473,3991.86060767
1340,3800.40422059,0.00243034700001,1484,3871.61895496
1350,3800.40422059,0.00244274800001,1495,3999.74574325
1360,3800.40422059,0.00245557800001,1506,3916.61013622
1370,3800.40422059,0.00247867100001,1517,3937.0575915
1380,3800.40422059,0.002499199,1528,3980.13886628
1390,3800.40422059,0.002517161,1539,3999.74574325
1400,3800.40422059,0.002530846,1550,4019.35262021
1410,3800.40422059,0.00254282100001,1561,3999.74574325
1420,3800.40422059,0.00255693400001,1572,3999.74574325
1430,3800.40422059,0.00258259300001,1583,4063.50824525
1440,3800.40422059,0.002594567,1594,3802.49085659
1450,3800.40422059,0.002610817,1605,4127.22708168
1460,3800.40422059,0.00262407400001,1616,3890.28869686
1470,3800.40422059,0.00263562000002,1627,3924.40067535
1480,3800.40422059,0.00264845000002,1638,3867.72789094
1490,3800.40422059,0.00265999700002,1649,4000.02709481
1500,3800.40422059,0.00267753100003,1660,3980.31072069
1510,3800.40422059,0.00269078800002,1671,3961.62464186
1520,3800.40422059,0.00270575500004,1682,3964.5568814
1530,3800.40422059,0.00271986800003,1693,3884.95317468
1540,3800.40422059,0.00273868500004,1704,3966.32946477
1550,3800.40422059,0.00275835700005,1715,3950.13748965
1560,3800.40422059,0.00277418000005,1726,3999.74574325
1570,3800.40422059,0.00278914800003,1737,3999.74574325
1580,3800.40422059,0.00280454400003,1748,3999.74574325
1590,3800.40422059,0.00282079500003,1759,4042.45467268
1600,3800.40422059,0.00283661800003,1770,3846.68898515
1610,3800.40422059,0.00285073100002,1781,3962.0732093
1620,3800.40422059,0.00286484400003,1792,3945.36360709
1630,3800.40422059,0.00288280500003,1803,3974.7940942
1640,3800.40422059,0.00289435200003,1814,3932.10860885
1650,3800.40422059,0.00290632600003,1825,3999.74574325
1660,3800.40422059,0.00292428700003,1836,3942.56409116
1670,3800.40422059,0.00293882700002,1847,3880.03012688
1680,3800.40422059,0.00295122900002,1858,3999.74574325
1690,3800.40422059,0.00296619700002,1869,3904.29795331
1700,3800.40422059,0.00298073700002,1880,3926.77437899
1710,3800.40422059,0.00299442200001,1891,4024.54987004
1720,3800.40422059,0.00300896200001,1902,3954.89055421
1730,3800.40422059,0.003020936,1913,3957.94720882
1740,3800.40422059,0.00303248199999,1924,3911.73384171
1750,3800.40422059,0.00304616699999,1935,3977.98356423
1760,3800.40422059,0.00305728599999,1946,3999.74574325
1770,3800.40422059,0.00306968799998,1957,3999.74574325
1780,3800.40422059,0.00308294499999,1968,3827.22557458
1790,3800.40422059,0.00309449199999,1979,3999.74574325
1800,3800.40422059,0.00310732199999,1990,3999.74574325
1810,3800.40422059,0.00312057899998,2001,3995.80317546
1820,3800.40422059,0.00313298099998,2012,3999.74574325
1830,3800.40422059,0.00314666599998,2023,3950.43202158
1840,3800.40422059,0.00316206199997,2034,3909.95903097
1850,3800.40422059,0.00317702999996,2045,3902.86415912
1860,3800.40422059,0.00319199799996,2056,3978.32033793
1870,3800.40422059,0.00320653799996,2067,3999.74574325
1880,3800.40422059,0.00322193299996,2078,3988.01612263
1890,3800.40422059,0.00323647299996,2089,3957.55034265
1900,3800.40422059,0.00325058499995,2100,4031.08981912
1910,3800.40422059,0.00326426999995,2111,3930.01161483
1920,3800.40422059,0.00328436999995,2122,3978.64804295
1930,3800.40422059,0.00330874599995,2133,3909.95903097
1940,3800.40422059,0.00332585299995,2144,3999.74574325
1950,3800.40422059,0.00334167599995,2155,3846.68898515
1960,3800.40422059,0.00335707199994,2166,3859.75796767
1970,3800.40422059,0.00337503399994,2177,3987.90027139
1980,3800.40422059,0.00339000199995,2188,3969.89268888
1990,3800.40422059,0.00340368699995,2199,3927.08455516
2000,3800.40422059,0.00341822699994,2210,3970.59320941
2010,3800.40422059,0.00343404999994,2221,3985.4621397
2020,3800.40422059,0.00344987399994,2232,3962.0732093
2030,3800.40422059,0.00346313199995,2243,3999.74574325
2040,3800.40422059,0.00347467899995,2254,3999.74574325
2050,3800.40422059,0.00349221299996,2265,3999.74574325
2060,3800.40422059,0.00350846399995,2276,3911.73384171
2070,3800.40422059,0.00352086599995,2287,3935.98324124
2080,3800.40422059,0.00354011099995,2298,3911.07361626
2090,3800.40422059,0.00356320399995,2309,3939.88793506
2100,3800.40422059,0.00358586999995,2320,3999.74574325
2110,3800.40422059,0.00365001799995,2331,4105.375459
2120,3800.40422059,0.00367824299994,2342,4061.90387707
2130,3800.40422059,0.00369877099993,2353,3999.74574325
2140,3800.40422059,0.00372314699995,2364,3901.14183643
2150,3800.40422059,0.00374367499995,2375,3999.74574325
2160,3800.40422059,0.00376719599996,2386,4000.58979793
2170,3800.40422059,0.00378815099997,2397,3926.77437899
2180,3800.40422059,0.00380611299997,2408,3999.74574325
2190,3800.40422059,0.00383006199998,2419,3913.48565891
2200,3800.40422059,0.00385272699998,2430,3846.68898515
2210,3800.40422059,0.00387282699998,2441,3923.2173642
2220,3800.40422059,0.00389249899997,2452,3960.19970973
2230,3800.40422059,0.00391217099997,2463,3942.56409116
2240,3800.40422059,0.00393227099997,2474,3999.74574325
2250,3800.40422059,0.00395450899997,2485,3985.4621397
2260,3800.40422059,0.00397631899996,2496,3880.03012688
2270,3800.40422059,0.00404859199996,2507,3999.74574325
2280,3800.40422059,0.00407040199995,2518,3985.4621397
2290,3800.40422059,0.00409306799996,2529,3881.5162406
2300,3800.40422059,0.00411359599995,2540,3957.55034265
2310,3800.40422059,0.00413497899996,2551,3983.03760401
2320,3800.40422059,0.00415507899996,2562,4000.87114949
2330,3800.40422059,0.00417603399995,2573,3871.61895496
2340,3800.40422059,0.00420340399995,2584,3960.72104243
2350,3800.40422059,0.00422564199995,2595,3987.91803988
2360,3800.40422059,0.00424616899996,2606,3950.43202158
2370,3800.40422059,0.00426584099996,2617,3871.61895496
2380,3800.40422059,0.00428209199997,2628,4037.41827719
2390,3800.40422059,0.00429577599996,2639,3999.74574325
2400,3800.40422059,0.00431587599996,2650,3912.69702718
2410,3800.40422059,0.00433640299997,2661,3993.78138587
2420,3800.40422059,0.00435650199996,2672,3856.57405834
2430,3800.40422059,0.00437660099996,2683,3999.74574325
2440,3800.40422059,0.00439841199996,2694,3953.08315139
2450,3800.40422059,0.00441765599996,2705,3871.61895496
2460,3800.40422059,0.00443818399997,2716,3935.98324124
2470,3800.40422059,0.00446170499995,2727,3999.74574325
2480,3800.40422059,0.00448137699996,2738,3880.03012688
2490,3800.40422059,0.00450190399997,2749,3999.74574325
2500,3800.40422059,0.00460667899996,2760,3932.91318629
2510,3800.40422059,0.00462335699997,2771,3999.74574325
2520,3800.40422059,0.00464345699997,2782,3899.93914704
2530,3800.40422059,0.00466355699997,2793,3999.74574325
2540,3800.40422059,0.00468622299998,2804,3889.34751778
2550,3800.40422059,0.00470674999998,2815,4041.54427767
2560,3800.40422059,0.00472599399998,2826,3999.74574325
2570,3800.40422059,0.00474523899997,2837,3999.74574325
2580,3800.40422059,0.00476875899997,2848,3889.34751778
2590,3800.40422059,0.00478800299997,2859,3926.77437899
2600,3800.40422059,0.00480724699997,2870,3922.35737597
2610,3800.40422059,0.00483033999997,2881,3971.17853615
2620,3800.40422059,0.00485001199996,2892,3970.59320941
2630,3800.40422059,0.00488978399996,2903,3970.59320941
2640,3800.40422059,0.00490902799996,2914,3961.62464186
2650,3800.40422059,0.00492955599996,2925,3978.32033793
2660,3800.40422059,0.00494922799997,2936,3990.02823197
2670,3800.40422059,0.00496804499998,2947,3978.32033793
2680,3800.40422059,0.00498771699999,2958,3952.02184828
2690,3800.40422059,0.00500995499999,2969,3871.61895496
2700,3800.40422059,0.00503304799999,2980,3999.74574325
2710,3800.40422059,0.00505229199999,2991,3990.02823197
2720,3800.40422059,0.00507068099999,3002,4084.7333022
2730,3800.40422059,0.00508522099999,3013,3940.63099192
2740,3800.40422059,0.00510018799999,3024,4030.82481016
2750,3800.40422059,0.00511601199999,3035,3976.05479954
2760,3800.40422059,0.00513012399999,3046,3925.90289238
2770,3800.40422059,0.00514252599999,3057,3999.74574325
2780,3800.40422059,0.00515407299999,3068,3977.98356423
2790,3800.40422059,0.00516732999999,3079,3999.74574325
2800,3800.40422059,0.005183581,3090,3999.74574325
2810,3800.40422059,0.00519812099999,3101,4023.43668695
2820,3800.40422059,0.00521094999999,3112,4023.46154796
2830,3800.40422059,0.005225063,3123,4134.31131037
2840,3800.40422059,0.005238748,3134,3957.55034265
2850,3800.40422059,0.005251578,3145,3999.74574325
2860,3800.40422059,0.00526569099999,3156,3999.74574325
2870,3800.40422059,0.005278092,3167,3999.74574325
2880,3800.40422059,0.005290922,3178,3958.95914113
2890,3800.40422059,0.00530375100001,3189,3999.74574325
2900,3800.40422059,0.00532256800001,3200,3924.40067535
2910,3800.40422059,0.00533796400001,3211,4034.9556485
2920,3800.40422059,0.00535250400002,3222,3904.29795331
2930,3800.40422059,0.00536832700001,3233,4087.37486618
2940,3800.40422059,0.00538415000001,3244,3999.74574325
2950,3800.40422059,0.00539740700002,3255,3937.0575915
2960,3800.40422059,0.00541323000002,3266,4009.53143054
2970,3800.40422059,0.00542563200001,3277,3999.74574325
2980,3800.40422059,0.00543803400002,3288,3999.74574325
2990,3800.40422059,0.00545214700001,3299,4028.95545089
3000,3800.40422059,0.00546797100002,3310,3968.0991928
3010,3800.40422059,0.00548080000002,3321,3930.01161483
3020,3800.40422059,0.00549320200001,3332,3912.69702718
3030,3800.40422059,0.00550603100001,3343,3950.44378984
3040,3800.40422059,0.00551843300002,3354,4019.35262021
3050,3800.40422059,0.00553083400001,3365,3999.74574325
3060,3800.40422059,0.00554366300001,3376,3871.61895496
3070,3800.40422059,0.00555521000001,3387,3972.55467517
3080,3800.40422059,0.005566329,3398,4000.87114949
3090,3800.40422059,0.005576593,3409,4089.45612133
3100,3800.40422059,0.005589422,3420,3999.74574325
3110,3800.40422059,0.00560267900001,3431,3976.50103377
3120,3800.40422059,0.00561593600001,3442,4019.31711784
3130,3800.40422059,0.00563261500001,3453,3851.80457825
3140,3800.40422059,0.00565912900001,3464,3950.43202158
3150,3800.40422059,0.00567880100002,3475,4029.10280514
3160,3800.40422059,0.00569462400001,3486,3908.67828351
3170,3800.40422059,0.00570788100002,3497,3913.48565891
3180,3800.40422059,0.00572113800003,3508,3969.89268888
3190,3800.40422059,0.00573439600002,3519,4019.35262021
3200,3800.40422059,0.00574722600003,3530,3921.69634162
3210,3800.40422059,0.00575962800002,3541,3932.10860885
3220,3800.40422059,0.00577288500001,3552,3999.74574325
3230,3800.40422059,0.00578699700002,3563,3999.74574325
3240,3800.40422059,0.00579982600001,3574,3972.55467517
3250,3800.40422059,0.0058118,3585,3999.74574325
3260,3800.40422059,0.005824202,3596,3999.74574325
3270,3800.40422059,0.005838314,3607,3999.74574325
3280,3800.40422059,0.00585242700001,3618,3999.74574325
3290,3800.40422059,0.005866967,3629,3951.30495119
3300,3800.40422059,0.00588022399999,3640,3856.57405834
3310,3800.40422059,0.00589348099999,3651,3899.93914704
3320,3800.40422059,0.00590716599999,3662,3971.17853615
3330,3800.40422059,0.00592042299998,3673,3889.34751778
3340,3800.40422059,0.00593496399998,3684,3974.94161645
3350,3800.40422059,0.00595035899998,3695,3999.74574325
3360,3800.40422059,0.00596746499998,3706,3939.88793506
3370,3800.40422059,0.00598157799999,3717,4044.60093229
3380,3800.40422059,0.00599654599999,3728,3999.74574325
3390,3800.40422059,0.00601236999999,3739,4000.30844637
3400,3800.40422059,0.006026483,3750,3939.03410342
3410,3800.40422059,0.006039313,3761,3999.74574325
3420,3800.40422059,0.00605470800001,3772,3913.48565891
3430,3800.40422059,0.00606711,3783,3999.74574325
3440,3800.40422059,0.006080367,3794,3999.74574325
3450,3800.40422059,0.00609447899998,3805,3841.56160917
3460,3800.40422059,0.00610730899999,3816,3989.1968931
3470,3800.40422059,0.00612099399999,3827,3881.10764269
3480,3800.40422059,0.00613596099998,3838,3906.76690535
3490,3800.40422059,0.00614879099997,3849,3999.74574325
3500,3800.40422059,0.00616290399998,3860,3881.10764269
3510,3800.40422059,0.00617744399999,3871,3851.80457825
3520,3800.40422059,0.00619198399998,3882,3968.40166738
3530,3800.40422059,0.00620524099999,3893,3939.88793506
3540,3800.40422059,0.00621806999999,3904,3989.1968931
3550,3800.40422059,0.00623089999999,3915,3972.14618688
3560,3800.40422059,0.00624372999999,3926,3944.3636051
3570,3800.40422059,0.00625784199998,3937,4034.9556485
3580,3800.40422059,0.00627238199998,3948,3991.86060767
3590,3800.40422059,0.00628734999998,3959,3890.28869686
3600,3800.40422059,0.00630188999997,3970,3968.66667634
3610,3800.40422059,0.00631728499998,3981,4041.54427767
3620,3800.40422059,0.00633225299998,3992,4023.43668695
3630,3800.40422059,0.00634721999998,4003,3960.19970973
3640,3800.40422059,0.00636175999999,4014,4116.58457383
3650,3800.40422059,0.00637458899999,4025,3880.03012688
3660,3800.40422059,0.00638528099999,4036,4070.16555375
3670,3800.40422059,0.00639896599999,4047,3927.08455516
3680,3800.40422059,0.006412223,4058,4011.47536386
3690,3800.40422059,0.00642676299999,4069,3999.74574325
3700,3800.40422059,0.006449856,4080,3956.61570108
3710,3800.40422059,0.0064691,4091,3999.74574325
3720,3800.40422059,0.006486634,4102,3949.01789245
3730,3800.40422059,0.006503313,4113,3908.67828351
3740,3800.40422059,0.00651785299999,4124,3971.17853615
3750,3800.40422059,0.00653367599999,4135,3975.88831376
3760,3800.40422059,0.00654607799999,4146,3987.90027139
3770,3800.40422059,0.00655890699998,4157,4030.82481016
3780,3800.40422059,0.00657216399998,4168,3987.91803988
3790,3800.40422059,0.00658413799998,4179,3851.80457825
3800,3800.40422059,0.00659440199999,4190,3999.74574325
3810,3800.40422059,0.00660723199998,4201,4038.88849244
3820,3800.40422059,0.00661963399999,4212,4029.10280514
3830,3800.40422059,0.00663374599999,4223,3957.03681382
3840,3800.40422059,0.00664785799998,4234,3870.35561675
3850,3800.40422059,0.00665940499998,4245,3999.74574325
3860,3800.40422059,0.00667137899998,4256,3889.34751778
3870,3800.40422059,0.00668463599997,4267,3999.74574325
3880,3800.40422059,0.00669746499997,4278,3999.74574325
3890,3800.40422059,0.00670943899996,4289,3920.65367621
3900,3800.40422059,0.00672226899997,4300,3999.74574325
3910,3800.40422059,0.00673595399996,4311,3833.4745292
3920,3800.40422059,0.00675434399996,4322,3999.74574325
3930,3800.40422059,0.00676760199995,4333,3999.74574325
3940,3800.40422059,0.00678128699995,4344,4030.82481016
3950,3800.40422059,0.00679753699994,4355,3923.2173642
3960,3800.40422059,0.00681421599995,4366,3999.74574325
3970,3800.40422059,0.00683773699996,4377,3939.88793506
3980,3800.40422059,0.00685527099995,4388,3881.5162406
3990,3800.40422059,0.00687708199995,4399,4084.7333022
4000,3800.40422059,0.00689504399995,4410,3921.69634162
4010,3800.40422059,0.00690915599995,4421,4031.08981912
4020,3800.40422059,0.00692155799996,4432,3999.74574325
4030,3800.40422059,0.00693524299996,4443,3920.65367621
4040,3800.40422059,0.00694764499997,4454,3867.72789094
4050,3800.40422059,0.00696090199997,4465,3999.74574325
4060,3800.40422059,0.00697586999998,4476,4061.90387707
4070,3800.40422059,0.00699126499997,4487,4024.54987004
4080,3800.40422059,0.00700580499996,4498,3939.03410342
4090,3800.40422059,0.00702205599997,4509,3999.74574325
4100,3800.40422059,0.00703616899997,4520,3994.56627507
4110,3800.40422059,0.00704899799997,4531,3930.01161483
4120,3800.40422059,0.00706653199997,4542,3927.08455516
4130,3800.40422059,0.00708192699997,4553,3921.69634162
4140,3800.40422059,0.00710459199998,4564,3927.08455516
4150,3800.40422059,0.00712084199998,4575,3980.13886628
4160,3800.40422059,0.00713709299998,4586,4127.22708168
4170,3800.40422059,0.00715120499999,4597,3999.74574325
4180,3800.40422059,0.00717044899999,4608,3974.7940942
4190,3800.40422059,0.00718627199998,4619,4023.46154796
4200,3800.40422059,0.00720294999998,4630,3975.52534722
4210,3800.40422059,0.00721748999997,4641,3973.94962082
4220,3800.40422059,0.00723202999997,4652,3923.2173642
4230,3800.40422059,0.00724614299997,4663,4023.46154796
4240,3800.40422059,0.00726282099997,4674,4019.31711784
4250,3800.40422059,0.00727693299997,4685,3939.03410342
4260,3800.40422059,0.00729104599998,4696,3927.08455516
4270,3800.40422059,0.00730088199998,4707,3958.95914113
4280,3800.40422059,0.00731456699998,4718,3999.74574325
4290,3800.40422059,0.00732739599998,4729,3999.74574325
4300,3800.40422059,0.00734065299997,4740,3999.74574325
4310,3800.40422059,0.00735476599998,4751,4074.02096083
4320,3800.40422059,0.00736759599998,4762,3875.04233271
4330,3800.40422059,0.00737956999998,4773,3999.74574325
4340,3800.40422059,0.00739282699998,4784,4049.04769666
4350,3800.40422059,0.00740608399998,4795,3922.35737597
4360,3800.40422059,0.00741891399997,4806,3999.74574325
4370,3800.40422059,0.00743217199997,4817,3989.38680689
4380,3800.40422059,0.00744799499996,4828,3853.80301473
4390,3800.40422059,0.00746167899997,4839,3999.74574325
4400,3800.40422059,0.00747921299998,4850,4042.45467268
4410,3800.40422059,0.00749418099998,4861,3980.31072069
4420,3800.40422059,0.00751128699999,4872,3961.48155372
4430,3800.40422059,0.00752710999998,4883,3985.4621397
4440,3800.40422059,0.00754207799999,4894,3911.07361626
4450,3800.40422059,0.00756474299999,4905,3974.98733738
4460,3800.40422059,0.00758612499999,4916,3957.55034265
4470,3800.40422059,0.007599382,4927,3886.7281414
4480,3800.40422059,0.00761734299999,4938,3971.17853615
4490,3800.40422059,0.007634021,4949,3957.03681382
4500,3800.40422059,0.00765069900001,4960,4011.47536386
4510,3800.40422059,0.00766908800001,4971,4023.43668695
4520,3800.40422059,0.00768704900001,4982,3975.88831376
4530,3800.40422059,0.00770372800001,4993,3881.10764269
4540,3800.40422059,0.0077234,5004,3999.74574325
4550,3800.40422059,0.00773879499999,5015,4011.5912151
4560,3800.40422059,0.00775547399999,5026,3999.74574325
4570,3800.40422059,0.00777215299999,5037,3995.80317546
4580,3800.40422059,0.00778669299999,5048,4000.30844637
4590,3800.40422059,0.00780422699999,5059,3999.74574325
4600,3800.40422059,0.00782176,5070,4019.31711784
4610,3800.40422059,0.007837583,5081,3880.03012688
4620,3800.40422059,0.007853406,5092,3999.74574325
4630,3800.40422059,0.007868801,5103,3992.60394147
4640,3800.40422059,0.00788505200001,5114,3889.34751778
4650,3800.40422059,0.007900448,5125,3944.54663051
4660,3800.40422059,0.007923969,5136,3999.74574325
4670,3800.40422059,0.00793936500001,5147,3999.74574325
4680,3800.40422059,0.00795390500001,5158,3920.65367621
4690,3800.40422059,0.00796759000001,5169,3925.90289238
4700,3800.40422059,0.00798426900002,5180,3999.74574325
4710,3800.40422059,0.00800094700001,5191,3999.74574325
4720,3800.40422059,0.00801933600002,5202,4019.35262021
4730,3800.40422059,0.00803686900002,5213,4098.34965007
4740,3800.40422059,0.00805183600004,5224,3999.74574325
4750,3800.40422059,0.00806637600004,5235,4025.54186567
4760,3800.40422059,0.00808177200004,5246,3916.94707414
4770,3800.40422059,0.00809802300004,5257,3890.28869686
4780,3800.40422059,0.00811555600005,5268,3987.91803988
4790,3800.40422059,0.00813223500006,5279,4014.67227043
4800,3800.40422059,0.00814891400006,5290,3999.74574325
4810,3800.40422059,0.00816388200006,5301,3999.74574325
4820,3800.40422059,0.00817970500006,5312,3932.91318629
4830,3800.40422059,0.00819125100007,5323,3999.74574325
4840,3800.40422059,0.00820835700007,5334,3992.60394147
4850,3800.40422059,0.00822460800008,5345,4014.67227043
4860,3800.40422059,0.00823872000008,5356,3870.35561675
4870,3800.40422059,0.00826224100008,5367,3961.62464186
4880,3800.40422059,0.00827891900009,5378,3999.74574325
4890,3800.40422059,0.00829260400009,5389,4000.87114949
4900,3800.40422059,0.0083084270001,5400,3881.10764269
4910,3800.40422059,0.0083208290001,5411,3999.74574325
4920,3800.40422059,0.0083370800001,5422,3999.74574325
4930,3800.40422059,0.0083494820001,5433,3902.86415912
4940,3800.40422059,0.0083623110001,5444,3999.74574325
4950,3800.40422059,0.00837685100009,5455,3999.74574325
4960,3800.40422059,0.00838968100008,5466,3999.74574325
4970,3800.40422059,0.00840208200009,5477,3958.17793973
4980,3800.40422059,0.00841705000009,5488,3932.10860885
4990,3800.40422059,0.00843116200008,5499,4000.58979793
