it,funval,time,funcount,weight
0,24585.5889379,3.46400001945e-05,10,25834.8597515
10,24448.4925253,7.78330004323e-05,21,25867.6855476
20,24655.7875836,0.000121454000691,32,26077.4690083
30,24631.799378,0.000165929001014,43,25884.8816577
40,24667.1516639,0.000215109001147,54,25734.692599
50,24602.3332702,0.000259585001004,65,25631.7542189
60,24503.5782347,0.000304916000459,76,25739.6697284
70,24250.9363771,0.000349392000317,87,25700.7848867
80,24175.3594204,0.000394724000216,98,25764.0618301
90,23993.0880854,0.00043064700003,109,25677.4374481
100,24045.4432948,0.000466569000309,120,25657.2649282
110,23952.6232318,0.000505057000737,131,25492.2048067
120,23633.0435985,0.000545684000826,142,25112.9120924
130,23397.7915708,0.000580324001021,153,24990.6040093
140,23414.3735191,0.000628221000625,164,24886.9468884
150,23581.5069282,0.00067526300063,175,24935.8089517
160,23456.9432768,0.00071760100127,186,24832.2864476
170,23471.6368351,0.000766781000493,197,24823.3870363
180,23665.5167679,0.000809119000223,208,24927.8014865
190,23754.2638608,0.000843332000841,219,25013.6648111
200,24108.519363,0.000885242001459,230,25454.2624686
210,24053.9856489,0.000924159001443,241,25543.8377525
220,23729.4431718,0.000960082002166,252,25183.2998224
230,23517.4862943,0.000998143002107,263,24807.2781668
240,23627.5618648,0.00104903400188,274,25032.3231881
250,23656.8922914,0.00108281900157,285,24904.9445776
260,23681.115206,0.00112943400109,296,24910.1925983
270,23997.1263435,0.00118075300088,307,25146.7002118
280,23957.589015,0.00123249900116,318,25134.7998373
290,24214.4477468,0.00127612000051,329,25218.2859072
300,23883.1260052,0.00132102400039,340,24977.1886286
310,23755.4009758,0.00137063200054,351,24886.7802052
320,24090.3132688,0.0014142530008,362,25225.8272012
330,23916.5421136,0.001448893001,373,24989.6493725
340,23932.2524723,0.00148438900032,384,25033.8296246
350,24138.5699609,0.00152971999978,395,25181.2260075
360,24299.0972687,0.00157291300002,406,25549.3590086
370,24286.8802611,0.00161653400028,417,25685.0391527
380,24507.9209835,0.0016610090006,428,25741.8502301
390,24729.1066882,0.00170377400082,439,25781.5706693
400,25000.3571313,0.00174739400154,450,26155.061784
410,25293.1058812,0.00178246100131,461,26308.0680475
420,25512.2853716,0.00183078600185,472,26451.7382825
430,25732.3715948,0.0018821040012,483,26665.1511201
440,26079.8753039,0.00192615300057,494,26989.1701089
450,26222.5745344,0.00197234000098,505,27111.0258542
460,26449.109122,0.002019810001,516,27169.2476251
470,26706.1599454,0.00206385800084,527,27594.420855
480,26836.8394309,0.00210705100108,538,27758.5772793
490,27184.0693417,0.00215109900091,549,27944.7424999
500,27207.2258238,0.00219557500077,560,27951.8260162
510,27401.8723256,0.00224176200027,571,28391.8124896
520,27408.4812395,0.00228752100065,582,28319.059076
530,27641.1600571,0.0023204500003,593,28980.7439385
540,28061.7405894,0.00236834700081,604,29229.6986915
550,28153.0151988,0.00240384200151,615,29240.3349933
560,28227.8384433,0.00244660700173,626,29434.2743666
570,28383.4240858,0.00248167500195,637,29604.4884472
580,28577.5956742,0.00253085500208,648,30047.6797174
590,28583.0226027,0.00256806000198,659,30121.2759288
600,28661.7868492,0.00260098900253,670,30216.5617248
610,28707.8508772,0.00263562900182,681,30385.6014048
620,28767.4749842,0.00268053300169,692,30666.3525883
630,28795.4820504,0.0027275750017,703,30696.4810365
640,28988.2000079,0.00277846600238,714,30809.1248046
650,29004.3676753,0.00282978500309,725,30826.2655401
660,29183.4074348,0.00287725500311,736,30923.5847764
670,29325.5732117,0.00292344200352,747,31154.4437979
680,29510.4933119,0.00296877300389,758,31210.2960362
690,29809.066194,0.00301880800362,769,31539.3751056
700,29998.7938047,0.00306884300426,780,31677.4796955
710,30072.7640927,0.00312058900363,791,31766.8068731
720,30162.6288097,0.00317917800294,802,31869.7168083
730,30281.725955,0.00321766600337,813,32012.8149333
740,30395.985045,0.00328822900337,824,32077.2389569
750,30395.985045,0.00334211300378,835,32077.2389569
760,30536.3874037,0.00338787200417,846,32160.5890298
770,30642.9767078,0.00343876300394,857,32281.6646003
780,30769.1473604,0.00349564100361,868,32405.4907245
790,31011.1818603,0.00354524800332,879,32523.3210385
800,31228.9214846,0.00359229000333,890,32732.7438285
810,31327.5405243,0.0036282120027,901,32882.1008819
820,31473.4329792,0.00367739200283,912,33044.4840836
830,31619.0698289,0.00373555300303,923,33242.0940311
840,31722.4771828,0.00378430500314,934,33359.3798498
850,31817.1767376,0.003836478003,945,33403.2207867
860,31939.0951628,0.00388523000311,956,33528.8804233
870,31978.7287728,0.00395194400335,967,33651.3970201
880,32029.015076,0.00401096000314,978,33727.7604064
890,32122.8581845,0.00408494400381,989,33759.6978986
900,32271.2286073,0.0041439600036,1000,34001.9253271
910,32339.4380527,0.00419827200403,1011,34068.3255455
920,32562.4461913,0.00425557800372,1022,34290.5965257
930,32707.5029382,0.00430689700352,1033,34478.5967844
940,32806.7914145,0.00435393800308,1044,34644.8635283
950,32923.1084759,0.00440354600323,1055,34873.5063493
960,32956.5391747,0.00445272600246,1066,35010.3535154
970,33041.874776,0.00449420900259,1077,35013.1585666
980,33191.8189725,0.0045369740028,1088,35322.5938502
990,33282.6066043,0.00457674600329,1099,35303.7493383
1000,33433.993589,0.00461224100309,1110,35658.7281969
1010,33587.8121323,0.0046609930032,1121,35918.5944997
1020,33706.7465076,0.00470931800373,1132,35983.8401865
1030,33749.1682206,0.00476063600399,1143,35980.6172343
1040,33842.8117837,0.00480682200396,1154,36142.2347703
1050,34038.6312789,0.00485471900447,1165,36254.7554777
1060,34132.4962486,0.00490432700462,1176,36524.7154754
1070,34154.9580407,0.00495650000448,1187,36638.8843099
1080,34167.4944522,0.00500653600466,1198,36585.0727825
1090,34210.8157253,0.00505486100428,1209,36632.9597437
1100,34223.1130342,0.00510147500427,1220,36614.9590955
1110,34497.2169035,0.0051506550044,1231,36903.0446165
1120,34612.9804262,0.00520197300466,1242,36980.7445782
1130,34620.0176777,0.00524944200515,1253,37046.5547919
1140,34652.3600971,0.00528878600562,1264,36999.0652541
1150,34712.694608,0.00533112400626,1275,37054.892556
1160,34922.0705219,0.0053811590069,1286,37151.4118245
1170,35034.4259898,0.0054341880068,1297,37175.26129
1180,35100.1310083,0.00548764500672,1308,37266.6540082
1190,35200.9436727,0.00554024700614,1319,37360.1707061
1200,35200.9436727,0.00558814500619,1330,37338.5017664
1210,35283.7974556,0.00564288500664,1341,37506.0475453
1220,35289.9461101,0.00569890800671,1352,37508.4671621
1230,35299.0668744,0.0057502270065,1363,37561.8579967
1240,35484.1001613,0.00579684100649,1374,37884.9769868
1250,35515.6780381,0.00583618500605,1385,37886.0217483
1260,35515.6780381,0.0058866480058,1396,37846.4319614
1270,35681.8586323,0.00594609200562,1407,38136.8505031
1280,35816.5445519,0.00600126000518,1418,38199.3720523
1290,35952.0485368,0.00604958500571,1429,38525.2451767
1300,36029.1707787,0.00609919200542,1440,38571.1735806
1310,36093.8005299,0.0061500830052,1451,38614.8594378
1320,36093.8005299,0.00619798100524,1462,38659.5869905
1330,36093.8005299,0.00623946300584,1473,38611.0962852
1340,36258.5792254,0.00629890700566,1484,38770.5869555
1350,36258.5792254,0.00634210000499,1495,38752.4506165
1360,36342.3771252,0.00639213500472,1506,38801.2294074
1370,36342.3771252,0.00644302600449,1517,38806.9374161
1380,36526.6229533,0.00648194300447,1528,39153.4021879
1390,36543.4881423,0.00653026700456,1539,39156.274067
1400,36690.8594729,0.00657901900468,1550,39343.9734702
1410,36693.9098331,0.00662477800415,1561,39265.3266251
1420,36799.7881565,0.0066752410039,1572,39523.8073986
1430,36946.3683121,0.00671544100442,1583,39598.6751278
1440,37026.9298479,0.00676248300442,1594,39769.9075216
1450,37077.705803,0.00679883400426,1605,39703.8032556
1460,37101.3696795,0.00685015200361,1616,39889.8453642
1470,37117.6553239,0.00688949600408,1627,39981.7318299
1480,37165.4366001,0.00692841200362,1638,39924.6231177
1490,37165.4366001,0.00698186800309,1649,39854.7555577
1500,37165.4366001,0.00703917400369,1660,39966.8751055
1510,37165.4366001,0.0070887810034,1671,39977.875404
1520,37165.4366001,0.00713026400354,1682,39966.6405255
1530,37165.4366001,0.00717345700286,1693,39998.757055
1540,37165.4366001,0.00721536700257,1704,40109.0934962
1550,37165.4366001,0.00726625800235,1715,39998.757055
1560,37165.4366001,0.00730688500244,1726,40071.0733113
1570,37165.4366001,0.00734623000244,1737,40080.0659962
1580,37165.4366001,0.00739455500297,1748,39954.6631878
1590,37165.4366001,0.00744330800262,1759,39958.588657
1600,37165.4366001,0.00749419900239,1770,40028.0522072
1610,37165.4366001,0.0075472280023,1781,40033.1972923
1620,37165.4366001,0.00758742700236,1792,39860.3581894
1630,37165.4366001,0.00763703500161,1803,39998.757055
1640,37165.4366001,0.00768792600138,1814,39998.757055
1650,37165.4366001,0.00774394800101,1825,39992.1445436
1660,37165.4366001,0.00780595800097,1836,39961.7508483
1670,37165.4366001,0.00785214500138,1847,40015.0912916
1680,37165.4366001,0.00790260800204,1858,39977.0637204
1690,37181.8907762,0.00795563700194,1869,39875.0213304
1700,37181.8907762,0.00801251500161,1880,39978.4283384
1710,37181.8907762,0.00806511700193,1891,40009.6237122
1720,37181.8907762,0.00810275000185,1902,39960.9960016
1730,37181.8907762,0.00815022000188,1913,39864.7982423
1740,37181.8907762,0.00820153800123,1924,40043.3662449
1750,37181.8907762,0.00827039000069,1935,39990.6980746
1760,37181.8907762,0.00831700500112,1946,39999.2007789
1770,37181.8907762,0.00835378400097,1957,40036.5384864
1780,37181.8907762,0.00842092500079,1968,39949.5331533
1790,37181.8907762,0.00847267100107,1979,39899.4897076
1800,37181.8907762,0.00851201500154,1990,39871.3800175
1810,37181.8907762,0.00857103100134,2001,39843.4929129
1820,37181.8907762,0.00862790900192,2012,39815.7622185
1830,37181.8907762,0.00867837200167,2023,39999.2007789
1840,37181.8907762,0.00872969100146,2034,39999.2007789
1850,37181.8907762,0.00878699700206,2045,39911.9500642
1860,37181.8907762,0.00883660500222,2056,39972.6074721
1870,37181.8907762,0.00888664000286,2067,39974.4894665
1880,37181.8907762,0.00893624800301,2078,39999.2007789
1890,37181.8907762,0.00898414500261,2089,39972.3681611
1900,37181.8907762,0.00903332500275,2100,39961.3157522
1910,37181.8907762,0.00909105800292,2111,39970.8803932
1920,37181.8907762,0.00913938300255,2122,39952.49197
1930,37181.8907762,0.00919198400334,2133,39965.8380776
1940,37181.8907762,0.00923175600292,2144,40047.755194
1950,37181.8907762,0.00928606800244,2155,39999.2007789
1960,37181.8907762,0.00933824200274,2166,39999.2007789
1970,37181.8907762,0.0093775860023,2177,39959.4212892
1980,37181.8907762,0.00943403600286,2188,39999.2007789
1990,37181.8907762,0.00948877500286,2199,39998.609147
2000,37181.8907762,0.0095388100026,2210,40040.895992
2010,37181.8907762,0.00957900900266,2221,39883.7830058
2020,37181.8907762,0.00961792500311,2232,39984.9492116
2030,37181.8907762,0.0096585520032,2243,39999.2007789
2040,37181.8907762,0.00970730500285,2254,39911.8554978
2050,37181.8907762,0.00976503800302,2265,39940.6466443
2060,37181.8907762,0.00980566500311,2276,39934.7040023
2070,37181.8907762,0.0098420150025,2287,39982.5344986
2080,37181.8907762,0.00987964900287,2298,40032.4773925
2090,37181.8907762,0.00991942000292,2309,39964.4028628
2100,37181.8907762,0.00995363200218,2320,39828.7080832
2110,37181.8907762,0.00998870000149,2331,39995.1094668
2120,37181.8907762,0.0100306100012,2342,39999.2007789
2130,37181.8907762,0.0100690990012,2353,39925.4378398
2140,37181.8907762,0.0101020290012,2364,39999.2007789
2150,37181.8907762,0.0101311100016,2375,39992.7230976
2160,37181.8907762,0.0101636110021,2386,39969.6799647
2170,37181.8907762,0.0102021000021,2397,39983.4703702
2180,37181.8907762,0.0102448660018,2408,39971.4225912
2190,37181.8907762,0.0102829270018,2419,39988.8008539
2200,37181.8907762,0.0103214160017,2430,39988.8642074
2210,37181.8907762,0.0103594770017,2441,40001.9060121
2220,37181.8907762,0.0104005310022,2452,39850.5662254
2230,37181.8907762,0.010436454002,2463,39932.595714
2240,37232.5776026,0.0104779360026,2474,40031.7095032
2250,37232.5776026,0.0105138590025,2485,40028.0094523
2260,37232.5776026,0.0105523470029,2496,39895.3365428
2270,37232.5776026,0.0106011000034,2507,39942.7054435
2280,37232.5776026,0.010648997003,2518,39954.0315631
2290,37232.5776026,0.0107003150024,2529,39999.2553533
2300,37232.5776026,0.0107447910023,2540,39999.2553533
2310,37232.5776026,0.0108029520025,2551,39986.790735
2320,37232.5776026,0.0108487110028,2562,39997.8857106
2330,37232.5776026,0.0108893380029,2573,39954.8519768
2340,37232.5776026,0.0109402280032,2584,40047.8097685
2350,37232.5776026,0.0109919740034,2595,40012.2049247
2360,37232.5776026,0.0110394440035,2606,39999.2553533
2370,37232.5776026,0.0110899070032,2617,39889.9810642
2380,37232.5776026,0.0111301070037,2628,39890.15545
2390,37232.5776026,0.0111784310038,2639,39999.2553533
2400,37232.5776026,0.011227611004,2650,39980.0986426
2410,37232.5776026,0.0112789290042,2661,39919.0037567
2420,37232.5776026,0.0113263990042,2672,39999.2553533
2430,37232.5776026,0.0113892640047,2683,39957.7500391
2440,37232.5776026,0.0114345950051,2694,39999.2553533
2450,37232.5776026,0.0114837750052,2705,39992.8697958
2460,37232.5776026,0.0115350930055,2716,40011.2861352
2470,37232.5776026,0.0115799960049,2727,40022.7674431
2480,37232.5776026,0.011636019005,2738,39880.8434655
2490,37232.5776026,0.0116864820056,2749,40091.4979991
2500,37232.5776026,0.0117386550064,2760,39957.9588236
2510,37232.5776026,0.0117908280063,2771,39996.4330707
2520,37232.5776026,0.0118472780059,2782,39881.2130344
2530,37232.5776026,0.0119007350067,2793,40036.6830824
2540,37232.5776026,0.0119511980065,2804,39995.4238555
2550,37232.5776026,0.0119922530057,2815,39999.2553533
2560,37232.5776026,0.0120397230057,2826,40028.0213191
2570,37232.5776026,0.0120824880059,2837,39979.8223096
2580,37232.5776026,0.0121316680061,2848,39875.0759049
2590,37232.5776026,0.0121821310058,2859,39921.7370898
2600,37232.5776026,0.0122244690056,2870,39997.6039475
2610,37232.5776026,0.0122676620058,2881,39974.5251071
2620,37232.5776026,0.0123224020053,2892,39978.3130964
2630,37232.5776026,0.0123724380046,2903,39999.2553533
2640,37232.5776026,0.0124267490046,2914,39959.3335538
2650,37232.5776026,0.0124767840043,2925,39922.3763526
2660,37232.5776026,0.0125186940049,2936,40033.59954
2670,37232.5776026,0.0125678740051,2947,39939.8793181
2680,37232.5776026,0.0126106390053,2958,39926.8360268
2690,37232.5776026,0.0126572530053,2969,39962.2491467
2700,37232.5776026,0.0126978800054,2980,39978.7892608
2710,37232.5776026,0.0127504810052,2991,39983.5875609
2720,37232.5776026,0.0127911080053,3002,39955.0898873
2730,37232.5776026,0.0128287410053,3013,39999.2553533
2740,37232.5776026,0.0128787770054,3024,39963.8259538
2750,37232.5776026,0.0129300960052,3035,39990.3185011
2760,37232.5776026,0.012980987005,3046,39927.6219402
2770,37232.5776026,0.0130237520052,3057,39914.7849684
2780,37232.5776026,0.0130733600054,3068,39968.5540374
2790,37232.5776026,0.0131280990054,3079,39894.8616052
2800,37232.5776026,0.0131841220054,3090,39905.5101304
2810,37232.5776026,0.0132362960057,3101,40098.2098597
2820,37232.5776026,0.0132888970056,3112,40085.9156606
2830,37232.5776026,0.0133389320063,3123,39952.3827419
2840,37232.5776026,0.0134030800064,3134,39959.6723051
2850,37232.5776026,0.0134475560062,3145,39888.1426027
2860,37232.5776026,0.013498019006,3156,40040.9866079
2870,37232.5776026,0.0135489090062,3167,40174.0493056
2880,37232.5776026,0.0135903920063,3178,39832.5389114
2890,37232.5776026,0.0136387170069,3189,39952.5465444
2900,37232.5776026,0.0136908900067,3200,39952.2403161
2910,37232.5776026,0.0137396420068,3211,39904.5062076
2920,37232.5776026,0.0137939540073,3222,39899.7957891
2930,37232.5776026,0.013844417007,3233,39916.6622939
2940,37232.5776026,0.0138863270067,3244,39999.2553533
2950,37232.5776026,0.0139385000066,3255,39999.2553533
2960,37232.5776026,0.0139791270067,3266,39980.3507906
2970,37232.5776026,0.0140236030065,3277,39933.7806056
2980,37232.5776026,0.0140804810071,3288,39986.464429
2990,37232.5776026,0.0141394970078,3299,39985.8051577
3000,37232.5776026,0.014188677008,3310,39926.5220844
3010,37232.5776026,0.0142374290081,3321,39952.3920263
3020,37232.5776026,0.0142887470083,3332,39889.6171567
3030,37232.5776026,0.0143379270085,3343,40036.26156
3040,37232.5776026,0.0143905280083,3354,39997.0914845
3050,37232.5776026,0.014441419009,3365,39995.3207366
3060,37232.5776026,0.0144910270092,3376,39839.9657539
3070,37250.0895727,0.0145461940092,3387,39989.6565786
3080,37250.0895727,0.0145979400086,3398,40045.1141408
3090,37250.0895727,0.0146479760087,3409,39982.4575742
3100,37250.0895727,0.0146980110085,3420,40091.2801865
3110,37250.0895727,0.0147527510089,3431,39946.4545213
3120,37250.0895727,0.0148049250092,3442,39910.0108907
3130,37250.0895727,0.014855816009,3453,40016.2283071
3140,37250.0895727,0.0148964430091,3464,40033.1669642
3150,37250.0895727,0.0149447680096,3475,39999.8903506
3160,37250.0895727,0.0149943750093,3486,39906.8247958
3170,37250.0895727,0.0150469770097,3497,39955.4729721
3180,37250.0895727,0.0150982960095,3508,39970.4042907
3190,37250.0895727,0.0151491860097,3519,39973.5233201
3200,37250.0895727,0.0152030700101,3530,39999.8903506
3210,37250.0895727,0.0152526780103,3541,39960.8084872
3220,37250.0895727,0.0152928770103,3552,39999.4466267
3230,37250.0895727,0.0153317940103,3563,39997.1628092
3240,37250.0895727,0.0153878170104,3574,39972.3973668
3250,37250.0895727,0.0154378520101,3585,39999.8175846
3260,37250.0895727,0.0154943030102,3596,39955.4490465
3270,37250.0895727,0.0155503260103,3607,39839.1514663
3280,37250.0895727,0.01560078901,3618,39991.5565474
3290,37250.0895727,0.0156512520098,3629,39999.8903506
3300,37250.0895727,0.0157034260101,3640,39999.8903506
3310,37250.0895727,0.0157504670096,3651,40012.839922
3320,37250.0895727,0.0157996470089,3662,40070.6886687
3330,37250.0895727,0.0158424130086,3673,39918.5524085
3340,37250.0895727,0.0158817570082,3684,39999.8903506
3350,37250.0895727,0.0159198180081,3695,39897.3497279
3360,37250.0895727,0.0159587340086,3706,40028.994656
3370,37250.0895727,0.0160100530084,3717,39999.8903506
3380,37250.0895727,0.016060088009,3728,39999.8903506
3390,37250.0895727,0.0161101230096,3739,39964.6645512
3400,37250.0895727,0.0161593030089,3750,40042.1388762
3410,37250.0895727,0.0162114770083,3761,39990.4682754
3420,37250.0895727,0.0162657890087,3772,40047.2649235
3430,37250.0895727,0.0163162520093,3783,40040.7336016
3440,37250.0895727,0.0163658600095,3794,39999.8903506
3450,37250.0895727,0.0164257310098,3805,39961.5769292
3460,37250.0895727,0.0164723450098,3816,39999.8903506
3470,37250.0895727,0.0165326440092,3827,39940.5009252
3480,37250.0895727,0.0165809680084,3838,39921.1256765
3490,37250.0895727,0.0166305760085,3849,39980.7130123
3500,37281.5811541,0.0166861710086,3860,39944.4265386
3510,37281.5811541,0.0167362070079,3871,40033.2595275
3520,37281.5811541,0.016785387008,3882,40042.2314395
3530,37281.5811541,0.0168264420072,3893,40020.7127917
3540,37281.5811541,0.0168683520078,3904,39999.9829139
3550,37281.5811541,0.0169192420071,3915,39999.9829139
3560,37281.5811541,0.0169581580067,3926,40005.5504708
3570,37281.5811541,0.0170086210073,3937,40006.0932129
3580,37281.5811541,0.0170586570066,3948,40081.6694159
3590,37281.5811541,0.0170967190061,3959,39999.9829139
3600,37281.5811541,0.0171506030056,3970,40032.658827
3610,37281.5811541,0.0172032040055,3981,39982.5439234
3620,37281.5811541,0.0172596540051,3992,39961.2370074
3630,37281.5811541,0.0173054130046,4003,39917.4901687
3640,37281.5811541,0.0173682780051,4014,39985.600438
3650,37281.5811541,0.0174221630059,4025,39996.0154809
3660,37281.5811541,0.0174777570064,4036,39999.9829139
3670,37281.5811541,0.017526082007,4047,39936.5867412
3680,37281.5811541,0.0175697020068,4058,39951.9478345
3690,37281.5811541,0.0176128950061,4069,39999.9829139
3700,37281.5811541,0.0176539490058,4080,39996.6311673
3710,37281.5811541,0.0177005630057,4091,39957.9608048
3720,37281.5811541,0.0177467500062,4102,39999.9829139
3730,37281.5811541,0.0177955020063,4113,39893.1112553
3740,37281.5811541,0.0178485310062,4124,39983.9161001
3750,37281.5811541,0.0178989940059,4135,39995.8801934
3760,37281.5811541,0.0179486010065,4146,40012.0136958
3770,37281.5811541,0.0179973540071,4157,39912.5416595
3780,37281.5811541,0.0180461060072,4168,40038.6112979
3790,37281.5811541,0.0181089710068,4179,39999.9829139
3800,37281.5811541,0.0181628550072,4190,39994.2373027
3810,37281.5811541,0.0182094690072,4201,40172.4229415
3820,37281.5811541,0.0182663470068,4212,39999.9829139
3830,37281.5811541,0.0183095400071,4223,40011.4662817
3840,37281.5811541,0.0183608590069,4234,39931.2945406
3850,37281.5811541,0.0184113220066,4245,39963.1014444
3860,37281.5811541,0.0184737600066,4256,40032.0994433
3870,37281.5811541,0.0185143870067,4267,39817.9855087
3880,37281.5811541,0.0185712650064,4278,39875.3231912
3890,37281.5811541,0.0186195900069,4289,39976.903491
3900,37281.5811541,0.0186657770073,4300,39998.6604362
3910,37281.5811541,0.0187175230067,4311,39964.2632263
3920,37281.5811541,0.0187602880069,4322,40029.7157995
3930,37281.5811541,0.018809468007,4333,39950.9270802
3940,37281.5811541,0.0188586480072,4344,40007.7559044
3950,37281.5811541,0.0189074010077,4355,39982.8069562
3960,37281.5811541,0.0189574370079,4366,40086.2029277
3970,37281.5811541,0.0190096100077,4377,40020.0339654
3980,37281.5811541,0.0190570790073,4388,39999.9829139
3990,37281.5811541,0.0191066870075,4399,39902.335698
4000,37281.5811541,0.0191584330069,4410,39963.5581509
4010,37281.5811541,0.0192118900068,4421,39991.6731684
4020,37281.5811541,0.0192529450069,4432,39973.9283383
4030,37281.5811541,0.0192991310068,4443,40001.3053916
4040,37281.5811541,0.0193607130068,4454,39982.0994275
4050,37281.5811541,0.0194090380064,4465,39999.9829139
4060,37281.5811541,0.0194629220068,4476,39975.7375613
4070,37281.5811541,0.0195116740069,4487,39953.2028641
4080,37281.5811541,0.019552729007,4498,39920.4239346
4090,37281.5811541,0.0196036200068,4509,40002.7608483
4100,37281.5811541,0.0196604980065,4520,39857.6964471
4110,37281.5811541,0.0197092500066,4531,39999.9829139
4120,37281.5811541,0.0197520150059,4542,39984.2216697
4130,37281.5811541,0.0197913590064,4553,39996.6074556
4140,37281.5811541,0.019832413007,4564,39977.0825486
4150,37281.5811541,0.0198751790067,4575,39999.9829139
4160,37281.5811541,0.0199217930076,4586,39999.9829139
4170,37281.5811541,0.0200013370077,4597,40045.787582
4180,37281.5811541,0.0200509440074,4608,39964.2444324
4190,37281.5811541,0.0201039730073,4619,39999.9829139
4200,37281.5811541,0.0201458830079,4630,39916.4563099
4210,37281.5811541,0.0201882200081,4641,39919.4850607
4220,37281.5811541,0.0202288470082,4652,40020.5815791
4230,37281.5811541,0.0202673360081,4663,39960.2034243
4240,37281.5811541,0.0203212210081,4674,39999.9829139
4250,37281.5811541,0.0203695460086,4685,39907.7402682
4260,37281.5811541,0.0204170150091,4696,40044.4481126
4270,37281.5811541,0.0204738930097,4707,39931.6224988
4280,37281.5811541,0.0205243560094,4718,39919.6134718
4290,37281.5811541,0.0205769580098,4729,40017.4156903
4300,37281.5811541,0.0206248550094,4740,39933.3778491
4310,37281.5811541,0.0206642000094,4751,39975.9213502
4320,37281.5811541,0.0207232160092,4762,39921.8396642
4330,37281.5811541,0.0207715410097,4773,39908.408713
4340,37281.5811541,0.0208245700105,4784,39933.8991818
4350,37281.5811541,0.0208780270104,4795,39915.5523267
4360,37281.5811541,0.0209340500105,4806,39999.9829139
4370,37281.5811541,0.0209810920105,4817,39906.237691
4380,37281.5811541,0.0210336940108,4828,40043.0929208
4390,37281.5811541,0.0210858680111,4839,39999.9829139
4400,37281.5811541,0.0211260670103,4850,40011.2425997
4410,37281.5811541,0.021185083011,4861,39969.5142584
4420,37281.5811541,0.0212381120109,4872,39911.7008922
4430,37281.5811541,0.0213270630102,4883,39918.8751763
4440,37281.5811541,0.0213796650105,4894,39922.7261459
4450,37281.5811541,0.0214309830099,4905,39817.7718729
4460,37281.5811541,0.02149555901,4916,40017.2197163
4470,37281.5811541,0.0215605620106,4927,39962.282974
4480,37281.5811541,0.02161273601,4938,39999.9829139
4490,37281.5811541,0.0216631990097,4949,39901.5133018
4500,37281.5811541,0.0217106680093,4960,39999.9829139
4510,37281.5811541,0.0217684010095,4971,39999.9829139
4520,37281.5811541,0.0218068900094,4982,39999.9829139
4530,37281.5811541,0.0218423850092,4993,39999.9829139
4540,37281.5811541,0.0218795900091,5004,39999.9829139
4550,37281.5811541,0.0219244930086,5015,39964.7571145
4560,37281.5811541,0.0219634100085,5026,39985.2623639
4570,37281.5811541,0.0219997610084,5037,39921.0416554
4580,37281.5811541,0.0220365390087,5048,39998.6132712
4590,37281.5811541,0.0220899960086,5059,39966.6356875
4600,37281.5811541,0.0221259190093,5070,39839.2440296
4610,37281.5811541,0.0221639800093,5081,39989.7978126
4620,37281.5811541,0.0221999020096,5092,40095.8034668
4630,37281.5811541,0.0222358240098,5103,40008.6159615
4640,37281.5811541,0.0222751680103,5114,39900.8932116
4650,37281.5811541,0.0223128020098,5125,39937.8032235
4660,37281.5811541,0.0223521460102,5136,39995.1577369
4670,37281.5811541,0.0223919170103,5147,39999.9829139
4680,37281.5811541,0.0224470840103,5158,40026.3499444
4690,37281.5811541,0.0224936980103,5169,39914.7695738
4700,37281.5811541,0.0225415950099,5180,40032.0994433
4710,37281.5811541,0.0225882090099,5191,39999.9829139
4720,37281.5811541,0.0226326850106,5202,39999.9829139
4730,37281.5811541,0.0226698900105,5213,39919.6461179
4740,37281.5811541,0.0227182150111,5224,39908.8773934
4750,37281.5811541,0.0227695340109,5235,39973.9283383
4760,37281.5811541,0.0228195700111,5246,39999.9829139
4770,37281.5811541,0.0228644740118,5257,39999.9829139
4780,37281.5811541,0.022913654012,5268,39999.9829139
4790,37281.5811541,0.0229641170117,5279,39991.9843288
4800,37281.5811541,0.0230038890122,5290,39899.0197085
4810,37281.5811541,0.0230436610118,5301,39999.9829139
4820,37281.5811541,0.0230838600119,5312,39999.9829139
4830,37281.5811541,0.0231232040114,5323,39981.1026568
4840,37281.5811541,0.0231723840116,5334,39868.8603872
4850,37281.5811541,0.0232211360117,5345,39917.125307
4860,37281.5811541,0.0232630460114,5356,40039.3652509
4870,37281.5811541,0.0233023900118,5367,39901.5133018
4880,37281.5811541,0.0233519970116,5378,39914.3708491
4890,37281.5811541,0.0233956180118,5389,39999.9829139
4900,37281.5811541,0.023438383012,5400,39938.6434002
4910,37281.5811541,0.023484997012,5411,40040.8261649
4920,37281.5811541,0.0235350320118,5422,40004.877369
4930,37281.5811541,0.0235914830118,5433,39899.8948102
4940,37281.5811541,0.0236517820122,5444,39999.9829139
4950,37281.5811541,0.0236996800113,5455,39958.0345993
4960,37281.5811541,0.0237381690113,5466,39999.9829139
4970,37281.5811541,0.0237946190109,5477,39954.287996
4980,37281.5811541,0.0238348190105,5488,39839.2440296
4990,37281.5811541,0.0238874200104,5499,39999.9829139
