it,funval,time,funcount,weight
0,2636.68143218,8.55300000069e-06,10,2718.01185884
10,2371.54963104,1.62510000052e-05,21,2663.73040787
20,2405.65544324,2.309300001e-05,32,2721.04792947
30,2477.84204554,2.99350000006e-05,43,2829.06767699
40,2668.06009527,3.76330000051e-05,54,3011.51219833
50,2731.47318839,5.0035000001e-05,65,3120.20092804
60,2741.606223,6.0726000001e-05,76,3268.92691958
70,2980.68546314,6.88510000089e-05,87,3398.32024796
80,3166.44561769,7.78320000165e-05,98,3595.58663537
90,3493.7876484,8.63850000172e-05,109,3766.90788984
100,3668.25644915,9.53650000213e-05,120,3852.76726051
110,3668.25644915,0.000107767000017,131,3883.55348019
120,3668.25644915,0.000119314000017,142,4173.05296689
130,3671.96998888,0.000129577000024,153,3961.23108531
140,3671.96998888,0.000139840000031,164,3996.44099056
150,3671.96998888,0.000153097000037,175,3879.36688812
160,3671.96998888,0.000171914000035,186,4038.00879407
170,3671.96998888,0.000185171000041,197,3925.29357643
180,3671.96998888,0.000197145000044,208,4028.32224156
190,3671.96998888,0.000208692000044,219,4139.61267547
200,3671.96998888,0.000223232000039,230,3996.44099056
210,3671.96998888,0.000235633000031,241,3996.44099056
220,3671.96998888,0.000245897000028,252,3996.44099056
230,3671.96998888,0.00026086500003,263,3996.44099056
240,3671.96998888,0.000271128000023,274,4166.41610847
250,3671.96998888,0.000283102000026,285,3996.44099056
260,3671.96998888,0.000295076000015,296,4060.20349257
270,3671.96998888,0.000307906000018,307,3996.44099056
280,3701.25852287,0.000319453000017,318,4022.2366943
290,3701.25852287,0.00033057200001,329,3983.0014417
300,3701.25852287,0.000350244000018,340,3965.6384948
310,3701.25852287,0.00036350100001,351,3997.28504525
320,3701.25852287,0.000376758000002,362,3947.16062753
330,3701.25852287,0.000388303999998,373,4020.97598895
340,3701.25852287,0.000399850999997,384,3997.28504525
350,3701.25852287,0.000416529999995,395,3898.68113842
360,3701.25852287,0.000430214999994,406,3918.19297821
370,3701.25852287,0.000440905999994,417,3997.28504525
380,3701.25852287,0.000452025000001,428,3945.6928004
390,3701.25852287,0.000468275999992,439,3975.52286623
400,3701.25852287,0.000481960999991,450,3997.28504525
410,3701.25852287,0.000493934999994,461,3877.56942888
420,3701.25852287,0.000505909999987,472,3849.34388025
430,3701.25852287,0.000519594999986,483,3997.28504525
440,3701.25852287,0.000534135999985,494,3986.7361951
450,3701.25852287,0.000546109999988,505,3997.28504525
460,3701.25852287,0.00055808499998,516,3849.34388025
470,3701.25852287,0.00056877599998,527,4045.00894022
480,3701.25852287,0.000581605999983,538,3972.52663938
490,3701.25852287,0.000594434999982,549,3968.0753376
500,3701.25852287,0.000605981999982,560,3990.14324347
510,3701.25852287,0.000617100999975,571,3997.28504525
520,3701.25852287,0.000629074999978,582,4026.84242091
530,3701.25852287,0.000642759999977,593,3997.28504525
540,3701.25852287,0.000660720999974,604,3936.57340542
550,3701.25852287,0.000675260999969,615,3997.28504525
560,3701.25852287,0.000686379999962,626,3977.85002268
570,3701.25852287,0.000700919999957,637,3997.28504525
580,3701.25852287,0.000716315999952,648,3821.26124218
590,3701.25852287,0.000730000999951,659,3906.21758551
600,3701.25852287,0.000752238999951,670,4022.2366943
610,3701.25852287,0.000764640999947,681,3950.62245339
620,3701.25852287,0.00077747099995,692,3857.29726967
630,3701.25852287,0.000789444999953,703,3955.71724173
640,3701.25852287,0.000814676999951,714,3997.28504525
650,3701.25852287,0.00082964399995,725,3997.28504525
660,3701.25852287,0.000839907999946,736,3997.28504525
670,3701.25852287,0.000851026999953,747,3948.84425318
680,3701.25852287,0.000861718999957,758,3996.72234212
690,3701.25852287,0.000873693999964,769,3973.59410154
700,3701.25852287,0.000884384999964,780,3857.29726967
710,3701.25852287,0.000896785999956,791,3997.28504525
720,3701.25852287,0.000909615999944,802,3948.84425318
730,3701.25852287,0.00092201799994,813,3898.68113842
740,3701.25852287,0.000933563999936,824,3963.86876677
750,3701.25852287,0.000945537999925,835,3987.56753397
760,3701.25852287,0.000957083999936,846,3950.36656278
770,3701.25852287,0.000969485999931,857,3997.28504525
780,3701.25852287,0.000981459999934,868,3937.57893652
790,3701.25852287,0.000995144999933,879,3946.55719444
800,3701.25852287,0.00100797399993,890,4022.2366943
810,3701.25852287,0.00101909299993,901,3914.48637614
820,3701.25852287,0.00102892899993,912,3997.28504525
830,3701.25852287,0.00104389699993,923,3904.30620735
840,3701.25852287,0.00106014799994,934,3950.62245339
850,3701.25852287,0.00107725399994,945,3997.28504525
860,3701.25852287,0.00109435999993,956,3996.44099056
870,3701.25852287,0.00111146599993,967,3985.55542463
880,3701.25852287,0.00112985499993,978,3955.71724173
890,3701.25852287,0.00114909999994,989,3980.37576165
900,3701.25852287,0.00116834499994,1000,4047.18834335
910,3701.25852287,0.00118673399993,1011,4016.85641984
920,3701.25852287,0.00120426699993,1022,3911.02496091
930,3701.25852287,0.00122351199994,1033,3967.43199088
940,3701.25852287,0.00123805199993,1044,4039.77882472
950,3701.25852287,0.00125601399994,1055,3997.28504525
960,3701.25852287,0.00127611399994,1066,3955.48651082
970,3701.25852287,0.00129535799994,1077,3978.82433253
980,3701.25852287,0.00131545699993,1088,3975.85963992
990,3701.25852287,0.00133384599994,1099,3986.92610889
1000,3701.25852287,0.00135009699994,1110,3997.28504525
1010,3701.25852287,0.00136891399995,1121,3909.27314371
1020,3701.25852287,0.00138644799995,1132,3872.96877761
1030,3701.25852287,0.00139713999995,1143,3975.85963992
1040,3701.25852287,0.00140783199994,1154,4018.18431246
1050,3701.25852287,0.00142322799994,1165,3872.58163471
1060,3701.25852287,0.00143605799994,1176,3977.67816828
1070,3701.25852287,0.00146000699993,1187,3981.51477409
1080,3701.25852287,0.00147625799993,1198,3918.85753738
1090,3701.25852287,0.00149122599993,1209,4022.2366943
1100,3701.25852287,0.00150148899992,1220,3877.56942888
1110,3701.25852287,0.00151132499992,1231,3973.56924053
1120,3701.25852287,0.00152671999992,1242,4082.70290411
1130,3701.25852287,0.00154168799992,1253,4009.1305171
1140,3701.25852287,0.00155751099993,1264,3862.71947812
1150,3701.25852287,0.00157333399993,1275,3810.63467781
1160,3701.25852287,0.00159172299993,1286,3997.28504525
1170,3701.25852287,0.00160925699994,1297,3985.55542463
1180,3701.25852287,0.00162593599994,1308,3978.22449455
1190,3701.25852287,0.00164004799994,1319,4062.57158229
1200,3701.25852287,0.00167041199994,1330,3997.28504525
1210,3701.25852287,0.00168495199993,1341,3914.48637614
1220,3701.25852287,0.00170376899993,1352,3967.43199088
1230,3701.25852287,0.00172087499993,1363,3872.96877761
1240,3701.25852287,0.00174011899993,1374,3914.14943822
1250,3701.25852287,0.00175850799994,1385,3942.08593251
1260,3701.25852287,0.00177817999993,1396,3987.56753397
1270,3701.25852287,0.00179528599992,1407,4167.26016316
1280,3701.25852287,0.00181281999991,1418,3947.98309183
1290,3701.25852287,0.00183163599992,1429,3954.57611582
1300,3701.25852287,0.00184959799992,1440,3973.82580401
1310,3701.25852287,0.00187354699992,1451,3954.57611582
1320,3701.25852287,0.00188979799992,1462,3997.28504525
1330,3701.25852287,0.00190690499993,1473,3997.28504525
1340,3701.25852287,0.00192401099993,1484,4026.49475289
1350,3701.25852287,0.00194197199993,1495,4018.18431246
1360,3701.25852287,0.00195822199993,1506,4007.07073254
1370,3701.25852287,0.00197661099993,1517,3976.38577803
1380,3701.25852287,0.00199585599994,1528,4029.16629625
1390,3701.25852287,0.00201253399995,1539,3958.41500012
1400,3701.25852287,0.00202835699994,1550,3997.28504525
1410,3701.25852287,0.00204802899994,1561,3867.89491874
1420,3701.25852287,0.00206470799993,1572,3962.0961834
1430,3701.25852287,0.00208095799994,1583,3997.28504525
1440,3701.25852287,0.00209806499994,1594,3918.85753738
1450,3701.25852287,0.00211431599995,1605,3997.28504525
1460,3701.25852287,0.00213142299994,1616,3975.85963992
1470,3701.25852287,0.00214767399993,1627,3898.2514218
1480,3701.25852287,0.00216520799992,1638,3954.57611582
1490,3701.25852287,0.00218274199993,1649,3898.06853806
1500,3701.25852287,0.00220027599994,1660,3997.28504525
1510,3701.25852287,0.00222807399994,1671,3997.28504525
1520,3701.25852287,0.00224432499995,1682,3997.28504525
1530,3701.25852287,0.00226057499995,1693,3969.68548888
1540,3701.25852287,0.00227682599996,1704,4016.85641984
1550,3701.25852287,0.00229435999995,1715,4045.00894022
1560,3701.25852287,0.00231189399996,1726,3865.26719294
1570,3701.25852287,0.00232899999996,1737,4045.00894022
1580,3701.25852287,0.00234567799997,1748,3903.95986153
1590,3701.25852287,0.00236064599997,1759,4036.30974606
1600,3701.25852287,0.00237561399997,1770,3947.98309183
1610,3701.25852287,0.00239186499998,1781,3963.46647804
1620,3701.25852287,0.00240683299998,1792,3987.49935795
1630,3701.25852287,0.00242265699998,1803,3965.40379424
1640,3701.25852287,0.00243805199999,1814,3966.20597834
1650,3701.25852287,0.00245387499999,1825,3919.23564362
1660,3701.25852287,0.00247012599999,1836,3898.68113842
1670,3701.25852287,0.002487659,1847,3968.0753376
1680,3701.25852287,0.00251417299999,1858,4070.2564095
1690,3701.25852287,0.002530424,1869,3987.49935795
1700,3701.25852287,0.00254581999999,1880,3976.18734495
1710,3701.25852287,0.00256335399999,1891,3983.0014417
1720,3701.25852287,0.00258601999998,1902,3997.28504525
1730,3701.25852287,0.00260697499998,1913,4045.72583731
1740,3701.25852287,0.00262792999997,1924,4020.97598895
1750,3701.25852287,0.00264460799998,1935,3997.28504525
1760,3701.25852287,0.00266898399998,1946,3903.25281763
1770,3701.25852287,0.00268951099999,1957,4140.45673015
1780,3701.25852287,0.00270832699999,1968,3936.57340542
1790,3701.25852287,0.00272628899999,1979,3965.6384948
1800,3701.25852287,0.00274254,1990,3965.40379424
1810,3701.25852287,0.00276178499999,2001,3898.65760191
1820,3701.25852287,0.00277889099999,2012,3997.28504525
1830,3701.25852287,0.00279813499999,2023,3911.86718639
1840,3701.25852287,0.00281609699999,2034,3865.26719294
1850,3701.25852287,0.00283833499999,2045,4051.6671814
1860,3701.25852287,0.002856724,2056,3919.23564362
1870,3701.25852287,0.00287425800001,2067,3959.16394386
1880,3701.25852287,0.00289307500002,2078,3977.67816828
1890,3701.25852287,0.00291189200003,2089,3976.56717254
1900,3701.25852287,0.00292985300003,2100,4024.47611332
1910,3701.25852287,0.00294738700003,2111,3927.55091683
1920,3701.25852287,0.00296577600002,2122,3933.52254324
1930,3701.25852287,0.00298245500002,2133,4016.85641984
1940,3701.25852287,0.00300084400003,2144,3909.27314371
1950,3701.25852287,0.00302008900002,2155,3918.19297821
1960,3701.25852287,0.00303805000001,2166,4003.24940262
1970,3701.25852287,0.00305515600002,2177,3968.71783815
1980,3701.25852287,0.00306755800001,2188,3997.28504525
1990,3701.25852287,0.00308552000001,2199,3968.0753376
2000,3701.25852287,0.00310476400001,2210,3949.85343582
2010,3701.25852287,0.00312016000001,2221,3997.28504525
2020,3701.25852287,0.003138976,2232,3918.85753738
2030,3701.25852287,0.00315864800001,2243,3993.34247746
2040,3701.25852287,0.00317832000002,2254,3966.92922533
2050,3701.25852287,0.00319628100003,2265,3977.85002268
2060,3701.25852287,0.00321595300002,2276,3919.23564362
2070,3701.25852287,0.00323476900002,2287,3997.28504525
2080,3701.25852287,0.00325444100001,2298,3997.28504525
2090,3701.25852287,0.00327283000001,2309,3844.22828715
2100,3701.25852287,0.00328993600002,2320,3997.28504525
2110,3701.25852287,0.00331773300002,2331,4092.73283519
2120,3701.25852287,0.00334168200001,2342,3920.7566662
2130,3701.25852287,0.00336819700001,2353,3997.28504525
2140,3701.25852287,0.00339342900001,2364,3975.85963992
2150,3701.25852287,0.00341566700001,2375,3844.22828715
2160,3701.25852287,0.00343533900002,2386,3937.57893652
2170,3701.25852287,0.00345586600002,2397,3997.28504525
2180,3701.25852287,0.00347724800002,2408,4028.62912112
2190,3701.25852287,0.00349649200002,2419,3856.44542424
2200,3701.25852287,0.00351445300002,2430,3934.58724361
2210,3701.25852287,0.00353754600003,2441,3997.00369368
2220,3701.25852287,0.00355422500003,2452,3997.28504525
2230,3701.25852287,0.00357261400002,2463,3997.28504525
2240,3701.25852287,0.00359442400003,2474,3938.46441434
2250,3701.25852287,0.00361324100002,2485,3933.52254324
2260,3701.25852287,0.00363205800002,2496,4010.88057928
2270,3701.25852287,0.00365173000002,2507,3880.21094281
2280,3701.25852287,0.00367439600002,2518,3990.14324347
2290,3701.25852287,0.00369235700003,2529,3938.17029392
2300,3701.25852287,0.00371630500003,2540,4036.30974606
2310,3701.25852287,0.00373469400002,2551,3965.94096937
2320,3701.25852287,0.00375522100002,2562,3955.48651082
2330,3701.25852287,0.00377403800002,2573,4036.30974606
2340,3701.25852287,0.00379413800002,2584,3940.10339316
2350,3701.25852287,0.00381381000001,2595,3997.28504525
2360,3701.25852287,0.00383433700001,2606,4015.74575796
2370,3701.25852287,0.00385400900001,2617,3997.28504525
2380,3701.25852287,0.00387325400001,2628,3990.14324347
2390,3701.25852287,0.00389463700002,2639,3997.28504525
2400,3701.25852287,0.00391259800001,2650,3904.30620735
2410,3701.25852287,0.00393269700001,2661,3991.32068787
2420,3701.25852287,0.00395279700001,2672,3997.28504525
2430,3701.25852287,0.00396990300001,2683,3947.16062753
2440,3701.25852287,0.00398743700002,2694,3993.34247746
2450,3701.25852287,0.00400497100001,2705,3997.28504525
2460,3701.25852287,0.00402378800001,2716,3844.22828715
2470,3701.25852287,0.00404089400001,2727,3940.10339316
2480,3701.25852287,0.00405842700002,2738,3922.87266485
2490,3701.25852287,0.00407809900001,2749,4026.64210714
2500,3701.25852287,0.00409648800002,2760,3997.28504525
2510,3701.25852287,0.00411445000002,2771,3997.28504525
2520,3701.25852287,0.00413497700002,2782,3933.52254324
2530,3701.25852287,0.00415464900001,2793,3918.85753738
2540,3701.25852287,0.00417261100002,2804,3973.56924053
2550,3701.25852287,0.00419356600001,2815,3997.28504525
2560,3701.25852287,0.00421281000001,2826,3997.28504525
2570,3701.25852287,0.00422906100002,2837,3996.72234212
2580,3701.25852287,0.00424745000002,2848,3927.55091683
2590,3701.25852287,0.00426370100003,2859,4082.70290411
2600,3701.25852287,0.00428422900002,2870,3810.63467781
2610,3701.25852287,0.00430347400003,2881,3909.27314371
2620,3701.25852287,0.00432058000003,2892,3919.23564362
2630,3701.25852287,0.00433768600003,2903,3997.28504525
2640,3701.25852287,0.00435693000003,2914,3958.07129131
2650,3701.25852287,0.00437446300003,2925,3955.48651082
2660,3701.25852287,0.00439028600003,2936,3955.48651082
2670,3701.25852287,0.00441680000003,2947,4033.77072737
2680,3701.25852287,0.00446384200002,2958,3997.28504525
2690,3701.25852287,0.00448821800002,2969,4036.30974606
2700,3701.25852287,0.00451088300002,2980,3997.28504525
2710,3701.25852287,0.00453098300002,2991,3947.98309183
2720,3701.25852287,0.00455236500002,3002,3978.22449455
2730,3701.25852287,0.00456776000001,3013,3987.49935795
2740,3701.25852287,0.00458614900002,3024,3965.40379424
2750,3701.25852287,0.00460453800002,3035,4015.74575796
2760,3701.25852287,0.00462121700002,3046,4021.50544128
2770,3701.25852287,0.00464217200002,3057,3997.28504525
2780,3701.25852287,0.004661416,3068,3997.28504525
2790,3701.25852287,0.004678094,3079,3976.18734495
2800,3701.25852287,0.00469605500001,3090,3997.28504525
2810,3701.25852287,0.00471102300001,3101,3997.28504525
2820,3701.25852287,0.00472983900002,3112,3902.4218264
2830,3701.25852287,0.00474566200002,3123,3997.28504525
2840,3701.25852287,0.00476063000002,3134,3957.73901173
2850,3701.25852287,0.00477816400002,3145,3911.86718639
2860,3701.25852287,0.00479569800002,3156,3947.16062753
2870,3701.25852287,0.00481066600003,3167,3902.4218264
2880,3701.25852287,0.00482819900003,3178,3949.85343582
2890,3701.25852287,0.00484487700002,3189,3958.26034443
2900,3701.25852287,0.00486198300003,3200,3997.28504525
2910,3701.25852287,0.00488293800004,3211,3891.65532949
2920,3701.25852287,0.00490945300004,3222,3997.28504525
2930,3701.25852287,0.00492998100005,3233,3978.82433253
2940,3701.25852287,0.00494922500005,3244,3933.52254324
2950,3701.25852287,0.00496718700005,3255,3983.0014417
2960,3701.25852287,0.00498386600005,3266,4026.84242091
2970,3701.25852287,0.00500482100004,3277,3902.4218264
2980,3701.25852287,0.00502192700004,3288,3922.87266485
2990,3701.25852287,0.00504074400006,3299,3935.12691143
3000,3701.25852287,0.00505699500006,3310,3935.12691143
3010,3701.25852287,0.00507752200005,3321,3979.39197313
3020,3701.25852287,0.00509890400005,3332,4047.18834335
3030,3701.25852287,0.00511729300004,3343,3976.56717254
3040,3701.25852287,0.00513439900004,3354,4092.73283519
3050,3701.25852287,0.00515321600004,3365,3997.28504525
3060,3701.25852287,0.00516903900004,3376,3996.72234212
3070,3701.25852287,0.00518657300005,3387,4036.30974606
3080,3701.25852287,0.00520154100005,3398,3997.28504525
3090,3701.25852287,0.00521822000005,3409,4003.24940262
3100,3701.25852287,0.00523532600005,3420,3997.28504525
3110,3701.25852287,0.00525371500005,3431,3817.86428908
3120,3701.25852287,0.00527509700005,3442,4018.18431246
3130,3701.25852287,0.00529904500006,3453,3898.65760191
3140,3701.25852287,0.00531572400006,3464,3997.28504525
3150,3701.25852287,0.00533283000006,3475,3972.52663938
3160,3701.25852287,0.00534993700006,3486,3979.39197313
3170,3701.25852287,0.00536404900006,3497,3996.72234212
3180,3701.25852287,0.00537816200007,3508,4007.83389539
3190,3701.25852287,0.00540040000007,3519,3942.08593251
3200,3701.25852287,0.00541964400007,3530,3972.52663938
3210,3701.25852287,0.00543846100007,3541,3902.4218264
3220,3701.25852287,0.00545599500006,3552,3985.3563305
3230,3701.25852287,0.00547267400006,3563,3959.6125113
3240,3701.25852287,0.00549106300006,3574,3968.1325114
3250,3701.25852287,0.00550988000006,3585,3989.39990967
3260,3701.25852287,0.00552484800005,3596,3974.04033577
3270,3701.25852287,0.00554067100005,3607,3865.26719294
3280,3701.25852287,0.00555948800005,3618,4036.30974606
3290,3701.25852287,0.00557873300005,3629,3972.33339619
3300,3701.25852287,0.00559797700005,3640,3976.38577803
3310,3701.25852287,0.00561893200005,3651,4003.24940262
3320,3701.25852287,0.00563988700004,3662,3929.64791084
3330,3701.25852287,0.00565998600005,3673,4045.00894022
3340,3701.25852287,0.00567794800006,3684,3997.28504525
3350,3701.25852287,0.00569933100006,3695,3996.44099056
3360,3701.25852287,0.00571857600006,3706,3977.85002268
3370,3701.25852287,0.00573782100005,3717,3907.57466716
3380,3701.25852287,0.00575621000004,3728,3919.89667797
3390,3701.25852287,0.00577759300005,3739,3959.02085572
3400,3701.25852287,0.00579812100004,3750,3955.48651082
3410,3701.25852287,0.00581993100005,3761,4007.07073254
3420,3701.25852287,0.00583960300004,3772,4020.97598895
3430,3701.25852287,0.00585328800004,3783,3997.28504525
3440,3701.25852287,0.00588750000004,3794,3976.18734495
3450,3701.25852287,0.00591230400005,3805,3965.40379424
3460,3701.25852287,0.00593283100004,3816,3960.36361981
3470,3701.25852287,0.00595207600003,3827,4038.07164736
3480,3701.25852287,0.00597089300003,3838,3903.25281763
3490,3701.25852287,0.00598970900002,3849,3924.31368099
3500,3701.25852287,0.00600938100001,3860,3962.0961834
3510,3701.25852287,0.00602948100001,3871,4019.04722426
3520,3701.25852287,0.00605129100002,3882,3997.28504525
3530,3701.25852287,0.00607181900003,3893,4039.99397468
3540,3701.25852287,0.00608978000002,3904,3957.73901173
3550,3701.25852287,0.00610560300002,3915,3898.68113842
3560,3701.25852287,0.00612313600003,3926,3997.28504525
3570,3701.25852287,0.00614067000004,3937,3957.73901173
3580,3701.25852287,0.00616205300004,3948,4046.58699866
3590,3701.25852287,0.00618086900005,3959,3997.28504525
3600,3701.25852287,0.00620011400004,3970,4015.74575796
3610,3701.25852287,0.00621893100003,3981,3904.30620735
3620,3701.25852287,0.00623817600004,3992,4039.77882472
3630,3701.25852287,0.00625955900003,4003,3938.46441434
3640,3701.25852287,0.00627666600002,4014,4018.18431246
3650,3701.25852287,0.00630189800002,4025,3997.28504525
3660,3701.25852287,0.00632028700002,4036,3824.76487658
3670,3701.25852287,0.00634038700002,4047,3976.38577803
3680,3701.25852287,0.00636219700003,4058,3878.64694469
3690,3701.25852287,0.00638315200003,4069,3975.52286623
3700,3701.25852287,0.00640325200003,4080,3957.73901173
3710,3701.25852287,0.00642164100002,4091,3947.16062753
3720,3701.25852287,0.00644174000001,4102,4082.2726042
3730,3701.25852287,0.00646098400001,4113,4015.74575796
3740,3701.25852287,0.00648193900003,4124,3924.31368099
3750,3701.25852287,0.00650118300003,4135,4010.88057928
3760,3701.25852287,0.00652042800003,4146,3926.13763111
3770,3701.25852287,0.00654010000002,4157,3991.32068787
3780,3701.25852287,0.00655977200002,4168,3906.21758551
3790,3701.25852287,0.00657773300003,4179,3986.92610889
3800,3701.25852287,0.00659398400002,4190,4023.08116767
3810,3701.25852287,0.00661194600002,4201,3997.28504525
3820,3701.25852287,0.00663076200003,4212,3955.48651082
3830,3701.25852287,0.00664829600002,4223,4022.2366943
3840,3701.25852287,0.00666668500003,4234,3952.5054637
3850,3701.25852287,0.00668165300003,4245,3997.28504525
3860,3701.25852287,0.00669619300004,4256,3997.28504525
3870,3701.25852287,0.00671586500003,4267,4022.2366943
3880,3701.25852287,0.00673639200004,4278,3997.00369368
3890,3701.25852287,0.00675563700004,4289,4026.84242091
3900,3701.25852287,0.00677402600004,4300,3947.98309183
3910,3701.25852287,0.00679455400004,4311,3817.86428908
3920,3701.25852287,0.00681123300004,4322,3997.28504525
3930,3701.25852287,0.00682962200003,4333,3965.40379424
3940,3701.25852287,0.00684715600003,4344,3985.43957339
3950,3701.25852287,0.00686468900004,4355,4045.72583731
3960,3701.25852287,0.00688436100003,4366,3975.52286623
3970,3701.25852287,0.00690317800003,4377,4023.08116767
3980,3701.25852287,0.00692113900003,4388,3997.28504525
3990,3701.25852287,0.00694123900003,4399,3882.49247667
4000,3701.25852287,0.00695791800003,4410,3997.28504525
4010,3701.25852287,0.00697801700002,4421,3926.13763111
4020,3701.25852287,0.00699512300002,4432,3947.97132358
4030,3701.25852287,0.00701436800003,4443,4028.62912112
4040,3701.25852287,0.00702976300003,4454,3952.4298562
4050,3701.25852287,0.00704900700003,4465,3898.2514218
4060,3701.25852287,0.00706696800003,4476,3882.49247667
4070,3701.25852287,0.00708706800003,4487,3967.35614115
4080,3701.25852287,0.00710417400003,4498,3949.85343582
4090,3701.25852287,0.00712042500004,4509,3997.28504525
4100,3701.25852287,0.00713710300003,4520,3997.28504525
4110,3701.25852287,0.00715805800003,4531,3924.31368099
4120,3701.25852287,0.00717858500003,4542,3972.52663938
4130,3701.25852287,0.00720039500003,4553,4009.1305171
4140,3701.25852287,0.00722006700002,4564,4016.85641984
4150,3701.25852287,0.00724273300003,4575,3997.28504525
4160,3701.25852287,0.00726326100002,4586,4045.00894022
4170,3701.25852287,0.00728635400002,4597,3997.28504525
4180,3701.25852287,0.00730559800002,4608,3997.28504525
4190,3701.25852287,0.00732655300001,4619,3919.89667797
4200,3701.25852287,0.00735520600001,4630,3947.97132358
4210,3701.25852287,0.00737872700002,4641,4029.16629625
4220,3701.25852287,0.00739925400001,4652,3997.28504525
4230,3701.25852287,0.00741807100002,4663,3933.52254324
4240,3701.25852287,0.00745442100002,4674,3997.28504525
4250,3701.25852287,0.00747623100003,4685,3985.45734188
4260,3701.25852287,0.00749804100003,4696,3996.159639
4270,3701.25852287,0.00751386500004,4707,4072.1399924
4280,3701.25852287,0.00753396500004,4718,4082.2726042
4290,3701.25852287,0.00755149800004,4729,3922.87266485
4300,3701.25852287,0.00757459200004,4740,4070.2564095
4310,3701.25852287,0.00759640200003,4751,3966.20597834
4320,3701.25852287,0.00761564600003,4762,3960.36361981
4330,3701.25852287,0.00763403500004,4773,3971.48892282
4340,3701.25852287,0.00765028600004,4784,3898.68113842
4350,3701.25852287,0.00767295200005,4795,3997.28504525
4360,3701.25852287,0.00769476300005,4806,3997.28504525
4370,3701.25852287,0.00771700100005,4817,3968.71783815
4380,3701.25852287,0.00773710100005,4828,3997.28504525
4390,3701.25852287,0.00775677300005,4839,3969.68548888
4400,3701.25852287,0.00777687300005,4850,3972.33339619
4410,3701.25852287,0.00779397900006,4861,3997.28504525
4420,3701.25852287,0.00781578900005,4872,3959.16394386
4430,3701.25852287,0.00783118500004,4883,3997.28504525
4440,3701.25852287,0.00785043000003,4894,3937.42723706
4450,3701.25852287,0.00786753600002,4905,3967.43199088
4460,3701.25852287,0.00788250400002,4916,3997.28504525
4470,3701.25852287,0.00790388700003,4927,4045.72583731
4480,3701.25852287,0.00792313100003,4938,3920.7566662
4490,3701.25852287,0.00793681600003,4949,3979.39197313
4500,3701.25852287,0.00795777100002,4960,3962.0961834
4510,3701.25852287,0.00797616000003,4971,3950.62245339
4520,3701.25852287,0.00799497600003,4982,4003.24940262
4530,3701.25852287,0.00801806900003,4993,3997.28504525
4540,3701.25852287,0.00804287300002,5004,3907.57466716
4550,3701.25852287,0.00806168900002,5015,3980.57690601
4560,3701.25852287,0.00808221600002,5026,3997.28504525
4570,3701.25852287,0.00810402600001,5037,4003.24940262
4580,3701.25852287,0.00812412600001,5048,3948.84425318
4590,3701.25852287,0.00814294300001,5059,3898.06853806
4600,3701.25852287,0.00816518100001,5070,3997.28504525
4610,3701.25852287,0.008186991,5081,3962.07513999
4620,3701.25852287,0.00820880100001,5092,3997.28504525
4630,3701.25852287,0.00824429700002,5103,3963.86876677
4640,3701.25852287,0.00826653500002,5114,3966.92922533
4650,3701.25852287,0.00828834500001,5125,3947.76823352
4660,3701.25852287,0.00830587900002,5136,3959.02085572
4670,3701.25852287,0.00832897200002,5147,3997.28504525
4680,3701.25852287,0.00834821700002,5158,4092.73283519
4690,3701.25852287,0.00836275800002,5169,3965.40379424
4700,3701.25852287,0.00838072000001,5180,4026.64210714
4710,3701.25852287,0.00839996400001,5191,3937.57893652
4720,3701.25852287,0.00841920900001,5202,3997.28504525
4730,3701.25852287,0.008438025,5213,3965.6384948
4740,3701.25852287,0.008462401,5224,3948.84425318
4750,3701.25852287,0.00848506700001,5235,3849.37918501
4760,3701.25852287,0.00850003400001,5246,3997.28504525
4770,3701.25852287,0.00851970600002,5257,3996.72234212
4780,3701.25852287,0.00854151600002,5268,3983.0014417
4790,3701.25852287,0.00855520100004,5279,3898.2514218
4800,3701.25852287,0.00857615600003,5290,3909.27314371
4810,3701.25852287,0.00859967700002,5301,4029.16629625
4820,3701.25852287,0.00862020400002,5312,3965.40379424
4830,3701.25852287,0.00864158700003,5323,4045.00894022
4840,3701.25852287,0.00866083100001,5334,3973.06464922
4850,3701.25852287,0.00868520700001,5345,4045.00894022
4860,3701.25852287,0.00870445100001,5356,3997.28504525
4870,3701.25852287,0.00872754400001,5367,3922.87266485
4880,3701.25852287,0.00874678800001,5378,3966.20597834
4890,3701.25852287,0.008763895,5389,3997.28504525
4900,3701.25852287,0.00878356699999,5400,3967.72766958
4910,3701.25852287,0.008802812,5411,3821.26124218
4920,3701.25852287,0.008819918,5422,3955.48651082
4930,3701.25852287,0.00883616899999,5433,3953.27909448
4940,3701.25852287,0.00885199199999,5444,3981.74664072
4950,3701.25852287,0.00888149999999,5455,4015.74575796
4960,3701.25852287,0.00889646799999,5466,3990.14324347
4970,3701.25852287,0.00891058099998,5477,3947.76823352
4980,3701.25852287,0.00893581199998,5488,3921.04284247
4990,3701.25852287,0.00895676699997,5499,3945.6928004
