it,funval,time,funcount,weight
0,5043.28044523,1.02629999219e-05,10,4947.17287779
10,5191.66217034,2.13819998862e-05,21,4972.90690204
20,5376.47019693,3.16449998081e-05,32,5155.86593026
30,5583.63850004,4.66129997676e-05,43,5493.4559019
40,5670.6589514,6.67129997964e-05,54,5610.77026581
50,5804.14766765,7.82589997925e-05,65,5682.60502038
60,5868.31604602,8.9805999778e-05,76,5900.68559259
70,5971.01108769,0.000101351999774,87,6042.35953223
80,6025.12900503,0.000116319999734,98,6019.88132759
90,6087.16956573,0.000135563999834,109,6145.68468352
100,6318.94458472,0.00014839399978,120,6289.64532056
110,6521.87299454,0.000161223999726,131,6561.52605287
120,6582.20512462,0.000173625999764,142,6594.54231242
130,6643.41781672,0.000186882999742,153,6603.93580528
140,6730.97731648,0.000199712999802,164,6669.50951431
150,6730.97731648,0.000212970999769,175,6738.57860561
160,6929.14295434,0.000227510999821,186,6877.47927694
170,6981.59749937,0.000240339999777,197,6941.55951599
180,7112.38358673,0.000251886999763,208,7101.14927531
190,7123.85813441,0.000266854999836,219,7134.20490378
200,7154.90845827,0.000280967999856,230,7288.14633487
210,7174.64185869,0.000295508999784,241,7411.89565352
220,7403.49950192,0.000307910999709,252,7577.94241678
230,7420.71152966,0.000321595999708,263,7670.49285938
240,7422.22183543,0.00033613599976,274,7727.22850642
250,7422.22183543,0.000348537999798,285,7707.66974143
260,7440.42172224,0.000360939999723,296,7765.39811254
270,7609.42397466,0.00037291399974,307,7987.28463051
280,7609.42397466,0.000383605999787,318,7915.77788132
290,7633.78533258,0.000396434999857,329,7999.12221226
300,7633.78533258,0.000410119999856,340,7926.21666605
310,7633.78533258,0.000423804999855,351,7939.41627161
320,7633.78533258,0.000437061999946,362,7955.35446014
330,7633.78533258,0.000449890999903,373,7940.19504048
340,7633.78533258,0.000466569999958,384,8047.58564005
350,7633.78533258,0.00048239299997,395,7904.08299997
360,7633.78533258,0.000497787999961,406,7999.12221226
370,7633.78533258,0.000522164000017,417,7877.96726829
380,7633.78533258,0.000546539999959,428,7927.3222033
390,7633.78533258,0.00057048799988,439,7997.81081312
400,7633.78533258,0.00059187099987,450,7968.61539015
410,7633.78533258,0.00060812199979,461,7861.14826719
420,7633.78533258,0.00062308899976,472,7991.89253936
430,7633.78533258,0.000641905999714,483,7983.59411284
440,7633.78533258,0.000657728999727,494,7859.43131198
450,7633.78533258,0.000670985999704,505,8006.35188515
460,7633.78533258,0.000684670999703,516,7999.12221226
470,7633.78533258,0.000700493999716,527,7999.12221226
480,7633.78533258,0.000715461999675,538,7981.85493943
490,7633.78533258,0.000729573999593,549,7992.16499178
500,7633.78533258,0.000743685999623,560,7967.44247483
510,7633.78533258,0.000757370999622,571,7999.12221226
520,7633.78533258,0.000772765999614,582,7856.10871388
530,7633.78533258,0.000786023999581,593,7975.18887594
540,7633.78533258,0.000800136999601,604,8022.38880744
550,7633.78533258,0.000814248999632,615,7999.12221226
560,7633.78533258,0.000828360999662,626,7926.92124677
570,7633.78533258,0.000842045999661,637,7984.27768108
580,7633.78533258,0.000863000999743,648,7950.51851479
590,7633.78533258,0.00088010699983,659,7999.12221226
600,7633.78533258,0.000898495999877,670,7974.88800929
610,7633.78533258,0.000914746999911,681,7868.67956302
620,7633.78533258,0.000931852999884,692,7931.70444903
630,7633.78533258,0.000948103999917,703,7999.12221226
640,7633.78533258,0.000965637999911,714,7936.66031138
650,7633.78533258,0.000982316999853,725,7999.12221226
660,7633.78533258,0.000998567999886,736,7999.12221226
670,7633.78533258,0.00101524699994,747,7942.56153172
680,7633.78533258,0.00103235299991,758,7988.00796457
690,7633.78533258,0.00105031399983,769,7999.12221226
700,7633.78533258,0.00107212499972,780,7937.1357855
710,7633.78533258,0.00109393599973,791,7968.17775602
720,7633.78533258,0.00111189699976,802,7999.12221226
730,7633.78533258,0.00113327899976,813,7992.8877551
740,7633.78533258,0.00115679999976,824,7999.12221226
750,7633.78533258,0.00118630799977,835,7942.37980795
760,7633.78533258,0.00121324999975,846,7953.36999592
770,7633.78533258,0.00124233099973,857,7999.12221226
780,7633.78533258,0.00127098399969,868,7991.89253936
790,7633.78533258,0.00130006499978,879,7941.48564451
800,7633.78533258,0.00132914499977,890,7894.35403705
810,7633.78533258,0.00135608699975,901,7968.00998814
820,7633.78533258,0.00138302899973,912,7999.12221226
830,7633.78533258,0.00140954399978,923,7999.12221226
840,7633.78533258,0.00143477499978,934,7946.64778114
850,7633.78533258,0.00145915099984,945,7946.64778114
860,7633.78533258,0.00149208099981,956,7975.64855085
870,7633.78533258,0.00152030599986,967,7902.41825927
880,7633.78533258,0.00154853099991,978,7999.12221226
890,7633.78533258,0.00157718399998,989,8075.96752556
900,7633.78533258,0.001604982,1000,7999.12221226
910,7633.78533258,0.00163320700005,1011,7999.12221226
920,7633.78533258,0.00166014900003,1022,7969.26924194
930,7633.78533258,0.00168794700005,1033,7991.5532256
940,7633.78533258,0.00171916600004,1044,7973.41597994
950,7633.78533258,0.0017456810001,1055,8014.30931266
960,7633.78533258,0.0017786100002,1066,8011.29575974
970,7633.78533258,0.0018059800002,1077,7868.67956302
980,7633.78533258,0.00183292300028,1088,7896.29728297
990,7633.78533258,0.00186157600035,1099,7999.12221226
1000,7633.78533258,0.0018842420003,1110,7909.90822692
1010,7633.78533258,0.00190904500028,1121,7931.70444903
1020,7633.78533258,0.00193171100022,1132,7971.0851321
1030,7633.78533258,0.00195352200012,1143,7807.12629614
1040,7633.78533258,0.00197704300012,1154,7856.10871388
1050,7633.78533258,0.00200484100014,1165,7942.37980795
1060,7633.78533258,0.00203263900005,1176,7951.12323323
1070,7633.78533258,0.00206043600008,1187,7974.58138406
1080,7633.78533258,0.00208780500009,1198,7954.51521959
1090,7633.78533258,0.00211389200012,1209,7854.26846973
1100,7633.78533258,0.00213912400011,1220,7837.58228697
1110,7633.78533258,0.00216478300013,1231,7912.2381183
1120,7633.78533258,0.00219856800015,1242,7899.04827636
1130,7633.78533258,0.00222465500019,1253,7999.12221226
1140,7633.78533258,0.00225074200011,1264,7920.77897126
1150,7633.78533258,0.00227597400021,1275,7867.81895591
1160,7633.78533258,0.00230163300023,1286,7974.89049836
1170,7633.78533258,0.00232643700031,1297,7999.12221226
1180,7633.78533258,0.00235038500023,1308,7894.35403705
1190,7633.78533258,0.0023751880002,1319,7950.51851479
1200,7633.78533258,0.00240084700022,1330,7999.12221226
1210,7633.78533258,0.00242479600024,1341,7953.42748739
1220,7633.78533258,0.00244874500027,1352,7941.19948295
1230,7633.78533258,0.00247226600027,1363,7907.61777958
1240,7633.78533258,0.00249664300031,1374,7894.35403705
1250,7633.78533258,0.0025218750003,1385,7921.819047
1260,7633.78533258,0.00254667800027,1396,7899.72414343
1270,7633.78533258,0.00256934400034,1407,7974.58138406
1280,7633.78533258,0.00259158200026,1418,7967.06758825
1290,7633.78533258,0.00261210900021,1429,7999.12221226
1300,7633.78533258,0.00263306400018,1440,7949.42317784
1310,7633.78533258,0.00265658500018,1451,7984.88616575
1320,7633.78533258,0.00267967800016,1462,7974.89049836
1330,7633.78533258,0.00270106000016,1473,7888.59285649
1340,7633.78533258,0.00272116000019,1484,7910.60069596
1350,7633.78533258,0.00274168800024,1495,7999.12221226
1360,7633.78533258,0.00276307000024,1506,8032.02488298
1370,7633.78533258,0.00278445300023,1517,7974.31993105
1380,7633.78533258,0.00280797400023,1528,7960.38900885
1390,7633.78533258,0.0028267910003,1539,7999.12221226
1400,7633.78533258,0.00284774600027,1550,8042.88996437
1410,7633.78533258,0.00286955700028,1561,7995.18801485
1420,7633.78533258,0.00288922900029,1572,7970.65011924
1430,7633.78533258,0.00291018400037,1583,7984.30919735
1440,7633.78533258,0.0029324220003,1594,7999.12221226
1450,7633.78533258,0.00295294900025,1605,7978.61704171
1460,7633.78533258,0.00297347600019,1616,7999.12221226
1470,7633.78533258,0.00299400300025,1627,7967.06758825
1480,7633.78533258,0.00301538600024,1638,8046.28025597
1490,7633.78533258,0.00303676900023,1649,7999.12221226
1500,7633.78533258,0.00305729700028,1660,7946.64778114
1510,7633.78533258,0.00307739700031,1671,7999.12221226
1520,7633.78533258,0.00309749600035,1682,7961.29394272
1530,7633.78533258,0.00311887800035,1693,8047.58564005
1540,7633.78533258,0.0031492420004,1704,7858.04860351
1550,7633.78533258,0.00318003300038,1715,7898.17542162
1560,7633.78533258,0.00320269900033,1726,7934.65291027
1570,7633.78533258,0.00322493700037,1737,7965.25670058
1580,7633.78533258,0.00324845700038,1748,7911.58670803
1590,7633.78533258,0.00327283300044,1759,7977.15907542
1600,7633.78533258,0.00329464300046,1770,7907.73276253
1610,7633.78533258,0.00331602500046,1781,7976.24610409
1620,7633.78533258,0.00333911800044,1792,8075.96752556
1630,7633.78533258,0.00336050100043,1803,8044.81693712
1640,7633.78533258,0.00338102800049,1814,8063.2648572
1650,7633.78533258,0.00340241000049,1825,7992.004189
1660,7633.78533258,0.0034220820005,1836,8022.59587366
1670,7633.78533258,0.00345159000051,1847,7983.59411284
1680,7633.78533258,0.0034712620004,1858,7999.12221226
1690,7633.78533258,0.00349050600039,1869,7888.46433413
1700,7633.78533258,0.00351146100047,1880,7979.75193443
1710,7633.78533258,0.00353369900051,1891,7920.48516711
1720,7633.78533258,0.00355508100051,1902,7960.50959699
1730,7633.78533258,0.00357560800046,1913,8042.88996437
1740,7633.78533258,0.00359570800049,1924,7999.12221226
1750,7633.78533258,0.00361751800051,1935,7959.1017216
1760,7633.78533258,0.00364274900051,1946,8031.17683627
1770,7633.78533258,0.00366284900053,1957,8017.38253348
1780,7633.78533258,0.00368209400051,1968,7992.8877551
1790,7633.78533258,0.00370262100057,1979,7999.12221226
1800,7633.78533258,0.00372400400056,1990,7999.12221226
1810,7633.78533258,0.00374495900064,2001,8021.0853491
1820,7633.78533258,0.00376634100064,2012,7923.46567317
1830,7633.78533258,0.00378772400063,2023,7897.99556742
1840,7633.78533258,0.00380825100069,2034,7999.12221226
1850,7633.78533258,0.00383048900073,2045,7999.12221226
1860,7633.78533258,0.00385315400069,2056,7980.20807749
1870,7633.78533258,0.00387581900065,2067,7996.1603346
1880,7633.78533258,0.00389591900068,2078,7863.03778737
1890,7633.78533258,0.00391687400065,2089,7999.12221226
1900,7633.78533258,0.00394039500054,2100,7999.12221226
1910,7633.78533258,0.00396135000051,2111,7979.75193443
1920,7633.78533258,0.00398316100052,2122,7942.37980795
1930,7633.78533258,0.00400582700047,2133,7872.0995679
1940,7633.78533258,0.00402763700049,2144,7999.12221226
1950,7633.78533258,0.00404816400055,2155,7934.65291027
1960,7633.78533258,0.00406954600055,2166,7943.85753437
1970,7633.78533258,0.00409306700055,2177,7875.3443873
1980,7633.78533258,0.00411573200063,2188,8044.81693712
1990,7633.78533258,0.00413839700059,2199,7991.52866206
2000,7633.78533258,0.00415978000058,2210,8011.29575974
2010,7633.78533258,0.00418116300057,2221,7962.93081378
2020,7633.78533258,0.00420425600055,2232,7963.85381007
2030,7633.78533258,0.00422350100052,2243,7999.12221226
2040,7633.78533258,0.0042427460005,2254,7883.16746437
2050,7633.78533258,0.00426284600053,2265,7924.57366063
2060,7633.78533258,0.00429192600052,2276,7931.07999982
2070,7633.78533258,0.00431373600043,2287,7904.08299997
2080,7633.78533258,0.00433511900042,2298,7970.1608476
2090,7633.78533258,0.00435521800046,2309,8022.30550301
2100,7633.78533258,0.00437531800037,2320,7851.57837475
2110,7633.78533258,0.00439584500043,2331,7965.52147326
2120,7633.78533258,0.00441979400034,2342,7999.12221226
2130,7633.78533258,0.00444074900042,2353,7967.06758825
2140,7633.78533258,0.00447196700043,2364,7841.84812195
2150,7633.78533258,0.00449335000042,2375,7991.96321794
2160,7633.78533258,0.00451473300052,2386,7999.12221226
2170,7633.78533258,0.00453739800059,2397,7957.18128246
2180,7633.78533258,0.00455792500054,2408,7994.1740352
2190,7633.78533258,0.00457802500046,2419,7999.12221226
2200,7633.78533258,0.00459940800044,2430,7965.76423362
2210,7633.78533258,0.00461993500039,2441,7924.57366063
2220,7633.78533258,0.00464345600039,2452,7873.30546833
2230,7633.78533258,0.00467082600039,2463,7957.79792775
2240,7633.78533258,0.00469648500041,2474,7978.61704171
2250,7633.78533258,0.00471957800039,2485,7942.37980795
2260,7633.78533258,0.00474309900039,2496,7934.97956731
2270,7633.78533258,0.00476918500033,2507,7931.70444903
2280,7633.78533258,0.0047939880003,2518,7999.12221226
2290,7633.78533258,0.00481408800033,2529,7875.3443873
2300,7633.78533258,0.00483461500039,2540,7999.12221226
2310,7633.78533258,0.00485770800037,2551,7926.73941531
2320,7633.78533258,0.00488037300033,2562,8030.23443638
2330,7633.78533258,0.00490047300036,2573,7985.20777131
2340,7633.78533258,0.00492100000042,2584,7959.95059176
2350,7633.78533258,0.00494195500039,2595,7993.99591962
2360,7633.78533258,0.00496376500041,2606,7963.36883766
2370,7633.78533258,0.00498343700042,2617,7899.72414343
2380,7633.78533258,0.00500396500036,2628,7864.28668581
2390,7633.78533258,0.00502492000032,2639,7967.44247483
2400,7633.78533258,0.00504673000034,2650,7915.21843
2410,7633.78533258,0.00506640200035,2661,7877.96726829
2420,7633.78533258,0.00508692900041,2672,7999.12221226
2430,7633.78533258,0.0051083120004,2683,7985.10367218
2440,7633.78533258,0.0051296940004,2694,7960.6995556
2450,7633.78533258,0.00515236000035,2705,7978.25055083
2460,7633.78533258,0.00517716400032,2716,7992.004189
2470,7633.78533258,0.00519811900028,2727,7864.52649141
2480,7633.78533258,0.00521779100029,2738,7968.00998814
2490,7633.78533258,0.00523831900034,2749,7959.95059176
2500,7633.78533258,0.00525713600041,2760,7965.10110604
2510,7633.78533258,0.00527509700044,2771,7938.10856804
2520,7633.78533258,0.00529434100042,2782,7950.05265274
2530,7633.78533258,0.00531529600039,2793,7999.12221226
2540,7633.78533258,0.00533667900038,2804,7983.98423895
2550,7633.78533258,0.00535763400035,2815,8030.23443638
2560,7633.78533258,0.00538072700033,2826,8063.2648572
2570,7633.78533258,0.00541237300035,2837,7960.38900885
2580,7633.78533258,0.0054329010004,2848,7999.12221226
2590,7633.78533258,0.00545214500039,2859,7999.12221226
2600,7633.78533258,0.00547395500041,2870,7953.36999592
2610,7633.78533258,0.00549619300045,2881,7999.12221226
2620,7633.78533258,0.00551714800042,2892,7909.90822692
2630,7633.78533258,0.00553895800044,2903,7996.1603346
2640,7633.78533258,0.00556076800035,2914,7986.72107165
2650,7633.78533258,0.0055834340003,2925,7894.17335002
2660,7633.78533258,0.00560353400022,2936,7999.12221226
2670,7633.78533258,0.00562491600022,2947,7965.41333065
2680,7633.78533258,0.00564544300016,2958,7959.95059176
2690,7633.78533258,0.00566597000011,2969,8023.66304045
2700,7633.78533258,0.0056873530001,2980,7999.12221226
2710,7633.78533258,0.00570745300013,2991,7995.50737581
2720,7633.78533258,0.00572798000007,3002,7999.12221226
2730,7633.78533258,0.00574893500004,3013,7967.05088978
2740,7633.78533258,0.00577074500006,3024,8004.07038932
2750,7633.78533258,0.00579341000014,3035,7815.15695216
2760,7633.78533258,0.00581436500011,3046,7972.53120291
2770,7633.78533258,0.00583617600012,3057,7918.35224961
2780,7633.78533258,0.00585755900011,3068,7999.12221226
2790,7633.78533258,0.00587723100011,3079,7976.4152523
2800,7633.78533258,0.00589690300012,3090,8042.67028216
2810,7633.78533258,0.00591956900007,3101,8088.36520544
2820,7633.78533258,0.00594266200005,3112,7999.12221226
2830,7633.78533258,0.00596361700013,3123,8063.23146028
2840,7633.78533258,0.00598414400008,3134,8037.54486891
2850,7633.78533258,0.00601236900002,3145,7989.22585814
2860,7633.78533258,0.00604273300007,3156,7951.96416855
2870,7633.78533258,0.00607523500014,3167,8071.50500921
2880,7633.78533258,0.00609875600014,3178,7894.17335002
2890,7633.78533258,0.00612954700011,3189,8022.30550301
2900,7633.78533258,0.00615520700012,3200,8037.54486891
2910,7633.78533258,0.00617744500016,3211,7926.92124677
2920,7633.78533258,0.00620096500006,3222,7815.15695216
2930,7633.78533258,0.00622320299999,3233,8023.35641523
2940,7633.78533258,0.00624501300001,3244,7999.12221226
2950,7633.78533258,0.0062698160001,3255,7999.12221226
2960,7633.78533258,0.00629205400014,3266,7999.12221226
2970,7633.78533258,0.00631343700013,3277,7921.819047
2980,7633.78533258,0.00633695800013,3288,7901.85623767
2990,7633.78533258,0.00636047900014,3299,8023.66304045
3000,7633.78533258,0.00638870400019,3310,7899.04827636
3010,7633.78533258,0.00641479100011,3321,7941.48564451
3020,7633.78533258,0.00644216000012,3332,7929.27676212
3030,7633.78533258,0.00646952900001,3343,7987.69723521
3040,7633.78533258,0.00649647099999,3354,7927.3222033
3050,7633.78533258,0.00652170299998,3365,7937.1357855
3060,7633.78533258,0.00655078299997,3376,7999.12221226
3070,7633.78533258,0.00657387599995,3387,8023.7992153
3080,7633.78533258,0.00659568599997,3398,7881.09352386
3090,7633.78533258,0.00661792400001,3409,7951.12323323
3100,7633.78533258,0.00663887899998,3420,8004.05988389
3110,7633.78533258,0.00666111700002,3431,7999.12221226
3120,7633.78533258,0.00668463800002,3442,7910.60069596
3130,7633.78533258,0.00670559299999,3453,8023.35641523
3140,7633.78533258,0.006725265,3464,7967.05088978
3150,7633.78533258,0.0067466480001,3475,7983.59411284
3160,7633.78533258,0.00676717600015,3486,7920.41056558
3170,7633.78533258,0.00678684800016,3497,7950.05265274
3180,7633.78533258,0.00680737500022,3508,8088.33619759
3190,7633.78533258,0.00683132300026,3519,7946.64778114
3200,7633.78533258,0.00685270600025,3530,7999.12221226
3210,7633.78533258,0.00687366100033,3541,7965.10110604
3220,7633.78533258,0.00689504300033,3552,7997.36868789
3230,7633.78533258,0.00691300400024,3563,7957.18128246
3240,7633.78533258,0.00693224800023,3574,7950.83763142
3250,7633.78533258,0.00694935400031,3585,7897.99556742
3260,7633.78533258,0.00696731600021,3596,7965.76423362
3270,7633.78533258,0.00698698800022,3607,7940.10786806
3280,7633.78533258,0.00700666000023,3618,7936.89776402
3290,7633.78533258,0.00703018100023,3629,8004.07038932
3300,7633.78533258,0.0070511360002,3640,8011.02122276
3310,7633.78533258,0.00707166300026,3651,7998.24545007
3320,7633.78533258,0.00709304600025,3662,7924.57366063
3330,7633.78533258,0.00711357300031,3673,7999.12221226
3340,7633.78533258,0.0071426540004,3684,7999.12221226
3350,7633.78533258,0.00716232600041,3695,7999.12221226
3360,7633.78533258,0.00718841300034,3706,8021.90286286
3370,7633.78533258,0.00721407200035,3717,7999.12221226
3380,7633.78533258,0.00723588300036,3728,7972.53120291
3390,7633.78533258,0.00725854900031,3739,7972.53120291
3400,7633.78533258,0.00728891200026,3750,7999.12221226
3410,7633.78533258,0.0073149990003,3761,8014.30931266
3420,7633.78533258,0.00734835600031,3772,8021.0853491
3430,7633.78533258,0.00737059400024,3783,7974.31993105
3440,7633.78533258,0.00739154900032,3794,7929.27676212
3450,7633.78533258,0.00741336000033,3805,7999.12221226
3460,7633.78533258,0.0074360250004,3816,7931.70444903
3470,7633.78533258,0.00745783500031,3827,7910.60069596
3480,7633.78533258,0.00748007300035,3838,7997.36868789
3490,7633.78533258,0.0075027390003,3849,7972.18412859
3500,7633.78533258,0.00752540400026,3860,7977.76814249
3510,7633.78533258,0.00754422100022,3871,7931.62498024
3520,7633.78533258,0.00756560400021,3882,7891.86208847
3530,7633.78533258,0.00758613200026,3893,8005.35666941
3540,7633.78533258,0.00760666000019,3904,8047.4067931
3550,7633.78533258,0.0076263320002,3915,7999.12221226
3560,7633.78533258,0.0076477140002,3926,7999.12221226
3570,7633.78533258,0.00766866900028,3937,7958.331532
3580,7633.78533258,0.00768962400025,3948,7995.17304205
3590,7633.78533258,0.00771271800022,3959,7841.84812195
3600,7633.78533258,0.00773324500017,3970,7952.58902189
3610,7633.78533258,0.00775548300021,3981,7881.26786871
3620,7633.78533258,0.00777814800017,3992,7915.21843
3630,7633.78533258,0.00780038600021,4003,8006.35188515
3640,7633.78533258,0.00782347900019,4014,7920.48516711
3650,7633.78533258,0.00784571700012,4025,7986.72107165
3660,7633.78533258,0.00786923800001,4036,8035.31361073
3670,7633.78533258,0.00789233199998,4047,8047.4067931
3680,7633.78533258,0.00791499700006,4058,7993.99591962
3690,7633.78533258,0.00793680700008,4069,7999.12221226
3700,7633.78533258,0.00796118300013,4080,7881.09352386
3710,7633.78533258,0.00798384900008,4091,7979.11196693
3720,7633.78533258,0.00800566000009,4102,8028.07377947
3730,7633.78533258,0.00802661500018,4113,7859.43131198
3740,7633.78533258,0.00805312900013,4124,7974.88800929
3750,7633.78533258,0.00807579400009,4135,7925.3502935
3760,7633.78533258,0.00809717700008,4146,7975.18887594
3770,7633.78533258,0.00811984300003,4157,8004.07038932
3780,7633.78533258,0.00813994300006,4168,7975.64855085
3790,7633.78533258,0.008160471,4179,7922.00351529
3800,7633.78533258,0.00818057100003,4190,7972.18412859
3810,7633.78533258,0.00820109800009,4201,7851.91353369
3820,7633.78533258,0.00822376400004,4212,7995.61516352
3830,7633.78533258,0.0082442910001,4223,7902.55305057
3840,7633.78533258,0.00826524700005,4234,7999.12221226
3850,7633.78533258,0.00828406300013,4245,8028.07377947
3860,7633.78533258,0.00830373600013,4256,7977.15907542
3870,7633.78533258,0.00832383500017,4267,7982.18945642
3880,7633.78533258,0.00834393400021,4278,7999.12221226
3890,7633.78533258,0.00836275100028,4289,7996.49941399
3900,7633.78533258,0.00839354200025,4300,7959.23569823
3910,7633.78533258,0.00841321400026,4311,7999.12221226
3920,7633.78533258,0.00843716300028,4322,7883.84907677
3930,7633.78533258,0.00845982800035,4333,7999.12221226
3940,7633.78533258,0.00848078300032,4344,7983.59411284
3950,7633.78533258,0.00850173800029,4355,7883.84907677
3960,7633.78533258,0.00852183700033,4366,7999.12221226
3970,7633.78533258,0.00854364800034,4377,7941.19948295
3980,7633.78533258,0.00856503100033,4388,7986.65329795
3990,7633.78533258,0.0085859860003,4399,7931.07999982
4000,7633.78533258,0.00861036200024,4410,7898.17542162
4010,7633.78533258,0.00863260000028,4421,8071.50500921
4020,7633.78533258,0.0086544100003,4432,8064.44431711
4030,7633.78533258,0.00867451000033,4443,7999.12221226
4040,7633.78533258,0.00869418200023,4454,7974.27269505
4050,7633.78533258,0.00871642000016,4465,7903.38886699
4060,7633.78533258,0.00873609200016,4476,7872.40326255
4070,7633.78533258,0.00875533600015,4487,7886.00085118
4080,7633.78533258,0.00877757400008,4498,7912.1604461
4090,7633.78533258,0.00879895700007,4509,7965.41333065
4100,7633.78533258,0.00882205100015,4520,8021.97216636
4110,7633.78533258,0.00884386100006,4531,7886.00085118
4120,7633.78533258,0.00886524400005,4542,7999.12221226
4130,7633.78533258,0.00888577199999,4553,7999.12221226
4140,7633.78533258,0.00890672699995,4564,7999.12221226
4150,7633.78533258,0.00892682699998,4575,7999.12221226
4160,7633.78533258,0.00894820999997,4586,7955.64132918
4170,7633.78533258,0.0089704479999,4597,7949.51764985
4180,7633.78533258,0.00899268599983,4608,8028.86987665
4190,7633.78533258,0.00901406899982,4619,7999.12221226
4200,7633.78533258,0.00903416899985,4630,8046.28025597
4210,7633.78533258,0.00905597899987,4641,7986.65329795
4220,7633.78533258,0.00907736099987,4652,7926.73941531
4230,7633.78533258,0.00909788799981,4663,7988.00796457
4240,7633.78533258,0.00912140899982,4674,7951.12323323
4250,7633.78533258,0.00914279199981,4685,7968.84626564
4260,7633.78533258,0.00916930599976,4696,7991.89253936
4270,7633.78533258,0.00919624799985,4707,7954.51521959
4280,7633.78533258,0.0092206249999,4718,7956.96223989
4290,7633.78533258,0.00924329099996,4729,8007.34787994
4300,7633.78533258,0.00926510099998,4740,7999.12221226
4310,7633.78533258,0.00928776699993,4751,7999.12221226
4320,7633.78533258,0.00931000499997,4762,7988.86962698
4330,7633.78533258,0.00933266999994,4773,7999.12221226
4340,7633.78533258,0.0093574739999,4784,7999.12221226
4350,7633.78533258,0.0093788559999,4795,7965.52147326
4360,7633.78533258,0.00939938399983,4806,7873.30546833
4370,7633.78533258,0.00942162199976,4817,7952.58902189
4380,7633.78533258,0.00944214899971,4828,7958.331532
4390,7633.78533258,0.00946481399978,4839,7942.37980795
4400,7633.78533258,0.00948619699977,4850,7941.19948295
4410,7633.78533258,0.00950757999976,4861,7986.85179816
4420,7633.78533258,0.00953024499972,4872,7976.89371688
4430,7633.78533258,0.00955162799971,4883,7999.12221226
4440,7633.78533258,0.00957172799974,4894,8037.73482753
4450,7633.78533258,0.0095922549998,4905,7991.89253936
4460,7633.78533258,0.00961320999977,4916,8047.58564005
4470,7633.78533258,0.00963288199978,4927,8019.51755238
4480,7633.78533258,0.00965469299979,4938,7910.7314546
4490,7633.78533258,0.00967479299982,4949,7999.12221226
4500,7633.78533258,0.00969574799979,4960,8012.59125409
4510,7633.78533258,0.00971712999979,4971,8006.28120658
4520,7633.78533258,0.00973979599974,4982,7976.24610409
4530,7633.78533258,0.0097607509997,4993,7959.1017216
4540,7633.78533258,0.00978298899963,5004,7999.12221226
4550,7633.78533258,0.00980094999966,5015,7999.12221226
4560,7633.78533258,0.00981848299966,5026,7991.5532256
4570,7633.78533258,0.00983644499968,5037,7968.19183196
4580,7633.78533258,0.00985526199975,5048,8035.222695
4590,7633.78533258,0.00987450699972,5059,8011.59112657
4600,7633.78533258,0.00989417899973,5070,7999.12221226
4610,7633.78533258,0.00991342299972,5081,7901.91481732
4620,7633.78533258,0.00993437799968,5092,7931.70444903
4630,7633.78533258,0.00995405099968,5103,7909.90822692
4640,7633.78533258,0.00997329599966,5114,7954.51521959
4650,7633.78533258,0.00999425099963,5125,7999.12221226
4660,7633.78533258,0.0100139229996,5136,7950.48922497
4670,7633.78533258,0.0100340229997,5147,7915.21843
4680,7633.78533258,0.0100541229996,5158,7898.17542162
4690,7633.78533258,0.0100750779995,5169,7947.30438859
4700,7633.78533258,0.0100968879996,5180,7997.14762715
4710,7633.78533258,0.0101165599996,5191,7930.05312095
4720,7633.78533258,0.0101349489995,5202,8004.07038932
4730,7633.78533258,0.0101541929995,5213,7970.30392839
4740,7633.78533258,0.0101734369995,5224,7907.13958221
4750,7633.78533258,0.0101952469995,5235,7923.46567317
4760,7633.78533258,0.0102166299995,5246,7979.75193443
4770,7633.78533258,0.0102350199994,5257,7999.12221226
4780,7633.78533258,0.0102572579993,5268,7958.71508676
4790,7633.78533258,0.0102760749994,5279,7999.12221226
4800,7633.78533258,0.0102944639995,5290,8023.35641523
4810,7633.78533258,0.0103162749995,5301,7959.23569823
4820,7633.78533258,0.0103363749995,5312,8022.92023327
4830,7633.78533258,0.0103573299995,5323,8016.0549681
4840,7633.78533258,0.0103774299995,5334,7947.70974762
4850,7633.78533258,0.0103971019995,5345,7864.28668581
4860,7633.78533258,0.0104180569996,5356,7999.12221226
4870,7633.78533258,0.0104373009996,5367,8048.19177178
4880,7633.78533258,0.0104582559995,5378,7942.56153172
4890,7633.78533258,0.0104774999995,5389,7854.26846973
4900,7633.78533258,0.0104980269996,5400,7965.41333065
4910,7633.78533258,0.0105206929995,5411,7999.12221226
4920,7633.78533258,0.0105403649995,5422,7970.84187199
4930,7633.78533258,0.0105600369995,5433,7894.17335002
4940,7633.78533258,0.0105801359995,5444,8043.04848593
4950,7633.78533258,0.0106092169995,5455,7904.08299997
4960,7633.78533258,0.0106297439995,5466,7932.40625499
4970,7633.78533258,0.0106494159995,5477,7970.17064504
4980,7633.78533258,0.0106712259995,5488,8004.07038932
4990,7633.78533258,0.0106934639996,5499,7999.12221226
