it,funval,time,funcount,weight
0,25108.7046827,3.4212999708e-05,10,25824.1417006
10,24891.3862772,8.59589999891e-05,21,25613.5088242
20,25147.4751487,0.000134711000101,32,25972.4749673
30,25194.2950502,0.000173628000084,43,26086.2860586
40,25250.2144567,0.000212117000046,54,26117.7974453
50,25544.0571632,0.000247184000727,65,26169.8305666
60,25703.279989,0.000286956000309,76,26483.0329427
70,25747.9706591,0.000338701999681,87,26569.0974673
80,25828.6872024,0.000376334999601,98,26695.1534477
90,26186.0569204,0.000428080998972,109,27127.9446204
100,26335.4094621,0.000478543999634,120,27278.3059757
110,26505.2239587,0.000526013999661,131,27496.3078994
120,26547.4511323,0.000571773000047,142,27468.5079123
130,26738.2685497,0.000622235999799,153,27715.4057648
140,26741.8865159,0.000667139000143,164,27728.0471859
150,27071.6756884,0.000716747000297,175,28204.3774678
160,27216.9785224,0.00076592700043,186,28320.2146409
170,27785.3511555,0.000815963000605,197,28787.2134853
180,27936.8165912,0.000864715000716,208,28714.2547697
190,28043.0343738,0.000914750000447,219,29019.2616813
200,28188.3642522,0.000960509000834,230,29215.5300134
210,28284.8153379,0.00100755100084,241,29262.770332
220,28362.7568764,0.00105544800044,252,29505.2244136
230,28516.3217165,0.00111275400013,263,29556.8682785
240,28646.4866428,0.00116407200039,274,29728.1622544
250,28815.0120347,0.00121068700082,285,30173.7053436
260,28902.2056847,0.0012624330011,296,30203.7849172
270,28999.1860028,0.00131503400098,307,30533.2944067
280,29069.9330258,0.00136763500086,318,30670.8639652
290,29226.0268898,0.00140783400093,329,30780.392485
300,29408.5364194,0.0014578700011,340,31025.5070358
310,29595.1312688,0.00150362900149,351,31160.2103338
320,29834.6633405,0.00155323700164,362,31265.6291545
330,29903.5966644,0.00160198900176,373,31324.764319
340,29927.7461422,0.00164646500161,384,31465.1893505
350,30267.7149547,0.00169179600107,395,31558.453838
360,30383.6078124,0.00173456100129,406,31678.6466176
370,30518.8206793,0.00178032000167,417,31771.2573259
380,30613.87429,0.00182308500189,428,31904.0439562
390,30736.0550781,0.00186242900236,439,31908.8692406
400,30840.1100778,0.00190305600245,450,32147.2323644
410,30926.2616138,0.00195437400271,461,32328.364515
420,30958.1491819,0.00201980500242,472,32442.7671131
430,31019.7691118,0.00207197800228,483,32574.7964302
440,31244.7912457,0.00211987500279,494,32611.1284881
450,31324.2273497,0.00216563400227,505,32806.6440155
460,31383.3067576,0.00221438600238,516,32903.6282746
470,31470.537282,0.00226527600171,527,33084.5448677
480,31623.4680315,0.00232001600216,538,33263.3014255
490,31818.5210885,0.00236791300267,549,33405.6637875
500,31856.4282499,0.002411106002,560,33511.8805569
510,31914.1432589,0.00246242400226,571,33566.8051996
520,32013.7749581,0.00250604400208,582,33630.3878264
530,32169.8508353,0.00255308500164,593,33882.1423461
540,32259.3909484,0.00259114700202,604,33983.0465623
550,32381.8790598,0.0026420380027,615,33960.6438763
560,32487.6130559,0.00269250100246,626,34201.2302096
570,32546.5765251,0.00272928000231,637,34291.0394707
580,32588.6639138,0.00277418300175,648,34279.2450143
590,32763.994396,0.00282250800137,659,34642.0811269
600,32833.5751506,0.0028725430011,670,34754.9836343
610,33119.1295981,0.00292514500143,681,34708.6954046
620,33360.1902605,0.00297560900162,692,35126.7732061
630,33474.8491348,0.00302265100163,703,35238.3413633
640,33620.8848613,0.00306926500161,714,35390.422434
650,33620.8848613,0.00312058400141,725,35345.3945969
660,33735.6973671,0.00317104700207,736,35385.276874
670,33879.7912952,0.00321808900208,747,35747.7717909
680,33968.6532053,0.00326983500236,758,35763.7191588
690,33971.8818318,0.00332243600224,769,35735.8715075
700,34004.300828,0.00338230700254,780,35839.6575316
710,34134.5599438,0.00342806600202,791,36070.577579
720,34211.7797648,0.00346997600263,802,36180.030926
730,34315.176243,0.00352386000304,813,36122.1748917
740,34358.7141443,0.00358501400297,824,36372.1888489
750,34632.9437196,0.0036350490027,835,36659.0383387
760,34710.2100093,0.00368936100222,846,36547.9509252
770,34898.8830033,0.0037351200026,857,36796.5522791
780,35310.5133549,0.00377831300193,868,37195.667654
790,35396.1212949,0.00383604600211,879,37269.7678939
800,35549.999735,0.00389249600266,890,37481.8268835
810,35659.0834269,0.00394381400292,901,37733.4866262
820,35700.6322008,0.00399727000331,912,37781.3676969
830,35783.8145823,0.00404003500353,923,37846.2536098
840,36052.4828395,0.00408750500355,934,38079.2273548
850,36086.6655709,0.00414438300322,945,38068.9358863
860,36120.9602517,0.00420339900393,956,38034.9138376
870,36232.4487497,0.00425856600395,967,38129.7325726
880,36232.4487497,0.00430560800396,978,38039.2945355
890,36396.2710814,0.00436505200378,989,38222.301724
900,36543.9778694,0.00442022000334,1000,38462.4041981
910,36565.5216566,0.00449676900371,1011,38457.7711169
920,36673.257927,0.00455065300321,1022,38394.3623993
930,36771.4986251,0.00460795800336,1033,38563.4073527
940,36892.0834642,0.00467509900318,1044,38692.1633047
950,36953.6766574,0.00471872000344,1055,38754.0562183
960,37011.9388062,0.00476148500275,1066,38758.0860649
970,37080.3042691,0.00485941700299,1077,38776.3001576
980,37246.3044669,0.00491586700264,1088,38869.4418409
990,37266.0237018,0.00497274500231,1099,38916.3089587
1000,37348.0000497,0.00502919500286,1110,39078.7703665
1010,37445.8170237,0.0050839350024,1121,39167.0479903
1020,37530.4916592,0.00513910200243,1132,39259.039067
1030,37591.9104678,0.00519298700237,1143,39238.8174554
1040,37659.4607727,0.00525114800257,1154,39338.6597971
1050,37659.4607727,0.00531358500302,1165,39347.3935049
1060,37690.5830949,0.00536875200305,1176,39483.3863714
1070,37724.5369667,0.00542477500312,1187,39534.6521085
1080,37765.1330264,0.00550517400279,1198,39606.3799656
1090,37810.9758676,0.00555050600269,1209,39682.3311544
1100,37884.0416136,0.00559498200346,1220,39738.4164098
1110,38159.5582293,0.00565870200353,1231,39804.2487587
1120,38288.0872917,0.00572071200349,1242,39827.276447
1130,38441.3976688,0.00577502400392,1253,39831.4065373
1140,38480.0513462,0.00583233000452,1264,39918.9567656
1150,38480.0513462,0.0058823660047,1275,39978.7646364
1160,38480.0513462,0.00594052600445,1286,39971.3498567
1170,38480.0513462,0.00599911500376,1297,39980.9469042
1180,38480.0513462,0.00605770300353,1308,39998.122862
1190,38480.0513462,0.00611885700346,1319,40004.8737787
1200,38480.0513462,0.00617316900389,1330,39998.122862
1210,38480.0513462,0.00622063800347,1341,39998.122862
1220,38539.0963618,0.0062698180036,1352,39927.4758612
1230,38580.2736028,0.00632455700361,1363,39999.8055978
1240,38580.2736028,0.0063887050037,1374,39852.3575344
1250,38580.2736028,0.00644772100441,1385,39999.8055978
1260,38580.2736028,0.00650631000462,1396,39885.1912661
1270,38580.2736028,0.00657430700448,1407,39885.7054343
1280,38580.2736028,0.00663118500506,1418,40013.1088287
1290,38580.2736028,0.00668849000522,1429,39936.2507349
1300,38580.2736028,0.00674665000588,1440,39967.6719702
1310,38580.2736028,0.00680438300606,1451,39966.8147911
1320,38580.2736028,0.00688221500604,1462,39999.8055978
1330,38580.2736028,0.00692925700605,1473,39999.8055978
1340,38580.2736028,0.00697587100603,1484,39984.4944577
1350,38580.2736028,0.00703274900661,1495,39968.8539921
1360,38580.2736028,0.00709048200679,1506,39992.3684531
1370,38580.2736028,0.00714907100701,1517,39909.3675607
1380,38580.2736028,0.00720594900667,1528,39960.3217249
1390,38580.2736028,0.0072713800073,1539,39980.5770083
1400,38580.2736028,0.00731799400728,1550,39982.5687955
1410,38580.2736028,0.00737957600722,1561,39989.8274029
1420,38580.2736028,0.00742875600736,1572,39959.1511272
1430,38580.2736028,0.00748563400794,1583,39957.5704054
1440,38580.2736028,0.00754165700801,1594,39970.5104456
1450,38580.2736028,0.00760281100793,1605,39999.8055978
1460,38580.2736028,0.00764942500791,1616,39999.8055978
1470,38580.2736028,0.00769988800766,1627,39999.8055978
1480,38580.2736028,0.00774607500807,1638,39999.8055978
1490,38580.2736028,0.00778926800831,1649,39981.5395657
1500,38580.2736028,0.00783331600815,1660,39995.6507251
1510,38580.2736028,0.0078769370084,1671,39980.3725541
1520,38580.2736028,0.00792226800877,1682,40059.1950233
1530,38580.2736028,0.00797315900945,1693,39964.9400451
1540,38580.2736028,0.00801977300944,1704,40130.1127132
1550,38580.2736028,0.00806382101018,1715,39989.0164543
1560,38580.2736028,0.00811000701015,1726,39994.0583511
1570,38580.2736028,0.00816303601005,1737,39980.2559225
1580,38580.2736028,0.00822247901033,1748,39965.6253903
1590,38597.1692116,0.00827850101086,1759,40010.806507
1600,38597.1692116,0.00836745301058,1770,39964.3948757
1610,38597.1692116,0.00842005401046,1781,39999.8237893
1620,38597.1692116,0.00847864201023,1792,39952.277418
1630,38597.1692116,0.00853637501041,1803,39959.8845202
1640,38597.1692116,0.00858298901039,1814,39951.8232903
1650,38597.1692116,0.00864328801072,1825,39983.8266191
1660,38597.1692116,0.00870315901102,1836,39960.4414523
1670,38597.1692116,0.00876388601137,1847,39956.198432
1680,38597.1692116,0.00882119201106,1858,40053.2596186
1690,38597.1692116,0.00886908901157,1869,39999.8237893
1700,38597.1692116,0.00896873201145,1880,39949.8821002
1710,38597.1692116,0.00902817601127,1891,39940.8843846
1720,38597.1692116,0.00908676401104,1902,40069.4979485
1730,38597.1692116,0.00914535301126,1913,39982.391013
1740,38597.1692116,0.00920351401055,1924,39999.8237893
1750,38597.1692116,0.00927749801122,1935,40039.4457373
1760,38597.1692116,0.00934121801038,1946,39871.4056921
1770,38597.1692116,0.00939895201009,1957,39967.6901616
1780,38597.1692116,0.00944385600997,1968,39980.646451
1790,38597.1692116,0.00949303600919,1979,40132.7512444
1800,38597.1692116,0.00955461800913,1990,40184.8748687
1810,38597.1692116,0.00962090400935,2001,39931.135416
1820,38597.1692116,0.00968676301,2012,40043.9648002
1830,38597.1692116,0.00973679901017,2023,39999.8237893
1840,38597.1692116,0.00978426800975,2034,39983.7657778
1850,38597.1692116,0.00984285600953,2045,39899.014911
1860,38597.1692116,0.00989246400968,2056,40019.4702576
1870,38597.1692116,0.00995404600963,2067,40036.2295228
1880,38597.1692116,0.0100104960093,2078,39873.118212
1890,38597.1692116,0.0100729340093,2089,39961.1754346
1900,38597.1692116,0.0101370820094,2100,39983.157509
1910,38597.1692116,0.0101999470089,2111,39999.8237893
1920,38597.1692116,0.0102581080091,2122,39978.4030079
1930,38597.1692116,0.0103295260096,2133,39995.0747763
1940,38597.1692116,0.010388969009,2144,39999.8237893
1950,38597.1692116,0.0104488400093,2155,39920.0070935
1960,38597.1692116,0.0104993030091,2166,39981.3830546
1970,38597.1692116,0.0105548980091,2177,39971.4179044
1980,38597.1692116,0.010615624009,2188,40021.7892248
1990,38597.1692116,0.0106656590087,2199,40023.0840396
2000,38597.1692116,0.010731945009,2210,39997.1185561
2010,38597.1692116,0.0107785600085,2221,39998.7270755
2020,38597.1692116,0.0108375760083,2232,39994.2683626
2030,38597.1692116,0.0108983030086,2243,39999.8237893
2040,38597.1692116,0.0109590290085,2254,39945.5984946
2050,38597.1692116,0.0110052160089,2265,39975.9580437
2060,38597.1692116,0.011052686009,2276,39999.8237893
2070,38597.1692116,0.0111061420084,2287,40033.1004029
2080,38597.1692116,0.0111536110089,2298,39999.8237893
2090,38597.1692116,0.011217759009,2309,39962.0632751
2100,38597.1692116,0.0112750650087,2320,39979.0239394
2110,38597.1692116,0.0113392130088,2331,39985.5763654
2120,38597.1692116,0.011396946009,2342,39859.3756469
2130,38597.1692116,0.0114495480084,2353,40086.0438031
2140,38597.1692116,0.0115038600088,2364,39985.4407856
2150,38597.1692116,0.0115641590082,2375,39999.8237893
2160,38597.1692116,0.0116244580086,2386,39924.0537359
2170,38597.1692116,0.0116723550091,2397,39953.8903181
2180,38597.1692116,0.0117215350092,2408,39950.7679557
2190,38597.1692116,0.0117844000097,2419,39872.9169418
2200,38597.1692116,0.0118314410092,2430,40062.5332136
2210,38597.1692116,0.011890029009,2441,39877.1447619
2220,38597.1692116,0.011936643009,2452,39976.5347227
2230,38597.1692116,0.0119909550085,2463,39978.0475432
2240,38597.1692116,0.012053392009,2474,39904.1779409
2250,38597.1692116,0.0121021440091,2485,39927.0175825
2260,38597.1692116,0.0121526080084,2496,39999.8237893
2270,38597.1692116,0.0122026430081,2507,40068.7042641
2280,38597.1692116,0.0122505400077,2518,39982.2365851
2290,38597.1692116,0.0123078460083,2529,39924.0332709
2300,38597.1692116,0.012367290009,2540,39999.8237893
2310,38597.1692116,0.012429728009,2551,40001.146267
2320,38597.1692116,0.0124883170083,2562,39999.8237893
2330,38597.1692116,0.0125362140088,2573,39937.9205778
2340,38597.1692116,0.0125956570091,2584,39996.5779861
2350,38597.1692116,0.0126426990091,2595,39914.9986509
2360,38597.1692116,0.0126995770088,2606,40049.1471722
2370,38597.1692116,0.0127573110085,2617,39967.7077663
2380,38597.1692116,0.0128193200089,2628,39981.4928925
2390,38597.1692116,0.0128830410094,2639,39928.1506442
2400,38597.1692116,0.01294804401,2650,40049.3010425
2410,38597.1692116,0.01301005401,2661,39913.050451
2420,38597.1692116,0.0130665040106,2672,39926.1064529
2430,38597.1692116,0.0131259480104,2683,39906.5542537
2440,38597.1692116,0.0131888130109,2694,39975.3982169
2450,38597.1692116,0.0132474020111,2705,40015.6491919
2460,38597.1692116,0.0133055630113,2716,39907.8906628
2470,38597.1692116,0.0133791190119,2727,39865.4212527
2480,38597.1692116,0.0134381350117,2738,39975.3982169
2490,38597.1692116,0.0134992890125,2749,39900.1127181
2500,38597.1692116,0.0135801160122,2760,39922.3559461
2510,38597.1692116,0.0136416980122,2771,40021.9811236
2520,38597.1692116,0.0136990030114,2782,39999.8237893
2530,38597.1692116,0.0137597300118,2793,40030.3920013
2540,38597.1692116,0.0138238780119,2804,40042.2226068
2550,38597.1692116,0.0138863150123,2815,40026.4170961
2560,38597.1692116,0.0139431930129,2826,39979.0239394
2570,38597.1692116,0.0139992150134,2837,39980.0878029
2580,38597.1692116,0.0140578040136,2848,39975.5880955
2590,38597.1692116,0.0141172480135,2859,40033.4669778
2600,38597.1692116,0.0141762640133,2870,39960.2018414
2610,38597.1692116,0.0142215950127,2881,39901.3541772
2620,38597.1692116,0.0142720580125,2892,39997.9789928
2630,38597.1692116,0.0143250870124,2903,39956.1511488
2640,38597.1692116,0.0143811100124,2914,39999.8237893
2650,38597.1692116,0.0144375600121,2925,39986.8684268
2660,38597.1692116,0.0144961490123,2936,40064.732089
2670,38597.1692116,0.0145453290124,2947,39966.7956792
2680,38597.1692116,0.0145910880128,2958,40002.6017237
2690,38597.1692116,0.0146620780133,2969,39996.5209777
2700,38597.1692116,0.0147074090137,2980,39940.8835068
2710,38597.1692116,0.0147553060133,2991,39964.9582366
2720,38597.1692116,0.0148117560138,3002,39999.8237893
2730,38597.1692116,0.0148664960134,3013,39999.8237893
2740,38597.1692116,0.0149314990131,3024,39968.0877101
2750,38597.1692116,0.0149922260125,3035,39988.9485738
2760,38597.1692116,0.0150589400118,3046,39998.2923708
2770,38597.1692116,0.0151243710116,3057,39947.0897283
2780,38597.1692116,0.0151868090115,3068,39920.5798935
2790,38597.1692116,0.015232568011,3079,39955.6583233
2800,38597.1692116,0.0152911560108,3090,39988.1246274
2810,38597.1692116,0.015357014011,3101,39983.4728041
2820,38597.1692116,0.0154053390106,3112,40005.3913462
2830,38597.1692116,0.0154536640102,3123,39810.3254979
2840,38597.1692116,0.0155002780102,3134,39910.6251324
2850,38597.1692116,0.0155644260103,3145,39999.8237893
2860,38597.1692116,0.0156238700101,3156,40016.1747746
2870,38597.1692116,0.0156897280103,3167,39962.4860818
2880,38597.1692116,0.0157491710106,3178,39966.4773978
2890,38597.1692116,0.0158056210103,3189,39978.8916479
2900,38597.1692116,0.0158663470102,3200,40033.8996631
2910,38597.1692116,0.01592536301,3211,39813.0533821
2920,38597.1692116,0.0159839510097,3222,39956.1253013
2930,38597.1692116,0.0160442500091,3233,39999.8237893
2940,38597.1692116,0.0161083980083,3244,39997.7724291
2950,38597.1692116,0.0161541570087,3255,39873.9788456
2960,38597.1692116,0.0162118900089,3266,39970.5286371
2970,38597.1692116,0.0162619250086,3277,39883.9386374
2980,38597.1692116,0.0163230790095,3288,39908.1045092
2990,38597.1692116,0.0163726870096,3299,39999.5460994
3000,38597.1692116,0.01643384201,3310,39952.9369566
3010,38597.1692116,0.0165005560102,3321,39927.4044628
3020,38597.1692116,0.0165642760103,3332,39984.2249067
3030,38597.1692116,0.0166331280107,3343,39999.8237893
3040,38597.1692116,0.0166921440104,3354,39995.5601479
3050,38597.1692116,0.0167562920096,3365,40042.0723149
3060,38597.1692116,0.0168204390093,3376,40047.2526116
3070,38597.1692116,0.0168721840091,3387,39999.8237893
3080,38597.1692116,0.0169312000089,3398,39966.4773978
3090,38597.1692116,0.0169962030086,3409,39952.3949671
3100,38597.1692116,0.0170530810092,3420,39997.2828837
3110,38597.1692116,0.017105254009,3431,40012.2884077
3120,38597.1692116,0.0171638420088,3442,39999.8237893
3130,38597.1692116,0.0172237140087,3453,39968.8721836
3140,38597.1692116,0.0172874350092,3464,39999.8237893
3150,38597.1692116,0.0173485890091,3475,39999.8237893
3160,38597.1692116,0.0174071770098,3486,39943.0120195
3170,38597.1692116,0.0174529350097,3497,39999.8237893
3180,38597.1692116,0.0175119510095,3508,39902.7149591
3190,38597.1692116,0.0175615590097,3519,39992.3866446
3200,38597.1692116,0.0176192920098,3530,39999.8237893
3210,38597.1692116,0.0176825850103,3541,39999.8237893
3220,38597.1692116,0.01773860701,3552,39971.1421878
3230,38597.1692116,0.0177984780094,3563,39999.3545447
3240,38597.1692116,0.0178489410091,3574,40024.4854808
3250,38597.1692116,0.0179100960095,3585,39993.1716594
3260,38597.1692116,0.0179686850097,3596,39986.5162581
3270,38597.1692116,0.0180306940092,3607,39954.5942787
3280,38597.1692116,0.0180922760092,3618,39916.814261
3290,38597.1692116,0.0181504370094,3629,39958.0830286
3300,38597.1692116,0.0182094530091,3640,39999.8237893
3310,38597.1692116,0.0182693240095,3651,39806.5962941
3320,38597.1692116,0.0183287680102,3662,39812.5595994
3330,38597.1692116,0.0183890670105,3673,39971.1327182
3340,38597.1692116,0.0184592020105,3684,39894.9921993
3350,38597.1692116,0.0185186460112,3695,39999.8237893
3360,38597.1692116,0.0185819380113,3706,39999.8237893
3370,38597.1692116,0.0186388160109,3717,39999.8237893
3380,38597.1692116,0.0187316160109,3728,39999.8237893
3390,38597.1692116,0.0187902050102,3739,40042.226548
3400,38597.1692116,0.0188522140097,3750,39964.1041017
3410,38597.1692116,0.0189159350102,3761,40058.1179589
3420,38597.1692116,0.01897495101,3772,39958.1620775
3430,38597.1692116,0.0190335390098,3783,40054.1717055
3440,38597.1692116,0.0190925550096,3794,39998.4600186
3450,38597.1692116,0.0191413070097,3805,39970.6881516
3460,38597.1692116,0.0192075930099,3816,39999.8237893
3470,38597.1692116,0.0192670370106,3827,39999.8237893
3480,38597.1692116,0.0193251980108,3838,40019.0523789
3490,38597.1692116,0.0193859240107,3849,39861.0976616
3500,38597.1692116,0.0194449400105,3860,40016.1580259
3510,38597.1692116,0.0195035290108,3871,39933.1293366
3520,38597.1692116,0.0195646840102,3882,39999.8237893
3530,38597.1692116,0.0196138640104,3893,39971.5508192
3540,38597.1692116,0.0196634710101,3904,39945.0256929
3550,38597.1692116,0.0197224870099,3915,40029.1189416
3560,38597.1692116,0.0197699570099,3926,39975.0527067
3570,38597.1692116,0.0198306840093,3937,39960.7876996
3580,38597.1692116,0.0198914110097,3948,39999.8237893
3590,38597.1692116,0.01995213801,3959,40105.1199386
3600,38597.1692116,0.0200077330092,3970,39967.5754011
3610,38597.1692116,0.020059906009,3981,39850.8725645
3620,38597.1692116,0.0201142180094,3992,39999.8237893
3630,38597.1692116,0.0201642530092,4003,40043.5375916
3640,38597.1692116,0.0202254070091,4014,39962.8175827
3650,38597.1692116,0.0202831400093,4025,39930.1554238
3660,38597.1692116,0.02034258401,4036,39999.8237893
3670,38597.1692116,0.0204016000098,4047,39908.4178227
3680,38597.1692116,0.0204725910098,4058,39894.1514397
3690,38597.1692116,0.0205350280094,4069,39993.211278
3700,38597.1692116,0.0205940440092,4080,39999.8237893
3710,38597.1692116,0.0206517780089,4091,39999.8237893
3720,38597.1692116,0.0207107940087,4102,40021.1400599
3730,38597.1692116,0.0207710930081,4113,39908.8250868
3740,38597.1692116,0.0208283980082,4124,39987.032865
3750,38597.1692116,0.0208925460083,4135,39807.821793
3760,38597.1692116,0.0209541280083,4146,40039.4457373
3770,38597.1692116,0.0210033080084,4157,39999.8237893
3780,38597.1692116,0.0210631790087,4168,39974.0128219
3790,38597.1692116,0.0211226230094,4179,39973.2807645
3800,38597.1692116,0.0211799290091,4190,39999.8237893
3810,38597.1692116,0.021239801009,4201,39984.2778084
3820,38597.1692116,0.0212979620092,4212,39991.7947836
3830,38597.1692116,0.0213582610095,4223,40005.2167591
3840,38597.1692116,0.0214271130098,4234,39999.8237893
3850,38597.1692116,0.0214921160095,4245,39999.8237893
3860,38597.1692116,0.0215408690092,4256,39910.9071313
3870,38597.1692116,0.0216084390095,4267,39977.1538288
3880,38597.1692116,0.0216674550102,4278,40033.0556531
3890,38597.1692116,0.0217298930102,4289,39921.2909755
3900,38597.1692116,0.0217884810099,4300,40035.9819175
3910,38597.1692116,0.0218457870096,4311,39978.2455022
3920,38597.1692116,0.0219086520101,4322,39972.1539466
3930,38597.1692116,0.0219723730097,4333,39999.8237893
3940,38597.1692116,0.0220322450095,4344,39977.041644
3950,38597.1692116,0.0220959650096,4355,39965.360376
3960,38597.1692116,0.0221571200091,4366,39999.8237893
3970,38597.1692116,0.0222058720092,4377,39881.0717189
3980,38597.1692116,0.022250348009,4388,39999.8237893
3990,38597.1692116,0.022311930009,4399,39956.198432
4000,38597.1692116,0.0223568340089,4410,39997.5266616
4010,38597.1692116,0.0224017380087,4421,39981.5577572
4020,38597.1692116,0.0224462140086,4432,39999.8237893
4030,38597.1692116,0.0224898350089,4443,39929.9565894
4040,38597.1692116,0.0225360220084,4454,39962.0632751
4050,38597.1692116,0.022578360009,4465,39974.0188489
4060,38597.1692116,0.0226224080088,4476,39981.9751192
4070,38597.1692116,0.0226673120087,4487,39806.5962941
4080,38597.1692116,0.0227117880086,4498,39893.4341751
4090,38597.1692116,0.0227545530088,4509,39999.8237893
4100,38597.1692116,0.0228024500084,4520,39950.910506
4110,38597.1692116,0.0228469260082,4531,39906.6675228
4120,38597.1692116,0.022890118008,4542,40002.4687447
4130,38597.1692116,0.0229358770075,4553,39929.8795844
4140,38597.1692116,0.0229812090074,4564,39999.8237893
4150,38597.1692116,0.0230291070075,4575,39997.1254032
4160,38597.1692116,0.0230906890074,4586,39999.8237893
4170,38597.1692116,0.0231373030074,4597,39991.728631
4180,38597.1692116,0.0231954640067,4608,39933.7400573
4190,38597.1692116,0.0232489210066,4619,39978.2455022
4200,38597.1692116,0.0233053710062,4630,39952.2837402
4210,38597.1692116,0.0233755070058,4641,39921.0591153
4220,38597.1692116,0.023434096006,4652,39999.8237893
4230,38597.1692116,0.0234948230063,4663,39957.6084957
4240,38597.1692116,0.0235568320059,4674,39877.426351
4250,38597.1692116,0.0236214070064,4685,39930.0576849
4260,38597.1692116,0.0236872660062,4696,39978.0733584
4270,38597.1692116,0.0237454260059,4707,39973.0507841
4280,38597.1692116,0.0238082910064,4718,40170.5507847
4290,38597.1692116,0.0238626030068,4729,39994.5693993
4300,38597.1692116,0.0239216190075,4740,39920.0070935
4310,38597.1692116,0.0239810630083,4751,39806.5962941
4320,38597.1692116,0.0240435000087,4762,39999.8237893
4330,38597.1692116,0.0241072200088,4773,39999.8237893
4340,38597.1692116,0.024171368008,4784,39999.8237893
4350,38597.1692116,0.0242320950083,4795,40042.5055382
4360,38597.1692116,0.0242799920079,4806,40024.9489989
4370,38597.1692116,0.0243420020079,4817,39999.8237893
4380,38597.1692116,0.0243911820071,4828,39999.8237893
4390,38597.1692116,0.0244489150073,4839,39940.3580181
4400,38597.1692116,0.0245134900078,4850,39961.9285301
4410,38597.1692116,0.0245720780076,4861,39999.8237893
4420,38597.1692116,0.0246302380083,4872,39975.1124769
4430,38597.1692116,0.0246896820081,4883,39999.8237893
4440,38597.1692116,0.0247380070086,4894,39999.8237893
4450,38597.1692116,0.0248038650088,4905,39999.8237893
4460,38597.1692116,0.0248551830091,4916,39926.7596608
4470,38597.1692116,0.0249270280092,4927,40087.2207655
4480,38597.1692116,0.0249736420092,4938,39999.8237893
4490,38597.1692116,0.0250194010096,4949,39999.8237893
4500,38597.1692116,0.0250852600093,4960,39993.1716594
4510,38602.6539369,0.0251549680097,4971,39962.1625718
4520,38602.6539369,0.0252165500096,4982,39964.5084926
4530,38602.6539369,0.0252742830098,4993,39999.9716973
4540,38602.6539369,0.0253226070099,5004,39952.5971245
4550,38602.6539369,0.0253833340103,5015,39931.6112822
4560,38602.6539369,0.0254517580106,5026,39874.7494151
4570,38602.6539369,0.02551205701,5037,40058.2658669
4580,38602.6539369,0.0255826190096,5048,39875.7922489
4590,38602.6539369,0.0256407800098,5059,39984.2104531
4600,38602.6539369,0.02569979701,5070,39963.9453877
4610,38602.6539369,0.0257592400103,5081,39999.9716973
4620,38602.6539369,0.02581611801,5092,39984.2104531
4630,38602.6539369,0.0258789830095,5103,39847.8381459
4640,38602.6539369,0.02593329501,5114,39999.9716973
4650,38602.6539369,0.0259794820095,5125,39999.9716973
4660,38602.6539369,0.0260491890094,5136,39914.1235204
4670,38602.6539369,0.0261086330092,5147,39999.9716973
4680,38602.6539369,0.0261552470092,5158,40087.3686735
4690,38602.6539369,0.0262176840088,5169,40070.1691301
4700,38602.6539369,0.0262784100087,5180,39999.9716973
4710,38602.6539369,0.0263327220091,5191,39978.2212663
4720,38602.6539369,0.0263866060086,5202,40040.2542752
4730,38602.6539369,0.0264447660084,5213,39998.4904552
4740,38602.6539369,0.0265003610084,5224,39936.0913287
4750,38602.6539369,0.0265670750086,5235,39872.7339897
4760,38602.6539369,0.0266213870082,5246,39873.7204484
4770,38602.6539369,0.0266851070082,5257,39999.9716973
4780,38602.6539369,0.0267449780085,5268,39999.9716973
4790,38602.6539369,0.0268014290086,5279,39929.0452878
4800,38602.6539369,0.0268583070083,5290,39999.9716973
4810,38602.6539369,0.0269177510081,5301,39955.690476
4820,38602.6539369,0.0269750570078,5312,39937.2622731
4830,38602.6539369,0.0270383500083,5323,39963.6990193
4840,38602.6539369,0.0270896680086,5334,40097.3341468
4850,38602.6539369,0.0271461180091,5345,39854.2726451
4860,38602.6539369,0.0272029960097,5356,39966.19264
4870,38602.6539369,0.0272581640102,5367,39999.9716973
4880,38602.6539369,0.0273137590102,5378,39840.6820979
4890,38602.6539369,0.0273697820103,5389,39969.2872034
4900,38602.6539369,0.0274283710105,5400,39995.0772423
4910,38602.6539369,0.02747370201,5411,39927.653347
4920,38602.6539369,0.0275318630102,5422,39993.2465995
4930,38602.6539369,0.0275938730101,5433,39971.6148532
4940,38602.6539369,0.0276486130106,5444,39974.1490829
4950,38602.6539369,0.0277204590111,5455,40027.3812465
4960,38602.6539369,0.0277696390112,5466,40018.1745641
4970,38602.6539369,0.0278239510108,5477,39905.1140528
4980,38602.6539369,0.0278692820102,5488,39979.3234324
4990,38602.6539369,0.0279150410097,5499,39859.0752311
