it,funval,time,funcount,weight
0,3227.39781793,0.000533711000003,731,2845.62150485
10,3219.1384022,0.00106784899998,1352,2792.00611728
20,3717.79210027,0.00159557299997,1981,2998.16413239
30,3899.32042729,0.00211089499999,2603,3576.04541006
40,3866.58811332,0.00264546099999,3216,3560.93073079
50,3885.17133983,0.00315565099999,3858,3572.76747341
60,4023.76247301,0.00369149999997,4489,3727.03731973
70,3935.53112866,0.00420211799997,5117,3643.07597058
80,3838.10281636,0.00483376199998,5732,3404.20916815
90,3876.47919198,0.00534095899999,6356,3971.04107586
100,3905.05153353,0.00585628100001,6983,3657.35923864
110,3885.15731622,0.00639255799999,7608,3586.50349316
120,3917.78498517,0.00693781599998,8229,3377.69881408
130,3943.53208914,0.00748521199998,8870,3706.44813878
140,4099.32166881,0.00802833199998,9509,3690.98521101
150,3938.02437241,0.00857187899999,10144,3199.81569435
160,3935.14562948,0.00908463499999,10780,3776.6414938
170,3985.37103356,0.00979453899998,11419,3389.09567209
180,3945.95331239,0.010318414,12038,3377.66468834
190,3788.59570437,0.010906009,12684,3326.91290035
200,3854.52585689,0.011528672,13311,3686.42743716
210,3937.90162957,0.0120812,13946,3435.92050816
220,4021.37740071,0.012635439,14593,3821.36175908
230,3952.40050455,0.013208066,15229,3623.91258565
240,3843.35386828,0.0137777,15861,3407.44702249
250,3897.11578745,0.014318253,16478,3622.27337456
260,3837.46792867,0.014860945,17102,3762.52661161
270,4045.41780071,0.015434855,17721,3777.43481986
280,3962.34606988,0.015984817,18344,3730.30831573
290,3958.84207158,0.016504843,18963,3100.1458727
300,4019.52612446,0.017027007,19592,3539.06128872
310,4027.95671779,0.017848529,20214,3536.78369273
320,4021.24283105,0.018459645,20836,3828.47133376
330,3959.61005175,0.018982236,21458,3633.09251998
340,4017.79811,0.019515092,22091,3452.06646472
350,3934.26548741,0.020077883,22726,3655.50156185
360,3913.08958482,0.0206210029999,23351,3530.50638829
370,3949.82694118,0.021164122,23984,3308.28180456
380,3990.78219811,0.02171836,24604,3440.1989945
390,4011.19274284,0.022282862,25232,3895.50321318
400,3976.60293626,0.022838811,25852,3682.62032038
410,4038.04005298,0.023387917,26493,3810.14133534
420,4056.5458994,0.023959689,27132,3560.71708615
430,3966.88790107,0.024530605,27765,3077.44332284
440,3983.39555599,0.025082277,28397,3589.97862402
450,4034.32615897,0.025642074,29024,3681.02261746
460,3983.52767484,0.02620572,29653,3654.4839068
470,4035.89576533,0.0267385750001,30293,3684.50105965
480,3996.52331379,0.027266299,30932,3367.37514239
490,3965.52327864,0.0278128400001,31558,3338.603675
500,4058.28608123,0.028351255,32192,3534.86632041
510,4107.94878827,0.029146689,32825,3426.31583453
520,4073.15946777,0.029667998,33453,3369.79536014
530,4074.12476112,0.030192728,34088,3132.25727883
540,4009.22005064,0.030717031,34708,3192.77460481
550,4113.83766174,0.031252453,35338,3862.30602713
560,4096.73538221,0.031799849,35966,3538.88177348
570,4038.35611479,0.032358363,36595,3404.30377216
580,4175.8274505,0.032903193,37223,3725.01430062
590,4204.02084544,0.033464701,37850,3474.42961496
600,4123.52287213,0.0340197950001,38480,3057.33117361
610,4124.23962244,0.0345898560001,39120,3574.29924832
620,4159.20281409,0.035160772,39766,3285.06469831
630,4106.29649671,0.035729122,40402,3589.23631645
640,4144.90936686,0.0362790840001,41035,3342.41076747
650,4039.4961993,0.0368281900001,41666,3067.86790356
660,4101.4104637,0.0373931190001,42311,3223.09030659
670,4122.192108,0.0379477850001,42936,3209.85123312
680,4070.79276968,0.0385187020001,43552,3191.32092885
690,4053.10619462,0.0390797830001,44190,3145.15616817
700,4041.74481822,0.0396382970001,44831,3819.06934562
710,4148.57036379,0.0401715810001,45457,3580.2211988
720,4262.64269426,0.0407194040001,46093,3621.75493423
730,4211.28237135,0.0412839060001,46734,3537.60409653
740,4134.72459762,0.0418189000001,47359,3347.95258694
750,4308.23499866,0.0423872500001,47996,3570.55883344
760,4358.3655783,0.0429085590001,48616,3585.44926084
770,4188.54090254,0.0434251640001,49256,3557.24552349
780,4118.70679811,0.0439717050001,49872,3610.30739938
790,4132.59652938,0.0444836060001,50494,3378.54134098
800,4182.2607435,0.0450485350001,51119,3313.31466193
810,4043.91244478,0.0455771140001,51757,3603.23173233
820,3979.31456812,0.0461347730001,52400,3521.83200598
830,4036.55241843,0.0466967090001,53041,3561.37402663
840,4061.47656994,0.0472282810001,53672,3673.29472679
850,4186.47023604,0.0477897900001,54318,3488.37796048
860,4164.36200244,0.0483538640001,54951,3609.5999456
870,4181.52981119,0.0488948450001,55578,3582.23457293
880,4154.22580765,0.0494191480001,56204,3383.84861225
890,4147.89889068,0.0499481540001,56840,3502.34803846
900,4175.84434675,0.0505100900001,57468,3518.38059273
910,4100.3180801,0.0510583410001,58105,3613.5441827
920,4051.03362053,0.0516211320001,58730,3464.80379341
930,4218.8331474,0.0521779360001,59370,3108.16494328
940,4018.23309072,0.0527035210001,60009,2894.02033712
950,4158.72216684,0.0532415080001,60642,3308.98391801
960,4080.56204333,0.0537995950001,61278,3452.56341421
970,4240.72826736,0.0543491290001,61908,3686.30081081
980,4251.57558727,0.0548879710001,62527,3086.41006197
990,4225.47527814,0.0554362220001,63158,3810.56333967
1000,4159.05520913,0.0559797690001,63780,3322.6056035
1010,4182.29947654,0.0565425600001,64407,3742.43133127
1020,4195.45560714,0.0570707110001,65030,3445.23055129
1030,4147.52393098,0.0575967250001,65666,3656.89587463
1040,4200.73752428,0.0581342840001,66307,3607.24575348
1050,4235.97344797,0.0586739820001,66938,3198.50553451
1060,4223.79686968,0.0592136800001,67575,3614.19775896
1070,4206.82335673,0.0597751880001,68210,3519.61717214
1080,4349.2152221,0.0603289990001,68843,3706.84135565
1090,4316.56013849,0.0608562950001,69472,3638.56295837
1100,4268.98526616,0.0614032630001,70102,3881.39759604
1110,4277.07966528,0.0619549360001,70723,3589.54453549
1120,4276.900716,0.0624989100001,71358,3786.03538252
1130,4295.22773284,0.0630604190001,71990,3758.46977249
1140,4262.75044959,0.0636138010001,72617,3233.6706012
1150,4243.85512358,0.0642005410001,73245,3391.23080335
1160,4180.58724612,0.0647505030001,73883,3558.94027714
1170,4184.70868376,0.0652987540001,74511,3362.89423814
1180,4190.09566522,0.0658534200001,75143,3393.12445702
1190,4188.26234864,0.0664290410001,75779,3608.94581654
1200,4194.36153762,0.0670089380001,76423,3595.77763336
1210,4266.22591752,0.0675665980001,77040,3646.21510537
1220,4176.7057394,0.0681225470001,77673,3607.35206851
1230,4261.06287944,0.0687178400001,78315,3599.148658
1240,4228.36890944,0.0692866190001,78955,3551.43227618
1250,4240.04563521,0.0698327310001,79594,3591.48470859
1260,4176.05173584,0.0703681520001,80229,3692.65036781
1270,4192.92294366,0.0709112720001,80855,3453.69370712
1280,4221.65449462,0.0714449820001,81489,3654.80684414
1290,4154.70230333,0.0719987920001,82137,3381.63476202
1300,4197.5312901,0.0725290820001,82765,3584.45385692
1310,4195.67221848,0.0730888790001,83397,3695.6105945
1320,4225.15920563,0.0736285770001,84014,3446.06515811
1330,4202.32337584,0.0741678470002,84651,3480.91583052
1340,4275.46301998,0.0747255070002,85291,3512.55531849
1350,4197.08894355,0.0752861600002,85921,3439.97973912
1360,4105.34563674,0.0758309890002,86540,3214.13198797
1370,4182.93509264,0.0763852270002,87175,3482.22159621
1380,4127.64473305,0.0769390370002,87817,3813.62383943
1390,4141.51892314,0.0774842950002,88454,3605.57575616
1400,4164.10640732,0.0780180060001,89083,3483.61075834
1410,4064.38084246,0.0785423090001,89711,3553.40215109
1420,4211.75535309,0.0790845730001,90327,3402.75525189
1430,4127.37080868,0.0796187110001,90970,3319.20907165
1440,4105.89119428,0.0801759430001,91597,3624.25899401
1450,4095.49937646,0.0807096540001,92240,3405.661697
1460,4147.17405194,0.0812211270001,92856,3644.56622382
1470,4083.69806915,0.0817663850001,93488,3247.3335359
1480,4089.31487025,0.0823368740001,94116,3834.97599575
1490,4130.07710536,0.0829069350001,94749,3767.7923184
1500,4197.04865332,0.0834534750001,95388,3768.14222039
1510,4202.5124626,0.0839782050001,96025,3655.71247294
1520,4155.0271461,0.0846731400001,96664,3255.54557529
1530,4228.95955718,0.0852307990001,97306,3824.81222917
1540,4309.57815937,0.0857867480001,97934,3083.25744738
1550,4248.026409,0.0863345720001,98564,3651.40365692
1560,4161.49303606,0.0868823960002,99202,3806.35703186
1570,4188.70879561,0.0875679230002,99836,3855.80139522
1580,4181.27285756,0.0881059110002,100461,3595.6178304
1590,4162.53299797,0.0886528790002,101095,3644.94839413
1600,4205.18502909,0.0892092550002,101732,3657.28345429
1610,4157.79158072,0.0897562230002,102355,3311.01461087
1620,4022.47960476,0.0903061850001,102985,3599.44066161
1630,3967.5507789,0.0908420340001,103617,3014.42249916
1640,3877.28150313,0.0916105260001,104247,3293.08316343
1650,3969.18961562,0.0921309790001,104869,2985.61700426
1660,4137.60262968,0.0926715320001,105505,3187.34058117
1670,3953.13882727,0.0932009660002,106150,3485.8340635
1680,4168.55230937,0.0937295450002,106786,3206.65507219
1690,3996.25776346,0.0942547030002,107419,3318.99240353
1700,4105.34098895,0.0947785780002,108045,3516.49943786
1710,4073.28588382,0.0953311050002,108675,3168.52840422
1720,4090.67073444,0.0958849160002,109305,3424.18087324
1730,4104.20842989,0.0964109290002,109936,3295.62563598
1740,4347.22156904,0.0969348040002,110564,3504.9717245
1750,4148.78799744,0.0974629550002,111202,3468.93672456
1760,4135.09821458,0.0979953830002,111837,3690.09210181
1770,4093.849697,0.0985188300002,112471,3260.01930721
1780,4139.47375754,0.0990679360002,113100,3470.83234285
1790,4233.48613017,0.0995982250002,113736,3510.34330453
1800,4168.79099713,0.100123382,114358,2925.64863097
1810,4142.85122364,0.100674199,114997,3601.04931599
1820,4169.72390221,0.101200212,115625,3272.97258619
1830,4192.91540752,0.101722376,116253,3590.85021356
1840,4118.06441819,0.102263356,116883,3685.38621104
1850,4132.26175566,0.102791079,117527,4013.81650758
1860,4172.74699625,0.107586351,118150,3205.38130838
1870,4174.14476753,0.108126905,118770,3353.6971394
1880,4218.05002706,0.108687131,119391,3453.10473905
1890,4089.30263375,0.109223408,120025,3178.45607025
1900,4067.84916568,0.109778073,120653,3299.36049855
1910,4069.5998496,0.110328034,121301,3186.87505901
1920,4070.88073704,0.110874574,121940,3263.99948257
1930,4112.15850965,0.111428812,122567,3406.29519785
1940,4084.25452222,0.111978773,123201,3244.64000707
1950,4065.84806636,0.112532584,123825,3231.2769151
1960,4217.90518204,0.113088105,124461,3520.65414308
1970,4111.53802733,0.113646192,125089,3539.31403288
1980,4175.41393564,0.114183751,125728,3666.29324088
1990,4132.82060136,0.114740983,126361,3857.68754955
2000,4186.12940559,0.115281536,126993,3726.32560435
2010,4302.77520399,0.115796858,127620,3592.38102337
2020,4255.86360764,0.116309186,128253,3321.89376447
2030,4137.66053231,0.116863424,128873,3252.35339919
2040,4240.00258358,0.117401839,129508,3410.32053563
2050,4084.9278068,0.118067695,130128,3369.64155877
2060,4265.97649571,0.118635618,130762,3297.4894222
2070,4282.07968882,0.119179592,131396,3153.79856885
2080,4354.27155045,0.119727843,132028,3393.78451757
2090,4296.98406437,0.120282082,132648,3530.28726846
2100,4263.87182931,0.120842735,133282,3181.70310495
2110,4275.34976288,0.121365755,133909,3195.37631456
2120,4309.24603646,0.121881932,134536,3583.61046956
2130,4105.26170822,0.122431038,135169,3527.22025813
2140,4046.29252211,0.122980572,135801,3355.15709675
2150,4139.17574726,0.12353481,136426,3182.07668855
2160,4291.99563527,0.124072369,137067,3469.10347915
2170,4158.17643318,0.124630028,137704,3238.78071307
2180,4184.74440492,0.125168871,138334,3967.62382945
2190,4251.38475088,0.125724393,138979,3509.5204991
2200,4161.70779683,0.126278203,139605,3145.1556835
2210,4322.32566365,0.126842278,140234,3404.48189911
2220,4314.98351611,0.127407636,140869,3300.62214648
2230,4323.53542316,0.127961019,141501,3767.68681773
2240,4326.5299892,0.128501573,142136,3458.5518905
2250,4180.54902879,0.129054529,142762,3239.62304024
2260,4229.44670245,0.129609622,143385,3818.66421312
2270,4201.75867249,0.130156163,144009,3661.68604301
2280,4227.89462483,0.130719382,144633,3382.96512833
2290,4275.28036839,0.13126635,145271,3476.36612132
2300,4178.49342858,0.131829569,145916,3223.00193736
2310,4226.45897637,0.132371833,146549,3160.50095332
2320,4187.64679207,0.132919656,147174,3286.11263028
2330,4156.25229253,0.133455077,147819,3215.54639395
2340,4135.54640026,0.133996913,148465,3253.63674788
2350,4064.57897435,0.13454602,149103,3435.97250687
2360,4242.63789918,0.135082297,149729,3293.10728987
2370,4076.75563973,0.135630548,150363,3708.92833173
2380,4237.16080001,0.13616768,150994,3408.42852132
2390,4240.32140184,0.136716787,151629,3121.42538556
2400,4115.14617438,0.137266321,152260,3496.61455433
2410,4136.62237225,0.137815855,152898,3740.76297474
2420,4202.88404292,0.138348283,153527,3756.98544802
2430,4227.42794791,0.13887173,154147,3823.25501173
2440,4132.04349346,0.139384914,154787,3710.01644873
2450,4271.1438549,0.139945567,155416,3434.22514106
2460,4142.93770784,0.140517766,156049,3489.71304687
2470,4338.83462206,0.141104934,156679,3516.76448243
2480,4257.93270065,0.141732301,157304,3483.58865783
2490,4217.72800308,0.142381051,157922,3764.1337445
2500,4260.7890535,0.14299345,158559,3590.25829615
2510,4095.97050178,0.143780759,159204,3398.22850806
2520,4182.54499653,0.144510763,159837,3559.75241888
2530,4184.25189735,0.145103918,160459,3471.12763136
2540,4211.69552952,0.145662005,161097,3603.86630531
2550,4179.93385111,0.146221375,161733,3705.91110471
2560,4194.47762775,0.146773048,162367,3329.55626022
2570,4178.52696243,0.147381171,163002,3573.18951568
2580,4263.01755357,0.149312024,163629,3657.07399802
2590,4167.26121724,0.149878664,164267,3536.83217751
2600,4178.70340886,0.150435468,164903,3659.27166916
2610,4194.53655686,0.150991844,165531,3919.01920136
2620,4308.66623754,0.151537957,166162,3411.27188461
2630,4200.33371642,0.152112295,166785,3790.35442821
2640,4125.09483616,0.152673804,167419,3381.73010741
2650,4054.35252857,0.153236595,168059,3532.17970786
2660,4229.90238167,0.15380238,168688,3442.72856374
2670,4099.18712781,0.154356618,169316,3214.18528416
2680,4190.22797958,0.155185837,169965,3564.63530417
2690,4129.09495036,0.155741359,170608,3264.86258048
2700,4180.25974742,0.156310137,171244,3935.06912473
2710,4238.88106668,0.156869935,171869,3221.40520288
2720,4253.10002657,0.157429305,172498,3766.43679645
2730,4141.17856229,0.157975417,173137,3051.40169516
2740,4131.68586276,0.158539491,173764,3135.08676461
2750,4141.62260373,0.159071491,174398,3687.21574214
2760,4078.54430122,0.159604775,175037,3291.08463868
2770,4264.47599008,0.160162007,175680,3411.93779301
2780,4009.42384405,0.160711114,176305,3128.08134152
2790,4061.59832613,0.161262359,176941,3680.72135833
2800,4104.2296687,0.161806333,177575,3406.42452289
2810,4017.86802814,0.162349452,178212,3501.85261676
2820,3993.43914574,0.162877604,178845,3248.58120872
2830,4242.22995755,0.163433981,179481,3005.10895785
2840,4077.48678813,0.163978383,180116,3580.70771756
2850,4122.11640399,0.164539464,180755,3196.81732456
2860,4154.6859693,0.165724918,181384,3310.15349687
2870,4258.83240752,0.166964256,182020,3263.98877741
2880,4334.13589408,0.167498822,182652,3349.9150481
2890,4234.04885783,0.168100957,183287,3419.73655377
2900,4309.51345727,0.16865434,183925,3566.5514737
2910,4248.87505663,0.169195321,184550,3716.06530025
2920,4248.6249971,0.169802588,185190,3318.48657045
2930,4234.4435642,0.170353832,185811,3496.52501319
2940,4215.97844885,0.17090978,186452,3511.32094689
2950,4319.48348731,0.171454182,187072,3757.28496345
2960,4221.72332793,0.17200115,187700,2953.12754008
2970,4123.92786005,0.17253144,188339,3704.07220301
2980,4274.55840689,0.173083539,188969,3594.44937008
2990,4296.6934789,0.173679687,189610,3503.79290244
3000,4244.91908323,0.1742459,190241,3496.015578
3010,4119.93785357,0.174789019,190869,3329.1257979
3020,4221.75778706,0.175335131,191486,3111.06142338
3030,4166.36177058,0.175875684,192116,3683.74783078
3040,4121.63597931,0.176426501,192747,3863.79558587
3050,4205.21947166,0.176970903,193382,3934.891099
3060,4116.14351451,0.17750718,194001,3684.76373688
3070,4122.03564831,0.178080235,194617,3150.4243556
3080,4132.20705257,0.17862592,195252,3604.74064161
3090,4206.99862062,0.179157065,195887,3468.44122914
3100,4222.20048624,0.179712586,196519,3735.95654012
3110,4149.80897752,0.180241593,197153,3273.8974311
3120,4307.89095532,0.180794549,197779,3793.52564113
3130,4164.78466642,0.18137744,198405,3819.38562512
3140,3990.06851357,0.181929967,199042,3655.91100853
3150,3930.51059364,0.182476935,199674,3584.37399111
3160,4170.66155647,0.183092755,200302,3520.16856525
3170,4161.72229154,0.183673507,200936,3528.0111785
3180,4019.41578603,0.184230739,201571,3750.32815037
3190,3947.33754687,0.184772147,202195,3438.12504749
3200,4078.90692504,0.185322964,202829,3719.46921662
3210,4007.25446039,0.185858386,203455,3426.15599993
3220,4028.23083256,0.186390387,204099,3550.34802667
3230,4111.66576259,0.18692367,204736,3378.21789843
3240,4135.19996725,0.187479191,205354,3425.11028448
3250,4050.42942988,0.188015468,205972,3352.53289956
3260,4218.67607262,0.188568424,206601,3518.03306195
3270,4118.96529415,0.189104273,207223,3431.58735798
3280,4203.11472948,0.189677328,207841,3487.21390182
3290,4147.23587885,0.190221302,208481,3215.71264414
3300,4209.49470182,0.190762282,209101,3262.74660018
3310,4266.97083741,0.191298987,209718,3800.72888216
3320,4235.82491826,0.191856219,210347,3375.30877213
3330,4172.2616119,0.192389502,210974,3752.71575013
3340,4152.37960305,0.192930483,211603,3714.8848263
3350,4260.68384811,0.193464622,212243,3508.30559788
3360,4231.13723468,0.194000898,212879,3538.80955628
3370,4251.40760028,0.194532898,213513,3491.54040512
3380,4083.23336397,0.195064471,214125,3341.61337988
3390,4125.96514622,0.195580648,214753,3788.4185467
3400,4165.79874529,0.196134458,215400,3132.8897173
3410,4242.55240737,0.19667159,216040,3743.52708095
3420,4187.63688695,0.197233953,216667,3756.63365317
3430,4147.70371654,0.197788191,217297,3757.95950823
3440,4111.36278698,0.198339864,217915,3432.05441052
3450,4145.92138769,0.19891078,218565,3689.42706472
3460,4217.68001391,0.199458604,219199,3425.69786836
3470,4245.38864081,0.199986327,219840,3535.77329835
3480,4108.23582745,0.200585896,220464,3582.18690566
3490,4108.68771858,0.201126022,221093,3281.14438189
3500,4125.8553002,0.201659305,221734,3138.66576877
3510,4145.1625034,0.20221226,222365,3528.64442279
3520,4112.82277825,0.202761794,222988,3333.21575204
3530,4169.93997263,0.203287807,223613,3431.32040438
3540,4106.07998017,0.203818524,224248,3291.0646138
3550,4199.46266679,0.204364637,224878,3253.4508492
3560,4151.59660881,0.204921868,225512,3813.06218834
3570,4124.35045016,0.205472258,226154,3321.53098891
3580,4130.83659129,0.206020082,226782,3201.1307711
3590,4181.31624154,0.206573465,227406,3494.80416159
3600,4139.61326411,0.207147803,228037,3483.28922359
3610,4235.90775386,0.207711021,228681,3586.70424316
3620,4075.1499962,0.208257134,229312,3633.6126134
3630,4098.54583352,0.208796832,229937,3732.0946957
3640,4144.19797969,0.209348077,230573,3728.56484156
3650,4043.8526666,0.209906592,231215,3536.12849354
3660,4092.02344799,0.210447145,231849,3674.73359986
3670,4024.96222764,0.211001811,232473,3493.3727909
3680,4087.50312308,0.211540654,233105,3785.29600277
3690,4086.60573685,0.212085056,233740,3625.18311084
3700,4041.61571246,0.212617912,234373,3707.37828212
3710,4089.13845129,0.213168301,235008,3615.77292798
3720,4001.78135244,0.213722967,235650,3349.60408273
3730,4070.73461239,0.214275495,236295,3281.78488423
3740,4071.56279654,0.214837003,236937,3706.88658579
3750,4144.42313681,0.215375419,237577,3814.2478417
3760,4036.85497186,0.215942487,238209,3583.74422488
3770,4027.82285614,0.216478336,238849,3151.19408074
3780,4126.37387467,0.217035995,239466,3135.05179248
3790,4212.68825082,0.217598359,240101,3628.84047488
3800,4109.00847761,0.218153452,240730,3523.83869383
3810,4156.99982492,0.218732921,241358,3635.85235733
3820,4206.81048877,0.219322655,241990,3414.91152847
3830,4257.19698035,0.219885447,242628,3663.04924356
3840,4299.34753656,0.220426001,243272,3737.49614228
3850,4189.76109958,0.220972969,243905,3861.8305529
3860,4124.4599036,0.221493422,244529,3498.5280343
3870,4036.12010553,0.222088287,245164,3630.09325499
3880,4147.52372677,0.222616439,245796,3512.25218723
3890,4066.3821557,0.22315186,246434,3722.12495069
3900,4041.43334388,0.223729191,247064,3763.00377866
3910,3968.90189408,0.224262902,247680,3459.27274477
3920,3864.24036222,0.224817568,248302,3427.27404148
3930,4045.81364708,0.225358121,248941,3615.38400981
3940,3911.48477642,0.225887128,249582,3455.14837805
3950,3999.35234821,0.226420411,250221,3653.05331644
3960,3960.28367404,0.226952412,250858,3460.96917126
3970,3939.92959031,0.227537441,251499,3024.47387896
3980,4081.5112657,0.22807885,252123,3656.15534088
3990,4170.60901238,0.228632661,252747,3414.89224531
4000,3995.90586973,0.229180912,253368,3478.77688786
4010,4019.67906833,0.229711629,254005,3440.43886915
4020,4026.2688738,0.23028169,254635,3233.73906931
4030,4163.67937143,0.230833362,255268,3551.2049745
4040,4181.01083126,0.231396153,255908,3236.57813294
4050,4085.4119652,0.231953384,256536,3424.12649352
4060,4035.96875795,0.232482819,257181,3474.42857973
4070,4174.67421454,0.23301653,257807,3516.08812537
4080,4125.89404858,0.23355965,258455,3284.98328577
4090,4220.91898276,0.234120303,259089,3644.66361955
4100,4233.57340391,0.234673258,259712,3818.0586753
4110,4233.44663692,0.235267267,260341,3487.4079202
4120,4257.35672693,0.235858711,260979,3416.08189613
4130,4265.57853091,0.236388573,261601,3676.25390272
4140,4155.45393781,0.236926988,262233,3504.57183544
4150,4131.2366825,0.237463693,262853,3119.66903865
4160,4084.58279523,0.238011944,263484,3301.848447
4170,4102.47061445,0.238522989,264111,3498.08092885
4180,4069.7772835,0.239064398,264747,3472.38801648
4190,4141.05764492,0.239609655,265370,3569.49704645
4200,4169.39967828,0.240166887,265998,3397.17920152
4210,4095.15625776,0.240765173,266615,3428.13476709
4220,4294.86147299,0.241299739,267245,3195.24803694
4230,4147.2608269,0.241839437,267875,3458.71833691
4240,4096.38574277,0.242371865,268513,3496.05800166
4250,4195.13859531,0.242944065,269144,3222.98072404
4260,4071.39665856,0.243508567,269764,3409.0142006
4270,4013.5254503,0.244058101,270400,3573.47087546
4280,4075.68038895,0.244609773,271027,3960.5822524
4290,4090.73026301,0.245143056,271659,3561.83122586
4300,3982.7814909,0.245656667,272295,3500.56341407
4310,4060.05464951,0.246185674,272921,3318.9303054
4320,4030.87297222,0.246728793,273556,3436.7047604
4330,4196.95270627,0.247274479,274188,3616.67370059
4340,4122.70225811,0.247830856,274818,3199.42736999
4350,4019.52926288,0.248357296,275441,3509.16819668
4360,4099.44524527,0.248899988,276076,3460.44823876
4370,4092.32481809,0.249423863,276712,3595.16371269
4380,3998.13009719,0.249952014,277341,3183.6724317
4390,4011.84340005,0.250504969,277981,3449.46778485
4400,4115.09213455,0.251062201,278612,3199.80127186
4410,4185.29047153,0.251599333,279249,3541.004558
4420,4211.55490754,0.252153999,279881,3761.31174068
4430,4180.55278911,0.252698401,280518,3971.20899707
4440,4184.14878069,0.253270601,281154,3495.94640983
4450,4066.21655495,0.25379918,281781,3522.75720505
4460,4257.33372329,0.254328187,282416,3083.78272718
4470,4184.23045439,0.254886701,283042,3610.97015146
4480,4209.81129068,0.25542982,283677,3668.30240732
4490,4077.71263047,0.255978927,284307,3427.25030332
4500,4151.85383646,0.256509216,284931,3766.98636812
4510,4136.23910247,0.257030525,285566,3302.79945549
4520,4273.90010385,0.257600586,286187,3831.35165524
4530,4197.88597272,0.258147982,286812,3428.97933136
4540,4089.61722667,0.258686397,287436,3347.29449326
4550,4155.41692823,0.259244056,288084,3576.72331019
4560,4246.67829662,0.259770069,288726,3603.38836712
4570,4204.17683774,0.260292234,289354,3192.24251812
4580,4102.45020223,0.26084134,289975,3226.10931431
4590,4059.53795066,0.261389591,290602,3293.22748018
4600,4139.55851623,0.261928006,291220,3561.85233775
4610,4133.4731545,0.262456158,291845,3670.51999938
4620,4073.57227612,0.26298773,292459,3596.29344039
4630,4170.16272793,0.263532988,293094,3653.73731029
4640,4172.44198477,0.264105188,293738,3660.37577079
4650,4161.60426987,0.264660709,294367,3414.05076944
4660,4291.92643056,0.265222645,295019,3503.66631045
4670,4287.8451773,0.265751651,295650,3758.14177835
4680,4190.7560091,0.266297764,296284,3363.20688867
4690,4256.70060492,0.266831903,296920,3990.64067917
4700,4263.17421812,0.267386569,297546,3244.24360988
4710,4182.16822208,0.267933537,298185,3327.67145462
4720,4180.738546,0.268477939,298819,3583.55467553
4730,4193.98409362,0.269020203,299451,3504.93511077
4740,4089.41421325,0.269574441,300075,3423.45525777
4750,4171.4366921,0.270110718,300696,3829.95273504
4760,4255.38909274,0.270664956,301332,3302.81122997
4770,4310.05792666,0.27122176,301954,3780.07571249
4780,4295.37923339,0.271777709,302580,3779.83194662
4790,4322.98118194,0.272322539,303193,3568.09695912
4800,4331.77718274,0.272868224,303824,3481.27038781
4810,4169.83525256,0.273399797,304455,3272.61679018
4820,4173.82208638,0.273939067,305083,3437.62764305
4830,4218.45935369,0.274481758,305711,3841.92056546
4840,4207.95058071,0.275025304,306333,3861.79197757
4850,4160.7953745,0.275586384,306951,3505.37213521
4860,4195.41112222,0.27617013,307574,3210.27584745
4870,4113.5614319,0.276718809,308203,3508.38230623
4880,4313.99859638,0.277249098,308848,3361.11764317
4890,4232.38442016,0.277814027,309481,3750.35351031
4900,4230.05907541,0.278370404,310111,3460.22349514
4910,4166.26006582,0.278909247,310737,3620.64991237
4920,4174.68288106,0.279445097,311364,3154.5907555
4930,4269.0624516,0.279951865,312005,3525.84755862
4940,4347.09753163,0.280463338,312638,3340.13380547
4950,4190.44377117,0.280975666,313280,3472.48391107
4960,4201.08508291,0.281503817,313911,3808.1854168
4970,4150.24157293,0.282089274,314556,3490.87202303
4980,4324.77823229,0.282631965,315192,3776.39725746
4990,4218.57031494,0.283173374,315816,3608.36571563
