it,funval,time,funcount,weight
0,26094.2233851,0.00185002600028,437,25125.7571427
10,25790.5680081,0.00367439300044,772,25023.2515496
20,26160.7624598,0.00610560000041,1106,27346.2900276
30,26318.0487942,0.00849831800042,1440,26626.0636629
40,26524.2245329,0.0106515500001,1786,25445.6739844
50,26865.0830833,0.0127431999999,2109,25062.5445632
60,27415.6549902,0.0154741910001,2441,26764.5072989
70,27736.8952048,0.0180093170002,2772,28066.7897047
80,27825.3626325,0.0202331119999,3112,25381.3890756
90,27285.5642151,0.0222559109998,3446,26682.2906188
100,27475.8557911,0.0243137759999,3789,26682.2906188
110,27490.2700847,0.0265811910003,4130,27371.1078561
120,27740.6351542,0.0287301469998,4474,26955.153558
130,27881.7536822,0.0309637780001,4812,28115.4074693
140,28181.4834187,0.0334723900005,5143,27467.6915671
150,27899.8935365,0.0358317509999,5478,27672.1117381
160,27753.8256666,0.0383643119994,5801,27415.8490533
170,28054.0029994,0.0409298019995,6138,27173.5624
180,28680.9073493,0.043455091999,6472,27626.7882168
190,28727.9364795,0.0462433889988,6799,28692.2003608
200,28284.9644492,0.0486904189993,7136,28249.7115478
210,28326.624512,0.0512139989996,7476,27650.0587353
220,28452.6675415,0.053619974,7815,27582.9457923
230,28166.3042518,0.0557034989997,8159,27880.4458959
240,27952.0862909,0.0576403389996,8499,26759.8346474
250,28093.182113,0.0601754649997,8830,28346.1039529
260,27903.9271932,0.0623945550005,9184,27773.599877
270,27838.8190575,0.0648762240007,9520,27712.5700143
280,27945.8768684,0.0672625280004,9850,28380.2482195
290,27947.4447261,0.069603500001,10188,27868.3250941
300,28147.6883334,0.0720060540007,10526,27320.7414575
310,27935.4536634,0.074418872,10864,27501.9152764
320,27877.8433141,0.0766178630001,11193,27885.1465945
330,27964.8034675,0.0788412299999,11525,27049.8136543
340,27885.0307254,0.081236942,11854,27772.4364261
350,28018.7901391,0.0837207499999,12197,27324.933148
360,27920.9065105,0.0861947219992,12537,27873.5652
370,27810.7183181,0.0883830219991,12873,27809.3160086
380,28292.1448382,0.0903874309988,13219,27642.7625348
390,28052.9803951,0.0924671069988,13561,27640.4341945
400,27917.887755,0.0947614649986,13898,27733.9734062
410,27548.2561003,0.0972944529985,14233,27357.965428
420,27511.2915609,0.0991915209988,14585,27884.8598143
430,27711.7285178,0.101787800999,14919,27551.0596799
440,28120.4597582,0.104186078998,15250,28479.7901078
450,28253.3251147,0.106621989998,15578,27827.9936924
460,28143.5837584,0.108776505997,15916,27435.9259615
470,28516.1962471,0.111202580997,16249,27912.8978125
480,28662.2521641,0.113579902997,16584,27684.6538088
490,27776.032637,0.115576614997,16910,27907.1357468
500,28016.2242871,0.117787579997,17248,27051.0354227
510,27566.9308299,0.120409519996,17580,27381.4666681
520,27768.5584645,0.122464391996,17907,27829.668273
530,27654.1861739,0.124405080996,18246,27333.3016314
540,27500.1283335,0.126619039997,18579,27036.3363059
550,27629.0729266,0.129140908996,18919,27189.4142661
560,27481.1939578,0.131432272997,19257,27582.6252465
570,27459.0497163,0.133424279998,19585,27489.0976949
580,27591.3722894,0.135544582998,19918,27415.1226858
590,27412.4655823,0.138048490997,20247,27526.7823914
600,27633.2510381,0.140173497996,20590,27545.0279935
610,27669.40218,0.142209125996,20923,27438.4919378
620,27909.9589827,0.144486805996,21255,27647.1862326
630,27839.9814405,0.146386439997,21579,27340.4632039
640,27744.6328527,0.148842022997,21928,28115.0430986
650,27774.7054747,0.151399386998,22264,28111.6414238
660,27696.1400328,0.153907142998,22604,27814.7299912
670,27704.5949698,0.156362725998,22939,27715.5457877
680,27866.8066165,0.158713961998,23272,27414.7396993
690,28094.1252525,0.161123357998,23603,28172.2520011
700,28156.5898026,0.163648220998,23938,28084.5165607
710,27986.7224615,0.166196176998,24278,28014.3972179
720,28246.1778302,0.168608138998,24606,28252.2427958
730,28202.4211007,0.170757094998,24948,28527.5908886
740,28198.4575457,0.173298207998,25286,27689.2125672
750,28467.3996514,0.175505751999,25622,28343.3377197
760,28455.6315547,0.177363903998,25955,28418.1981292
770,28325.369483,0.179575724998,26283,28380.7385969
780,28235.521337,0.181946632998,26626,28138.2745014
790,28208.3471043,0.184350041998,26958,28633.660959
800,28317.7402425,0.186866778999,27303,28606.3657932
810,28577.8912365,0.189573393999,27638,28307.8873036
820,28625.6468009,0.191499969999,27978,28545.4552234
830,28361.4143307,0.194078289,28310,28835.5264777
840,28453.933828,0.196607427999,28644,28705.6779613
850,28407.9453081,0.198853460999,28985,28688.6444086
860,28618.0045838,0.200910470999,29326,28410.0329409
870,28457.1029274,0.203466124999,29669,28335.0050618
880,28383.8155835,0.205856276999,30008,28928.0922616
890,28358.2827803,0.208098460999,30346,28612.6046701
900,28416.9369566,0.211012059999,30666,28708.1431656
910,28380.5777049,0.212838566,31014,28482.9388976
920,28125.9254222,0.214662505,31358,28527.4830022
930,28441.1677263,0.216456937,31692,28877.137075
940,28248.6593366,0.218608458,32028,28302.952739
950,28088.562036,0.221174802999,32363,28530.3524073
960,28185.0788498,0.223268590999,32702,28613.8165818
970,28359.209041,0.225630517999,33021,28191.9816798
980,28323.808232,0.227871846999,33354,28256.1313511
990,28181.0633366,0.230316309999,33685,27974.7715573
1000,28366.6217141,0.233009667998,34019,27801.2837187
1010,28275.8589273,0.235735527998,34343,27983.2243163
1020,28266.6301742,0.238049557998,34668,28224.3472432
1030,28195.9721916,0.240118542998,35005,27888.4304542
1040,28347.8568235,0.242594225998,35358,28730.6400083
1050,28446.4408611,0.244463496997,35689,28886.9563063
1060,28460.0514383,0.246710812997,36014,28150.7969393
1070,28391.2039319,0.249130045997,36354,28331.7317673
1080,28548.9810479,0.251575792998,36695,28436.6029895
1090,28421.4008394,0.253422825998,37029,28084.4999258
1100,28319.7914818,0.255403713999,37359,28283.4918088
1110,28409.6163489,0.257202849999,37681,28139.047527
1120,28614.2919069,0.259583593998,38027,28575.174203
1130,28735.9095868,0.261420363998,38360,28032.053122
1140,28555.3501532,0.263566753998,38693,28358.9576873
1150,28421.1199346,0.266016777998,39017,28866.4886255
1160,28609.7924188,0.268060530998,39353,28800.2319379
1170,28824.4495097,0.270407489998,39688,28675.8348752
1180,28853.1650402,0.273018310999,40014,28926.960482
1190,28730.0103696,0.275249375999,40349,28514.0888067
1200,28914.9454199,0.277580939999,40687,28652.3180221
1210,29318.6580515,0.279956551999,41023,29036.3779116
1220,28702.8878917,0.282337295,41365,29054.2974653
1230,28968.5310302,0.284773633,41709,28786.6205443
1240,29169.8038926,0.287194149,42053,28949.1682363
1250,29245.0719115,0.289353796,42393,29226.0866419
1260,29474.5414999,0.29177816,42728,28775.8048865
1270,29211.3521257,0.294220058,43068,28786.3651814
1280,28913.0419418,0.296692319001,43402,28552.3918429
1290,28903.9625944,0.299408342001,43735,28389.8737892
1300,29057.3214857,0.301810896,44064,29078.605439
1310,28951.1242004,0.304492279,44399,29142.8675449
1320,28686.7781663,0.306703245001,44740,28345.6644651
1330,28653.6180309,0.309522761001,45080,28346.6978945
1340,28668.3531113,0.311513913001,45433,28958.5013939
1350,28734.9384145,0.314581039001,45770,28539.001732
1360,28794.1192964,0.317232059002,46092,28627.5862998
1370,28641.8645879,0.319970320003,46422,28459.128449
1380,28573.0333323,0.322580285003,46755,28368.4538704
1390,28854.3217405,0.324900302004,47088,28336.9842847
1400,28706.0974105,0.327645406003,47423,28548.3531688
1410,28869.8951669,0.333146733004,47754,28254.3877589
1420,28728.6962194,0.335686991003,48086,28524.3929844
1430,28603.0690962,0.337600737003,48428,28579.1640232
1440,28414.1729262,0.340062307002,48762,28621.0472614
1450,28577.7812689,0.342550819002,49099,27682.2326847
1460,28600.2347733,0.345111176002,49425,28183.1894857
1470,28723.3501927,0.346974887002,49749,28848.376901
1480,28811.2585926,0.349465965002,50086,28630.4231121
1490,28860.5980294,0.351301452002,50416,28405.2394504
1500,28945.5051222,0.353238292002,50743,28116.6556188
1510,28433.1980946,0.356001357002,51077,28465.1985862
1520,28250.8575331,0.357856515002,51410,27922.8652582
1530,28738.4075512,0.359815166003,51756,28344.957023
1540,28708.3224731,0.361814443003,52091,27797.6955436
1550,28685.637441,0.364156270003,52427,28539.0839865
1560,28634.900764,0.366967661002,52763,28630.0305106
1570,28656.5847424,0.369530585002,53094,27671.090281
1580,28546.7653285,0.372098640002,53439,28667.9882875
1590,28989.340436,0.374560210003,53785,28549.0564424
1600,28936.8856134,0.376832330003,54124,28411.0329872
1610,28811.3202686,0.379089910002,54471,28640.8569833
1620,29166.9419739,0.381403940002,54806,28161.7139287
1630,29149.6864329,0.383668790002,55151,28150.9517068
1640,29142.3330417,0.385863077002,55483,27808.5116857
1650,28854.4932497,0.388098419002,55830,28742.2800015
1660,28784.4710314,0.390439391002,56167,28518.9112829
1670,29170.328127,0.393144723002,56502,28958.6525678
1680,29034.0155569,0.395717910002,56842,28496.3248222
1690,28857.1078166,0.397922889001,57164,29122.3480249
1700,28943.0146358,0.400171060001,57508,28420.7001913
1710,29151.4752809,0.402378176002,57836,29004.3700372
1720,29203.0934622,0.404470254001,58163,29456.3857599
1730,29262.1793099,0.407031039002,58495,28898.0264127
1740,29116.9641184,0.409248419002,58833,28828.1944481
1750,29145.2283983,0.411461523002,59177,29015.794576
1760,29169.7663811,0.413651106002,59506,29064.5016879
1770,29132.786782,0.415660647002,59843,28966.7806647
1780,29153.9428583,0.417798911002,60173,28968.0770233
1790,28881.716246,0.419914510002,60512,29065.0415402
1800,29018.8373746,0.422299958002,60845,29144.2598492
1810,28916.5164369,0.424469869002,61183,28542.5387085
1820,28757.8073266,0.427098651002,61522,29221.5088103
1830,28963.5116659,0.429750954002,61862,28913.2878759
1840,28971.9602307,0.432309174002,62209,28983.4576179
1850,28971.9602307,0.434282792002,62542,28925.0365469
1860,29233.1358264,0.436803806002,62873,28972.2030511
1870,29155.7708164,0.439034443002,63209,28630.0979565
1880,29176.970552,0.440869074003,63546,29443.1413878
1890,29212.0505965,0.443024445003,63877,28993.6668374
1900,29125.1686854,0.445218732003,64207,29288.1780721
1910,29157.8938598,0.447297553003,64534,29366.8575212
1920,29139.102673,0.449479866003,64866,29052.5515668
1930,29297.2925988,0.451444931004,65201,29441.7711882
1940,29294.0721218,0.453235941003,65529,28798.24981
1950,29428.4290085,0.455709057003,65859,29051.3763274
1960,29218.8201444,0.457650173003,66197,29103.9999131
1970,29103.3448576,0.459840183004,66530,29428.1944252
1980,28995.0517978,0.462134969003,66877,28664.3173575
1990,28942.2368915,0.464060690003,67203,28710.1972397
2000,28969.6417755,0.466101449003,67546,28827.5484927
2010,29013.4234094,0.468133228002,67880,29134.7820918
2020,28976.6046595,0.470614043003,68206,28809.0423243
2030,29063.0998909,0.472706976003,68542,29134.9767251
2040,28984.0541149,0.474788791003,68878,29302.7748445
2050,29081.2361075,0.476801753003,69209,28723.9476652
2060,29156.471747,0.478882712003,69541,29131.6595958
2070,28994.5329371,0.481314347003,69876,29039.2829979
2080,28942.5234946,0.483840492002,70216,28641.186682
2090,29239.4039077,0.486020239002,70539,28969.2272579
2100,28899.1671318,0.488158931002,70870,29046.648226
2110,28812.9584585,0.490554214001,71209,28664.8820909
2120,28976.6158495,0.493106019002,71547,28732.4217455
2130,28876.2689488,0.495618053002,71881,28795.4977026
2140,28919.0137318,0.497675919001,72216,28637.0238953
2150,29186.1546803,0.500133640001,72564,28748.7674679
2160,29090.625041,0.502576821001,72914,29087.9112372
2170,29285.1712522,0.504969966001,73246,28469.9073137
2180,29320.6342937,0.507189912001,73573,28815.3303106
2190,29238.8967112,0.508970231001,73914,28702.2866282
2200,29076.4281948,0.510728312001,74244,28996.0707792
2210,29214.2072768,0.512506921001,74587,28567.8257914
2220,29290.1692449,0.514906054001,74923,28551.6726961
2230,29128.8094978,0.516707328001,75256,28615.8284663
2240,29294.5689944,0.519117580001,75597,29056.0903544
2250,28983.4480569,0.520906880001,75925,29152.9544341
2260,29231.4852047,0.522697035001,76257,28279.9467455
2270,29142.5816481,0.524584694002,76595,28588.702479
2280,29104.8758209,0.526393666002,76927,28790.3100097
2290,28921.577203,0.528456236002,77265,29102.1962065
2300,29249.84717,0.530351594001,77584,29443.2074791
2310,29385.0616245,0.532245668001,77907,29005.3300256
2320,29258.145305,0.534165402001,78246,29053.4121243
2330,29305.0483898,0.536312220001,78582,29294.0492594
2340,29301.5099702,0.538680561001,78926,29377.216359
2350,29229.8295807,0.540826095001,79261,28910.5264911
2360,29322.6870734,0.543192298001,79590,28749.5314085
2370,29205.8870616,0.545595280002,79926,28749.3815089
2380,29114.4287305,0.547795554002,80256,28888.3571086
2390,29182.02459,0.549970169001,80592,28218.9780966
2400,29425.4532783,0.552247848001,80935,29236.4933916
2410,29598.103105,0.554741493001,81278,29243.7321806
2420,29155.9573798,0.55705595,81610,28607.5554805
2430,29180.9279408,0.559060787,81947,28796.5834604
2440,29209.2390877,0.561510383,82293,29428.4545641
2450,29357.1179888,0.563971524999,82627,28734.0558867
2460,29224.7767449,0.566064885999,82967,29387.0186388
2470,29330.2089895,0.568711628999,83297,28772.4666692
2480,29400.8630867,0.571250176999,83631,28895.1141069
2490,29264.0254448,0.573626216998,83969,28914.2179352
2500,29381.6824957,0.576113018999,84280,29220.0407879
2510,29603.2785697,0.578592549999,84607,28749.2033012
2520,29325.3220567,0.580602945999,84937,29256.2278028
2530,29151.0870886,0.583078201,85280,29166.3561629
2540,29504.3515168,0.585460227,85617,28926.4689954
2550,29196.5574159,0.587906829001,85947,28935.1919733
2560,29670.3168615,0.590849509001,86281,29269.5254701
2570,29730.5991819,0.593293117,86613,29488.1383783
2580,29985.7728491,0.595660602999,86929,29037.6142088
2590,29624.295024,0.597719324,87257,29000.0663938
2600,29817.2177227,0.599804558999,87592,29035.4107537
2610,29652.7533138,0.602123720999,87924,29349.4520519
2620,29654.9946665,0.604273959999,88260,29715.6955973
2630,29873.1165776,0.607136667999,88599,28991.5872355
2640,29697.6646169,0.609232594999,88931,29622.5219955
2650,29661.1573373,0.611659097999,89270,29299.3712042
2660,30041.9831444,0.614210047,89608,29719.885957
2670,29906.1366817,0.616761851999,89947,29077.4968795
2680,30171.638427,0.619225987999,90282,29925.9867442
2690,29869.2478081,0.621265464999,90629,29275.7187802
2700,29940.0763692,0.623781346999,90965,29373.649017
2710,30217.8579863,0.626252324999,91293,29602.6032216
2720,30158.7300386,0.628271701999,91634,29179.5405233
2730,30053.7382342,0.630553229998,91961,28889.5132442
2740,30214.9337178,0.633073815998,92299,28995.0831297
2750,30265.7270672,0.635074803998,92640,28849.4702339
2760,30248.716106,0.637015920997,92973,29345.6148195
2770,30068.0896355,0.639013487998,93310,29144.4714218
2780,30263.774755,0.641208630997,93652,29447.7564126
2790,30224.9618506,0.643302846997,93984,29253.5929953
2800,30172.0419535,0.645556577997,94323,29184.2349095
2810,29663.5780933,0.647895839997,94656,28893.8800122
2820,29835.5480793,0.650321486996,94993,28735.2830893
2830,29918.4032103,0.653197452996,95328,28884.5165533
2840,29888.0933403,0.655718038996,95665,28768.36015
2850,29905.1089013,0.658094506996,96007,28956.2076197
2860,29777.5298846,0.660663417996,96337,29059.0702894
2870,29503.24626,0.663050148996,96670,28751.0711694
2880,29334.1638466,0.667572150996,97015,29149.8731161
2890,29672.7882466,0.669975132997,97347,28456.1467323
2900,29686.1341733,0.672375976998,97680,28976.9696135
2910,29801.7080014,0.674350021997,98012,29224.4986908
2920,30183.3604767,0.676405321998,98353,29199.1103701
2930,30223.9702857,0.678637669997,98704,28508.2970888
2940,29933.0565931,0.681079567998,99051,29432.3543558
2950,30007.3339167,0.683143419998,99395,29810.1231474
2960,30120.0400481,0.685565217997,99746,29827.9831934
2970,30130.8193015,0.687559790998,100081,29554.7586672
2980,30150.7404066,0.689960634997,100418,29697.683034
2990,30344.3067272,0.692559481997,100746,29287.3949219
3000,30353.9208166,0.695143360997,101089,29335.4262006
3010,30334.3107377,0.697545914997,101414,29567.5103139
3020,30494.4822685,0.700015610997,101749,29609.828059
3030,30620.865651,0.705897548997,102082,29548.160047
3040,30580.5480138,0.707929754998,102420,29308.7162385
3050,30280.1972822,0.710073150998,102756,29515.7893161
3060,30333.9874963,0.712121607998,103098,29499.0916442
3070,30244.3142138,0.714164933997,103428,29996.7098694
3080,30280.5228615,0.716531564997,103755,29452.5887955
3090,30187.4621279,0.718894346997,104095,29679.7761691
3100,30086.8458231,0.721387134998,104433,29893.1085159
3110,30389.3070595,0.723745212998,104765,29764.8557617
3120,30415.9437199,0.726143917998,105097,29158.8831154
3130,30596.0154506,0.728621310998,105426,29590.0937644
3140,30347.0434263,0.731100841998,105765,29666.985996
3150,30261.4047104,0.733289141999,106093,30095.4696158
3160,30299.0709672,0.735133181999,106428,29566.543138
3170,30226.4600036,0.736941298998,106768,29279.5330694
3180,30022.7482592,0.739125749998,107110,29581.5149834
3190,30362.0052269,0.741347833998,107447,29746.3662074
3200,30132.9698113,0.743681962997,107775,29681.4789605
3210,30208.0509441,0.746028921998,108112,29766.9911697
3220,30265.4758925,0.748572172998,108442,28987.699575
3230,30342.3098021,0.751048282998,108770,29188.8405363
3240,30572.8569406,0.753461527998,109104,29515.2519401
3250,30426.0555195,0.755856811998,109431,29034.9455453
3260,30239.2193024,0.758296998997,109764,29365.7158198
3270,30213.0499901,0.760410031998,110102,29396.1138504
3280,30006.1865751,0.762570106997,110440,29002.158105
3290,29900.4391939,0.764582640998,110782,29261.5731404
3300,30001.4495386,0.766755544998,111117,29399.127268
3310,29963.5342269,0.768768934998,111453,29224.7083694
3320,30213.2193979,0.771245900998,111789,29969.7707627
3330,30209.3536047,0.773728425998,112128,29569.1021729
3340,30428.5816111,0.776269539999,112456,28823.2305662
3350,30240.2394157,0.778703312999,112784,29774.0865683
3360,30088.9914077,0.780823616999,113122,29228.3120605
3370,30161.0538554,0.782804932999,113451,28895.0588045
3380,30370.6581006,0.784818751,113784,29518.7353803
3390,30145.724708,0.786768848,114125,28602.6707139
3400,29911.5612004,0.7892518,114454,29015.8077321
3410,29875.2880886,0.791271604,114788,28956.670591
3420,30147.4624053,0.793852917,115123,29264.965991
3430,29864.7784566,0.79620458,115451,29058.0421161
3440,29904.2163316,0.798669143999,115777,29160.9721734
3450,29847.3366392,0.801180321999,116101,28562.0971057
3460,30202.1680297,0.803684657999,116421,29695.8363709
3470,29889.6254204,0.806148793999,116753,28835.9197288
3480,30052.7658044,0.808619345,117090,28945.9278137
3490,29958.3847164,0.810810638,117422,29482.4006631
3500,29925.7511831,0.812747905999,117747,28536.0375668
3510,30065.8908618,0.815243687999,118085,29284.3424155
3520,29814.3057963,0.817693283999,118421,29124.5891131
3530,29824.0242456,0.820227981999,118762,29202.5079408
3540,30152.9782217,0.822650207999,119098,29038.1770273
3550,29845.9333791,0.825261883999,119437,29001.475049
3560,29527.4123306,0.827311623999,119775,28917.1809707
3570,29705.9025032,0.829748817999,120121,28780.3552064
3580,29875.3007076,0.831734409999,120462,29278.755523
3590,29898.3491282,0.833902182999,120794,29457.0010871
3600,29885.404659,0.836387701998,121138,28616.0859683
3610,29954.3723654,0.838812065998,121467,28463.3916502
3620,29772.2577069,0.841215474999,121800,29114.9074312
3630,29819.5372192,0.843724514999,122141,29007.2011257
3640,29834.334145,0.847259066999,122484,28783.0442828
3650,30018.0694345,0.849316077999,122830,28967.7014283
3660,29968.675966,0.851654912,123164,29189.3433457
3670,29812.0582105,0.854101086999,123506,29146.8567569
3680,29766.9955442,0.856501075,123859,29194.6976103
3690,29711.7360654,0.859044327,124184,28420.6318104
3700,29751.8286536,0.861142392,124523,28906.4382626
3710,29567.7083848,0.863080942,124845,29303.9197948
3720,29536.5890522,0.865042586,125182,28906.6494486
3730,29508.5423752,0.86720095,125519,28996.0623959
3740,29660.0599141,0.869305857,125861,29154.7576125
3750,29495.6952596,0.871306845,126196,29170.7345205
3760,29434.9151513,0.873786376,126534,29213.6431145
3770,29454.3513764,0.876378808,126869,28460.4250251
3780,29456.4761761,0.878816856999,127211,29036.9191246
3790,29797.2842156,0.880978214999,127543,28315.1193252
3800,29800.2219018,0.883636504999,127878,28855.4862984
3810,29830.5107412,0.885607984999,128222,29869.4923529
3820,29692.9461919,0.888261143999,128563,29235.6042958
3830,29875.1151732,0.890202688,128908,29178.4332707
3840,30069.9080242,0.892157916999,129245,29245.6211933
3850,30083.5249104,0.894242724999,129577,29065.9249359
3860,30092.870043,0.896690183,129915,30050.1946045
3870,30676.1542834,0.898805782001,130261,30336.9752856
3880,30626.8797378,0.900699002001,130611,29975.0195908
3890,30598.469126,0.902504980001,130957,30348.8563841
3900,30624.0258027,0.904711242001,131295,29581.2408639
3910,30607.6939685,0.906918358001,131627,29984.7260886
3920,30209.8335882,0.908809439002,131960,30271.7513234
3930,30195.6630727,0.911345421002,132300,29895.5496756
3940,30140.4585123,0.913729158002,132642,29621.7393886
3950,30133.8495984,0.915567210002,132988,29637.8608362
3960,30272.3447993,0.917681098003,133324,29795.0634671
3970,30604.3750227,0.919723996002,133668,29925.9348075
3980,30263.1146456,0.921976871002,134007,29490.384387
3990,29994.2024433,0.924596672001,134355,29550.2528056
4000,30081.2522157,0.926831158001,134692,29349.4615152
4010,30004.8397603,0.929006628001,135018,29756.3368111
4020,30058.3021483,0.931480173001,135351,29649.8199814
4030,30089.1685858,0.933869469001,135690,29431.7763554
4040,30126.8707252,0.936307519001,136018,29244.6081462
4050,30081.539511,0.938712639001,136350,29853.0931204
4060,30047.9298442,0.940636222002,136689,29545.9780003
4070,30058.8560803,0.942425522002,137024,29839.2431575
4080,30580.4637396,0.944954233002,137354,29333.5662102
4090,30275.0147877,0.947292639002,137680,29125.0911885
4100,30128.7808559,0.949752926002,138028,29410.9149061
4110,29853.1905436,0.951944219002,138366,29313.7881758
4120,30220.7178894,0.953768158002,138702,29980.1242936
4130,29867.3951276,0.955809345002,139038,29439.0873618
4140,30256.7439714,0.958040837003,139383,30316.555295
4150,30023.1262639,0.960534053003,139726,29398.4168566
4160,30069.2165371,0.962969536004,140070,29687.8513803
4170,30062.8731261,0.964983781003,140414,29443.5715818
4180,30143.9005358,0.967053193003,140755,29457.3197811
4190,30136.1086434,0.969654606003,141090,29849.2987438
4200,30136.6522906,0.972336418003,141424,29815.0772724
4210,30236.012348,0.974505046003,141769,29809.8134643
4220,30220.9124345,0.976984150003,142114,29997.9929956
4230,30009.5292844,0.979410225003,142452,29637.3525064
4240,29902.9800722,0.981903869002,142776,30013.9204214
4250,30102.1708356,0.984732792002,143102,29386.2488035
4260,30045.4532871,0.987713533002,143431,29303.7074529
4270,30107.4275312,0.990205039002,143767,29080.901139
4280,30139.7503138,0.992016577002,144103,29732.7201507
4290,30387.6666742,0.994476864003,144442,29559.1710182
4300,30409.9429154,0.996842640003,144778,29710.8281306
4310,30026.060578,0.999257596002,145123,29549.1893148
4320,30002.2842491,1.001897497,145459,29150.3928689
4330,29935.4373813,1.003945099,145794,29824.0470147
4340,29868.5450645,1.006342949,146125,29140.8865981
4350,30331.9102468,1.008775011,146466,29222.1939942
4360,30136.5728703,1.010855542,146797,29680.0622736
4370,30387.8871466,1.012785967,147139,29995.6319563
4380,30183.604434,1.015485312,147480,29695.5707836
4390,30545.3083424,1.017852799,147811,29644.724708
4400,30152.9093623,1.019948726,148137,29563.6068997
4410,30318.6071741,1.021932607,148470,29713.6795856
4420,30254.0666971,1.024157685,148808,29876.5667307
4430,30214.1367104,1.026129592,149146,29853.19017
4440,30325.2315711,1.028343551,149478,29516.3795406
4450,29892.2919627,1.03030605,149808,28907.7914259
4460,30079.710254,1.032304045,150142,29340.5754175
4470,29920.8132629,1.034386715,150478,28744.3516592
4480,29888.3755148,1.036305165,150814,29233.8579567
4490,29897.2804407,1.038067095,151152,29161.0318198
4500,29709.1065029,1.040130948,151487,28987.0189523
4510,29825.8796611,1.041906563,151818,29271.7309592
4520,29886.6439135,1.043768564,152160,29747.263954
4530,29832.4992078,1.045578819,152497,29438.4694413
4540,29712.6936633,1.047420292,152833,29392.0835193
4550,29540.3107754,1.049286997,153168,29464.2071335
4560,29659.6574854,1.052056477,153510,29477.6038767
4570,29623.8540746,1.054177207,153838,29539.7767913
4580,29846.7086738,1.055997725,154184,29348.7088149
4590,29675.2549937,1.058336131,154525,29098.5228807
4600,29543.1593555,1.060667695,154863,28682.4415124
4610,29513.0005957,1.063249007,155194,28896.9457645
4620,29921.6943672,1.065859828,155530,28804.1808433
4630,29527.2051193,1.067791109,155861,29010.2395066
4640,29568.3308717,1.070247547,156189,28883.2360741
4650,29598.3192456,1.076251794,156511,28572.0806161
4660,29631.9178263,1.078065898,156848,28918.3192945
4670,29657.0865577,1.07991678,157190,28812.8226785
4680,29627.837965,1.082373645,157521,28956.5636079
4690,29522.7211228,1.084476414,157857,29145.2998759
4700,29665.9375663,1.08648125,158192,29097.6354389
4710,29649.4699604,1.088691787,158513,29203.4437977
4720,29681.0304121,1.090810807,158858,29086.6994888
4730,29585.085503,1.093035458,159189,28940.5194799
4740,29476.9425254,1.095166452,159527,28874.9448675
4750,29733.7695022,1.096955752,159864,28795.6519663
4760,29830.4518964,1.09892295501,160201,28836.0635696
4770,29568.5723033,1.10090213301,160536,28822.9690603
4780,29712.987053,1.10298736901,160876,28955.1032033
4790,29656.0589926,1.10542328001,161210,28779.4935153
4800,29690.8165223,1.10760516501,161553,29352.368062
4810,29801.1426854,1.11010351301,161892,29598.5313623
4820,29733.7893758,1.11258047801,162220,29636.8042455
4830,29662.347245,1.11470933401,162568,29365.2349783
4840,29707.1349481,1.11671502601,162905,29431.1497181
4850,29733.9942159,1.11884003301,163235,29373.0703375
4860,29913.1137282,1.12134436801,163575,29534.8186169
4870,30053.6151464,1.12342746501,163917,29028.6186392
4880,30144.628753,1.12580863701,164257,29710.9725539
4890,30220.845993,1.12819237401,164591,29626.8606198
4900,30251.148149,1.13073006601,164928,29845.0498708
4910,29992.0515761,1.13324808601,165256,29619.6179521
4920,29756.2295748,1.13535085501,165588,29340.2082879
4930,29786.6247379,1.13753145801,165927,29568.2551279
4940,29911.0517956,1.13968383501,166268,29095.4363207
4950,29759.7180177,1.14169594201,166612,29773.7780143
4960,29763.2820601,1.14373627401,166941,29989.9118227
4970,29926.9925073,1.14570219401,167276,29713.5784347
4980,29926.9119058,1.14812698601,167611,29482.1129603
4990,29771.2294271,1.15064115701,167946,29651.1763547
