it,funval,time,funcount,weight
0,3393.87035189,0.000391301999997,587,3038.43692154
10,3418.46755303,0.000775762000018,1087,2593.00318018
20,3603.18579166,0.00117690100004,1574,3145.37789652
30,3622.49143421,0.00155708500003,2057,3188.5179797
40,3847.01224865,0.00193812400002,2536,2932.07918765
50,3806.8687094,0.00232215700004,3019,3124.92185953
60,3786.35822934,0.00270362300006,3506,3610.60546372
70,3815.41116186,0.00489149500007,3985,3388.91916385
80,3840.3476153,0.00529691000006,4471,3334.75737753
90,3936.31256948,0.00570360700004,4960,3289.43905402
100,4042.4504425,0.00613125900003,5455,3362.62668225
110,4042.70470144,0.00654608300002,5942,3370.82166126
120,3977.44489933,0.00693268100002,6425,2974.259559
130,4017.63108482,0.00735135300002,6905,3780.37297622
140,4133.86696813,0.00776959700002,7387,3217.44365209
150,4196.84146767,0.00817843300001,7873,3194.27238238
160,4142.54339801,0.00858470400001,8357,3773.64017013
170,4104.16448037,0.00901321200001,8835,3406.12063858
180,4306.75272476,0.00944000999999,9318,3784.35921303
190,4188.29549556,0.009850984,9803,3454.62377899
200,4170.92874081,0.010260676,10292,3466.38165243
210,4090.40815799,0.010662242,10778,3574.43937978
220,4162.34544255,0.011071506,11261,3093.38963004
230,4149.69095813,0.011469223,11755,3468.29842347
240,4198.36494357,0.011917403,12222,2988.25746442
250,4147.44052832,0.012317686,12710,3611.26059343
260,4131.73532078,0.0127136930001,13188,3777.99715498
270,4099.09652834,0.013129372,13669,3618.78224387
280,4208.79988391,0.013557452,14127,3524.83843664
290,4085.16358453,0.013965432,14616,3610.31889292
300,4180.44998761,0.014366571,15105,3621.11496279
310,4236.15684176,0.014793797,15580,3181.52804425
320,4185.37534048,0.015239839,16061,3509.31536749
330,4155.31700403,0.0157192380001,16540,3583.68446369
340,4318.55780912,0.016149029,17031,3686.44638546
350,4261.86418951,0.016554016,17508,3361.49638643
360,4304.54004658,0.016946602,17982,3244.10128854
370,4262.72690998,0.01733876,18469,3039.40003793
380,4231.96511354,0.017748024,18955,2932.18047586
390,4183.50978551,0.018152156,19440,3344.42397853
400,4246.60594339,0.01855586,19917,3664.24268745
410,4232.94558601,0.018966406,20404,3534.38860116
420,4219.31073983,0.019378663,20884,3493.296848
430,4162.40729586,0.01978365,21362,3618.70096501
440,4262.77617453,0.020226271,21838,3410.42075312
450,4160.02529614,0.0206517859999,22321,3611.15656309
460,4341.37322654,0.0210721689999,22795,3576.51113094
470,4230.21903802,0.0214698869999,23280,3803.31389224
480,4193.64433801,0.0218616169999,23781,3621.05637475
490,4203.2101391,0.0222811439999,24273,3778.92342085
500,4188.11294802,0.022680999,24759,3512.89935739
510,4299.80725724,0.0230838479999,25237,3192.60017355
520,4268.33782591,0.0234708739999,25720,3639.23793394
530,4176.70588485,0.0238587549999,26204,3249.49596643
540,4174.07149903,0.0242983819999,26677,3389.86813023
550,4266.68029656,0.0247936039999,27162,3203.01147887
560,4229.04878012,0.0252319479999,27650,3878.23101496
570,4298.07281917,0.0282297949999,28127,3566.12685938
580,4195.63556747,0.0286382039999,28603,3609.6614442
590,4306.15385456,0.029038487,29078,3985.16045343
600,4231.72844279,0.0294515989999,29560,3575.33787066
610,4241.00837398,0.0298788239999,30049,3582.80873971
620,4204.6244031,0.0302722649999,30536,3310.11128924
630,4204.6244031,0.0306605739999,31028,3552.72202737
640,4107.21813282,0.0310565809999,31520,3233.24086174
650,4190.47294479,0.0314466,32005,3265.52409848
660,4117.39945165,0.031869976,32484,3506.34021041
670,4093.54846356,0.032296774,32984,3599.47214831
680,4178.53069714,0.032696202,33474,3632.85434451
690,4112.33388677,0.033090497,33958,3498.44436554
700,4155.77669626,0.033527559,34427,3781.6520708
710,4193.20759203,0.033974028,34898,3354.61896124
720,4193.20759203,0.034369607,35377,3659.83711643
730,4251.49106831,0.034763048,35856,3265.03994569
740,4256.32289437,0.03518001,36331,3845.11641104
750,4224.35502045,0.035585852,36807,3510.42075414
760,4189.79677198,0.036002385,37299,3611.21603059
770,4240.74151201,0.036393259,37776,3330.95128965
780,4209.96797519,0.036787127,38254,3892.64042086
790,4332.60790972,0.037219912,38729,3514.20055179
800,4244.91092092,0.037644999,39221,3228.94041368
810,4220.3382911,0.038063671,39703,3759.90946536
820,4185.21570866,0.03845754,40197,3107.05445534
830,4320.80148942,0.039137936,40675,3472.14675909
840,4250.22597043,0.039536081,41161,3914.32870014
850,4286.24005592,0.039971859,41653,3808.0138628
860,4158.01323384,0.040375136,42138,3564.43480676
870,4276.91010058,0.040768149,42622,3773.07276852
880,4248.96868696,0.041176129,43120,3814.69207253
890,4215.58158857,0.041585393,43598,3599.45168112
900,4195.59252083,0.042005348,44072,3526.3644454
910,4138.8628732,0.042421026,44562,3382.09713967
920,4068.15753943,0.042827724,45041,3817.44692432
930,4088.45327422,0.043245541,45499,3475.6226675
940,4105.54816132,0.043674904,45979,3546.54886331
950,4058.03446425,0.044099135,46467,3439.10139432
960,4057.54166347,0.044495997,46938,3506.98818229
970,4002.46851772,0.044924506,47410,3554.5482821
980,4112.68908722,0.04534104,47899,3895.0927785
990,4161.9007244,0.045805044,48391,3810.03938057
1000,4285.82589142,0.046227565,48872,3345.89119038
1010,4167.80621983,0.046636402,49354,3590.40368951
1020,4145.66654016,0.0470456659999,49829,3652.92167032
1030,4092.30796537,0.0474545019999,50315,3625.7665597
1040,4109.46621716,0.0478611999999,50800,3487.25299175
1050,3943.33676148,0.0482606279999,51282,3637.62588854
1060,3978.51482637,0.0486703199999,51757,3526.26154956
1070,3930.21322559,0.0490804389999,52245,3416.1734912
1080,4060.74683886,0.0494884199999,52728,3465.01528545
1090,4070.81562413,0.0520124279999,53221,3333.28358005
1100,4126.65017259,0.0524285349999,53709,3652.87622245
1110,4008.86925029,0.0528322389999,54204,3665.40850878
1120,4098.55802922,0.0532722939999,54683,3565.90136024
1130,4119.55063689,0.0536794199999,55174,3437.9394618
1140,4080.06463246,0.0540886839999,55666,3746.03865333
1150,4126.87873552,0.0544979469999,56151,3630.89216818
1160,4135.08828447,0.0549029339999,56645,3413.33987207
1170,4169.37262161,0.0553006509999,57123,3469.63988969
1180,4078.48088751,0.0556881039999,57608,3547.59089765
1190,4029.38405578,0.0560729909999,58093,3559.27040438
1200,4143.00501291,0.0564831099999,58570,3870.69661091
1210,4132.50191923,0.0569026379999,59044,3387.9451158
1220,4059.18832176,0.0572930849999,59520,3393.83693167
1230,4221.0992981,0.0576890909999,60008,3477.93859349
1240,4182.76899211,0.0580902289999,60478,3625.55262075
1250,4121.67302827,0.0585332769999,60965,3169.26218702
1260,4102.11368587,0.0589348429999,61439,3543.84862355
1270,4207.80773236,0.0593428239999,61922,3383.90292502
1280,4059.334525,0.0597435349999,62404,3353.54812722
1290,4189.14217579,0.0601532269999,62890,3552.46925403
1300,4177.89320054,0.0605817359999,63379,3858.55539997
1310,4135.69280413,0.0609931379999,63853,3524.13644515
1320,3975.44719203,0.0614006909999,64342,3428.54337824
1330,4037.68272729,0.0618270609999,64831,3258.20276134
1340,4052.54153729,0.0622440219999,65312,3899.62126027
1350,4138.97926985,0.0626567069999,65784,3763.53741958
1360,4086.67726537,0.0630638319999,66268,3769.41440638
1370,4097.10856651,0.0634709579999,66753,3752.00895476
1380,4085.09447367,0.0638981829999,67226,3317.03292026
1390,4182.63268339,0.0643185659999,67717,3370.85249382
1400,4132.01243199,0.0647239809999,68201,3455.39027592
1410,4119.99781109,0.0651426539999,68686,3620.72788543
1420,4131.73521753,0.0655463589999,69168,3741.84265426
1430,4073.67731365,0.0659577609999,69648,4059.98457058
1440,4065.73617491,0.0663601829999,70126,3526.11800382
1450,4088.34541648,0.0667613209999,70599,3228.62115758
1460,4057.72738975,0.0671774269998,71080,3577.96575669
1470,4081.19104192,0.0676059349998,71554,3666.60403093
1480,4055.56893455,0.0680583909999,72038,3680.81890553
1490,3998.38263649,0.0685027229999,72513,3544.93162619
1500,4178.16586425,0.0689355079998,72991,3488.8668251
1510,4179.64520548,0.0693417779998,73467,3076.16752115
1520,4164.85726446,0.0697501859998,73953,3453.58862595
1530,4204.51841468,0.0701585949998,74438,3592.63070314
1540,4183.52967452,0.0705631549998,74924,3588.37462285
1550,4165.59686056,0.0709762669998,75403,3708.99527821
1560,4036.7325877,0.0713846759999,75896,3787.6334529
1570,4146.05349194,0.0718144669999,76381,3382.75423836
1580,4166.64315328,0.0722203089998,76853,3234.65625266
1590,4195.07938228,0.0726218749998,77330,3260.70822751
1600,4090.97734776,0.0730388369998,77807,3651.5964676
1610,4023.73135839,0.0734622129999,78289,3476.69724437
1620,3963.86604267,0.0738855889998,78773,3192.88244872
1630,4071.61782414,0.0762830109998,79249,3585.03820673
1640,3944.9657006,0.0767179339998,79736,3354.80917784
1650,4122.99116645,0.0771494359998,80222,3151.59338607
1660,4059.17667773,0.0775574169998,80709,3359.75969137
1670,4123.98883621,0.0779880629999,81192,3585.87697924
1680,4064.96516737,0.0783986099998,81664,3548.01102936
1690,3998.05463942,0.0788177099998,82135,3780.47536178
1700,3874.62333152,0.0792475009998,82616,3797.5801331
1710,3915.31184584,0.0796554819998,83100,3728.40346971
1720,3742.0357313,0.0800506329998,83578,3653.34362231
1730,3739.58193739,0.0804731539998,84076,3770.79297131
1740,3849.94366565,0.0808670219998,84563,3229.26379677
1750,3886.90488361,0.0812762849998,85050,3524.98608107
1760,3899.07485051,0.0816834109998,85538,3471.40281415
1770,3914.32035844,0.0821127739998,86022,3825.81772709
1780,3888.20500616,0.0825258869998,86502,3810.70473657
1790,3893.90509943,0.0829278809998,86986,3435.82942187
1800,3951.04763238,0.0833358619998,87460,3706.70773953
1810,3916.74115843,0.0837446979999,87928,3533.79897965
1820,3849.91387433,0.0841548169999,88410,2838.20117018
1830,3775.14191545,0.0845858909999,88878,3441.05523195
1840,3795.65850342,0.0850178199999,89371,3550.32353541
1850,4030.51569363,0.0854236629999,89861,3432.12218975
1860,3950.13791884,0.0858299329999,90363,3565.05652252
1870,3967.32249617,0.0862357759999,90843,3631.39322379
1880,3949.36438109,0.0866689879999,91327,3673.99188254
1890,3815.33028677,0.0870773969999,91814,3669.18567518
1900,3854.44914719,0.0874836669999,92302,3545.94330264
1910,3858.44477164,0.0878830949999,92794,3628.14377961
1920,3862.25896777,0.0882940689999,93264,3520.87191385
1930,3925.7572632,0.0887388279999,93745,3270.14518909
1940,3952.46850177,0.0891485189999,94227,3929.96873295
1950,3969.21156578,0.0895560719999,94715,3598.35524073
1960,3863.17310434,0.0899777379999,95197,3740.13259146
1970,3993.12715676,0.0903835809999,95686,3400.57615297
1980,3884.62172536,0.0908330439999,96155,3342.90085542
1990,3867.03628427,0.0912688229999,96641,3647.41237744
2000,3996.76797287,0.0917071679999,97121,3515.31332681
2010,4027.41527673,0.0921147219999,97593,3671.46660362
2020,4109.68567123,0.0925239859999,98076,3583.09290853
2030,4089.69372042,0.0929546329999,98558,3817.39979631
2040,4107.66542153,0.0933613309999,99041,3990.37182921
2050,4065.13415315,0.0937705949999,99543,3854.70071317
2060,3994.39080181,0.0942153539999,100016,3501.98411921
2070,4070.34755645,0.0946271829999,100477,3309.80621309
2080,4005.84709748,0.0950432889999,100963,3751.82790461
2090,4154.15933107,0.0954615329999,101452,3713.47702882
2100,3948.35605434,0.09586823,101945,3213.21608781
2110,3968.69792765,0.0962591049999,102445,3482.90170272
2120,4036.22083778,0.096672645,102922,3412.33676512
2130,3962.19412557,0.0970677959999,103396,3630.63957635
2140,4002.8989333,0.097480909,103878,3539.47972471
2150,4005.39638162,0.097888034,104365,3651.38762976
2160,4035.38160145,0.100249106,104853,3618.47726476
2170,4015.4704458,0.100661364,105336,3562.81646205
2180,3970.77710275,0.101071483,105820,3766.76745385
2190,3992.5745456,0.101470056,106317,3608.59675235
2200,4057.00170536,0.101879319,106800,3590.43826398
2210,3946.04856158,0.102286445,107277,3755.95289295
2220,4029.67245653,0.102673899,107744,3359.6473467
2230,4020.71798461,0.103070761,108239,3590.13483305
2240,4034.50566497,0.103456504,108728,3352.58800558
2250,4003.98744405,0.103839253,109217,3497.4331543
2260,3930.62906515,0.104252793,109700,3536.41578265
2270,3908.55402268,0.104640246,110197,3650.59843229
2280,3866.48820885,0.105056352,110674,3402.63413095
2290,3921.98487808,0.105695266,111149,3583.53501186
2300,3959.50735435,0.106093411,111653,3347.889005
2310,3840.8300872,0.106482575,112143,3381.87941937
2320,3907.16619767,0.106902958,112635,3354.16576795
2330,3768.29598718,0.1076351,113127,3605.33057879
2340,3922.93184518,0.10802127,113619,3469.18130796
2350,3930.46827291,0.108425829,114091,3413.09733623
2360,3924.74332742,0.10880088,114569,3616.75391823
2370,3976.24317109,0.109226395,115049,3079.34725681
2380,3863.60892073,0.109651482,115540,3484.54688889
2390,3945.5540351,0.110054331,116014,3444.78022229
2400,3970.00659768,0.11044991,116497,3664.88063064
2410,4014.16961199,0.110884832,116965,3701.86197134
2420,4036.88289897,0.111358244,117454,3435.28678414
2430,3993.90382859,0.111791884,117949,3804.10080094
2440,4035.48578018,0.112202859,118446,3945.01145531
2450,4087.47070592,0.112606564,118925,3500.27462815
2460,4066.4314005,0.113032079,119398,3467.16658832
2470,4151.17477126,0.1134546,119882,3572.26662126
2480,4023.90545859,0.113874555,120371,3558.3537824
2490,3943.7440172,0.114269707,120863,3618.97021682
2500,3914.471309,0.11467726,121339,3832.17327082
2510,3941.71436716,0.115066852,121830,3257.32840728
2520,3892.64059195,0.115454306,122306,3646.52077134
2530,3915.79338599,0.115842615,122794,3341.58101055
2540,3907.81025045,0.116251879,123283,3747.07141234
2550,4113.06804872,0.116664564,123760,3267.64781993
2560,3985.68086493,0.117100342,124247,3615.03460454
2570,4000.64554553,0.117509178,124734,3312.22280526
2580,3945.03809623,0.117906467,125218,3807.65923224
2590,3972.82151383,0.118317869,125699,3433.30548834
2600,4038.19768793,0.118748516,126181,3648.31647045
2610,4136.65803214,0.119194558,126668,3688.74425773
2620,4120.64217601,0.119600401,127157,3620.30348533
2630,4018.42743792,0.120019073,127632,3591.26226525
2640,4075.9660576,0.120422778,128110,3391.69914688
2650,4048.19754751,0.120823061,128597,3523.04268902
2660,4031.67217622,0.121212653,129098,3680.8829997
2670,4057.08324801,0.121601817,129593,3545.95502453
2680,4138.35213096,0.12199312,130067,3559.61159514
2690,4107.22595929,0.122412647,130544,3678.39089807
2700,4003.15505437,0.122808226,131016,3502.6604863
2710,4106.40294334,0.125572575,131482,3691.83843792
2720,4020.94255682,0.125974569,131962,3414.44690866
2730,4170.47389355,0.126371004,132440,3316.15680522
2740,4136.91161909,0.126790104,132917,3451.28885192
2750,4051.75048519,0.127201079,133402,3591.82494329
2760,4103.12808546,0.127599223,133882,3570.07611799
2770,4132.59552791,0.128024737,134371,3829.99274207
2780,4216.71549831,0.128478049,134844,3726.2869061
2790,4157.71831546,0.128888168,135327,3597.41053999
2800,4097.32085508,0.129296577,135823,3365.31225197
2810,4134.09793943,0.129723375,136298,3917.58655848
2820,4019.40574287,0.130126651,136781,3832.33681306
2830,4049.07826013,0.13053506,137267,3374.76344341
2840,4051.69743694,0.130993076,137743,3595.69193943
2850,4098.81616353,0.131426716,138218,3718.62137121
2860,4111.6007279,0.131837263,138703,3534.28292671
2870,4115.57981919,0.132250376,139186,3814.59271484
2880,4049.24559229,0.132665627,139665,3750.75376382
2890,4031.14062863,0.133079167,140149,3707.00047502
2900,4063.42621529,0.133489714,140625,3511.24935629
2910,4069.4778855,0.133897267,141111,3604.81435606
2920,4064.2172158,0.134286859,141584,3870.98659307
2930,4115.40032948,0.134681155,142065,3698.98692884
2940,4012.60024201,0.135080155,142545,3663.60162903
2950,4138.59446942,0.135477017,143033,3481.65875352
2960,4204.50715242,0.135873879,143508,3614.4817756
2970,4199.87760395,0.136381075,143987,3432.27228438
2980,4240.25086134,0.136774515,144469,3698.00065536
2990,4177.97410533,0.137168383,144944,3662.0892957
3000,4175.83448241,0.137599457,145443,3855.91344714
3010,4171.62137453,0.138015991,145932,3387.60531642
3020,4178.90996869,0.138430814,146416,3181.18349384
3030,4221.44183218,0.138847776,146903,3689.10728677
3040,4144.40272927,0.139252335,147388,3659.09139237
3050,4155.55530633,0.139662882,147869,3391.41220495
3060,4203.14300814,0.140065731,148367,3497.81297573
3070,4170.12096904,0.140463876,148850,3549.49279374
3080,4168.85210862,0.140918471,149332,3751.43789135
3090,4256.35326749,0.141356388,149819,3450.37587007
3100,4181.27907096,0.141764369,150292,3793.2270911
3110,4176.21235526,0.142186035,150773,3417.12621729
3120,4023.2563551,0.142616682,151259,3613.00055398
3130,3977.3133625,0.143038347,151755,3371.26503651
3140,3961.06796708,0.143430505,152239,3647.43557587
3150,4022.60294193,0.143829932,152715,3403.91172833
3160,4062.73189668,0.144231926,153206,3752.47397994
3170,4095.81355835,0.144636913,153683,3722.63477382
3180,4166.08104443,0.145037196,154166,3577.55935274
3190,4309.07357586,0.14544817,154654,3574.48875898
3200,4158.55501213,0.14586,155136,3544.53565967
3210,4183.11751493,0.146283804,155613,3107.06203385
3220,4151.06398944,0.146725569,156095,3577.75979094
3230,4046.50894554,0.147137826,156574,3866.48181027
3240,4104.64411513,0.147552222,157060,3283.5780565
3250,4112.17928303,0.14986839,157530,3561.65892992
3260,4200.42462732,0.150333248,157994,3826.32900885
3270,4159.80423812,0.150736953,158474,3452.81829569
3280,4199.18835985,0.151144506,158964,3647.45843744
3290,4285.18565107,0.15155377,159443,3396.48462882
3300,4103.85315204,0.151957047,159942,3643.15751885
3310,4140.37120294,0.152366739,160432,3638.08663757
3320,4162.19781697,0.152793964,160915,3591.16219776
3330,4054.53900213,0.153213919,161389,3513.51629976
3340,4170.20738094,0.153623183,161853,3531.45428989
3350,4109.26064729,0.154030737,162326,3643.41248468
3360,4141.31484671,0.15443829,162801,3485.41681719
3370,4103.97659069,0.154838146,163281,3383.33952275
3380,4121.65634458,0.155233725,163762,3561.44370783
3390,4151.16535175,0.155664371,164253,3567.69804673
3400,4081.25351888,0.156056956,164731,3712.84420028
3410,4215.47367401,0.156454246,165224,3492.53594626
3420,4165.35964259,0.156886176,165712,3390.8140565
3430,4187.98720767,0.157310835,166194,3582.66118168
3440,4229.70708704,0.157714967,166688,3679.86399947
3450,4029.87804828,0.158437272,167170,3754.67088994
3460,4093.66646315,0.158846536,167646,3623.49443379
3470,4139.44124727,0.159244253,168112,3440.9715561
3480,4008.30256825,0.159656082,168593,3880.47569237
3490,4208.72099781,0.160070905,169068,3334.15529883
3500,4060.9178301,0.160488722,169556,3132.76985314
3510,4042.67641564,0.160909533,170039,3267.69587409
3520,4056.32043183,0.161315375,170518,3758.83358583
3530,4021.27926948,0.161711381,171005,3361.77387108
3540,4042.58606169,0.162119362,171486,3678.60317861
3550,3869.58793955,0.162528198,171968,3330.00800392
3560,3929.74821496,0.162946442,172452,3454.00816816
3570,3944.89523275,0.163361265,172946,3267.78786403
3580,3943.60086979,0.163785069,173416,3027.8144868
3590,4021.52765158,0.164225124,173911,3387.45662373
3600,3993.55782611,0.164632678,174396,3516.52665116
3610,3964.57112721,0.165045363,174877,3446.61850463
3620,4065.90356187,0.165460186,175372,3109.25370179
3630,4079.56083782,0.165891688,175857,3581.08705861
3640,4105.64965024,0.166309505,176328,3811.14939204
3650,4033.6234792,0.166719624,176800,3704.40850705
3660,4065.44651372,0.167140435,177276,3482.94361984
3670,4061.27201182,0.167538152,177744,3610.41807287
3680,4009.38030003,0.167941856,178213,3513.13097583
3690,4166.5798443,0.168381483,178700,3645.44570597
3700,4259.90769578,0.168840355,179175,3329.39956509
3710,4194.68503035,0.169257317,179669,3453.8305094
3720,4176.07097702,0.169684542,180147,3779.13823952
3730,4265.75322137,0.170097227,180641,3538.98384936
3740,3997.28720318,0.17052659,181129,3487.13679987
3750,4080.61539464,0.170959374,181618,3109.12092143
3760,4092.84715331,0.171371632,182112,3634.69593257
3770,4130.98911824,0.171784317,182595,3482.77549887
3780,4051.05045271,0.172229503,183081,3833.17960106
3790,4057.25085084,0.174558928,183563,3367.47354437
3800,4005.11241208,0.174950658,184046,3662.39885494
3810,4103.55115552,0.175353079,184529,3525.62819394
3820,4102.31263138,0.175756783,185016,3755.18982763
3830,4069.62368886,0.176162198,185492,3572.69264547
3840,4079.02530587,0.176587285,185971,3202.36893991
3850,4103.98434713,0.177020498,186462,3523.10580505
3860,4108.40590795,0.177425486,186938,3813.87038354
3870,4042.66270351,0.177830474,187417,3461.85427833
3880,4046.73419546,0.178237172,187904,3751.12282121
3890,4081.00458294,0.178673806,188388,3682.35471643
3900,4023.79437147,0.179088629,188865,3535.69233095
3910,4226.14303837,0.179507301,189358,3865.89534669
3920,4090.61144535,0.179937092,189846,3630.4821765
3930,4034.84933786,0.180363462,190331,3587.47951164
3940,4143.43477561,0.180774436,190801,3612.04118037
3950,4128.80994591,0.181187121,191294,3835.52644811
3960,4118.44251515,0.181593392,191784,3685.84363524
3970,4114.63534501,0.181990254,192272,3668.06335371
3980,4132.20440032,0.182381984,192753,3500.07958052
3990,4161.82251027,0.183002509,193233,3443.03499656
4000,4114.78464028,0.183401081,193713,3657.0758401
4010,4114.78464028,0.183787251,194212,3567.02278635
4020,4017.27936021,0.184174704,194702,3413.44279911
4030,3965.64172842,0.184596797,195174,3626.1415861
4040,4088.2097044,0.184988099,195655,3305.79668336
4050,4173.59967273,0.185386672,196136,3860.72248671
4060,4143.96202932,0.18579508,196629,3578.4932512
4070,4084.4973806,0.186206482,197119,3386.90285532
4080,4137.01558037,0.186637557,197613,3687.74685501
4090,4104.59455738,0.187045538,198102,3666.90075628
4100,4209.40448073,0.187524937,198592,3584.09199892
4110,4244.11173818,0.18793805,199081,3872.63541187
4120,4234.24571927,0.188347314,199566,3621.45930384
4130,4142.24956368,0.188765558,200070,3858.68876402
4140,4119.21789859,0.189183375,200567,3343.02354752
4150,4016.38032998,0.189599909,201043,3452.7615702
4160,4102.68915537,0.19001687,201519,3099.52270998
4170,4021.8121766,0.190440674,202004,3460.69864799
4180,3972.1695351,0.190863195,202496,3437.74184208
4190,4021.86530801,0.191280157,202983,3488.17044149
4200,4213.2996552,0.191690704,203470,3790.61895933
4210,4101.73193067,0.192124772,203948,3446.46671754
4220,4277.51881436,0.192537885,204445,3561.82161537
4230,4264.05394975,0.192959979,204926,3722.21776861
4240,4230.405403,0.193372236,205411,3480.8651281
4250,4278.55750772,0.193787487,205891,3531.89424972
4260,4144.24157906,0.19419504,206377,3706.0449743
4270,4081.32532251,0.194612857,206868,3707.64637099
4280,4021.18847405,0.19503495,207353,3737.28709804
4290,4161.46599627,0.195442076,207833,3824.30312274
4300,4149.77215854,0.195850912,208315,3316.4099792
4310,4076.10377537,0.196253761,208801,3675.4690702
4320,4098.10831827,0.19665661,209277,3517.93725647
4330,4127.90400269,0.198843199,209769,3420.56347676
4340,4191.15592993,0.199249042,210248,3506.71663769
4350,4088.92503343,0.199647614,210737,3342.54143993
4360,4204.99075013,0.200038489,211215,3776.87095956
4370,4078.40695988,0.200446043,211696,3491.33899189
4380,4085.70146005,0.200851458,212183,3955.49368577
4390,4095.15514714,0.201274834,212665,3585.69186067
4400,4196.06220663,0.201679394,213153,3615.58650372
4410,4155.30519151,0.202079677,213647,3561.52014961
4420,4032.41287528,0.202487658,214135,3257.50947723
4430,4107.30678871,0.202889224,214617,3537.44716831
4440,4084.26685164,0.203312172,215102,3784.68152106
4450,4126.55988041,0.203753082,215588,3521.30307156
4460,4072.72815784,0.20418159,216066,3802.87088237
4470,4195.93093177,0.20458786,216553,3704.28597578
4480,4111.28691774,0.205007815,217042,3736.58411719
4490,4136.55353878,0.20544787,217527,3704.13878275
4500,4196.30695435,0.205884504,218010,3795.42878629
4510,4218.90145762,0.206353212,218506,3608.69683962
4520,4155.07585457,0.206807379,218979,3753.0427051
4530,4081.84157952,0.207232893,219464,3637.96573582
4540,3958.38178,0.20763617,219954,3563.74989652
4550,3983.20127554,0.208073232,220433,3769.56678753
4560,3945.89576788,0.208467956,220909,3307.90346641
4570,4126.5808899,0.208869094,221382,3577.41190196
4580,4095.87908351,0.209269805,221870,3506.63163286
4590,4116.37924168,0.209694464,222338,3805.15219065
4600,3958.08737108,0.210120407,222824,3399.53075913
4610,3935.23891064,0.210523684,223308,3228.00666033
4620,4002.36397898,0.210925678,223791,3308.68270822
4630,3919.61246739,0.211342212,224293,3860.43461815
4640,4045.61810193,0.211771576,224768,3501.87862931
4650,4006.15514908,0.21216801,225262,3857.14232039
4660,4035.29689175,0.212560595,225753,3438.68386674
4670,4100.44920869,0.212993807,226236,3367.20014416
4680,4043.01105207,0.213425308,226716,3250.55388046
4690,4103.10492372,0.213836283,227193,3280.13663072
4700,4256.96115239,0.214261798,227665,3478.42948322
4710,4115.54532038,0.214677904,228150,3609.59998251
4720,4063.94389052,0.215091017,228636,3637.32024734
4730,4104.59619699,0.215504985,229122,3546.82440844
4740,3961.50816117,0.215913394,229612,3575.90166584
4750,4068.08808473,0.216326506,230097,3464.48125784
4760,4088.06155296,0.216734914,230591,3713.50007047
4770,4163.01535018,0.217187798,231070,3721.89352652
4780,4053.98906986,0.21763384,231561,3643.87281395
4790,4018.15294528,0.218038399,232044,3107.22542726
4800,4024.64541783,0.218478026,232538,3830.26743933
4810,4035.99157229,0.218903113,233016,3450.67974883
4820,3952.55062987,0.219344023,233500,3549.2154043
4830,3924.28383756,0.219759702,233990,3707.74154876
4840,3967.90775057,0.220171532,234480,3660.31820295
4850,3928.41305205,0.222734028,234966,3950.5124454
4860,3973.53672021,0.223179215,235449,3714.73203682
4870,4007.12000778,0.223593183,235934,3705.46978506
4880,3980.14705847,0.224044784,236416,3579.48347012
4890,3711.45087345,0.224456614,236902,3173.1336915
4900,3785.18533312,0.224850483,237399,3237.71423102
4910,3899.59770204,0.225244779,237875,3450.52391766
4920,3919.96487961,0.225680129,238341,2977.52367099
4930,3891.03730713,0.226077846,238825,3571.57236018
4940,3900.74229616,0.226482833,239305,3138.87521379
4950,4054.11558552,0.226904926,239792,3368.29057603
4960,4075.56064909,0.22733429,240267,3463.34603521
4970,4029.89927112,0.227767074,240751,3514.14771968
4980,4055.279394,0.22817591,241229,3531.1866534
4990,4076.44397944,0.22860399,241718,3697.77767437
