it,funval,time,funcount,weight
0,11650.0128258,1.66790000549e-05,10,11425.0576424
10,11887.5994743,3.46410001839e-05,21,11550.2450208
20,12105.371583,5.30310003342e-05,32,11643.0233037
30,12348.5405955,7.1421000257e-05,43,11829.3812371
40,12714.904979,8.93830003861e-05,54,12027.2495553
50,12780.2953922,0.00010777200032,65,12180.6075874
60,12891.9113096,0.00012829900038,76,12233.0557163
70,12893.3654478,0.000147115000345,87,12282.6793556
80,12997.4055274,0.000165076000258,98,12386.6471514
90,13137.3523858,0.000182610000138,109,12528.1473241
100,13209.0473798,0.000200571000278,120,12598.5640476
110,13517.1446944,0.000218105000158,131,12767.8709126
120,13566.7688223,0.000235211000245,142,12786.554662
130,13723.6343171,0.000252317000331,153,12929.3716458
140,13745.4243029,0.000271989000339,164,12956.0349122
150,13867.8242802,0.000292088000378,175,13149.7594907
160,13895.6503831,0.000310477000312,186,13292.4980181
170,14016.087314,0.000328439000441,197,13383.1165041
180,14111.8163165,0.000354954000386,208,13544.296429
190,14224.21883,0.000375054000415,219,13649.216879
200,14347.2226791,0.00039387000038,230,13741.2330377
210,14386.9313398,0.000411404000488,241,13777.195813
220,14619.4119192,0.000438774000486,252,14024.2152162
230,14641.480656,0.00046571600069,263,13941.3604279
240,14744.2345126,0.000491375000593,274,14080.8525233
250,14794.0851092,0.000532430000703,285,14100.2346967
260,14913.6829741,0.000567498000692,296,14203.8223327
270,14913.6829741,0.000595295000721,307,14156.0076379
280,15169.3486181,0.000620954000624,318,14497.4890517
290,15320.1334888,0.000642336000737,329,14608.0007672
300,15507.0221117,0.000667567000619,340,14745.4327732
310,15696.7240723,0.000688095000442,351,14987.5400619
320,15696.7240723,0.000709478000317,362,14967.3578494
330,15975.2361266,0.000730005000378,373,15163.4436431
340,16082.8485527,0.00075096000046,384,15347.7498869
350,16432.1523789,0.000775764000309,395,15719.6249127
360,16572.073054,0.000798430000259,406,15935.2883073
370,16572.073054,0.000819385000341,417,15834.7869562
380,16614.8978548,0.000838629000327,428,15891.2372742
390,16614.8978548,0.000863860000209,439,16010.7652431
400,16709.246359,0.000888237000254,450,16007.9183995
410,16733.9512759,0.000916889000337,461,16023.285127
420,16733.9512759,0.00094297600026,472,15909.5971339
430,16733.9512759,0.000971629000333,483,15992.966462
440,16733.9512759,0.000998999000331,494,15965.048748
450,16733.9512759,0.00102508500049,505,16009.9819615
460,16733.9512759,0.00106314700065,516,15979.6900833
470,16733.9512759,0.00109778700062,527,15992.966462
480,16733.9512759,0.00112430100057,538,15859.4709971
490,16733.9512759,0.00115038800072,549,15893.7191834
500,16772.3025762,0.00117775800072,560,15995.2205645
510,16772.3025762,0.00120384500087,571,16030.7358163
520,16772.3025762,0.00123078700108,582,15995.2205645
530,16772.3025762,0.00125986800094,593,15989.8979224
540,16772.3025762,0.0012863820009,604,16159.8767872
550,16772.3025762,0.00131289600108,615,15900.6301446
560,16772.3025762,0.00133898300101,626,15995.2205645
570,16772.3025762,0.00136464200114,637,16004.4247779
580,16772.3025762,0.00139457700107,648,16159.8767872
590,16772.3025762,0.00142793400119,659,15912.2530819
600,16772.3025762,0.00146214600113,670,15988.0926566
610,16772.3025762,0.001495075001,681,15995.2205645
620,16772.3025762,0.00152501100092,692,15976.6149298
630,16772.3025762,0.00155665800071,703,15932.1602846
640,16772.3025762,0.0015912980009,714,15977.766056
650,16772.3025762,0.00162080600103,725,15839.3836468
660,16772.3025762,0.00165715600087,736,16012.9781904
670,16772.3025762,0.00168409800085,747,15961.7201142
680,16772.3025762,0.00171959400086,758,15961.8466983
690,16793.1615615,0.00174739200088,769,15999.7846325
700,16793.1615615,0.00177476100089,780,15964.4915071
710,16793.1615615,0.00182223000093,791,15869.3328565
720,16793.1615615,0.0018491720009,802,15976.8365369
730,16793.1615615,0.00188723400106,813,15906.3250681
740,16793.1615615,0.00191674200096,824,15978.5238359
750,16793.1615615,0.00194667800088,835,15866.4195933
760,16793.1615615,0.00198174500088,846,16178.800621
770,16793.1615615,0.00201381900092,857,15983.6819782
780,16793.1615615,0.00204375500084,868,15976.0185231
790,16793.1615615,0.00207198000089,879,16098.5648807
800,16793.1615615,0.00209977800068,890,16178.800621
810,16793.1615615,0.00213014200062,901,15907.536802
820,16793.1615615,0.00216178800065,912,16027.4902088
830,16793.1615615,0.00219044100072,923,15989.6935263
840,16793.1615615,0.00221695600067,934,15960.2850868
850,16793.1615615,0.00224432600066,945,15982.5415575
860,16793.1615615,0.0022704120006,956,15999.7846325
870,16793.1615615,0.0022977820006,967,15999.7846325
880,16793.1615615,0.00232515200059,978,15999.7846325
890,16793.1615615,0.00235209400057,989,15999.7846325
900,16793.1615615,0.0023837400006,1000,15999.7846325
910,16793.1615615,0.00241153800062,1011,15999.7846325
920,16793.1615615,0.00244318500063,1022,15906.2284055
930,16793.1615615,0.0024718380007,1033,15982.5719629
940,16793.1615615,0.00250177300063,1044,15951.7425542
950,16793.1615615,0.00253170900055,1055,15901.5170933
960,16793.1615615,0.00256036100041,1066,16145.0028803
970,16793.1615615,0.00258987000029,1077,15873.4165101
980,16793.1615615,0.00261809500034,1088,15999.7846325
990,16793.1615615,0.00264760400046,1099,15999.7846325
1000,16793.1615615,0.0026758300005,1110,15999.7846325
1010,16793.1615615,0.00270448300057,1121,16025.2196245
1020,16793.1615615,0.00273270800039,1132,15906.3250681
1030,16793.1615615,0.00275922300034,1143,15990.4246619
1040,16793.1615615,0.00278702000014,1154,15999.7846325
1050,16793.1615615,0.00281439000014,1165,15856.6488797
1060,16793.1615615,0.00284261499996,1176,15999.7846325
1070,16793.1615615,0.00287212300009,1187,15916.0413761
1080,16793.1615615,0.00289863800026,1198,15936.7243526
1090,16793.1615615,0.00292600800026,1209,16008.9888459
1100,16793.1615615,0.00295423300008,1220,16037.9371205
1110,16793.1615615,0.00298117600028,1231,15957.2735419
1120,16793.1615615,0.00300897300031,1242,15976.9571007
1130,16793.1615615,0.0030359160005,1253,15987.1375372
1140,16793.1615615,0.00306456900034,1264,16085.90735
1150,16793.1615615,0.00309236600015,1275,16047.5993273
1160,16793.1615615,0.00312572300027,1286,15999.7846325
1170,16793.1615615,0.00315309200028,1297,15995.206004
1180,16793.1615615,0.0031791790002,1308,15999.7846325
1190,16793.1615615,0.00320569300015,1319,15954.4455769
1200,16793.1615615,0.00323391800021,1330,15999.7846325
1210,16793.1615615,0.00326043300015,1341,15864.2603011
1220,16793.1615615,0.00328694700011,1352,15912.7482764
1230,16793.1615615,0.00331346100006,1363,16042.7579321
1240,16793.1615615,0.003339547,1374,16011.6851548
1250,16793.1615615,0.00336691699999,1385,15999.7846325
1260,16793.1615615,0.00339343099995,1396,16042.7579321
1270,16793.1615615,0.003421656,1407,15978.4009087
1280,16793.1615615,0.00344945400002,1418,15999.7846325
1290,16793.1615615,0.0034785339999,1429,15999.7846325
1300,16793.1615615,0.00350675899995,1440,15888.1269574
1310,16793.1615615,0.00353455699997,1451,15964.0271629
1320,16793.1615615,0.00356363700007,1462,15953.6444958
1330,16793.1615615,0.00359228999992,1473,15987.9811606
1340,16793.1615615,0.00362008699994,1484,15818.330843
1350,16793.1615615,0.00364873999979,1495,15997.8829964
1360,16793.1615615,0.00367781999989,1506,15970.2318348
1370,16793.1615615,0.00370732799979,1517,15843.7200132
1380,16793.1615615,0.00373897399982,1528,15990.6564965
1390,16793.1615615,0.00377361299979,1539,16047.4377176
1400,16793.1615615,0.00380782499997,1550,16005.7891335
1410,16793.1615615,0.00383861599994,1561,15954.3848315
1420,16793.1615615,0.00386940699991,1572,15999.7846325
1430,16793.1615615,0.00390447399991,1583,16063.7399112
1440,16793.1615615,0.00393654799996,1594,15929.411155
1450,16793.1615615,0.00396947700006,1605,15997.53053
1460,16793.1615615,0.00399898499995,1616,15999.7846325
1470,16793.1615615,0.0040289210001,1627,15901.2517113
1480,16793.1615615,0.00405800200019,1638,16040.0935883
1490,16793.1615615,0.00409007600024,1649,16025.7702959
1500,16793.1615615,0.00412086700021,1660,15971.9155974
1510,16793.1615615,0.00415294100026,1671,15921.8661737
1520,16793.1615615,0.0041811670003,1682,16023.8505503
1530,16793.1615615,0.00420939200012,1693,16182.6687316
1540,16793.1615615,0.00423847299999,1704,15960.8254031
1550,16793.1615615,0.00426669800004,1715,15999.7846325
1560,16793.1615615,0.00429364000001,1726,15969.4002235
1570,16793.1615615,0.00432785299995,1737,15968.088984
1580,16793.1615615,0.00435949899997,1748,16091.2266821
1590,16793.1615615,0.00443904299982,1759,15959.9554962
1600,16793.1615615,0.00447624799995,1770,15922.3385597
1610,16793.1615615,0.00450789399997,1781,15999.7846325
1620,16793.1615615,0.00453654700004,1792,16016.7363182
1630,16793.1615615,0.00456691000022,1803,15999.7846325
1640,16793.1615615,0.0045959900001,1814,15999.7846325
1650,16793.1615615,0.00462464300017,1825,16013.3942034
1660,16793.1615615,0.00465415100007,1836,15978.9423005
1670,16793.1615615,0.00468494200004,1847,15964.2693808
1680,16793.1615615,0.00471402299991,1858,15976.7226749
1690,16793.1615615,0.00474224799996,1869,15949.3404782
1700,16793.1615615,0.00476961799995,1880,15982.3301239
1710,16793.1615615,0.00479912599985,1891,15912.7482764
1720,16793.1615615,0.00482692299965,1902,15999.7846325
1730,16793.1615615,0.00485514799971,1913,15954.4211851
1740,16793.1615615,0.00488337299976,1924,15962.5610138
1750,16793.1615615,0.00491245299963,1935,16010.9936814
1760,16793.1615615,0.00494324399961,1946,15928.2724225
1770,16793.1615615,0.00497061299961,1957,15944.4457656
1780,16793.1615615,0.00499755499959,1968,15966.2841822
1790,16793.1615615,0.00502321399972,1979,15999.7846325
1800,16793.1615615,0.00505143899954,1990,15964.1784921
1810,16793.1615615,0.00507880899954,2001,15963.0326941
1820,16793.1615615,0.00510831699944,2012,15999.7846325
1830,16793.1615615,0.00513654199949,2023,15953.3427916
1840,16793.1615615,0.00516476699954,2034,15986.6637497
1850,16793.1615615,0.00519299299958,2045,15999.7846325
1860,16793.1615615,0.00522078999961,2056,15891.148495
1870,16793.1615615,0.00524815999961,2067,15971.8244425
1880,16793.1615615,0.00527595799963,2078,15956.2664545
1890,16793.1615615,0.00530461099947,2089,16084.0608351
1900,16793.1615615,0.00533454699939,2100,15949.6007617
1910,16793.1615615,0.00536362799949,2111,15973.4979301
1920,16793.1615615,0.00539227999957,2122,16047.5578097
1930,16793.1615615,0.00542307099977,2133,15984.592428
1940,16793.1615615,0.00545172299962,2144,15999.7846325
1950,16793.1615615,0.00548123099975,2155,16060.3988944
1960,16793.1615615,0.00550902799955,2166,15935.3740153
1970,16793.1615615,0.00553853599945,2177,15999.7846325
1980,16793.1615615,0.00556761599955,2188,16012.5057169
1990,16793.1615615,0.00559584099938,2199,15871.0395405
2000,16793.1615615,0.00562492099948,2210,15936.9843687
2010,16793.1615615,0.0056548569994,2221,15970.1046999
2020,16793.1615615,0.00568607599939,2232,15956.8113329
2030,16793.1615615,0.00571515599927,2243,15999.7846325
2040,16793.1615615,0.00574423699936,2254,15935.8293539
2050,16793.1615615,0.00577374499949,2265,15984.7477494
2060,16793.1615615,0.00580025899944,2276,16003.896286
2070,16793.1615615,0.00582805699946,2287,15994.0369408
2080,16793.1615615,0.00585756499936,2298,15999.7846325
2090,16793.1615615,0.00588921199937,2309,15999.7846325
2100,16793.1615615,0.00592214099947,2320,15999.3891586
2110,16793.1615615,0.00595250399942,2331,15989.1542342
2120,16793.1615615,0.00598243999957,2342,16025.7702959
2130,16793.1615615,0.00601408699958,2353,15857.5623102
2140,16793.1615615,0.00604444999954,2364,15981.2052758
2150,16793.1615615,0.00607481299971,2375,16018.3902673
2160,16793.1615615,0.00610517699965,2386,15971.2730007
2170,16793.1615615,0.00613511299957,2397,15988.9496457
2180,16793.1615615,0.00616376599942,2408,15999.7846325
2190,16793.1615615,0.00619241899949,2419,15996.9321783
2200,16793.1615615,0.00622064399954,2430,15928.2724225
2210,16793.1615615,0.00624758599952,2441,16026.0263983
2220,16793.1615615,0.00627495499953,2452,15999.7846325
2230,16793.1615615,0.0063018969995,2463,15999.7846325
2240,16793.1615615,0.00633054999957,2474,15953.4910758
2250,16793.1615615,0.00635963099944,2485,15973.9692749
2260,16793.1615615,0.00638871099932,2496,15806.1951141
2270,16793.1615615,0.00641821899944,2507,15999.7846325
2280,16793.1615615,0.00644858199962,2518,15999.7846325
2290,16793.1615615,0.00647766199972,2529,16034.8227242
2300,16793.1615615,0.00650503199972,2540,15976.8365369
2310,16793.1615615,0.00653411199983,2551,15999.7846325
2320,16793.1615615,0.00656190899986,2562,15919.166721
2330,16793.1615615,0.00658885099983,2573,15814.6104055
2340,16793.1615615,0.00661878699998,2584,15995.2205645
2350,16793.1615615,0.00664658499977,2595,15865.7828311
2360,16793.1615615,0.00667994199966,2606,15999.7846325
2370,16793.1615615,0.00671244399973,2617,15999.7846325
2380,16793.1615615,0.00674409099975,2628,15883.3933331
2390,16793.1615615,0.00677573699977,2639,15999.7846325
2400,16793.1615615,0.00680396199982,2650,15999.7846325
2410,16793.1615615,0.0068326139999,2661,15963.1178433
2420,16793.1615615,0.00686169399978,2672,15999.7846325
2430,16793.1615615,0.00689034699985,2683,15892.5042213
2440,16793.1615615,0.00691985499998,2694,16007.2573318
2450,16793.1615615,0.00694850800005,2705,16033.9410125
2460,16793.1615615,0.00697929900025,2716,15943.0509728
2470,16793.1615615,0.00700666900025,2727,15910.0079875
2480,16793.1615615,0.00703361100045,2738,15986.6412813
2490,16793.1615615,0.00706055300043,2749,15981.7033057
2500,16793.1615615,0.00709048900035,2760,16020.4265837
2510,16793.1615615,0.0071187140004,2771,15974.697301
2520,16793.1615615,0.00715378200039,2782,15994.4619903
2530,16793.1615615,0.00718329000051,2793,15959.4756768
2540,16793.1615615,0.00721536400056,2804,16043.2758813
2550,16793.1615615,0.00724401700063,2815,16057.2988925
2560,16793.1615615,0.0072748080006,2826,15999.7846325
2570,16793.1615615,0.00730559900057,2837,15999.7846325
2580,16793.1615615,0.00733510700047,2848,15954.4455769
2590,16793.1615615,0.00736504300062,2859,15980.335546
2600,16793.1615615,0.00739326800044,2870,15999.7846325
2610,16793.1615615,0.00742277600057,2881,15990.2220766
2620,16793.1615615,0.00745100100039,2892,15971.0969648
2630,16793.1615615,0.00747965400046,2903,15983.6819782
2640,16793.1615615,0.00750916200059,2914,15860.9039623
2650,16793.1615615,0.00753995300056,2925,15981.8327826
2660,16793.1615615,0.00756817800061,2936,16038.1065972
2670,16793.1615615,0.0076015350005,2947,15971.8244425
2680,16793.1615615,0.00765285300054,2958,16011.8175914
2690,16793.1615615,0.00768621000066,2969,15915.7877117
2700,16793.1615615,0.00771785700067,2980,16145.0028803
2710,16793.1615615,0.00775035900051,2991,15989.9549217
2720,16793.1615615,0.00778499900071,3002,16038.32007
2730,16793.1615615,0.00782220500082,3013,16009.1446031
2740,16793.1615615,0.00785684500079,3024,15944.4457656
2750,16793.1615615,0.00789020200068,3035,16042.5064936
2760,16793.1615615,0.00792270400075,3046,15954.4455769
2770,16793.1615615,0.00795648900089,3057,15960.0281825
2780,16793.1615615,0.00799112900086,3068,15974.3424637
2790,16793.1615615,0.0080270520009,3079,15999.7846325
2800,16793.1615615,0.00806810700078,3090,16042.8459912
2810,16793.1615615,0.00810317500077,3101,15930.5987596
2820,16793.1615615,0.00813824200077,3112,15869.4823515
2830,16793.1615615,0.00817202700068,3123,16002.4955933
2840,16793.1615615,0.00821094400067,3134,15927.1647169
2850,16793.1615615,0.00824515600061,3145,15918.6797594
2860,16793.1615615,0.00827765800045,3156,15999.7846325
2870,16793.1615615,0.00831016000029,3167,15984.8514991
2880,16793.1615615,0.00834137900029,3178,15954.105873
2890,16793.1615615,0.00837302500031,3189,15999.7846325
2900,16793.1615615,0.00840167800015,3200,15987.2504843
2910,16793.1615615,0.00843161400007,3211,15972.1151991
2920,16793.1615615,0.00846026700015,3222,15869.4823515
2930,16793.1615615,0.00848977500004,3233,15999.7846325
2940,16793.1615615,0.00851885500015,3244,16040.9486882
2950,16793.1615615,0.00854879100007,3255,15864.2603011
2960,16793.1615615,0.00857658900009,3266,15910.0079875
2970,16793.1615615,0.00860738000006,3277,15964.9607134
2980,16793.1615615,0.00863688799996,3288,16011.6851548
2990,16793.1615615,0.00866596900005,3299,15915.1506827
3000,16793.1615615,0.00869633299999,3310,15950.368922
3010,16793.1615615,0.00872541300009,3321,15869.2300984
3020,16793.1615615,0.00875321100011,3332,15937.8209906
3030,16793.1615615,0.0087882790001,3343,15854.5924937
3040,16793.1615615,0.00882078000018,3354,15999.7846325
3050,16793.1615615,0.00885541900016,3365,15854.5448013
3060,16793.1615615,0.00889177000022,3376,15945.9016592
3070,16793.1615615,0.00892427200029,3387,15988.3708666
3080,16793.1615615,0.00895720100016,3398,15956.2664545
3090,16793.1615615,0.00899055800005,3409,15898.141384
3100,16793.1615615,0.0090243420002,3420,16025.1774421
3110,16793.1615615,0.00905641600025,3431,15818.1854286
3120,16793.1615615,0.00908720700045,3442,15999.7846325
3130,16793.1615615,0.00912099100037,3453,16045.26263
3140,16793.1615615,0.00915221000037,3464,15956.444685
3150,16793.1615615,0.00918214600051,3475,15974.5625554
3160,16793.1615615,0.00921165400041,3486,15999.7846325
3170,16793.1615615,0.00924201700036,3497,15982.7691331
3180,16793.1615615,0.00926981400039,3508,16017.0171869
3190,16793.1615615,0.00929846600025,3519,15993.0223251
3200,16793.1615615,0.00932626300028,3530,15863.6942904
3210,16793.1615615,0.00935491600035,3541,15999.7846325
3220,16793.1615615,0.00938570700032,3552,16006.1786941
3230,16793.1615615,0.00941649800029,3563,15999.7846325
3240,16793.1615615,0.00944942700039,3574,16045.26263
3250,16793.1615615,0.00948150100044,3585,15872.6452054
3260,16793.1615615,0.00951443000031,3596,15987.1375372
3270,16793.1615615,0.00954479300026,3607,15868.1284099
3280,16793.1615615,0.00957601100026,3618,15869.4823515
3290,16793.1615615,0.00960808500031,3629,15999.7846325
3300,16793.1615615,0.00964101400041,3640,15975.983588
3310,16793.1615615,0.00967479900032,3651,15891.5326744
3320,16793.1615615,0.00970772900041,3662,15969.2285444
3330,16793.1615615,0.00973680900051,3673,15999.7846325
3340,16793.1615615,0.00976674500066,3684,16036.9959021
3350,16793.1615615,0.00979625300079,3695,15818.1854286
3360,16793.1615615,0.00982576100068,3706,15999.7846325
3370,16793.1615615,0.00985484200078,3717,15989.2113818
3380,16793.1615615,0.00988349500062,3728,15958.4839094
3390,16793.1615615,0.00991257500073,3739,15915.7877117
3400,16793.1615615,0.00994208300085,3750,16007.9175147
3410,16793.1615615,0.00997116300073,3761,15908.9415185
3420,16793.1615615,0.0100010980007,3772,15999.7846325
3430,16793.1615615,0.0100327450007,3783,15922.3385597
3440,16793.1615615,0.0100622530008,3794,15985.8607675
3450,16793.1615615,0.0100917610007,3805,15929.9625318
3460,16793.1615615,0.0101242630005,3816,15989.2113818
3470,16793.1615615,0.0101529160006,3827,15898.141384
3480,16793.1615615,0.0101807140006,3838,15939.3053206
3490,16793.1615615,0.0102085120006,3849,15980.0696057
3500,16793.1615615,0.0102388750008,3860,15831.2938026
3510,16793.1615615,0.0102671000009,3871,15999.7846325
3520,16793.1615615,0.010296180001,3882,16045.2065046
3530,16793.1615615,0.0103248330011,3893,15999.7846325
3540,16793.1615615,0.010355196001,3904,15961.249195
3550,16793.1615615,0.0103804270009,3915,15965.5433348
3560,16793.1615615,0.0104107900008,3926,16021.7114128
3570,16793.1615615,0.010440298001,3937,15985.0400662
3580,16793.1615615,0.0104706610009,3948,15957.661925
3590,16793.1615615,0.0105010250011,3959,15972.8431459
3600,16793.1615615,0.0105305330012,3970,15999.7846325
3610,16793.1615615,0.0105600410011,3981,15971.4178027
3620,16793.1615615,0.0105882670011,3992,15999.7846325
3630,16793.1615615,0.0106173470012,4003,15869.2300984
3640,16793.1615615,0.0106451440013,4014,16043.638193
3650,16793.1615615,0.0106755070012,4025,15869.3328565
3660,16793.1615615,0.0107041600013,4036,15880.0824392
3670,16793.1615615,0.0107336680014,4047,15963.7006465
3680,16793.1615615,0.0107631760015,4058,15980.0696057
3690,16793.1615615,0.0107943950015,4069,15927.4593253
3700,16793.1615615,0.0108268970016,4080,16168.3370377
3710,16793.1615615,0.0108576880016,4091,15984.8514991
3720,16793.1615615,0.0108889070016,4102,15995.206004
3730,16793.1615615,0.0109188430015,4113,16076.8555076
3740,16793.1615615,0.0109487780014,4124,15921.7523229
3750,16793.1615615,0.0109787140013,4135,15935.8293539
3760,16793.1615615,0.0110086500013,4146,15999.7846325
3770,16793.1615615,0.0110364470013,4157,16011.8175914
3780,16793.1615615,0.0110642440011,4168,16031.7622718
3790,16793.1615615,0.0110933250012,4179,15999.7846325
3800,16793.1615615,0.0111215500012,4190,16089.2926268
3810,16793.1615615,0.0111523410012,4201,15953.2365654
3820,16793.1615615,0.0111827050011,4212,15986.0487469
3830,16793.1615615,0.0112147790012,4223,15935.8293539
3840,16793.1615615,0.0112464250012,4234,15953.3427916
3850,16793.1615615,0.0112755050013,4245,15973.7989692
3860,16793.1615615,0.0113033030013,4256,16030.9378207
3870,16793.1615615,0.0113366600012,4267,15837.5037833
3880,16793.1615615,0.0113725820013,4278,15944.4729775
3890,16793.1615615,0.0114016630012,4289,16123.2767995
3900,16793.1615615,0.0114315980011,4300,15916.4153043
3910,16793.1615615,0.0114606780012,4311,16036.4514217
3920,16793.1615615,0.0114923250012,4322,16021.9454022
3930,16793.1615615,0.011520978001,4333,15933.0369001
3940,16793.1615615,0.0115479200012,4344,15959.2144202
3950,16793.1615615,0.0115752900012,4355,15953.3427916
3960,16793.1615615,0.011606936001,4366,15999.7846325
3970,16793.1615615,0.0116355890011,4377,15983.0724348
3980,16793.1615615,0.0116663800013,4388,16168.3370377
3990,16793.1615615,0.0116954600012,4399,16063.8674242
4000,16793.1615615,0.0117236850012,4410,16011.2586803
4010,16793.1615615,0.0117514820013,4421,15988.1210776
4020,16793.1615615,0.0117797070013,4432,15882.736168
4030,16793.1615615,0.0118075050013,4443,15937.2576364
4040,16793.1615615,0.0118340190013,4454,15999.7846325
4050,16793.1615615,0.0118630990012,4465,15999.7846325
4060,16793.1615615,0.0118913240012,4476,15999.7846325
4070,16793.1615615,0.0119191210013,4487,16077.1918417
4080,16793.1615615,0.0119469180013,4498,16096.5967977
4090,16793.1615615,0.0119738600013,4509,15999.7846325
4100,16793.1615615,0.0120012300013,4520,15882.9069442
4110,16793.1615615,0.0120281720012,4531,16040.1655381
4120,16793.1615615,0.0120555420012,4542,15999.7846325
4130,16793.1615615,0.0120824840012,4553,16015.4749023
4140,16793.1615615,0.0121089980012,4564,16009.1446031
4150,16793.1615615,0.0121372230012,4575,15878.6419158
4160,16793.1615615,0.0121654480013,4586,15999.7846325
4170,16793.1615615,0.0121932460013,4597,15954.3630755
4180,16793.1615615,0.0122227550014,4608,16045.1236882
4190,16793.1615615,0.0122556850015,4619,16035.5421022
4200,16793.1615615,0.0122834820015,4630,15866.4195933
4210,16793.1615615,0.0123104240015,4641,15948.1466236
4220,16793.1615615,0.0123416430015,4652,15918.6442079
4230,16793.1615615,0.0123685860015,4663,15999.7846325
4240,16793.1615615,0.0123968110015,4674,15984.0943628
4250,16793.1615615,0.0124250360016,4685,15927.721515
4260,16793.1615615,0.0124532610016,4696,15982.0270066
4270,16793.1615615,0.0124836250016,4707,15956.3007072
4280,16793.1615615,0.0125161270016,4718,15999.7846325
4290,16793.1615615,0.0125452080015,4729,15928.2724225
4300,16793.1615615,0.0125738610013,4740,15873.4165101
4310,16793.1615615,0.0126020860014,4751,16040.9486882
4320,16793.1615615,0.0126303110014,4762,15861.1306412
4330,16793.1615615,0.0126611020016,4773,15992.2661909
4340,16793.1615615,0.0126897550017,4784,15951.9699378
4350,16793.1615615,0.0127171250017,4795,15973.6028697
4360,16793.1615615,0.0127444950017,4806,15990.7682226
4370,16793.1615615,0.0127718650017,4817,16002.4955933
4380,16793.1615615,0.0127988070017,4828,15953.1304129
4390,16793.1615615,0.0128261770017,4839,15889.386982
4400,16793.1615615,0.0128531190016,4850,15969.5590339
4410,16793.1615615,0.0128792050018,4861,15999.7846325
4420,16793.1615615,0.0129061470018,4872,15999.7846325
4430,16793.1615615,0.0129335170018,4883,15981.4701184
4440,16793.1615615,0.0129587480019,4894,15971.8702137
4450,16793.1615615,0.0129861180019,4905,15999.7846325
4460,16793.1615615,0.0130143430017,4916,16082.1127439
4470,16793.1615615,0.0130417120017,4927,15999.7846325
4480,16793.1615615,0.0130699380018,4938,15999.7846325
4490,16793.1615615,0.0130977350018,4949,16044.5386296
4500,16793.1615615,0.0131268150017,4960,15999.7846325
4510,16793.1615615,0.0131550400015,4971,15965.7536337
4520,16793.1615615,0.0131815540014,4982,16023.8505503
4530,16793.1615615,0.0132102070015,4993,16142.7438877
4540,16793.1615615,0.0132388590016,5004,15965.9736961
4550,16793.1615615,0.0132666570016,5015,15878.6419158
4560,16793.1615615,0.0132935990016,5026,15863.5190162
4570,16793.1615615,0.0133201130016,5037,15989.9549217
4580,16793.1615615,0.0133444890016,5048,15906.6884983
4590,16793.1615615,0.0133718580014,5059,15987.2504843
4600,16793.1615615,0.0133966620012,5070,16028.6368157
4610,16793.1615615,0.0134248870013,5081,15999.7846325
4620,16793.1615615,0.0134514010012,5092,15857.5623102
4630,16793.1615615,0.0134783430012,5103,15980.9328512
4640,16793.1615615,0.0135078520013,5114,15852.3833237
4650,16793.1615615,0.0135394980014,5125,15824.2430023
4660,16793.1615615,0.0135681510014,5136,15939.3334352
4670,16793.1615615,0.0135963760015,5147,16021.2712823
4680,16793.1615615,0.0136258840014,5158,15954.105873
4690,16793.1615615,0.0136562480013,5169,15999.7846325
4700,16793.1615615,0.0136857560012,5180,15800.8090599
4710,16793.1615615,0.0137148360013,5191,15970.9324494
4720,16793.1615615,0.0137443440012,5202,16010.9936814
4730,16793.1615615,0.0137747070014,5213,15906.3250681
4740,16793.1615615,0.0138029320015,5224,15971.9369025
4750,16793.1615615,0.0138337230014,5235,15999.7846325
4760,16793.1615615,0.0138687910014,5246,15996.6859953
4770,16793.1615615,0.0138991540014,5257,15990.4787278
4780,16793.1615615,0.0139269510014,5268,15999.3891586
4790,16793.1615615,0.0139581700014,5279,16026.8195902
4800,16793.1615615,0.0139893890014,5290,15970.9324494
4810,16793.1615615,0.0140193240013,5301,15989.9549217
4820,16793.1615615,0.0140522530014,5312,15999.488027
4830,16793.1615615,0.0141078480015,5323,15919.0228214
4840,16793.1615615,0.0141403490015,5334,15872.8337078
4850,16793.1615615,0.0141677190015,5345,16136.9477068
4860,16793.1615615,0.0141993660015,5356,15992.2661909
4870,16793.1615615,0.0142310120016,5367,15949.6099694
4880,16793.1615615,0.0142618030015,5378,15880.9045905
4890,16793.1615615,0.0142934490016,5389,15902.9898733
4900,16793.1615615,0.0143238120015,5400,15981.7033057
4910,16793.1615615,0.0143575960017,5411,15977.4920529
4920,16793.1615615,0.0143909530016,5422,15999.7846325
4930,16793.1615615,0.0144238830017,5433,15993.587358
4940,16793.1615615,0.0144559570017,5444,15978.9083953
4950,16793.1615615,0.0144867470017,5455,15929.9625318
4960,16793.1615615,0.0145183940017,5466,15965.3195238
4970,16793.1615615,0.0145508950018,5477,15936.0026948
4980,16793.1615615,0.0145833960016,5488,15999.7846325
4990,16793.1615615,0.0146141870016,5499,15900.2968462
