it,funval,time,funcount,weight
0,5916.7043644,0.000891228,652,5675.00466621
10,6189.87278895,0.00179101000003,1204,4847.97903535
20,6316.32534199,0.00268993700001,1750,5755.5634338
30,6415.07230193,0.00359827099999,2304,5882.50414602
40,6383.97515483,0.00450703299998,2856,6133.75828189
50,6762.72827863,0.00542734200008,3404,6293.03044089
60,6504.71918557,0.00633482199999,3951,5704.66588889
70,6983.83799703,0.00725128199997,4500,5735.80278044
80,6788.8001052,0.00817201899997,5048,6383.50657872
90,6869.28307288,0.00907821499993,5596,6791.72533833
100,6967.40729588,0.00997628699986,6149,6324.35992835
110,6809.45231111,0.0108752139998,6697,6356.96590024
120,7078.2160321,0.0117523299999,7249,6379.11246853
130,7091.2269565,0.0126491179999,7802,6390.69843789
140,6929.6198554,0.0135236679999,8351,6647.91628709
150,7059.5763646,0.014449965,8902,6210.95929732
160,7013.74718713,0.015383959,9443,6450.46005326
170,7088.97607128,0.0163149599999,9990,6187.21171518
180,7127.49811894,0.017198063,10535,6616.67603311
190,7039.55541405,0.018123504,11086,6475.46615957
200,7147.44948411,0.01905707,11637,6458.48784632
210,7103.23970677,0.0199628390001,12182,6494.04733034
220,7249.19831709,0.0208681800001,12733,6840.78134686
230,7082.01703691,0.0217765140002,13285,6692.10152713
240,7255.98622027,0.0227109350002,13839,6524.55450227
250,7134.99117649,0.0236235470002,14400,6864.81402787
260,7080.02325387,0.0245908980002,14946,6435.37391068
270,7177.65249611,0.0254975220001,15497,6315.80089297
280,7318.55281121,0.0264182590001,16037,6579.88484483
290,7166.47636658,0.0273231730002,16585,6594.34753887
300,7119.23044903,0.0282195330003,17135,6684.24555786
310,7194.8778227,0.0291308610003,17686,6568.09475558
320,7266.31434127,0.0300169570003,18241,6672.88947141
330,7303.15045181,0.0309299960003,18795,6717.0838171
340,7421.67445002,0.0318186580004,19347,6261.76224127
350,7395.2660412,0.0327295590004,19900,6738.42956113
360,7330.63339331,0.0336152280004,20444,6422.00692308
370,7299.82294149,0.0345274110003,20997,7068.10155789
380,7419.22386524,0.0354280480003,21538,6865.47245323
390,7342.02144762,0.0363303960004,22088,6958.97574521
400,7361.25859448,0.0372357370004,22636,6556.27383915
410,7362.59078467,0.0381594670005,23179,6814.53534731
420,7313.87940749,0.0390720780005,23729,6894.11715559
430,7218.51167532,0.0399958080004,24278,7041.05856646
440,7251.44394707,0.0408964450004,24834,6592.95761567
450,7238.46969191,0.0418235960004,25385,6851.07934325
460,7417.90598172,0.0427584450003,25929,6899.10105174
470,7220.47507144,0.0436714840004,26481,6739.98519278
480,7306.70893594,0.0445883720004,27036,6874.94085645
490,7408.47216229,0.0455009830005,27586,6847.71415697
500,7254.09330043,0.0463952050005,28138,6638.41674397
510,7455.92785221,0.0473112370005,28688,6536.43656814
520,7359.17864977,0.0482135840006,29235,7126.38451016
530,7445.99520957,0.0491501430006,29786,6658.65814156
540,7510.88729133,0.0500563390007,30329,6674.94780975
550,7447.11419763,0.0509603970007,30880,6919.55473259
560,7480.63718766,0.0518567570007,31425,6696.45029865
570,7489.3561852,0.0527428540007,31965,6776.1818891
580,7498.89681955,0.0536238190008,32515,7196.10916607
590,7538.12132092,0.0545308710008,33066,7086.28763251
600,7507.04926852,0.0554208170007,33617,6469.86891584
610,7596.13097261,0.0563248750007,34158,6922.54244898
620,7771.87798492,0.0572370590007,34704,6948.00252223
630,7704.03048722,0.0581411170008,35249,7055.90583306
640,7650.94302469,0.0591080400008,35802,6837.17344557
650,7669.91803683,0.0599945640007,36356,6947.49438754
660,7647.77011234,0.0610568540008,36905,6957.10312447
670,7646.14019861,0.0619720310008,37456,7197.2234476
680,7611.91849455,0.0628671080008,38007,6839.61641734
690,7614.69729841,0.0637899830008,38560,6958.1810374
700,7648.00995833,0.0647004560008,39108,7143.15707912
710,7683.15326454,0.0656053700008,39654,7240.04092326
720,7618.93987558,0.0665124220008,40201,7030.49438382
730,7590.93784188,0.0674207570007,40752,6924.9669207
740,7558.36893372,0.0682961620007,41306,7234.48642358
750,7697.81463991,0.0691694290007,41857,7118.41164886
760,7613.69779267,0.0700431240007,42404,7264.07329784
770,7652.94244836,0.0709121150006,42945,7246.87646728
780,7668.81953552,0.0718183120006,43492,6769.73863925
790,7649.40513975,0.0727227980005,44041,7043.68590338
800,7629.82058523,0.0736289950005,44591,7369.35103998
810,7648.63094556,0.0745351920004,45138,7197.6222929
820,7581.51800128,0.0754332630005,45683,7208.85429182
830,7461.41173542,0.0763133730005,46233,7126.98821312
840,7583.50788403,0.0772255570005,46777,7283.60412049
850,7681.49716081,0.0781385960005,47317,7039.81132468
860,7623.30419121,0.0790533450005,47862,7213.1545914
870,7520.98753967,0.0799715160005,48410,7325.51902966
880,7456.42841748,0.0809204780005,48956,7086.31267381
890,7512.300007,0.0818194040005,49503,7211.80703369
900,7514.33376213,0.0827508320006,50057,7009.71856376
910,7572.72066273,0.0837280190005,50605,7199.65354042
920,7547.25026269,0.0846808300006,51160,7142.06758972
930,7550.56345443,0.0855814670007,51709,7155.86828307
940,7563.99984188,0.0864825320007,52258,7262.11106578
950,7529.06494893,0.0873750440007,52806,7290.66111825
960,7617.61210538,0.0883299930008,53346,7297.57923514
970,7470.08353484,0.0892242150009,53905,7433.87165543
980,7528.21401143,0.0901274180007,54450,7082.19455196
990,7506.94368431,0.0910224960007,55002,7106.97786255
1000,7513.27088668,0.0919188560007,55553,7084.86674616
1010,7390.06836673,0.0928216310007,56109,6950.05637341
1020,7357.40814537,0.0937419400008,56658,6976.60915736
1030,7430.3085412,0.0946489920008,57215,7134.8436799
1040,7381.99462195,0.0955573270007,57771,7032.97255823
1050,7394.39114092,0.0964759250007,58321,7139.87879303
1060,7409.51480742,0.0973923850008,58866,6945.99684877
1070,7511.38848197,0.0982853240008,59416,6881.11866967
1080,7412.91015414,0.0992227390008,59957,6983.90761874
1090,7413.3656286,0.100140055001,60510,7118.3099499
1100,7563.51054844,0.101038126001,61057,7136.22022111
1110,7407.32348487,0.101926361001,61610,7046.26620069
1120,7462.57337077,0.102849236001,62157,7179.23846111
1130,7490.4709097,0.103762274001,62710,6909.34152942
1140,7399.1297974,0.104710808001,63262,7051.99029787
1150,7490.83060654,0.105615721001,63808,7183.07095923
1160,7561.91578882,0.106520207001,64344,7057.49214354
1170,7447.66178874,0.107442654001,64893,6995.62641118
1180,7459.48113549,0.108321908001,65439,6962.68277413
1190,7564.30547702,0.109231526001,65989,7226.56609192
1200,7400.47749045,0.110134302001,66543,7015.9569605
1210,7383.41452021,0.111043920001,67096,6927.5282279
1220,7527.04577068,0.111935149001,67646,6999.61915409
1230,7573.07002713,0.112858452001,68191,6875.59873759
1240,7554.38433368,0.113770636001,68734,6899.35653322
1250,7524.68841135,0.114689662001,69292,7307.44662608
1260,7475.27145572,0.115577042001,69841,7031.86006283
1270,7651.83916048,0.116475541001,70393,7066.70097342
1280,7504.33273595,0.117376605001,70943,7087.33358677
1290,7527.38880333,0.118288788001,71487,7044.45645313
1300,7559.43241961,0.119184293001,72044,6921.59104878
1310,7543.44690502,0.120099043001,72596,6954.49275681
1320,7544.27466728,0.121000963001,73135,7044.35125063
1330,7536.26259354,0.121909725001,73676,7067.81393449
1340,7614.35137525,0.122825330001,74222,6864.20076814
1350,7653.72540878,0.123729388001,74776,7156.22540441
1360,7635.09399019,0.124609925001,75326,7250.98453974
1370,7616.71682139,0.125483620001,75875,7077.35903682
1380,7693.02726516,0.126390244001,76427,7043.65844212
1390,7537.62086908,0.127319106001,76969,7038.83870054
1400,7511.521842,0.128238987001,77516,7158.78545697
1410,7554.05533039,0.129146467001,78065,7145.12100476
1420,7602.4691454,0.130073618001,78610,7122.80685509
1430,7586.47530081,0.130979387001,79160,7113.11699221
1440,7595.04444808,0.131913381001,79707,6959.68801585
1450,7628.06573724,0.132814018001,80260,7271.98932792
1460,7567.05408542,0.133732616001,80815,7176.8163605
1470,7641.75700746,0.134624273001,81366,7319.05250348
1480,7633.08900501,0.135555274001,81905,7198.33706607
1490,7632.87744702,0.136452062001,82456,7116.88479191
1500,7625.10940448,0.137322335001,83007,7336.98201845
1510,7654.45644672,0.138220834001,83551,7317.81343695
1520,7648.88673975,0.139119760001,84100,7433.44717847
1530,7685.8162325,0.140028950001,84653,7221.40734245
1540,7583.00434476,0.140976201001,85203,6860.5402369
1550,7630.22178154,0.141868285001,85757,7290.29705615
1560,7519.1656946,0.142815108001,86302,7191.87160012
1570,7630.73624138,0.143726864001,86847,7310.55308633
1580,7687.56694387,0.144652304001,87389,7170.50824516
1590,7533.36636108,0.145579027001,87939,7319.99430343
1600,7454.19992568,0.146488644001,88485,7036.53281469
1610,7564.89965836,0.147436751001,89036,7101.36261545
1620,7612.84319169,0.148351501001,89588,7240.57866478
1630,7566.47573371,0.149276942001,90137,7082.21546097
1640,7673.06627561,0.150191692001,90685,7198.23920908
1650,7565.27538655,0.151092757001,91227,7192.80720219
1660,7730.3969193,0.152015205001,91774,7317.35313629
1670,7536.62985495,0.152944495001,92327,6925.22856513
1680,7606.70051516,0.153885332001,92875,6887.15070901
1690,7633.53257661,0.154799227001,93425,6756.60536238
1700,7603.7196381,0.155732793001,93977,7008.9133226
1710,7541.51425788,0.156647971001,94526,7008.00115576
1720,7599.16949426,0.157570418001,95072,6714.94967382
1730,7495.51007331,0.158554875001,95624,6618.00038024
1740,7515.21657094,0.159516666001,96174,6814.19286107
1750,7542.08605352,0.160430560001,96723,7007.63518098
1760,7550.64180102,0.161335901001,97272,6793.85196048
1770,7559.89287234,0.162238249001,97827,6960.46075747
1780,7548.36096324,0.163126912001,98375,6783.43053351
1790,7544.55818975,0.164027121001,98932,6968.4945678
1800,7588.22892461,0.164944009001,99487,6813.66720233
1810,7565.31712841,0.165888694001,100035,6807.41421546
1820,7618.66468715,0.166812851001,100590,7196.25433228
1830,7610.32712805,0.167707501001,101137,6757.50428111
1840,7563.53545136,0.168609421001,101679,7046.76291419
1850,7481.94127028,0.169556672001,102235,7042.09184899
1860,7552.88072109,0.170463296001,102782,6843.10582185
1870,7496.00358801,0.171374624001,103331,6885.60583891
1880,7570.14112354,0.172267563001,103884,7059.97944577
1890,7525.74651683,0.173187445001,104432,7000.8622244
1900,7445.23356026,0.174107327001,104990,6902.69905482
1910,7508.17645872,0.175025498001,105532,6541.33995305
1920,7500.14839797,0.175917154001,106080,6982.64663373
1930,7474.53900265,0.176819074001,106627,6890.91632212
1940,7481.56909942,0.177710303001,107168,6517.62332001
1950,7393.9053465,0.178660976001,107716,6234.96856033
1960,7472.25473548,0.179571449001,108262,6759.32196983
1970,7361.38092677,0.180469092001,108803,6702.18051165
1980,7338.29968538,0.181370157001,109352,6555.395353
1990,7380.99856642,0.182277209001,109901,6355.04096111
2000,7375.76388697,0.183185544001,110453,6507.00983762
2010,7494.43921277,0.184087036001,110999,6596.29226233
2020,7509.24446324,0.184976982001,111541,6506.23650459
2030,7265.84022243,0.185885317001,112095,6310.07936201
2040,7229.09054267,0.186793224001,112640,6240.18119874
2050,7272.34083399,0.187676327001,113184,6291.90225757
2060,7329.55051196,0.188600058001,113731,6140.84066735
2070,7343.38727519,0.189546882001,114285,6433.08338237
2080,7342.37548316,0.190476600001,114832,6346.18539779
2090,7368.14141518,0.191408455001,115376,6557.00268092
2100,7380.87363278,0.192333895001,115927,6598.63074728
2110,7363.35983318,0.193254204001,116474,6259.44598014
2120,7358.58294032,0.194185632001,117025,6326.8373554
2130,7416.1691274,0.195099099001,117564,6299.83395368
2140,7437.7859987,0.196011711001,118115,6536.72942018
2150,7552.19704222,0.196913631001,118663,6617.11097771
2160,7538.6559363,0.197832657001,119216,6775.97747579
2170,7520.75354034,0.198738853001,119771,6692.59306053
2180,7545.71567497,0.199638635001,120323,6384.83909202
2190,7508.46276929,0.200547825001,120865,6379.21180476
2200,7567.2396923,0.201456587001,121418,6856.68379224
2210,7598.59028477,0.202390581001,121968,6331.09613898
2220,7555.05864753,0.203327996001,122511,6268.74560869
2230,7637.32778306,0.204253437001,123059,6586.68383665
2240,7651.42794524,0.205172891001,123612,6519.45447164
2250,7724.93824458,0.206087212001,124163,6636.96009172
2260,7738.88210148,0.207025055001,124714,6806.00537418
2270,7636.58181986,0.207995827001,125262,6596.5820971
2280,7537.21906225,0.208942223001,125811,6475.15240694
2290,7570.51590845,0.209853979001,126350,6765.32651913
2300,7561.98133772,0.210897880001,126894,6607.46823963
2310,7561.50061682,0.211819899001,127437,6294.60475149
2320,7577.67752752,0.212717542001,127991,6596.51407642
2330,7532.94649968,0.213915397001,128534,6466.32121815
2340,7537.35963613,0.214820311001,129085,6379.46473121
2350,7452.44672598,0.215712395001,129629,6463.94188293
2360,7523.37405726,0.216633132001,130180,6465.13279522
2370,7538.66768012,0.217564987001,130730,6587.65935587
2380,7506.14520365,0.218526779001,131282,6481.56920607
2390,7447.4539671,0.219500545001,131825,6453.57128677
2400,7464.86551763,0.220420427001,132372,6556.96804647
2410,7454.54088595,0.221318926001,132919,6517.43219235
2420,7448.83048231,0.222233248001,133465,6468.61490063
2430,7502.6302,0.223157833001,134007,6674.06045619
2440,7501.79477731,0.224088833001,134552,6388.56222327
2450,7503.39185766,0.225039933001,135107,6525.32402444
2460,7514.2491803,0.225965374001,135654,6405.98582257
2470,7524.41323975,0.226881407001,136206,6514.95860581
2480,7533.42140555,0.227798722001,136751,6598.01730488
2490,7502.06334681,0.228710051001,137303,6573.81204121
2500,7425.56144321,0.229628221001,137854,6651.04328736
2510,7455.69215423,0.230530569001,138400,6662.37380433
2520,7490.85695361,0.231444891001,138949,6705.112528
2530,7468.10681026,0.232322435001,139497,6644.08233333
2540,7477.77508106,0.233207249001,140043,6571.52420504
2550,7473.61794007,0.234096340001,140591,6552.79762238
2560,7513.86703559,0.234967042001,141145,6366.0008813
2570,7519.2635142,0.235867679001,141695,6755.49824584
2580,7441.30226504,0.236766177001,142248,6468.83124103
2590,7438.86532916,0.237646715001,142794,6597.94897313
2600,7541.7944994,0.238530246001,143347,6615.97978469
2610,7559.91853484,0.239458253001,143898,6645.27661877
2620,7594.85248511,0.240370437001,144446,6670.04230569
2630,7533.2511425,0.241295451001,144995,6657.950662
2640,7631.19623298,0.242207635001,145551,6476.24585384
2650,7598.93593008,0.243099292001,146104,6587.84024001
2660,7571.17420859,0.243972559001,146651,6272.19486757
2670,7555.60353207,0.244874479001,147202,6658.52055609
2680,7558.38502385,0.245801630001,147754,6586.64558669
2690,7521.41359255,0.246777961001,148306,6618.25676029
2700,7547.92382066,0.247686723001,148860,6488.41239827
2710,7494.72593805,0.248598907001,149409,6722.53944513
2720,7533.28084655,0.249490136001,149962,6456.80175278
2730,7601.5159797,0.250363403001,150510,6652.320974
2740,7546.41022946,0.251313220001,151059,6398.61223739
2750,7479.68340816,0.252199317001,151608,6576.67559775
2760,7629.74414667,0.253108935001,152159,6140.80819385
2770,7539.94569389,0.254013848001,152705,6346.46056294
2780,7593.99459726,0.254942283001,153252,6303.10104192
2790,7617.6414521,0.255848907001,153805,6634.59966112
2800,7611.55957952,0.256929158001,154358,6761.99514496
2810,7528.47271579,0.257814399001,154912,6772.55668515
2820,7641.20939337,0.258743689001,155448,6252.48322645
2830,7743.41487152,0.259674262001,155993,6441.57696259
2840,7681.98471288,0.260605690001,156539,6614.3147846
2850,7677.55383224,0.261501623001,157088,6403.2150871
2860,7599.98887465,0.262421932001,157634,6464.05159015
2870,7562.64554051,0.263317437001,158182,6541.85626956
2880,7667.85644443,0.264217219001,158733,6210.32916101
2890,7679.09909986,0.265100322001,159280,6489.63109955
2900,7699.84478454,0.266027901001,159840,6602.9723779
2910,7700.12879869,0.266946072001,160391,6449.33213245
2920,7735.93572243,0.267873652001,160935,6765.43315772
2930,7794.95060895,0.268768729001,161484,6572.61774443
2940,7738.85935345,0.269743350001,162035,6760.16948178
2950,7784.79371062,0.270696160001,162575,6792.19470148
2960,7771.11435929,0.271607916001,163113,6914.3229971
2970,7874.89890129,0.272512830001,163662,6856.59488872
2980,7830.00076712,0.273380965001,164212,6543.0137243
2990,7854.1722403,0.274264496001,164756,6856.07363208
3000,7718.83014882,0.275239545001,165310,6985.3300838
3010,7719.48547715,0.276149590001,165859,6724.26992954
3020,7694.50831184,0.277045950001,166411,6536.59462234
3030,7786.24764992,0.277958989001,166958,6794.41009
3040,7688.35330485,0.278967822001,167499,6814.90022408
3050,7706.6833794,0.279849215001,168042,6646.57189928
3060,7575.31248087,0.280731891001,168592,6721.28269609
3070,7556.82279849,0.281616277001,169146,6891.52708791
3080,7626.43167531,0.282537014001,169701,6822.70607868
3090,7510.78164765,0.283455612001,170244,6794.70066626
3100,7555.26862938,0.284343419001,170794,6884.90147827
3110,7535.99768442,0.285233364001,171350,6644.90999322
3120,7513.28833456,0.286162654001,171905,6579.9320308
3130,7530.1505663,0.287119741001,172460,6577.03116328
3140,7482.65086847,0.288037912001,173009,6608.86156493
3150,7546.40729434,0.288977038001,173554,6404.56251801
3160,7556.01610949,0.289899913001,174106,6960.76863087
3170,7486.62197793,0.290822360001,174649,6524.34864078
3180,7497.03677684,0.291718293001,175191,6718.90016887
3190,7496.28737894,0.292652287001,175743,6721.26741039
3200,7510.84269605,0.293553779001,176281,6313.54784541
3210,7559.09478425,0.294468101001,176831,6703.36871086
3220,7453.0153779,0.295387127,177379,6802.17703911
3230,7526.25105397,0.296301449,177924,6596.84993197
3240,7578.07791444,0.297196527,178471,6976.90857787
3250,7547.73237212,0.298105717,179025,6654.37903884
3260,7521.99135571,0.299094879,179571,6708.63875736
3270,7486.16217629,0.300082757,180123,6647.7325654
3280,7508.40611314,0.301076623,180668,6654.14342335
3290,7513.15451795,0.302054238,181215,6747.48335268
3300,7477.52469784,0.303053663,181759,6646.15844677
3310,7515.13344169,0.304060358,182306,6602.87425056
3320,7398.21050938,0.305253082,182858,6632.82481613
3330,7410.09137271,0.306243098,183410,6968.87722061
3340,7464.61558384,0.307384503,183965,6857.96234948
3350,7406.89051014,0.308390343,184510,6617.51163132
3360,7504.39843564,0.309372234,185059,6709.49769851
3370,7468.3022928,0.310334453,185609,6805.62441126
3380,7507.16342664,0.31134072,186159,6886.30663886
3390,7479.97672981,0.312328598,186707,7057.01687178
3400,7479.71863394,0.313300225,187252,7026.48687544
3410,7521.61186008,0.31433429,187808,6897.21741023
3420,7400.48882501,0.315311049,188352,6492.58897422
3430,7579.93141879,0.316309619,188911,6763.94175419
3440,7557.53570991,0.317509185,189457,6720.59803768
3450,7706.80528985,0.318514169,190001,6804.589297
3460,7523.1540207,0.319522575001,190545,6925.51989821
3470,7717.96074763,0.320510454001,191090,7320.95893567
3480,7565.29155225,0.32150603,191642,6769.93989966
3490,7562.17825404,0.322505455001,192195,6939.47707113
3500,7474.39186452,0.323512150001,192742,6858.87329169
3510,7553.95517145,0.324591546001,193293,6668.77488435
3520,7487.49848124,0.325590115001,193837,6817.21643169
3530,7521.22521379,0.326578848001,194380,6940.16132994
3540,7416.54331566,0.327587681001,194928,6782.79654111
3550,7479.14752273,0.32856444,195473,6654.02552685
3560,7518.69984024,0.329578405,196017,6581.53299635
3570,7504.52613222,0.330549605,196555,6578.43341572
3580,7516.65812467,0.331542615,197109,7105.00432546
3590,7503.55608155,0.332458647,197654,6787.43599437
3600,7463.62361354,0.333376817,198200,6798.1846548
3610,7451.34401498,0.334315516,198744,6588.20862452
3620,7430.80922789,0.335238391,199297,6659.75598968
3630,7344.61400582,0.336140738,199841,6564.52944826
3640,7519.5131043,0.337033678,200387,6519.2756589
3650,7464.74990475,0.337900958,200933,6680.92646404
3660,7406.13457578,0.338794753,201483,6615.73080892
3670,7447.91773973,0.339717628,202028,6740.02992844
3680,7439.70917542,0.340670011,202580,6797.2401441
3690,7473.28339401,0.341657462,203130,6857.43590127
3700,7517.89024901,0.342696231,203683,6950.42062592
3710,7424.0359872,0.343678977,204236,6772.09275321
3720,7382.28337625,0.34465317,204782,6807.63618132
3730,7456.349978,0.345638483,205335,6783.04464838
3740,7360.85228702,0.346597709,205892,6440.36819112
3750,7569.62903873,0.347568054,206446,7054.87942469
3760,7485.03838281,0.348547807,207005,6714.29790798
3770,7644.65108732,0.349536968,207549,6614.63931805
3780,7585.31374772,0.350475238,208097,6925.79155934
3790,7587.98899031,0.351411798,208650,6822.98926951
3800,7576.85454668,0.35231885,209202,6686.68502494
3810,7517.61006419,0.353237449,209756,7071.64214924
3820,7544.61119909,0.354137231,210302,7056.80084591
3830,7592.56431089,0.355042145,210856,6817.93942791
3840,7587.76370501,0.355955612,211407,6819.24221785
3850,7493.61715361,0.35686865,211957,7127.30266974
3860,7450.76629367,0.357789814,212511,6566.68321577
3870,7455.03352725,0.358714827,213058,6608.59908796
3880,7414.68505036,0.359635136,213611,6591.17885421
3890,7345.45266431,0.360531069,214158,6783.90136051
3900,7413.38406093,0.36143812,214707,6645.99750004
3910,7389.94567909,0.362335763,215261,6529.99160594
3920,7366.64702366,0.363254789,215812,6734.29895803
3930,7367.82566624,0.364190921,216364,6831.47667674
3940,7421.348368,0.365101821,216910,6935.42393141
3950,7432.98313915,0.365987918,217461,6755.49612729
3960,7427.55658581,0.366880002,218006,6757.59366012
3970,7446.8816187,0.367787053,218553,6539.19764367
3980,7425.56781628,0.368700519,219097,6850.32255112
3990,7486.45670628,0.369603295,219646,6592.92534343
4000,7493.84759306,0.370519755,220192,6918.16345433
4010,7474.12112401,0.371436643,220747,7041.33011125
4020,7525.43149563,0.372347972,221290,7007.82684505
4030,7473.89854958,0.373278972,221834,6852.23627151
4040,7489.45992158,0.374219381,222378,6737.45048423
4050,7475.87738499,0.375177751,222928,6811.26530567
4060,7577.70772845,0.376101481,223481,6499.09913222
4070,7581.94030904,0.377018797,224030,6922.78627565
4080,7617.68150278,0.377928414,224571,7094.93632237
4090,7537.16818597,0.3788329,225122,6832.67778413
4100,7581.3864695,0.379755348,225679,6745.95280592
4110,7526.56915924,0.380676513,226232,6819.48639102
4120,7488.06119137,0.381611363,226778,6489.36223652
4130,7545.40356524,0.382544501,227321,6937.90119629
4140,7531.71867225,0.383484054,227863,6690.7902606
4150,7552.33949572,0.384397948,228414,6625.51204068
4160,7477.4978335,0.385341778001,228964,6674.17801218
4170,7495.36525041,0.386673489001,229513,6722.578824
4180,7415.34470611,0.387579257001,230070,6577.73324025
4190,7383.52076369,0.388505980001,230617,6679.83710499
4200,7387.59044439,0.389422868001,231161,6582.82045582
4210,7376.8584488,0.390299557001,231717,6746.0375281
4220,7446.94222314,0.391233123001,232261,6617.83426497
4230,7498.38647896,0.392157708001,232816,6908.43182946
4240,7516.3569361,0.393065187001,233360,6880.79674159
4250,7532.21904825,0.393969245001,233912,6787.15640113
4260,7588.1838915,0.394862612001,234459,6826.28949261
4270,7592.49520179,0.395788908001,235004,6917.36941785
4280,7725.66789641,0.396700664,235558,6572.60398435
4290,7571.66283996,0.397605578,236110,7034.38724807
4300,7636.70028805,0.398508353,236653,6810.01362574
4310,7644.03592541,0.399386752001,237204,6858.93587943
4320,7641.91925353,0.400308772001,237761,6986.60718164
4330,7624.0590218,0.401190164001,238305,6908.5216848
4340,7628.96885047,0.402094222001,238862,6818.77461253
4350,7583.25658851,0.402999136001,239419,6852.64090105
4360,7534.86221458,0.403891647001,239972,6822.58774104
4370,7527.92604254,0.404804258001,240523,6748.24102774
4380,7536.09481131,0.405741673001,241077,6714.11019202
4390,7482.77418025,0.406647442001,241623,6485.59436103
4400,7482.14701271,0.407557487001,242173,6754.88559547
4410,7522.1025997,0.408468388001,242723,6504.6234863
4420,7455.54719418,0.409407942001,243268,6514.47367914
4430,7540.47292196,0.410325257001,243820,6532.05319164
4440,7561.38168254,0.411248987001,244368,6427.54966746
4450,7464.14259076,0.412165020001,244912,6411.34779078
4460,7455.41443968,0.413072072001,245457,6551.7252902
4470,7450.53696586,0.413993237001,246000,6638.42131343
4480,7470.07924844,0.414881044001,246543,6786.47784221
4490,7414.24764066,0.415776977001,247089,6405.28423389
4500,7376.74175338,0.416711826001,247644,6442.42022115
4510,7400.09143238,0.417651379001,248193,6289.46361688
4520,7471.49270024,0.418541752001,248738,6771.07107866
4530,7466.94675712,0.419444527001,249296,6539.92656226
4540,7468.14234155,0.420335756001,249845,6426.03446882
4550,7563.14931697,0.421236393001,250399,6518.85042432
4560,7543.03910353,0.426555112001,250947,6758.41192109
4570,7537.2083035,0.427460881001,251495,6532.4847077
4580,7534.61039777,0.428350827001,252043,6643.13464763
4590,7542.59767217,0.429264294001,252583,6511.64502424
4600,7570.52606786,0.430189308001,253133,6557.3787377
4610,7588.78448304,0.431096788001,253679,6520.16532823
4620,7628.06331187,0.431984596001,254223,6569.53038028
4630,7487.16574632,0.432931847001,254772,6381.84198896
4640,7453.97830019,0.433830346001,255324,6552.81434679
4650,7428.35186623,0.434698482001,255875,6506.72445551
4660,7422.14927863,0.435611948001,256432,6438.61612782
4670,7400.22443449,0.436509163001,256972,6088.02361793
4680,7469.1550676,0.437372167001,257519,6214.16058855
4690,7430.40090813,0.438330538001,258071,6491.24273295
4700,7433.64996945,0.439253413001,258617,6207.8799806
4710,7436.29246073,0.440169018001,259166,6352.6689856
4720,7416.32275298,0.441078209001,259714,6066.58318799
4730,7454.9066043,0.441976708001,260260,6312.3411949
4740,7533.99137319,0.442887181001,260804,6837.24674246
4750,7446.83434471,0.443952037001,261352,6291.96997301
4760,7371.15629631,0.444826587001,261901,6410.33207511
4770,7351.88584892,0.445742191001,262454,6368.71029326
4780,7371.05655624,0.446659934001,263005,6548.01410046
4790,7376.91663088,0.447548169001,263557,6485.712607
4800,7422.41589414,0.448463774001,264110,6349.45054236
4810,7444.75389544,0.449373819001,264669,6375.11380808
4820,7481.6063586,0.450311661001,265219,6357.67092443
4830,7450.01607963,0.451291414001,265772,6540.04490775
4840,7460.43824263,0.452216427001,266318,5941.56192293
4850,7490.22037394,0.453130749001,266870,6509.37763783
4860,7430.20965233,0.454051058001,267424,6265.87505793
4870,7452.6213703,0.454970939001,267978,6557.14470699
4880,7396.27848169,0.455904505001,268525,6519.10597946
4890,7443.18962723,0.456863731001,269078,6037.75929079
4900,7661.35201541,0.457809699001,269629,6203.43536897
4910,7545.42424711,0.458698362001,270172,6001.04531386
4920,7585.54671827,0.459614822001,270721,6380.61210017
4930,7565.64766565,0.460691225001,271261,6175.32614853
4940,7495.57690122,0.461588013001,271812,5864.91750718
4950,7515.67726247,0.462454010001,272359,6136.18546841
4960,7594.36968992,0.463369615001,272900,6122.39448631
4970,7645.72825033,0.464283510001,273450,6333.20588212
4980,7650.65172979,0.465202964001,273997,6308.92432134
4990,7590.37308076,0.466108306001,274549,6497.63545051
