it,funval,time,funcount,weight
0,2417.6646953,1.11189999998e-05,10,3055.67856081
10,2407.06900126,2.6087000002e-05,21,3062.62258868
20,2644.09187248,3.84889999978e-05,32,3231.54083899
30,2756.70977613,5.30289999929e-05,43,3260.6635911
40,2954.13279006,6.88519999983e-05,54,3474.78847826
50,3030.41824007,8.68129999958e-05,65,3505.50022416
60,3224.17882855,9.83599999955e-05,76,3722.34382933
70,3300.97370771,0.000108195999992,87,3764.14720161
80,3340.42263536,0.000122735999987,98,3798.54001809
90,3451.45920977,0.00013556599999,109,3957.82895107
100,3490.90813742,0.000148823999993,120,4004.66713876
110,3645.23419585,0.000160798999993,131,3965.70437902
120,3645.23419585,0.000170634999989,142,4028.18103977
130,3647.09096572,0.000180042999986,153,4032.86021284
140,3647.09096572,0.000192016999989,164,3968.2932457
150,3647.09096572,0.000203135999989,175,4021.10954882
160,3647.09096572,0.000216820999988,186,3975.88812858
170,3647.09096572,0.000227511999988,197,3962.11389204
180,3647.09096572,0.000237775999992,208,3973.7928781
190,3647.09096572,0.000252743999994,219,3979.75723548
200,3647.09096572,0.000263435999997,230,3962.11389204
210,3647.09096572,0.000275838,241,3914.51470057
220,3647.09096572,0.000286529999997,252,3904.32512388
230,3647.09096572,0.000297648999997,263,4008.19915774
240,3647.09096572,0.000310477999996,274,3934.95250596
250,3647.09096572,0.000320741999992,285,3983.36670405
260,3647.09096572,0.000331860999992,296,3993.70773981
270,3647.09096572,0.000341696999996,307,3851.70757908
280,3647.09096572,0.000352389,318,3997.65030759
290,3647.09096572,0.000363508,329,3870.12530358
300,3647.09096572,0.000375481999995,340,3997.65030759
310,3647.09096572,0.000387027999999,351,3912.66274864
320,3647.09096572,0.000397718999999,362,3997.65030759
330,3647.09096572,0.000408837999998,373,4022.40871346
340,3656.85381038,0.000418245999995,384,3997.93165916
350,3656.85381038,0.000431074999995,395,4086.60378614
360,3656.85381038,0.000441338999998,406,3943.549523
370,3656.85381038,0.000458872999999,417,3942.54952101
380,3656.85381038,0.000473841000002,428,3811.28129172
390,3656.85381038,0.000487526000001,439,3948.32340556
400,3656.85381038,0.000498218000004,450,3978.32478219
410,3656.85381038,0.000508481000004,461,3987.5727228
420,3656.85381038,0.000518745000001,472,3956.36385564
430,3666.61665504,0.000533285000003,483,3974.35558123
440,3666.61665504,0.000545686999999,494,3968.65563505
450,3666.61665504,0.000558088999995,505,3852.2702822
460,3666.61665504,0.000569207999995,516,3998.21301072
470,3666.61665504,0.00058160999999,527,3998.21301072
480,3666.61665504,0.00059230099999,538,3899.6091039
490,3666.61665504,0.000602136999994,549,4033.42291597
500,3666.61665504,0.000612827999994,560,3998.21301072
510,3666.61665504,0.000626084999993,571,3986.4833901
520,3666.61665504,0.00063634899999,582,4024.00913314
530,3666.61665504,0.000646612999986,593,4027.42271836
540,3666.61665504,0.00065815899999,604,3973.40888392
550,3666.61665504,0.00066927799999,615,3957.4264086
560,3666.61665504,0.000681251999993,626,3992.24865334
570,3666.61665504,0.000693653999996,637,3919.12094368
580,3666.61665504,0.000706483999991,648,3992.24865334
590,3666.61665504,0.000718030999991,659,3998.21301072
600,3666.61665504,0.00073128799999,670,3974.49720601
610,3666.61665504,0.00074326299999,681,3986.4833901
620,3666.61665504,0.000756947999996,692,3902.76522078
630,3666.61665504,0.000769349999992,703,4040.40841131
640,3666.61665504,0.000780896999991,714,3954.20705995
650,3666.61665504,0.000791587999991,725,3974.35558123
660,3666.61665504,0.000803561999987,736,4040.92194015
670,3666.61665504,0.000815536999987,747,3998.21301072
680,3666.61665504,0.000827510999983,758,3998.21301072
690,3666.61665504,0.000853597999985,769,4027.77038638
700,3666.61665504,0.000874124999982,780,3811.56264328
710,3666.61665504,0.000891658999983,791,3983.92940717
720,3666.61665504,0.000907908999984,802,3983.92940717
730,3666.61665504,0.000927152999985,813,3998.21301072
740,3666.61665504,0.000944686999986,824,3921.68463167
750,3666.61665504,0.000964786999987,835,4027.77038638
760,3666.61665504,0.000983603999984,846,3915.41434161
770,3666.61665504,0.00100370299998,857,3960.09190933
780,3666.61665504,0.00102380299998,868,3850.27184572
790,3666.61665504,0.00104347499998,879,3913.22545176
800,3666.61665504,0.00106100799998,890,3978.60613375
810,3666.61665504,0.00107982399998,901,3998.21301072
820,3666.61665504,0.00109992399998,912,3976.7876054
830,3666.61665504,0.00111916799998,923,3885.19540887
840,3666.61665504,0.00113841199997,934,3921.68463167
850,3666.61665504,0.00115466199998,945,3950.83112331
860,3666.61665504,0.00117305099997,956,3998.21301072
870,3666.61665504,0.00118972899998,967,3966.86893485
880,3666.61665504,0.00120597999997,978,3998.21301072
890,3666.61665504,0.00122308599997,989,4086.8851377
900,3666.61665504,0.00123976399997,1000,3927.06559658
910,3666.61665504,0.00125644199997,1011,3998.21301072
920,3666.61665504,0.00127354799997,1022,4019.31071101
930,3666.61665504,0.00129108099997,1033,3922.86794282
940,3666.61665504,0.00130775999997,1044,3998.21301072
950,3666.61665504,0.00132572099997,1055,3971.02194264
960,3666.61665504,0.00134410999997,1066,3907.14555098
970,3666.61665504,0.00136078899997,1077,3977.31374351
980,3666.61665504,0.00137661199997,1088,3998.21301072
990,3666.61665504,0.00139328999997,1099,4032.03157792
1000,3666.61665504,0.00140996899997,1110,3955.71923124
1010,3666.61665504,0.00143348999998,1121,3998.21301072
1020,3666.61665504,0.00144974099997,1132,3951.72359177
1030,3666.61665504,0.00146898499997,1143,3986.28429597
1040,3666.61665504,0.00148780099997,1154,3852.2702822
1050,3666.61665504,0.00150747299998,1165,3863.64744359
1060,3666.61665504,0.00152628999998,1176,3983.28648353
1070,3666.61665504,0.00154553499998,1187,3960.54047677
1080,3666.61665504,0.00156349699999,1198,3948.89928905
1090,3666.61665504,0.00158145799998,1209,4041.34305288
1100,3666.61665504,0.00159941999998,1220,3921.68463167
1110,3666.61665504,0.00161695399999,1231,4057.32776204
1120,3666.61665504,0.00163619799998,1242,3955.71923124
1130,3666.61665504,0.00165458699998,1253,3831.94179667
1140,3666.61665504,0.00167212099998,1264,3948.89928905
1150,3666.61665504,0.00169050999998,1275,4027.42271836
1160,3666.61665504,0.00170676099999,1286,3960.09190933
1170,3666.61665504,0.00173327499999,1297,3934.45050871
1180,3666.61665504,0.00175850599999,1308,3866.19515841
1190,3666.61665504,0.00177988899999,1319,3988.42732342
1200,3666.61665504,0.001804265,1330,4009.94263133
1210,3666.61665504,0.001827786,1341,3899.6091039
1220,3666.61665504,0.001852162,1352,4041.34305288
1230,3666.61665504,0.001879959,1363,3998.21301072
1240,3666.61665504,0.001917592,1374,3960.09190933
1250,3666.61665504,0.00193983,1385,3986.38530735
1260,3666.61665504,0.001962068,1396,3993.03354254
1270,3666.61665504,0.00198302299999,1407,4037.23771153
1280,3666.61665504,0.00200098399999,1418,3959.07026153
1290,3666.61665504,0.00202065599999,1429,3998.21301072
1300,3666.61665504,0.002039045,1440,3968.85594882
1310,3666.61665504,0.00205743399999,1451,3967.8571908
1320,3666.61665504,0.002085232,1462,3956.41447629
1330,3666.61665504,0.002106187,1473,3998.21301072
1340,3666.61665504,0.00213184699999,1484,3976.7876054
1350,3666.61665504,0.00215323,1495,3980.3199386
1360,3666.61665504,0.002170763,1506,3960.54047677
1370,3666.61665504,0.002190435,1517,3998.21301072
1380,3666.61665504,0.00220839599999,1528,3998.21301072
1390,3666.61665504,0.00223063399999,1539,3998.21301072
1400,3666.61665504,0.00225201699999,1550,3998.21301072
1410,3666.61665504,0.00226912299999,1561,3908.50263264
1420,3666.61665504,0.00228922299999,1572,3968.85594882
1430,3666.61665504,0.00230975099999,1583,4031.62928919
1440,3666.61665504,0.00232813999999,1594,3997.08760447
1450,3666.61665504,0.00234610099999,1605,3915.07740369
1460,3666.61665504,0.00236406199998,1616,3998.21301072
1470,3666.61665504,0.00237988499998,1627,3964.79673224
1480,3666.61665504,0.00239570799998,1638,3998.21301072
1490,3666.61665504,0.00241281399998,1649,3979.15246002
1500,3666.61665504,0.00243120299998,1660,3998.21301072
1510,3666.61665504,0.00244830899998,1671,3998.21301072
1520,3666.61665504,0.00246584299998,1682,4008.76186086
1530,3666.61665504,0.00248294899998,1693,3966.33175971
1540,3666.61665504,0.00250090999998,1704,3969.00330307
1550,3666.61665504,0.00251887199998,1715,3998.21301072
1560,3666.61665504,0.00253939899998,1726,3966.86893485
1570,3666.61665504,0.00255735999998,1737,3955.50408129
1580,3666.61665504,0.00257403899998,1748,3998.21301072
1590,3666.61665504,0.00259200099998,1759,3998.21301072
1600,3666.61665504,0.00260867999999,1770,3998.21301072
1610,3666.61665504,0.00262578699999,1781,3870.68800671
1620,3666.61665504,0.00264374899999,1792,3961.72732859
1630,3666.61665504,0.00266171099999,1803,3904.887827
1640,3666.61665504,0.00267881699999,1814,3919.12094368
1650,3666.61665504,0.00269635099999,1825,3942.83087257
1660,3666.61665504,0.00271473999999,1836,4021.67225195
1670,3666.61665504,0.002732701,1847,3913.22545176
1680,3666.61665504,0.00275109,1858,3954.68865269
1690,3666.61665504,0.002770762,1869,4032.03157792
1700,3666.61665504,0.002789579,1880,3957.4264086
1710,3666.61665504,0.00280796800001,1891,3955.08296855
1720,3666.61665504,0.00282593000001,1902,3879.57491016
1730,3666.61665504,0.00284474700001,1913,3951.55041886
1740,3666.61665504,0.00286356400001,1924,3977.31374351
1750,3666.61665504,0.00288238000001,1935,3850.30715048
1760,3666.61665504,0.00290119700001,1946,3998.21301072
1770,3666.61665504,0.00293070500001,1957,3974.49720601
1780,3666.61665504,0.00295422600001,1968,3951.55041886
1790,3666.61665504,0.00297560900002,1979,3948.91105731
1800,3666.61665504,0.00299613600001,1990,3876.78973107
1810,3666.61665504,0.00302521700002,2001,3998.21301072
1820,3666.61665504,0.00304360600002,2012,3998.21301072
1830,3666.61665504,0.00306199500002,2023,3912.79515186
1840,3666.61665504,0.00307867400002,2034,3974.52206701
1850,3666.61665504,0.00309578000002,2045,3963.00310547
1860,3666.61665504,0.00311502400002,2056,3982.44273956
1870,3666.61665504,0.00313298500001,2067,3948.60475712
1880,3666.61665504,0.00315265700002,2078,3964.39444352
1890,3666.61665504,0.00316976300002,2089,3959.07026153
1900,3666.61665504,0.00318558600001,2100,3866.19515841
1910,3666.61665504,0.00320354700002,2111,3997.36895603
1920,3666.61665504,0.00322193600002,2122,3870.08622243
1930,3666.61665504,0.00323946900002,2133,3961.29158529
1940,3666.61665504,0.00325785800002,2144,4047.72982244
1950,3666.61665504,0.00327581900002,2155,3980.3199386
1960,3666.61665504,0.00329292500003,2166,3974.96830124
1970,3666.61665504,0.00331131400003,2177,3873.50960018
1980,3666.61665504,0.00332842100003,2188,3977.31374351
1990,3666.61665504,0.00334552700003,2199,3998.21301072
2000,3666.61665504,0.00336306000003,2210,4027.42271836
2010,3666.61665504,0.00337973800003,2221,3997.08760447
2020,3666.61665504,0.00339641600003,2232,3939.79359543
2030,3666.61665504,0.00341352300003,2243,3943.83087456
2040,3666.61665504,0.00343105700004,2254,3924.37015985
2050,3666.61665504,0.00344987400003,2265,3998.21301072
2060,3666.61665504,0.00346826300004,2276,3979.752298
2070,3666.61665504,0.00348665200004,2287,3998.21301072
2080,3666.61665504,0.00350418600004,2298,3998.21301072
2090,3666.61665504,0.00352214700005,2309,3986.4833901
2100,3666.61665504,0.00354053600005,2320,3992.24865334
2110,3666.61665504,0.00355849700005,2331,3970.61345435
2120,3666.61665504,0.00357902400005,2342,3951.72359177
2130,3666.61665504,0.00359698600005,2353,3968.28410663
2140,3666.61665504,0.00361537500005,2364,3972.41688829
2150,3666.61665504,0.00363290800005,2375,3986.4833901
2160,3666.61665504,0.00365001400004,2386,3905.23417282
2170,3666.61665504,0.00366840300004,2397,3858.22523514
2180,3666.61665504,0.00368679200004,2408,3990.32787514
2190,3666.61665504,0.00370560800003,2419,3981.50487148
2200,3666.61665504,0.00372057600003,2430,4022.97141658
2210,3666.61665504,0.00373811000003,2441,3977.31374351
2220,3666.61665504,0.00375478800003,2452,3972.41688829
2230,3666.61665504,0.00377275000002,2463,3943.01389798
2240,3666.61665504,0.00378942800003,2474,3913.22545176
2250,3666.61665504,0.00380653400003,2485,3937.50137089
2260,3666.61665504,0.00382235700003,2496,3997.65030759
2270,3666.61665504,0.00383818100003,2507,4058.0708189
2280,3666.61665504,0.00385357600003,2518,3978.77798816
2290,3666.61665504,0.00386897100002,2529,4115.28711316
2300,3666.61665504,0.00388522200002,2540,3924.37015985
2310,3666.61665504,0.00390403800002,2551,3938.35520253
2320,3666.61665504,0.00392157200002,2562,3948.69619899
2330,3666.61665504,0.00393867800003,2573,3950.83112331
2340,3666.61665504,0.00395835000003,2584,3852.2702822
2350,3666.61665504,0.00397588400003,2595,4045.93690569
2360,3666.61665504,0.00399341700003,2606,3950.78140129
2370,3666.61665504,0.00401266200003,2617,4043.06819976
2380,3666.61665504,0.00403190600003,2628,4024.00913314
2390,3666.61665504,0.00405243400003,2639,4036.47720024
2400,3666.61665504,0.00407125100003,2650,3966.33175971
2410,3666.61665504,0.00408964000003,2661,3953.35782168
2420,3666.61665504,0.00410888400003,2672,4035.88554466
2430,3666.61665504,0.00412770000003,2683,3998.21301072
2440,3666.61665504,0.00414523400003,2694,3962.67659516
2450,3666.61665504,0.00416234000004,2705,3998.21301072
2460,3666.61665504,0.00417901900003,2716,3858.22523514
2470,3666.61665504,0.00419783600003,2727,4060.90116246
2480,3666.61665504,0.00421622500004,2738,3998.21301072
2490,3666.61665504,0.00423504200004,2749,3898.99650353
2500,3666.61665504,0.00425428600004,2760,4017.81988768
2510,3666.61665504,0.00427139200004,2771,3958.6669772
2520,3666.61665504,0.00429020900004,2782,3858.22523514
2530,3666.61665504,0.00430902600004,2793,3873.50960018
2540,3666.61665504,0.00432698800004,2804,3998.21301072
2550,3666.61665504,0.00434537700004,2815,3939.79359543
2560,3666.61665504,0.00436333900004,2826,3998.21301072
2570,3666.61665504,0.00438172800003,2837,3925.55182263
2580,3666.61665504,0.00440140000003,2848,3969.06047688
2590,3666.61665504,0.00441893300003,2859,3973.45460485
2600,3666.61665504,0.00443946000004,2870,3998.21301072
2610,3666.61665504,0.00445656600004,2881,3998.21301072
2620,3666.61665504,0.00447623800004,2892,3958.6669772
2630,3666.61665504,0.00449377200004,2903,3901.33142659
2640,3666.61665504,0.00451558200004,2914,3908.50263264
2650,3666.61665504,0.00453439800003,2925,3994.27044293
2660,3666.61665504,0.00455492600003,2936,3998.21301072
2670,3666.61665504,0.00457630800003,2947,3928.4788823
2680,3666.61665504,0.00459341400003,2958,3939.79359543
2690,3666.61665504,0.00461052000004,2969,3998.21301072
2700,3666.61665504,0.00462890900003,2980,3939.39237981
2710,3666.61665504,0.00464644300003,2991,3973.40888392
2720,3666.61665504,0.00466568700003,3002,3992.24865334
2730,3666.61665504,0.00468322100003,3013,3982.44273956
2740,3666.61665504,0.00470075500003,3024,3954.20705995
2750,3666.61665504,0.00471914400003,3035,3998.21301072
2760,3666.61665504,0.00473625000003,3046,3958.6669772
2770,3666.61665504,0.00475378400003,3057,4009.94263133
2780,3666.61665504,0.00477217300003,3068,4027.42271836
2790,3666.61665504,0.00478885100003,3079,3977.31374351
2800,3666.61665504,0.00481151600003,3090,3898.99650353
2810,3666.61665504,0.00483076100002,3101,3969.06047688
2820,3666.61665504,0.00484915000003,3112,3984.61747668
2830,3666.61665504,0.00486796700003,3123,3850.27184572
2840,3666.61665504,0.00488721200003,3134,3888.75596433
2850,3666.61665504,0.00490945000003,3145,4024.00913314
2860,3666.61665504,0.00493040500002,3156,3976.7876054
2870,3666.61665504,0.00495478100003,3167,3998.21301072
2880,3666.61665504,0.00497530800003,3178,4060.37114454
2890,3666.61665504,0.00499754600003,3189,3950.48911575
2900,3666.61665504,0.00502063900003,3200,3961.29158529
2910,3666.61665504,0.00504073900003,3211,3967.13394381
2920,3666.61665504,0.00506383200003,3222,3948.30971262
2930,3666.61665504,0.00508521400003,3233,4028.06606508
2940,3666.61665504,0.00510616900003,3244,3986.4833901
2950,3666.61665504,0.00512840600003,3255,3968.35995635
2960,3666.61665504,0.00514765000003,3266,4009.94263133
2970,3666.61665504,0.00516518400003,3277,3998.21301072
2980,3666.61665504,0.00518485600003,3288,3911.16429465
2990,3666.61665504,0.00520495600003,3299,3998.21301072
3000,3666.61665504,0.00522420000003,3310,3998.21301072
3010,3666.61665504,0.00524601100003,3321,3910.20110918
3020,3666.61665504,0.00526611000004,3332,4040.92194015
3030,3666.61665504,0.00528621000004,3343,3998.21301072
3040,3666.61665504,0.00531101400004,3354,3998.21301072
3050,3666.61665504,0.00533154100003,3365,3923.35806356
3060,3666.61665504,0.00535078600004,3376,3969.64580362
3070,3666.61665504,0.00537216900003,3387,3955.71923124
3080,3666.61665504,0.00539312400003,3398,3973.99261469
3090,3666.61665504,0.00541322400003,3409,3922.86794282
3100,3666.61665504,0.00543289600003,3420,3883.42044215
3110,3666.61665504,0.00545470600003,3431,3978.77798816
3120,3666.61665504,0.00547822700003,3442,3850.30715048
3130,3666.61665504,0.00550388700002,3453,4036.47720024
3140,3666.61665504,0.00552398600003,3464,3879.57491016
3150,3666.61665504,0.00554622400003,3475,3970.61345435
3160,3666.61665504,0.00556675200003,3486,4027.42271836
3170,3666.61665504,0.00559070000003,3497,3998.21301072
3180,3666.61665504,0.00561422100002,3508,3981.30372712
3190,3666.61665504,0.00563346500002,3519,3915.41434161
3200,3666.61665504,0.00565698600003,3530,3998.21301072
3210,3666.61665504,0.00567751300003,3541,3963.00310547
3220,3666.61665504,0.00570146200003,3552,3943.01389798
3230,3666.61665504,0.00572968700003,3563,3964.39444352
3240,3666.61665504,0.00575491800003,3574,3986.38530735
3250,3666.61665504,0.00577715600003,3585,3934.45050871
3260,3666.61665504,0.00580367100003,3596,3969.06047688
3270,3666.61665504,0.00582761900003,3607,4068.63282122
3280,3666.61665504,0.00584985700003,3618,3950.78140129
3290,3666.61665504,0.00587337800003,3629,3958.6669772
3300,3666.61665504,0.00589818200002,3640,3969.64580362
3310,3666.61665504,0.00592042000003,3651,4092.24523833
3320,3666.61665504,0.00594394000003,3662,3941.03135863
3330,3666.61665504,0.00596746100003,3673,3898.99650353
3340,3666.61665504,0.00600081800004,3684,3998.21301072
3350,3666.61665504,0.00602348300004,3695,4008.57194707
3360,3666.61665504,0.00605598400004,3706,3925.24164646
3370,3666.61665504,0.00607822200004,3717,3923.35806356
3380,3666.61665504,0.00610131500004,3728,3998.21301072
3390,3666.61665504,0.00612654600005,3739,4056.63242601
3400,3666.61665504,0.00614579000005,3750,3956.41447629
3410,3666.61665504,0.00616845600005,3761,3958.6669772
3420,3666.61665504,0.00619283300004,3772,3998.21301072
3430,3666.61665504,0.00621421500004,3783,3936.0548769
3440,3666.61665504,0.00623773600005,3794,3998.21301072
3450,3666.61665504,0.00626211300005,3805,3883.42044215
3460,3666.61665504,0.00628306800004,3816,3998.21301072
3470,3666.61665504,0.00630744400004,3827,4028.14191481
3480,3666.61665504,0.00632882700004,3838,3927.06559658
3490,3666.61665504,0.00635705200004,3849,3915.41434161
3500,3666.61665504,0.00638057300004,3860,4040.92194015
3510,3666.61665504,0.00640366600005,3871,3998.21301072
3520,3666.61665504,0.00643060800004,3882,3876.78973107
3530,3666.61665504,0.00645498500005,3893,3902.76522078
3540,3666.61665504,0.00647380200004,3904,3998.21301072
3550,3666.61665504,0.00649390200005,3915,3927.79320021
3560,3666.61665504,0.00651229100004,3926,4009.94263133
3570,3666.61665504,0.00653025200004,3937,3998.21301072
3580,3666.61665504,0.00655035200004,3948,4084.47309505
3590,3666.61665504,0.00656959600004,3959,4024.00913314
3600,3666.61665504,0.00658755700004,3970,3858.22523514
3610,3666.61665504,0.00660423500004,3981,3998.21301072
3620,3666.61665504,0.00662519000004,3992,3950.83112331
3630,3666.61665504,0.00664486200004,4003,3922.86794282
3640,3666.61665504,0.00666538900004,4014,3959.3429656
3650,3666.61665504,0.00668121200004,4025,4115.28711316
3660,3666.61665504,0.00670045600003,4036,3998.21301072
3670,3666.61665504,0.00672055600003,4047,3986.28429597
3680,3666.61665504,0.00673937300003,4058,3973.40888392
3690,3666.61665504,0.00675819000003,4069,3976.4508317
3700,3666.61665504,0.00677657900003,4080,4084.47309505
3710,3666.61665504,0.00679496800004,4091,3887.81478525
3720,3666.61665504,0.00681592300003,4102,3956.6452072
3730,3666.61665504,0.00683431200003,4113,3998.21301072
3740,3666.61665504,0.00685227300004,4124,3998.21301072
3750,3666.61665504,0.00687151700004,4135,3932.92647367
3760,3666.61665504,0.00688905000003,4146,3998.21301072
3770,3666.61665504,0.00690957700004,4157,4033.42291597
3780,3666.61665504,0.00692882100004,4168,3888.75596433
3790,3666.61665504,0.00694849300004,4179,3998.21301072
3800,3666.61665504,0.00696645400004,4190,3998.21301072
3810,3666.61665504,0.00698356000004,4201,3876.78973107
3820,3666.61665504,0.00700194900004,4212,3979.752298
3830,3666.61665504,0.00702076500004,4223,3959.07026153
3840,3666.61665504,0.00704428600005,4234,4014.92114996
3850,3666.61665504,0.00706395800005,4245,4040.92194015
3860,3666.61665504,0.00708405800005,4256,3986.38530735
3870,3666.61665504,0.00710373000005,4267,3998.21301072
3880,3666.61665504,0.00712126300005,4278,3964.39444352
3890,3666.61665504,0.00714050800005,4289,3898.99650353
3900,3666.61665504,0.00715975300005,4300,3923.80063032
3910,3666.61665504,0.00717856900005,4311,3938.35520253
3920,3666.61665504,0.00719695800005,4322,3976.4508317
3930,3666.61665504,0.00721534700005,4333,3950.48911575
3940,3666.61665504,0.00723245300005,4344,3998.21301072
3950,3666.61665504,0.00725084200005,4355,4068.63282122
3960,3666.61665504,0.00726752000006,4366,3969.06047688
3970,3666.61665504,0.00728804700006,4377,3902.56925771
3980,3666.61665504,0.00730600900005,4388,3974.96830124
3990,3666.61665504,0.00732439900005,4399,3876.78973107
4000,3666.61665504,0.00734236000005,4410,3998.21301072
4010,3666.61665504,0.00735818300005,4421,4022.97141658
4020,3666.61665504,0.00737571700005,4432,3998.21301072
4030,3666.61665504,0.00739496200006,4443,3963.00310547
4040,3666.61665504,0.00741292300005,4454,4060.90116246
4050,3666.61665504,0.00743216800005,4465,3998.21301072
4060,3666.61665504,0.00745098400005,4476,3998.21301072
4070,3666.61665504,0.00746723400005,4487,3927.79320021
4080,3666.61665504,0.00748476800004,4498,3968.35995635
4090,3666.61665504,0.00750615100004,4509,3961.72732859
4100,3666.61665504,0.00752582300004,4520,3998.21301072
4110,3666.61665504,0.00754421200004,4531,3927.79320021
4120,3666.61665504,0.00756302900004,4542,3923.35806356
4130,3666.61665504,0.00758783300004,4553,3998.21301072
4140,3666.61665504,0.00760707700003,4564,3998.21301072
4150,3666.61665504,0.00762589300003,4575,3911.16429465
4160,3666.61665504,0.00764898600002,4586,3998.21301072
4170,3666.61665504,0.00766780200002,4597,3904.887827
4180,3666.61665504,0.00768533600002,4608,3998.21301072
4190,3666.61665504,0.00770800100003,4619,3993.03354254
4200,3666.61665504,0.00772681700003,4630,3977.31374351
4210,3666.61665504,0.00774520600002,4641,3800.95812406
4220,3666.61665504,0.00776487800002,4652,3932.92647367
4230,3666.61665504,0.00778455000003,4663,3998.21301072
4240,3666.61665504,0.00780336700003,4674,4009.94263133
4250,3666.61665504,0.00782603200003,4685,4049.80525556
4260,3666.61665504,0.00784570400002,4696,4060.90116246
4270,3666.61665504,0.00786580300002,4707,3974.49720601
4280,3666.61665504,0.00789317200002,4718,3914.61594187
4290,3666.61665504,0.00791327100002,4729,3998.21301072
4300,3666.61665504,0.00793850300002,4740,4086.8851377
4310,3666.61665504,0.00796202400002,4751,3950.48911575
4320,3666.61665504,0.00798255200002,4762,4015.12229432
4330,3666.61665504,0.00800265200002,4773,3949.77221866
4340,3666.61665504,0.00802232400002,4784,3948.89928905
4350,3666.61665504,0.00804028500002,4795,3997.93165916
4360,3666.61665504,0.00805910200002,4806,3993.03354254
4370,3666.61665504,0.00807877400002,4817,3998.21301072
4380,3666.61665504,0.00809887300002,4828,3979.752298
4390,3666.61665504,0.00811769000001,4839,4092.24523833
4400,3666.61665504,0.00813736200001,4850,3982.44273956
4410,3666.61665504,0.00815917300002,4861,3899.6091039
4420,3666.61665504,0.00818141100002,4872,4009.94263133
4430,3666.61665504,0.00820108300001,4883,3963.00310547
4440,3666.61665504,0.00821990000001,4894,3879.57491016
4450,3666.61665504,0.00823914400001,4905,3850.30715048
4460,3666.61665504,0.00825796100001,4916,3912.79515186
4470,3666.61665504,0.00828148200001,4927,3982.44273956
4480,3666.61665504,0.00829987100001,4938,3950.78140129
4490,3666.61665504,0.00832039900001,4949,4014.92114996
4500,3666.61665504,0.008339216,4960,4031.62928919
4510,3666.61665504,0.008358888,4971,3998.21301072
4520,3666.61665504,0.00837856,4982,3912.79515186
4530,3666.61665504,0.008397804,4993,3939.79359543
4540,3666.61665504,0.008418759,5004,4060.37114454
4550,3666.61665504,0.008438859,5015,4115.28711316
4560,3666.61665504,0.008458959,5026,4057.32776204
4570,3666.61665504,0.008478631,5037,4013.1395379
4580,3666.61665504,0.008497875,5048,3998.21301072
4590,3666.61665504,0.008517119,5059,3998.21301072
4600,3666.61665504,0.008536791,5070,3850.30715048
4610,3666.61665504,0.00855689000001,5081,3998.21301072
4620,3666.61665504,0.008576562,5092,3923.35806356
4630,3666.61665504,0.008596234,5103,3998.21301072
4640,3666.61665504,0.00861505,5114,3907.14555098
4650,3666.61665504,0.008634294,5125,3950.83112331
4660,3666.61665504,0.008653111,5136,3915.07740369
4670,3666.61665504,0.008672355,5147,3964.79673224
4680,3666.61665504,0.008691172,5158,3998.21301072
4690,3666.61665504,0.008709561,5169,3979.752298
4700,3666.61665504,0.00872624,5180,3863.64744359
4710,3666.61665504,0.008745912,5191,3962.67659516
4720,3666.61665504,0.008765156,5202,3998.21301072
4730,3666.61665504,0.008783117,5213,3993.03354254
4740,3666.61665504,0.00879936800001,5224,3968.28410663
4750,3666.61665504,0.00881519100001,5235,4037.23771153
4760,3666.61665504,0.00883144200002,5246,3977.31374351
4770,3666.61665504,0.00884683800002,5257,4019.31071101
4780,3666.61665504,0.00886351600002,5268,3905.23417282
4790,3666.61665504,0.00888233300002,5279,3970.61345435
4800,3666.61665504,0.00889943900002,5290,3955.71923124
4810,3666.61665504,0.00891568900002,5301,3959.07026153
4820,3666.61665504,0.00894006500002,5312,3998.21301072
4830,3666.61665504,0.00895930900002,5323,4009.94263133
4840,3666.61665504,0.00897641500002,5334,4029.85956116
4850,3666.61665504,0.00899437600003,5345,3974.96830124
4860,3666.61665504,0.00901062700002,5356,3955.50408129
4870,3666.61665504,0.00902816100002,5367,3850.27184572
4880,3666.61665504,0.00904655000002,5378,3998.21301072
4890,3666.61665504,0.00906408300002,5389,3919.12094368
4900,3666.61665504,0.00908204400002,5400,3973.45460485
4910,3666.61665504,0.00910086100003,5411,3997.08760447
4920,3666.61665504,0.00912053300003,5422,3946.62076587
4930,3666.61665504,0.00914020500003,5433,3950.48911575
4940,3666.61665504,0.00915773900002,5444,3866.19515841
4950,3666.61665504,0.00917570000002,5455,3908.50263264
4960,3666.61665504,0.00919708300002,5466,3998.21301072
4970,3666.61665504,0.00921718300003,5477,3898.40641451
4980,3666.61665504,0.00923343300003,5488,3998.21301072
4990,3666.61665504,0.00925096700003,5499,3998.21301072
