it,funval,time,funcount,weight
0,26275.701914,0.00416876100007,582,25158.3817312
10,26343.2657667,0.00838884000041,1069,25033.8933237
20,26918.471965,0.0126102020004,1557,27492.94777
30,26630.7168724,0.016773403001,2025,27396.8667057
40,26925.7252598,0.0211260540009,2506,26192.3655117
50,27362.9009574,0.0254030110009,2993,26630.9517198
60,27174.9301853,0.0296042730006,3466,27964.3268365
70,27566.7226106,0.0338559980009,3940,27830.4190301
80,27368.8201505,0.0381235460009,4431,26306.0789374
90,27948.0945677,0.0424163260013,4907,26900.8269802
100,27965.5493616,0.0465448870018,5395,27104.4263779
110,28301.5821059,0.0508821430021,5899,27039.471282
120,27456.1497192,0.0549833340019,6390,26840.4448284
130,27673.6284762,0.0584841000018,6878,27185.8011942
140,27665.1251925,0.0626943430016,7365,27509.2567503
150,27705.0722244,0.0664307460011,7852,28709.0303836
160,27681.1244492,0.0708030690012,8335,28343.977508
170,27626.6092981,0.0750137390014,8803,28857.498522
180,27601.9169432,0.0789909100013,9294,28152.4434249
190,27866.7548102,0.0836583140008,9768,28462.8938685
200,27732.2413585,0.0875850230004,10252,28967.8947033
210,27761.7628375,0.0924829320002,10740,28344.192826
220,27771.6300074,0.0974757799995,11229,27486.8035186
230,27870.2811371,0.102141044999,11718,27945.7797943
240,27967.2077092,0.106341878999,12202,27713.2448923
250,28094.1056075,0.110612420999,12669,29030.2777186
260,27669.813153,0.114514325999,13144,28552.6628559
270,27841.5801859,0.118686935999,13621,28230.8061624
280,28093.5633252,0.122979715999,14119,28500.9955522
290,27733.5234053,0.127233151999,14602,27705.7996589
300,27814.2436299,0.130858364998,15080,28399.6807309
310,27987.1143625,0.134587069998,15569,28050.5539873
320,27987.2180862,0.138320906998,16058,29108.6535989
330,28285.7554182,0.142931860998,16543,28583.2126169
340,28144.2737508,0.147199409998,17026,28490.973598
350,27939.1014068,0.151419060998,17513,28649.2813548
360,28091.3413124,0.155652396998,17996,28939.781311
370,28157.5335751,0.159866060998,18477,28771.3645623
380,28112.7140248,0.163535322999,18963,28670.6752304
390,28205.9378096,0.167960246999,19456,28341.4778843
400,28064.741151,0.171968637998,19926,29062.9508508
410,28304.1601733,0.175632767998,20400,28864.7742235
420,28385.5772103,0.179255415997,20895,28769.2591696
430,28029.4358857,0.182808783998,21379,28610.5025017
440,28155.5897507,0.186730360997,21866,28890.3515437
450,28223.97194,0.191187786997,22352,29639.0596248
460,28166.4639677,0.194728324997,22828,28278.5010954
470,28380.5903362,0.198671712997,23312,28773.5987725
480,28262.3381552,0.202865277997,23783,29194.1781879
490,28410.5107544,0.207337671997,24272,28802.7299737
500,28621.4362541,0.211038579997,24755,28512.3586693
510,28734.6484175,0.214637705997,25231,29885.5911424
520,28879.5132574,0.218174394997,25709,29714.0024181
530,28803.3956775,0.222542013997,26193,29390.1839205
540,28726.3527812,0.226694950996,26661,30006.1196089
550,28682.4412577,0.231246033995,27139,29432.4217498
560,28952.7109593,0.235758199995,27636,28972.5956069
570,28716.2888864,0.239375288995,28115,29355.7941182
580,28976.105657,0.243696293995,28602,29243.0074829
590,28744.6166235,0.247934760995,29076,29237.0810172
600,28768.2422501,0.252235237996,29576,29762.1949679
610,28797.6138992,0.255877557996,30062,29374.8197661
620,28966.1861785,0.259967629995,30554,29498.4872222
630,28929.3255087,0.264147080995,31039,29215.852479
640,29257.4166869,0.268509567994,31523,29403.2723045
650,28910.9050788,0.272264359995,32005,29677.458436
660,29004.7433637,0.276081588994,32483,29638.1929608
670,28767.8546378,0.279880857995,32970,29746.7304249
680,28783.195841,0.284167222994,33464,29356.232871
690,29371.4177888,0.288385590994,33940,29278.4081109
700,29440.7689005,0.292813080994,34413,29011.8177527
710,29275.2238351,0.296513988995,34895,29729.5117086
720,29306.9040968,0.300609620995,35377,29953.1780929
730,29333.0567422,0.304881873994,35846,29551.6538528
740,29527.0161696,0.309307652994,36333,29596.0124065
750,29366.4141193,0.313592306994,36818,29646.510505
760,29714.2196789,0.317834623994,37310,29858.9865908
770,29825.2381374,0.322041445994,37768,29430.5220564
780,29661.6049391,0.325643137994,38258,30288.5264938
790,29957.9948532,0.329202920994,38749,29850.7436106
800,29818.9496765,0.332914947994,39236,30139.1611427
810,29804.7965131,0.337331319995,39719,30365.6323604
820,29587.5921574,0.341032654995,40195,29974.1002543
830,29604.7863922,0.345269839994,40693,29769.8666674
840,29916.3481213,0.349498470994,41164,29242.9392574
850,29954.4843323,0.353980272994,41637,29845.5879416
860,30123.2994959,0.358571553994,42124,30101.4638602
870,29849.2407333,0.363113227994,42598,29489.6672918
880,30006.5485714,0.368549979994,43076,30200.037546
890,29940.1092367,0.372315890994,43563,29790.2828764
900,29909.6601776,0.375847020994,44053,29108.8902477
910,30106.2348914,0.379454272995,44541,29554.1988673
920,30112.2528572,0.383100013994,45023,28972.4253452
930,30187.5144102,0.387049815994,45504,29366.9753105
940,30202.0002066,0.390499263995,45983,29723.0997978
950,30763.3408761,0.396736152994,46467,29750.9300513
960,30387.8262782,0.400365642994,46965,29070.4587111
970,30086.4449666,0.405757062994,47452,29929.6317492
980,30057.9700298,0.409812067994,47930,28917.4814722
990,29801.5383138,0.413817464993,48423,29256.2886334
1000,29892.67037,0.417300269993,48918,29494.9552502
1010,30103.2159371,0.420887422993,49386,29696.2988571
1020,30286.8726896,0.424438224993,49879,29404.9977308
1030,30213.8769999,0.428698074992,50364,29281.4206951
1040,30108.1389356,0.432941674992,50845,29588.0841747
1050,30161.9399608,0.436609225992,51330,29678.922907
1060,30218.4684881,0.440090320991,51819,29957.5748018
1070,30171.6024851,0.444515245991,52299,29480.6102809
1080,30072.7773922,0.448738317991,52773,29835.3070093
1090,30363.2426021,0.452934447992,53252,29470.7650033
1100,30159.631525,0.456968070992,53738,29567.507847
1110,30456.5541714,0.461473821992,54215,29930.9606259
1120,30024.9042812,0.466045858991,54687,29472.8933786
1130,30237.7177624,0.469943487991,55166,29623.2235991
1140,30433.4523007,0.473652949991,55657,29657.4646709
1150,30324.4197618,0.477870461992,56151,30195.6376755
1160,30207.8069907,0.482444637992,56626,29681.5629678
1170,30327.1217518,0.486190021991,57112,29831.4284272
1180,30106.4297496,0.490589714991,57601,29211.1878916
1190,30097.9887671,0.494111435991,58090,30139.8063451
1200,30202.138645,0.497789249991,58573,29889.9230142
1210,30157.880253,0.501343900991,59063,29928.4511383
1220,30129.0290073,0.505066618991,59552,29733.0078546
1230,30264.9388796,0.50862255299,60036,29838.258498
1240,30140.4589088,0.51315823899,60513,29655.1873225
1250,29907.5604101,0.517726854991,61009,29486.0698637
1260,29842.45363,0.521923412991,61489,29931.17018
1270,30215.4418535,0.526228593991,61972,29579.5966664
1280,29863.1376934,0.529983385991,62453,29687.0732203
1290,29859.8107863,0.534460911991,62932,29240.191276
1300,29815.0960501,0.538788330991,63430,29226.2234746
1310,29682.4787015,0.542967781991,63916,29019.7311774
1320,29716.0995467,0.546700335991,64387,29715.4366461
1330,29752.6088656,0.550939658991,64876,29712.9906528
1340,29637.2845889,0.55475731599,65358,29344.1350638
1350,29632.6468699,0.559014172991,65843,29193.5574271
1360,29645.9070674,0.563155135991,66316,29684.4702012
1370,29773.7492104,0.567430809991,66798,29481.8978284
1380,29500.631266,0.571740268992,67289,28960.995337
1390,29688.041507,0.575995414991,67779,29437.9276808
1400,29957.0857132,0.580257403991,68255,29188.7511057
1410,30059.6862815,0.58423115399,68733,29143.3862566
1420,29569.4753058,0.58839777699,69222,29591.1017961
1430,29588.2670025,0.59264351499,69709,29370.0627267
1440,29465.1545754,0.596917905989,70193,29174.2707612
1450,29632.7928465,0.60073000299,70679,29432.7411355
1460,29579.0236011,0.60507623899,71159,29153.8409853
1470,29450.6445248,0.609333951989,71641,29725.2393125
1480,30014.5454952,0.61384911099,72114,29264.8353271
1490,29673.8697173,0.61776769399,72600,29096.1310264
1500,29602.7083268,0.62219048099,73075,29191.8625141
1510,29785.0400903,0.62642296199,73553,30005.9647857
1520,30000.3177118,0.63086841399,74029,29940.1555884
1530,29753.4784485,0.635115861991,74512,29487.4437243
1540,29774.4689505,0.639350907991,74993,29529.1010783
1550,29826.9166098,0.643909259991,75477,29375.7843236
1560,29990.5226695,0.648411589991,75959,29883.9488771
1570,29752.632617,0.652650484991,76436,29390.7444368
1580,29631.4832914,0.65707669199,76924,29170.72255
1590,29480.5319309,0.66148365499,77397,28804.5424306
1600,29467.0105428,0.66531200399,77878,29326.5759724
1610,29540.3527286,0.66914976099,78348,28963.7564527
1620,29508.7631795,0.67375301699,78823,28968.6022071
1630,29333.2494937,0.67743467999,79301,29128.150706
1640,29593.2892125,0.681703082991,79794,28830.1864255
1650,29318.1700859,0.685926155991,80295,28289.5848877
1660,29609.8872341,0.68980667799,80792,28903.7806323
1670,29516.7808979,0.69386125499,81277,28710.0592575
1680,29632.6005981,0.698115117991,81760,28703.3982519
1690,29573.9419021,0.702417305991,82245,29164.8709633
1700,29468.5685207,0.70655356399,82728,28780.9377551
1710,29648.7340956,0.71007913499,83214,28783.976526
1720,29551.2644864,0.714559226991,83698,28909.7853527
1730,29828.5181392,0.718569755991,84191,28764.6361632
1740,29703.1742406,0.722801808991,84664,28909.0185109
1750,29604.856473,0.726817041991,85164,29361.1295487
1760,29712.5581126,0.731019159992,85648,28514.5156499
1770,29851.7413408,0.735576228992,86135,29168.711613
1780,29681.9486164,0.739756535992,86629,28718.2996883
1790,29607.996357,0.743991581991,87113,28991.8822493
1800,29671.2951706,0.747538962992,87601,29039.0489841
1810,29663.8617551,0.751865527992,88085,28853.2174681
1820,29664.0571909,0.756127943991,88561,28603.53441
1830,29635.0073278,0.760338186991,89039,28123.3566974
1840,29544.8539748,0.764571094991,89506,28272.9366121
1850,29351.2078281,0.768843346991,90011,28949.940237
1860,29445.7139267,0.773068556991,90490,28924.3351251
1870,29630.4549761,0.77728307599,90982,29199.1001484
1880,29632.6382004,0.780902301991,91458,28785.2136085
1890,29399.2499658,0.78466222599,91948,28742.0214835
1900,29465.450957,0.78852050999,92434,29631.8392492
1910,29533.3627579,0.79257123799,92923,29451.1938126
1920,29653.6898469,0.79737335199,93401,29058.7475858
1930,29566.9171117,0.801666558989,93893,29144.3205034
1940,29752.2905872,0.806572592989,94371,29054.4674644
1950,29489.5325235,0.811067224989,94860,29535.7913949
1960,29489.6891935,0.815753873989,95340,29096.0636363
1970,29799.7547386,0.819582222989,95814,29313.0657709
1980,29812.6827435,0.823864310989,96293,29581.4323147
1990,29619.2919896,0.82812972099,96793,29027.0143114
2000,29759.4399165,0.83220781899,97279,29862.0806639
2010,29721.0936964,0.83587023799,97775,29698.2451729
2020,29576.0083861,0.83957841599,98246,29295.2224273
2030,29869.5703802,0.84383185199,98727,29652.3348374
2040,29664.0527924,0.847318078991,99202,29601.7393217
2050,29787.6281233,0.850837234991,99693,29612.6631833
2060,29668.0780005,0.85440642599,100178,29974.5478229
2070,29763.58718,0.858735556991,100674,29660.9269883
2080,29846.1675121,0.863313580991,101149,29728.192699
2090,29649.3672562,0.86788518999,101624,29697.2213859
2100,29798.1915377,0.87216770599,102095,29225.5812638
2110,29692.2571861,0.876398475991,102588,30046.4984025
2120,29646.4712266,0.879967239991,103066,29946.0237537
2130,29720.9894003,0.88421896499,103556,29341.9603254
2140,29608.9120407,0.888440753991,104040,29310.5835055
2150,29742.9306888,0.89258342699,104508,29351.1976296
2160,29613.1664582,0.89645582399,104991,29199.3379395
2170,29554.867883,0.90071567499,105461,29514.5166031
2180,29531.9373144,0.904550010991,105948,29241.338966
2190,29536.6132225,0.90883509299,106424,29781.9239635
2200,29516.8609429,0.91250093399,106909,29175.7231296
2210,29592.0415657,0.91618986799,107384,29402.8453203
2220,29379.7869739,0.919756492991,107878,28902.1102366
2230,29680.5533837,0.923887192991,108355,29461.8946754
2240,29618.3124511,0.927929794992,108847,29365.0468151
2250,29549.7036933,0.932167834992,109325,29706.8770633
2260,29489.5516612,0.935886276991,109817,29534.1599058
2270,29425.0741423,0.940374065992,110302,28875.2036776
2280,29485.8233531,0.944980314992,110781,29286.8171827
2290,29394.3019609,0.949468531992,111270,29073.7391113
2300,29485.1173891,0.954087182992,111758,28993.3804429
2310,29180.4103058,0.958732775992,112239,28993.7096339
2320,29246.3122675,0.962294268991,112731,29380.5331826
2330,29339.1244206,0.966885122992,113214,28259.1805877
2340,29254.5276315,0.971357943991,113695,29041.8815832
2350,29626.6018932,0.976116864991,114188,29002.8480866
2360,29691.5981069,0.979851557991,114671,28849.0389997
2370,29461.6529146,0.984329082991,115159,28842.7141295
2380,29305.451331,0.988313952991,115637,28913.6196622
2390,29365.906771,0.992967671991,116115,28505.9864329
2400,29243.7826383,0.997500791991,116607,28913.2815952
2410,29338.9838384,1.00172215399,117088,28970.3972843
2420,29362.9559973,1.00566425899,117566,28754.9615897
2430,29515.792162,1.01032781399,118058,29018.953955
2440,29376.5826129,1.01409586399,118542,29287.0022403
2450,29475.4042879,1.01820988499,119032,28706.7740106
2460,29468.8583576,1.02295383799,119511,29238.2681144
2470,29267.2515789,1.02726201299,120010,28624.6030904
2480,29411.0532533,1.03153512099,120501,28412.9520138
2490,29712.9968568,1.03535962099,120981,28935.7897424
2500,29669.3050676,1.03962075499,121471,28942.9395638
2510,29895.2669761,1.04378267299,121951,29450.0911238
2520,29831.9842339,1.04824907999,122436,29407.7838787
2530,29909.9252193,1.05322867099,122918,29405.0636791
2540,29770.6488321,1.05765316799,123410,29450.8900982
2550,29771.1729559,1.06212727299,123887,29506.1293652
2560,29780.924902,1.06589318399,124375,29416.7069294
2570,30050.0874542,1.06965866699,124869,29534.4875289
2580,29864.6561757,1.07409299999,125357,29273.955842
2590,30051.3752332,1.07801329399,125844,29849.8386612
2600,29884.1572043,1.08254384899,126342,29497.347482
2610,30122.9548415,1.08949662899,126822,29728.1346618
2620,29987.8233059,1.09403017799,127300,30171.6275129
2630,29960.9877056,1.09822759199,127781,29679.6901958
2640,29692.9527923,1.10247076399,128273,29308.4357158
2650,29703.4540779,1.10604123799,128760,28982.1749679
2660,29621.1870725,1.11026858699,129235,29024.0432288
2670,29750.4721922,1.11446386199,129722,29132.1899795
2680,30013.871741,1.11884003399,130209,29679.8912578
2690,30016.6126031,1.12306994899,130694,29582.676186
2700,29922.3940043,1.12731012699,131182,29449.1567054
2710,30013.8920096,1.13158195199,131657,29002.7405291
2720,29799.4575421,1.13582726199,132140,29518.8689618
2730,30076.1135735,1.13950293899,132625,29189.2487551
2740,29939.401707,1.14311061899,133110,29665.3717939
2750,30051.9922543,1.14729049799,133612,29405.1773582
2760,29823.5988321,1.15073438699,134100,28978.0119275
2770,30089.6878639,1.15420008599,134579,29200.8585847
2780,29911.4197707,1.15805879799,135058,28360.5304561
2790,30197.7790749,1.16164509499,135542,29127.629352
2800,29931.4184472,1.16579974299,136027,28906.0488074
2810,30177.983534,1.16939330999,136496,29477.0366174
2820,30046.2054262,1.17332857199,136973,29692.0965059
2830,30066.3155084,1.17692085599,137465,29425.4545019
2840,29886.5535381,1.18121021399,137945,29394.5820392
2850,30009.3548912,1.18542772699,138432,29200.6830146
2860,29855.3573328,1.18933305299,138913,29008.4946365
2870,29769.0086881,1.19360231099,139392,29156.0321536
2880,30209.2059235,1.19785873999,139873,28738.078173
2890,30093.1560188,1.20212286699,140349,28518.071394
2900,29834.6646005,1.20630873399,140815,29095.9791915
2910,30028.1511972,1.21081320199,141297,28710.717161
2920,29692.9442476,1.21459065999,141776,28360.8008528
2930,30203.3726639,1.21836683499,142264,28584.890171
2940,30124.9954731,1.22255270099,142752,29103.9012181
2950,29608.2532733,1.22604405899,143242,28928.4072148
2960,30224.4587261,1.22983092499,143721,28961.5105332
2970,29998.097065,1.23359769099,144200,29042.5153405
2980,30075.4179318,1.23741278299,144681,28557.4300938
2990,30007.9046375,1.24147334699,145171,28921.0450356
3000,30060.1990331,1.24568743899,145648,29301.6534945
3010,30139.1326277,1.25013075199,146128,29166.7448615
3020,29996.9124069,1.25474854799,146628,28857.591456
3030,29900.4228302,1.25834724699,147103,28243.3585441
3040,29995.2051008,1.26274309099,147582,29010.4216639
3050,30063.9558855,1.26629346599,148064,28609.4996876
3060,29960.5055053,1.26996614999,148552,28869.3066204
3070,29741.8743515,1.27441459599,149029,28482.127511
3080,29895.732458,1.27790638199,149508,28778.56914
3090,30274.9746638,1.28213116499,149998,29079.5622899
3100,30222.9542078,1.28629137299,150479,29079.0544019
3110,29811.5200734,1.29011416199,150955,28956.8931527
3120,29695.6281865,1.29391984499,151437,28314.4385224
3130,29911.6988864,1.29848974299,151922,28943.1387007
3140,29798.0157735,1.30301174399,152400,28950.9701619
3150,29889.7261881,1.30728527999,152887,28723.3998945
3160,29766.3300668,1.31095667999,153374,28589.4801083
3170,29616.3991478,1.31520583899,153863,28274.6991932
3180,29790.2965076,1.31951529799,154348,28831.3363871
3190,29664.8902493,1.32374735099,154828,28931.9265149
3200,29627.155327,1.32794818499,155318,27852.3525823
3210,29636.5686341,1.33240817699,155797,28513.638083
3220,29962.9368685,1.33662654499,156295,28015.6034134
3230,29835.8937763,1.34080214799,156771,28288.5070247
3240,30070.3965976,1.34507311699,157241,28600.2190934
3250,29817.3132191,1.34930730799,157733,28237.8250364
3260,29979.1058727,1.35354577599,158216,28745.3060609
3270,29940.6314936,1.35782315999,158703,27852.2307184
3280,29801.2834747,1.36155485999,159179,29039.6439704
3290,30283.3724001,1.36598320599,159651,29042.7402224
3300,30368.2569511,1.37026957099,160142,28392.0822068
3310,29855.7547721,1.37447596499,160625,28122.4611223
3320,29845.5841374,1.37886838699,161105,28397.0200355
3330,29813.9489798,1.38296059799,161579,28237.7878885
3340,30011.934253,1.38669700199,162069,28557.9283902
3350,30038.0100271,1.39043639899,162551,28383.9232026
3360,29766.7330344,1.39464150999,163026,27996.9150201
3370,29658.4340481,1.39881283599,163504,28052.3970914
3380,30053.6982601,1.40233541299,163991,28392.4833892
3390,29888.9321991,1.40602006999,164479,27639.7366175
3400,30225.8401425,1.40953580399,164954,29220.9649026
3410,30146.3675573,1.41411895999,165441,29027.8254624
3420,30093.9531716,1.41835101299,165912,28927.3468013
3430,30129.7581615,1.42259888899,166409,29192.8246189
3440,30043.5042822,1.42679116999,166892,28817.5676522
3450,30162.4811103,1.43103990099,167369,28739.3921724
3460,30280.6056682,1.43526981599,167846,28795.8411029
3470,30218.0514672,1.43896003299,168319,28668.5768153
3480,30369.81384,1.44258225299,168806,29108.0636503
3490,30434.8482711,1.44655899799,169296,28750.9763843
3500,30737.9851256,1.45042455299,169780,29643.6375709
3510,30643.6401223,1.45478233599,170258,29622.0659077
3520,30737.9958891,1.45917561399,170735,29642.7821692
3530,30812.6011315,1.46283161799,171206,29747.8439936
3540,30813.9683027,1.46635419498,171683,28927.5922315
3550,31013.5486063,1.47046864399,172167,29718.3747301
3560,30487.8673356,1.47504410199,172643,29380.513651
3570,30695.9241423,1.47922398199,173118,29482.477076
3580,30379.0657705,1.48271020899,173597,28797.0332358
3590,30385.7890952,1.48699443599,174071,28382.1418013
3600,30465.9880981,1.49052385499,174553,28533.0658525
3610,30264.9286619,1.49412469199,175040,28618.0020566
3620,30247.3647566,1.49767549399,175538,29099.83509
3630,30508.2921464,1.50120705199,176009,28633.7462835
3640,30284.4632467,1.50507132399,176496,28863.9332905
3650,30263.3062485,1.50917337099,176972,29239.0396831
3660,30542.1137785,1.51379843699,177446,29355.2155968
3670,30327.9765609,1.51842521399,177930,29211.8389676
3680,30576.8127633,1.52316018699,178416,29118.5683497
3690,30489.1816239,1.52811540099,178892,28806.1591457
3700,30609.0627489,1.53320575399,179383,29223.3845076
3710,30582.4330149,1.53735056599,179872,29670.8790373
3720,30492.6351788,1.54116009799,180355,29252.2638897
3730,30686.5621888,1.54469037299,180836,29206.7306148
3740,30593.2101395,1.54853668299,181313,29595.5381043
3750,30643.6499284,1.55278840799,181794,29828.5490875
3760,30690.3706029,1.55759052199,182264,29478.5831371
3770,30715.6456975,1.56106691199,182748,29142.1036539
3780,30559.0151528,1.56528741799,183228,29278.1028073
3790,30720.0783705,1.56947371199,183707,29655.0955466
3800,30513.3137476,1.57366513799,184192,29158.501648
3810,30496.2512733,1.57786853799,184675,29431.3296389
3820,30547.5993006,1.58215832399,185154,29292.3937881
3830,30585.3347789,1.58643314199,185627,29026.5973839
3840,30748.7056832,1.59021059998,186101,29576.8251469
3850,30421.4182966,1.59472789798,186574,29438.0771388
3860,30437.3450288,1.59932687798,187042,29485.9697672
3870,30631.479121,1.60378045499,187528,29392.2277387
3880,30750.1300298,1.60841877799,188011,29365.9775266
3890,30745.0407757,1.61273165698,188502,29211.8367087
3900,30636.6156344,1.61700519198,188994,29288.1583347
3910,30347.1665328,1.62056668498,189479,29467.4090702
3920,30666.3675219,1.62474528098,189976,29073.5691705
3930,30647.761995,1.62931432398,190463,28833.7512835
3940,30746.2468746,1.63384316799,190936,29448.9043282
3950,30947.8625352,1.63843658799,191409,29065.3495881
3960,30875.7597499,1.64273321699,191905,29450.3975513
3970,30804.0097519,1.64713846899,192385,29023.084457
3980,30906.9011394,1.65063324899,192864,28811.9735552
3990,30643.313532,1.65415368799,193355,29419.01354
4000,30826.5369867,1.65871075699,193828,29563.3887495
4010,30580.3016614,1.66293083499,194309,29127.5299654
4020,30771.5295507,1.66641492299,194792,29238.7618022
4030,30951.8005061,1.67091682499,195280,28973.3668158
4040,30764.8387269,1.67547731499,195765,29182.512725
4050,30810.7386417,1.67989197599,196248,28809.8938991
4060,30761.4753255,1.68339060399,196727,29293.5215544
4070,30662.6273451,1.68750548099,197216,29305.5078743
4080,30782.9265409,1.69169434099,197686,29343.6178263
4090,30809.8339615,1.69598113299,198166,29645.2218981
4100,30676.1914151,1.69993478399,198641,29285.4309465
4110,30700.6684208,1.70423568899,199117,29230.9703304
4120,30645.1522163,1.70797978999,199595,29378.1982195
4130,30709.0201232,1.71170464699,200088,29259.3557366
4140,30954.8387317,1.71558516899,200579,29676.0149726
4150,30661.0480227,1.71997245999,201056,29094.2028805
4160,30779.5229738,1.72349674799,201551,30077.5050416
4170,30850.9045155,1.72758125999,202027,29958.4566061
4180,30706.919636,1.73122785599,202509,29912.8134101
4190,30846.7167742,1.73542997399,202985,29675.509904
4200,30876.8259844,1.73969966099,203468,29105.0439491
4210,31105.6490299,1.74423107199,203954,29520.5599242
4220,30923.2117079,1.74888992199,204446,29414.6668811
4230,31023.5714346,1.75254036699,204940,29421.7892143
4240,30972.5723142,1.75648717599,205424,29683.6741664
4250,30688.7802218,1.76004011699,205911,29334.4474939
4260,30726.6786406,1.76356141099,206395,29664.4998734
4270,31050.9947193,1.76765062799,206874,29280.2509644
4280,30671.560557,1.77456919699,207363,29678.8445423
4290,30926.2449077,1.77810160999,207857,29247.06624
4300,30793.5613201,1.78218911599,208335,28966.631157
4310,31045.339692,1.78599821999,208827,29859.982853
4320,30708.9344323,1.79029826999,209308,28960.7702199
4330,30714.7745071,1.79456538999,209795,28838.6064176
4340,30572.9723274,1.79916094799,210264,29218.4513769
4350,30615.2332163,1.80282593299,210753,28981.5046426
4360,30515.1810273,1.80651230099,211241,28954.3021811
4370,30330.8917132,1.81059125399,211746,28662.347679
4380,30186.9915957,1.81511582199,212239,28624.3640501
4390,30269.8788179,1.81859007499,212721,29053.610799
4400,30093.0888762,1.82211906699,213204,28938.579605
4410,29982.6671777,1.82566687499,213687,28710.5367454
4420,30017.7878636,1.82914155399,214164,28859.6261025
4430,30178.3060565,1.83337916599,214647,29860.4574424
4440,29979.4978175,1.83683673899,215139,29044.6490112
4450,30015.3389635,1.84030970799,215627,29541.2041658
4460,29851.1291609,1.84381517799,216113,28726.010195
4470,29925.4773561,1.84728686399,216592,28892.8648078
4480,30021.0242033,1.85075427399,217066,28406.6190511
4490,30064.5938523,1.85425974499,217543,28816.4676935
4500,29924.393205,1.85880099099,218031,28960.4384348
4510,30050.1143971,1.86277901799,218517,29577.0437363
4520,29987.3314332,1.86714364299,218999,29329.7022412
4530,29896.1863256,1.87063072499,219497,29122.1551415
4540,29919.1228547,1.87426320799,219970,28411.3325354
4550,30287.0155203,1.87878777599,220462,28976.0160116
4560,30176.9016018,1.88336622799,220945,28888.5516407
4570,30245.1853717,1.88752942899,221428,29544.1448207
4580,30119.2090775,1.89177816099,221907,29094.4730681
4590,29932.6251539,1.89635447499,222405,29054.5720635
4600,29926.2015154,1.90005538299,222894,28813.9932359
4610,30017.5419012,1.90429684399,223380,29401.5817017
4620,30043.9967361,1.90825434399,223861,29534.6433878
4630,29829.8857639,1.91191547999,224332,29656.7939906
4640,30335.0654698,1.91639685399,224831,28513.7419716
4650,29878.4268314,1.91999854599,225316,29551.7720794
4660,29800.4181155,1.92401121299,225796,29354.7513262
4670,30006.6477686,1.92782202799,226272,29505.6976758
4680,29969.9365726,1.93235771399,226769,29593.6212676
4690,29675.3670861,1.93682668699,227255,29509.6941519
4700,29742.1389851,1.94112032199,227748,29434.2812767
4710,29689.5775303,1.94534339399,228234,29698.5135437
4720,29857.3058255,1.94932612499,228711,29268.6324255
4730,30087.3801692,1.95383957299,229207,29099.253571
4740,29808.0681314,1.95808488399,229698,29660.7295576
4750,30013.9306465,1.96345876998,230170,30027.0191967
4760,29992.4108692,1.96769338899,230663,29332.4694447
4770,29960.3034028,1.97194896299,231142,29818.1409057
4780,29729.4306536,1.97547581599,231622,29314.0742168
4790,29929.383945,1.97904030199,232090,29342.4672142
4800,29818.043079,1.98325139998,232564,28706.5214023
4810,29742.8629676,1.98776014498,233043,29320.2052566
4820,29973.0563106,1.99217523398,233517,28906.7960504
4830,29932.992348,1.99636708698,233989,29633.5358281
4840,30027.0143875,2.00057134298,234475,29032.2079351
4850,30232.6660529,2.00482178498,234962,29143.8134084
4860,29947.1832879,2.00926082198,235457,29379.740771
4870,29580.3901911,2.01357027998,235937,29802.7212535
4880,29906.4398949,2.01738066698,236429,28845.0716042
4890,29592.4910928,2.02134757498,236906,29373.1564824
4900,29965.2676589,2.02557492398,237395,29527.0570541
4910,29911.859242,2.02980098898,237868,29851.5008687
4920,30012.6895179,2.03353952998,238353,29195.0690695
4930,30011.1748387,2.03777585998,238842,29324.922248
4940,30212.7047171,2.04198439198,239314,28685.801593
4950,29956.231125,2.04548857898,239792,29902.5960127
4960,30250.2139572,2.04971036898,240283,29260.5304657
4970,30208.1727158,2.05401255698,240771,29707.2958559
4980,30202.6540598,2.05757576098,241257,28959.8161465
4990,30267.4587739,2.06181337298,241732,29143.2174095
