it,funval,time,funcount,weight
0,4558.84575383,1.06910000568e-05,10,5261.49402232
10,4839.20389354,2.13819999999e-05,21,5494.79810391
20,5028.15141852,3.16460000249e-05,32,5586.94333625
30,5156.70421949,4.31930000104e-05,43,5687.4514824
40,5300.97597149,5.30290000142e-05,54,5820.8774945
50,5321.44553485,6.45750000103e-05,65,5826.00378714
60,5488.46544614,7.56939999746e-05,76,6080.38529087
70,5997.402434,8.46739999361e-05,87,6321.57618509
80,6125.52097528,9.62209999216e-05,98,6389.01459117
90,6209.17220267,0.00011503799999,109,6540.55994034
100,6305.30653999,0.00012915100001,120,6562.72929506
110,6351.47308476,0.000142836000009,131,6562.35357018
120,6418.17999246,0.000153527000066,142,6668.58834708
130,6517.27860856,0.000165074000165,153,6651.57142423
140,6716.69442034,0.000175765000108,164,6827.26142988
150,6722.21906177,0.000192016000142,175,6844.86926702
160,6973.93293175,0.00020527300012,186,7034.64261175
170,7029.71422141,0.000217247000137,197,6961.92770375
180,7057.02179322,0.000228794000122,208,7125.48705995
190,7163.99382828,0.000240341000108,219,7131.91996488
200,7194.9955486,0.000253170000178,230,7163.74752031
210,7278.71243975,0.000266855000177,241,7272.68718925
220,7278.71243975,0.000280540000176,252,7226.27675328
230,7301.73217512,0.000292514000193,263,7247.70863656
240,7333.44766918,0.000312186000201,274,7343.49856274
250,7447.03022671,0.000323732000197,285,7330.72209707
260,7524.87431345,0.000336561000154,296,7503.2432609
270,7548.6476929,0.000349818000132,307,7463.8462999
280,7599.58688643,0.000364358000184,318,7602.89660098
290,7667.49738704,0.00037718800013,329,7707.94284952
300,7667.49738704,0.000390445000107,340,7710.36036659
310,7734.30448528,0.000403703000075,351,7769.26954666
320,7763.16086811,0.000415249000071,362,7712.28975824
330,7835.01963683,0.000428078000027,373,7830.66387021
340,7863.6922673,0.000441335999994,384,7964.72131773
350,7909.9679501,0.000454592999972,395,7978.73985781
360,7909.9679501,0.000473837999948,406,7893.898837
370,7924.30426533,0.000493509999956,417,7999.40200006
380,7924.30426533,0.000511898999889,428,7978.0479303
390,7924.30426533,0.000533709999786,439,7932.20052206
400,7924.30426533,0.000556375999736,450,7858.32839131
410,7924.30426533,0.000578185999757,461,7984.58898516
420,7924.30426533,0.000596146999783,472,7975.16779709
430,7924.30426533,0.00061581999978,483,7931.98423684
440,7924.30426533,0.000633780999692,494,7927.60199111
450,7924.30426533,0.000661578999711,505,7946.92756894
460,7924.30426533,0.000686809999706,516,7959.51548604
470,7924.30426533,0.000708619999727,527,7853.50303819
480,7924.30426533,0.000729146999788,538,8076.52069703
490,7924.30426533,0.000750956999809,549,7912.30586026
500,7924.30426533,0.000769773999764,560,7857.92786893
510,7924.30426533,0.000790300999711,571,7941.49886563
520,7924.30426533,0.000821946999622,582,7902.19460513
530,7924.30426533,0.000842901999704,593,7964.47927499
540,7924.30426533,0.000863001999733,604,7958.61131981
550,7924.30426533,0.000882245999719,615,7999.40200006
560,7924.30426533,0.000901917999727,626,7978.69786751
570,7924.30426533,0.000930570999685,637,7965.69311845
580,7924.30426533,0.000950242999693,648,7999.40200006
590,7924.30426533,0.000971197999661,659,8003.33619747
600,7924.30426533,0.00099258099965,670,7999.40200006
610,7924.30426533,0.00101524599961,681,7999.40200006
620,7924.30426533,0.00103534599964,692,7999.40200006
630,7924.30426533,0.00105929499955,703,8005.63645722
640,7924.30426533,0.00107896699956,714,7857.92786893
650,7924.30426533,0.00109992199953,725,8057.30513449
660,7924.30426533,0.00111916599951,736,7910.15900688
670,7924.30426533,0.00113798299947,747,8036.60542187
680,7924.30426533,0.00115722699957,758,7979.39175473
690,7924.30426533,0.00117860999956,769,8011.67241416
700,7924.30426533,0.0011991369995,780,7976.6950401
710,7924.30426533,0.00121880899951,791,7999.40200006
720,7924.30426533,0.00124061999952,802,8120.55694403
730,7924.30426533,0.00125986399951,813,7978.85990776
740,7924.30426533,0.00127910799949,824,7999.40200006
750,7924.30426533,0.0012987799995,835,7952.45467726
760,7924.30426533,0.00131887899943,846,7976.6950401
770,7924.30426533,0.0013359849994,857,7926.69939116
780,7924.30426533,0.00135522899939,868,7978.73985781
790,7924.30426533,0.00137703899941,879,7856.38850168
800,7924.30426533,0.00139713799945,890,7999.40200006
810,7924.30426533,0.00141638199943,901,8033.11088167
820,7924.30426533,0.00143648199946,912,7964.86745441
830,7924.30426533,0.00145786399946,923,7964.86745441
840,7924.30426533,0.00147539799946,934,7926.49645386
850,7924.30426533,0.00149335899948,945,7996.44323788
860,7924.30426533,0.00151559699952,956,7993.31522632
870,7924.30426533,0.00153783499945,967,7922.17676952
880,7924.30426533,0.00155964499936,978,8014.65541112
890,7924.30426533,0.00158188299929,989,7999.40200006
900,7924.30426533,0.00160198299932,1000,7952.8688097
910,7924.30426533,0.00161908899929,1011,8028.35356728
920,7924.30426533,0.00163833299928,1022,7953.6417669
930,7924.30426533,0.00165714999935,1033,7937.17755182
940,7924.30426533,0.00167468399945,1044,8035.59339854
950,7924.30426533,0.00169349999942,1055,7872.92208295
960,7924.30426533,0.00171146099945,1066,7976.55204596
970,7924.30426533,0.00172899499944,1077,7999.40200006
980,7924.30426533,0.00174823899954,1088,7999.40200006
990,7924.30426533,0.00176791099955,1099,7964.47927499
1000,7924.30426533,0.0017867279995,1110,7989.04993379
1010,7924.30426533,0.0018042619995,1121,7971.12165979
1020,7924.30426533,0.00182265099954,1132,7856.38850168
1030,7924.30426533,0.00184189599952,1143,7999.40200006
1040,7924.30426533,0.00185942899941,1154,7865.97008553
1050,7924.30426533,0.00187739099943,1165,7976.62134946
1060,7924.30426533,0.00189620799938,1176,8004.35017712
1070,7924.30426533,0.00191331399947,1187,8014.65541112
1080,7924.30426533,0.00193084699947,1198,7857.92786893
1090,7924.30426533,0.00195009199945,1209,7888.87264429
1100,7924.30426533,0.00196805299947,1220,7932.10413964
1110,7924.30426533,0.00198558699947,1231,7999.40200006
1120,7924.30426533,0.00200696999957,1242,8022.25195416
1130,7924.30426533,0.00202578699964,1253,7989.50564594
1140,7924.30426533,0.00204845299959,1264,8021.3651369
1150,7924.30426533,0.0020681249996,1275,7953.64978372
1160,7924.30426533,0.00209720499959,1286,7955.92111698
1170,7924.30426533,0.00211815999967,1297,7999.40200006
1180,7924.30426533,0.00213954299966,1308,8006.56099438
1190,7924.30426533,0.00215793299969,1319,8013.31644101
1200,7924.30426533,0.00217589499971,1330,7999.40200006
1210,7924.30426533,0.00219684999968,1341,7999.40200006
1220,7924.30426533,0.00222678599971,1352,7999.40200006
1230,7924.30426533,0.00225201799969,1363,7845.71137345
1240,7924.30426533,0.00227340099968,1374,7947.60018158
1250,7924.30426533,0.00229264499967,1385,7903.40404201
1260,7924.30426533,0.00231530999974,1396,7893.5967935
1270,7924.30426533,0.00233327099977,1407,7999.40200006
1280,7924.30426533,0.00235208799984,1418,7851.85816256
1290,7924.30426533,0.00237175999973,1429,7971.43407264
1300,7924.30426533,0.00238972099964,1440,7943.46614522
1310,7924.30426533,0.00240682699973,1451,7915.52417078
1320,7924.30426533,0.0024256439998,1462,7999.40200006
1330,7924.30426533,0.00244445999977,1473,7978.43153516
1340,7924.30426533,0.00246413199977,1484,7964.85678428
1350,7924.30426533,0.00248209299968,1495,8027.36992748
1360,7924.30426533,0.00250005399971,1506,7915.4982178
1370,7924.30426533,0.00252100899968,1517,7999.40200006
1380,7924.30426533,0.00254153599974,1528,7999.40200006
1390,7924.30426533,0.00256334599976,1539,7987.50298956
1400,7924.30426533,0.00258515699977,1550,8033.00273906
1410,7924.30426533,0.00260653999976,1561,7968.28977594
1420,7924.30426533,0.00262706799981,1572,7899.32806416
1430,7924.30426533,0.00265358299987,1583,7958.99487456
1440,7924.30426533,0.00267325499988,1594,7872.37935571
1450,7924.30426533,0.00269335399992,1605,7941.47927075
1460,7924.30426533,0.00271259899989,1616,7999.40200006
1470,7924.30426533,0.00273184299988,1627,7959.3815094
1480,7924.30426533,0.00275194299991,1638,7902.19460513
1490,7924.30426533,0.00277204199995,1649,7999.40200006
1500,7924.30426533,0.00279299699991,1660,7999.40200006
1510,7924.30426533,0.00281224199989,1671,8030.33238036
1520,7924.30426533,0.00283148699987,1682,7954.79500739
1530,7924.30426533,0.00285115899987,1693,8095.97116175
1540,7924.30426533,0.00287083099988,1704,7935.29275204
1550,7924.30426533,0.00289306899981,1715,7999.40200006
1560,7924.30426533,0.00291102999972,1726,8021.3651369
1570,7924.30426533,0.00293112899965,1737,7868.09874372
1580,7924.30426533,0.00294951799958,1748,7999.40200006
1590,7924.30426533,0.00296790699963,1759,7976.13540488
1600,7924.30426533,0.00298928899963,1770,8050.8144647
1610,7924.30426533,0.00301794199959,1781,8038.13520347
1620,7924.30426533,0.0030632729995,1792,7965.38089384
1630,7924.30426533,0.00308893199951,1803,7955.92111698
1640,7924.30426533,0.00312571099948,1814,7968.28977594
1650,7924.30426533,0.00314923199949,1825,7880.41134248
1660,7924.30426533,0.00316676599948,1836,7955.63424795
1670,7924.30426533,0.00318429999948,1847,7999.40200006
1680,7924.30426533,0.00320226199949,1858,7953.03541855
1690,7924.30426533,0.00322107899945,1869,7950.79830259
1700,7924.30426533,0.00324117799937,1880,7953.41068504
1710,7924.30426533,0.00325785699931,1891,7931.35978762
1720,7924.30426533,0.00327539099931,1902,7984.21489966
1730,7924.30426533,0.00329420799926,1913,8010.82697711
1740,7924.30426533,0.00331174199925,1924,7973.69576774
1750,7924.30426533,0.00333269699922,1935,7999.40200006
1760,7924.30426533,0.00335579099919,1946,7965.69311845
1770,7924.30426533,0.00337674599928,1957,7868.95935083
1780,7924.30426533,0.0033968459993,1968,7950.76901277
1790,7924.30426533,0.00341694499934,1979,7906.66883704
1800,7924.30426533,0.00343661699935,1990,7999.40200006
1810,7924.30426533,0.0034550059994,2001,7991.83301341
1820,7924.30426533,0.00347980999936,2012,7999.40200006
1830,7924.30426533,0.00349862699932,2023,7995.78716361
1840,7924.30426533,0.00351787199941,2034,7967.34737605
1850,7924.30426533,0.00353754399941,2045,7825.47846775
1860,7924.30426533,0.00355678899939,2056,7932.10413964
1870,7924.30426533,0.00357774399936,2067,8038.72052264
1880,7924.30426533,0.00360083799933,2078,7932.6860428
1890,7924.30426533,0.00362136499928,2089,8013.31644101
1900,7924.30426533,0.0036414649993,2100,8012.69750474
1910,7924.30426533,0.00365985399935,2111,7999.40200006
1920,7924.30426533,0.0036825199993,2122,7978.69786751
1930,7924.30426533,0.00370390299929,2133,7982.9506647
1940,7924.30426533,0.00372400199933,2144,7999.40200006
1950,7924.30426533,0.00374324699942,2155,7906.0653277
1960,7924.30426533,0.00376249099941,2166,7883.56415425
1970,7924.30426533,0.00378087999945,2177,7861.42805499
1980,7924.30426533,0.00380012499943,2188,7999.40200006
1990,7924.30426533,0.00381851399936,2199,7952.24395635
2000,7924.30426533,0.00383647599938,2210,7999.40200006
2010,7924.30426533,0.0038565749993,2221,8044.00899273
2020,7924.30426533,0.00387581899929,2232,7958.99487456
2030,7924.30426533,0.00390276099927,2243,7987.97702301
2040,7924.30426533,0.00392414399926,2254,7953.41068504
2050,7924.30426533,0.00394295999922,2265,7927.01920311
2060,7924.30426533,0.00396220399921,2276,7953.64978372
2070,7924.30426533,0.00398187599922,2287,7942.84131952
2080,7924.30426533,0.00400112099931,2298,7932.20052206
2090,7924.30426533,0.00401951099934,2309,7902.13602548
2100,7924.30426533,0.00403918299935,2320,8038.13520347
2110,7924.30426533,0.0040575719994,2331,7968.17104962
2120,7924.30426533,0.00407767199943,2342,8043.16975218
2130,7924.30426533,0.00410119299943,2353,7903.40404201
2140,7924.30426533,0.00412172099936,2364,7902.69804708
2150,7924.30426533,0.00414182099939,2375,7901.26288102
2160,7924.30426533,0.00416149399939,2386,7999.40200006
2170,7924.30426533,0.00418415999934,2397,7953.41068504
2180,7924.30426533,0.00420639799938,2408,7999.40200006
2190,7924.30426533,0.00422606999939,2419,7934.07989521
2200,7924.30426533,0.00424659799933,2430,7941.2911666
2210,7924.30426533,0.00426755299929,2441,7999.40200006
2220,7924.30426533,0.00428850799926,2452,7810.76982522
2230,7924.30426533,0.00431587799926,2463,7926.70685837
2240,7924.30426533,0.00433512299924,2474,8061.26276067
2250,7924.30426533,0.00435265599924,2485,7865.97008553
2260,7924.30426533,0.00437446699925,2496,7999.40200006
2270,7924.30426533,0.00439413899926,2507,7999.40200006
2280,7924.30426533,0.0044245029992,2518,7888.74412193
2290,7924.30426533,0.00444331899928,2529,7978.85990776
2300,7924.30426533,0.00446170799933,2540,7902.19460513
2310,7924.30426533,0.00448052399929,2551,7855.00006909
2320,7924.30426533,0.00450062399932,2562,7899.32806416
2330,7924.30426533,0.00451858499935,2573,7883.56415425
2340,7924.30426533,0.00454766499934,2584,7872.37935571
2350,7924.30426533,0.0045664819994,2595,7969.54902974
2360,7924.30426533,0.0045917129994,2606,8038.72052264
2370,7924.30426533,0.00461138499941,2617,7883.56415425
2380,7924.30426533,0.00462977399934,2628,7954.94500932
2390,7924.30426533,0.00464687999931,2639,7951.53532743
2400,7924.30426533,0.00466612499929,2650,8031.08173749
2410,7924.30426533,0.00468707899927,2661,7977.43886322
2420,7924.30426533,0.00470632299925,2672,7999.40200006
2430,7924.30426533,0.00472727799922,2683,7975.17028617
2440,7924.30426533,0.00474694999923,2694,7970.44063541
2450,7924.30426533,0.00476747799917,2705,7999.40200006
2460,7924.30426533,0.00478843299913,2716,7926.69939116
2470,7924.30426533,0.00480767699912,2727,7939.90667127
2480,7924.30426533,0.0048307699991,2738,7984.58898516
2490,7924.30426533,0.00485257999912,2749,7962.59075777
2500,7924.30426533,0.00487139699919,2760,7982.12939217
2510,7924.30426533,0.00489277999918,2771,7914.72023716
2520,7924.30426533,0.00491672899921,2782,8095.97116175
2530,7924.30426533,0.00494024999921,2793,7965.53648838
2540,7924.30426533,0.00496120499918,2804,7899.32806416
2550,7924.30426533,0.00498215999914,2815,7971.43407264
2560,7924.30426533,0.00500525399912,2826,7999.40200006
2570,7924.30426533,0.0050262089992,2837,8000.7133992
2580,7924.30426533,0.00504844699924,2848,7952.45467726
2590,7924.30426533,0.00506854699927,2859,7999.40200006
2600,7924.30426533,0.00509548899925,2870,7940.38765587
2610,7924.30426533,0.00511601599931,2881,7959.3815094
2620,7924.30426533,0.00513868099927,2892,7991.17633238
2630,7924.30426533,0.00516134599923,2903,7995.78716361
2640,7924.30426533,0.00518230099931,2914,7984.26402675
2650,7924.30426533,0.00520881599925,2925,8047.40097909
2660,7924.30426533,0.00523404699925,2936,7927.01920311
2670,7924.30426533,0.00525500199922,2947,7844.95153897
2680,7924.30426533,0.00527381899917,2958,7910.88048377
2690,7924.30426533,0.00529349099918,2969,8022.25195416
2700,7924.30426533,0.00531273499917,2980,7999.40200006
2710,7924.30426533,0.0053328339992,2991,7898.45520943
2720,7924.30426533,0.00535549999915,3002,7999.40200006
2730,7924.30426533,0.00537773799908,3013,7888.74412193
2740,7924.30426533,0.00539740999909,3024,7999.40200006
2750,7924.30426533,0.00541750999912,3035,8044.00899273
2760,7924.30426533,0.00543846499909,3046,7951.80595804
2770,7924.30426533,0.00545899199915,3057,7955.63424795
2780,7924.30426533,0.00548037499914,3068,7985.93295823
2790,7924.30426533,0.00549876399919,3079,7931.6709767
2800,7924.30426533,0.00551672499921,3090,7912.30586026
2810,7924.30426533,0.00553511399926,3101,7999.40200006
2820,7924.30426533,0.00555307599927,3112,7999.40200006
2830,7924.30426533,0.00557360399921,3123,7983.87390065
2840,7924.30426533,0.00559370399924,3134,7908.01255034
2850,7924.30426533,0.00561294899921,3145,7999.40200006
2860,7924.30426533,0.00563732499927,3156,7999.40200006
2870,7924.30426533,0.00565913499929,3167,7879.99011878
2880,7924.30426533,0.00568051699929,3178,7965.80126106
2890,7924.30426533,0.00570104399935,3189,7999.40200006
2900,7924.30426533,0.00572114399927,3200,8043.16975218
2910,7924.30426533,0.00574295499916,3211,7883.44725218
2920,7924.30426533,0.00576348199922,3222,7973.69576774
2930,7924.30426533,0.00578443699919,3233,8011.87091437
2940,7924.30426533,0.00580496499924,3244,7951.11741922
2950,7924.30426533,0.00582720299917,3255,7898.45520943
2960,7924.30426533,0.00584772999923,3266,7942.65959575
2970,7924.30426533,0.00586825699929,3277,7927.20103458
2980,7924.30426533,0.0058879289993,3288,7999.40200006
2990,7924.30426533,0.00590888399927,3299,7999.40200006
3000,7924.30426533,0.0059289839993,3310,7932.10413964
3010,7924.30426533,0.00594908399921,3321,7994.27570743
3020,7924.30426533,0.00597089399923,3332,8040.48618467
3030,7924.30426533,0.0059974079993,3343,7939.37126407
3040,7924.30426533,0.00602135699933,3354,7954.94500932
3050,7924.30426533,0.0060440219994,3365,8095.61596748
3060,7924.30426533,0.00606625999933,3376,7911.0112424
3070,7924.30426533,0.0060872149993,3387,7900.00393123
3080,7924.30426533,0.00610774199936,3398,7999.40200006
3090,7924.30426533,0.00612912499935,3409,7999.40200006
3100,7924.30426533,0.00615435599934,3420,7964.86745441
3110,7924.30426533,0.00617830399938,3431,7999.40200006
3120,7924.30426533,0.00620567399937,3442,7931.35978762
3130,7924.30426533,0.00622919499938,3453,7999.40200006
3140,7924.30426533,0.00625143299942,3464,7971.12165979
3150,7924.30426533,0.00627067699941,3475,7921.93559325
3160,7924.30426533,0.00629548099937,3486,7927.01920311
3170,7924.30426533,0.00631429799944,3497,8005.4887738
3180,7924.30426533,0.00633525299941,3508,7902.46518819
3190,7924.30426533,0.00635706299943,3519,8116.91686155
3200,7924.30426533,0.00637630699953,3530,7953.6417669
3210,7924.30426533,0.00639811799954,3541,7999.40200006
3220,7924.30426533,0.00641821699958,3552,7960.08347749
3230,7924.30426533,0.00643746199967,3563,7957.46107027
3240,7924.30426533,0.00645756199958,3574,7950.76901277
3250,7924.30426533,0.00648065499956,3585,7999.40200006
3260,7924.30426533,0.00650417599957,3596,7970.92990704
3270,7924.30426533,0.00653154599956,3607,7964.47927499
3280,7924.30426533,0.00655207299963,3618,7954.79500739
3290,7924.30426533,0.00657217299965,3629,7898.45520943
3300,7924.30426533,0.00659697699962,3640,8004.35017712
3310,7924.30426533,0.00661664899962,3651,7931.35978762
3320,7924.30426533,0.00663803199961,3662,8045.39331509
3330,7924.30426533,0.00666026999954,3673,7928.98101586
3340,7924.30426533,0.00668079799959,3684,7976.6950401
3350,7924.30426533,0.00670217999959,3695,7903.40404201
3360,7924.30426533,0.00672270699954,3706,7984.02312215
3370,7924.30426533,0.00674195199952,3717,7955.92111698
3380,7924.30426533,0.00676205199954,3728,7864.80627922
3390,7924.30426533,0.00678257999959,3739,7967.72226263
3400,7924.30426533,0.00680866599953,3750,8088.6159854
3410,7924.30426533,0.00683432499955,3761,8018.31613483
3420,7924.30426533,0.00685784599955,3772,7999.40200006
3430,7924.30426533,0.00687837399948,3783,7973.69576774
3440,7924.30426533,0.00689975699947,3794,7987.22845258
3450,7924.30426533,0.00692113999958,3805,7999.40200006
3460,7924.30426533,0.00694166799963,3816,7982.9506647
3470,7924.30426533,0.00696133999963,3827,7999.40200006
3480,7924.30426533,0.00698186799957,3838,8003.33619747
3490,7924.30426533,0.00700410599961,3849,7902.13602548
3500,7924.30426533,0.00702377799962,3860,7965.38089384
3510,7924.30426533,0.00704729899962,3871,7955.92111698
3520,7924.30426533,0.00707466899962,3882,7972.4639164
3530,7924.30426533,0.00709989999962,3893,7884.1340301
3540,7924.30426533,0.00712427599967,3904,7987.00085946
3550,7924.30426533,0.0071465139996,3915,7969.93841418
3560,7924.30426533,0.00716875199964,3926,7825.47846775
3570,7924.30426533,0.0071892789997,3937,7963.64862547
3580,7924.30426533,0.00721151699975,3948,8011.80314067
3590,7924.30426533,0.00723247199971,3959,7999.40200006
3600,7924.30426533,0.0072534269998,3970,7984.58898516
3610,7924.30426533,0.00728336299983,3981,7999.40200006
3620,7924.30426533,0.0073043179998,3992,7998.52523788
3630,7924.30426533,0.0073256999998,4003,7963.21060159
3640,7924.30426533,0.0073453719998,4014,8063.54464501
3650,7924.30426533,0.00737017599988,4025,8011.87091437
3660,7924.30426533,0.00739412399992,4036,7999.40200006
3670,7924.30426533,0.00741807299994,4047,7987.13158596
3680,7924.30426533,0.00744202099997,4058,8018.10537153
3690,7924.30426533,0.00746554199998,4069,7905.70914875
3700,7924.30426533,0.00748991800003,4080,7999.40200006
3710,7924.30426533,0.00751728700004,4091,7830.03847426
3720,7924.30426533,0.00754636800002,4102,7985.16595355
3730,7924.30426533,0.00757202800003,4113,7911.0112424
3740,7924.30426533,0.007589134,4124,7997.6484757
3750,7924.30426533,0.00760581200007,4135,7928.86519569
3760,7924.30426533,0.007634037,4146,7992.28397681
3770,7924.30426533,0.00765926899999,4157,7955.92111698
3780,7924.30426533,0.00768278999999,4168,7980.03172224
3790,7924.30426533,0.00771657399991,4179,7910.88048377
3800,7924.30426533,0.00773624599992,4190,7883.55654145
3810,7924.30426533,0.00775762799992,4201,8040.48618467
3820,7924.30426533,0.00777815499987,4212,7999.40200006
3830,7924.30426533,0.00779782699988,4223,7914.56097925
3840,7924.30426533,0.00782006499992,4234,7999.40200006
3850,7924.30426533,0.00783802599983,4245,7950.79830259
3860,7924.30426533,0.00785641499988,4256,7999.40200006
3870,7924.30426533,0.00787779799987,4267,7999.40200006
3880,7924.30426533,0.0078983259998,4278,7907.41937002
3890,7924.30426533,0.00791842599983,4289,7928.86519569
3900,7924.30426533,0.00793895399977,4300,7899.32806416
3910,7924.30426533,0.00795905299969,4311,7984.55746888
3920,7924.30426533,0.00798171899976,4322,7985.93295823
3930,7924.30426533,0.00800310199975,4333,7999.40200006
3940,7924.30426533,0.00802405699972,4344,7999.40200006
3950,7924.30426533,0.00804458499977,4355,7955.63424795
3960,7924.30426533,0.00806553999973,4366,7999.40200006
3970,7924.30426533,0.00808777799978,4377,7902.46518819
3980,7924.30426533,0.00810830499984,4388,7914.56097925
3990,7924.30426533,0.00812754899982,4399,8025.63921562
4000,7924.30426533,0.00814722099983,4410,8004.35017712
4010,7924.30426533,0.0081681759998,4421,8088.6159854
4020,7924.30426533,0.00818913099977,4432,7927.60199111
4030,7924.30426533,0.00821094099979,4443,7937.51308758
4040,7924.30426533,0.00823232399978,4454,7931.6709767
4050,7924.30426533,0.00825370699977,4465,7999.40200006
4060,7924.30426533,0.00827423399983,4476,7999.40200006
4070,7924.30426533,0.00829518899991,4487,7984.94265427
4080,7924.30426533,0.0083165719999,4498,7853.50303819
4090,7924.30426533,0.00833709899985,4509,7984.14858901
4100,7924.30426533,0.00835890899987,4520,8014.65541112
4110,7924.30426533,0.00837986399983,4531,7926.69939116
4120,7924.30426533,0.00840295699982,4542,7883.20238984
4130,7924.30426533,0.00842818799993,4553,7975.16779709
4140,7924.30426533,0.00845128099991,4564,7999.40200006
4150,7924.30426533,0.00847266299991,4575,7902.19460513
4160,7924.30426533,0.00849490099984,4586,7971.43407264
4170,7924.30426533,0.00851671099986,4597,7984.58898516
4180,7924.30426533,0.00854194199985,4608,7993.31522632
4190,7924.30426533,0.00856375199987,4619,7999.40200006
4200,7924.30426533,0.0085838519999,4630,7995.78716361
4210,7924.30426533,0.00860309699988,4641,8061.26276067
4220,7924.30426533,0.00862234199985,4652,7999.40200006
4230,7924.30426533,0.00863901999992,4663,7965.75306985
4240,7924.30426533,0.00865826399991,4674,7958.31781546
4250,7924.30426533,0.00867579699991,4685,7939.90667127
4260,7924.30426533,0.00869204799983,4696,7884.12886457
4270,7924.30426533,0.00870872699988,4707,7957.46308542
4280,7924.30426533,0.00872626099988,4718,7908.01255034
4290,7924.30426533,0.00874721599985,4729,7966.49932934
4300,7924.30426533,0.00876731499989,4740,7960.97934341
4310,7924.30426533,0.00878655999986,4751,7999.40200006
4320,7924.30426533,0.00880580399985,4762,7958.07771556
4330,7924.30426533,0.00882633099991,4773,7984.21489966
4340,7924.30426533,0.00884728599988,4784,7999.40200006
4350,7924.30426533,0.00886610299995,4795,7999.40200006
4360,7924.30426533,0.00888363699994,4806,7987.97702301
4370,7924.30426533,0.00890245400001,4817,7982.12939217
4380,7924.30426533,0.00892041600002,4828,7977.17350469
4390,7924.30426533,0.00893966000001,4839,7969.93841418
4400,7924.30426533,0.00895933200002,4850,7998.52523788
4410,7924.30426533,0.00897772200005,4861,7905.50735445
4420,7924.30426533,0.00899568299997,4872,8018.31613483
4430,7924.30426533,0.00901492799994,4883,7926.49645386
4440,7924.30426533,0.00903417199993,4894,7999.40200006
4450,7924.30426533,0.00905341600003,4905,7933.51258955
4460,7924.30426533,0.00907266000002,4916,7909.4056907
4470,7924.30426533,0.00909104900006,4927,7999.40200006
4480,7924.30426533,0.00910815600002,4938,7999.40200006
4490,7924.30426533,0.009125262,4949,7899.32806416
4500,7924.30426533,0.00914236799997,4960,7999.40200006
4510,7924.30426533,0.00919881899995,4971,8024.20428127
4520,7924.30426533,0.00922618899995,4982,7966.059257
4530,7924.30426533,0.0092488549999,4993,8038.13520347
4540,7924.30426533,0.00926809899988,5004,7937.17755182
4550,7924.30426533,0.00928948199987,5015,8013.31644101
4560,7924.30426533,0.00930829799984,5026,7999.40200006
4570,7924.30426533,0.00932711499991,5037,7999.40200006
4580,7924.30426533,0.00934550399984,5048,7999.40200006
4590,7924.30426533,0.00936346499986,5059,7892.14187628
4600,7924.30426533,0.00938270899985,5070,7931.98423684
4610,7924.30426533,0.0094032359998,5081,7999.40200006
4620,7924.30426533,0.00942376299975,5092,7999.40200006
4630,7924.30426533,0.00945155999966,5103,7968.89517795
4640,7924.30426533,0.00947037699973,5114,7991.17633238
4650,7924.30426533,0.00948876599966,5125,7997.92261897
4660,7924.30426533,0.00950672699958,5136,7985.38345999
4670,7924.30426533,0.00952896499962,5147,7914.72023716
4680,7924.30426533,0.0095482089996,5158,7998.52523788
4690,7924.30426533,0.00956830899963,5169,7958.07771556
4700,7924.30426533,0.00958798099964,5180,7952.45467726
4710,7924.30426533,0.00960936299964,5191,7987.97702301
4720,7924.30426533,0.00962946199968,5202,7994.96385679
4730,7924.30426533,0.00965340999971,5213,7999.40200006
4740,7924.30426533,0.00967607499967,5224,7922.17676952
4750,7924.30426533,0.00969745799966,5235,7984.14858901
4760,7924.30426533,0.00971841299963,5246,7992.17232717
4770,7924.30426533,0.00973851299966,5257,8077.74524106
4780,7924.30426533,0.0097607499996,5268,7999.40200006
4790,7924.30426533,0.00978084999963,5279,7931.6709767
4800,7924.30426533,0.00980351599969,5290,7987.22845258
4810,7924.30426533,0.00982190499963,5301,7999.40200006
4820,7924.30426533,0.00983986599965,5312,7976.90292272
4830,7924.30426533,0.00985739999965,5323,7969.12605345
4840,7924.30426533,0.00987707199954,5334,7999.40200006
4850,7924.30426533,0.00989588899949,5345,7976.55204596
4860,7924.30426533,0.00992240299945,5356,7999.40200006
4870,7924.30426533,0.00994464099949,5367,8033.11088167
4880,7924.30426533,0.00996559599946,5378,7963.30151732
4890,7924.30426533,0.00998483999945,5389,7939.69605942
4900,7924.30426533,0.0100036569995,5400,7969.65433567
4910,7924.30426533,0.0100229009995,5411,7987.56441832
4920,7924.30426533,0.0100417179995,5422,7927.89525087
4930,7924.30426533,0.0100605339994,5433,7977.17350469
4940,7924.30426533,0.0100793509994,5444,8028.03797734
4950,7924.30426533,0.0100998779994,5455,7985.93295823
4960,7924.30426533,0.0101191219994,5466,7965.53648838
4970,7924.30426533,0.0101370839994,5477,7888.87264429
4980,7924.30426533,0.0101563279994,5488,7999.40200006
4990,7924.30426533,0.0101759999994,5499,8024.33982869
