it,funval,time,funcount,weight
0,12916.704217,0.00113199800012,464,10457.1036852
10,13032.0748783,0.00229949000004,838,9812.01289484
20,13635.8163145,0.00348066700008,1214,11631.2404493
30,13986.4247754,0.00474352600008,1590,11483.0751182
40,14222.9191432,0.00587637900003,1954,11693.1333589
50,14421.4230453,0.00700923099998,2321,12767.977455
60,14330.5612836,0.00815919000001,2684,12863.191291
70,14324.9632645,0.00929803000008,3050,12640.6418505
80,14644.3748962,0.010458252,3414,12653.4282177
90,14814.8960639,0.011621895,3788,13566.8708733
100,14921.9572477,0.0127453389998,4161,12935.0227204
110,14494.6525048,0.0139303659998,4536,13323.8248279
120,14734.6795034,0.015106411,4896,13091.8716709
130,15126.4901258,0.0163641380002,5267,12996.2853075
140,15175.039585,0.0175389000001,5637,12732.5793742
150,15559.7375085,0.0187825140001,6006,13567.4177143
160,15165.3521709,0.020000042,6376,13747.5008011
170,15502.3749295,0.0211585530001,6745,13813.3164955
180,15240.7763847,0.0223910480001,7112,13898.7308023
190,15338.4048286,0.02368256,7486,13727.2250612
200,15369.3704053,0.0249441359999,7843,13833.3665866
210,15463.478954,0.0262245280001,8214,13741.049918
220,15279.6068454,0.0274967950002,8581,13660.8261876
230,15371.5033611,0.0289024900003,8943,14000.770595
240,15372.4719177,0.0302046930003,9308,13969.2692958
250,15333.4188633,0.0315090340005,9670,13886.705486
260,15307.7210895,0.0327475160004,10035,14134.7256472
270,15440.5828738,0.0338683940004,10399,13795.2923106
280,15467.9851549,0.0349725930002,10765,13837.9331434
290,15643.4221954,0.0360789310002,11132,14104.0657012
300,15409.626929,0.0372853400004,11499,13890.4758473
310,15411.3350774,0.0384665180004,11877,13886.3304427
320,15443.479367,0.0400253130003,12247,13761.8732796
330,15483.8632755,0.0413493270003,12608,13679.1460778
340,15345.0883886,0.0425078380003,12979,13760.5681992
350,15439.6816328,0.0436637840003,13352,14182.0878727
360,15345.0485668,0.0449116750003,13719,13993.7452956
370,15366.9648161,0.0461138070002,14090,13938.2375585
380,15551.1952898,0.0473471580003,14458,14237.2986803
390,15394.7344402,0.0485514290003,14833,14021.4675145
400,15442.58387,0.0497531340002,15195,13580.9456012
410,15609.4150998,0.0509197710003,15559,14238.7979
420,15575.6307214,0.0521325950003,15924,13705.0478371
430,15554.8701012,0.0533458460004,16291,13534.7792465
440,15582.9252869,0.0545920270004,16653,14340.855229
450,15685.287404,0.0557945870005,17019,14145.8470773
460,15712.7185552,0.0570146810005,17389,14144.0441317
470,15633.0906816,0.0582326360006,17757,14009.5104882
480,15564.2344526,0.0594377620007,18134,14047.3142642
490,15727.5538647,0.0606463090007,18507,14410.5992356
500,15707.6872371,0.0619155830009,18877,14283.9674442
510,15741.4207388,0.0630792270008,19241,14281.0660877
520,15632.5556643,0.0642450080009,19610,14432.8306391
530,15810.2443123,0.0653761500009,19970,14167.4345015
540,15758.5715835,0.0665453530009,20341,14550.2541541
550,15852.0405322,0.0677060030009,20712,14220.5181613
560,15856.3321858,0.0689440580009,21078,13842.8246846
570,15733.3305521,0.0701372100009,21446,14191.7193101
580,15951.6988679,0.071359442001,21818,14084.6137768
590,15832.4718419,0.0726120380011,22188,14054.1209112
600,15760.1294678,0.0738338420012,22558,14207.9138501
610,15970.7805375,0.0750701870013,22924,13933.7435214
620,15812.1743678,0.0767076700013,23288,14045.0233654
630,15887.1021687,0.0779217760012,23662,14182.6082654
640,15983.5519889,0.0791311780013,24037,14425.5289665
650,16117.1472656,0.0806827020012,24400,14088.1659306
660,16147.7522667,0.0819079280013,24765,14387.1854521
670,16100.8002547,0.0831079220013,25129,14279.1430319
680,16183.6346654,0.0842886720013,25500,13861.7679272
690,16180.6829153,0.0855070550012,25859,14344.597082
700,16121.0437974,0.0867070490012,26228,14321.7622526
710,16057.6740164,0.0879510910013,26587,14269.3625794
720,16034.5803592,0.0891553620013,26951,14227.3581188
730,16006.7343144,0.0903780210012,27321,14100.862375
740,15947.0863458,0.0915754500013,27685,14374.5808095
750,16062.4898687,0.0927412320013,28058,14374.4226616
760,16070.393552,0.0939591880015,28429,14595.2758976
770,16026.8914756,0.0951797090015,28796,14258.413675
780,16306.4954977,0.0965037220017,29163,14383.4831025
790,16199.617162,0.0976857550015,29524,14353.2304908
800,16183.1567636,0.0988207460016,29890,14658.6248849
810,16139.5023522,0.0999249460017,30260,14509.6201671
820,16109.628998,0.101028290002,30626,14790.5826146
830,16130.3530599,0.102146602002,30997,14595.662343
840,16196.8971302,0.103255506002,31365,14131.9765785
850,16302.9586917,0.104401188002,31725,14521.3590968
860,16375.1201081,0.105538317002,32091,14263.6132602
870,16286.2513522,0.106681433002,32465,14325.9072646
880,16310.3044035,0.107919488002,32831,14434.8247206
890,16356.8415866,0.109129746002,33200,14682.4539958
900,16471.4002298,0.110294245002,33574,14811.9774279
910,16287.3790376,0.111491674002,33937,14428.9816461
920,16393.6950182,0.112714333002,34304,14436.7600127
930,16425.9098765,0.114126871002,34670,14184.7909959
940,16372.7791697,0.115332424002,35040,14337.3056944
950,16301.2383097,0.116455013002,35411,14419.0500126
960,16330.5642929,0.117653296002,35775,13970.7444832
970,16382.9661817,0.118787432002,36142,14788.6242422
980,16254.1576095,0.119941239002,36514,14197.8462989
990,16271.296174,0.121135246002,36874,14166.6043398
1000,16309.5316087,0.122478932003,37241,14397.4910478
1010,16193.8049664,0.123713565003,37610,13923.4898023
1020,16231.7895622,0.124961028002,37976,14120.6606342
1030,16248.7336988,0.126175990002,38343,14441.4822539
1040,16459.6339873,0.127432435002,38714,14233.2988927
1050,16443.7829691,0.128626014002,39076,14284.3305893
1060,16197.1775094,0.130061645002,39431,14547.1287347
1070,16447.0677482,0.131274041002,39796,14177.2761183
1080,16454.786373,0.132483871002,40155,14509.6545094
1090,16300.617756,0.133648798002,40529,14514.9475811
1100,16191.4736773,0.134824416002,40904,14386.4113397
1110,16275.2798291,0.136045365002,41274,14545.2156872
1120,16287.3354579,0.137223976002,41637,14295.3017985
1130,16397.6029363,0.138484270002,42005,14464.3400199
1140,16444.0718917,0.139668013002,42369,14543.3026664
1150,16264.4296611,0.140853467002,42738,14351.0521227
1160,16376.1148274,0.142022242002,43107,14168.7306352
1170,16084.1133167,0.143231217002,43471,14366.7933697
1180,16076.8642854,0.144385879002,43834,14317.144523
1190,16283.0581797,0.145588867002,44195,14433.4294242
1200,16262.4849181,0.146792283002,44566,14587.7607368
1210,16181.1710714,0.147952077002,44940,14594.8306675
1220,16126.2558339,0.149158058002,45310,14499.9072894
1230,16376.3477691,0.150364039002,45682,14223.3970329
1240,16376.3477691,0.151617917002,46041,14474.2769287
1250,16188.2126932,0.152900876002,46403,14244.1178859
1260,16354.9869675,0.154113700002,46769,14645.4702595
1270,16260.8090425,0.155328662002,47137,14095.7752397
1280,16358.5137296,0.156518392002,47507,14330.8223314
1290,16531.196612,0.157708122002,47867,14372.4202911
1300,16338.0474388,0.158906833002,48241,14889.2789424
1310,16231.5222239,0.160065772002,48612,14479.1300942
1320,16174.2531956,0.161290997002,48980,14514.7248936
1330,16150.975695,0.162507670002,49347,13974.660517
1340,16252.8967953,0.163687564002,49707,14031.2923904
1350,16241.4585682,0.164917066002,50077,14109.3329131
1360,16105.5500764,0.166081565002,50446,14332.7546077
1370,16164.5918638,0.167273006002,50813,14652.6930938
1380,16152.7273688,0.168487968002,51187,14807.7531402
1390,16186.9225159,0.169633222002,51550,14797.4786044
1400,16088.5755694,0.170819104002,51922,14564.5556434
1410,16179.301282,0.171993438002,52292,14365.1004286
1420,16275.9442919,0.173237480002,52663,14549.8147711
1430,16113.957886,0.174414809002,53033,14334.5045958
1440,16052.5701058,0.175604112002,53408,14173.9947545
1450,16001.3683414,0.176793843002,53779,14194.1612331
1460,15981.1267737,0.178049005002,54149,14368.4906837
1470,15994.5688952,0.179244722002,54521,14522.7569567
1480,16073.3460551,0.180420339002,54891,14529.7835034
1490,15933.6817365,0.181591681002,55269,14598.3232782
1500,16100.0170982,0.182743350002,55640,14443.3612763
1510,16102.0405173,0.183879196001,56014,14857.311293
1520,16088.2678332,0.185099717002,56384,14440.5546364
1530,16080.7462764,0.186270631001,56757,14685.0076952
1540,16047.4108152,0.187480461001,57123,14621.4848317
1550,16092.4862571,0.188629564001,57487,14697.6502645
1560,16063.2264234,0.189869330001,57850,14506.8897857
1570,16100.4900361,0.191112089001,58225,14468.588644
1580,15980.253816,0.192359125001,58600,14513.2388366
1590,15906.9477731,0.193567245001,58963,14515.3073708
1600,16190.3898471,0.194756120001,59323,14440.8258705
1610,16157.3798387,0.195945851001,59687,14463.2132533
1620,16126.4819828,0.197138147001,60050,14545.6429555
1630,16042.739777,0.198324884002,60424,14433.5526127
1640,16036.0859103,0.199567644001,60788,14133.1115932
1650,15930.0851762,0.200759940001,61164,14472.5199214
1660,16063.4414599,0.201933848002,61535,14192.3020034
1670,16166.1574466,0.203085518001,61902,14611.9093045
1680,16227.8474948,0.204217943001,62268,14482.1146235
1690,15948.7772225,0.205387574001,62632,14565.6662411
1700,15874.0144608,0.206571745001,62997,13991.4798646
1710,16005.9280447,0.207809373001,63358,14386.761105
1720,16001.2856004,0.209008940001,63726,14484.4081653
1730,15757.8332405,0.210241863001,64100,14201.013139
1740,15907.2343959,0.211432449001,64459,14120.5093959
1750,16057.0649708,0.212649549001,64831,14526.940943
1760,15967.2784078,0.213855103001,65201,14642.854511
1770,16146.2706749,0.215069638001,65572,14148.9242192
1780,15831.4243888,0.216307693001,65938,14224.8562626
1790,15959.7643211,0.217522655001,66310,14426.746139
1800,15891.0662476,0.218756006001,66677,14096.649899
1810,15794.5187002,0.219960277001,67053,14469.3652488
1820,15676.591421,0.221211589001,67425,14251.269924
1830,15740.9007408,0.222430399001,67797,14285.588358
1840,15698.7769609,0.223595753001,68168,14132.1566196
1850,15689.0419182,0.224776503001,68536,14103.4377114
1860,15685.3692593,0.225953832001,68896,13637.9353922
1870,15639.938073,0.227109350001,69267,14051.1874993
1880,15571.8656241,0.228352110001,69632,14406.3623795
1890,15537.9023202,0.229525162001,70002,14422.5553909
1900,15754.0444951,0.230711043001,70372,14419.9501732
1910,15609.0355519,0.231913603001,70739,13890.4013281
1920,15852.3724065,0.233071687001,71111,14179.4020859
1930,15709.9814341,0.234225494001,71480,14067.4919263
1940,15628.7051237,0.238537946001,71851,14696.8861908
1950,15665.3431946,0.239755046001,72220,14042.7510776
1960,15643.4560473,0.240916979001,72578,14427.2819602
1970,15557.4353348,0.242128520001,72943,14328.295238
1980,15437.9607536,0.243335356001,73311,14276.9489653
1990,15418.548845,0.244534923001,73688,13917.572839
2000,15553.8092547,0.245672052001,74059,14064.3748238
2010,15519.3005622,0.246838689001,74428,13593.2901179
2020,15475.9851564,0.248007037001,74796,13803.5243022
2030,15456.82949,0.249180089001,75161,14059.9314656
2040,15381.2899047,0.250352285001,75531,13982.0704349
2050,15502.9854761,0.251498823001,75899,13695.1773485
2060,15331.2001258,0.252667170001,76264,13838.6201414
2070,15579.2492029,0.253892396001,76630,13993.3368525
2080,15386.008923,0.255121042001,76995,13890.0321059
2090,15509.7419265,0.256345840001,77356,14193.4371082
2100,15360.9161061,0.257558236001,77714,14218.5788874
2110,15551.6293465,0.258779185001,78089,14001.4202904
2120,15541.754068,0.259975330001,78459,13859.3226876
2130,15530.2371098,0.261144105001,78823,14470.322419
2140,15480.8091385,0.262361205001,79190,14063.8453979
2150,15454.5292677,0.263532119001,79557,14116.3938795
2160,15551.409773,0.264690203001,79923,14644.4980013
2170,15543.9547776,0.265876085001,80284,13914.2488023
2180,15554.4867537,0.267039729001,80652,13991.1322218
2190,15440.7541356,0.268248704001,81018,14037.2951492
2200,15436.9375642,0.269415341001,81390,13784.2428477
2210,15428.7539313,0.270569576001,81752,13670.3436458
2220,15402.219522,0.271743911001,82122,14110.1247031
2230,15434.2181379,0.272947327001,82491,14143.8638994
2240,15458.8909987,0.274141762001,82861,14238.9135284
2250,15529.1134703,0.275337480002,83232,14076.2647187
2260,15536.6949486,0.276537902002,83607,14206.985914
2270,15390.0567502,0.277786648002,83975,14038.1112077
2280,15271.1955322,0.278980228002,84339,14245.8116897
2290,15470.3838793,0.280151997002,84708,13791.1044642
2300,15476.3152329,0.281375940002,85069,14222.5797407
2310,15637.4748439,0.282540011002,85440,14067.6480874
2320,15717.1128643,0.283713063002,85814,14532.260122
2330,15816.9523332,0.284886114002,86184,14231.8513778
2340,15681.416323,0.286148973002,86555,14573.4107421
2350,15591.893205,0.287433214002,86925,14016.5028241
2360,15658.4437857,0.288652453002,87290,14213.9680283
2370,15681.3374104,0.289865276002,87653,14428.0553697
2380,15797.3888757,0.291001122002,88029,14478.0139013
2390,15807.0976268,0.292184865002,88398,14537.1044082
2400,15892.9721097,0.293509306002,88771,14213.9548094
2410,15904.1781427,0.294686207002,89137,14518.9092576
2420,15778.534042,0.295926828001,89501,14136.476903
2430,15757.6764678,0.297099025001,89869,14518.2532331
2440,15932.9221357,0.298340074001,90242,14131.1779386
2450,15911.2776089,0.299454965001,90620,14173.3387316
2460,15861.3761833,0.300642557001,90983,14542.2134483
2470,15801.6767594,0.301826728001,91346,14305.3196731
2480,15684.5078238,0.303016031001,91711,13943.1786128
2490,15900.4457982,0.304165134001,92078,14394.5402218
2500,15815.214147,0.305327922001,92453,14152.8869004
2510,15757.6252052,0.306529199001,92820,14536.0307086
2520,15843.1571093,0.307668466001,93180,14034.421325
2530,15780.1795775,0.308881717001,93546,14420.0046472
2540,15718.822821,0.310111647001,93923,14152.420155
2550,15832.5370162,0.311315918001,94292,14170.4151691
2560,15739.0894332,0.312481272001,94659,14372.8417444
2570,15806.1881343,0.313645771001,95022,14172.3499656
2580,15818.6284758,0.314823527001,95390,14228.8444685
2590,15832.4242728,0.315967498001,95752,14194.8542484
2600,15770.8485567,0.317200849001,96122,14142.0146317
2610,15795.5009451,0.318445747002,96490,14094.1236032
2620,15831.3449327,0.319661992001,96863,13998.9718169
2630,15826.9419239,0.320839320001,97229,13995.6522731
2640,15712.3491417,0.321991845001,97603,14136.9585899
2650,15841.1396633,0.323198682001,97969,14002.941112
2660,15882.2144471,0.324416637001,98340,14416.327732
2670,15997.7072585,0.325637158001,98713,14302.2250409
2680,16027.2388179,0.326864094001,99079,14483.9700527
2690,15960.3092844,0.327996518001,99439,14126.2460959
2700,15824.3789245,0.329156313001,99805,14387.9642147
2710,15996.2545634,0.330304133001,100181,14233.2763925
2720,15718.6666683,0.331484883001,100549,14256.0572131
2730,15818.7084191,0.332780243001,100921,14082.3389845
2740,15833.7359692,0.333966125002,101290,14250.6779133
2750,15734.2864584,0.335154145002,101661,14236.2400609
2760,15623.2662636,0.336307525002,102037,13901.3232414
2770,15766.2180587,0.337531468002,102410,14205.1331613
2780,15664.8934062,0.338743437002,102787,14087.5872509
2790,15764.2109097,0.339929746001,103157,14197.0652283
2800,15931.7786393,0.341148129002,103519,14095.310754
2810,15954.6904361,0.342364802002,103888,13995.5490573
2820,15776.5037805,0.343584468002,104255,14322.4080892
2830,15852.9539484,0.344800285002,104625,14245.4931517
2840,15831.5598834,0.346024228002,104997,14059.0552523
2850,15928.1651763,0.347249881002,105361,14178.7054514
2860,15771.1078636,0.348489219002,105735,14237.1282551
2870,15872.901835,0.349664837002,106104,13972.8005156
2880,15857.7958491,0.350782294002,106468,14055.870422
2890,15838.0663564,0.351943372002,106833,14120.4817504
2900,15755.960237,0.353176723002,107208,14097.5367492
2910,15875.2110149,0.354361750002,107585,14222.1311457
2920,16102.1121206,0.355557467002,107951,14240.8905755
2930,16041.9199723,0.356717690001,108315,14296.51703
2940,16006.2364526,0.357933508001,108686,14422.7704151
2950,16060.4672599,0.359155740002,109056,14082.4673729
2960,16024.3169024,0.360363859002,109428,14276.6952944
2970,15860.321004,0.361572406002,109805,13903.3918752
2980,15901.1900509,0.362742892002,110171,13914.4036974
2990,15995.9419925,0.363912950001,110543,14208.7075789
3000,16019.8319965,0.365151860002,110906,13903.7630958
3010,16075.8210807,0.366317642001,111273,14168.9622485
3020,16034.1919288,0.367531321001,111638,14434.9695289
3030,16340.6371962,0.368745000001,112007,14252.0227817
3040,16320.7262018,0.369905650001,112372,14463.6096568
3050,16142.1415239,0.371136863002,112740,14183.361692
3060,16163.5161069,0.372325311002,113109,14580.2864035
3070,16146.1831384,0.373568070002,113482,13873.8319634
3080,16045.2142219,0.375343257002,113851,14240.621888
3090,15873.1207163,0.376606544002,114225,14244.3264678
3100,16029.2317147,0.377742817002,114600,13868.1132846
3110,15916.4738289,0.378891492002,114966,14428.9632643
3120,16111.6306252,0.380100894002,115333,14225.1029032
3130,15949.133877,0.381258978002,115696,14355.1812871
3140,15752.0422063,0.382470519002,116054,14055.7410312
3150,15867.1864699,0.383604227002,116424,14484.6773373
3160,15960.5282488,0.384765305002,116797,14347.4564744
3170,16032.406403,0.385948193002,117159,14386.5034906
3180,15779.5962231,0.387167859002,117528,14466.1797759
3190,15906.6780378,0.388381966002,117896,13977.2874778
3200,15919.6558328,0.389617455002,118262,14471.9575691
3210,15966.9330761,0.390804620002,118621,14296.6883692
3220,16201.0499036,0.391960566002,118998,14385.5950147
3230,15955.4988286,0.393195628002,119362,14356.2973385
3240,15864.4453267,0.394424274002,119725,14376.982316
3250,15906.4923086,0.395634532002,120088,14372.3001622
3260,15787.5907664,0.396854198002,120454,14536.2118372
3270,15805.0400122,0.398078996002,120825,14265.7447363
3280,15763.9839708,0.399250765002,121191,14317.9302488
3290,15825.0958211,0.400410559002,121560,14432.1220157
3300,15536.1546707,0.401623810002,121927,14306.3418103
3310,15621.7652222,0.402836206002,122294,14200.2416841
3320,15408.3331575,0.404007547002,122655,14065.9279087
3330,15478.5252103,0.405184021002,123025,13906.8537958
3340,15705.3024785,0.406438327002,123385,14219.5440287
3350,15627.9787008,0.407699048003,123750,14142.9811772
3360,15722.698542,0.408890061002,124117,14310.7101811
3370,15630.0355165,0.410088772002,124492,14106.1568715
3380,15574.670925,0.411327683002,124866,14152.6189742
3390,15666.9251439,0.412501590002,125241,14199.4670537
3400,15708.7299868,0.413668227003,125607,14420.8365814
3410,15593.7822029,0.414912270003,125977,14166.7656684
3420,15599.6947958,0.416080190003,126343,14195.8921654
3430,15549.862638,0.417301139003,126718,14253.2183159
3440,15721.2674976,0.418529786003,127084,14277.3240712
3450,15646.2405419,0.419713102003,127455,14595.4696512
3460,15800.5018606,0.421012311003,127830,14121.827053
3470,15514.8161976,0.422183653003,128204,13962.1403432
3480,15549.2742499,0.423351573003,128576,14131.6742324
3490,15646.0645655,0.424562686003,128946,14082.5020592
3500,15663.6220244,0.425779786003,129317,14486.0368626
3510,15531.3244443,0.427012709003,129683,14494.2037532
3520,15655.25239,0.428224249003,130050,14351.3881212
3530,15705.2975565,0.429404144003,130420,14045.2195177
3540,15747.7272339,0.430576769003,130784,14074.0258464
3550,15675.6947626,0.431764788003,131155,14053.0073554
3560,15742.2886248,0.432979322003,131522,14401.3235975
3570,15540.281751,0.434198132003,131889,13983.5250107
3580,15529.0998025,0.435366480003,132254,14393.9575492
3590,15550.3468764,0.436518150003,132616,13737.8997783
3600,15547.6666873,0.437715150003,132976,13860.0693018
3610,15547.6614031,0.438935671003,133344,14147.8024414
3620,15409.8214128,0.440134810003,133706,14159.8147533
3630,15598.315436,0.441316415003,134082,14534.0921478
3640,15750.7007942,0.442530094003,134447,14076.9760362
3650,15673.6287334,0.443767722003,134823,14023.054895
3660,15594.4017951,0.444981401003,135190,14176.1155178
3670,15627.5629456,0.446156592003,135557,13883.4860303
3680,15558.4008909,0.447302702003,135927,14007.3380959
3690,15663.5420167,0.448474898003,136292,14240.1719502
3700,15569.9426165,0.449646239003,136663,14354.0011746
3710,15733.895464,0.450863340003,137029,14306.6926748
3720,15873.8062136,0.452081296003,137398,14369.6298293
3730,15832.6430304,0.453256486003,137761,14272.5816428
3740,15911.0213773,0.454424406003,138128,14343.2136409
3750,15848.0153551,0.455648776003,138494,14414.0796155
3760,15777.9009269,0.456877850003,138863,13963.9733989
3770,15907.5966686,0.458066725003,139228,14513.7155799
3780,15890.4295114,0.459232079003,139593,13960.7037718
3790,15822.8933772,0.460418816003,139957,14113.6717957
3800,15868.9356571,0.461632923003,140327,14458.6678983
3810,15888.1285889,0.462861570003,140692,14099.3467615
3820,15803.6853743,0.464069261003,141059,14479.3867252
3830,15815.1631898,0.465233760003,141423,14048.2014656
3840,15936.1180617,0.466440169003,141791,13876.7100236
3850,15776.9130885,0.467655131003,142156,14340.4159643
3860,15814.4815661,0.468910292003,142529,14160.3269973
3870,15826.2252417,0.470151341003,142906,14495.443674
3880,15875.1260338,0.471372290004,143276,14417.5517429
3890,15825.8358754,0.472557744004,143638,14187.4836061
3900,15719.7192751,0.473763297004,144005,14250.943691
3910,15862.9662359,0.474932500004,144366,14329.2534021
3920,15761.7558446,0.476099993004,144733,14198.7969822
3930,15766.4741687,0.477306402003,145108,14272.8465438
3940,15642.3046409,0.478537615003,145475,14196.3616114
3950,15585.417917,0.479765407003,145836,14030.9119356
3960,15596.8884018,0.480925629004,146208,14140.3656037
3970,15670.6818015,0.482082430004,146580,14225.9031344
3980,15619.0588984,0.483291405004,146945,13980.9606729
3990,15704.0556349,0.484454194004,147318,13910.4954034
4000,15721.0180908,0.485717908004,147688,13915.0399897
4010,15764.1836223,0.486905500004,148059,14248.0042298
4020,15546.5383626,0.488070854004,148427,14275.9754114
4030,15681.1961971,0.489224661003,148796,14140.0255464
4040,15645.7144364,0.490529430004,149167,14071.4848598
4050,15632.0509415,0.491722154004,149534,13927.2255588
4060,15850.5773767,0.492851585004,149910,14252.6719094
4070,15890.1530034,0.493990424004,150283,14112.819931
4080,15917.5136499,0.495151929003,150652,14184.3313797
4090,15852.9049358,0.496367318004,151020,14216.0679261
4100,15813.5930674,0.497536949004,151392,14018.7600474
4110,15709.5164181,0.498729672004,151759,14148.0480568
4120,15764.2566294,0.499917691004,152121,14132.0787532
4130,15569.4964625,0.501088604004,152483,13997.0110472
4140,15668.8254304,0.502259090004,152844,14031.862866
4150,15731.2722186,0.503515534004,153213,14052.6944735
4160,15692.8813687,0.504818592004,153581,14027.6443264
4170,15729.0958595,0.506144743004,153951,14041.2893815
4180,15647.6245108,0.507468328004,154318,14072.0105276
4190,15658.3394877,0.508783360004,154682,14302.7197337
4200,15676.4437078,0.510124907004,155038,13833.9560263
4210,15605.4815316,0.511305656004,155406,13856.4867645
4220,15567.3206376,0.512608714004,155777,14216.7043943
4230,15593.0727425,0.513774496004,156146,13961.0382529
4240,15625.9503077,0.514947120004,156511,14032.1096484
4250,15457.5916129,0.516113330004,156875,13816.7654691
4260,15511.5332401,0.517285099004,157244,13542.2094218
4270,15465.5159741,0.518491936004,157611,13714.1211332
4280,15567.0508505,0.519673540004,157966,13970.8116289
4290,15534.1466809,0.520832052004,158333,13556.6447523
4300,15341.7756063,0.521999972004,158709,13817.7306281
4310,15348.5289429,0.523161477004,159074,13704.4212399
4320,15408.3721799,0.524360616004,159452,13836.763686
4330,15538.519173,0.525591401004,159819,13943.2260281
4340,15503.1824694,0.526808928004,160188,13731.528454
4350,15664.4174874,0.528032870004,160555,13959.7182157
4360,15580.1133386,0.529248687004,160923,14022.8216082
4370,15538.7846048,0.530459373004,161286,13938.8584176
4380,15529.9737946,0.531631570004,161650,13773.541779
4390,15565.787361,0.532794358004,162016,13727.205565
4400,15547.7409026,0.533960140004,162383,13891.5888875
4410,15493.1387338,0.535196485004,162746,14264.9923736
4420,15528.0564355,0.536397762003,163122,14027.582142
4430,15477.2974907,0.537641804003,163489,14139.1361783
4440,15460.6048077,0.538808013004,163858,13783.3852241
4450,15312.0191521,0.539996032004,164229,13866.6846759
4460,15469.3687657,0.541198164003,164602,13889.916898
4470,15323.1104945,0.542378058004,164971,14019.8206946
4480,15390.9628276,0.543597296004,165342,13940.26432
4490,15395.2051934,0.544778473004,165702,14033.2992959
4500,15459.9897942,0.545954091004,166075,13691.2845234
4510,15419.383722,0.547126288004,166439,13657.3795309
4520,15438.4810341,0.548357929004,166810,13706.0553337
4530,15339.6495749,0.549565193004,167177,13385.6528879
4540,15290.8707877,0.550724132004,167541,14011.1106873
4550,15311.8079266,0.551888631004,167908,13477.7877105
4560,15299.058588,0.553108724004,168278,13256.5127322
4570,15449.5533077,0.554314278004,168647,13819.1117543
4580,15300.2497084,0.555588683004,169012,13957.7149293
4590,15200.4000992,0.556841278004,169372,13671.9344908
4600,15105.0929596,0.558013475004,169741,13653.1417336
4610,15183.4454517,0.559228009004,170106,13099.4125439
4620,15210.0007697,0.560432707004,170478,13450.8787253
4630,15192.4421958,0.561650235004,170853,13803.9500793
4640,15217.0934417,0.562884441004,171225,13486.2167311
4650,15328.2942125,0.564041670004,171595,13874.0167876
4660,15352.0475821,0.565252783004,171965,13928.5619886
4670,15305.4394842,0.566465607004,172331,13680.0226667
4680,15395.8210639,0.567668595005,172701,13794.5118209
4690,15357.9415628,0.568898525004,173071,13604.0939901
4700,15215.6886126,0.570101085005,173439,13387.6228889
4710,15189.9704572,0.571336574005,173806,13397.4383961
4720,15446.4257051,0.572563083005,174176,13735.271253
4730,15391.6869324,0.573801566005,174544,13193.9044344
4740,15221.4370344,0.575025081005,174910,13359.3302171
4750,15396.3284901,0.576249023005,175282,13577.8619669
4760,15241.8925122,0.577463558005,175652,13383.1090129
4770,15304.2180081,0.578673816005,176016,13198.8838486
4780,15295.0449913,0.579900324005,176380,13351.4333281
4790,15285.1250477,0.581167032005,176748,13483.7943303
4800,15273.6434847,0.582389264005,177116,13838.5868314
4810,15257.5372892,0.583602515005,177488,14095.2906857
4820,15484.3124954,0.584819615005,177856,13643.1219956
4830,15271.1098048,0.586014049005,178227,13652.4249862
4840,15446.0682727,0.587240985005,178594,13766.6309044
4850,15417.1599661,0.588455946005,178956,13606.4133339
4860,15603.8443366,0.589690580005,179321,13970.6649452
4870,15432.9086028,0.590935905005,179688,14218.9748949
4880,15355.3332506,0.592100403005,180056,13791.1278711
4890,15243.2444091,0.593304674005,180424,14055.4643512
4900,15306.2246858,0.594535459005,180790,13829.2460311
4910,15335.7320953,0.595710221005,181156,13907.1225876
4920,15383.2364128,0.596880707005,181525,13416.6937934
4930,15474.8352157,0.598091820005,181888,13646.9330382
4940,15426.8274196,0.599254608005,182258,14023.8068481
4950,15287.3627287,0.600485393005,182622,14015.1376006
4960,15344.5802471,0.601720027005,182982,13916.9558402
4970,15458.2031826,0.602894789005,183350,13654.0685409
4980,15334.3165172,0.604066130005,183719,13665.9662
4990,15366.4593352,0.605284513005,184083,13685.4529047
