it,funval,time,funcount,weight
0,25794.7549704,0.00194624799951,432,25709.6325302
10,25692.6460861,0.00412171799962,773,26161.5219734
20,25691.4748979,0.0061291209995,1112,24267.7144755
30,25749.8998948,0.00844272299946,1446,25906.1325318
40,25418.1403341,0.0106323059999,1777,25408.2954186
50,25243.8051716,0.0128235989996,2111,26052.3615549
60,25841.9440435,0.015079894999,2446,25585.6248272
70,26232.1353424,0.017042821999,2783,25348.2463381
80,25748.51434,0.0189950579988,3127,25822.5665413
90,26121.2407145,0.0212316819989,3471,25995.1988409
100,26128.5172057,0.0232831329986,3808,25706.617754
110,25978.0273545,0.0257677959989,4140,25273.865794
120,26006.6352973,0.0282037069992,4473,26395.8651578
130,26158.9332981,0.0305566529987,4801,25921.7225218
140,25971.6881208,0.032812948999,5139,26040.4505715
150,26108.1887221,0.0350752329996,5479,26153.041334
160,26609.99588,0.0375316709997,5814,26453.3490629
170,26028.5009416,0.0399799839997,6152,25442.9526929
180,26292.4156221,0.0423483259992,6486,25681.7277488
190,26354.1459409,0.044870622999,6821,26447.092824
200,26271.649147,0.0471008329996,7159,25830.3487233
210,25872.8957191,0.0492814349991,7490,25808.2663474
220,26323.6162754,0.0514859859995,7818,25619.1547862
230,26461.9159566,0.0537730739989,8159,25830.4116809
240,26108.9307855,0.0558228139989,8506,26006.4510331
250,26060.6378141,0.0580333509988,8842,26514.4933225
260,26190.5679583,0.0601592129988,9165,26426.2304456
270,26258.2461748,0.0622919179987,9506,26262.3730309
280,26141.6280354,0.0644755139983,9846,26213.2673427
290,26112.9359865,0.0669443539982,10180,26651.1012367
300,26179.3830745,0.0694332939984,10514,26590.9042187
310,26082.4178021,0.0714060569981,10844,26673.122808
320,26337.2141436,0.0732488129979,11183,25977.0716505
330,26455.754444,0.075470896998,11511,26176.0099294
340,26514.3794767,0.0777199229979,11839,26053.4231128
350,26557.819138,0.0799236189978,12168,26289.7995821
360,26191.2479833,0.0824339419978,12504,25686.9961802
370,26046.5654561,0.0846337879975,12837,25941.6555938
380,26068.1296092,0.0868007059971,13165,25960.3034158
390,26193.1289955,0.0890172309964,13495,26676.7121293
400,26319.4736953,0.0909172929969,13824,26332.4666485
410,26307.737366,0.0929383809971,14166,26611.684968
420,26494.4197299,0.0951720119974,14500,26080.3580217
430,26170.7034568,0.0974612379978,14843,26182.2808327
440,26412.7780586,0.0997543129979,15183,26452.0181435
450,26955.7044828,0.102100843998,15513,26580.2705138
460,26611.8730843,0.104387503999,15843,26966.4319337
470,26414.5685659,0.106527905999,16181,26782.8002315
480,26834.6623664,0.108647781999,16513,26458.7050797
490,26811.1049882,0.110796737998,16844,26916.743424
500,26655.7535473,0.112633506998,17158,26706.6278389
510,26816.5201868,0.114402278998,17488,26239.0021833
520,26352.0632295,0.116203552997,17816,26265.9334139
530,26279.912776,0.118003543997,18147,26575.8644389
540,26236.7167428,0.119883078998,18482,26780.0279223
550,26244.1435316,0.121915712998,18830,26852.5741213
560,26248.3938385,0.123854690998,19160,26950.893702
570,26397.1444932,0.125904858998,19499,27056.8417609
580,26457.1703602,0.127961013998,19841,26980.7097982
590,26706.2931347,0.130163853998,20180,27386.6760782
600,26787.816388,0.132199053998,20512,26974.5854212
610,26691.3288444,0.134291987998,20856,27091.4053042
620,26502.9024103,0.136325904999,21193,27335.2438412
630,26607.5101922,0.138326892999,21535,26742.8495058
640,26618.9113959,0.140095236999,21871,26599.6308634
650,26379.243947,0.142023951998,22205,26366.7705343
660,26543.1257796,0.144007833999,22535,26768.9068717
670,26438.106445,0.145966485,22859,26672.4683036
680,26308.8748627,0.148437463,23187,27382.9881582
690,26659.7501501,0.150748071,23526,27673.2314712
700,26832.346633,0.153294317,23870,26593.6688013
710,26585.5599685,0.155551469001,24207,27334.09712
720,26523.7251864,0.157597788001,24543,26464.5716806
730,26573.2019569,0.159619303002,24881,26874.1673859
740,26698.1038539,0.162127915002,25224,26878.1327796
750,26518.3826891,0.164460334002,25559,26966.1772224
760,26264.2983598,0.166475435002,25894,27374.7091435
770,26203.7927758,0.168540998002,26221,26495.8208874
780,26491.6985659,0.170555670003,26552,27386.8293123
790,26755.602739,0.172569915003,26891,27099.7907389
800,26624.8786257,0.174650019003,27218,26415.5652691
810,26502.6539424,0.176637750003,27559,27387.1459893
820,26501.2672278,0.178729400003,27908,26606.6028188
830,26491.6419564,0.181116986003,28232,27043.7628609
840,26614.9360587,0.183312128003,28563,27439.9369009
850,26906.5486561,0.185466644004,28891,27534.9534246
860,26824.9442002,0.187582243004,29229,27646.8643337
870,26743.1188644,0.189729060005,29568,27135.2398154
880,26889.7769135,0.191676164005,29892,26481.2383365
890,26833.5290648,0.194230535006,30220,26484.9345505
900,26750.0662942,0.196341857006,30546,27319.6006158
910,26717.4013223,0.198666578006,30874,27029.628851
920,26647.8859308,0.200922020006,31210,27516.6788217
930,26548.7089055,0.203411387006,31541,26682.7498259
940,26890.854811,0.206090205006,31878,26966.3152958
950,26642.2720458,0.208473515007,32208,26949.0402679
960,26557.0251464,0.210915841007,32545,26914.2535735
970,26605.2720203,0.213731935007,32889,27024.4427088
980,26745.037733,0.216175544007,33217,27359.2491685
990,26747.9873164,0.218541319006,33550,27019.2452037
1000,26778.7695326,0.221014435007,33885,27022.443819
1010,27160.7935863,0.223757401006,34218,27424.6577381
1020,27184.1939445,0.225748553006,34548,27805.0301278
1030,27293.5691839,0.228139133007,34881,27618.915236
1040,27275.2122984,0.230145252007,35216,27765.2608371
1050,27262.7365724,0.232217658007,35550,27686.2223682
1060,27311.257786,0.234117720008,35882,28034.0342217
1070,27112.8655856,0.236153348008,36215,28166.7545417
1080,27198.0584435,0.238608931008,36546,27454.8858138
1090,27294.4132313,0.240712128008,36872,28131.2531579
1100,27378.5147126,0.242947897008,37208,27818.3788335
1110,27421.6518181,0.245336766008,37553,28045.5097995
1120,27404.4612915,0.247579806008,37881,28263.0570908
1130,27464.4893993,0.250072595008,38226,28639.1071988
1140,27401.8496877,0.252552554008,38558,28554.5832873
1150,27343.8400694,0.254505645007,38893,28530.8927305
1160,27220.4253203,0.256524166007,39227,28300.0993565
1170,27154.5750256,0.258570485007,39568,28012.6855539
1180,27183.7641921,0.260592000007,39902,28366.5132462
1190,27705.5681698,0.262966757007,40236,28357.1421418
1200,27380.5393723,0.265227758007,40557,27958.4105067
1210,27410.7856866,0.267410926007,40889,27948.1593435
1220,27434.4983252,0.269485898007,41223,27914.84458
1230,27491.7335956,0.271503136007,41556,27840.7805603
1240,27683.5269686,0.273992931006,41905,28158.8814958
1250,27761.7777231,0.276412163006,42233,28058.4505765
1260,27825.98482,0.278887846006,42574,28376.1525867
1270,27885.5103809,0.284159951006,42913,28899.7251405
1280,27789.4350807,0.286228081005,43258,28723.3526114
1290,28176.5307182,0.288484806005,43591,28275.2452553
1300,27991.7299154,0.290922000005,43916,28864.462896
1310,28041.9383451,0.293338239005,44239,28586.8239475
1320,28103.8522802,0.295783986005,44569,28474.4621223
1330,28132.5757569,0.298174138004,44913,29078.5484075
1340,28129.1643343,0.300635708005,45248,28641.3756481
1350,27936.8043543,0.303196066005,45583,28850.7111982
1360,27982.4474058,0.305412163004,45906,28412.5137121
1370,28027.0542848,0.307243801004,46237,29549.1097422
1380,28024.6184708,0.309460326004,46561,28961.3188668
1390,27852.312729,0.311889395004,46895,29061.4752395
1400,27886.523876,0.314387315005,47229,28605.0954119
1410,28072.1882268,0.316635914005,47570,28976.6382414
1420,27873.9090293,0.318659568005,47888,29152.6781292
1430,27929.8913206,0.320610520005,48216,29684.4147755
1440,27992.9982268,0.322702598005,48551,29223.2488075
1450,28278.4237332,0.324724541005,48894,28998.7156987
1460,27787.3353893,0.326728950005,49232,28815.1664141
1470,27978.4997413,0.328739346005,49558,29233.7994993
1480,28178.9763821,0.330644540005,49895,29540.8004057
1490,28190.9513972,0.332827280005,50231,29352.2185195
1500,28055.9989764,0.334825702006,50577,28757.8921553
1510,28027.4227816,0.336899819006,50915,29300.7786725
1520,27948.407416,0.338915347006,51263,28666.3247111
1530,27900.9944964,0.341154965006,51596,28573.2282245
1540,27860.8089924,0.343355667007,51936,28794.6640675
1550,27973.9244195,0.345276256007,52269,28746.4582893
1560,28012.0746456,0.347565482008,52600,28930.7143953
1570,27989.1592787,0.349408239008,52928,29103.8764887
1580,27984.5228733,0.351427189008,53260,28972.0582515
1590,28008.6229766,0.353831454008,53593,28562.7275813
1600,28074.6433627,0.356383259008,53926,28559.0724369
1610,28141.1891019,0.358977829008,54261,29238.411017
1620,28239.4725697,0.361181952007,54601,29126.4298529
1630,28359.062675,0.363685432008,54939,29106.5320302
1640,28402.3995698,0.366095684008,55278,28392.5821021
1650,28391.3335226,0.368261746007,55603,29080.722535
1660,28163.9844409,0.370251188007,55944,29185.6005679
1670,28164.2042535,0.372622951008,56283,28176.2796742
1680,28178.1525767,0.375216666007,56619,28846.5296234
1690,28283.4924528,0.377536255007,56942,29310.2133217
1700,28445.2693343,0.379705311007,57283,28648.5094944
1710,28784.1598385,0.382218199006,57613,29345.3497384
1720,28553.1389826,0.384330804007,57947,28927.7243927
1730,28510.7454965,0.386200075007,58287,28102.4424928
1740,28434.516967,0.388399921007,58620,28838.0739022
1750,28538.280123,0.390603616006,58958,28952.9779285
1760,28487.6059437,0.392784218006,59294,29094.7080618
1770,28386.3896806,0.394992618005,59639,28716.469326
1780,28408.7129941,0.397485406004,59978,28181.0257427
1790,28603.4148779,0.399477413004,60316,28350.4436103
1800,28232.3201815,0.401726012004,60651,29143.5072783
1810,28479.8767324,0.404113598003,60986,29650.1743556
1820,28587.3788746,0.406526843003,61331,29485.3705979
1830,28524.8793002,0.409029040004,61674,29243.0249327
1840,28672.584688,0.411509427003,62022,29502.6751192
1850,28383.0644172,0.413851254003,62351,29704.0294835
1860,28313.5118491,0.415789377003,62685,29650.4033996
1870,28394.4225648,0.418059786003,63019,29345.1215864
1880,28408.9906195,0.420529054003,63345,29399.1907273
1890,28556.7499258,0.422435531003,63681,29461.5733023
1900,28403.4904925,0.424464316003,64020,29481.1667769
1910,28614.1572248,0.426647484003,64354,29509.1610159
1920,28559.0459272,0.428570639004,64689,28538.7650301
1930,28790.949952,0.430403132003,65027,29293.7446216
1940,28708.1931267,0.432931416004,65359,29358.0085434
1950,28629.635913,0.435422494003,65698,29329.6516993
1960,28481.7192,0.437798961004,66025,29124.4464508
1970,28427.4135789,0.439809785003,66373,29034.0342013
1980,28320.5655265,0.441886040004,66705,29046.6918614
1990,28381.0315558,0.444248822004,67042,28926.0163071
2000,28315.6981346,0.446618875004,67381,29215.5713317
2010,28247.9081573,0.448974387004,67717,29019.1186616
2020,28242.1264998,0.451284568004,68047,27972.5570831
2030,28328.2794329,0.453735875003,68374,28324.3222655
2040,28218.5259711,0.456163660003,68700,28301.35153
2050,28066.4159557,0.458402851003,69043,28168.8911278
2060,28044.9373072,0.460785305003,69384,28649.3625437
2070,27828.2295078,0.463093348003,69724,28280.8736006
2080,28063.2963737,0.465443301004,70056,28834.5608821
2090,28219.9651444,0.467708578004,70396,28334.9968502
2100,28274.441237,0.469772431004,70734,29298.7352017
2110,28093.8301945,0.471808059004,71081,28670.8488984
2120,28213.1936981,0.473821021004,71426,28529.0764676
2130,28200.5904611,0.476113668004,71767,28729.1274525
2140,28102.7190926,0.478493556005,72100,28777.1573292
2150,28158.4732756,0.480966245004,72443,28910.810797
2160,28392.4694836,0.483450909004,72770,28658.7128546
2170,28423.7176642,0.485573350004,73099,28810.9715887
2180,28372.1840989,0.488360364005,73432,28785.8967255
2190,28417.3526415,0.491211525004,73759,28422.5414701
2200,28394.7696973,0.493538812005,74100,28983.3505327
2210,28350.6055493,0.495937089005,74430,28596.2344939
2220,28298.0368793,0.498357176004,74758,29260.9810396
2230,28674.2381626,0.501299000004,75103,28936.017252
2240,28376.4761881,0.504188223004,75447,28528.8153213
2250,28283.1553362,0.506867896004,75793,28961.7149835
2260,28358.1195925,0.509384206004,76137,27999.2381348
2270,28182.0361886,0.511854329005,76468,29175.1111272
2280,28476.9071136,0.513960947004,76805,28743.5947698
2290,28286.2760006,0.516413536005,77141,29292.7849269
2300,28277.1444977,0.519286508004,77469,28679.3858974
2310,28180.5400629,0.521234895004,77796,28381.4075682
2320,28311.5722502,0.523726828005,78128,28744.5599341
2330,28412.5249966,0.525658964005,78464,28848.0274051
2340,28225.0580893,0.527752753004,78795,28825.7673743
2350,28021.2407956,0.529670777005,79126,28782.9284793
2360,27980.0024206,0.531442116005,79466,28493.0973106
2370,27990.7515509,0.533880166005,79802,28115.1387772
2380,28078.7448985,0.535867042006,80154,27522.8265088
2390,27904.9423226,0.537790197006,80494,27015.4394921
2400,27523.9572005,0.540139294006,80837,28410.8787085
2410,27547.8339254,0.542390459005,81172,27894.3974075
2420,27669.0493451,0.544756662006,81505,27674.680952
2430,27868.9555736,0.547075823006,81858,27883.2549974
2440,27776.6187685,0.548876669006,82187,28214.8449694
2450,27737.9400179,0.551334818006,82523,28372.522504
2460,27744.1094261,0.553732240005,82864,28020.7112073
2470,27701.6898254,0.556240424005,83187,28290.9390592
2480,27781.5608616,0.558577975005,83527,27640.7345677
2490,27639.1946756,0.560859503005,83859,27540.4323118
2500,27551.2361618,0.563118366005,84190,28005.4854142
2510,27740.0974587,0.565317785005,84515,27422.9072961
2520,27728.9659142,0.567130606006,84857,28011.2162998
2530,27841.9601871,0.568966947006,85195,27979.3613387
2540,27614.4083888,0.571236929006,85532,27977.1656346
2550,27636.2332797,0.573631357006,85862,28093.0809279
2560,27945.5592262,0.575752943006,86199,27934.9090451
2570,27749.359888,0.577650011006,86519,28339.653606
2580,27828.8317851,0.579510728006,86844,28542.9710954
2590,27747.5902409,0.581374439006,87182,28168.9425193
2600,27618.9213173,0.583363025006,87512,28416.6398303
2610,27754.6677617,0.585171997006,87854,28117.4462591
2620,27714.8517122,0.587143905006,88183,28233.0644636
2630,27863.4077569,0.589570835006,88511,28114.97429
2640,27807.1892173,0.591609884006,88853,28054.1824089
2650,27832.0885793,0.593825982007,89188,27996.3652579
2660,27924.7321522,0.595919771007,89519,27947.478148
2670,28042.2511466,0.597722328007,89839,28643.0948395
2680,27997.6413019,0.599843914007,90174,28702.7359786
2690,27962.6832672,0.601954381007,90492,28961.5660937
2700,28013.3044758,0.603838620007,90835,28875.6665742
2710,28210.4145233,0.606070541007,91165,28258.9178888
2720,28069.7644732,0.608263973007,91502,27751.0641309
2730,28295.5519944,0.610444575006,91827,27694.3691661
2740,28264.6077638,0.612994241006,92163,28629.0549156
2750,28316.9712018,0.615381827007,92487,28185.3967272
2760,28223.9569962,0.617572265007,92825,29165.8504741
2770,28339.8835666,0.619620722007,93159,28680.2225541
2780,28097.5313676,0.622241807007,93502,28600.3982549
2790,27812.3159892,0.624410007008,93847,28184.148678
2800,27952.7390621,0.626585905008,94175,29031.7247101
2810,27900.9696229,0.628880690007,94526,28519.3042298
2820,27978.2779496,0.631004414008,94862,28311.8648184
2830,28046.9305018,0.633327852008,95203,28367.3792049
2840,28104.0996653,0.635150508007,95539,28574.3748203
2850,28214.6743906,0.637753203007,95870,28448.8030888
2860,28146.0195904,0.640143783007,96212,27914.0505583
2870,28115.2419758,0.642131086007,96545,28740.1137417
2880,28333.9198102,0.644524659006,96880,28729.9476404
2890,28097.2130321,0.646962708006,97203,28482.4480845
2900,28018.0112799,0.649410593006,97530,28491.6668066
2910,28073.9509166,0.651329899007,97865,28487.6913428
2920,28318.7107659,0.653635804007,98196,28730.6369067
2930,28002.630897,0.655690248007,98537,28523.2459485
2940,27819.6037162,0.658114612007,98867,28599.9043022
2950,27776.3956873,0.662875244007,99203,28295.7522335
2960,28043.4727046,0.664689775008,99541,27796.4504152
2970,27737.8261041,0.667167596008,99875,28501.3315413
2980,28013.2100511,0.669166446008,100213,27990.3359938
2990,28193.0270447,0.671213193007,100557,28867.8775075
3000,28254.658047,0.673666210007,100882,28269.4198438
3010,28239.4423667,0.675892998007,101215,28619.9166334
3020,28546.9175392,0.677818719007,101552,28148.0068132
3030,28598.8460186,0.680264893007,101892,28834.8261585
3040,28428.3060637,0.682218839007,102219,28360.6908929
3050,28304.4095065,0.684177917007,102549,28701.9506935
3060,28433.5968773,0.686759657007,102884,29115.2578817
3070,28059.3074898,0.688854728007,103217,28762.1994842
3080,28009.0133994,0.691067404007,103556,29365.3576097
3090,28372.4507719,0.693159482007,103883,28969.8795446
3100,28314.4568512,0.695548351007,104226,28204.071428
3110,28275.1589204,0.697967584008,104553,29152.409628
3120,28314.1218302,0.700151180007,104870,28791.1305333
3130,27787.6522774,0.701982818007,105204,28828.2216218
3140,27800.7497301,0.703831561007,105539,28630.473431
3150,28001.5639432,0.705882584008,105878,28430.5988931
3160,28160.1336352,0.708493833008,106215,28881.7728637
3170,27942.3449679,0.710812995008,106553,28564.7878861
3180,28044.4387242,0.713175350009,106888,28792.0108237
3190,28131.2483215,0.715587312008,107223,28873.1436416
3200,28217.7088113,0.717888512008,107564,28994.8086236
3210,28258.9751995,0.720414230009,107895,29143.442176
3220,28146.9101596,0.722922414009,108229,29106.9650647
3230,28189.8765901,0.72534164601,108569,28410.5580726
3240,28142.7508813,0.72750941901,108902,28318.1532343
3250,28076.4052743,0.730126654011,109238,28383.30273
3260,28406.6983231,0.73198993701,109571,28639.9461769
3270,28223.3090785,0.73402043301,109912,28549.3728357
3280,28118.0620853,0.73582042401,110258,28614.396666
3290,28012.2860071,0.73799888801,110600,28807.219101
3300,28176.6200191,0.74007685301,110938,28533.9850047
3310,28219.2079884,0.742379764009,111270,28613.2355891
3320,27974.9534302,0.744809687009,111607,28423.9625324
3330,28406.1575347,0.74706940501,111947,28973.5179554
3340,28106.9112517,0.74964344801,112284,28227.4552324
3350,28652.0682742,0.75207893101,112626,28669.9072635
3360,27851.3076222,0.75395076701,112961,28308.6593111
3370,27783.2492369,0.75585981001,113289,27273.4089915
3380,27726.3854502,0.75789372701,113616,28037.1263204
3390,27912.6822434,0.760005904011,113960,27697.2673126
3400,28127.053872,0.76237424601,114291,29078.2785345
3410,28049.152082,0.76478920201,114630,28540.2915701
3420,28144.4819678,0.76709596201,114963,28645.0769166
3430,28295.7551658,0.76919702101,115290,29113.8769991
3440,28107.8481675,0.771561087009,115629,28910.4381037
3450,28213.2986088,0.773969200009,115960,28653.866122
3460,28218.5401728,0.776545809009,116306,28539.2429237
3470,28118.5108307,0.779013366008,116643,29145.4172976
3480,28084.4973322,0.781324402009,116974,28600.9650389
3490,28320.0600089,0.78374406201,117307,28314.9271614
3500,28270.7232816,0.78630613101,117652,28993.9879922
3510,28212.9280203,0.78865736701,117978,28098.8790174
3520,28268.8428492,0.79106334301,118306,28643.2162634
3530,28312.7883843,0.79317124501,118639,28841.9076232
3540,28238.9633211,0.79497594001,118972,28969.9117407
3550,28130.2415877,0.79688669301,119308,29204.566235
3560,28639.9609328,0.799352968011,119656,29207.5661974
3570,28157.998353,0.80154554401,119990,28563.0315922
3580,28225.6327816,0.80344475101,120327,28643.969227
3590,28242.1189314,0.80539014401,120662,29588.2260823
3600,28477.5336475,0.80798813501,120999,28996.1518022
3610,28261.0699117,0.810284631009,121331,28768.8491929
3620,28329.3426726,0.812570008009,121668,28670.639813
3630,28364.1903692,0.815130366009,121997,28532.8887898
3640,28479.7344635,0.817510254009,122324,28655.5203098
3650,28558.8788232,0.819584798009,122654,28985.3482341
3660,28660.8115191,0.821826127009,122982,28861.4004003
3670,28628.0426509,0.824197889009,123312,29348.6256549
3680,28965.6687005,0.82667485501,123652,28661.5030648
3690,28955.5873704,0.82881140901,123991,29709.6589654
3700,29212.4833076,0.83147312001,124328,29099.9527336
3710,29262.8939591,0.83404502501,124660,29693.9166226
3720,29216.597555,0.83665584601,125003,29814.2507026
3730,29406.9791095,0.83871670501,125332,29506.3837484
3740,29023.1140857,0.84124156801,125670,29516.8262735
3750,29276.5909956,0.843839132011,126016,29672.7029286
3760,29024.5551158,0.84583969201,126347,29353.4818206
3770,28947.2529747,0.84822086301,126679,29659.8640745
3780,29072.7108832,0.85066361601,127005,29057.578653
3790,29169.2959832,0.853214993011,127346,29513.571139
3800,29238.8542824,0.85548240801,127682,29532.1483234
3810,28622.5690314,0.85751504301,127999,29505.9833721
3820,28651.4275764,0.859580178009,128336,29292.2028104
3830,28528.4215582,0.861695777009,128667,29087.3129609
3840,28914.5792618,0.864074810009,129006,28736.6021185
3850,28794.1634881,0.866473515009,129340,29203.5181084
3860,28845.4814712,0.869009497009,129681,29281.0843595
3870,28993.9810474,0.871402215009,130021,29441.6672475
3880,28888.0684805,0.873742759009,130361,29578.1756849
3890,28808.8472399,0.876186795009,130704,29861.4066463
3900,28759.9369125,0.878175381009,131036,29450.2994595
3910,28482.8961356,0.880250353009,131365,29221.8151279
3920,28492.2996334,0.882658039009,131693,29918.2986674
3930,28515.9457325,0.885279979008,132027,29665.688547
3940,28527.2636923,0.888435202009,132364,29255.1022946
3950,28452.375811,0.891319721009,132694,29337.3375512
3960,28561.8060067,0.893508448009,133013,29834.5409664
3970,28561.2802423,0.896144500009,133331,28820.0366889
3980,28541.6997827,0.898941350008,133671,29929.388745
3990,28690.9429758,0.901834849009,134008,29869.3923552
4000,28709.4551082,0.904803188008,134340,29370.8831437
4010,28643.2392127,0.906651504009,134694,29948.5833593
4020,28537.8100589,0.908825692009,135028,29266.001864
4030,28610.9106175,0.910825397009,135371,29092.0688515
4040,28588.3360173,0.912851188008,135703,29437.1168729
4050,28602.5198906,0.915064719008,136041,29727.2974311
4060,28456.5539267,0.917423225008,136385,29670.2198779
4070,28455.130351,0.919609814007,136721,29381.7676243
4080,28557.332107,0.921424345007,137059,30073.8260803
4090,28367.7606308,0.923261969007,137397,28851.700284
4100,28669.4038939,0.925650838008,137735,29615.124988
4110,28558.3433612,0.928030726008,138069,29556.5636853
4120,28581.494676,0.930467492008,138399,29231.9686477
4130,28458.5617028,0.933315661007,138740,29775.6518185
4140,28397.2215296,0.936023560008,139075,29915.1485319
4150,28239.3637272,0.938534310008,139402,29937.8318238
4160,28342.8847613,0.940311208009,139743,29440.6283035
4170,28483.616141,0.942613691009,140084,29431.8641048
4180,28267.8651701,0.944494080009,140412,29326.4563448
4190,28076.1949581,0.94637660801,140740,29974.4063856
4200,28402.1847591,0.94817061201,141080,29984.4099203
4210,28420.6725076,0.95002234901,141408,29772.8096838
4220,28241.7041058,0.951797963011,141747,29125.114286
4230,28236.4612942,0.953627889011,142080,29097.5389168
4240,28303.5081456,0.95539067401,142415,28359.9986997
4250,28045.2194043,0.957176125011,142738,29776.8823131
4260,28198.0316189,0.958940193011,143079,29002.0600487
4270,28091.7146161,0.96089841601,143427,29052.8217472
4280,28130.2373733,0.96271551401,143760,28571.7827135
4290,28039.3614808,0.96451721601,144101,29345.1023066
4300,28075.3269495,0.96638520401,144443,28971.1121856
4310,27963.730442,0.96853587001,144768,29342.7398177
4320,27872.714276,0.97078147601,145094,29273.7600092
4330,28112.7679938,0.972874410009,145433,29330.99303
4340,28211.645614,0.975313742009,145769,29384.3560906
4350,28318.7594598,0.977598263009,146098,29668.2858997
4360,28545.5130203,0.979476515009,146432,29309.8273523
4370,28711.7729845,0.981797814009,146759,29227.6160895
4380,28743.3726087,0.984166583009,147110,29464.5031728
4390,28723.8097791,0.98649002101,147452,29216.6688709
4400,28739.053019,0.98889129201,147792,29597.8089065
4410,28699.2605286,0.99130496501,148132,29148.7060332
4420,28609.5862195,0.99371863801,148466,29568.3045009
4430,28570.3761064,0.995667880011,148809,29190.7955039
4440,28569.8354083,0.99777920301,149143,29480.0692218
4450,28606.5845291,0.999848615011,149477,29419.682699
4460,28447.7739097,1.00190220501,149816,29171.813961
4470,28390.5562279,1.00429278501,150149,28546.5248291
4480,28220.9581005,1.00626084401,150480,28807.180466
4490,28386.1487526,1.00814593801,150817,29029.6630141
4500,28146.0016075,1.01051085801,151142,28807.4888412
4510,28214.4700221,1.01282446001,151481,28569.6404016
4520,28233.2230143,1.01522658701,151818,29464.1583139
4530,28047.763702,1.01728573601,152154,28652.9140002
4540,27917.9747681,1.01972549601,152488,29027.2972619
4550,27912.2607523,1.02211607501,152818,29057.0212846
4560,27925.8336738,1.02416709801,153159,29531.8420556
4570,28210.1486816,1.02614114401,153497,29528.3630012
4580,28294.3744403,1.02819088501,153827,28658.7807087
4590,27956.6824173,1.03022480201,154163,28183.6452042
4600,27691.5420665,1.03270476101,154515,27935.0524696
4610,27974.9080448,1.03493753701,154853,28765.0759691
4620,27858.112254,1.03725926401,155193,28771.7910827
4630,27596.4810571,1.03931755801,155522,28156.3614129
4640,27773.0266004,1.04536670801,155861,29417.0678917
4650,28040.3181949,1.04759221401,156202,28744.0433122
4660,27748.8569528,1.04997210201,156542,28919.6472561
4670,27870.9499274,1.05242084201,156877,29324.58956
4680,27866.7088973,1.05433801001,157213,28492.5114085
4690,27847.3148959,1.05638048001,157559,29116.6744127
4700,27894.1592345,1.05852687001,157891,29522.0791148
4710,28025.8209235,1.06071773601,158239,29010.1517059
4720,28147.8634805,1.06269776901,158569,29203.2649144
4730,28202.6207753,1.06451914301,158915,29174.7000063
4740,28206.0012593,1.06672882501,159258,28918.0218734
4750,28215.7687332,1.06907963301,159586,29309.8564511
4760,28081.8011864,1.07131497501,159931,29131.3636534
4770,28327.2024397,1.07335060301,160269,28952.2498566
4780,28060.9614869,1.07534560401,160601,29042.1849579
4790,28107.1328432,1.07754459602,160944,29421.3932272
4800,28087.758396,1.07967858401,161278,29048.8663861
4810,28102.9923512,1.08212048201,161626,28721.539523
4820,28256.1215268,1.08431134802,161963,28413.1096111
4830,28354.065924,1.08651418801,162306,29298.4567116
4840,28333.6002267,1.08915665601,162634,28750.1841325
4850,28319.8425382,1.09154766302,162967,29485.5242405
4860,28453.9510979,1.09373767402,163301,29070.1269489
4870,28111.646371,1.09637928602,163634,28505.0055971
4880,28419.5354861,1.09878483402,163957,28918.9433315
4890,28384.2315616,1.10116429502,164300,28940.2857367
4900,28245.7090083,1.10359208102,164641,28845.5296965
4910,28404.5906369,1.10542329002,164966,28870.2697039
4920,28291.0444338,1.10806746802,165293,29202.3917045
4930,28340.2629311,1.10987772302,165643,29067.2722464
4940,28341.3218231,1.11207928102,165969,28853.4831134
4950,28649.1508503,1.11420984801,166309,28593.0129977
4960,28334.6184682,1.11644519001,166648,28957.8462852
4970,28527.8453417,1.11827597201,166980,29029.2145114
4980,28555.599303,1.12024616901,167319,29050.4349123
4990,28413.4529793,1.12265513802,167650,28717.5918369
