it,funval,time,funcount,weight
0,26435.277047,0.00430646400036,690,25433.1844256
10,27135.808429,0.00813524000023,1272,25787.8399741
20,27480.3282753,0.0120251710005,1855,26845.7617284
30,27059.7140545,0.0165972080003,2424,26665.6523784
40,27044.604456,0.0203866400007,2997,26359.1721417
50,27544.4677017,0.0258101340005,3567,27214.2839236
60,27581.3213619,0.0293951480007,4144,26546.1541359
70,27891.5557542,0.0330323360013,4724,27271.1978508
80,27406.0558792,0.0369081540011,5285,27745.6880355
90,27412.6090577,0.0412582390009,5876,28277.556341
100,27463.5219595,0.0462134530007,6449,29318.9200472
110,27429.8685704,0.0498810040008,7037,27546.9767518
120,27663.2340016,0.0541549670006,7618,27920.5125453
130,28216.8128485,0.0582236570008,8195,28306.6575306
140,27716.6265874,0.0620575650009,8775,28119.4258692
150,27947.3601314,0.0662695180008,9357,28215.5534804
160,28342.193169,0.0698797630012,9937,28439.0216069
170,28045.417468,0.0739518740011,10523,28076.2851104
180,28386.9236727,0.0781368850012,11105,29159.5019512
190,28475.7045664,0.0817094980011,11686,28847.1060473
200,28740.203044,0.0854963650008,12264,29133.1921597
210,28848.8112866,0.0892592830005,12824,29459.6025203
220,28912.224321,0.0930046680005,13396,28563.3440073
230,28875.6793675,0.0966093540001,13978,29443.455907
240,29347.3525858,0.100243976,14556,29117.3036345
250,29077.0650322,0.10407318,15126,29689.4360535
260,28808.9426677,0.107872449001,15702,28841.2771053
270,28830.6484838,0.111744845001,16269,29143.1045206
280,28983.1911366,0.115409830001,16852,28933.0840886
290,29127.074465,0.119055998001,17426,28628.8738027
300,28891.7135995,0.122619629001,18004,29545.1140127
310,28773.3688565,0.126242705001,18572,28818.06963
320,28936.4117912,0.129769558001,19130,29523.411723
330,28656.6489365,0.133395199001,19708,29370.2365946
340,28688.306116,0.137779497001,20267,29106.5524494
350,28856.0770916,0.141973061001,20830,28806.4779767
360,28368.7599889,0.146138400001,21391,29325.5835823
370,28490.7669795,0.150572733001,21975,28974.6467855
380,28490.4903776,0.154154326001,22554,28774.4774459
390,28427.1368306,0.158392366001,23127,28820.1427341
400,28613.0388115,0.162752714001,23720,29244.0888215
410,28660.9358869,0.167070298001,24294,29244.0063709
420,28897.5743316,0.170955953001,24872,29024.0264915
430,28451.9279321,0.175359067001,25454,28915.0256732
440,29019.3704481,0.179259689002,26037,28763.9103024
450,28861.9108675,0.182871646001,26597,29130.4281822
460,28653.1242601,0.186590088001,27184,28847.4789434
470,28634.6812477,0.190169971002,27763,28644.1079576
480,28629.7360641,0.194455909002,28339,28920.819369
490,29246.5893536,0.199096799001,28931,28285.8050971
500,29018.1557023,0.203995136001,29517,28921.2779642
510,29180.9937429,0.208316568001,30095,28451.8070641
520,28812.7513449,0.212770145001,30685,29238.4005444
530,28885.9258422,0.217295140001,31273,28649.4320563
540,28842.4287917,0.221838524001,31837,29262.2507751
550,29104.8973966,0.226382336001,32403,28835.3103693
560,28972.6978157,0.231061286001,32977,29328.417046
570,28867.6061338,0.235230474001,33565,28490.1288289
580,29021.4132766,0.239025038001,34155,28735.6024822
590,28997.7351236,0.242722525001,34727,28891.3444322
600,28997.692564,0.247109388001,35320,28871.885072
610,28926.8801396,0.251620271001,35904,28853.3764679
620,28992.1635795,0.255178771001,36487,29647.2205415
630,29146.9635929,0.258886949,37080,29299.4443681
640,28732.7025219,0.263405957,37654,29067.0270178
650,28855.8870486,0.26767821,38222,28756.7045899
660,29134.3548562,0.271948752,38813,29063.8026814
670,29011.4402652,0.276278738,39399,29451.4630332
680,29014.9617609,0.280610434,39967,29500.5473473
690,29159.970618,0.28490749,40553,28839.4503109
700,29019.2108756,0.289227638999,41127,29434.4421892
710,29204.8128554,0.293611509,41705,29168.5784996
720,29111.8069708,0.297255112,42281,29353.2005409
730,28887.9207436,0.300947467,42870,28893.7384068
740,28876.2538849,0.304673606,43431,28444.7104856
750,28774.3506328,0.308518205999,44006,29245.9725772
760,29011.7515761,0.312834078999,44579,29065.2915844
770,28911.3619429,0.317188012999,45154,28517.9358126
780,28754.7229966,0.321798966999,45723,28025.1782077
790,28636.7376568,0.326659242,46305,29925.3620134
800,28856.0296032,0.330273336999,46893,29082.1980496
810,28840.3690238,0.334537891,47454,28410.9099951
820,28611.5938881,0.338897811999,48029,29294.0488382
830,28468.6223005,0.343230363999,48616,29263.3743424
840,28519.7968309,0.347612523999,49187,28807.0946521
850,28221.3298544,0.351599531999,49770,28116.3553112
860,28250.7424425,0.356171569999,50349,28807.6929679
870,28263.5535545,0.359727503999,50915,28139.6440339
880,28468.3317929,0.364033112999,51498,28524.6605628
890,28236.0772925,0.368629525999,52078,29038.9464816
900,28605.2533132,0.373264856,52663,28901.0950893
910,28330.7999166,0.377813372,53237,29156.3517908
920,28473.3540228,0.382381986999,53813,28656.9913576
930,28153.3346593,0.387109689,54392,28478.6004894
940,28643.347881,0.390706677,54993,28305.3402034
950,28344.3464855,0.394467028,55562,29572.0889497
960,28553.5800829,0.398798724,56140,29090.1528266
970,28572.6838934,0.403124861,56720,29302.2794532
980,28658.6756911,0.40694594,57295,29699.5945485
990,28670.2138238,0.410763597,57882,28977.6348238
1000,28776.1514726,0.414530364,58454,29001.0385354
1010,29014.5375747,0.418293709,59036,28960.2569041
1020,29348.5301467,0.421889414,59616,28377.4832451
1030,29041.6186636,0.425452618,60172,29224.768058
1040,29000.4156146,0.430296214,60747,28921.3751609
1050,29533.709444,0.435412226,61330,28488.2055323
1060,28936.9591072,0.443009479,61904,29039.5930623
1070,28534.4798676,0.446956715,62494,28898.8745715
1080,28804.9438349,0.451233671,63048,28393.1019447
1090,29118.6629263,0.455649614,63631,29288.2333747
1100,29033.5610788,0.459594284001,64202,30289.7462925
1110,29025.4578559,0.463921276,64771,29440.9106597
1120,28702.3188014,0.468258104001,65353,29612.5226642
1130,28973.2792241,0.472082176,65940,28587.6709232
1140,29246.8773818,0.476416866,66515,29874.0840402
1150,29399.7012101,0.480838797,67097,29900.2311689
1160,29355.9978315,0.484420818,67661,29800.1113339
1170,29108.8671043,0.488065276,68232,29679.4393837
1180,29123.6061005,0.491631473,68812,30415.0850614
1190,29093.8233698,0.495328105,69386,29089.645295
1200,29192.0025944,0.499663650001,69958,30197.076984
1210,29196.9273738,0.504244668001,70537,29379.7980453
1220,29321.953999,0.508827824001,71113,29218.1409181
1230,29202.9811879,0.513528585001,71686,29910.135425
1240,29317.1603151,0.518195561001,72256,30554.8487411
1250,29275.71177,0.522776579001,72831,29383.3765959
1260,29160.1759476,0.527427304001,73416,29487.2088541
1270,28973.034894,0.531903119001,74002,29670.9405213
1280,29028.927203,0.536672731001,74579,29254.0559934
1290,28724.642005,0.540378771001,75170,29441.0868114
1300,29115.5301697,0.544030499001,75741,29163.7583747
1310,29089.2341811,0.5476416,76335,29570.2569579
1320,29087.6123684,0.552296602,76932,29328.454089
1330,29082.0551722,0.55682459,77504,29458.4157134
1340,28871.1847545,0.560688861,78075,29391.2406313
1350,29502.3033072,0.564932461,78660,29495.9985113
1360,29348.466891,0.568927594,79229,29777.2952047
1370,29452.1369745,0.573582168,79809,29616.6717734
1380,29938.2176783,0.578259835001,80387,29595.7146894
1390,29779.9713251,0.582993525001,80970,30051.2109996
1400,29996.660751,0.587635270002,81542,30022.4645518
1410,29982.1982842,0.591574381001,82126,29407.8607938
1420,29951.5324377,0.596075855001,82721,29834.8556446
1430,29764.2547606,0.599978188001,83279,29589.89269
1440,29981.3887893,0.603570472001,83872,30118.0632054
1450,29839.4830786,0.607213647,84458,30357.7715306
1460,30161.9751446,0.61083715,85047,30145.8440852
1470,29983.5020336,0.614872483,85612,30761.341256
1480,29830.2343782,0.619016439,86197,30729.3918931
1490,29826.2837589,0.622627113,86773,30227.6505777
1500,29758.7393895,0.627133719,87345,30358.4250177
1510,29453.8621072,0.631758357001,87928,30175.5932858
1520,29641.2480431,0.635677796001,88509,29634.3189665
1530,29612.8936439,0.639946200001,89082,29117.3006537
1540,29480.198214,0.644256513001,89653,29310.4110229
1550,29369.6659274,0.648000186001,90220,29860.4902135
1560,29371.1287333,0.652202731001,90796,29117.0607548
1570,29784.60543,0.656464720001,91370,29722.0491793
1580,29676.7321051,0.660787008001,91943,29868.6339976
1590,29846.4227546,0.665114,92514,29729.8504978
1600,29731.8411114,0.668903859,93090,29554.0583732
1610,29577.060093,0.672684738,93655,30134.3717792
1620,29640.5186205,0.676448083001,94237,29563.7683599
1630,29745.2308479,0.680793464001,94806,29887.085401
1640,29756.8007792,0.685075980001,95392,30500.5993513
1650,29624.9486258,0.689412381001,95972,29880.44036
1660,29606.4917413,0.693153916,96544,30054.4283212
1670,29558.45763,0.696899727,97121,29993.7428391
1680,29901.0206566,0.700703272,97697,30411.8560796
1690,29574.1869307,0.705118788001,98278,30365.8171381
1700,29639.1102139,0.709440648,98856,29967.1761447
1710,29767.4621143,0.713267286,99436,30109.8689416
1720,29393.6366159,0.717539110999,100011,29708.1536602
1730,30074.3723778,0.721896894,100596,30234.2587092
1740,29627.0695733,0.72659851,101164,29570.4531866
1750,29788.970418,0.730897277001,101740,30282.8609048
1760,29731.517105,0.735541159001,102317,29553.7113134
1770,30160.8427692,0.739816833001,102894,29706.1749551
1780,29662.5365819,0.743553236001,103465,29619.1561186
1790,29860.0432425,0.747711732001,104055,30165.5166948
1800,29522.4435492,0.752033164002,104638,29933.9665298
1810,29530.6226347,0.756047969002,105209,29656.6559616
1820,29649.4803698,0.760617012003,105776,30250.1927277
1830,29427.1287189,0.764972657003,106344,29640.3964525
1840,29211.4427621,0.769034504003,106923,29977.4837618
1850,29776.197705,0.773646313003,107502,29355.5686038
1860,30074.3354103,0.778311578003,108059,29980.3588622
1870,30038.3139135,0.783032866003,108638,30389.7028011
1880,29972.0385993,0.787637405003,109215,30635.987066
1890,30363.7829561,0.792291552003,109790,29995.0190276
1900,30188.1796283,0.797186894003,110370,30208.3022553
1910,30164.8818913,0.801940256003,110950,30731.132481
1920,30442.4702574,0.806203528003,111526,30190.5640557
1930,30102.9065702,0.810078919003,112091,30806.4608236
1940,30005.7349162,0.814762574003,112677,29971.7297885
1950,30155.059654,0.819364547003,113255,28968.7815814
1960,30133.1808514,0.823326324004,113820,30024.5360305
1970,29986.21044,0.827281686004,114407,30372.5661619
1980,30199.6837532,0.831932412003,114988,29832.4598315
1990,29745.0764067,0.836684491002,115564,30371.198304
2000,29625.8348777,0.841397226002,116147,29975.0950833
2010,29871.0422832,0.845992784002,116711,29716.7567147
2020,30026.7121705,0.850574230002,117279,29151.6078669
2030,30025.9093614,0.855220251003,117852,29405.397113
2040,30071.9106687,0.859856008003,118439,29629.6789118
2050,30231.0986518,0.864397255003,119012,30508.4938945
2060,29978.0793616,0.869042848002,119585,29745.1769524
2070,30019.4709476,0.873497280002,120161,29406.2728448
2080,30084.4498257,0.877758413002,120745,29531.8923724
2090,30326.0158181,0.882380485002,121327,29774.139001
2100,30328.2446,0.886321734002,121915,30844.6871666
2110,30617.4653473,0.890984433003,122499,30685.0271979
2120,30386.3138371,0.895331097003,123082,30052.0198755
2130,30491.1103131,0.900103276002,123672,30168.4988126
2140,30288.5457864,0.904567973002,124250,30311.9886765
2150,30359.868401,0.909147280003,124817,30205.7143849
2160,30175.1463555,0.913022243003,125399,30036.448353
2170,30262.0285661,0.917701193002,125975,29075.967166
2180,30163.4928805,0.921851992002,126541,30208.0802495
2190,30125.5681855,0.926428305002,127112,29497.9640624
2200,29982.2770663,0.931004191003,127672,29623.5496927
2210,29985.4855832,0.934838099003,128245,29867.8709395
2220,29908.2220857,0.938822114003,128820,29535.4252912
2230,29822.8245277,0.943417672002,129385,29416.5783031
2240,29923.346753,0.948056423003,129971,29651.9172488
2250,29883.2170184,0.952106723003,130542,29476.1246798
2260,30028.9958533,0.955838422003,131121,28927.4721948
2270,30156.2006922,0.959508539003,131692,29627.0421129
2280,29504.6855335,0.963214579003,132264,29296.619489
2290,29658.1247387,0.966878709003,132824,29792.6375041
2300,29482.4637852,0.970576624003,133406,29913.2912867
2310,29587.9537656,0.974312172003,133969,29790.6002508
2320,29582.7085072,0.977951070003,134557,29987.2241583
2330,29382.6800758,0.981843995002,135145,29752.6488711
2340,29299.5815406,0.985389238002,135737,29829.7921299
2350,29384.9407804,0.990704963003,136312,29623.7177812
2360,29434.3275855,0.995298810003,136899,29588.2508115
2370,29299.3249726,0.999976478003,137477,29879.9643591
2380,29071.1287488,1.004293633,138064,29971.8026624
2390,29020.7870123,1.008023622,138648,29293.8514778
2400,29067.5583011,1.011665087,139227,29227.1476337
2410,29051.7148153,1.015587947,139811,29528.3241005
2420,28833.8825292,1.020232685,140385,28707.0439966
2430,28926.8636025,1.024807287,140954,29626.2011787
2440,28922.343273,1.029384029,141529,29738.924498
2450,28839.0488412,1.034172459,142113,29655.4775084
2460,28772.5648326,1.038770583,142684,28733.1219551
2470,28565.6204341,1.043526511,143255,29405.5779101
2480,28992.1144977,1.048121641,143828,28811.2615213
2490,28244.770116,1.052714205,144386,29383.0160146
2500,28957.7248585,1.057294795,144967,28571.5759767
2510,28680.8319449,1.062026346,145545,28831.0495606
2520,28446.454643,1.065798244,146118,28985.4204862
2530,28500.3273616,1.070318535,146685,29798.8069638
2540,28765.0833576,1.074251659,147257,29088.6103096
2550,28664.7869905,1.078104812,147821,29249.0675527
2560,28593.8227587,1.082730306,148416,28627.7847446
2570,28747.2903457,1.090020505,148994,28783.5542702
2580,28967.1645852,1.093847571,149556,29591.6155053
2590,28728.5482545,1.098260521,150145,29644.8131315
2600,28898.5535649,1.10286506,150714,29253.6015118
2610,28626.2491685,1.106784071,151288,28219.2489372
2620,28807.8128168,1.110811278,151854,29529.3482622
2630,28157.7036016,1.114608408,152440,29423.9318607
2640,28674.0531973,1.118395274,153025,28799.1299081
2650,28611.1548735,1.122488768,153608,29243.4202298
2660,28681.3830865,1.127210484,154183,29141.3395298
2670,28818.4539807,1.130970836,154759,29133.8157525
2680,28941.3234887,1.135562973,155351,29715.5502436
2690,28731.0303888,1.14008754,155928,28815.9720917
2700,28537.1921408,1.143835063,156513,29167.7614919
2710,28602.7425867,1.148430193,157092,29495.3328235
2720,28682.0907026,1.153143783,157658,29172.4225173
2730,28688.3440256,1.157644402,158223,29380.8149457
2740,28341.956829,1.162260915,158807,29194.3072483
2750,28449.71076,1.166260753,159396,29360.3015879
2760,28584.0593752,1.170830651,159969,28736.7048071
2770,28314.9746421,1.175495061,160548,28567.8359893
2780,28611.6954474,1.18024885,161135,28871.2828603
2790,28661.2264292,1.183973279,161702,28844.0567696
2800,28556.0281263,1.188587226,162279,28963.5434873
2810,28990.54191,1.193392334,162878,29962.139473
2820,28438.2493432,1.197916901,163463,27866.2778578
2830,28222.032235,1.201787588,164052,29174.3569028
2840,28359.5198964,1.206448149,164617,28759.5811532
2850,28351.5656782,1.210332948,165200,29028.0269774
2860,28540.483802,1.214903275,165798,29242.3335373
2870,28537.6873192,1.219476595,166355,29034.6629613
2880,28800.9714216,1.223993893,166940,28697.6618884
2890,28688.0962088,1.227786747,167519,28371.5523948
2900,28438.7469158,1.23171089,168106,29258.2898908
2910,28308.5578368,1.236231181,168670,29094.1215877
2920,28275.5274025,1.240728379,169257,29199.9627241
2930,28446.8974391,1.245363281,169837,29399.2041128
2940,28620.7727177,1.249206598,170391,29069.4125912
2950,28921.6642747,1.253780346,170972,28643.5856754
2960,28670.7036238,1.258398997,171551,29279.9655401
2970,28905.9302142,1.262994983,172130,29336.4300278
2980,28907.6046097,1.267575146,172715,29093.3769182
2990,28647.1248865,1.272205771,173290,29503.1624135
3000,28765.7508587,1.276771821,173874,29386.9236184
3010,28929.5378279,1.281423829,174444,29566.2546643
3020,28922.3303161,1.28609166,175027,30022.8669747
3030,28641.6568897,1.290836469,175612,30049.2679621
3040,28818.6653833,1.295428178,176199,30207.4863682
3050,28856.0378718,1.299306989,176767,29809.2908567
3060,28557.4210052,1.304051798,177345,29546.7283224
3070,28709.3018444,1.308571234,177907,29365.8609687
3080,28724.5208869,1.313088959,178477,29588.3895905
3090,28532.7358105,1.31672187,179055,29752.5369209
3100,28580.010698,1.320875234,179642,29849.7912274
3110,28977.6706079,1.325030738,180227,29295.1114481
3120,28979.5329694,1.328821881,180813,29063.9122029
3130,28550.2415894,1.333461487,181380,29442.9970299
3140,28396.3301957,1.33809254,181958,29311.2028966
3150,28457.4459396,1.342701783,182534,29360.8100858
3160,28659.4911068,1.347248161,183124,29218.7011547
3170,28817.9687785,1.351953198,183706,29058.1427248
3180,28641.4632046,1.356573988,184279,29096.5996039
3190,28574.4654106,1.360546456,184848,29165.7258735
3200,28558.3410538,1.364390628,185428,29233.4369946
3210,28276.6827107,1.368689395,186009,28488.6020099
3220,28596.5457351,1.373374332,186600,29533.1490335
3230,28643.2946357,1.377123993,187152,28585.4095791
3240,28734.342209,1.381802943,187734,28923.0536776
3250,28804.4046447,1.385745047,188315,29378.4749219
3260,29004.5466569,1.390388074,188888,29425.2579381
3270,28897.6602317,1.3949785,189467,29422.8460557
3280,28769.4113513,1.399593302,190053,29266.117671
3290,28803.422484,1.404136258,190630,29147.854592
3300,28815.3556299,1.408748066,191208,29362.119311
3310,28541.1405281,1.413523666,191793,29492.5198013
3320,28624.187658,1.417704401,192371,28711.498091
3330,28754.6136217,1.422008727,192944,29242.043133
3340,28895.516134,1.426198015,193523,29537.766518
3350,28653.7079046,1.429999421,194090,28626.4579119
3360,28635.4593737,1.433923992,194658,28800.7569148
3370,28611.3942712,1.437777144,195240,28841.5096094
3380,28394.7348818,1.441886461,195817,28994.1531062
3390,28432.6616819,1.445725074,196389,28159.2208503
3400,28408.6775973,1.450445506,196960,29052.7582207
3410,28375.7275749,1.454592884,197544,27848.9001993
3420,28715.1583112,1.458606834,198115,28332.1048527
3430,28936.9891062,1.463311871,198686,28888.2899035
3440,28958.9537026,1.467747487,199272,29208.4673248
3450,29124.5552567,1.471590376,199860,28773.3024258
3460,28945.7350381,1.476083297,200422,28445.7580499
3470,28949.171147,1.480651913,200994,28144.7152387
3480,28917.8285647,1.484647046,201571,29352.782091
3490,29114.7348722,1.4891776,202150,28188.3632811
3500,28984.4371711,1.493762039,202717,28625.272287
3510,28989.2355653,1.497562591,203288,28142.0385251
3520,28710.0179282,1.501603056,203871,28517.3203892
3530,28783.4653885,1.505950148,204455,28569.11154
3540,28712.4378557,1.509753692,205048,29051.3965745
3550,28901.0977662,1.514288951,205627,28760.0034154
3560,29193.0838418,1.518969612,206209,28772.4766096
3570,29054.716025,1.52321706,206777,28425.0084054
3580,29062.5974524,1.527113833,207354,27991.9133748
3590,28942.3841114,1.531675178,207946,28162.5572246
3600,29127.5379446,1.536423836,208528,28542.0103408
3610,29051.1545003,1.541246478,209113,28167.9034439
3620,29029.8353971,1.545032061,209695,28707.3012374
3630,29261.2707577,1.549527548,210274,28748.4977789
3640,29368.8492568,1.553361456,210867,29319.3557797
3650,29538.1072329,1.557208621,211436,28752.3623793
3660,29310.6206418,1.560998909,212007,29163.1667783
3670,29567.3970988,1.565656476,212583,28381.4772888
3680,29163.8881753,1.569507063,213153,28732.4867089
3690,29071.9138873,1.574063276,213716,28222.9053937
3700,29065.8610508,1.578369741,214296,28004.2931634
3710,29204.9935462,1.583072212,214867,29305.8691403
3720,29214.7989449,1.586622586,215438,28709.587583
3730,29151.1749939,1.591204031,216022,28360.2774356
3740,29257.8057427,1.596009139,216614,28424.9636215
3750,29350.1288688,1.599630931,217183,28289.163526
3760,29312.4253826,1.604146518,217758,28427.097356
3770,28879.6613282,1.609048703,218330,28813.4377623
3780,29244.6934046,1.613690875,218915,28651.7811382
3790,29099.2945694,1.617433265,219482,28277.3487444
3800,29067.7867226,1.621908653,220048,28724.3516347
3810,29115.4244272,1.625597587,220622,28337.2243581
3820,29120.1423331,1.629360505,221204,28236.6301244
3830,28998.7335577,1.633029339,221773,28067.2865993
3840,28930.5207688,1.636763176,222355,29023.8033187
3850,29192.7212898,1.640428162,222905,28256.4053107
3860,29151.1336872,1.644079035,223485,28309.3554209
3870,28843.7134673,1.647766258,224052,28843.4015407
3880,28966.1412773,1.651586053,224633,28294.7237027
3890,28671.1956246,1.655236926,225209,27530.6400479
3900,28998.7649994,1.658915596,225774,28358.2603078
3910,28865.597864,1.662437745,226360,28527.4246751
3920,29050.0954563,1.665970158,226932,28626.7113126
3930,29160.35179,1.669633433,227521,27614.0946683
3940,28889.9048599,1.673913811,228101,27973.5523602
3950,28891.8313545,1.678420844,228655,28196.9371242
3960,28715.5229284,1.682860737,229231,28047.0896162
3970,28850.4132558,1.687190722,229813,27731.018982
3980,28910.7305929,1.691557913,230391,28456.1243864
3990,28870.3952671,1.69563986,230972,29127.4408516
4000,28617.996032,1.699412614,231548,28584.4682277
4010,28736.7510282,1.70304467,232129,27951.2248482
4020,28882.7756861,1.707325903,232705,28852.7149802
4030,28887.3026246,1.711694805,233267,28532.0155317
4040,28832.6691463,1.715584308,233835,28021.7279286
4050,28671.688553,1.71990873399,234418,28214.1619716
4060,28777.7280262,1.724206217,234984,28599.2407856
4070,28965.9165073,1.728012756,235566,28991.6040734
4080,28811.8105808,1.732719076,236154,28675.0445099
4090,29261.3511387,1.737373222,236737,28888.7895723
4100,29063.2891942,1.745956643,237310,28736.1080385
4110,29282.5834764,1.750502593,237882,28361.8290211
4120,29538.2867127,1.755201215,238450,28790.3843667
4130,29199.3828824,1.759881448,239028,28849.9896005
4140,29197.003252,1.764187485,239611,28996.4804596
4150,29330.9877852,1.769145692,240201,28795.7830902
4160,29314.8939855,1.773784443,240795,28433.2492911
4170,29252.0756853,1.778399245,241384,28631.3856516
4180,29350.1355103,1.78307734,241964,28642.5792476
4190,29664.5626829,1.787949162,242530,28149.1070413
4200,29390.1503704,1.792614855,243109,28609.7256539
4210,29520.588442,1.797269002,243685,28577.8674142
4220,29534.5347731,1.801873113,244275,28599.7100992
4230,29568.3277304,1.806573018,244843,28847.0677246
4240,29256.8395962,1.811015048,245402,28354.4421982
4250,29309.7954686,1.815676464,245987,28429.8594617
4260,29400.052562,1.820253206,246580,28797.9419942
4270,28938.6561112,1.824071291,247158,28123.3423242
4280,29573.1890905,1.828808402,247739,28478.9829478
4290,29099.0225533,1.832832616,248312,28696.275825
4300,29165.9967729,1.837412779,248886,27849.1587339
4310,29368.3494965,1.842174694,249462,28411.3007533
4320,29281.2389071,1.846738178,250041,29316.6619902
4330,29442.5030794,1.85063153,250621,28903.5027006
4340,29142.1483061,1.854948686,251194,28775.2612043
4350,29326.4269863,1.859264987,251771,28829.1814262
4360,29337.4074752,1.86282648,252341,29238.8637397
4370,29399.313771,1.866433732,252930,29415.9140697
4380,29592.0478437,1.871179823,253514,28976.9059975
4390,29347.2701214,1.875657349,254089,28763.5207569
4400,29316.9692117,1.880229386,254670,28846.843506
4410,29571.7330209,1.885035349,255246,29040.5946431
4420,29162.6843148,1.889585148,255811,29029.9886174
4430,29323.9971923,1.893230033,256403,28633.193245
4440,29398.2620683,1.896834292,256988,27946.9760021
4450,29426.2764973,1.901412744,257564,28932.8992691
4460,29246.7075492,1.906017711,258151,28842.5888457
4470,29645.1608727,1.910635506,258717,29412.5379683
4480,30118.2043117,1.914779463,259296,29348.7902963
4490,29620.1308719,1.919202677,259876,29354.1426526
4500,29554.14829,1.923195245,260452,29281.8654263
4510,29951.2634671,1.927544475,261031,28648.1491116
4520,29803.5847742,1.931860775,261622,28548.7610948
4530,29652.8527425,1.937345851,262203,28960.6700996
4540,29927.9665538,1.941896933,262791,29233.328681
4550,29711.6109423,1.946436897,263379,28024.6355631
4560,29803.014156,1.950763033,263961,28600.3775268
4570,30075.4158079,1.955088742,264546,28905.9450335
4580,29820.3532016,1.959008181,265124,28537.5923685
4590,29867.621053,1.963329614,265697,28898.6628551
4600,29951.7345655,1.967642921,266274,28891.3487935
4610,29635.9261066,1.971931425,266858,29193.7814097
4620,29702.911965,1.976262694,267436,28772.9807115
4630,29939.8269629,1.980934802,268021,29174.7929735
4640,29802.781032,1.984775125,268602,29136.6425641
4650,30228.9683085,1.988616303,269187,29000.4309061
4660,29860.2117025,1.992543439,269761,29613.1776732
4670,30173.6344574,1.996851186,270353,28546.245143
4680,30086.6861233,2.001202981,270923,29193.1969425
4690,29964.7122111,2.00506981799,271500,28836.0834725
4700,30411.908168,2.00967521199,272092,29216.7525089
4710,30142.9319927,2.01374860599,272667,29758.7816067
4720,30020.5204549,2.01808201299,273236,29526.3322561
4730,29871.2677357,2.02258819199,273827,29790.7723173
4740,29883.6493708,2.02645246299,274394,29535.5930647
4750,30246.8433311,2.03075251199,274960,28929.6855184
4760,29973.7577006,2.03513851999,275536,29598.7937188
4770,30319.4667488,2.03945011599,276113,29583.5488006
4780,30045.2594133,2.04374546199,276684,30402.7790931
4790,29940.7008292,2.04840089099,277272,29998.8514887
4800,30070.8546856,2.05310464499,277851,29434.4725982
4810,30069.28531,2.05686585199,278425,29486.3400381
4820,29968.7296606,2.06075449999,279008,29145.1587885
4830,30207.2954965,2.06508961699,279579,29642.1600729
4840,30129.9894228,2.06943542599,280159,28728.3675167
4850,30309.9231898,2.07373804199,280741,29668.3033993
4860,30398.5186994,2.07778534899,281324,29610.7770177
4870,29980.641099,2.08253058499,281908,30139.6131427
4880,30360.6813885,2.08683148999,282492,29664.959565
4890,30273.3805945,2.09111400599,283084,30096.6237376
4900,30239.6318737,2.09516088499,283655,30093.4835921
4910,30386.880147,2.09894646799,284219,30072.1328375
4920,30502.5750701,2.10286676199,284804,29616.2315927
4930,30141.6572596,2.10668570199,285374,30200.46132
4940,30157.0973344,2.11113286399,285951,29269.117563
4950,30087.8130255,2.11574253499,286527,29648.6362807
4960,30128.4069122,2.12007979099,287118,30455.5016228
4970,29971.5906467,2.12466209199,287704,29981.6753617
4980,30258.136632,2.12920718699,288293,29979.3605896
4990,30317.7836858,2.13361799899,288871,29802.7267631
