it,funval,time,funcount,weight
0,23467.8022192,3.42120001733e-05,10,25321.1434466
10,23310.9879033,7.74050004111e-05,21,25241.9127532
20,23186.6119869,0.000123591000374,32,25272.6763692
30,23105.0373263,0.000168067001141,43,25415.5304119
40,23222.8843842,0.000210404001336,54,25438.5013961
50,23244.0384625,0.000251887000559,65,25272.1170525
60,23105.2572939,0.000296363000416,76,25212.0008416
70,23091.2932707,0.000334850999934,87,25160.3023888
80,23178.0860426,0.000373338999452,98,25349.8054519
90,23192.3602075,0.000411399999393,109,25341.6730272
100,23263.2509382,0.000451599999906,120,25490.8724835
110,23149.8030462,0.000490944000376,131,25519.9062938
120,23341.8870532,0.000524301000041,142,25704.3459626
130,23426.3914887,0.000558085000193,153,25835.3415226
140,23600.3566335,0.000601706000452,164,25912.5083203
150,23915.126316,0.000638483999865,175,26388.1717903
160,23949.0104968,0.00068381499932,186,26459.8547326
170,23982.2791886,0.000723158998881,197,26589.3213054
180,23838.1500764,0.000760364999223,208,26571.4847409
190,24118.1387464,0.000804412999059,219,26695.3382339
200,24153.6715112,0.000841618998493,230,26683.1714308
210,24133.6682255,0.000889516998541,241,26759.9498068
220,24122.0558611,0.000960079998549,252,26900.8346456
230,23857.7091347,0.00099814099849,263,26757.4577515
240,23619.1043389,0.00103149799907,274,26468.4721393
250,23878.0980214,0.0010764009985,285,26773.4292811
260,24018.6119047,0.00111446299798,296,26868.4719287
270,24018.6061585,0.00115295199794,307,26957.6948609
280,24028.0890502,0.00118972999826,318,27072.7136206
290,24156.7510531,0.00123420499858,329,27175.3723285
300,24014.3176269,0.00127910799802,340,27027.5079864
310,24198.2706373,0.00132786099766,351,27304.1898371
320,24202.9521419,0.00136848799775,362,27232.5675298
330,24325.8328981,0.00141168099799,373,27126.040771
340,24313.176965,0.00145487399732,384,26904.0274215
350,24276.1858893,0.00149849399713,395,26763.6917766
360,24680.8477023,0.00153313399733,406,27045.2858423
370,24849.2565086,0.00157076699725,417,27239.164021
380,25212.7345926,0.00160797299668,428,27470.6435874
390,25449.4053578,0.00165373199707,439,27674.1667581
400,25516.7918711,0.0017037669968,450,27720.2251457
410,25561.2810167,0.00173626799642,461,27879.4647872
420,25836.2250209,0.00176748599642,472,28082.4496033
430,26037.1467971,0.00180298099622,483,28132.5935807
440,26152.7620469,0.00184275199535,494,28291.6153648
450,26355.9485268,0.0018906499954,505,28473.9018226
460,26568.7877024,0.00193640899488,516,28565.8258511
470,26602.8680699,0.00198644399552,527,28763.3115719
480,26602.8680699,0.00203220299591,538,28763.3115719
490,26619.3428215,0.00207453999519,549,28809.7687272
500,26744.1329727,0.00212158099566,560,28944.9844072
510,26827.7672048,0.00216819499565,571,28937.1604306
520,26970.478927,0.00221609199525,582,29138.3789703
530,27176.4134039,0.00226527199447,593,29173.0669383
540,27282.3391962,0.00231103099486,604,29313.8393067
550,27379.5626275,0.00236576999487,615,29529.2239748
560,27834.2911673,0.00239998299548,626,30086.2007965
570,27872.7572215,0.00244787999509,637,30230.9901453
580,28160.1431041,0.00249278399497,648,30354.5002395
590,28260.2508138,0.00253127299493,659,30560.2961493
600,28411.5409702,0.00256762299523,670,30715.3663813
610,28512.7281589,0.00261423699521,681,30988.0023939
620,28664.9390407,0.00266213399482,692,31021.0574126
630,28909.8930562,0.00270746599472,703,31320.176135
640,29214.4723969,0.00274467199506,714,31381.734363
650,29467.0982452,0.00278230499498,725,31412.8011949
660,29899.719484,0.00283233999471,736,31839.4629559
670,30207.6259531,0.00287938199472,747,32123.2106766
680,30284.801631,0.00292856199485,758,32345.5317082
690,30480.9829882,0.00297988099555,769,32487.6196339
700,30782.8280348,0.00303034399622,780,32677.0569197
710,30845.6035645,0.0030743929965,791,32757.5625537
720,30851.7363004,0.00312015199597,802,32854.1516999
730,31116.7815902,0.00316762099646,813,33109.4278718
740,31146.7372797,0.00323390699668,824,33168.4283152
750,31221.6342659,0.0032933509965,835,33275.334445
760,31486.113256,0.00333697199676,846,33708.3222021
770,31719.830739,0.00341052899694,857,33905.0783958
780,31738.4937082,0.00346056399667,868,33822.8029422
790,32043.4526323,0.00350247399638,879,34067.6278143
800,32175.3911116,0.0035401069963,890,34216.509019
810,32272.8943306,0.00358885899641,901,34295.7777447
820,32346.0703473,0.00362820399641,912,34345.3002084
830,32361.4081541,0.00368679299663,923,34409.3539409
840,32582.066856,0.00373811199643,934,34497.811545
850,32601.395961,0.00377574499635,945,34578.7785706
860,32705.4074645,0.00382364199595,956,34646.8751036
870,32820.3664033,0.00386897399585,967,34814.2467246
880,33019.9637248,0.00390617999619,978,35001.9071966
890,33095.6281532,0.00394466899616,989,35069.6794543
900,33240.4859244,0.00399299299625,1000,35252.6387309
910,33447.0135092,0.00403490299686,1011,35380.1204518
920,33481.5728934,0.00408451099702,1022,35406.9218982
930,33587.9070377,0.004131124997,1033,35309.7531465
940,33617.5662183,0.00417987799665,1044,35546.1068702
950,33778.4663029,0.00422606499706,1055,35728.6972767
960,33884.103249,0.00427481699717,1066,35858.1303479
970,33941.8354819,0.00432271399768,1077,35917.9921859
980,34020.7076965,0.00437745399813,1088,36128.2207519
990,34038.4771245,0.00442577899776,1099,36246.8828611
1000,34097.2775916,0.00447837999764,1110,36357.8417953
1010,34306.0378864,0.00453098099752,1121,36590.1448552
1020,34378.9430716,0.00456904199746,1132,36701.492707
1030,34591.0042267,0.00460838599793,1143,37058.50977
1040,34827.0490612,0.00464644799831,1154,37214.883876
1050,34888.4910821,0.00469819399859,1165,37304.9989864
1060,34966.8254641,0.00473539999894,1176,37280.0742101
1070,35203.3025635,0.00478671899964,1187,37523.913582
1080,35421.3558977,0.00483589899977,1198,37602.1059968
1090,35580.8109906,0.00488636200043,1209,37821.7945549
1100,35691.0583532,0.00493639700017,1220,37959.3572955
1110,35916.0561165,0.00498215600055,1231,38250.4408636
1120,36082.3229798,0.00502791500094,1242,38268.436852
1130,36137.085504,0.00507624000147,1253,38441.1729623
1140,36187.3214302,0.00512713100215,1264,38349.5437161
1150,36213.8854446,0.00517845000195,1275,38483.55537
1160,36226.9363538,0.00522634700155,1286,38607.4835934
1170,36281.1349186,0.00527766500181,1297,38695.3888118
1180,36361.3335747,0.00532941100209,1308,38790.4399881
1190,36371.3283639,0.00537645200257,1319,38863.2208387
1200,36371.3283639,0.00541494000208,1330,38722.5603406
1210,36371.3283639,0.00546583100277,1341,38863.2208387
1220,36457.4308452,0.00552313600292,1352,38926.5570875
1230,36523.8199713,0.00557274400308,1363,39025.5115939
1240,36711.412416,0.00561935800306,1374,39126.4494512
1250,36745.9092343,0.005657419003,1385,39212.6298257
1260,36837.359816,0.00571002000288,1396,39295.2553891
1270,36994.1177107,0.00575962800303,1407,39473.5211523
1280,37079.1137726,0.00584131000323,1418,39645.8207929
1290,37079.2376357,0.00588963400332,1429,39723.780506
1300,37089.6870158,0.00593838700297,1440,39588.0074013
1310,37225.4123236,0.00599227100338,1451,39947.4039634
1320,37230.8392522,0.00603418100309,1462,39982.4261696
1330,37256.1669183,0.00607138700252,1473,39983.8065335
1340,37256.1669183,0.00610816500284,1484,39884.8177095
1350,37256.1669183,0.00616204900325,1495,39983.9074118
1360,37256.1669183,0.00621593400319,1506,39862.0327896
1370,37265.6506257,0.00627409500339,1517,39990.5199231
1380,37318.1865362,0.00632370200401,1528,39955.4187082
1390,37318.1865362,0.00637715800349,1539,39947.4727505
1400,37330.264738,0.00642975900337,1550,39995.3681735
1410,37330.264738,0.00648150500365,1561,39975.5941563
1420,37330.264738,0.0065319680034,1572,39917.5142405
1430,37330.264738,0.00658029300303,1583,39880.3043104
1440,37330.264738,0.00662348600326,1594,39993.4524246
1450,37330.264738,0.00667865300329,1605,39924.8319041
1460,37330.264738,0.00672270100404,1616,39995.3681735
1470,37330.264738,0.00677230900419,1627,39901.6415194
1480,37330.264738,0.00682491000407,1638,39808.5329379
1490,37330.264738,0.00688563600397,1649,40071.3371769
1500,37330.264738,0.00693267800398,1660,39867.3229269
1510,37330.264738,0.00698100300451,1671,39968.2555261
1520,37330.264738,0.00703317600437,1682,39881.2680099
1530,37330.264738,0.00708278400452,1693,39912.6361433
1540,37330.264738,0.00713410300523,1704,39968.8251486
1550,37330.264738,0.00718756000515,1715,39850.8439517
1560,37330.264738,0.0072380230049,1726,39910.0046758
1570,37330.264738,0.00728720300413,1737,39910.3427039
1580,37330.264738,0.0073457910039,1748,39951.2139076
1590,37330.264738,0.0073881280041,1759,39995.3681735
1600,37330.264738,0.00742618900404,1770,39970.7314489
1610,37330.264738,0.00746425000398,1781,39970.9115318
1620,37330.264738,0.00750017300379,1792,40063.7285886
1630,37330.264738,0.00753737900413,1803,39952.7732187
1640,37330.264738,0.0075758680041,1814,40016.1406139
1650,37330.264738,0.0076169230033,1825,40082.2043353
1660,37330.264738,0.00766439200288,1836,39943.051202
1670,37330.264738,0.00770416400337,1847,39973.0493262
1680,37330.264738,0.00774479100255,1858,39974.4865225
1690,37330.264738,0.007783707003,1869,39957.6682335
1700,37330.264738,0.00783417000275,1880,39995.3681735
1710,37330.264738,0.00787950100312,1891,40033.8076738
1720,37330.264738,0.00792568700308,1902,39921.2342363
1730,37330.264738,0.00797957100349,1913,39927.0217375
1740,37330.264738,0.00802875100362,1924,40029.4440472
1750,37330.264738,0.00807964200339,1935,39969.001143
1760,37330.264738,0.00813138800277,1946,39857.5145202
1770,37330.264738,0.00817671900222,1957,39926.6798001
1780,37330.264738,0.00824899300278,1968,40006.4468406
1790,37330.264738,0.00830202200268,1979,39884.8117056
1800,37330.264738,0.00835034600277,1990,39995.3681735
1810,37330.264738,0.00839824300238,2001,39974.9006295
1820,37330.264738,0.00845127200228,2012,39983.9789602
1830,37330.264738,0.00849916900188,2023,40132.0264543
1840,37330.264738,0.00854877700203,2034,39992.8272678
1850,37330.264738,0.00860052300231,2045,39935.8288641
1860,37330.264738,0.00865013100247,2056,39897.0783916
1870,37330.264738,0.00869118600258,2067,40041.7210211
1880,37404.5904033,0.00873780000256,2078,39999.0682691
1890,37404.5904033,0.00878826300232,2089,39957.7496505
1900,37404.5904033,0.00883316700219,2100,39857.0542524
1910,37404.5904033,0.00888491300157,2111,39999.3028915
1920,37404.5904033,0.0089340930017,2122,39949.4473558
1930,37404.5904033,0.0089819900013,2133,40108.4027948
1940,37404.5904033,0.00902603800205,2144,39999.3028915
1950,37404.5904033,0.00906709200171,2155,40039.2421605
1960,37404.5904033,0.00912097600121,2166,39993.1925925
1970,37404.5904033,0.00916972900086,2177,39941.1641938
1980,37404.5904033,0.00922190300025,2188,39993.6187902
1990,37404.5904033,0.00926979999986,2199,39989.7142223
2000,37404.5904033,0.00932069099963,2210,39962.8676026
2010,37404.5904033,0.00935875199957,2221,40034.5982341
2020,37404.5904033,0.00939980600015,2232,39984.8642368
2030,37404.5904033,0.00944085999981,2243,39819.4942337
2040,37404.5904033,0.00949089499954,2254,39829.6918569
2050,37404.5904033,0.00953152199963,2265,40080.5625242
2060,37404.5904033,0.00957642600042,2276,39926.9845412
2070,37404.5904033,0.00961320399983,2287,39985.0554675
2080,37404.5904033,0.00966323899956,2298,40018.1470418
2090,37404.5904033,0.00970129999951,2309,39892.087447
2100,37404.5904033,0.0097526189993,2320,39901.1333795
2110,37404.5904033,0.00979025200013,2331,39998.220957
2120,37404.5904033,0.00983173399982,2342,39977.9255405
2130,37404.5904033,0.00987620999967,2353,39952.9524824
2140,37404.5904033,0.00992624599985,2364,39999.3028915
2150,37404.5904033,0.00997927499975,2375,39949.0524723
2160,37404.5904033,0.0100216119999,2386,39963.1437163
2170,37404.5904033,0.0100716469997,2397,39999.3028915
2180,37404.5904033,0.0101259589992,2408,39868.1614845
2190,37404.5904033,0.0101730009992,2419,40017.5057582
2200,37404.5904033,0.0102226089984,2430,39999.3028915
2210,37404.5904033,0.0102709339981,2441,39925.585555
2220,37404.5904033,0.0103175489976,2452,39999.3028915
2230,37404.5904033,0.0103581759977,2463,40016.0005633
2240,37404.5904033,0.0103979479982,2474,39857.0542524
2250,37404.5904033,0.0104492659984,2485,39999.3028915
2260,37404.5904033,0.0104868989984,2496,39987.6434058
2270,37404.5904033,0.0105313749982,2507,39999.2301255
2280,37404.5904033,0.0105814099988,2518,39965.9556651
2290,37404.5904033,0.0106241749982,2529,39953.6079735
2300,37404.5904033,0.0106720729982,2540,40020.7236729
2310,37404.5904033,0.010723391998,2551,39904.2227931
2320,37404.5904033,0.010770861998,2562,39999.3028915
2330,37404.5904033,0.0108213249978,2573,39999.3028915
2340,37404.5904033,0.0108653739981,2584,39914.8723042
2350,37404.5904033,0.0109363639976,2595,39945.1347819
2360,37404.5904033,0.0109714309974,2606,39999.3028915
2370,37404.5904033,0.0110231759982,2617,39928.7122061
2380,37404.5904033,0.0110706459982,2628,39998.220957
2390,37404.5904033,0.0111518999984,2639,39856.4241411
2400,37404.5904033,0.0111980859983,2650,39882.521992
2410,37404.5904033,0.0112455559984,2661,40007.3318972
2420,37404.5904033,0.0112947359985,2672,40088.2332889
2430,37404.5904033,0.011342204999,2683,39935.9067187
2440,37404.5904033,0.0114025039984,2694,39999.3028915
2450,37404.5904033,0.0114525399977,2705,40009.5366634
2460,37404.5904033,0.011504713998,2716,39999.3028915
2470,37404.5904033,0.0115573149978,2727,39814.251812
2480,37404.5904033,0.0116086329972,2738,39953.8733879
2490,37404.5904033,0.0116706429972,2749,39880.7473474
2500,37404.5904033,0.0117279489968,2760,39986.1124883
2510,37404.5904033,0.0117677199969,2771,39989.8808163
2520,37404.5904033,0.0118164729965,2782,39989.0691195
2530,37404.5904033,0.0118652249967,2793,39999.3028915
2540,37404.5904033,0.0119152609968,2804,39999.3028915
2550,37404.5904033,0.0119627309969,2815,39999.3028915
2560,37404.5904033,0.0120012199968,2826,39999.3028915
2570,37404.5904033,0.0120512549965,2837,39999.3028915
2580,37404.5904033,0.0121017179963,2848,39925.3178171
2590,37404.5904033,0.0121547469962,2859,39919.7439121
2600,37404.5904033,0.0122069209965,2870,39920.7170185
2610,37404.5904033,0.0122466929961,2881,39983.4738758
2620,37404.5904033,0.0122962999958,2892,39983.5724828
2630,37404.5904033,0.0123497559962,2903,39877.9231944
2640,37404.5904033,0.0123989359963,2914,39992.651276
2650,37404.5904033,0.0124395629964,2925,39981.5881917
2660,37404.5904033,0.0124806179965,2936,39888.7464235
2670,37404.5904033,0.0125297979966,2947,39993.8652837
2680,37404.5904033,0.0125802609964,2958,39979.3313612
2690,37404.5904033,0.0126251639967,2969,39961.3529837
2700,37404.5904033,0.0126747719969,2980,39968.3512857
2710,37404.5904033,0.0127337879976,2991,39940.6298989
2720,37404.5904033,0.0127885279971,3002,39988.264325
2730,37404.5904033,0.012832147997,3013,39999.3028915
2740,37404.5904033,0.0128761959968,3024,39977.0326641
2750,37404.5904033,0.0129236649964,3035,40023.3806827
2760,37404.5904033,0.0129745559962,3046,39999.3028915
2770,37404.5904033,0.0130250199963,3057,39925.9329665
2780,37404.5904033,0.0130759099957,3068,39958.105561
2790,37404.5904033,0.0131238069953,3079,39967.52546
2800,37404.5904033,0.0131776919952,3090,39999.3028915
2810,37404.5904033,0.0132307209951,3101,39999.3028915
2820,37404.5904033,0.0132850329956,3112,39960.9593561
2830,37404.5904033,0.013332501996,3123,40133.4855494
2840,37404.5904033,0.0133863869969,3134,39966.9354608
2850,37404.5904033,0.0134321459964,3145,39964.3141562
2860,37404.5904033,0.0134826089961,3156,40000.7841336
2870,37404.5904033,0.0135463289962,3167,39939.3883008
2880,37404.5904033,0.0135946539958,3178,39999.3028915
2890,37404.5904033,0.0136459729956,3189,39967.6520862
2900,37404.5904033,0.0137037059958,3200,40032.0402653
2910,37404.5904033,0.0137567349957,3211,39995.2001709
2920,37404.5904033,0.0137943679965,3222,39920.4851673
2930,37404.5904033,0.0138482519969,3233,39950.8121862
2940,37404.5904033,0.0138974319971,3244,39952.43028
2950,37404.5904033,0.0139457569967,3255,39954.0733808
2960,37404.5904033,0.0139868119968,3266,39981.3074128
2970,37404.5904033,0.0140381299971,3277,40064.4010354
2980,37404.5904033,0.0140907309969,3288,39947.1937403
2990,37404.5904033,0.0141484639971,3299,39911.9059153
3000,37404.5904033,0.0141972169977,3310,39982.9519062
3010,37404.5904033,0.0142395549983,3321,39999.3028915
3020,37404.5904033,0.0142930119982,3332,39956.378803
3030,37404.5904033,0.0143344939979,3343,39950.1580005
3040,37404.5904033,0.0143858119982,3354,40050.5230903
3050,37404.5904033,0.0144367029989,3365,39992.325511
3060,37404.5904033,0.0144828899993,3376,40002.6753143
3070,37404.5904033,0.0145470379994,3387,39999.3028915
3080,37404.5904033,0.0146099029989,3398,39968.2130462
3090,37404.5904033,0.0146637869984,3409,39884.6885597
3100,37404.5904033,0.0147159609978,3420,39943.3023954
3110,37404.5904033,0.0147668519976,3431,40044.0140053
3120,37404.5904033,0.0148198809975,3442,39827.6342204
3130,37404.5904033,0.014875048998,3453,39974.3320469
3140,37404.5904033,0.0149242289981,3464,39994.017375
3150,37404.5904033,0.0149640009986,3475,39911.9899753
3160,37404.5904033,0.0150131809987,3486,39975.4371458
3170,37404.5904033,0.0150640719985,3497,39905.2545323
3180,37404.5904033,0.0151123969981,3508,39940.741599
3190,37404.5904033,0.0151611489982,3519,39999.3028915
3200,37404.5904033,0.0152124669976,3530,40137.2025813
3210,37404.5904033,0.0152646399974,3541,39986.2756037
3220,37404.5904033,0.0153138199976,3552,40009.8472329
3230,37404.5904033,0.0153642829973,3563,39984.8642368
3240,37404.5904033,0.0154134629965,3574,39867.4918734
3250,37404.5904033,0.0154605049966,3585,39999.3028915
3260,37404.5904033,0.0155160999957,3596,39999.3028915
3270,37404.5904033,0.0155614309951,3607,39999.3028915
3280,37404.5904033,0.0156033409949,3618,39952.2878542
3290,37404.5904033,0.0156563699948,3629,39971.4742111
3300,37404.5904033,0.0157085429946,3640,39999.3028915
3310,37404.5904033,0.0157585789948,3651,39950.2499357
3320,37404.5904033,0.0158141739948,3662,39999.3028915
3330,37404.5904033,0.0158663479942,3673,40021.822263
3340,37404.5904033,0.0159065479938,3684,39999.3028915
3350,37404.5904033,0.0159565829945,3695,40034.4016079
3360,37404.5904033,0.0160113219945,3706,39977.9964224
3370,37404.5904033,0.0160630679948,3717,39944.504795
3380,37404.5904033,0.0161263599948,3728,39999.3028915
3390,37404.5904033,0.0161759669945,3739,40137.2025813
3400,37404.5904033,0.0162268569948,3750,40026.4768495
3410,37404.5904033,0.0162944259946,3761,39999.3028915
3420,37404.5904033,0.0163534419944,3772,39973.497951
3430,37404.5904033,0.016400910994,3783,39988.8188369
3440,37404.5904033,0.0164483799945,3794,39984.9198877
3450,37404.5904033,0.0164949939945,3805,39999.3028915
3460,37404.5904033,0.0165522999941,3816,39999.3028915
3470,37404.5904033,0.0166040459944,3827,39982.1269337
3480,37404.5904033,0.016661351995,3838,39870.5513882
3490,37404.5904033,0.0167139529949,3849,39968.2130462
3500,37415.559854,0.0167644159947,3860,39952.5745278
3510,37415.559854,0.0168182999942,3871,39975.602952
3520,37415.559854,0.016870900994,3882,39824.7434982
3530,37415.559854,0.0169196529941,3893,39999.5987074
3540,37415.559854,0.0169671229942,3904,39999.5987074
3550,37415.559854,0.0170073229938,3915,39945.4897504
3560,37415.559854,0.0170488049935,3926,39946.1628781
3570,37415.559854,0.0171056829931,3937,39999.5987074
3580,37415.559854,0.0171570019929,3948,40001.2501132
3590,37415.559854,0.0172057539921,3959,39999.5987074
3600,37415.559854,0.0172604939926,3970,39912.2534263
3610,37415.559854,0.0173109569923,3981,39999.5987074
3620,37415.559854,0.0173605649925,3992,39958.2055579
3630,37415.559854,0.0174144499924,4003,39999.5987074
3640,37415.559854,0.0174614919924,4014,39849.8877912
3650,37415.559854,0.0175145209923,4025,39942.7869376
3660,37415.559854,0.0175641289925,4036,39917.9122054
3670,37415.559854,0.0176163029928,4047,39923.5319317
3680,37415.559854,0.0176706149923,4058,40038.2470621
3690,37415.559854,0.017720649993,4069,40012.4814923
3700,37415.559854,0.0177681189925,4080,39910.6683099
3710,37415.559854,0.0178151609925,4091,39941.3045378
3720,37415.559854,0.017869900993,4102,39999.5987074
3730,37415.559854,0.0179182259935,4113,39942.0688039
3740,37415.559854,0.017957997994,4124,39916.8124084
3750,37415.559854,0.0179986249941,4135,39999.5987074
3760,37415.559854,0.0180469499946,4146,39999.5987074
3770,37415.559854,0.0180974129944,4157,39924.2322644
3780,37415.559854,0.0181444549944,4168,40026.7726655
3790,37415.559854,0.0181893589943,4179,39973.9883111
3800,37415.559854,0.0182381119939,4190,39885.4985439
3810,37415.559854,0.0182881469937,4201,40026.4313251
3820,37415.559854,0.0183283459937,4212,39995.6345701
3830,37415.559854,0.0183813749936,4223,39959.6556469
3840,37415.559854,0.0184322659934,4234,39998.1174653
3850,37415.559854,0.018481018994,4245,39999.5987074
3860,37415.559854,0.0185301989932,4256,40016.6041159
3870,37415.559854,0.0185751019935,4267,39949.1339247
3880,37415.559854,0.0186225719935,4278,39878.7929028
3890,37415.559854,0.0186708969932,4289,40144.5193288
3900,37415.559854,0.0187076749926,4300,39950.9077831
3910,37415.559854,0.0187577099932,4311,39942.1797278
3920,37415.559854,0.0188167259939,4322,39963.8602259
3930,37415.559854,0.0188637679939,4333,39841.1109157
3940,37415.559854,0.0189120929945,4344,40108.8729966
3950,37415.559854,0.0189638389948,4355,39963.5723978
3960,37415.559854,0.0190143019945,4366,39940.372898
3970,37415.559854,0.019062626995,4377,39950.5848378
3980,37415.559854,0.0191113789951,4388,39995.2019063
3990,37415.559854,0.0191614139949,4399,40043.7641735
4000,37415.559854,0.0192208569952,4410,39977.633272
4010,37415.559854,0.0192794459954,4421,39999.5987074
4020,37415.559854,0.0193277699955,4432,39959.1088534
4030,37415.559854,0.0193756679955,4443,39999.5987074
4040,37415.559854,0.0194231369951,4454,40067.4272352
4050,37415.559854,0.0194748829954,4465,39999.5987074
4060,37415.559854,0.0195244909946,4476,40008.0452789
4070,37415.559854,0.0195826519948,4487,39996.2262846
4080,37415.559854,0.0196335419951,4498,39977.2798601
4090,37415.559854,0.0196835769948,4509,39847.7990763
4100,37415.559854,0.0197361779947,4520,39986.807783
4110,37415.559854,0.0197845029952,4531,40091.531834
4120,37415.559854,0.019835393995,4542,40004.8856872
4130,37415.559854,0.0198884229949,4553,40059.0644787
4140,37415.559854,0.019929477995,4564,39999.5987074
4150,37415.559854,0.0199735269953,4575,40025.9657379
4160,37415.559854,0.0200629059946,4586,40044.0639061
4170,37415.559854,0.0201167909945,4597,39902.8095088
4180,37415.559854,0.0201587009942,4608,39991.3932663
4190,37415.559854,0.0201997549939,4619,39926.807995
4200,37415.559854,0.0202463689939,4630,39974.8684612
4210,37415.559854,0.0202865689944,4641,39999.5987074
4220,37415.559854,0.0203391699952,4652,39986.3736847
4230,37415.559854,0.0203742369958,4663,39964.9171755
4240,37415.559854,0.0204217059954,4674,39999.5987074
4250,37415.559854,0.0204678919963,4685,39999.5987074
4260,37415.559854,0.0205050979957,4696,39999.5987074
4270,37415.559854,0.0205525669953,4707,39934.269969
4280,37415.559854,0.0205863509955,4718,39971.1038595
4290,37415.559854,0.0206359589956,4729,40018.1801766
4300,37415.559854,0.0206842839962,4740,40000.5211057
4310,37415.559854,0.0207206339956,4751,39891.5660032
4320,37415.559854,0.0207599789956,4762,39877.3258595
4330,37415.559854,0.020805737995,4773,39999.5987074
4340,37415.559854,0.0208579119953,4784,39938.64701
4350,37415.559854,0.0209105139957,4795,39999.5987074
4360,37415.559854,0.0209485749956,4806,40026.1417322
4370,37415.559854,0.0209857809959,4817,39977.9407254
4380,37415.559854,0.0210152889958,4828,39998.2290646
4390,37415.559854,0.021049500996,4839,39999.5987074
4400,37415.559854,0.0210896999961,4850,39999.2284542
4410,37415.559854,0.0211239119963,4861,39850.964154
4420,37415.559854,0.021166677996,4872,39999.5805159
4430,37415.559854,0.0212150029956,4883,39999.5987074
4440,37415.559854,0.0212577689954,4894,39999.5987074
4450,37415.559854,0.0212949749957,4905,39959.6594383
4460,37415.559854,0.021331752996,4916,39999.5987074
4470,37415.559854,0.021369813996,4927,39916.8124084
4480,37415.559854,0.021424552996,4938,39903.2491191
4490,37415.559854,0.0214720219956,4949,39872.6918599
4500,37415.559854,0.0215173539955,4960,39882.8178079
4510,37415.559854,0.0215622569949,4971,39872.4022549
4520,37415.559854,0.0215998909953,4982,39859.823254
4530,37415.559854,0.0216370969956,4993,39999.3210175
4540,37415.559854,0.0216790069962,5004,39853.5981575
4550,37415.559854,0.0217273309963,5015,39995.4183235
4560,37415.559854,0.0217765119969,5026,40011.3007153
4570,37415.559854,0.0218209879968,5037,39999.5987074
4580,37415.559854,0.0218714509974,5048,39929.1504743
4590,37415.559854,0.0219180649974,5059,40015.8290155
4600,37415.559854,0.0219702379973,5070,39999.5987074
4610,37415.559854,0.0220104369973,5081,40019.4225092
4620,37415.559854,0.0220656039974,5092,40088.6828456
4630,37415.559854,0.0221156399966,5103,39989.1146528
4640,37415.559854,0.0221656749964,5114,39899.9031161
4650,37415.559854,0.0222084399966,5125,39992.9150236
4660,37415.559854,0.0222563369971,5136,40059.0644787
4670,37415.559854,0.0223140699973,5147,40017.4473776
4680,37415.559854,0.0223658159975,5158,39989.4723323
4690,37415.559854,0.0224479249982,5169,39819.7900497
4700,37415.559854,0.0224966769983,5180,39991.729474
4710,37415.559854,0.0225437189983,5191,39927.0161546
4720,37415.559854,0.0225950369977,5202,39967.6646878
4730,37415.559854,0.0226348089973,5213,39957.4676358
4740,37415.559854,0.0226771459975,5224,39929.7109807
4750,37415.559854,0.0227306029974,5235,39927.2824511
4760,37415.559854,0.0227810659981,5246,39994.8043728
4770,37415.559854,0.0228332399984,5257,39843.3775631
4780,37415.559854,0.0228819919985,5268,39999.5987074
4790,37415.559854,0.0229315999986,5279,40002.9711302
4800,37415.559854,0.0229816349993,5290,39964.8007914
4810,37415.559854,0.0230312429985,5301,40070.0503062
4820,37415.559854,0.0230808509987,5312,39935.8348084
4830,37415.559854,0.0231300309979,5323,39992.3793801
4840,37415.559854,0.0231757899983,5334,39999.5987074
4850,37415.559854,0.0232279639986,5345,40030.9534195
4860,37415.559854,0.0232835589986,5356,39968.3524235
4870,37415.559854,0.0233340219993,5367,39930.8976115
4880,37415.559854,0.0233746489994,5378,39999.5987074
4890,37415.559854,0.0234289609998,5389,39937.6954959
4900,37415.559854,0.0234858389995,5400,39994.9177954
4910,37415.559854,0.0235354459992,5411,40007.7736336
4920,37415.559854,0.0235863369999,5422,39816.4503056
4930,37415.559854,0.0236376559997,5433,40002.3262488
4940,37415.559854,0.0236876919989,5444,39925.4984675
4950,37415.559854,0.023736443999,5455,39988.7234919
4960,37415.559854,0.0237766439986,5466,39860.4227678
4970,37415.559854,0.023828389998,5477,40012.9019383
4980,37415.559854,0.0238779969986,5488,39991.6001223
4990,37415.559854,0.0239241829986,5499,39878.3007174
