it,funval,time,funcount,weight
0,11211.5086536,1.62500000442e-05,10,10673.2850203
10,11283.2229215,3.29290000991e-05,21,10790.627967
20,11612.0810032,4.87520001116e-05,32,10909.2812891
30,11927.3791591,6.84240001192e-05,43,11105.1112737
40,12131.0344533,8.55300002058e-05,54,11263.194481
50,12352.0072618,0.000103919000367,65,11461.5485696
60,12523.6282063,0.0001201700004,76,11563.3916901
70,12687.2831903,0.000138131000313,87,11673.3138833
80,12799.2536279,0.000159941000447,98,11842.4155409
90,13008.68112,0.000179186000423,109,12028.1453652
100,13219.6004588,0.000198858000431,120,12143.9006399
110,13427.3554169,0.000217247000364,131,12319.7004402
120,13640.5781667,0.000234781000472,142,12544.5249691
130,13900.8261947,0.000251887000559,153,12761.8350001
140,14023.3064124,0.000269848000698,164,12867.7247375
150,14215.1995462,0.0002878100006,175,13301.1572796
160,14388.5679433,0.000304488000666,186,13427.0197393
170,14441.8258552,0.000322877000599,197,13537.4978738
180,14704.063225,0.000342122000575,208,13720.3408379
190,14852.9899514,0.000360939000757,219,13937.4902786
200,15103.4951201,0.000378901000659,230,13978.4947055
210,15154.6701599,0.00039985600074,241,14111.9999224
220,15381.5098791,0.000418673000695,252,14239.210673
230,15550.41854,0.000436634000607,263,14483.9196149
240,15618.7716491,0.000460583000631,274,14713.4783931
250,15711.5614052,0.000481110000692,285,14755.9288845
260,15890.2765264,0.000500782000699,296,15001.0359908
270,15928.8512234,0.000522165000802,307,15000.6996829
280,15962.6716544,0.000542692000863,318,15102.4923208
290,16079.8664905,0.000562364000871,329,15073.6697928
300,16273.2955883,0.000583747000974,340,15316.3898241
310,16329.9584541,0.00060598500113,351,15414.5459219
320,16472.4157417,0.000627368001005,362,15533.3703756
330,16536.8591605,0.000647468001034,373,15554.3748287
340,16610.3689905,0.000667140001042,384,15639.6770121
350,16717.1076392,0.000688523001145,395,15687.8226414
360,16809.8654447,0.000710760001084,406,15795.3141955
370,16844.6102023,0.000730432001092,417,15735.8564813
380,16899.2423035,0.000748393001004,428,15945.5591486
390,16899.2423035,0.000767210000959,439,15942.8457194
400,16899.2423035,0.000786882000966,450,15960.4922821
410,16899.2423035,0.000809548000916,461,15834.4969008
420,16928.5130372,0.000833924000744,472,16018.1069473
430,16928.5130372,0.0008583000008,483,15937.3026022
440,16992.7013186,0.000880110000935,494,15978.4511375
450,16992.7013186,0.000899782000943,505,16045.8850567
460,17024.15082,0.00092159200085,516,16018.5885502
470,17024.15082,0.000942975000953,527,15956.5264597
480,17024.15082,0.000963930001035,538,15986.7661157
490,17065.2458895,0.000984029001074,549,15958.2491553
500,17065.2458895,0.001010116001,560,15999.413211
510,17065.2458895,0.00103192600091,571,15999.413211
520,17065.2458895,0.00105416400083,582,16021.0831848
530,17065.2458895,0.00107426300087,593,15922.0060018
540,17065.2458895,0.0010943630009,604,16024.5005426
550,17065.2458895,0.0011144630007,615,15999.413211
560,17065.2458895,0.00113670100063,626,16042.931389
570,17065.2458895,0.00115637300064,637,15957.3217605
580,17065.2458895,0.00117818300055,648,15999.413211
590,17065.2458895,0.00120170400055,659,15967.5907764
600,17065.2458895,0.00122608000061,670,15929.3370276
610,17065.2458895,0.00125174000073,681,15922.0060018
620,17065.2458895,0.00127397800065,692,15999.413211
630,17065.2458895,0.00129407800068,703,15852.0119022
640,17065.2458895,0.00131674400063,714,15976.4224443
650,17065.2458895,0.00133812700074,725,15980.2310263
660,17065.2458895,0.00136378700063,736,15999.413211
670,17065.2458895,0.00138345900064,747,15870.668119
680,17065.2458895,0.00140527000053,758,15800.9186538
690,17065.2458895,0.00143264000053,769,15854.5650276
700,17065.2458895,0.00146300300048,780,15928.0942007
710,17065.2458895,0.00149293900063,791,15951.0158314
720,17065.2458895,0.00152030900063,802,15809.7834479
730,17065.2458895,0.00154810600066,813,15999.413211
740,17065.2458895,0.00157932500065,824,15969.7332784
750,17065.2458895,0.00160626700085,835,15999.413211
760,17065.2458895,0.00163620300077,846,16084.0471608
770,17065.2458895,0.00166271700073,857,15907.2985456
780,17065.2458895,0.00169650200064,868,15914.7792612
790,17065.2458895,0.00173114200061,879,15979.208457
800,17065.2458895,0.00175680100074,890,15999.413211
810,17065.2458895,0.00178973000061,901,15945.7730054
820,17065.2458895,0.00181624500055,912,15984.2210065
830,17065.2458895,0.00184404300057,923,15999.413211
840,17065.2458895,0.00187483400055,934,15984.4800776
850,17065.2458895,0.00190819100067,945,15800.9186538
860,17065.2458895,0.00193641600072,956,15864.1694652
870,17065.2458895,0.00196592500083,967,15999.413211
880,17065.2458895,0.00199586100075,978,15861.241213
890,17065.2458895,0.00202280300073,989,15854.1949633
900,17065.2458895,0.0020535940007,1000,15875.921044
910,17065.2458895,0.00208438500067,1011,15958.1293087
920,17065.2458895,0.00211303800074,1022,15967.883071
930,17065.2458895,0.00214297400066,1033,15999.413211
940,17065.2458895,0.00217205500053,1044,15994.849143
950,17065.2458895,0.0022007080006,1055,16047.8105906
960,17065.2458895,0.0022302160005,1066,15957.641616
970,17065.2458895,0.00225886900057,1077,15913.2904936
980,17065.2458895,0.00229094300062,1088,15980.3010981
990,17065.2458895,0.00232002300049,1099,15919.1459635
1000,17065.2458895,0.0023456820004,1110,15999.413211
1010,17065.2458895,0.00237262400037,1121,15975.6471015
1020,17065.2458895,0.00240127700044,1132,15996.4109605
1030,17065.2458895,0.00242822000041,1143,15999.413211
1040,17065.2458895,0.00245516200039,1154,16042.8971363
1050,17065.2458895,0.00248338700044,1165,15856.388791
1060,17065.2458895,0.00251032900042,1176,15952.6056004
1070,17065.2458895,0.00253940900029,1187,15968.8571229
1080,17065.2458895,0.00257533200033,1198,16095.0426006
1090,17065.2458895,0.00261767000029,1209,16002.9376279
1100,17065.2458895,0.0026514550002,1220,15999.413211
1110,17065.2458895,0.00268053500031,1231,15926.9891193
1120,17065.2458895,0.00271260900035,1242,16019.6000039
1130,17065.2458895,0.00274425600014,1253,15965.5321282
1140,17065.2458895,0.00277504700034,1264,16041.79302
1150,17065.2458895,0.00280669400036,1275,15916.2123632
1160,17065.2458895,0.00283748500033,1286,15956.9021204
1170,17065.2458895,0.00287298000035,1297,15918.7952995
1180,17065.2458895,0.00290334400029,1308,15989.5835002
1190,17065.2458895,0.00293114200031,1319,16009.5066074
1200,17065.2458895,0.00296022200018,1330,15994.4983556
1210,17065.2458895,0.00298844700023,1341,15993.0191494
1220,17065.2458895,0.00301581600024,1352,15955.0462292
1230,17065.2458895,0.00304446900032,1363,15964.9878717
1240,17065.2458895,0.00307397700044,1374,15980.8075762
1250,17065.2458895,0.00310220200049,1385,15881.6718157
1260,17065.2458895,0.00313042700054,1396,15918.3083379
1270,17065.2458895,0.00315908000061,1407,16002.4154615
1280,17065.2458895,0.00318730500067,1418,16033.2942938
1290,17065.2458895,0.00321724100058,1429,15957.0962361
1300,17065.2458895,0.00324931500063,1440,15999.413211
1310,17065.2458895,0.00327711300065,1451,15988.7828127
1320,17065.2458895,0.00330405500063,1462,15999.413211
1330,17065.2458895,0.00333056900058,1473,15999.413211
1340,17065.2458895,0.0033605050005,1484,15977.2524413
1350,17065.2458895,0.0033878750005,1495,15999.413211
1360,17065.2458895,0.00341481700048,1506,15891.2733801
1370,17065.2458895,0.00344432500037,1517,15968.8571229
1380,17065.2458895,0.00347255000042,1528,15999.413211
1390,17065.2458895,0.00350462400047,1539,15989.6886677
1400,17065.2458895,0.00353712500032,1550,15860.0876883
1410,17065.2458895,0.00358245600023,1561,16009.2641436
1420,17065.2458895,0.0036166680004,1572,15999.413211
1430,17065.2458895,0.00364745900038,1583,16012.5565622
1440,17065.2458895,0.00367910600039,1594,15960.4539816
1450,17065.2458895,0.00370818700026,1605,16019.6000039
1460,17065.2458895,0.0037368400001,1616,15999.413211
1470,17065.2458895,0.00377276300014,1627,15993.429261
1480,17065.2458895,0.00380996900003,1638,16011.3137333
1490,17065.2458895,0.00384375299996,1649,15948.6275918
1500,17065.2458895,0.00387454399993,1660,15999.413211
1510,17065.2458895,0.00390405200005,1671,15999.413211
1520,17065.2458895,0.00393569800008,1682,15999.413211
1530,17065.2458895,0.003969482,1693,15999.413211
1540,17065.2458895,0.00400070000001,1704,15999.413211
1550,17065.2458895,0.00403106300018,1715,15878.4545872
1560,17065.2458895,0.00405971600026,1726,15999.413211
1570,17065.2458895,0.00409093500025,1737,15999.413211
1580,17065.2458895,0.0041212980002,1748,16095.0426006
1590,17065.2458895,0.00415337200025,1759,15999.413211
1600,17065.2458895,0.00418459100024,1770,15927.6691108
1610,17065.2458895,0.00421495400019,1781,15920.4141195
1620,17065.2458895,0.00424574500016,1792,15986.6921266
1630,17065.2458895,0.00427568100031,1803,15917.0850997
1640,17065.2458895,0.00430518900021,1814,15957.3930629
1650,17065.2458895,0.00433384200005,1825,15958.2491553
1660,17065.2458895,0.0043620670001,1836,15925.9093342
1670,17065.2458895,0.00438986500012,1847,15948.6275918
1680,17065.2458895,0.00442322200001,1858,16069.0610492
1690,17065.2458895,0.00445230199989,1869,15981.6555851
1700,17065.2458895,0.00448095399997,1880,15999.413211
1710,17065.2458895,0.004508751,1891,15999.413211
1720,17065.2458895,0.0045378320001,1902,15999.413211
1730,17065.2458895,0.00456862300007,1913,15999.413211
1740,17065.2458895,0.00459770300017,1924,16019.6000039
1750,17065.2458895,0.00462721200006,1935,15866.0481718
1760,17065.2458895,0.00465586400014,1946,15999.413211
1770,17065.2458895,0.00468708300014,1957,15964.9481023
1780,17065.2458895,0.00471787400033,1968,15957.3930629
1790,17065.2458895,0.00474652700041,1979,16046.1913245
1800,17065.2458895,0.0047760350003,1990,16116.2908993
1810,17065.2458895,0.00481238500038,2001,15999.413211
1820,17065.2458895,0.00484317600058,2012,15863.213808
1830,17065.2458895,0.00487439500057,2023,15999.413211
1840,17065.2458895,0.00490433100049,2034,15963.8070706
1850,17065.2458895,0.00493597700051,2045,15834.2103186
1860,17065.2458895,0.00496591300043,2056,15947.456656
1870,17065.2458895,0.00499371100045,2067,15959.0323054
1880,17065.2458895,0.00502279200055,2078,15999.413211
1890,17065.2458895,0.00505230000067,2089,15931.3512133
1900,17065.2458895,0.00508095300052,2100,15999.413211
1910,17065.2458895,0.00511046100064,2111,15965.9127607
1920,17065.2458895,0.00513954100052,2122,15994.4983556
1930,17065.2458895,0.00516947700044,2133,16022.4751686
1940,17065.2458895,0.00519855800053,2144,15852.0119022
1950,17065.2458895,0.00522592800053,2155,15960.7096064
1960,17065.2458895,0.00525714600053,2166,15983.3105567
1970,17065.2458895,0.00528579800039,2177,15926.0796326
1980,17065.2458895,0.00531359600041,2188,15999.413211
1990,17065.2458895,0.0053431040003,2199,15891.2733801
2000,17065.2458895,0.00537175700038,2210,16059.2643077
2010,17065.2458895,0.00540040900046,2221,16054.8892093
2020,17065.2458895,0.00543077200064,2232,15955.4999097
2030,17065.2458895,0.00546028000053,2243,15990.285075
2040,17065.2458895,0.00549192600033,2254,15868.0558827
2050,17065.2458895,0.00552571000026,2265,16071.5290015
2060,17065.2458895,0.00556035000022,2276,15957.4147506
2070,17065.2458895,0.00559242400027,2287,15950.1467504
2080,17065.2458895,0.00562492600011,2298,15868.961435
2090,17065.2458895,0.00565614400011,2309,15949.2293402
2100,17065.2458895,0.00568779100013,2320,15999.413211
2110,17065.2458895,0.00571516100013,2331,15999.413211
2120,17065.2458895,0.00574338600018,2342,16021.7057907
2130,17065.2458895,0.00577075600017,2353,16015.2610353
2140,17065.2458895,0.0058024020002,2364,15979.2309986
2150,17065.2458895,0.00583233800035,2375,15968.0326715
2160,17065.2458895,0.0058605630004,2386,15999.413211
2170,17065.2458895,0.00588878800022,2397,16071.5290015
2180,17065.2458895,0.00591786800032,2408,16082.3806936
2190,17065.2458895,0.00594694900042,2419,16019.6000039
2200,17065.2458895,0.00597517400024,2430,15990.0532404
2210,17065.2458895,0.00600339900029,2441,15926.0796326
2220,17065.2458895,0.00603162400034,2452,15973.5978534
2230,17065.2458895,0.00605899400034,2463,16046.1913245
2240,17065.2458895,0.00608636400034,2474,15883.0219115
2250,17065.2458895,0.00611758300033,2485,15999.413211
2260,17065.2458895,0.00615094000023,2496,15955.6274349
2270,17065.2458895,0.00618044800012,2507,15915.6795259
2280,17065.2458895,0.00620824600014,2518,16003.921416
2290,17065.2458895,0.00623647100019,2529,15971.5441759
2300,17065.2458895,0.00626640700011,2540,16135.5035532
2310,17065.2458895,0.00629505900019,2551,15949.2385479
2320,17065.2458895,0.00632499500034,2562,15999.413211
2330,17065.2458895,0.00635450300024,2573,16013.5966259
2340,17065.2458895,0.0063835840001,2584,15955.9219622
2350,17065.2458895,0.006413092,2595,15892.5947897
2360,17065.2458895,0.0064421730001,2606,15999.413211
2370,17065.2458895,0.00647039800015,2617,15952.6056004
2380,17065.2458895,0.00649734000035,2628,16077.3316699
2390,17065.2458895,0.00652428200033,2639,16006.9316526
2400,17065.2458895,0.00655079700027,2650,15999.413211
2410,17065.2458895,0.00657944900013,2661,15953.1196543
2420,17065.2458895,0.00660681900013,2672,15950.9592443
2430,17065.2458895,0.00663418800013,2683,16120.5559277
2440,17065.2458895,0.00666198500016,2694,16015.3376034
2450,17065.2458895,0.00668892700014,2705,15969.8604133
2460,17065.2458895,0.00671586900012,2716,15995.4928106
2470,17065.2458895,0.00675136400014,2727,15999.413211
2480,17065.2458895,0.00678001699998,2738,15999.413211
2490,17065.2458895,0.00680867000005,2749,15963.8979592
2500,17065.2458895,0.00683817800018,2760,15936.8862149
2510,17065.2458895,0.00686768600008,2771,15999.413211
2520,17065.2458895,0.00689676699994,2782,15863.213808
2530,17065.2458895,0.00692370999991,2793,16054.8892093
2540,17065.2458895,0.00695107999991,2804,15990.1073063
2550,17065.2458895,0.00697844899992,2815,16120.5559277
2560,17065.2458895,0.00700496299987,2826,15999.413211
2570,17065.2458895,0.00703404299998,2837,15964.7497132
2580,17065.2458895,0.00706269600005,2848,15999.413211
2590,17065.2458895,0.00709904700011,2859,16020.8998608
2600,17065.2458895,0.00712941000006,2870,15969.1876123
2610,17065.2458895,0.00715849099993,2881,15981.156939
2620,17065.2458895,0.00718928200013,2892,15999.413211
2630,17065.2458895,0.00721836300022,2903,15830.8608059
2640,17065.2458895,0.00724616100024,2914,15965.9127607
2650,17065.2458895,0.00727652400019,2925,15840.9064882
2660,17065.2458895,0.00730432100022,2936,15981.0047843
2670,17065.2458895,0.00733981600024,2947,15978.5369738
2680,17065.2458895,0.00737146200026,2958,15991.4911745
2690,17065.2458895,0.00740225300024,2969,15959.7865303
2700,17065.2458895,0.00743261600019,2980,15913.2904936
2710,17065.2458895,0.00746212400031,2991,15999.413211
2720,17065.2458895,0.00749120400019,3002,15999.413211
2730,17065.2458895,0.00751900200021,3013,15999.413211
2740,17065.2458895,0.00754722700026,3024,15979.7537893
2750,17065.2458895,0.00757588000033,3035,15988.8903484
2760,17065.2458895,0.00761992900038,3046,15966.4864616
2770,17065.2458895,0.00766868200049,3057,15906.4677481
2780,17065.2458895,0.00769733500056,3068,15900.6329628
2790,17065.2458895,0.00772898100058,3079,16125.7813335
2800,17065.2458895,0.0077584900007,3090,15868.0558827
2810,17065.2458895,0.00780125500069,3101,15944.9749274
2820,17065.2458895,0.00784017200067,3112,15940.0533458
2830,17065.2458895,0.00787566700069,3123,15974.0204014
2840,17065.2458895,0.00791629400078,3134,16029.3387593
2850,17065.2458895,0.00795349900068,3145,15936.3529311
2860,17065.2458895,0.00799027700054,3156,15999.413211
2870,17065.2458895,0.00802235100036,3167,15985.6773254
2880,17065.2458895,0.00805528000046,3178,16023.4342502
2890,17065.2458895,0.00810061100037,3189,15857.1908887
2900,17065.2458895,0.00813354100046,3200,15999.413211
2910,17065.2458895,0.00816304900059,3211,15945.3432956
2920,17065.2458895,0.00819084600062,3222,15999.413211
2930,17065.2458895,0.00822591300062,3233,15920.4141195
2940,17065.2458895,0.00825456600069,3244,15999.413211
2950,17065.2458895,0.00828108000087,3255,15933.543259
2960,17065.2458895,0.00830930500092,3266,15983.4452845
2970,17065.2458895,0.00833881300082,3277,15949.7895717
2980,17065.2458895,0.00837302500076,3288,15976.4224443
2990,17065.2458895,0.00840723700094,3299,15949.2385479
3000,17065.2458895,0.00843717300086,3310,15910.3734132
3010,17065.2458895,0.00847095700078,3321,15999.413211
3020,17065.2458895,0.00853082800063,3332,15969.028802
3030,17065.2458895,0.00856675000045,3343,15947.715548
3040,17065.2458895,0.00859925200052,3354,15926.0796326
3050,17065.2458895,0.00862961600046,3365,15856.3833325
3060,17065.2458895,0.00865955200061,3376,15953.9913389
3070,17065.2458895,0.00868820500068,3387,15999.1166055
3080,17065.2458895,0.00871557500068,3398,15814.852664
3090,17065.2458895,0.00874593800063,3409,15999.413211
3100,17065.2458895,0.00877416300045,3420,15916.8117648
3110,17065.2458895,0.00880281600053,3431,15868.961435
3120,17065.2458895,0.00883018500053,3442,16031.2356456
3130,17065.2458895,0.00885712700051,3453,15918.5941952
3140,17065.2458895,0.0088849250003,3464,15999.413211
3150,17065.2458895,0.00891272300032,3475,16180.8670005
3160,17065.2458895,0.0089396650003,3486,15965.5321282
3170,17065.2458895,0.00896831800014,3497,15978.7712599
3180,17065.2458895,0.00899568800014,3508,15999.413211
3190,17065.2458895,0.00902305800014,3519,15959.1042552
3200,17065.2458895,0.00905427600014,3530,16048.8289216
3210,17065.2458895,0.00908121900011,3541,15973.5978534
3220,17065.2458895,0.00910987200018,3552,15958.1293087
3230,17065.2458895,0.00913809700023,3563,15943.9372127
3240,17065.2458895,0.00916503900021,3574,15927.2974205
3250,17065.2458895,0.00919369200028,3585,15999.413211
3260,17065.2458895,0.00922191700033,3596,15902.6010458
3270,17065.2458895,0.00924971400036,3607,15914.7792612
3280,17065.2458895,0.00927836600022,3618,15999.413211
3290,17065.2458895,0.00930573600021,3629,15950.9592443
3300,17065.2458895,0.00933182200015,3640,16020.7969348
3310,17065.2458895,0.00935961900018,3651,15999.3143425
3320,17065.2458895,0.0093912650002,3662,15953.5790789
3330,17065.2458895,0.0094241940003,3673,15945.7730054
3340,17065.2458895,0.00945498500027,3684,15955.6274349
3350,17065.2458895,0.0094844930004,3695,16003.5912604
3360,17065.2458895,0.00951442900032,3706,15999.413211
3370,17065.2458895,0.0095435090002,3717,15939.5621143
3380,17065.2458895,0.00957729400011,3728,15999.413211
3390,17065.2458895,0.0096085130001,3739,15911.8416588
3400,17065.2458895,0.00963759300021,3750,16042.931389
3410,17065.2458895,0.00967009400028,3761,15831.3326186
3420,17065.2458895,0.00970003000043,3772,15989.6886677
3430,17065.2458895,0.00972739900044,3783,16017.0597737
3440,17065.2458895,0.00975690700034,3794,15933.0349671
3450,17065.2458895,0.00978427700034,3805,16021.7057907
3460,17065.2458895,0.00981121900031,3816,15999.413211
3470,17065.2458895,0.00983901700033,3827,15963.7116442
3480,17065.2458895,0.00986638700033,3838,15999.413211
3490,17065.2458895,0.00989290200027,3849,15852.0119022
3500,17065.2458895,0.00991984400025,3860,16082.3806936
3510,17065.2458895,0.00994678600023,3871,15858.9903791
3520,17065.2458895,0.00997287200039,3882,15948.5288733
3530,17065.2458895,0.0100002410004,3893,15973.8707644
3540,17065.2458895,0.0100284660004,3904,15999.413211
3550,17065.2458895,0.0100562640005,3915,16038.3724404
3560,17065.2458895,0.0100844890005,3926,15972.1940692
3570,17065.2458895,0.0101114310007,3937,15825.4482158
3580,17065.2458895,0.0101422220007,3948,15971.453021
3590,17065.2458895,0.0101700200007,3959,16017.4945378
3600,17065.2458895,0.0101973900007,3970,15998.4623929
3610,17065.2458895,0.0102316020007,3981,15999.413211
3620,17065.2458895,0.0102611100006,3992,15883.0219115
3630,17065.2458895,0.0102893350006,4003,15999.413211
3640,17065.2458895,0.0103179880005,4014,15999.413211
3650,17065.2458895,0.0103453580004,4025,15967.2079024
3660,17065.2458895,0.0103812800005,4036,15960.5150379
3670,17065.2458895,0.0104133540003,4047,16001.3734112
3680,17065.2458895,0.0104424340004,4058,16125.7813335
3690,17065.2458895,0.0104719420003,4069,15973.8369647
3700,17065.2458895,0.0105010220002,4080,16034.0767088
3710,17065.2458895,0.0105305300001,4091,15956.9021204
3720,17065.2458895,0.0105621760001,4102,15931.100451
3730,17065.2458895,0.0105916840002,4113,15939.5621143
3740,17065.2458895,0.0106207650001,4124,15997.5115749
3750,17065.2458895,0.0106528390002,4135,15987.5126888
3760,17065.2458895,0.0106861960001,4146,15999.413211
3770,17065.2458895,0.010720408,4157,15955.0462292
3780,17065.2458895,0.0107507719999,4168,15999.413211
3790,17065.2458895,0.0107819909999,4179,15986.695715
3800,17065.2458895,0.0108123539999,4190,15912.3768549
3810,17065.2458895,0.0108388679998,4201,15981.9587024
3820,17065.2458895,0.0108666659999,4212,15964.9878717
3830,17065.2458895,0.010891897,4223,15963.8979592
3840,17065.2458895,0.0109171279998,4234,15868.0558827
3850,17065.2458895,0.0109423589997,4245,16071.5290015
3860,17065.2458895,0.0109744329998,4256,16008.7191157
3870,17065.2458895,0.0110047959997,4267,15919.1459635
3880,17065.2458895,0.0110368699998,4278,15999.3143425
3890,17065.2458895,0.0110659509999,4289,15999.413211
3900,17065.2458895,0.011095459,4300,15952.6056004
3910,17065.2458895,0.0111253939999,4311,15981.0047843
3920,17065.2458895,0.0111561849999,4322,15987.9178276
3930,17065.2458895,0.0111856929998,4333,15935.040665
3940,17065.2458895,0.0112130619998,4344,15919.9003109
3950,17065.2458895,0.0112412869998,4355,15915.6699546
3960,17065.2458895,0.0112686569998,4366,15851.6138292
3970,17065.2458895,0.0112968819999,4377,15892.144896
3980,17065.2458895,0.0113238239999,4388,15871.8799391
3990,17065.2458895,0.0113507669998,4399,15942.8578671
4000,17065.2458895,0.0114020849999,4410,15999.413211
4010,17065.2458895,0.0114328759998,4421,15973.2314481
4020,17065.2458895,0.0114611009999,4432,15918.5941952
4030,17065.2458895,0.0114927469999,4443,15850.5422931
4040,17065.2458895,0.0115231099999,4454,15957.8127871
4050,17065.2458895,0.0115513349999,4465,16021.0831848
4060,17065.2458895,0.0115812709998,4476,15943.717751
4070,17065.2458895,0.0116090689999,4487,15999.413211
4080,17065.2458895,0.011639433,4498,15985.2297961
4090,17065.2458895,0.011670651,4509,15971.565481
4100,17065.2458895,0.0116993040001,4520,16011.3137333
4110,17065.2458895,0.0117271010001,4531,15965.256831
4120,17065.2458895,0.0117553260002,4542,15941.2175613
4130,17065.2458895,0.0117835520002,4553,15905.856984
4140,17065.2458895,0.0118130600001,4564,15986.1368322
4150,17065.2458895,0.0118404300001,4575,15974.3212756
4160,17065.2458895,0.0118686549999,4586,15930.2273381
4170,17065.2458895,0.011897735,4597,16003.9918395
4180,17065.2458895,0.0119259600001,4608,16048.8289216
4190,17065.2458895,0.0119550400002,4619,15986.8790627
4200,17065.2458895,0.0119841200003,4630,15999.413211
4210,17065.2458895,0.0120136280002,4641,15957.3930629
4220,17065.2458895,0.0120439920001,4652,15927.8982717
4230,17065.2458895,0.0120713610002,4663,15805.7888807
4240,17065.2458895,0.0121012960003,4674,15920.1598496
4250,17065.2458895,0.0121299490004,4685,16095.0861176
4260,17065.2458895,0.0121586010002,4696,15999.413211
4270,17065.2458895,0.0121876810001,4707,15999.413211
4280,17065.2458895,0.0122159060002,4718,15958.9450043
4290,17065.2458895,0.0122441320002,4729,15928.2009302
4300,17065.2458895,0.0122715020002,4740,15950.1467504
4310,17065.2458895,0.0122984440002,4751,16087.1840261
4320,17065.2458895,0.0123249580001,4762,15929.5911103
4330,17065.2458895,0.0123519000001,4773,15987.4453111
4340,17065.2458895,0.0123788420001,4784,15857.1908887
4350,17065.2458895,0.0124220350001,4795,15852.2163436
4360,17065.2458895,0.0124528260001,4806,15988.8903484
4370,17065.2458895,0.012482334,4817,15948.558154
4380,17065.2458895,0.012510987,4828,15967.4355717
4390,17065.2458895,0.0125392120001,4839,15979.2778059
4400,17065.2458895,0.0125665810001,4850,15931.3512133
4410,17065.2458895,0.0125965170002,4861,15928.0942007
4420,17065.2458895,0.0126243150003,4872,15963.7537058
4430,17065.2458895,0.0126551060002,4883,15979.7537893
4440,17065.2458895,0.0126867520003,4894,15999.413211
4450,17065.2458895,0.0127205370002,4905,15929.0397335
4460,17065.2458895,0.0127504730001,4916,15922.7692816
4470,17065.2458895,0.0127799810002,4927,15951.3711327
4480,17065.2458895,0.0128099160004,4938,15963.3553157
4490,17065.2458895,0.0128385680002,4949,16082.3806936
4500,17065.2458895,0.0128685040004,4960,15968.8571229
4510,17065.2458895,0.0128980120005,4971,15984.3763278
4520,17065.2458895,0.0129292300005,4982,15972.3782533
4530,17065.2458895,0.0129587380006,4993,15899.9254247
4540,17065.2458895,0.0129933780006,5004,15905.7665503
4550,17065.2458895,0.0130275900005,5015,15999.413211
4560,17065.2458895,0.0130579530005,5026,15999.413211
4570,17065.2458895,0.0130840400004,5037,16001.3734112
4580,17065.2458895,0.0131135480003,5048,15986.6921266
4590,17065.2458895,0.0131409170003,5059,16021.7057907
4600,17065.2458895,0.0131687140001,5070,15941.8989511
4610,17065.2458895,0.0131990780001,5081,15984.135167
4620,17065.2458895,0.01322602,5092,15999.413211
4630,17065.2458895,0.0132512509999,5103,15999.413211
4640,17065.2458895,0.0132777649999,5114,15999.413211
4650,17065.2458895,0.0133038509998,5125,15992.3643772
4660,17065.2458895,0.0133312209998,5136,15999.413211
4670,17065.2458895,0.0133590189998,5147,15850.5422931
4680,17065.2458895,0.0133898099998,5158,15999.413211
4690,17065.2458895,0.0134188909997,5169,15873.3527667
4700,17065.2458895,0.0134462609997,5180,15976.4224443
4710,17065.2458895,0.0134723479998,5191,15999.413211
4720,17065.2458895,0.0135014289997,5202,15842.4246839
4730,17065.2458895,0.0135339299995,5213,15959.7865303
4740,17065.2458895,0.0135685699995,5224,15919.9003109
4750,17065.2458895,0.0135989339997,5235,15834.7569883
4760,17065.2458895,0.0136271589997,5246,15871.8799391
4770,17065.2458895,0.0136600889998,5257,15980.8014016
4780,17065.2458895,0.0136887419999,5268,15999.413211
4790,17065.2458895,0.0137186779998,5279,16167.9040409
4800,17065.2458895,0.0137481859997,5290,15999.413211
4810,17065.2458895,0.0137798319997,5301,15989.8506551
4820,17065.2458895,0.0138067739997,5312,15999.413211
4830,17065.2458895,0.0138418419997,5323,15905.856984
4840,17065.2458895,0.0138687839997,5334,15816.5291119
4850,17065.2458895,0.0138957259996,5345,15816.5291119
4860,17065.2458895,0.0139218129996,5356,15928.3827075
4870,17065.2458895,0.0139688549996,5367,15866.0481718
4880,17065.2458895,0.0140069159995,5378,15971.7573835
4890,17065.2458895,0.0140436949996,5389,15963.7753034
4900,17065.2458895,0.0140796179996,5400,15987.9391632
4910,17065.2458895,0.0141151129997,5411,15980.8014016
4920,17065.2458895,0.0141527469996,5422,15957.4147506
4930,17065.2458895,0.0141882419996,5433,16028.2653942
4940,17065.2458895,0.0142241649996,5444,15999.413211
4950,17065.2458895,0.0142566669997,5455,15999.413211
4960,17065.2458895,0.0142891689995,5466,15999.413211
4970,17065.2458895,0.0143191049995,5477,15972.4717244
4980,17065.2458895,0.0143511789995,5488,15969.1876123
4990,17065.2458895,0.0143819699995,5499,15982.4615253
