it,funval,time,funcount,weight
0,10294.3154856,1.49679999595e-05,10,10320.1485874
10,10180.237036,3.12189999931e-05,21,10127.6525549
20,9964.55632472,4.87529998736e-05,32,9936.15692497
30,10141.8046457,6.45759998861e-05,43,10113.0145818
40,10545.8250767,8.08269999197e-05,54,10492.1053482
50,10288.0290305,9.75049999852e-05,65,10240.1375691
60,10843.9263393,0.000115037999876,76,10717.1526779
70,10953.9984368,0.00013342699981,87,10742.0077347
80,11315.047454,0.000149249999822,98,11109.1163725
90,11662.6228644,0.000166783999703,109,11514.4784634
100,11826.5899643,0.000185600999657,120,11670.442656
110,12048.7958603,0.000203989999818,131,11874.7016203
120,12154.6107807,0.000222378999752,142,11942.8167045
130,12320.6253447,0.000239912999859,153,12091.952963
140,12476.5824769,0.00026257799982,164,12160.1498767
150,12891.4376962,0.000282677999621,175,12416.3143406
160,13035.1334772,0.00030277799965,186,12560.1883139
170,13179.7328898,0.000327581999727,197,12647.5825426
180,13443.0052713,0.000348963999613,208,13210.5780196
190,13519.6209193,0.000367780999568,219,13244.1229624
200,13688.9281677,0.00038873599965,230,13256.1925997
210,13705.0292824,0.000413539999727,241,13468.4224044
220,13765.0858022,0.000436205999677,252,13579.5297318
230,13881.6908061,0.000452456999483,263,13741.2859921
240,14038.247989,0.000474694999411,274,13948.9784879
250,14038.247989,0.00049992699951,285,13965.9301736
260,14219.8160127,0.000520881999591,296,13984.5222242
270,14371.4111613,0.000543974999573,307,14212.6287141
280,14380.6786357,0.000565784999708,318,14178.7751537
290,14507.8126264,0.000585884999737,329,14264.3750165
300,14535.1302485,0.000608550999914,340,14254.3325078
310,14602.1987018,0.000633354999763,351,14378.6088006
320,14672.6099352,0.000655164999898,362,14401.3002375
330,14927.790966,0.000674836999906,373,14665.3489018
340,15261.4840818,0.000692371000014,384,14934.6860723
350,15585.0541771,0.00071460900017,395,15124.9241307
360,15585.0541771,0.000735564000252,406,15106.3184959
370,15741.8604146,0.000756519000333,417,15160.8027955
380,15915.4606566,0.000775763000547,428,15327.0373572
390,15969.3314677,0.000795435000555,439,15495.481531
400,16166.6671713,0.000814680000531,450,15567.2411806
410,16413.9859133,0.000833924000517,461,15910.607223
420,16413.9859133,0.000854023000556,472,15955.3794086
430,16413.9859133,0.000876688000517,483,15983.2271386
440,16413.9859133,0.000895932000503,494,15847.7028072
450,16413.9859133,0.000914749000685,505,15983.2271386
460,16558.6713625,0.000938270000688,516,15970.2304706
470,16558.6713625,0.000957086000881,527,15884.3493645
480,16558.6713625,0.000976330000867,538,16037.862106
490,16558.6713625,0.000997712000981,549,16007.8010943
500,16558.6713625,0.00101695600097,560,15983.795796
510,16558.6713625,0.0010353450009,571,15929.8943385
520,16558.6713625,0.00105587200096,582,15943.3892807
530,16558.6713625,0.00107468900114,593,15893.7428021
540,16558.6713625,0.00109692700107,604,15914.0287868
550,16558.6713625,0.00111873800097,615,15874.0244131
560,16558.6713625,0.00113798300094,626,15992.5230503
570,16558.6713625,0.00115851100099,637,15992.5230503
580,16558.6713625,0.00117818400099,648,15992.5230503
590,16558.6713625,0.00119785700099,659,16032.149731
600,16558.6713625,0.00122950300101,670,15952.2140945
610,16558.6713625,0.00125131300092,681,15992.5230503
620,16558.6713625,0.0012726960008,692,15969.2490167
630,16558.6713625,0.0012940790009,703,16026.988159
640,16558.6713625,0.0013176000009,714,15937.047052
650,16585.4034476,0.001342832001,725,15998.9171119
660,16585.4034476,0.00136421400111,736,15998.9171119
670,16585.4034476,0.00138388600112,747,15986.1996159
680,16585.4034476,0.00140612400105,758,15943.2216518
690,16585.4034476,0.00142750700093,769,15984.7336969
700,16585.4034476,0.00144504100081,780,15851.5158031
710,16585.4034476,0.00146300300094,791,15968.3610238
720,16585.4034476,0.00148267500094,802,15926.2361618
730,16585.4034476,0.00150191900093,813,16019.1512152
740,16585.4034476,0.00152330100104,824,15989.7889759
750,16585.4034476,0.00154511200094,835,15967.0946773
760,16585.4034476,0.00156692200107,846,16075.9879869
770,16585.4034476,0.00159001500106,857,15998.9171119
780,16585.4034476,0.00161182500119,868,15978.7123579
790,16585.4034476,0.00163235300124,879,15965.036029
800,16585.4034476,0.00165459100117,890,15930.6043518
810,16585.4034476,0.00167511800123,901,15968.9915635
820,16585.4034476,0.00169735600116,912,15998.9171119
830,16713.7310906,0.00171831100124,923,15999.2137173
840,16713.7310906,0.00174610900103,934,15888.2617207
850,16713.7310906,0.00177176800116,945,15938.5763874
860,16713.7310906,0.00179443300112,956,15918.3947015
870,16713.7310906,0.00181880900095,967,15860.7933071
880,16713.7310906,0.00184190200093,978,15973.2354399
890,16713.7310906,0.00186627800076,989,15999.2137173
900,16713.7310906,0.00189108200084,1000,15852.5465605
910,16713.7310906,0.00191716900099,1011,15996.2114668
920,16756.5069717,0.0019351300009,1022,16036.0645243
930,16756.5069717,0.00195694100103,1033,15918.5507747
940,16756.5069717,0.0019783240009,1044,15970.214761
950,16756.5069717,0.00199927900098,1055,15970.945756
960,16756.5069717,0.00202108900089,1066,15976.7572611
970,16756.5069717,0.00204375500084,1077,16015.4152402
980,16756.5069717,0.00206428300089,1088,15999.3125858
990,16756.5069717,0.00208823200092,1099,15956.2512271
1000,16756.5069717,0.00211004200082,1110,15985.0567699
1010,16756.5069717,0.00213356300083,1121,15976.9128857
1020,16756.5069717,0.00215708400083,1132,16023.1136303
1030,16756.5069717,0.00217932200076,1143,16057.5082356
1040,16756.5069717,0.00219984900082,1154,15954.9456041
1050,16756.5069717,0.0022208040009,1165,15999.3125858
1060,16756.5069717,0.00224218700077,1176,15808.4649154
1070,16756.5069717,0.00226314200086,1187,15959.0036301
1080,16756.5069717,0.00228367000091,1198,16012.5889646
1090,16756.5069717,0.00230548000104,1209,15999.3125858
1100,16756.5069717,0.00232857300125,1220,16002.0235466
1110,16756.5069717,0.00234824500126,1231,15954.7274265
1120,16756.5069717,0.00237133800124,1242,15994.7339573
1130,16756.5069717,0.00239272000113,1253,15931.3254038
1140,16756.5069717,0.002414103001,1264,15932.5648534
1150,16756.5069717,0.00243719700097,1275,15999.3125858
1160,16756.5069717,0.002457297001,1286,15861.1405878
1170,16756.5069717,0.00247825200108,1297,15915.0363833
1180,16756.5069717,0.00249920700116,1308,15911.4859832
1190,16756.5069717,0.00251973400123,1319,15999.3125858
1200,16756.5069717,0.00254111700133,1330,15999.3125858
1210,16756.5069717,0.00256463800133,1341,15959.0036301
1220,16756.5069717,0.00258687600126,1352,16065.0929266
1230,16756.5069717,0.00260996900124,1363,16040.613309
1240,16756.5069717,0.00263520000135,1374,15960.7771483
1250,16756.5069717,0.00265872100135,1385,15927.1446137
1260,16756.5069717,0.00268138600131,1396,15945.0686054
1270,16756.5069717,0.00270490700132,1407,16008.4407218
1280,16756.5069717,0.00272885600134,1418,16070.6315962
1290,16756.5069717,0.00275323300139,1429,16008.6725564
1300,16756.5069717,0.00277675400139,1440,15984.1203814
1310,16756.5069717,0.00280284100131,1451,15953.9127849
1320,16756.5069717,0.00282636200131,1462,15999.3125858
1330,16756.5069717,0.00284988300132,1473,15999.3125858
1340,16756.5069717,0.0028729760013,1484,15976.3644902
1350,16756.5069717,0.00289478600143,1495,15939.4614892
1360,16756.5069717,0.00291616900154,1506,15932.8302768
1370,16756.5069717,0.00293840700147,1517,15999.3125858
1380,16756.5069717,0.00296150100144,1528,16023.333625
1390,16756.5069717,0.00298373900159,1539,15991.7941443
1400,16756.5069717,0.00300469400145,1550,15999.3125858
1410,16756.5069717,0.00302522100151,1561,15999.3125858
1420,16756.5069717,0.00304489300152,1572,15914.5529678
1430,16756.5069717,0.0030658480016,1583,15960.3533564
1440,16756.5069717,0.00308894100158,1594,15966.3858364
1450,16756.5069717,0.00311032400168,1605,16035.0141526
1460,16756.5069717,0.00313726600166,1616,15999.3125858
1470,16756.5069717,0.00316121500168,1627,16040.4766415
1480,16756.5069717,0.00318388100163,1638,15902.5004207
1490,16756.5069717,0.00320569100154,1649,15999.3125858
1500,16756.5069717,0.00322707300165,1660,15914.5529678
1510,16756.5069717,0.00324717200147,1671,16109.5684011
1520,16756.5069717,0.00327112100149,1682,15963.2546906
1530,16756.5069717,0.0032929310014,1693,16034.972091
1540,16756.5069717,0.00331474100153,1704,15949.1287151
1550,16756.5069717,0.00333697900146,1715,15999.3125858
1560,16756.5069717,0.00335921700139,1726,15963.2137091
1570,16756.5069717,0.00338615900137,1737,15967.4901513
1580,16756.5069717,0.00340797000149,1748,15891.5466393
1590,16756.5069717,0.00342935300159,1759,16010.9761407
1600,16756.5069717,0.00344945300139,1770,15999.3125858
1610,16756.5069717,0.0034691250014,1781,15960.7771483
1620,16756.5069717,0.00349179100135,1792,16004.2274413
1630,16756.5069717,0.00351189100138,1803,15999.3125858
1640,16756.5069717,0.00353541200138,1814,16034.6057113
1650,16756.5069717,0.00356192700133,1825,15985.1291709
1660,16756.5069717,0.00358502000154,1836,15979.125793
1670,16756.5069717,0.00360939700136,1847,15976.7572611
1680,16756.5069717,0.00363377300118,1858,15980.7332291
1690,16756.5069717,0.00365814900124,1869,15869.4500283
1700,16756.5069717,0.00368295300132,1880,16020.3583111
1710,16756.5069717,0.0037060460013,1891,15973.4972282
1720,16756.5069717,0.0037312780014,1902,15999.3125858
1730,16756.5069717,0.0037547990014,1913,15989.482875
1740,16756.5069717,0.0037783200014,1924,15975.985476
1750,16756.5069717,0.0038018410014,1935,15970.138956
1760,16756.5069717,0.00382536200141,1946,16081.6406972
1770,16756.5069717,0.00384845500139,1957,15999.3125858
1780,16756.5069717,0.00387411400129,1968,15950.9152062
1790,16756.5069717,0.00389635200122,1979,15999.3125858
1800,16756.5069717,0.0039177350011,1990,15959.8130401
1810,16756.5069717,0.00393954500123,2001,15858.8425948
1820,16756.5069717,0.00396178300139,2012,15989.482875
1830,16756.5069717,0.00398444900134,2023,15999.3125858
1840,16756.5069717,0.00400583100145,2034,15969.0392672
1850,16756.5069717,0.00402721400133,2045,15943.6171258
1860,16756.5069717,0.0040485970012,2056,15983.4647616
1870,16756.5069717,0.0040704080011,2067,15973.870417
1880,16756.5069717,0.00409435600091,2078,16052.9527914
1890,16756.5069717,0.00411659400083,2089,16022.6396956
1900,16756.5069717,0.00413926000078,2100,15902.4046524
1910,16756.5069717,0.00416363700083,2111,15999.3125858
1920,16756.5069717,0.00418673000081,2122,16016.9591486
1930,16756.5069717,0.00420854000072,2133,16031.5178945
1940,16756.5069717,0.00423334400057,2144,15959.0036301
1950,16756.5069717,0.0042590030007,2155,15952.5049752
1960,16756.5069717,0.00428295200072,2166,15999.3125858
1970,16756.5069717,0.0043077560008,2177,15898.9632596
1980,16756.5069717,0.00433042200075,2188,15999.3125858
1990,16756.5069717,0.00435437100077,2199,15949.8968753
2000,16756.5069717,0.00437831900081,2210,15999.3125858
2010,16756.5069717,0.00441124800091,2221,16020.8432652
2020,16756.5069717,0.00443434100089,2232,16059.7918978
2030,16756.5069717,0.00445743400087,2243,15996.4601316
2040,16756.5069717,0.00448181000093,2254,15962.0889671
2050,16756.5069717,0.00450704100081,2265,15873.2521415
2060,16756.5069717,0.00453441000082,2276,15952.7645187
2070,16756.5069717,0.00456092400077,2287,15999.3125858
2080,16756.5069717,0.00458358900096,2298,15999.3125858
2090,16756.5069717,0.00460796500101,2309,15933.4426338
2100,16756.5069717,0.00463576300103,2320,15926.6926702
2110,16756.5069717,0.00465757400116,2331,15999.3125858
2120,16756.5069717,0.00468109500116,2342,15977.928862
2130,16756.5069717,0.00470547200121,2353,15999.3125858
2140,16756.5069717,0.00472642700106,2364,15999.3125858
2150,16756.5069717,0.00475123100114,2375,15982.3609002
2160,16756.5069717,0.00477389700131,2386,15912.3447352
2170,16756.5069717,0.0047969900013,2397,15915.2722896
2180,16756.5069717,0.00482179400115,2408,15958.4838731
2190,16756.5069717,0.00484531500115,2419,15866.2116406
2200,16756.5069717,0.00486883600115,2430,16090.670105
2210,16756.5069717,0.00489321200121,2441,15999.3125858
2220,16756.5069717,0.00491673300121,2452,15957.6279218
2230,16756.5069717,0.00494110900127,2463,15947.3412591
2240,16756.5069717,0.00496334700119,2474,16136.3488645
2250,16756.5069717,0.0049868680012,2485,15962.0889671
2260,16756.5069717,0.00501081600123,2496,16031.0082344
2270,16756.5069717,0.00503604700134,2507,16042.600105
2280,16756.5069717,0.00505999500137,2518,15958.948161
2290,16756.5069717,0.00508308900157,2529,15949.1287151
2300,16756.5069717,0.00510661000158,2540,15996.2139486
2310,16756.5069717,0.00513013100158,2551,15999.3125858
2320,16756.5069717,0.00515279700153,2562,16021.6051655
2330,16756.5069717,0.00517631800153,2573,15991.7941443
2340,16756.5069717,0.00519812900166,2584,15891.5466393
2350,16756.5069717,0.00522079500161,2595,15962.513369
2360,16756.5069717,0.00524260500151,2606,15999.2137173
2370,16756.5069717,0.00526869100145,2617,15963.002628
2380,16756.5069717,0.00529264000147,2628,15999.1148489
2390,16756.5069717,0.00532172000135,2639,15984.3794524
2400,16756.5069717,0.00534823500129,2650,15959.0036301
2410,16756.5069717,0.00537774300119,2661,15982.0695108
2420,16756.5069717,0.00540169100123,2672,15949.6889465
2430,16756.5069717,0.00542392900138,2683,15982.8659719
2440,16756.5069717,0.00544531200126,2694,15999.3125858
2450,16756.5069717,0.00546583900132,2705,15999.3125858
2460,16756.5069717,0.0054867940014,2716,15936.6838741
2470,16756.5069717,0.00551074300142,2727,15916.3042855
2480,16756.5069717,0.00553683000135,2738,16057.5082356
2490,16756.5069717,0.00555864000125,2749,15999.3125858
2500,16756.5069717,0.00557916700109,2760,16035.6225436
2510,16756.5069717,0.00560354300114,2771,15999.3125858
2520,16756.5069717,0.00562663600113,2782,15997.4109497
2530,16756.5069717,0.00565058400116,2793,15963.7064454
2540,16756.5069717,0.00567538800124,2804,16025.1279435
2550,16756.5069717,0.00570617900121,2815,16038.3287407
2560,16756.5069717,0.00573269300116,2826,15982.0800315
2570,16756.5069717,0.00576134500125,2837,15986.5915014
2580,16756.5069717,0.00579384700131,2848,15999.3125858
2590,16756.5069717,0.00582378300146,2859,16030.465774
2600,16756.5069717,0.00585286300134,2870,15888.3605892
2610,16756.5069717,0.00588108800116,2881,15999.3125858
2620,16756.5069717,0.00590931300121,2892,15999.3125858
2630,16756.5069717,0.00593711100123,2903,15968.3307649
2640,16756.5069717,0.00596533600128,2914,15861.1405878
2650,16756.5069717,0.00599270600128,2925,15970.6249181
2660,16756.5069717,0.00602093200109,2936,15999.3125858
2670,16756.5069717,0.00604830200109,2947,15999.3125858
2680,16756.5069717,0.00608337000108,2958,15999.3125858
2690,16756.5069717,0.00611587100116,2969,15999.3125858
2700,16756.5069717,0.00614537900105,2980,15915.9432577
2710,16756.5069717,0.00617531400121,2991,16124.1138575
2720,16756.5069717,0.00620353900126,3002,15973.8775938
2730,16756.5069717,0.00623433000123,3013,15948.4282482
2740,16756.5069717,0.00626768700113,3024,15912.4443985
2750,16756.5069717,0.00629548400116,3035,16008.6725564
2760,16756.5069717,0.00632328100119,3046,16043.098362
2770,16756.5069717,0.00635364400136,3057,15949.1287151
2780,16756.5069717,0.00638272400124,3068,15900.0653072
2790,16756.5069717,0.00641565400133,3079,15999.3125858
2800,16756.5069717,0.00644601700128,3090,15852.645429
2810,16756.5069717,0.00647467000135,3101,15980.7332291
2820,16756.5069717,0.00650417800125,3112,15999.3125858
2830,16756.5069717,0.00653197500128,3123,15977.1865045
2840,16756.5069717,0.00656404900133,3134,15925.7141522
2850,16756.5069717,0.0065931290012,3145,16011.3455447
2860,16756.5069717,0.00662092700122,3156,15999.3125858
2870,16756.5069717,0.00664872500101,3167,15865.0505945
2880,16756.5069717,0.00669320000111,3178,15979.1771807
2890,16756.5069717,0.0067244190011,3189,15880.0432357
2900,16756.5069717,0.0067594860011,3200,15995.2009324
2910,16756.5069717,0.00678899400123,3211,16042.7466795
2920,16756.5069717,0.00682448900125,3222,15960.9906212
2930,16756.5069717,0.00685228600128,3233,15966.3858364
2940,16756.5069717,0.00688093800136,3244,15999.3125858
2950,16756.5069717,0.00691001900123,3255,16016.9591486
2960,16756.5069717,0.00695021800129,3266,15838.0767628
2970,16756.5069717,0.00698827900123,3277,15858.8425948
2980,16756.5069717,0.00701479300142,3288,15882.4348975
2990,16756.5069717,0.00704515600137,3299,15971.4435507
3000,16756.5069717,0.00706910500139,3310,15999.3125858
3010,16756.5069717,0.00709390900147,3321,16019.447991
3020,16756.5069717,0.00712042400141,3332,15977.3559352
3030,16756.5069717,0.00714779300142,3343,16047.1272806
3040,16756.5069717,0.00717345200133,3354,16044.9913454
3050,16756.5069717,0.00720253300119,3365,15991.8398866
3060,16756.5069717,0.00723204100109,3376,15962.0889671
3070,16756.5069717,0.00726112100119,3387,15999.3125858
3080,16756.5069717,0.00728977400126,3398,15987.838538
3090,16756.5069717,0.00732355900141,3409,15813.5452222
3100,16756.5069717,0.00735221100149,3420,15883.201772
3110,16756.5069717,0.00738385700151,3431,15959.5561358
3120,16756.5069717,0.00741507600151,3442,15999.3125858
3130,16756.5069717,0.00744757700159,3453,15923.6463544
3140,16756.5069717,0.00747794100153,3464,15825.3475907
3150,16756.5069717,0.00751557400145,3475,15963.2546906
3160,16756.5069717,0.00755064100144,3486,15983.4685129
3170,16756.5069717,0.00758570800144,3497,15986.5915014
3180,16756.5069717,0.00761692700144,3508,16041.4352933
3190,16756.5069717,0.00765071200135,3519,15890.6764483
3200,16756.5069717,0.00767936500142,3530,15949.1379227
3210,16756.5069717,0.00771486000144,3541,16018.1643672
3220,16756.5069717,0.00774907200139,3552,15999.3125858
3230,16756.5069717,0.00778371100137,3563,15927.8003758
3240,16756.5069717,0.00781321900126,3574,15992.5502784
3250,16756.5069717,0.00784230000136,3585,15999.3125858
3260,16756.5069717,0.00787180800125,3596,15999.3125858
3270,16756.5069717,0.00789875100122,3607,15894.1983108
3280,16756.5069717,0.0079256930012,3618,15999.3125858
3290,16756.5069717,0.00795605600115,3629,15854.4644024
3300,16756.5069717,0.00798684700112,3640,16086.6060604
3310,16756.5069717,0.00801550000119,3651,15956.5907247
3320,16756.5069717,0.00804372500124,3662,15976.3218191
3330,16756.5069717,0.00807195000107,3673,15984.3794524
3340,16756.5069717,0.00810060200115,3684,15870.5674939
3350,16756.5069717,0.00812668900107,3695,16033.4689659
3360,16756.5069717,0.00815576900095,3706,15920.3134944
3370,16756.5069717,0.00818613200113,3717,16057.5082356
3380,16756.5069717,0.00821435800117,3728,15999.3125858
3390,16756.5069717,0.00823873400122,3739,16114.9188984
3400,16756.5069717,0.00826396600132,3750,15999.3125858
3410,16756.5069717,0.00829176400134,3761,15968.0878127
3420,16756.5069717,0.00831870700131,3772,15999.3125858
3430,16756.5069717,0.00834778700118,3783,15954.8575728
3440,16756.5069717,0.00837558400121,3794,15999.3125858
3450,16756.5069717,0.00840209900116,3805,15999.3125858
3460,16756.5069717,0.008430752001,3816,15982.8659719
3470,16756.5069717,0.00846026000113,3827,15950.9065033
3480,16756.5069717,0.00848677500107,3838,15969.0392672
3490,16756.5069717,0.00851329000102,3849,15967.421617
3500,16756.5069717,0.00854066000102,3860,16042.8307639
3510,16756.5069717,0.00856888500107,3871,15999.3125858
3520,16756.5069717,0.00859924800102,3882,15999.3125858
3530,16756.5069717,0.00862661800102,3893,15960.6089812
3540,16756.5069717,0.00865655300095,3904,15984.0345418
3550,16756.5069717,0.00868435000098,3915,16099.8139369
3560,16756.5069717,0.00870915400083,3926,16034.8278376
3570,16756.5069717,0.00873695200085,3937,15915.4320158
3580,16756.5069717,0.00876389500081,3948,15999.3125858
3590,16756.5069717,0.00879169200084,3959,15926.6316358
3600,16756.5069717,0.00881991700066,3970,15976.3644902
3610,16756.5069717,0.00884857000051,3981,15992.7409102
3620,16756.5069717,0.00887722300058,3992,16072.8164627
3630,16756.5069717,0.00890630300046,4003,15984.3794524
3640,16756.5069717,0.0089405150004,4014,15953.8907137
3650,16756.5069717,0.00896959500028,4025,15872.898282
3660,16756.5069717,0.00899995800046,4036,15968.3496591
3670,16756.5069717,0.00902861100053,4047,15999.3125858
3680,16756.5069717,0.00905512600048,4058,15968.0878127
3690,16756.5069717,0.0090829240005,4069,16041.4040364
3700,16756.5069717,0.00910815600037,4080,15999.3125858
3710,16756.5069717,0.00913253200042,4091,15999.3125858
3720,16756.5069717,0.00916161300029,4102,15932.8302768
3730,16756.5069717,0.00918983800034,4113,15953.8345884
3740,16756.5069717,0.00922319500023,4124,15860.6585946
3750,16756.5069717,0.00925142100027,4135,15999.3125858
3760,16756.5069717,0.00927836300025,4146,15910.5786223
3770,16756.5069717,0.00930316700033,4157,15952.7645187
3780,16756.5069717,0.0093296820005,4168,16027.2727759
3790,16756.5069717,0.00935790700055,4179,16009.0371291
3800,16756.5069717,0.00938570400058,4190,15949.1287151
3810,16756.5069717,0.00941307300059,4201,15985.0567699
3820,16756.5069717,0.00944215300046,4212,15888.9149353
3830,16756.5069717,0.00946995000049,4223,15956.5907247
3840,16756.5069717,0.00949646400045,4234,15844.4981674
3850,16756.5069717,0.00952597200035,4245,15952.5344723
3860,16756.5069717,0.00955248700052,4256,15953.1886706
3870,16756.5069717,0.0095794290005,4267,15953.2552532
3880,16756.5069717,0.00960679900049,4278,16041.8236765
3890,16756.5069717,0.0096303200005,4289,15999.3125858
3900,16756.5069717,0.00966324900037,4300,16039.5833961
3910,16756.5069717,0.00968634300057,4311,15999.3125858
3920,16756.5069717,0.00971242900073,4322,15999.3125858
3930,16756.5069717,0.00973979900073,4333,16027.2270046
3940,16756.5069717,0.00976802500077,4344,15976.7572611
3950,16756.5069717,0.00979411200069,4355,15999.3125858
3960,16756.5069717,0.00982276500076,4366,15962.1538724
3970,16756.5069717,0.00984970800073,4377,15998.3617678
3980,16756.5069717,0.00987878800061,4388,15878.3857186
3990,16756.5069717,0.0099061580006,4399,15957.712162
4000,16756.5069717,0.0099352390007,4410,15968.9939209
4010,16756.5069717,0.00996389100078,4421,16067.6253459
4020,16756.5069717,0.00998912200066,4432,15963.2137091
4030,16756.5069717,0.0100152090008,4443,15999.3125858
4040,16756.5069717,0.0100391570008,4454,15999.3125858
4050,16756.5069717,0.0100682370007,4465,15953.5915611
4060,16756.5069717,0.0100956070007,4476,15916.7111396
4070,16756.5069717,0.0101225490007,4487,16066.3134865
4080,16756.5069717,0.0101482080008,4498,15987.4120636
4090,16756.5069717,0.0101755770008,4509,15957.1898784
4100,16756.5069717,0.0102038020007,4520,15968.0878127
4110,16756.5069717,0.0102315990007,4531,15927.7976466
4120,16756.5069717,0.0102598240007,4542,16048.7282964
4130,16756.5069717,0.0102859110009,4553,15986.0362071
4140,16756.5069717,0.0103085760009,4564,15976.3218191
4150,16756.5069717,0.010335090001,4575,15912.3447352
4160,16756.5069717,0.0103650260012,4586,16033.4689659
4170,16756.5069717,0.0103932510012,4597,15962.6457966
4180,16756.5069717,0.0104321680012,4608,15999.3125858
4190,16756.5069717,0.0104621040011,4619,15956.5907247
4200,16756.5069717,0.0104890470011,4630,15903.8452821
4210,16756.5069717,0.0105211210011,4641,15932.8302768
4220,16756.5069717,0.0105506290013,4652,15975.246668
4230,16756.5069717,0.0105788550013,4663,16040.4766415
4240,16756.5069717,0.0106053700013,4674,15979.5975591
4250,16756.5069717,0.0106361610012,4685,15976.9128857
4260,16756.5069717,0.0106703730012,4696,15999.3125858
4270,16756.5069717,0.0106990250013,4707,16009.1635184
4280,16756.5069717,0.0107281050014,4718,15914.5529678
4290,16756.5069717,0.0107588960013,4729,15831.2319934
4300,16756.5069717,0.0107879760014,4740,15999.3125858
4310,16756.5069717,0.0108174840013,4751,15970.138956
4320,16756.5069717,0.0108448540013,4762,15985.1291709
4330,16756.5069717,0.0108794940013,4773,15950.9152062
4340,16756.5069717,0.0109064360013,4784,15999.3125858
4350,16756.5069717,0.0109342330011,4795,15929.9855902
4360,16756.5069717,0.010960748001,4806,15927.1967953
4370,16756.5069717,0.010983841001,4817,15999.3125858
4380,16756.5069717,0.0110137770009,4828,16039.4462096
4390,16756.5069717,0.011039008001,4839,15963.2546906
4400,16756.5069717,0.0110723650009,4850,15873.3172046
4410,16756.5069717,0.0111052940008,4861,15944.0009308
4420,16756.5069717,0.0111352300007,4872,15987.8172025
4430,16756.5069717,0.0111634550008,4883,15999.3125858
4440,16756.5069717,0.0111938190009,4894,15855.8685015
4450,16756.5069717,0.011226320001,4905,15999.3125858
4460,16756.5069717,0.011257539001,4916,16027.2727759
4470,16756.5069717,0.0112879020012,4927,15999.3125858
4480,16756.5069717,0.0113216870013,4938,15915.5789008
4490,16756.5069717,0.0113499120014,4949,15948.5269667
4500,16756.5069717,0.0113824130015,4960,16109.5684011
4510,16756.5069717,0.0114110650015,4971,15900.0653072
4520,16756.5069717,0.0114427110016,4982,16050.098205
4530,16756.5069717,0.0114722190017,4993,15976.9128857
4540,16756.5069717,0.0114987330016,5004,15914.5529678
4550,16756.5069717,0.0115316620017,5015,15999.3125858
4560,16756.5069717,0.0115650190016,5026,16086.8841381
4570,16756.5069717,0.0115966650017,5037,15915.4320158
4580,16756.5069717,0.0116231800016,5048,15999.3125858
4590,16756.5069717,0.0116578200016,5059,15941.6082195
4600,16756.5069717,0.0116886110015,5070,15871.779314
4610,16756.5069717,0.0117211130016,5081,15897.6693373
4620,16756.5069717,0.0117493380017,5092,15942.5789261
4630,16756.5069717,0.0117805570017,5103,15999.3125858
4640,16756.5069717,0.0118049330017,5114,16038.7163161
4650,16756.5069717,0.0118378620016,5125,15999.3125858
4660,16756.5069717,0.0118703640017,5136,16049.056479
4670,16756.5069717,0.0119028660015,5147,16035.6225436
4680,16756.5069717,0.0119332290017,5158,15964.8872466
4690,16756.5069717,0.0119682960017,5169,16012.0300818
4700,16756.5069717,0.0119969490015,5180,15999.3125858
4710,16756.5069717,0.0120303060016,5191,15858.9782453
4720,16756.5069717,0.0120602420016,5202,15992.263752
4730,16756.5069717,0.0120927440016,5213,16067.6253459
4740,16756.5069717,0.0121252460015,5224,15988.9916103
4750,16756.5069717,0.0121594580014,5235,15971.6431524
4760,16756.5069717,0.0121893940013,5246,15971.3948718
4770,16756.5069717,0.0122223240014,5257,15947.3560309
4780,16756.5069717,0.0122578190014,5268,15928.9391083
4790,16756.5069717,0.0122898930015,5279,15868.8388395
4800,16756.5069717,0.0123245330017,5290,16016.5451402
4810,16756.5069717,0.0123561800015,5301,15999.3125858
4820,16756.5069717,0.0123873990015,5312,15961.0623622
4830,16756.5069717,0.0124203280013,5323,15950.1788162
4840,16756.5069717,0.0124481260013,5334,15999.3125858
4850,16756.5069717,0.0124742130015,5345,15999.3125858
4860,16756.5069717,0.0125032940014,5356,16066.0603183
4870,16756.5069717,0.0125306640014,5367,16063.7232031
4880,16756.5069717,0.0125601720015,5378,15999.3125858
4890,16756.5069717,0.0125871140015,5389,15991.467451
4900,16756.5069717,0.0126238930015,5400,15999.3125858
4910,16756.5069717,0.0126546840015,5411,15973.3343083
4920,16756.5069717,0.0126846200014,5422,15903.8887506
4930,16756.5069717,0.0127145560016,5433,16114.9188984
4940,16756.5069717,0.0127423530016,5444,15950.0461252
4950,16756.5069717,0.0127671570015,5455,15999.3125858
4960,16756.5069717,0.0128017970014,5466,15958.948161
4970,16756.5069717,0.0128355810014,5477,15986.9776254
4980,16756.5069717,0.0128727870015,5488,15916.9844745
4990,16756.5069717,0.0129035780014,5499,15999.3125858
