it,funval,time,funcount,weight
0,4194.96071516,0.023375934,999,3596.35522364
10,4343.52350503,0.045727213,2100,3927.75529052
20,4436.62049976,0.064206094,3201,3856.99900147
30,4408.85684817,0.0825207560001,4302,3897.9690596
40,4453.15552135,0.0991898100001,5403,3996.07461578
50,4408.85684817,0.115472266,6504,3996.07461578
60,4418.61969283,0.131730346,7605,3849.28666974
70,4408.85684817,0.148213799,8706,3996.07461578
80,4408.85684817,0.164188772,9807,3996.07461578
90,4408.85684817,0.180382277,10908,3996.07461578
100,4424.73967674,0.198103785,12009,3996.07461578
110,4408.85684817,0.214094154,13110,3996.07461578
120,4418.61969283,0.230344536,14211,3996.07461578
130,4408.85684817,0.246606892,15312,3850.58429033
140,4418.61969283,0.262409949,16413,3996.07461578
150,4408.85684817,0.278734315,17514,3996.07461578
160,4412.93883278,0.2946708,18615,3521.82157758
170,4452.43726613,0.310769366,19716,3996.07461578
180,4408.85684817,0.328859511,20817,3996.07461578
190,4408.85684817,0.344866131,21918,3996.07461578
200,4408.85684817,0.360970684,23019,3996.07461578
210,4408.85684817,0.377038886,24120,3972.61537455
220,4408.85684817,0.392848785,25221,3996.07461578
230,4429.53411269,0.408802803,26322,3506.74537471
240,4408.85684817,0.424622538,27423,3996.07461578
250,4408.85684817,0.440591097,28524,3981.1480886
260,4408.85684817,0.45802736,29625,3996.07461578
270,4408.85684817,0.474430842,30726,3996.07461578
280,4408.85684817,0.490490063,31827,3996.07461578
290,4408.85684817,0.5065356,32928,3996.07461578
300,4408.85684817,0.522307011,34029,3996.07461578
310,4408.85684817,0.538604435,35130,3996.07461578
320,4408.85684817,0.555531792,36231,3996.07461578
330,4408.85684817,0.573727995,37332,3996.07461578
340,4408.85684817,0.589345023,38433,3866.74296652
350,4408.85684817,0.605303746,39534,3783.46750421
360,4408.85684817,0.620935742,40635,3996.07461578
370,4408.85684817,0.637169018,41736,3996.07461578
380,4408.85684817,0.653356963,42837,3996.07461578
390,4408.85684817,0.66987976,43938,3996.07461578
400,4408.85684817,0.686195145,45039,3798.21678305
410,4408.85684817,0.703849512,46140,4068.35940131
420,4408.85684817,0.719463547,47241,3996.07461578
430,4408.85684817,0.735616424,48342,3996.07461578
440,4408.85684817,0.751724398,49443,3966.71755389
450,4408.85684817,0.767645487,50544,3996.07461578
460,4408.85684817,0.783984393,51645,3996.07461578
470,4408.85684817,0.800008547,52746,3996.07461578
480,4408.85684817,0.816013457,53847,3996.07461578
490,4408.85684817,0.83350617,54948,3996.07461578
500,4408.85684817,0.849474301,56049,3996.07461578
510,4408.85684817,0.865397529,57150,3996.07461578
520,4408.85684817,0.881419544,58251,3996.07461578
530,4443.06566425,0.897767858,59352,3996.07461578
540,4408.85684817,0.913777044,60453,3996.07461578
550,4408.85684817,0.930020156,61554,3996.07461578
560,4408.85684817,0.946391137,62655,3996.07461578
570,4408.85684817,0.964333314,63756,3996.07461578
580,4409.36627732,0.98051014,64857,3870.6983123
590,4418.61969283,0.996433795,65958,3996.07461578
600,4408.85684817,1.012452817,67059,3966.16935173
610,4408.85684817,1.028283245,68160,3956.50597179
620,4408.85684817,1.04399735,69261,3996.07461578
630,4408.85684817,1.059762774,70362,3118.88161653
640,4408.85684817,1.075653928,71463,3996.07461578
650,4408.85684817,1.091790127,72564,3996.07461578
660,4408.85684817,1.109806716,73665,3900.62682584
670,4408.85684817,1.125856957,74766,3996.07461578
680,4408.85684817,1.142059869,75867,3996.07461578
690,4408.85684817,1.15796428,76968,3996.07461578
700,4428.83563976,1.174499907,78069,3311.41931808
710,4408.85684817,1.190552714,79170,3902.74943207
720,4408.85684817,1.206490054,80271,3975.35674308
730,4408.85684817,1.22233887,81372,4065.8087442
740,4408.85684817,1.238571719,82473,3996.07461578
750,4408.85684817,1.25793798,83574,3996.07461578
760,4408.85684817,1.274140465,84675,3996.07461578
770,4408.85684817,1.290130834,85776,3996.07461578
780,4408.85684817,1.306533888,86877,3809.42424835
790,4408.85684817,1.322751769,87978,3996.07461578
800,4408.85684817,1.339388322,89079,3996.07461578
810,4408.85684817,1.355665646,90180,3996.07461578
820,4408.85684817,1.372332562,91281,3996.07461578
830,4408.85684817,1.388107395,92382,3996.07461578
840,4408.85684817,1.405909302,93483,3996.07461578
850,4408.85684817,1.421723478,94584,3996.07461578
860,4418.61969283,1.437928956,95685,3996.07461578
870,4418.61969283,1.454081406,96786,3996.07461578
880,4408.85684817,1.469810907,97887,2871.22707873
890,4408.85684817,1.48591888,98988,3996.07461578
900,4408.85684817,1.502026854,100089,3762.9635616
910,4414.94704487,1.518269111,101190,4020.83302165
920,4408.85684817,1.534196188,102291,3996.07461578
930,4408.85684817,1.552480059,103392,3996.07461578
940,4408.85684817,1.568561946,104493,3996.07461578
950,4418.61969283,1.584228154,105594,3996.07461578
960,4408.85684817,1.600052167,106695,3996.07461578
970,4408.85684817,1.61621317,107796,3996.07461578
980,4418.61969283,1.632423353,108897,3996.07461578
990,4408.85684817,1.648438953,109998,3996.07461578
1000,4418.61969283,1.664195396,111099,3647.42168915
1010,4408.85684817,1.680062173,112200,3602.65986454
1020,4408.85684817,1.697798649,113301,3996.07461578
1030,4408.85684817,1.713909616,114402,3996.07461578
1040,4408.85684817,1.730034268,115503,3999.93779559
1050,4408.85684817,1.745984438,116604,4114.71271634
1060,4408.85684817,1.761815721,117705,3996.07461578
1070,4408.85684817,1.777623055,118806,3996.07461578
1080,4408.85684817,1.793660894,119907,3996.07461578
1090,4408.85684817,1.809773999,121008,3996.07461578
1100,4408.85684817,1.825780619,122109,3996.07461578
1110,4408.85684817,1.842955586,123210,3996.07461578
1120,4408.85684817,1.859279096,124311,3921.21966863
1130,4408.85684817,1.875528195,125412,3975.07117589
1140,4408.85684817,1.891676368,126513,3938.95268801
1150,4408.85684817,1.908064027,127614,3373.90291999
1160,4408.85684817,1.924341351,128715,3996.07461578
1170,4408.85684817,1.940670849,129816,3996.07461578
1180,4408.85684817,1.956383671,130917,3996.07461578
1190,4408.85684817,1.972326571,132018,3996.07461578
1200,4408.85684817,1.990212297,133119,3996.07461578
1210,4408.85684817,2.006208653,134220,3996.07461578
1220,4408.85684817,2.022729312,135321,3996.07461578
1230,4418.61969283,2.03911355,136422,3996.07461578
1240,4408.85684817,2.054855453,137523,3911.08705683
1250,4408.85684817,2.070484884,138624,3910.67081848
1260,4408.85684817,2.086429922,139725,3924.9752344
1270,4418.61969283,2.1022967,140826,3985.71567943
1280,4408.85684817,2.118318716,141927,3996.07461578
1290,4408.85684817,2.136103089,143028,3996.07461578
1300,4408.85684817,2.151937793,144129,3719.63753608
1310,4412.01638024,2.16769167,145230,3996.07461578
1320,4408.85684817,2.184622448,146331,3996.07461578
1330,4408.85684817,2.20115893,147432,3996.07461578
1340,4408.85684817,2.216993634,148533,3996.07461578
1350,4408.85684817,2.232886499,149634,3949.41202393
1360,4408.85684817,2.24905691,150735,3996.07461578
1370,4457.75995612,2.264754337,151836,3996.07461578
1380,4431.15963171,2.282372354,152937,3996.07461578
1390,4408.85684817,2.298335781,154038,3978.10383787
1400,4408.85684817,2.314721729,155139,3996.07461578
1410,4408.85684817,2.331003757,156240,3996.07461578
1420,4408.85684817,2.346837178,157341,3996.07461578
1430,4408.85684817,2.362846364,158442,3971.92693095
1440,4408.85684817,2.378823476,159543,3996.07461578
1450,4408.85684817,2.394691109,160644,3902.83741506
1460,4418.61969283,2.410969716,161745,3996.07461578
1470,4408.85684817,2.426735995,162846,3996.07461578
1480,4408.85684817,2.445242246,163947,3996.07461578
1490,4408.85684817,2.461282223,165048,4034.19571717
1500,4408.85684817,2.47750994,166149,3671.63604871
1510,4408.85684817,2.493516987,167250,3379.63310484
1520,4408.85684817,2.509533443,168351,3996.07461578
1530,4418.61969283,2.525360021,169452,3996.07461578
1540,4408.85684817,2.541046329,170553,4000.37618304
1550,4408.85684817,2.557268058,171654,3996.07461578
1560,4408.85684817,2.573513737,172755,3996.07461578
1570,4408.85684817,2.58968928,173856,3996.07461578
1580,4408.85684817,2.605459408,174957,3996.07461578
1590,4408.85684817,2.621502379,176058,3996.07461578
1600,4408.85684817,2.638058961,177159,3996.07461578
1610,4408.85684817,2.654038212,178260,3996.07461578
1620,4408.85684817,2.670108125,179361,4007.92008764
1630,4408.85684817,2.686580031,180462,4034.33880531
1640,4408.85684817,2.702554577,181563,4019.31932526
1650,4408.85684817,2.718767326,182664,3996.07461578
1660,4408.85684817,2.735264464,183765,3984.14590104
1670,4422.04218336,2.752538648,184866,3996.07461578
1680,4408.85684817,2.768935287,185967,3996.07461578
1690,4408.85684817,2.784917531,187068,3996.07461578
1700,4408.85684817,2.801651161,188169,3996.07461578
1710,4408.85684817,2.817821572,189270,3996.07461578
1720,4408.85684817,2.83399626,190371,3996.07461578
1730,4408.85684817,2.851987189,191472,3996.07461578
1740,4408.85684817,2.868207208,192573,3996.07461578
1750,4408.85684817,2.886224652,193674,3996.07461578
1760,4408.85684817,2.902761989,194775,3996.07461578
1770,4439.10930663,2.919313011,195876,3996.07461578
1780,4408.85684817,2.935652345,196977,3996.07461578
1790,4408.85684817,2.951899306,198078,3996.07461578
1800,4418.61969283,2.96806373,199179,3996.07461578
1810,4408.85684817,2.983855241,200280,3996.07461578
1820,4408.85684817,2.999583031,201381,3662.17263737
1830,4408.85684817,3.01539849,202482,3996.07461578
1840,4408.85684817,3.033747365,203583,3996.07461578
1850,4408.85684817,3.049689838,204684,3996.07461578
1860,4418.61969283,3.065551056,205785,3996.07461578
1870,4408.85684817,3.081571361,206886,3996.07461578
1880,4408.85684817,3.09795346,207987,3996.07461578
1890,4408.85684817,3.114149531,209088,3996.07461578
1900,4412.05091862,3.130211746,210189,3996.07461578
1910,4408.85684817,3.14644545,211290,3996.07461578
1920,4408.85684817,3.162594479,212391,3996.07461578
1930,4408.85684817,3.179000527,213492,3996.07461578
1940,4408.85684817,3.195237652,214593,3996.07461578
1950,4408.85684817,3.211437143,215694,3996.07461578
1960,4408.85684817,3.227596435,216795,3996.07461578
1970,4408.85684817,3.244050808,217896,3996.07461578
1980,4408.85684817,3.259894065,218997,3996.07461578
1990,4408.85684817,3.276188495,220098,3996.07461578
2000,4408.85684817,3.292500459,221199,3996.07461578
2010,4408.85684817,3.310349836,222300,3996.07461578
2020,4408.85684817,3.326494588,223401,3996.07461578
2030,4408.85684817,3.342515748,224502,3996.07461578
2040,4409.38693676,3.35872978,225603,3996.07461578
2050,4408.85684817,3.374487934,226704,3996.07461578
2060,4418.61969283,3.39085421,227805,3996.07461578
2070,4418.61969283,3.407634026,228906,3996.07461578
2080,4408.85684817,3.423665877,230007,3919.54623674
2090,4408.85684817,3.441351034,231108,3996.07461578
2100,4416.46038108,3.457741258,232209,3996.07461578
2110,4408.85684817,3.473682875,233310,3996.07461578
2120,4408.85684817,3.489613801,234411,3902.74943207
2130,4408.85684817,3.505785922,235512,3971.12296673
2140,4408.85684817,3.521340941,236613,3996.07461578
2150,4408.85684817,3.537296671,237714,3970.27849336
2160,4408.85684817,3.553969574,238815,3996.07461578
2170,4408.85684817,3.572824362,239916,3996.07461578
2180,4408.85684817,3.589165834,241017,3996.07461578
2190,4411.6493114,3.605143801,242118,3996.07461578
2200,4418.61969283,3.62081343,243219,3996.07461578
2210,4408.85684817,3.63672725,244320,3996.07461578
2220,4408.85684817,3.653057604,245421,3996.07461578
2230,4408.85684817,3.669094159,246522,3956.86086185
2240,4408.85684817,3.685625936,247623,3953.58083631
2250,4408.85684817,3.701592357,248724,3996.07461578
2260,4408.85684817,3.719403245,249825,3996.07461578
2270,4408.85684817,3.735333316,250926,3661.987361
2280,4408.85684817,3.750925113,252027,3996.07461578
2290,4408.85684817,3.767281126,253128,3996.07461578
2300,4408.85684817,3.783079479,254229,3996.07461578
2310,4418.61969283,3.799193868,255330,3996.07461578
2320,4408.85684817,3.815319375,256431,3996.07461578
2330,4408.85684817,3.83122122,257532,3996.07461578
2340,4408.85684817,3.847138033,258633,3996.07461578
2350,4408.85684817,3.864906583,259734,3777.55786298
2360,4418.61969283,3.880726318,260835,3996.07461578
2370,4408.85684817,3.897069073,261936,3996.07461578
2380,4418.61969283,3.913169349,263037,3996.07461578
2390,4408.85684817,3.929368412,264138,3996.07461578
2400,4408.85684817,3.945216372,265239,3996.07461578
2410,4418.61969283,3.961213584,266340,3996.07461578
2420,4408.85684817,3.977537523,267441,3996.07461578
2430,4408.85684817,3.993383346,268542,3996.07461578
2440,4418.61969283,4.011472636,269643,3996.07461578
2450,4408.85684817,4.027703774,270744,3996.07461578
2460,4408.85684817,4.043826716,271845,3996.07461578
2470,4408.85684817,4.060163912,272946,3996.07461578
2480,4428.56072387,4.076455777,274047,3996.07461578
2490,4408.85684817,4.094198668,275148,3964.19336478
2500,4408.85684817,4.110677416,276249,3996.07461578
2510,4408.85684817,4.126740914,277350,3996.07461578
2520,4408.85684817,4.142550814,278451,3996.07461578
2530,4408.85684817,4.160108103,279552,3996.07461578
2540,4408.85684817,4.176353354,280653,3996.07461578
2550,4418.61969283,4.192575511,281754,3996.07461578
2560,4408.85684817,4.20897215,282855,3996.07461578
2570,4408.85684817,4.224715763,283956,3853.7890287
2580,4415.11522618,4.240350752,285057,3996.07461578
2590,4408.85684817,4.257078823,286158,3996.07461578
2600,4408.85684817,4.272850234,287259,3996.07461578
2610,4408.85684817,4.288938536,288360,3996.07461578
2620,4418.61969283,4.306868738,289461,3996.07461578
2630,4413.6098988,4.323533516,290562,3996.07461578
2640,4408.85684817,4.339385754,291663,3996.07461578
2650,4408.85684817,4.355110123,292764,3996.07461578
2660,4408.85684817,4.370882817,293865,3996.07461578
2670,4408.85684817,4.387097277,294966,3996.07461578
2680,4408.85684817,4.403151795,296067,3996.07461578
2690,4418.61969283,4.419505669,297168,3996.07461578
2700,4408.85684817,4.435980141,298269,3996.07461578
2710,4408.85684817,4.453985183,299370,3996.07461578
2720,4408.85684817,4.470212472,300471,3996.07461578
2730,4408.85684817,4.486025366,301572,3996.07461578
2740,4408.85684817,4.502117945,302673,3996.07461578
2750,4408.85684817,4.518326845,303774,3996.07461578
2760,4408.85684817,4.534410443,304875,4034.19571717
2770,4408.85684817,4.550076652,305976,4000.33461283
2780,4408.85684817,4.565896388,307077,4069.57446252
2790,4408.85684817,4.583661945,308178,3996.07461578
2800,4408.85684817,4.599685244,309279,3996.07461578
2810,4408.85684817,4.61569614,310380,3996.07461578
2820,4418.61969283,4.63209278,311481,4026.00351988
2830,4408.85684817,4.648367111,312582,3996.07461578
2840,4408.85684817,4.664345078,313683,3996.07461578
2850,4408.85684817,4.680471441,314784,3908.63979273
2860,4408.85684817,4.696707711,315885,3996.07461578
2870,4408.85684817,4.712855884,316986,3996.07461578
2880,4408.85684817,4.730875894,318087,3996.07461578
2890,4408.85684817,4.747084794,319188,3996.07461578
2900,4408.85684817,4.762951571,320289,3996.07461578
2910,4408.85684817,4.779039445,321390,3648.77948367
2920,4408.85684817,4.79511064,322491,3996.07461578
2930,4408.85684817,4.811710842,323592,3996.07461578
2940,4408.85684817,4.827696507,324693,3996.07461578
2950,4408.85684817,4.843778394,325794,3996.07461578
2960,4408.85684817,4.859682805,326895,3996.07461578
2970,4408.85684817,4.877700676,327996,3996.07461578
2980,4408.85684817,4.894105868,329097,3897.44717245
2990,4418.61969283,4.910403292,330198,3996.07461578
3000,4408.85684817,4.926877337,331299,3996.07461578
3010,4408.85684817,4.943096928,332400,3996.07461578
3020,4408.85684817,4.958964134,333501,3996.07461578
3030,4408.85684817,4.975151652,334602,3996.07461578
3040,4408.85684817,4.991298542,335703,3996.07461578
3050,4418.94913647,5.006901457,336804,3996.07461578
3060,4408.85684817,5.024490821,337905,3996.07461578
3070,4408.85684817,5.040358881,339006,3996.07461578
3080,4408.85684817,5.056651174,340107,3996.07461578
3090,4408.85684817,5.072600061,341208,3996.07461578
3100,4408.85684817,5.088584443,342309,3996.07461578
3110,4408.85684817,5.104613301,343410,3996.07461578
3120,4408.85684817,5.120681076,344511,3946.55780406
3130,4408.85684817,5.14294939,345612,3984.22914393
3140,4408.85684817,5.158659647,346713,3996.07461578
3150,4411.8764555,5.176376023,347814,3666.76524779
3160,4408.85684817,5.192404025,348915,4038.78354521
3170,4408.85684817,5.208198957,350016,3858.28308509
3180,4408.85684817,5.224139291,351117,3996.07461578
3190,4408.85684817,5.240390529,352218,3996.07461578
3200,4441.50234874,5.25649722,353319,3726.16405198
3210,4408.85684817,5.27269885,354420,3996.07461578
3220,4418.29570962,5.2889441,355521,3996.07461578
3230,4408.85684817,5.304938319,356622,3996.07461578
3240,4418.61969283,5.321238736,357723,3996.07461578
3250,4408.85684817,5.337122192,358824,3996.07461578
3260,4408.85684817,5.353352047,359925,3872.0677688
3270,4408.85684817,5.369619107,361026,3996.07461578
3280,4444.02637888,5.385808335,362127,3996.07461578
3290,4408.85684817,5.401978746,363228,3897.8048059
3300,4408.85684817,5.417918225,364329,3995.51191266
3310,4408.85684817,5.433846157,365430,3996.07461578
3320,4408.85684817,5.45219717,366531,3996.07461578
3330,4408.85684817,5.468280767,367632,3936.64372342
3340,4408.85684817,5.484461014,368733,3996.07461578
3350,4418.61969283,5.500831139,369834,3856.08684021
3360,4408.85684817,5.517336403,370935,3996.07461578
3370,4408.85684817,5.533488853,372036,3996.07461578
3380,4420.89223675,5.549690055,373137,3996.07461578
3390,4408.85684817,5.566005868,374238,3996.07461578
3400,4408.85684817,5.584063939,375339,3996.07461578
3410,4418.61969283,5.599947395,376440,3996.07461578
3420,4408.85684817,5.61584197,377541,3952.94457362
3430,4408.85684817,5.632558066,378642,3996.07461578
3440,4408.85684817,5.64816483,379743,3996.07461578
3450,4408.85684817,5.664500315,380844,3996.07461578
3460,4408.85684817,5.680408575,381945,3996.07461578
3470,4408.85684817,5.696511845,383046,3996.07461578
3480,4408.85684817,5.712558664,384147,3996.07461578
3490,4408.85684817,5.730633414,385248,3996.07461578
3500,4408.85684817,5.746309886,386349,3996.07461578
3510,4408.85684817,5.762194198,387450,3996.07461578
3520,4408.85684817,5.778112722,388551,3996.07461578
3530,4408.85684817,5.794392184,389652,3971.12296673
3540,4418.61969283,5.811108708,390753,3974.31243677
3550,4408.85684817,5.827031509,391854,3871.37120525
3560,4408.85684817,5.843125798,392955,3996.07461578
3570,4408.85684817,5.859397991,394056,3996.07461578
3580,4408.85684817,5.877360267,395157,3894.66246847
3590,4418.61969283,5.893174871,396258,3996.07461578
3600,4408.85684817,5.909167806,397359,3996.07461578
3610,4417.6653867,5.92565297,398460,3996.07461578
3620,4408.85684817,5.941387175,399561,3996.07461578
3630,4420.77822659,5.957235991,400662,3936.36850706
3640,4408.85684817,5.973277251,401763,3996.07461578
3650,4408.85684817,5.989272752,402864,3996.07461578
3660,4408.85684817,6.005446584,403965,3996.07461578
3670,4418.61969283,6.023359253,405066,3996.07461578
3680,4408.85684817,6.039705429,406167,3996.07461578
3690,4408.85684817,6.055878834,407268,3996.07461578
3700,4408.85684817,6.072083457,408369,3996.07461578
3710,4408.85684817,6.089475673,409470,3852.90293088
3720,4408.85684817,6.105722206,410571,3996.07461578
3730,4408.85684817,6.122163321,411672,3552.87830257
3740,4408.85684817,6.138346562,412773,3816.92681459
3750,4408.85684817,6.154676488,413874,3996.07461578
3760,4408.85684817,6.170589452,414975,3996.07461578
3770,4408.85684817,6.188561565,416076,3996.07461578
3780,4408.85684817,6.204214944,417177,3996.07461578
3790,4408.85684817,6.220199753,418278,3996.07461578
3800,4408.85684817,6.23621065,419379,3996.07461578
3810,4408.85684817,6.252419122,420480,3996.07461578
3820,4408.85684817,6.268512128,421581,3996.07461578
3830,4408.85684817,6.284875838,422682,3996.07461578
3840,4408.85684817,6.301024011,423783,3996.07461578
3850,4408.85684817,6.316732129,424884,3996.07461578
3860,4408.85684817,6.334386923,425985,3996.07461578
3870,4408.85684817,6.350437164,427086,3996.07461578
3880,4408.85684817,6.366096958,428187,3996.07461578
3890,4418.61969283,6.382038574,429288,3996.07461578
3900,4408.85684817,6.398702069,430389,3996.07461578
3910,4408.85684817,6.414560722,431490,3996.07461578
3920,4408.85684817,6.430388155,432591,3954.50681227
3930,4408.85684817,6.446034691,433692,4026.4304357
3940,4408.85684817,6.461797977,434793,3996.07461578
3950,4408.85684817,6.479254768,435894,3996.07461578
3960,4408.85684817,6.49516816,436995,3996.07461578
3970,4408.85684817,6.511529732,438096,3996.07461578
3980,4408.85684817,6.527501285,439197,3996.07461578
3990,4408.85684817,6.543650313,440298,3996.07461578
4000,4408.85684817,6.560244955,441399,3996.07461578
4010,4408.85684817,6.576173314,442500,3950.14446179
4020,4408.85684817,6.592117925,443601,3727.43778899
4030,4408.85684817,6.607919272,444702,3996.07461578
4040,4408.85684817,6.625764372,445803,3984.22914393
4050,4408.85684817,6.641453246,446904,3996.07461578
4060,4408.85684817,6.657395718,448005,3996.07461578
4070,4408.85684817,6.674089577,449106,3919.54623674
4080,4408.85684817,6.689971322,450207,3996.07461578
4090,4408.85684817,6.705850929,451308,3996.07461578
4100,4408.85684817,6.721742083,452409,3996.07461578
4110,4408.85684817,6.738330311,453510,3996.07461578
4120,4418.61969283,6.75446095,454611,3996.07461578
4130,4408.85684817,6.77270334,455712,3996.07461578
4140,4408.85684817,6.788789076,456813,3975.35674308
4150,4418.61969283,6.80479869,457914,3996.07461578
4160,4418.61969283,6.821298822,459015,3996.07461578
4170,4408.85684817,6.837135236,460116,3996.07461578
4180,4408.85684817,6.853209426,461217,4026.00351988
4190,4408.85684817,6.869372139,462318,3996.07461578
4200,4408.85684817,6.885650319,463419,3996.07461578
4210,4408.85684817,6.901587232,464520,3996.07461578
4220,4418.61969283,6.919104322,465621,3996.07461578
4230,4417.76303638,6.935383785,466722,3996.07461578
4240,4408.85684817,6.951463534,467823,3996.07461578
4250,4408.85684817,6.967370511,468924,3996.07461578
4260,4408.85684817,6.983432299,470025,3996.07461578
4270,4408.85684817,6.999352961,471126,3996.07461578
4280,4408.85684817,7.015516529,472227,3996.07461578
4290,4408.85684817,7.031178889,473328,3996.07461578
4300,4418.61969283,7.047121361,474429,4020.83302165
4310,4408.85684817,7.062718717,475530,3996.07461578
4320,4408.85684817,7.078563684,476631,3996.07461578
4330,4408.85684817,7.094542507,477732,3964.42806534
4340,4408.85684817,7.110379349,478833,3996.07461578
4350,4408.85684817,7.126198657,479934,3996.07461578
4360,4408.85684817,7.143312043,481035,3910.65675692
4370,4408.85684817,7.159576965,482136,3996.07461578
4380,4408.85684817,7.175807675,483237,4016.18513314
4390,4408.85684817,7.19184808,484338,3946.55780406
4400,4408.85684817,7.207744793,485439,3863.45013697
4410,4408.85684817,7.225518903,486540,3996.07461578
4420,4408.85684817,7.241304854,487641,3996.07461578
4430,4408.85684817,7.257122451,488742,3954.50681227
4440,4408.85684817,7.272955017,489843,4083.4680493
4450,4418.61969283,7.288829065,490944,3996.07461578
4460,4408.85684817,7.304877168,492045,3996.07461578
4470,4408.85684817,7.320765328,493146,3996.07461578
4480,4408.85684817,7.336881855,494247,3966.71755389
4490,4408.85684817,7.35284571,495348,3996.07461578
4500,4408.85684817,7.368947697,496449,3996.07461578
4510,4408.85684817,7.385991375,497550,3906.28790351
4520,4408.85684817,7.401791011,498651,3846.7758992
4530,4408.85684817,7.418146596,499752,3996.07461578
4540,4408.85684817,7.434033474,500853,3996.07461578
4550,4408.85684817,7.449874593,501954,3907.63282709
4560,4408.85684817,7.466335381,503055,3996.07461578
4570,4408.85684817,7.482515201,504156,3811.12124987
4580,4408.85684817,7.498684757,505257,3996.07461578
4590,4418.61969283,7.514520316,506358,3996.07461578
4600,4408.85684817,7.531926644,507459,3364.43677715
4610,4408.85684817,7.548250582,508560,3658.56636181
4620,4408.85684817,7.564940592,509661,3996.07461578
4630,4408.85684817,7.581075508,510762,3996.07461578
4640,4408.85684817,7.596935443,511863,3996.07461578
4650,4408.85684817,7.612921964,512964,3982.47908175
4660,4418.61969283,7.629057307,514065,3996.07461578
4670,4408.85684817,7.645262358,515166,3996.07461578
4680,4408.85684817,7.660985872,516267,3996.07461578
4690,4408.85684817,7.677042528,517368,3996.07461578
4700,4408.85684817,7.693332682,518469,3996.07461578
4710,4418.61969283,7.710357972,519570,3996.07461578
4720,4408.85684817,7.725950624,520671,3996.07461578
4730,4408.85684817,7.742164656,521772,3996.07461578
4740,4418.61969283,7.758389807,522873,3996.07461578
4750,4408.85684817,7.774586733,523974,3996.07461578
4760,4408.85684817,7.790815732,525075,3996.07461578
4770,4408.85684817,7.806752217,526176,3932.31211378
4780,4428.78207445,7.824097391,527277,3996.07461578
4790,4408.85684817,7.840161744,528378,3996.07461578
4800,4408.85684817,7.856152541,529479,3996.07461578
4810,4408.85684817,7.872166431,530580,3996.07461578
4820,4408.92026386,7.88831161,531681,3996.07461578
4830,4408.85684817,7.904523503,532782,3996.07461578
4840,4408.85684817,7.920380444,533883,3996.07461578
4850,4408.85684817,7.936577797,534984,3996.07461578
4860,4408.85684817,7.952726397,536085,3996.07461578
4870,4408.85684817,7.970083972,537186,3996.07461578
4880,4408.85684817,7.986060229,538287,3996.07461578
4890,4408.85684817,8.002635627,539388,3996.07461578
4900,4408.85684817,8.018642247,540489,3996.07461578
4910,4408.85684817,8.034659986,541590,3996.07461578
4920,4408.85684817,8.050823982,542691,4004.94938538
4930,4418.61969283,8.067042291,543792,3996.07461578
4940,4408.85684817,8.0828013,544893,3996.07461578
4950,4408.85684817,8.100960725,545994,3996.07461578
4960,4408.85684817,8.117363352,547095,3996.07461578
4970,4408.85684817,8.133597056,548196,3996.07461578
4980,4408.85684817,8.149753355,549297,3966.14571169
4990,4418.61969283,8.165696255,550398,3996.07461578
