it,funval,time,funcount,weight
0,15869.7875529,0.563789347,999,13612.4449453
10,17631.443633,1.058735986,2100,14647.6884353
20,18051.9120863,1.632755217,3201,14387.6597014
30,18465.803935,2.148188568,4302,15709.5905976
40,18244.0909202,2.666410216,5403,15449.8832329
50,18634.170121,3.096599517,6504,16048.8010973
60,18771.0818681,3.561273464,7605,15044.8507153
70,18757.4416376,4.073108972,8706,14088.9666595
80,19078.9363288,4.538900376,9807,14765.9908778
90,19039.9190714,5.018434833,10908,14906.0640987
100,19085.5348739,5.482109783,12009,15498.1734335
110,19299.7128593,5.931519943,13110,15701.3750637
120,19368.3291792,6.402021088,14211,15929.8090167
130,19399.558224,6.890010671,15312,15922.7610434
140,19399.558224,7.309432955,16413,15181.4756253
150,19399.558224,7.783785114,17514,15937.9355403
160,19405.9024579,8.260500484,18615,15965.7321015
170,19399.558224,8.66578328,19716,15903.0272515
180,19399.558224,9.110283984,20817,15930.5275942
190,19399.558224,9.538386338,21918,15722.754814
200,19406.4114679,9.950798108,23019,15807.857448
210,19399.558224,10.418598626,24120,15757.4084683
220,19399.558224,10.869322536,25221,15687.4146344
230,19402.3587002,11.320689635,26322,15704.2520501
240,19399.558224,11.737599885,27423,15743.1714832
250,19399.558224,12.137007158,28524,15868.6683142
260,19418.8960145,12.52897712,29625,14419.3210664
270,19399.558224,12.937925329,30726,15621.141431
280,19399.558224,13.416308972,31827,15901.214705
290,19415.6380513,13.833527988,32928,15819.043223
300,19399.558224,14.254672002,34029,15713.5292625
310,19399.558224,14.670309557,35130,15948.3880854
320,19399.558224,15.092459839,36231,15643.6220522
330,19399.558224,15.529602348,37332,15607.3500798
340,19399.558224,16.01014179,38433,15252.0715589
350,19399.558224,16.441079911,39534,15564.0738114
360,19399.6764494,16.884304072,40635,15781.6791938
370,19399.558224,17.239021618,41736,16077.4313725
380,19399.558224,17.67252694,42837,15994.8299263
390,19399.558224,18.119337398,43938,15469.0303867
400,19399.558224,18.559973831,45039,15942.8733713
410,19399.558224,19.045507403,46140,15153.6926971
420,19399.558224,19.540928309,47241,15073.9041614
430,19414.5351807,19.911279989,48342,15994.8299263
440,19399.558224,20.328226163,49443,15905.7901286
450,19399.558224,20.791858348,50544,15956.6104943
460,19428.6493027,21.229363934,51645,15932.5564199
470,19399.558224,21.674840543,52746,15994.8299263
480,19399.558224,22.106211876,53847,15827.0376157
490,19399.558224,22.570632653,54948,15951.725452
500,19405.6303525,23.044656375,56049,16142.2312351
510,19399.558224,23.52636673,57150,15146.9618918
520,19399.558224,23.954803509,58251,14004.1107394
530,19399.558224,24.423719345,59352,15893.6962634
540,19399.558224,24.857917464,60453,15860.4252484
550,19403.6104492,25.274280747,61554,15949.1089016
560,19399.558224,25.704105259,62655,15744.6655306
570,19399.558224,26.171794159,63756,15793.5380723
580,19399.558224,26.597542284,64857,15794.3705523
590,19399.558224,27.012673926,65958,15170.9654518
600,19399.558224,27.429687668,67059,15133.7601608
610,19399.558224,27.813204215,68160,15488.0376162
620,19399.558224,28.258297646,69261,15651.2199741
630,19450.8247354,28.682105083,70362,16081.3579744
640,19399.558224,29.100224308,71463,15955.8137715
650,19409.0339218,29.504317374,72564,15994.8299263
660,19399.558224,29.916134279,73665,15758.489053
670,19430.5906656,30.409512288,74766,16037.4037492
680,19426.2008906,30.894917991,75867,15649.984408
690,19401.9489196,31.318259713,76968,15869.8390159
700,19399.558224,31.800496509,78069,15967.8189002
710,19399.558224,32.237381143,79170,15958.618461
720,19408.288388,32.59766288,80271,15994.8299263
730,19399.558224,33.032322437,81372,14919.0850311
740,19399.558224,33.379982855,82473,15654.9638001
750,19401.0992794,33.787252527,83574,15921.504862
760,19399.558224,34.224060611,84675,15752.5408832
770,19399.558224,34.693601247,85776,15283.7897874
780,19399.558224,35.101563288,86877,14722.4805698
790,19399.558224,35.58115334,87978,15944.0376021
800,19432.2587897,35.973944823,89079,15393.774539
810,19404.4497605,36.380698318,90180,15726.4907988
820,19399.558224,36.792594767,91281,15502.5803479
830,19420.6269626,37.193165256,92382,15505.8471319
840,19399.558224,37.628236214,93483,15929.5642432
850,19413.3825324,38.024410859,94584,15126.6921956
860,19399.558224,38.50856525,95685,15927.762417
870,19412.2643628,38.932266628,96786,15979.110072
880,19399.558224,39.326420185,97887,15733.8331073
890,19399.558224,39.705122643,98988,15137.9640413
900,19399.558224,40.1503773,100089,15973.4689958
910,19399.558224,40.581806794,101190,15831.3454049
920,19399.558224,41.02427572,102291,15859.4813
930,19430.9451281,41.440551761,103392,15707.8415026
940,19408.288388,41.908537879,104493,15624.4831453
950,19474.8723266,42.291966757,105594,15908.3210765
960,19399.558224,42.734442098,106695,15877.2634136
970,19406.4114679,43.172275266,107796,15994.8299263
980,19399.558224,43.62803265,108897,15581.9985073
990,19399.558224,44.122070099,109998,15994.8299263
1000,19477.4611227,44.558829003,111099,15577.9557967
1010,19399.558224,44.978814933,112200,15473.0516162
1020,19399.558224,45.393365395,113301,15678.0527107
1030,19399.558224,45.884792023,114402,15850.1033362
1040,19399.558224,46.357465645,115503,15972.0877605
1050,19399.558224,46.845080604,116604,15678.9865697
1060,19399.558224,47.247203046,117705,15877.5266649
1070,19406.1141154,47.670275347,118806,14488.8001142
1080,19402.1777767,48.079160691,119907,15785.4403687
1090,19399.558224,48.475849802,121008,15906.6951252
1100,19419.9984515,48.951880926,122109,15684.6157757
1110,19399.558224,49.416623725,123210,15795.5978869
1120,19399.558224,49.891320573,124311,15956.8886403
1130,19410.6189917,50.310750127,125412,15994.8299263
1140,19426.173057,50.744070702,126513,15790.1356865
1150,19436.3742363,51.189741037,127614,15845.2700629
1160,19399.558224,51.681747135,128715,16029.6883293
1170,19403.89179,52.078915217,129816,15994.8299263
1180,19399.558224,52.517007543,130917,15845.0902305
1190,19422.4085072,52.955932937,132018,14618.4970284
1200,19440.9501399,53.365324194,133119,15748.9444927
1210,19412.2643628,53.787992791,134220,16001.5832971
1220,19399.558224,54.214154457,135321,15859.3586009
1230,19399.558224,54.692430331,136422,15545.9949978
1240,19399.558224,55.10353776,137523,14803.6637101
1250,19471.5786075,55.513156957,138624,15474.7838572
1260,19399.558224,56.011102299,139725,15943.9748693
1270,19399.558224,56.38565182,140826,15985.8135164
1280,19399.558224,56.755706709,141927,15796.3223002
1290,19399.558224,57.194761254,143028,15879.1722595
1300,19399.558224,57.63350575,144129,15956.8886403
1310,19399.558224,58.008997391,145230,15845.9332711
1320,19399.558224,58.470243273,146331,15886.8243919
1330,19405.9579879,58.85482382,147432,15724.9071675
1340,19442.2810062,59.262924849,148533,15960.6201263
1350,19434.8761292,59.67831009,149634,15896.960249
1360,19399.558224,60.083459886,150735,15871.7686699
1370,19399.558224,60.470156032,151836,15194.6421732
1380,19402.3558228,60.979752349,152937,15702.4789018
1390,19399.558224,61.410585267,154038,15708.8757724
1400,19408.288388,61.802960216,155139,15840.7082708
1410,19415.943931,62.232555507,156240,15982.058703
1420,19399.558224,62.629211261,157341,15929.0832829
1430,19399.558224,63.101695433,158442,15972.1191478
1440,19402.5939999,63.480324335,159543,16001.8642397
1450,19399.558224,63.980205661,160644,15411.3041806
1460,19399.558224,64.432109037,161745,15647.4414374
1470,19399.558224,64.833959919,162846,15634.7448916
1480,19412.9526844,65.247929628,163947,14664.6268251
1490,19399.558224,65.621767535,165048,15790.7620147
1500,19401.9607951,66.032595706,166149,15823.7785262
1510,19399.558224,66.418291144,167250,15894.8156481
1520,19399.558224,66.938702803,168351,15820.5284604
1530,19443.3206496,67.295408935,169452,15250.3587423
1540,19399.558224,67.738267453,170553,15994.8299263
1550,19399.558224,68.174857007,171654,15682.391109
1560,19426.381704,68.637833171,172755,15547.4936252
1570,19399.558224,69.038992966,173856,15042.3192258
1580,19399.558224,69.48340985,174957,15983.9860834
1590,19436.4622733,69.89738127,176058,15795.9846002
1600,19399.558224,70.333959277,177159,15663.0014664
1610,19399.558224,70.77447554,178260,15521.9410175
1620,19399.558224,71.264467821,179361,15492.3877768
1630,19399.558224,71.694660115,180462,15625.3810338
1640,19399.558224,72.140124321,181563,15854.6978746
1650,19399.558224,72.554578989,182664,15903.8256338
1660,19399.558224,72.927489316,183765,15501.5361004
1670,19422.8239074,73.284142419,184866,15688.653641
1680,19399.558224,73.667328818,185967,15765.9106262
1690,19399.558224,74.084442204,187068,15878.1900394
1700,19399.558224,74.503597205,188169,15915.6678373
1710,19430.4522061,74.903673328,189270,15559.7284988
1720,19399.558224,75.371325021,190371,15657.3724146
1730,19420.6015387,75.754676066,191472,16068.3338031
1740,19400.8938109,76.167847347,192573,15780.4134489
1750,19399.558224,76.644446822,193674,15883.8517522
1760,19412.2643628,77.029682961,194775,15635.1866823
1770,19438.1929956,77.427903925,195876,15767.7804934
1780,19408.112662,77.906526626,196977,14349.8102987
1790,19399.558224,78.312619824,198078,14932.0435915
1800,19399.558224,78.671675909,199179,15874.3395045
1810,19423.1588752,79.055875418,200280,15910.1502948
1820,19399.558224,79.541929016,201381,15631.0975836
1830,19399.558224,80.044990369,202482,15757.3816626
1840,19399.558224,80.509213998,203583,15712.2189947
1850,19408.0275698,80.954692317,204684,15817.009874
1860,19399.558224,81.383794952,205785,15828.2103538
1870,19399.558224,81.757773557,206886,15824.8834006
1880,19399.558224,82.157493872,207987,15994.8299263
1890,19420.7000954,82.630770912,209088,15833.0576109
1900,19399.558224,83.042116544,210189,15851.7326963
1910,19399.558224,83.499926662,211290,15589.1215027
1920,19399.558224,83.937895824,212391,15329.8108222
1930,19399.558224,84.334588357,213492,15793.5834343
1940,19406.4114679,84.779298612,214593,15703.7246575
1950,19430.0981409,85.192749579,215694,15900.8481364
1960,19432.0750382,85.618468623,216795,14905.0131476
1970,19399.558224,86.093636744,217896,15820.9567317
1980,19412.2643628,86.573639908,218997,15962.6365321
1990,19399.558224,86.983089754,220098,15722.3479663
2000,19428.3017282,87.400342554,221199,15961.0655459
2010,19399.558224,87.882977067,222300,14397.7898609
2020,19427.0792395,88.295035595,223401,15361.6565385
2030,19403.9809353,88.717832915,224502,15457.4645931
2040,19399.558224,89.127745053,225603,15709.1293499
2050,19399.558224,89.571470422,226704,15616.7181033
2060,19399.558224,89.935798612,227805,15362.1584932
2070,19399.558224,90.361211885,228906,15846.4338542
2080,19399.558224,90.838670943,230007,15751.5993234
2090,19411.2084686,91.353808358,231108,15939.4187738
2100,19399.558224,91.796758393,232209,14795.4036851
2110,19399.558224,92.275339184,233310,15994.8299263
2120,19399.558224,92.69701306,234411,15992.9282902
2130,19399.558224,93.128540486,235512,15618.6156005
2140,19403.1912906,93.533445237,236613,16143.7008442
2150,19399.558224,93.99785746,237714,15846.4170841
2160,19408.0070395,94.466653553,238815,15815.2469732
2170,19399.558224,94.917129424,239916,15452.231937
2180,19399.558224,95.358696858,241017,13275.4921927
2190,19406.6988945,95.730984095,242118,15623.2661693
2200,19399.558224,96.232176178,243219,15821.7110493
2210,19424.0758587,96.646514951,244320,15970.5802712
2220,19399.558224,97.122916423,245421,15737.9234834
2230,19399.558224,97.602342684,246522,15118.4517855
2240,19399.558224,98.040278916,247623,16055.0073683
2250,19399.558224,98.528519103,248724,13667.1938838
2260,19414.3536869,98.939496953,249825,15066.5728869
2270,19399.558224,99.40205188,250926,15934.4772357
2280,19399.558224,99.798827377,252027,15994.8299263
2290,19399.558224,100.276962982,253128,15605.9084324
2300,19399.558224,100.704815587,254229,14654.2032995
2310,19429.9415599,101.097587825,255330,15904.1109584
2320,19399.558224,101.476401474,256431,15834.3328287
2330,19413.1914875,101.923690476,257532,15545.5648849
2340,19399.558224,102.411017624,258633,15849.7541278
2350,19399.558224,102.908672589,259734,15929.7359517
2360,19407.1576162,103.321648433,260835,15559.6415945
2370,19399.558224,103.744002277,261936,15474.8767252
2380,19416.263864,104.202029642,263037,15091.6624065
2390,19414.3320699,104.657224235,264138,15569.0690999
2400,19399.558224,105.040036437,265239,15284.4674383
2410,19399.558224,105.499388243,266340,15970.1282993
2420,19399.558224,105.864315574,267441,15884.6519091
2430,19399.558224,106.268148199,268542,15994.8299263
2440,19399.558224,106.65869707,269643,15715.63026
2450,19414.7845373,107.11713712,270744,15785.1432893
2460,19399.558224,107.583779125,271845,15766.8362408
2470,19412.2643628,108.06355093,272946,15656.3288677
2480,19399.558224,108.47166265,274047,15902.5838697
2490,19399.558224,108.849806166,275148,14676.1250124
2500,19399.558224,109.25476865,276249,15705.7779451
2510,19399.558224,109.668246131,277350,15977.8144269
2520,19410.8020217,110.105883862,278451,15187.8891439
2530,19399.558224,110.53733645,279552,16062.3293021
2540,19399.558224,110.967278995,280653,15471.8848269
2550,19399.558224,111.395445497,281754,15714.1940972
2560,19399.558224,111.814528224,282855,15474.1117009
2570,19399.558224,112.212011915,283956,15662.0718303
2580,19399.558224,112.685067859,285057,14671.4631742
2590,19399.558224,113.048142597,286158,13916.6568131
2600,19399.558224,113.510545707,287259,15623.1381399
2610,19399.558224,114.018439966,288360,15478.274147
2620,19399.558224,114.473357439,289461,15766.2761043
2630,19399.558224,114.883665585,290562,15928.2448748
2640,19424.5511021,115.290548659,291663,15871.3809692
2650,19431.487682,115.75975316,292764,15433.7186023
2660,19399.558224,116.174571761,293865,15938.9103029
2670,19399.558224,116.619364125,294966,15082.1801538
2680,19399.558224,117.061843315,296067,16000.49435
2690,19399.558224,117.516603413,297168,15519.9748958
2700,19407.4373666,117.937321058,298269,15910.3881383
2710,19399.558224,118.355692171,299370,15875.4212125
2720,19399.558224,118.821288565,300471,15692.9163939
2730,19399.558224,119.300324807,301572,15855.6165684
2740,19399.558224,119.723709722,302673,15914.2873095
2750,19399.558224,120.186126089,303774,14905.9306851
2760,19399.558224,120.672768564,304875,15769.5748951
2770,19408.288388,121.106486001,305976,15994.8299263
2780,19399.558224,121.578625057,307077,15911.6159289
2790,19399.558224,122.002655728,308178,15938.6057065
2800,19399.558224,122.372587025,309279,15861.4522866
2810,19399.558224,122.891682795,310380,15905.8388229
2820,19399.558224,123.30265423,311481,15720.0087611
2830,19399.558224,123.743221811,312582,16055.191627
2840,19399.558224,124.129666069,313683,15079.1288716
2850,19464.0479904,124.601863713,314784,15560.8125962
2860,19399.558224,124.990744738,315885,15915.5765649
2870,19399.558224,125.387849528,316986,15903.4724072
2880,19399.558224,125.837615923,318087,15531.8322114
2890,19399.558224,126.290957495,319188,15994.8299263
2900,19414.0563833,126.789814593,320289,15795.7877157
2910,19425.6653823,127.272505984,321390,15903.5690707
2920,19438.0141665,127.674889721,322491,15797.1321774
2930,19399.558224,128.17407825,323592,15846.2284953
2940,19399.558224,128.6152856,324693,15671.6373498
2950,19399.558224,129.028246476,325794,15803.5711472
2960,19399.558224,129.470301433,326895,15472.0541005
2970,19399.558224,129.974859999,327996,14622.416368
2980,19399.558224,130.388801056,329097,15918.1859969
2990,19399.558224,130.802152806,330198,15816.138858
3000,19399.558224,131.19684435,331299,14834.6030842
3010,19399.558224,131.580707723,332400,16078.7869208
3020,19399.558224,132.023644501,333501,15895.4258835
3030,19403.767464,132.39638334,334602,15968.2352207
3040,19412.612434,132.834268255,335703,15670.8377178
3050,19412.6258663,133.24088319,336804,15701.2079966
3060,19399.558224,133.714026374,337905,14938.0127942
3070,19433.9924154,134.089208821,339006,16043.1378893
3080,19442.8939125,134.483628806,340107,14779.2688912
3090,19399.558224,134.875147166,341208,12205.4546189
3100,19399.558224,135.266337516,342309,15745.9592338
3110,19399.558224,135.744587304,343410,15999.1444164
3120,19429.9131103,136.18670983,344511,15519.4087737
3130,19399.558224,136.584914971,345612,15994.8299263
3140,19417.1546837,137.024940716,346713,15098.828662
3150,19399.558224,137.488548952,347814,15708.4742681
3160,19412.2643628,137.992368106,348915,15750.3714298
3170,19399.558224,138.426715048,350016,15998.3838921
3180,19429.3580089,138.818563984,351117,15823.9014917
3190,19406.4114679,139.20128638,352218,15856.6579283
3200,19399.558224,139.624541717,353319,15768.1084766
3210,19399.558224,140.018021721,354420,14786.7908792
3220,19425.0753142,140.440293883,355521,15920.0929998
3230,19430.42826,140.837550062,356622,15118.313639
3240,19404.2240754,141.253306078,357723,15994.8299263
3250,19399.558224,141.675273751,358824,16001.6323513
3260,19412.7967749,142.109272584,359925,15942.9545972
3270,19399.558224,142.486390161,361026,15653.0440577
3280,19432.8332845,142.974922863,362127,15860.78733
3290,19399.558224,143.4702762,363228,15544.5383478
3300,19399.558224,143.941667718,364329,15362.4521848
3310,19399.558224,144.404238468,365430,15994.8299263
3320,19399.558224,144.797805285,366531,15967.7140261
3330,19399.558224,145.195190616,367632,15927.2080534
3340,19399.558224,145.59951547,368733,15573.1947415
3350,19399.558224,146.075110389,369834,15844.3527593
3360,19449.1528579,146.469095023,370935,15609.8273626
3370,19408.288388,146.881312211,372036,15179.9757789
3380,19399.558224,147.366882561,373137,15865.3612491
3390,19399.558224,147.805756209,374238,15607.6068171
3400,19361.1240858,148.280163535,375339,15554.7233642
3410,19399.558224,148.696950194,376440,15545.5682568
3420,19399.558224,149.187809755,377541,15840.9292072
3430,19407.1342785,149.5703226,378642,15781.0199438
3440,19405.1471104,149.998516045,379743,15898.2976053
3450,19399.558224,150.414471775,380844,14707.2027811
3460,19443.8902952,150.803008111,381945,15866.2825507
3470,19406.4114679,151.303183235,383046,15291.2348476
3480,19376.3486521,151.775983442,384147,14176.8837608
3490,19399.558224,152.192210731,385248,15704.9540185
3500,19399.558224,152.667738936,386349,15134.7261454
3510,19404.511354,153.094464248,387450,15708.7851042
3520,19399.558224,153.550266108,388551,15954.0012136
3530,19426.0501239,153.974723577,389652,15644.9625245
3540,19411.5316888,154.460151518,390753,15730.2873862
3550,19401.2525443,154.873680745,391854,15856.0773981
3560,19405.4308669,155.323309435,392955,15552.4218306
3570,19412.0001711,155.747101476,394056,15994.8299263
3580,19399.558224,156.190841814,395157,15898.4593624
3590,19399.558224,156.546866695,396258,15412.2508613
3600,19399.558224,156.972513466,397359,15751.5728186
3610,19402.55055,157.38111656,398460,14171.7703709
3620,19424.9463965,157.77307583,399561,15994.8299263
3630,19400.6754113,158.190335046,400662,15631.2104088
3640,19399.558224,158.633732406,401763,15879.0906055
3650,19408.288388,159.100631003,402864,16034.0770581
3660,19408.288388,159.541265726,403965,15436.3099254
3670,19411.6096616,160.067262104,405066,15935.8367468
3680,19399.558224,160.513404568,406167,15268.4649558
3690,19399.558224,160.897595096,407268,15812.3992434
3700,19399.558224,161.341253752,408369,15805.3959825
3710,19427.6030948,161.80432229,409470,14172.0506613
3720,19399.558224,162.17421681,410571,15751.2972301
3730,19406.387722,162.576647162,411672,15914.4120446
3740,19399.558224,163.076014877,412773,15949.4664789
3750,19399.558224,163.508568671,413874,15837.0096328
3760,19399.558224,163.9516748,414975,15609.4692289
3770,19399.558224,164.393143018,416076,15497.3669623
3780,19403.4498984,164.78056318,417177,15997.8321768
3790,19399.558224,165.236981287,418278,15415.7344457
3800,19399.558224,165.657524876,419379,15144.5647611
3810,19399.558224,166.114611405,420480,15633.9462152
3820,19402.7701056,166.57713383,421581,15599.5623865
3830,19406.841872,167.025718192,422682,16035.1388821
3840,19399.558224,167.445204624,423783,15810.1996239
3850,19409.9154325,167.809828321,424884,16233.4681798
3860,19399.558224,168.224268876,425985,16038.1174455
3870,19399.558224,168.658879253,427086,15637.6248655
3880,19433.9924154,169.086309337,428187,15751.4796246
3890,19399.558224,169.540750833,429288,15737.7180446
3900,19399.558224,169.945431494,430389,16039.0911855
3910,19399.558224,170.386493441,431490,15143.470285
3920,19399.558224,170.815800494,432591,15344.4325195
3930,19399.558224,171.31022839,433692,14809.3272128
3940,19408.288388,171.766976219,434793,15330.5162171
3950,19425.2555115,172.149665686,435894,14039.0161858
3960,19399.558224,172.590700692,436995,14934.7414625
3970,19438.3753677,173.046491433,438096,15672.2715795
3980,19404.6508248,173.423581213,439197,16037.5272698
3990,19399.558224,173.809209937,440298,15011.5778161
4000,19399.558224,174.265187134,441399,16085.6736705
4010,19405.5299677,174.765554273,442500,15441.6414702
4020,19399.558224,175.16446162,443601,15451.0373104
4030,19399.558224,175.568735155,444702,15817.3217362
4040,19399.558224,175.992689277,445803,15861.2589134
4050,19399.558224,176.354631163,446904,14179.8321214
4060,19399.558224,176.830334278,448005,15483.2884057
4070,19399.558224,177.317641754,449106,15823.6892541
4080,19421.5096743,177.738611713,450207,15352.5262698
4090,19402.8351046,178.180463535,451308,15336.6119016
4100,19399.558224,178.63387225,452409,15964.5406954
4110,19399.558224,179.041058529,453510,15937.9897561
4120,19399.558224,179.420608168,454611,15145.4653858
4130,19399.558224,179.867000808,455712,15950.3106872
4140,19448.3091302,180.311813271,456813,15687.7106759
4150,19399.558224,180.777282652,457914,15794.421555
4160,19399.558224,181.178129405,459015,15622.4358281
4170,19383.2316208,181.591662908,460116,15669.0737588
4180,19425.5954865,182.034773313,461217,15278.9713913
4190,19412.6888942,182.537290692,462318,15770.9423374
4200,19399.558224,182.951764176,463419,15810.3509168
4210,19420.9450151,183.326224318,464520,15764.7746709
4220,19399.558224,183.811680057,465621,15385.0949151
4230,19406.6481034,184.297719114,466722,15866.9465736
4240,19399.558224,184.662242741,467823,15983.6964545
4250,19399.558224,185.06046456,468924,15956.4727487
4260,19399.558224,185.496130811,470025,15980.2594628
4270,19399.558224,185.9352448,471126,16124.0213692
4280,19399.558224,186.388361,472227,15848.0419513
4290,19399.558224,186.835638027,473328,13939.0060397
4300,19399.558224,187.243077905,474429,15736.6519596
4310,19399.558224,187.664129119,475530,15950.244767
4320,19399.558224,188.067312995,476631,15994.8299263
4330,19399.558224,188.4419164,477732,15501.8454628
4340,19407.7408794,188.889071974,478833,15954.3016876
4350,19399.558224,189.328322811,479934,15994.8299263
4360,19413.6292553,189.827176059,481035,14945.6730051
4370,19399.558224,190.24580804,482136,15747.4974611
4380,19414.9675298,190.719877949,483237,14195.6759746
4390,19399.558224,191.192915076,484338,15170.7658363
4400,19403.1595573,191.609950629,485439,15413.5668028
4410,19399.558224,192.040426457,486540,15926.5652572
4420,19425.7711749,192.549335963,487641,12615.4376735
4430,19412.2643628,192.928764148,488742,14623.1764205
4440,19399.558224,193.348424635,489843,15598.3192796
4450,19399.558224,193.785185677,490944,14863.9480313
4460,19399.558224,194.194532886,492045,15887.3679343
4470,19399.558224,194.598116617,493146,15885.2483364
4480,19399.558224,195.007468103,494247,15586.5528376
4490,19399.558224,195.444995499,495348,15669.8240898
4500,19399.558224,195.841350614,496449,16012.8275359
4510,19399.558224,196.25426231,497550,15881.9234466
4520,19399.558224,196.660243035,498651,15969.3949343
4530,19419.9927752,197.140258174,499752,14880.7108653
4540,19419.7290933,197.553860957,500853,16030.4360667
4550,19406.4114679,197.932425283,501954,15856.6513341
4560,19516.893517,198.334479727,503055,15929.6850724
4570,19399.558224,198.694079358,504156,15954.3617196
4580,19399.558224,199.116286945,505257,15994.8299263
4590,19399.558224,199.516529852,506358,15338.0611128
4600,19399.558224,199.944936267,507459,15420.2254913
4610,19420.7646813,200.335149858,508560,15673.2926029
4620,19399.558224,200.762925058,509661,15795.950581
4630,19399.558224,201.192685423,510762,15994.8299263
4640,19399.558224,201.60133342,511863,14147.2275204
4650,19412.2643628,202.028406842,512964,15994.8299263
4660,19399.558224,202.438835158,514065,15994.8299263
4670,19399.558224,202.912518468,515166,15901.214705
4680,19399.558224,203.467571721,516267,15542.7005202
4690,19399.558224,204.050025978,517368,16050.638312
4700,19399.558224,204.589831696,518469,15898.9477562
4710,19399.558224,205.074850374,519570,15953.2295024
4720,19446.5902489,205.591883575,520671,14582.1851407
4730,19399.558224,206.168449907,521772,15946.4859436
4740,19399.558224,206.662635324,522873,15728.556111
4750,19406.4114679,207.14213172,523974,15994.8299263
4760,19412.1926103,207.586428006,525075,15555.8359577
4770,19404.0509491,208.069559879,526176,15590.9931402
4780,19399.558224,208.590677592,527277,15654.474007
4790,19399.558224,209.103382945,528378,14561.9081965
4800,19399.558224,209.598151253,529479,14481.5657034
4810,19399.558224,210.122859113,530580,14135.2348803
4820,19399.558224,210.613489024,531681,14810.0298275
4830,19405.3229466,211.112126308,532782,15919.531856
4840,19399.558224,211.591190347,533883,15526.909659
4850,19402.3587002,212.005452571,534984,15859.7279962
4860,19399.558224,212.436152917,536085,15230.1364763
4870,19399.558224,212.885068282,537186,15786.4579115
4880,19399.558224,213.325914265,538287,15889.680194
4890,19399.558224,213.73951662,539388,15960.3813578
4900,19405.3156352,214.167387187,540489,15739.1489816
4910,19399.558224,214.646420863,541590,15945.3168608
4920,19399.558224,215.110835652,542691,15916.7976167
4930,19375.9035201,215.548849718,543792,15771.0847511
4940,19399.558224,215.968397732,544893,15724.4462153
4950,19468.6409994,216.442084036,545994,15924.320601
4960,19399.558224,216.839438575,547095,15833.7562783
4970,19399.558224,217.198638351,548196,15327.1784644
4980,19399.558224,217.604149514,549297,15178.9423329
4990,19399.558224,218.061751365,550398,15972.0023945
