it,funval,time,funcount,weight
0,4869.5286979,1.0264000025e-05,10,4531.50950212
10,4989.12111764,2.35210000028e-05,21,4655.0199691
20,5176.85172015,3.42120000596e-05,32,4929.06645845
30,5414.96342733,4.44750000952e-05,43,5154.74150893
40,5548.24537092,5.73040000518e-05,54,5179.79945974
50,5546.2561869,6.92789999448e-05,65,5155.17138784
60,5774.11268296,8.03979999091e-05,76,5493.0015425
70,5990.45152027,9.19449998946e-05,87,5666.03630124
80,6048.06809713,0.000101353999867,98,5725.01289215
90,6354.17574019,0.000110761999849,109,5955.23974364
100,6632.79163774,0.000121452999792,120,6338.84794518
110,6765.50303773,0.000133854999831,131,6415.85238964
120,6901.88279903,0.000142834999906,142,6558.91760453
130,6990.02266622,0.000154380999902,153,6538.14251478
140,7124.06452327,0.000165926999898,164,6685.7173815
150,7266.34333743,0.000177473999884,175,6799.49349086
160,7316.07745025,0.000189020999869,186,6850.99165255
170,7345.96487076,0.000200994999773,197,6920.45107738
180,7398.41941579,0.000213824999832,208,6887.36664498
190,7452.01122588,0.000226226999871,219,7065.73923532
200,7488.58434006,0.000239056999931,230,7096.97018575
210,7488.58434006,0.000250603999916,241,7048.68560491
220,7685.59985868,0.000262149999912,252,7346.05887511
230,7764.65533943,0.000277544999904,263,7491.15543579
240,7792.98336874,0.000289946999942,274,7639.81616569
250,7982.06500537,0.000301921999949,285,7797.00916448
260,8077.61251383,0.000314323999874,296,7858.30946317
270,8089.03536422,0.000325870999973,307,7921.47867694
280,8089.03536422,0.00033912899994,318,7922.37625092
290,8089.03536422,0.000352812999949,329,7880.06997658
300,8095.10296598,0.000365643000009,340,7992.40713845
310,8095.10296598,0.000381039000104,351,7956.71010693
320,8095.10296598,0.00039386800006,362,7904.87163422
330,8095.10296598,0.000417389000063,373,7963.77116117
340,8095.10296598,0.000434067000015,384,7962.13119183
350,8100.98776178,0.000448179000045,395,7903.23083399
360,8100.98776178,0.000461864000044,406,7903.23083399
370,8100.98776178,0.000476404000096,417,7971.17245769
380,8100.98776178,0.000490944000035,428,7959.83057642
390,8100.98776178,0.000504202000002,439,8020.8714921
400,8100.98776178,0.000518314000033,450,8012.47331026
410,8100.98776178,0.000532427000053,461,7898.81457996
420,8100.98776178,0.000548678000087,472,8029.88748658
430,8100.98776178,0.000564502000088,483,7996.0219749
440,8100.98776178,0.000577331000045,494,7924.51522571
450,8100.98776178,0.000591443000076,505,7899.31802191
460,8100.98776178,0.000607266000088,516,8092.18584692
470,8100.98776178,0.00062394400004,527,7996.0219749
480,8100.98776178,0.000636346000078,538,7899.31802191
490,8100.98776178,0.000650031000077,549,8060.13122291
500,8100.98776178,0.00066585400009,560,7960.50922966
510,8100.98776178,0.000678255000139,571,8000.95964653
520,8100.98776178,0.000691512000117,582,7980.76856384
530,8100.98776178,0.000704770000084,593,7973.24132429
540,8100.98776178,0.000718882000115,604,7967.74163463
550,8100.98776178,0.000734278000095,615,7913.12495807
560,8100.98776178,0.000746680000134,626,7992.51492616
570,8100.98776178,0.000759937000112,637,7992.40713845
580,8100.98776178,0.000773622000224,648,7996.0219749
590,8100.98776178,0.000789018000205,659,7996.0219749
600,8100.98776178,0.000803131000225,670,7968.193093
610,8100.98776178,0.000815961000285,681,7932.66250004
620,8100.98776178,0.000830074000305,692,7952.09570122
630,8100.98776178,0.000844614000357,703,7996.0219749
640,8100.98776178,0.000859154000409,714,8024.84025877
650,8100.98776178,0.000872411000387,725,7962.66399626
660,8100.98776178,0.00088737900046,736,7906.80798956
670,8100.98776178,0.000901919000512,747,7992.40713845
680,8100.98776178,0.000916031000543,758,7996.0219749
690,8100.98776178,0.000930571000595,769,7993.06321272
700,8100.98776178,0.000945111000647,780,7962.00086867
710,8100.98776178,0.000960934000659,791,7861.61901889
720,8100.98776178,0.000975902000619,802,8036.81265515
730,8100.98776178,0.00098915900071,813,7960.2686003
740,8100.98776178,0.00100498300071,824,7961.47675912
750,8100.98776178,0.00101952300065,835,7983.62083429
760,8100.98776178,0.00103320800065,846,7996.0219749
770,8100.98776178,0.00104817600072,857,7974.24793994
780,8100.98776178,0.00106314400068,868,8035.34049747
790,8100.98776178,0.00107725700059,879,7895.948039
800,8100.98776178,0.00109308100059,890,8044.02095392
810,8100.98776178,0.00111360800054,901,8053.65854264
820,8100.98776178,0.00113071400051,912,7996.0219749
830,8100.98776178,0.00114653700041,923,7871.57307841
840,8100.98776178,0.00116321600046,934,7807.38980006
850,8100.98776178,0.00117818400054,945,7933.56007402
860,8100.98776178,0.00119229600045,956,7973.24132429
870,8100.98776178,0.00121068500039,967,8092.18584692
880,8100.98776178,0.00122650800029,978,7996.0219749
890,8100.98776178,0.00124190400027,989,7975.05151
900,8100.98776178,0.00125901000035,1000,7960.50922966
910,8100.98776178,0.00127440600045,1011,7827.38208542
920,8100.98776178,0.00128809100045,1022,7974.05883806
930,8100.98776178,0.00130348600044,1033,7981.17744372
940,8100.98776178,0.00131802600038,1044,7952.09570122
950,8100.98776178,0.0013321390004,1055,7957.59931824
960,8100.98776178,0.00134796200041,1066,7967.98489474
970,8100.98776178,0.00136250200035,1077,7894.89533006
980,8100.98776178,0.00137747000031,1088,7996.0219749
990,8100.98776178,0.00139457600028,1099,7996.0219749
1000,8100.98776178,0.00141125400035,1110,7927.97976245
1010,8100.98776178,0.00142579400028,1121,8020.56280309
1020,8100.98776178,0.00144290100025,1132,7915.98099358
1030,8100.98776178,0.00145829600024,1143,7996.0219749
1040,8100.98776178,0.00147283600029,1154,7887.72052667
1050,8100.98776178,0.00148908700032,1165,7920.36543581
1060,8100.98776178,0.0015044830003,1176,7920.36543581
1070,8100.98776178,0.00152116100037,1187,7996.0219749
1080,8122.05353006,0.00153655600036,1198,7905.99692331
1090,8122.05353006,0.00155024100036,1209,8026.96494187
1100,8122.05353006,0.00156948600034,1220,7997.50135599
1110,8122.05353006,0.00158659200031,1231,7984.20585131
1120,8122.05353006,0.00160113200025,1242,7997.50135599
1130,8122.05353006,0.00161909300016,1253,7997.50135599
1140,8122.05353006,0.00163406100023,1264,7951.74112282
1150,8122.05353006,0.00165031200027,1275,8031.1502862
1160,8122.05353006,0.00167468800032,1286,7997.50135599
1170,8122.05353006,0.00169307700037,1297,7990.27168309
1180,8122.05353006,0.00171061100036,1308,7963.48024976
1190,8122.05353006,0.00173156600033,1319,7997.50135599
1200,8122.05353006,0.00174910000032,1330,7997.50135599
1210,8122.05353006,0.00176663300033,1341,8061.610604
1220,8122.05353006,0.00178074600035,1352,7976.83921373
1230,8122.05353006,0.00179614100034,1363,7931.61194547
1240,8122.05353006,0.00181196400035,1374,7924.79874708
1250,8122.05353006,0.00182693200031,1385,7951.74112282
1260,8122.05353006,0.00184147200036,1396,7982.12247808
1270,8122.05353006,0.00185686800046,1407,7937.47061999
1280,8122.05353006,0.00187055300046,1418,7950.55403318
1290,8122.05353006,0.00188680400049,1429,7997.50135599
1300,8122.05353006,0.00190091700051,1440,7991.26689883
1310,8122.05353006,0.00191674000041,1451,7945.68353232
1320,8122.05353006,0.00193042500041,1462,7997.50135599
1330,8122.05353006,0.00194496500035,1473,7969.53342857
1340,8122.05353006,0.00195907700038,1484,7967.12715518
1350,8122.05353006,0.00197404500045,1495,7957.11637466
1360,8122.05353006,0.00198815700048,1506,7953.57508231
1370,8122.05353006,0.00200098700054,1517,7958.76080034
1380,8122.05353006,0.00201424400052,1528,8074.80452124
1390,8122.05353006,0.00202921200059,1539,7878.51069841
1400,8122.05353006,0.00204460800057,1550,7856.02722486
1410,8122.05353006,0.00206342400054,1561,7976.53089109
1420,8122.05353006,0.00207924800054,1572,7997.50135599
1430,8122.05353006,0.00209464400052,1583,7985.66377424
1440,8122.05353006,0.00211003900051,1594,7856.02722486
1450,8122.05353006,0.00212543500049,1605,7967.12715518
1460,8122.05353006,0.00214083100047,1616,7897.42742009
1470,8122.05353006,0.00215793700045,1627,7873.0524595
1480,8122.05353006,0.00217504300042,1638,7982.65682481
1490,8122.05353006,0.00219214900039,1649,7930.20349556
1500,8122.05353006,0.00220754400038,1660,7936.48771177
1510,8122.05353006,0.00222379500042,1671,7997.50135599
1520,8122.05353006,0.0022391910004,1682,7993.88651954
1530,8122.05353006,0.00225587000034,1693,8022.17835902
1540,8122.05353006,0.00227126600032,1704,7997.50135599
1550,8122.05353006,0.00228666100031,1715,7994.87106944
1560,8122.05353006,0.00230120200035,1726,7892.73318077
1570,8122.05353006,0.00231659800033,1737,8039.44228578
1580,8122.05353006,0.00233156600029,1748,7997.50135599
1590,8122.05353006,0.00234696200027,1759,7997.50135599
1600,8122.05353006,0.00236193000023,1770,7882.23338603
1610,8122.05353006,0.00237775300025,1781,7835.9614307
1620,8122.05353006,0.00239357700025,1792,7967.75369159
1630,8122.05353006,0.00240940000026,1803,7997.50135599
1640,8122.05353006,0.00242479500025,1814,7997.50135599
1650,8122.05353006,0.00244019000024,1825,8036.81987856
1660,8122.05353006,0.00245815100027,1836,7997.50135599
1670,8122.05353006,0.00247098100022,1847,7930.08359276
1680,8122.05353006,0.00248680400023,1858,7997.50135599
1690,8122.05353006,0.00250305500026,1869,8014.43411183
1700,8122.05353006,0.00251674000026,1880,7997.50135599
1710,8122.05353006,0.00253128000031,1891,7927.95148372
1720,8122.05353006,0.00254496500031,1902,8154.18783797
1730,8122.05353006,0.00255907800033,1913,7925.70134703
1740,8122.05353006,0.00257276300033,1924,7976.62969456
1750,8122.05353006,0.00258687500025,1935,7889.19990776
1760,8122.05353006,0.00260056000025,1946,7876.34641202
1770,8122.05353006,0.00261638300026,1957,8045.50033501
1780,8122.05353006,0.00263434500027,1968,7997.50135599
1790,8122.05353006,0.00264974000027,1979,7997.50135599
1800,8122.05353006,0.00266470800022,1990,7896.69913898
1810,8122.05353006,0.0026796760003,2001,7954.02047291
1820,8122.05353006,0.00269507200028,2012,7997.50135599
1830,8122.05353006,0.00271004000035,2023,7997.50135599
1840,8122.05353006,0.00272372500035,2034,7932.17925113
1850,8122.05353006,0.00273912100033,2045,7997.50135599
1860,8122.05353006,0.00275494400034,2056,8009.90249659
1870,8122.05353006,0.00276948400028,2067,7994.53947833
1880,8122.05353006,0.00278359600031,2078,7951.74112282
1890,8122.05353006,0.00279856400027,2089,8058.68737637
1900,8122.05353006,0.00281353200023,2100,7997.50135599
1910,8122.05353006,0.00282678900021,2111,8075.84459698
1920,8122.05353006,0.00283919100025,2122,7997.50135599
1930,8122.05353006,0.00286741600019,2133,7952.50320131
1940,8122.05353006,0.00288580500023,2144,7972.96052779
1950,8122.05353006,0.00290504900033,2155,7950.96816562
1960,8122.05353006,0.00292001700041,2166,7997.50135599
1970,8122.05353006,0.00293284600036,2177,7997.50135599
1980,8122.05353006,0.00294610300034,2188,7888.92716056
1990,8122.05353006,0.00295893300029,2199,8029.18109341
2000,8122.05353006,0.00297261800029,2210,8046.13434328
2010,8122.05353006,0.00298502000032,2221,7972.65183878
2020,8122.05353006,0.00300084300034,2232,8030.4040267
2030,8122.05353006,0.00301495600036,2243,7997.50135599
2040,8122.05353006,0.0030277860003,2254,8083.9562076
2050,8122.05353006,0.00304104300039,2265,7996.18995685
2060,8122.05353006,0.00305472800039,2276,7852.73576209
2070,8122.05353006,0.00306713000032,2287,7997.50135599
2080,8122.05353006,0.0030842360004,2298,8112.77449147
2090,8122.05353006,0.0030996320005,2309,7953.04436524
2100,8122.05353006,0.00311588300042,2320,7962.95614021
2110,8122.05353006,0.00313042300036,2331,7984.20585131
2120,8122.05353006,0.00314496300041,2342,7953.04436524
2130,8122.05353006,0.00315993100037,2353,7976.62969456
2140,8122.05353006,0.00317489900044,2364,7938.48701179
2150,8122.05353006,0.0031898670004,2375,7973.26964209
2160,8122.05353006,0.0032035520004,2386,7912.81959308
2170,8122.05353006,0.00321681000037,2397,8021.4346923
2180,8122.05353006,0.00323434300037,2408,7971.79512366
2190,8122.05353006,0.00324931000034,2419,7953.95328608
2200,8122.05353006,0.00326513300035,2430,8026.96494187
2210,8122.05353006,0.00328010100031,2441,7889.19990776
2220,8122.05353006,0.00329335900028,2452,7958.88874071
2230,8122.05353006,0.00330790000021,2463,7997.50135599
2240,8122.05353006,0.00332244100014,2474,8002.43902762
2250,8122.05353006,0.00333655300017,2485,7963.79247437
2260,8122.05353006,0.00335323200022,2496,7938.57418421
2270,8122.05353006,0.00336606200028,2507,7992.25575944
2280,8122.05353006,0.00338060300032,2518,7997.50135599
2290,8122.05353006,0.0033955710004,2529,7994.54259381
2300,8122.05353006,0.00340882800037,2540,8039.44228578
2310,8122.05353006,0.00342336800043,2551,7977.10601586
2320,8122.05353006,0.00343491500041,2562,7927.70157043
2330,8122.05353006,0.00344774400048,2573,8036.15293861
2340,8122.05353006,0.00346057400043,2584,7927.95148372
2350,8122.05353006,0.00347383100041,2595,7997.50135599
2360,8122.05353006,0.00349050900047,2606,7961.40087324
2370,8122.05353006,0.0035046210005,2617,7873.0524595
2380,8122.05353006,0.0035225830004,2628,7927.65590584
2390,8122.05353006,0.0035362680004,2639,7997.50135599
2400,8122.05353006,0.00355038100042,2650,7952.89436332
2410,8122.05353006,0.0035657770004,2661,7990.34236167
2420,8122.05353006,0.00357988900043,2672,7941.56550115
2430,8122.05353006,0.00359528400043,2683,7993.56715858
2440,8122.05353006,0.00360683000042,2694,7995.52677088
2450,8122.05353006,0.0036179490005,2705,7989.93236933
2460,8122.05353006,0.00363120700047,2716,7994.87106944
2470,8122.05353006,0.00364446400044,2727,7992.25575944
2480,8122.05353006,0.0036590040005,2738,8023.20758831
2490,8122.05353006,0.00367397200046,2749,7993.99430725
2500,8122.05353006,0.00368765700046,2760,7997.50135599
2510,8122.05353006,0.00370134200045,2771,7973.56801967
2520,8122.05353006,0.00371459900043,2782,8030.4040267
2530,8122.05353006,0.00373213300043,2793,7964.14337735
2540,8122.05353006,0.00375266000049,2804,7966.57097568
2550,8122.05353006,0.00377276000052,2815,7938.48701179
2560,8122.05353006,0.00379457100053,2826,7913.59757373
2570,8122.05353006,0.00381167800049,2837,7905.51872594
2580,8122.05353006,0.00383092200047,2848,8005.72702367
2590,8122.05353006,0.0038493120004,2859,7879.54578826
2600,8122.05353006,0.00386641800037,2870,7950.34331228
2610,8122.05353006,0.00388181400035,2881,7997.50135599
2620,8122.05353006,0.00390063100042,2892,7925.11855904
2630,8122.05353006,0.00391859200045,2903,8014.76862881
2640,8122.05353006,0.00393527100039,2914,7997.50135599
2650,8122.05353006,0.00395366000032,2925,8043.49267101
2660,8122.05353006,0.00397033800027,2936,7974.62524782
2670,8122.05353006,0.0039882990003,2947,7913.18141125
2680,8122.05353006,0.0040118200003,2958,8014.76862881
2690,8122.05353006,0.0040297820002,2969,7955.56244134
2700,8122.05353006,0.00405073700017,2980,7997.50135599
2710,8122.05353006,0.00407083600021,2991,7993.56715858
2720,8122.05353006,0.00409521200015,3002,7945.69953751
2730,8122.05353006,0.00411317400005,3013,7904.16468362
2740,8122.05353006,0.00413327400008,3024,7937.47061999
2750,8122.05353006,0.00415251900006,3035,7925.9946068
2760,8122.05353006,0.00417133600001,3046,7985.10021538
2770,8122.05353006,0.00419100800002,3057,7958.18283341
2780,8122.05353006,0.00421624000001,3068,8075.84459698
2790,8122.05353006,0.00423334599998,3079,7997.50135599
2800,8122.05353006,0.0042495969999,3090,7949.50237696
2810,8122.05353006,0.00426798599995,3101,7938.0060272
2820,8122.05353006,0.00429150699995,3112,7995.52677088
2830,8122.05353006,0.00431032300003,3123,7966.27040555
2840,8122.05353006,0.00432913899999,3134,7972.69907478
2850,8122.05353006,0.00434667299999,3145,8010.79686066
2860,8122.05353006,0.00436805599998,3156,7961.74798139
2870,8122.05353006,0.00438558999997,3167,7997.50135599
2880,8122.05353006,0.00440526199998,3178,7994.54259381
2890,8122.05353006,0.00442536100002,3189,7872.57755423
2900,8122.05353006,0.004444605,3200,8031.2102376
2910,8122.05353006,0.00446384899999,3211,7935.64059538
2920,8122.05353006,0.00448352099988,3222,7997.50135599
2930,8122.05353006,0.00450575899981,3233,7896.55456535
2940,8122.05353006,0.00452158199982,3244,7976.99618544
2950,8122.05353006,0.00453911599982,3255,7972.65183878
2960,8122.05353006,0.00455493899983,3266,7997.50135599
2970,8122.05353006,0.00457332799976,3277,7920.65604268
2980,8122.05353006,0.00459000599983,3288,7963.48024976
2990,8122.05353006,0.00460711199992,3299,7952.89436332
3000,8122.05353006,0.00462379099997,3310,7904.16468362
3010,8122.05353006,0.00463961399998,3321,7997.50135599
3020,8122.05353006,0.00465843100005,3332,7912.66033517
3030,8122.05353006,0.00467724800012,3343,8145.04519349
3040,8122.05353006,0.00469478200012,3354,7976.02437303
3050,8122.05353006,0.0047118880002,3365,7991.41458224
3060,8122.05353006,0.00473327100019,3376,8022.17835902
3070,8122.05353006,0.00474952200022,3387,7878.51069841
3080,8122.05353006,0.00476791100027,3398,8058.68737637
3090,8122.05353006,0.00478587300029,3409,7957.09423048
3100,8122.05353006,0.00480212300033,3420,7801.2231179
3110,8122.05353006,0.00483034800027,3431,7870.47871163
3120,8122.05353006,0.00485044700031,3442,7878.0894747
3130,8122.05353006,0.00487011900032,3453,7959.07869933
3140,8122.05353006,0.00489107400028,3464,7997.50135599
3150,8122.05353006,0.00491245600028,3475,7997.50135599
3160,8122.05353006,0.00493084500033,3486,7873.0524595
3170,8122.05353006,0.00495094500036,3497,7949.03295005
3180,8122.05353006,0.00496976100032,3508,7972.65183878
3190,8122.05353006,0.00498601200036,3519,7956.41717138
3200,8122.05353006,0.00500354600035,3530,7997.50135599
3210,8122.05353006,0.00502364600038,3541,7903.80850467
3220,8122.05353006,0.0050398970003,3552,7997.50135599
3230,8122.05353006,0.0050578590002,3563,7983.18336735
3240,8122.05353006,0.00507753100021,3574,7949.63468335
3250,8122.05353006,0.00509420900016,3585,7966.27040555
3260,8122.05353006,0.00511430900008,3596,7908.28737065
3270,8122.05353006,0.00513398100009,3607,7967.75369159
3280,8122.05353006,0.00515450800003,3618,7997.50135599
3290,8122.05353006,0.00517589100002,3629,7963.90061699
3300,8122.05353006,0.00519470799998,3640,8056.42852776
3310,8122.05353006,0.00521352499993,3651,7927.08037178
3320,8122.05353006,0.00523576299997,3662,7997.50135599
3330,8122.05353006,0.00525586200001,3673,7963.85242577
3340,8122.05353006,0.00527596200004,3684,8108.15923411
3350,8122.05353006,0.00529435099997,3695,7980.2287481
3360,8122.05353006,0.00533155699998,3706,7997.50135599
3370,8122.05353006,0.0053576439999,3717,8031.36686767
3380,8122.05353006,0.00537859899998,3728,7997.50135599
3390,8122.05353006,0.00539741499995,3739,7899.36223694
3400,8122.05353006,0.00542008100001,3750,8023.73857155
3410,8122.05353006,0.00545258200009,3761,7951.80663112
3420,8122.05353006,0.00547524800004,3772,7957.11637466
3430,8122.05353006,0.00549577600009,3783,7901.50339793
3440,8122.05353006,0.00551630300004,3794,7987.14928971
3450,8122.05353006,0.00553597500004,3805,7973.19950725
3460,8122.05353006,0.00555693000013,3816,7904.43497525
3470,8122.05353006,0.00557874000015,3827,7900.29396105
3480,8122.05353006,0.0056014060001,3838,7984.03231415
3490,8122.05353006,0.00562150500014,3849,8145.04519349
3500,8122.05353006,0.00564844700023,3860,7992.55317893
3510,8122.05353006,0.00567154000021,3871,7973.70333498
3520,8122.05353006,0.00569206700027,3882,8022.17835902
3530,8122.05353006,0.00571473200023,3893,7957.09423048
3540,8122.05353006,0.0057356870002,3904,7976.83921373
3550,8122.05353006,0.00576091900018,3915,7997.50135599
3560,8122.05353006,0.00578144600024,3926,7997.50135599
3570,8122.05353006,0.00580667700024,3937,7935.27690774
3580,8122.05353006,0.00582763200032,3948,7972.65183878
3590,8122.05353006,0.00584858700029,3959,7992.32532285
3600,8122.05353006,0.00586954200026,3970,7997.50135599
3610,8122.05353006,0.0058922080002,3981,7890.2412322
3620,8122.05353006,0.00591872200027,3992,7955.44573576
3630,8122.05353006,0.00594352600035,4003,7927.65590584
3640,8122.05353006,0.00596619100031,4014,8021.73306988
3650,8122.05353006,0.00598500800027,4025,7997.50135599
3660,8122.05353006,0.00600510800029,4036,7925.3003905
3670,8122.05353006,0.00602606300026,4047,7879.54578826
3680,8122.05353006,0.00604872800022,4058,7942.2366781
3690,8122.05353006,0.00606840000023,4069,7997.50135599
3700,8122.05353006,0.00608850000026,4080,7957.11637466
3710,8122.05353006,0.00610774500035,4091,8108.15923411
3720,8122.05353006,0.00612356800025,4102,8038.82564049
3730,8122.05353006,0.00613768000028,4113,7997.50135599
3740,8122.05353006,0.00615521400039,4124,7997.50135599
3750,8122.05353006,0.00617745200032,4135,8030.4040267
3760,8122.05353006,0.0061988350003,4146,7931.61194547
3770,8122.05353006,0.00621765100027,4157,7997.50135599
3780,8122.05353006,0.00623689600036,4168,7997.50135599
3790,8122.05353006,0.0062591340004,4179,7987.60500187
3800,8122.05353006,0.00627752300045,4190,7955.44573576
3810,8122.05353006,0.00629249100041,4201,7946.08889134
3820,8122.05353006,0.00630917000035,4212,7963.48024976
3830,8122.05353006,0.00632884200036,4223,7997.50135599
3840,8122.05353006,0.00634894200039,4234,7973.19950725
3850,8122.05353006,0.00636861400039,4245,7997.50135599
3860,8122.05353006,0.00638999600039,4256,7946.08889134
3870,8122.05353006,0.00641052300045,4267,7885.62964631
3880,8122.05353006,0.0064310510005,4278,8075.84459698
3890,8122.05353006,0.00644986800046,4289,7997.50135599
3900,8122.05353006,0.00647338900046,4300,7997.50135599
3910,8122.05353006,0.00649263300056,4311,7950.15102901
3920,8122.05353006,0.00651358800053,4322,7909.96585175
3930,8122.05353006,0.00653197700046,4333,7879.47266759
3940,8122.05353006,0.00655164900047,4344,7997.50135599
3950,8122.05353006,0.00657046600043,4355,7966.27040555
3960,8122.05353006,0.00659227600033,4366,8013.95269135
3970,8122.05353006,0.00661066500038,4377,7961.40087324
3980,8122.05353006,0.00663033700039,4388,7997.50135599
3990,8122.05353006,0.00664958100037,4399,7908.2583628
4000,8122.05353006,0.00666882500036,4410,7945.68353232
4010,8122.05353006,0.00668806900035,4421,7997.50135599
4020,8122.05353006,0.00670816800039,4432,7994.53947833
4030,8122.05353006,0.00672955000039,4443,7997.50135599
4040,8122.05353006,0.00675093300038,4454,8020.97501739
4050,8122.05353006,0.00678001300037,4465,7987.14928971
4060,8122.05353006,0.00679797400039,4476,8014.43411183
4070,8122.05353006,0.00681807300032,4487,7987.24877071
4080,8122.05353006,0.00683988300034,4498,7973.56801967
4090,8122.05353006,0.00685784400036,4509,7910.53958983
4100,8122.05353006,0.00687794400039,4520,7997.50135599
4110,8122.05353006,0.00689889900036,4531,7983.18336735
4120,8122.05353006,0.0069211370004,4542,7935.61244351
4130,8122.05353006,0.00694166500045,4553,7997.50135599
4140,8122.05353006,0.00696262000042,4564,7966.27040555
4150,8122.05353006,0.00698143700049,4575,7986.3871083
4160,8122.05353006,0.0070011090005,4586,7950.55403318
4170,8122.05353006,0.00701992500046,4597,7997.50135599
4180,8122.05353006,0.00704088000055,4608,7997.50135599
4190,8122.05353006,0.00705884200056,4619,7808.86918115
4200,8122.05353006,0.00707637600055,4630,7992.56368435
4210,8122.05353006,0.00709262700059,4641,7945.68353232
4220,8122.05353006,0.00710973300056,4652,8002.67738912
4230,8122.05353006,0.00712427400049,4663,7955.44573576
4240,8122.05353006,0.00713881400043,4674,7884.3799949
4250,8122.05353006,0.00715677500034,4685,7934.14188113
4260,8122.05353006,0.00717302600037,4696,7997.50135599
4270,8122.05353006,0.00718885000038,4707,7989.93236933
4280,8122.05353006,0.00720424500037,4718,8036.81987856
4290,8122.05353006,0.00722562800036,4729,7993.99430725
4300,8122.05353006,0.00724487300033,4740,8033.25473058
4310,8122.05353006,0.00725941300038,4751,7997.50135599
4320,8122.05353006,0.00727822900046,4762,7929.45914354
4330,8122.05353006,0.0072949080004,4773,7997.50135599
4340,8122.05353006,0.00730987600048,4784,7997.50135599
4350,8122.05353006,0.00732997600051,4795,8023.20758831
4360,8122.05353006,0.00734708200048,4806,7975.53821915
4370,8122.05353006,0.0073671810004,4817,8042.49951066
4380,8122.05353006,0.00738770800035,4828,7924.79874708
4390,8122.05353006,0.00740609700028,4839,7903.80850467
4400,8122.05353006,0.00742576900029,4850,8038.29203624
4410,8122.05353006,0.00744330300029,4861,7966.99453388
4420,8122.05353006,0.00746083700028,4872,7965.82161856
4430,8122.05353006,0.00748093600021,4883,7976.95926368
4440,8122.05353006,0.00749846900021,4894,7948.89765852
4450,8122.05353006,0.00751685900025,4905,7949.03295005
4460,8122.05353006,0.00753225400024,4916,7951.13477447
4470,8122.05353006,0.00754765000022,4927,7974.72070538
4480,8122.05353006,0.00756261800029,4938,7913.59757373
4490,8122.05353006,0.00758186300027,4949,7966.27040555
4500,8122.05353006,0.00759939700026,4960,7943.62518865
4510,8122.05353006,0.00761821400022,4971,7856.02722486
4520,8122.05353006,0.00764045200015,4982,7967.75369159
4530,8122.05353006,0.00766097900009,4993,7864.06944145
4540,8122.05353006,0.00768492700013,5004,7915.33298677
4550,8122.05353006,0.00770502600017,5015,7878.0894747
4560,8122.05353006,0.0077251260002,5026,7914.60433916
4570,8122.05353006,0.0077426590002,5037,7997.50135599
4580,8122.05353006,0.00775848200021,5048,7943.62518865
4590,8122.05353006,0.00777687100026,5059,7843.0508949
4600,8122.05353006,0.00779568800033,5070,7962.96681033
4610,8122.05353006,0.00781835400028,5081,7952.50320131
4620,8122.05353006,0.00783930900025,5092,8021.73306988
4630,8122.05353006,0.00785855400022,5103,7997.50135599
4640,8122.05353006,0.00789747000022,5114,7985.23094189
4650,8122.05353006,0.0079184250003,5125,7965.44673198
4660,8122.05353006,0.00793724200037,5136,7955.56042619
4670,8122.05353006,0.00796247300036,5147,7997.50135599
4680,8122.05353006,0.00798342800033,5158,7994.87855771
4690,8122.05353006,0.0080043830003,5169,8002.43902762
4700,8122.05353006,0.00802362700028,5180,7935.03945511
4710,8122.05353006,0.00804287100027,5191,7896.55456535
4720,8122.05353006,0.00806425300027,5202,7987.14928971
4730,8122.05353006,0.00808392500028,5213,8013.95269135
4740,8122.05353006,0.00810488000036,5224,7949.03792819
4750,8122.05353006,0.00812498000028,5235,7997.50135599
4760,8122.05353006,0.00814636300038,5246,8017.89669611
4770,8122.05353006,0.00816560700036,5257,7937.47061999
4780,8122.05353006,0.00818570600029,5268,7990.34236167
4790,8122.05353006,0.00821136500019,5279,8022.17835902
4800,8122.05353006,0.00823403000015,5290,7900.2353814
4810,8122.05353006,0.00825199200017,5301,7997.50135599
4820,8122.05353006,0.00827294700014,5312,7997.50135599
4830,8122.05353006,0.00829561300009,5323,7989.90780578
4840,8122.05353006,0.00831400200002,5334,7997.50135599
4850,8122.05353006,0.00833367400003,5345,7986.3871083
4860,8122.05353006,0.00835548500004,5356,7967.22540937
4870,8122.05353006,0.00837772299997,5367,7921.8448169
4880,8122.05353006,0.00839867799993,5378,7924.79874708
4890,8122.05353006,0.00841920499988,5389,7822.43034752
4900,8122.05353006,0.00843930399981,5400,7948.43179646
4910,8122.05353006,0.00845983099975,5411,8014.76862881
4920,8122.05353006,0.00848206899968,5422,7903.80850467
4930,8122.05353006,0.00850216899971,5433,7975.00227865
4940,8122.05353006,0.00852312399979,5444,7935.64059538
4950,8122.05353006,0.00854707299982,5455,7966.55689975
4960,8122.05353006,0.00856973799978,5466,8056.42852776
4970,8122.05353006,0.00859069299975,5477,7985.10021538
4980,8122.05353006,0.00861250299977,5488,7937.79541534
4990,8122.05353006,0.00863174699975,5499,7997.50135599
