it,funval,time,funcount,weight
0,4166.52404783,0.024492537,999,3610.65326323
10,4383.64721202,0.043819882,2100,3772.25058235
20,4409.76811903,0.062786716,3201,3959.71173748
30,4385.50398189,0.07917523,4302,3959.71173748
40,4385.50398189,0.095766452,5403,3959.71173748
50,4363.4384069,0.112221252,6504,3959.71173748
60,4404.39046032,0.128143197,7605,3959.71173748
70,4404.39046032,0.144202846,8706,3959.71173748
80,4375.96048518,0.160299274,9807,3793.44052344
90,4372.0384141,0.176559919,10908,3959.71173748
100,4363.4384069,0.194675296,12009,3959.71173748
110,4370.18164423,0.210226893,13110,3959.71173748
120,4364.43350025,0.226517047,14211,3959.71173748
130,4363.4384069,0.242161873,15312,3959.71173748
140,4375.96048518,0.258276262,16413,3959.71173748
150,4376.82421934,0.274145605,17514,3959.71173748
160,4373.92503781,0.290171469,18615,3959.71173748
170,4408.76385473,0.306051504,19716,3959.71173748
180,4373.61089558,0.323790546,20817,3959.71173748
190,4363.4384069,0.33949225,21918,3959.71173748
200,4378.77313911,0.35536416,23019,3959.71173748
210,4365.29517677,0.371597437,24120,3959.71173748
220,4378.77313911,0.387921803,25221,3959.71173748
230,4373.20125157,0.404043034,26322,3959.71173748
240,4369.82175438,0.420465332,27423,3959.71173748
250,4375.89706948,0.438469947,28524,3959.71173748
260,4363.4384069,0.454673715,29625,3959.71173748
270,4363.4384069,0.472817316,30726,3959.71173748
280,4363.4384069,0.488519448,31827,3959.71173748
290,4376.07362844,0.504923786,32928,3959.71173748
300,4408.76385473,0.521091204,34029,3832.23039905
310,4363.4384069,0.537077724,35130,3959.71173748
320,4367.5755746,0.552906868,36231,3959.71173748
330,4404.39046032,0.569025533,37332,3959.71173748
340,4363.4384069,0.584969288,38433,3959.71173748
350,4365.42859359,0.600992586,39534,3959.71173748
360,4365.29517677,0.618747451,40635,3959.71173748
370,4363.4384069,0.634993129,41736,3809.02160169
380,4376.82421934,0.65135299,42837,3873.16615625
390,4365.93802829,0.667172299,43938,3959.71173748
400,4396.76475986,0.682765378,45039,3959.71173748
410,4369.82175438,0.698872497,46140,3959.71173748
420,4375.96048518,0.715308053,47241,3959.71173748
430,4396.76475986,0.731747458,48342,3959.71173748
440,4403.88899982,0.747835332,49443,3959.71173748
450,4376.07362844,0.766056338,50544,3959.71173748
460,4396.76475986,0.782115132,51645,3959.71173748
470,4373.92503781,0.798454038,52746,3959.71173748
480,4376.07362844,0.814275057,53847,3959.71173748
490,4370.18164423,0.83017348,54948,3959.71173748
500,4364.43350025,0.846244248,56049,3959.71173748
510,4363.4384069,0.862331695,57150,3959.71173748
520,4363.4384069,0.878901961,58251,3888.99140013
530,4375.96048518,0.894740941,59352,3999.257771
540,4378.77313911,0.914398434,60453,3959.71173748
550,4363.4384069,0.930954588,61554,3959.71173748
560,4364.43350025,0.947515874,62655,3959.71173748
570,4396.76475986,0.963684575,63756,3959.71173748
580,4363.4384069,0.979990552,64857,3959.71173748
590,4363.4384069,0.997282696,65958,3959.71173748
600,4363.4384069,1.013325239,67059,3959.71173748
610,4363.4384069,1.029353242,68160,3959.71173748
620,4363.4384069,1.04513791,69261,3959.71173748
630,4398.82015072,1.061235192,70362,3908.11949264
640,4373.92503781,1.079522913,71463,3959.71173748
650,4376.82421934,1.095998241,72564,3959.71173748
660,4376.07362844,1.111801726,73665,3959.71173748
670,4365.42859359,1.127736073,74766,3959.71173748
680,4364.27161403,1.144317458,75867,3959.71173748
690,4363.4384069,1.160289011,76968,3959.71173748
700,4396.76475986,1.176728416,78069,3959.71173748
710,4363.4384069,1.192871885,79170,3959.71173748
720,4402.03222995,1.209011077,80271,3959.71173748
730,4364.27161403,1.224882986,81372,3959.71173748
740,4363.4384069,1.242659661,82473,3959.71173748
750,4364.43350025,1.259192722,83574,3959.71173748
760,4408.76385473,1.275745882,84675,3959.71173748
770,4365.10482116,1.291493772,85776,3959.71173748
780,4363.4384069,1.30743881,86877,3959.71173748
790,4369.82175438,1.323397961,87978,3935.21283306
800,4363.4384069,1.339242928,89079,3959.71173748
810,4363.4384069,1.355499298,90180,3959.71173748
820,4363.4384069,1.372045189,91281,3762.67191641
830,4408.76385473,1.387813178,92382,3959.71173748
840,4403.88899982,1.405954641,93483,3959.71173748
850,4408.76385473,1.42210709,94584,3959.71173748
860,4376.07362844,1.437984131,95685,3959.71173748
870,4378.77313911,1.453719619,96786,3959.71173748
880,4376.73027661,1.469844271,97887,3762.45685082
890,4403.88899982,1.48639957,98988,3959.71173748
900,4363.4384069,1.502177824,100089,3959.71173748
910,4363.4384069,1.518151515,101190,3959.71173748
920,4375.89706948,1.534233402,102291,3959.71173748
930,4378.77313911,1.550302459,103392,3959.71173748
940,4363.4384069,1.566139301,104493,3959.71173748
950,4363.4384069,1.583581124,105594,3959.71173748
960,4376.82421934,1.599712191,106695,3959.71173748
970,4396.76475986,1.615741477,107796,3959.71173748
980,4363.4384069,1.631954225,108897,3959.71173748
990,4363.4384069,1.648031836,109998,3959.71173748
1000,4403.88899982,1.663695479,111099,3959.71173748
1010,4403.88899982,1.679921057,112200,3959.71173748
1020,4374.75824494,1.696294175,113301,3959.71173748
1030,4374.75824494,1.712387181,114402,4048.38386447
1040,4398.12491781,1.728593087,115503,3984.47014335
1050,4365.93802829,1.745930136,116604,3959.71173748
1060,4373.20125157,1.761823,117705,3959.71173748
1070,4365.10482116,1.777581581,118806,3959.71173748
1080,4363.4384069,1.793826403,119907,3959.71173748
1090,4403.88899982,1.809763743,121008,3959.71173748
1100,4363.4384069,1.826055608,122109,3959.71173748
1110,4365.29517677,1.842530509,123210,3959.71173748
1120,4375.96048518,1.858684242,124311,3959.71173748
1130,4363.4384069,1.874912814,125412,3959.71173748
1140,4363.4384069,1.892481651,126513,3959.71173748
1150,4365.10482116,1.908865034,127614,3959.71173748
1160,4363.4384069,1.92466296,128715,3860.49523029
1170,4378.77313911,1.940721753,129816,3959.71173748
1180,4379.60634624,1.956562871,130917,3959.71173748
1190,4363.4384069,1.97266443,132018,3959.71173748
1200,4375.89706948,1.988417025,133119,3959.71173748
1210,4404.39046032,2.004383874,134220,3959.71173748
1220,4363.4384069,2.020741597,135321,3959.71173748
1230,4363.4384069,2.036468104,136422,3959.71173748
1240,4403.88899982,2.054183625,137523,3959.71173748
1250,4403.88899982,2.070350615,138624,3959.71173748
1260,4363.4384069,2.086606129,139725,3959.71173748
1270,4363.4384069,2.102615742,140826,3959.71173748
1280,4418.52669939,2.118561208,141927,3959.71173748
1290,4376.82421934,2.134761127,143028,3959.71173748
1300,4376.07362844,2.150969171,144129,3959.71173748
1310,4378.77313911,2.166814138,145230,3959.71173748
1320,4408.76385473,2.18251798,146331,3959.71173748
1330,4404.39046032,2.200675267,147432,3959.71173748
1340,4408.76385473,2.216696855,148533,3888.56432335
1350,4424.13847539,2.232956218,149634,3855.45064995
1360,4363.4384069,2.248996195,150735,3959.71173748
1370,4396.76475986,2.265258551,151836,3959.71173748
1380,4365.42859359,2.281380637,152937,3959.71173748
1390,4363.4384069,2.29760365,154038,3959.71173748
1400,4376.07362844,2.313259595,155139,3959.71173748
1410,4376.82421934,2.329151177,156240,3959.71173748
1420,4373.92503781,2.347423502,157341,3959.71173748
1430,4373.20125157,2.363241527,158442,3959.71173748
1440,4408.76385473,2.379582999,159543,3959.71173748
1450,4404.39046032,2.39562041,160644,3959.71173748
1460,4387.36063871,2.411682197,161745,3959.71173748
1470,4363.4384069,2.427531013,162846,3959.71173748
1480,4363.4384069,2.443700996,163947,3959.71173748
1490,4369.82175438,2.460021086,165048,3959.71173748
1500,4364.43350025,2.475611599,166149,3959.71173748
1510,4408.76385473,2.492174168,167250,3959.71173748
1520,4370.18164423,2.5097584,168351,3959.71173748
1530,4363.4384069,2.525348486,169452,3959.71173748
1540,4365.42859359,2.541612981,170553,3959.71173748
1550,4394.14630551,2.55778553,171654,3959.71173748
1560,4408.76385473,2.573642043,172755,3959.71173748
1570,4376.82421934,2.589539184,173856,3959.71173748
1580,4373.92503781,2.605612518,174957,3959.71173748
1590,4363.4384069,2.621800891,176058,3959.71173748
1600,4363.4384069,2.63758727,177159,3984.5275948
1610,4403.88899982,2.654904219,178260,3959.71173748
1620,4364.27161403,2.671366717,179361,3959.71173748
1630,4404.39046032,2.687116317,180462,3959.71173748
1640,4408.76385473,2.703459073,181563,3959.71173748
1650,4370.18164423,2.719706889,182664,3959.71173748
1660,4403.88899982,2.73544366,183765,3959.71173748
1670,4364.43350025,2.751285206,184866,3959.71173748
1680,4363.4384069,2.767116061,185967,3959.71173748
1690,4376.07362844,2.783129951,187068,3959.71173748
1700,4363.4384069,2.79934441,188169,3959.71173748
1710,4396.76475986,2.81735886,189270,3959.71173748
1720,4378.77313911,2.833415943,190371,3959.71173748
1730,4363.4384069,2.850131184,191472,3959.71173748
1740,4373.20125157,2.866673653,192573,3959.71173748
1750,4363.4384069,2.882685405,193674,3959.71173748
1760,4363.4384069,2.898585967,194775,3959.71173748
1770,4408.76385473,2.915044616,195876,3658.30571448
1780,4404.39046032,2.931702124,196977,3959.71173748
1790,4363.4384069,2.94775493,198078,3959.71173748
1800,4363.4384069,2.963647367,199179,3959.71173748
1810,4373.20125157,2.979574871,200280,3959.71173748
1820,4363.4384069,2.997225817,201381,3959.71173748
1830,4373.92503781,3.012965582,202482,3959.71173748
1840,4408.76385473,3.029460154,203583,3959.71173748
1850,4367.5755746,3.045193932,204684,3959.71173748
1860,4381.57726998,3.061114594,205785,4014.91085022
1870,4365.29517677,3.077115227,206886,3959.71173748
1880,4363.4384069,3.093787275,207987,3959.71173748
1890,4364.43350025,3.110024827,209088,3959.71173748
1900,4363.4384069,3.126247839,210189,3959.71173748
1910,4363.91263737,3.142556382,211290,3959.71173748
1920,4363.4384069,3.160649093,212391,3959.71173748
1930,4376.07362844,3.176595414,213492,3971.55720934
1940,4373.92503781,3.192477587,214593,3959.71173748
1950,4408.76385473,3.208257979,215694,3959.71173748
1960,4364.27161403,3.225417123,216795,3959.71173748
1970,4363.4384069,3.241649116,217896,3959.71173748
1980,4408.76385473,3.257255453,218997,3959.71173748
1990,4363.4384069,3.273167989,220098,3959.71173748
2000,4375.89706948,3.288796992,221199,3959.71173748
2010,4369.82175438,3.306911514,222300,3959.71173748
2020,4378.77313911,3.322837308,223401,3959.71173748
2030,4363.4384069,3.339712492,224502,3959.71173748
2040,4363.4384069,3.356021463,225603,3959.71173748
2050,4404.39046032,3.372012259,226704,3959.71173748
2060,4375.96048518,3.388692432,227805,3959.71173748
2070,4373.20125157,3.404406537,228906,3959.71173748
2080,4363.4384069,3.420325488,230007,3959.71173748
2090,4397.81286863,3.43688207,231108,3959.71173748
2100,4373.20125157,3.452506796,232209,3959.71173748
2110,4369.33010341,3.470345909,233310,3959.71173748
2120,4364.43350025,3.486760509,234411,3978.77228818
2130,4375.89706948,3.503461638,235512,3959.71173748
2140,4396.76475986,3.519427204,236613,3959.71173748
2150,4408.76385473,3.53568785,237714,3959.71173748
2160,4365.93802829,3.551397679,238815,3959.71173748
2170,4365.42859359,3.567660463,239916,3959.71173748
2180,4373.92503781,3.583598231,241017,3959.71173748
2190,4364.43350025,3.599789169,242118,3959.71173748
2200,4363.4384069,3.616454802,243219,3959.71173748
2210,4363.4384069,3.634208812,244320,3959.71173748
2220,4363.4384069,3.650443371,245421,3114.66745785
2230,4365.42859359,3.666764744,246522,3959.71173748
2240,4376.82421934,3.682338151,247623,3959.71173748
2250,4375.96048518,3.698157032,248724,3959.71173748
2260,4373.20125157,3.714477549,249825,3959.71173748
2270,4363.4384069,3.730872478,250926,3959.71173748
2280,4396.76475986,3.747136545,252027,3959.71173748
2290,4373.92503781,3.76329883,253128,3926.29545901
2300,4363.4384069,3.779698463,254229,3959.71173748
2310,4373.92503781,3.797473428,255330,3959.71173748
2320,4375.96048518,3.813277769,256431,3959.71173748
2330,4363.4384069,3.829508907,257532,3959.71173748
2340,4376.07362844,3.845604479,258633,3959.71173748
2350,4404.39046032,3.861351514,259734,3959.71173748
2360,4373.92503781,3.877228127,260835,3959.71173748
2370,4382.13940192,3.893729969,261936,3959.71173748
2380,4363.4384069,3.909837515,263037,3959.71173748
2390,4365.42859359,3.926011775,264138,3959.71173748
2400,4373.20125157,3.945049599,265239,3959.71173748
2410,4363.4384069,3.960911672,266340,3959.71173748
2420,4363.4384069,3.977018362,267441,3959.71173748
2430,4404.39046032,3.993434246,268542,3959.71173748
2440,4404.39046032,4.010028033,269643,2831.94876299
2450,4404.39046032,4.025858032,270744,3959.71173748
2460,4413.18425512,4.041964723,271845,3999.85324469
2470,4404.39046032,4.057982034,272946,3999.85324469
2480,4404.39046032,4.074005332,274047,3530.0886392
2490,4363.4384069,4.091530975,275148,3959.71173748
2500,4403.88899982,4.107094119,276249,3959.71173748
2510,4375.96048518,4.123113997,277350,3959.71173748
2520,4395.3780423,4.139304935,278451,3959.71173748
2530,4363.4384069,4.155380407,279552,3959.71173748
2540,4363.4384069,4.171516178,280653,3959.71173748
2550,4363.91263737,4.187497994,281754,3959.71173748
2560,4385.37632096,4.203421222,282855,3927.96978023
2570,4403.88899982,4.219147302,283956,3959.71173748
2580,4363.4384069,4.236805945,285057,3959.71173748
2590,4367.5755746,4.252605581,286158,3959.71173748
2600,4376.82421934,4.268506999,287259,3959.71173748
2610,4375.89706948,4.284605137,288360,3959.71173748
2620,4376.07362844,4.300740908,289461,3872.35998226
2630,4363.4384069,4.316521727,290562,3959.71173748
2640,4363.4384069,4.333005608,291663,3959.71173748
2650,4375.89706948,4.349563473,292764,3959.71173748
2660,4375.89706948,4.365705659,293865,3959.71173748
2670,4363.4384069,4.383558884,294966,3959.71173748
2680,4373.92503781,4.39934569,296067,3959.71173748
2690,4365.10482116,4.415123943,297168,3959.71173748
2700,4363.4384069,4.430756367,298269,3959.71173748
2710,4376.82421934,4.447128202,299370,3959.71173748
2720,4363.4384069,4.463427337,300471,3959.71173748
2730,4404.39046032,4.479369809,301572,3959.71173748
2740,4363.91263737,4.494960323,302673,3959.71173748
2750,4363.91263737,4.510606431,303774,3959.71173748
2760,4363.4384069,4.528328794,304875,3959.71173748
2770,4363.4384069,4.544487658,305976,3959.71173748
2780,4373.92503781,4.560395917,307077,3959.71173748
2790,4404.39046032,4.57657146,308178,3959.71173748
2800,4370.18164423,4.592678578,309279,3959.71173748
2810,4375.96048518,4.608529104,310380,3959.71173748
2820,4363.4384069,4.624709779,311481,3959.71173748
2830,4365.10482116,4.64037556,312582,3959.71173748
2840,4367.5755746,4.656632357,313683,3959.71173748
2850,4365.29517677,4.672658649,314784,3959.71173748
2860,4403.88899982,4.690611518,315885,3959.71173748
2870,4363.4384069,4.706559978,316986,3959.71173748
2880,4365.93802829,4.723816199,318087,3959.71173748
2890,4363.91263737,4.739641494,319188,3959.71173748
2900,4378.77313911,4.756039844,320289,3959.71173748
2910,4365.10482116,4.771638911,321390,3959.71173748
2920,4364.43350025,4.787414171,322491,3959.71173748
2930,4365.42859359,4.803632052,323592,3805.80994532
2940,4364.27161403,4.819850361,324693,3959.71173748
2950,4378.77313911,4.837910571,325794,3959.71173748
2960,4375.96048518,4.854100654,326895,3959.71173748
2970,4363.4384069,4.870215043,327996,3959.71173748
2980,4370.18164423,4.886279823,329097,3959.71173748
2990,4376.07362844,4.902145745,330198,3959.71173748
3000,4376.82421934,4.917890213,331299,3959.71173748
3010,4378.77313911,4.933584219,332400,3959.71173748
3020,4363.4384069,4.949439022,333501,3959.71173748
3030,4408.76385473,4.96525106,334602,3959.71173748
3040,4375.96048518,4.981282056,335703,3959.71173748
3050,4390.39433158,4.998365506,336804,3959.71173748
3060,4367.5755746,5.01445167,337905,3959.71173748
3070,4378.77313911,5.03079357,339006,3984.66338653
3080,4363.4384069,5.047015299,340107,3959.71173748
3090,4363.4384069,5.063026624,341208,3959.71173748
3100,4365.42859359,5.079241511,342309,3959.71173748
3110,4363.4384069,5.095198096,343410,3959.71173748
3120,4373.92503781,5.111392883,344511,3959.71173748
3130,4381.77500403,5.127429866,345612,3959.71173748
3140,4365.42859359,5.145378885,346713,3083.23453645
3150,4369.82175438,5.16160874,347814,3959.71173748
3160,4363.4384069,5.177710299,348915,3959.71173748
3170,4376.82421934,5.19375327,350016,3959.71173748
3180,4363.4384069,5.209483626,351117,3980.61100469
3190,4363.4384069,5.22572289,352218,3959.71173748
3200,4368.32487437,5.241708983,353319,3959.71173748
3210,4363.4384069,5.257855018,354420,3959.71173748
3220,4363.4384069,5.273536195,355521,3959.71173748
3230,4363.4384069,5.291800394,356622,3971.55720934
3240,4363.4384069,5.307393901,357723,3883.18335844
3250,4396.75458011,5.323036161,358824,3959.71173748
3260,4367.5755746,5.338974356,359925,3959.71173748
3270,4363.4384069,5.354994233,361026,3959.71173748
3280,4365.42859359,5.370491518,362127,3959.71173748
3290,4363.4384069,5.386799633,363228,3488.52910595
3300,4363.4384069,5.402529562,364329,3959.71173748
3310,4408.76385473,5.419917501,365430,3959.71173748
3320,4363.4384069,5.435534102,366531,3959.71173748
3330,4363.4384069,5.451921761,367632,3959.71173748
3340,4363.4384069,5.467854825,368733,3925.89317028
3350,4363.4384069,5.484146262,369834,3959.71173748
3360,4369.82175438,5.500032711,370935,3959.71173748
3370,4405.77078735,5.515733131,372036,3959.71173748
3380,4363.4384069,5.532085295,373137,3959.71173748
3390,4363.4384069,5.548375022,374238,3959.71173748
3400,4363.4384069,5.566650769,375339,3959.71173748
3410,4376.82421934,5.582544488,376440,3959.71173748
3420,4367.5755746,5.599018105,377541,3959.71173748
3430,4375.96048518,5.61519707,378642,3909.58731977
3440,4363.4384069,5.630843179,379743,3959.71173748
3450,4363.4384069,5.646520079,380844,3959.71173748
3460,4363.4384069,5.662798259,381945,3959.71173748
3470,4363.4384069,5.679111078,383046,3959.71173748
3480,4363.4384069,5.694932524,384147,3959.71173748
3490,4363.4384069,5.712910197,385248,3959.71173748
3500,4363.4384069,5.72938638,386349,3959.71173748
3510,4363.4384069,5.74568637,387450,3959.71173748
3520,4379.94448889,5.761973102,388551,3959.71173748
3530,4408.76385473,5.777419925,389652,3959.71173748
3540,4370.18164423,5.793805018,390753,3959.71173748
3550,4378.77313911,5.809584982,391854,3989.26911314
3560,4363.4384069,5.825865728,392955,3959.71173748
3570,4403.88899982,5.84183557,394056,3907.63964044
3580,4378.77313911,5.86017247,395157,3959.71173748
3590,4375.96048518,5.876316367,396258,3969.49742478
3600,4363.4384069,5.892097187,397359,3959.71173748
3610,4396.76475986,5.907972946,398460,3959.71173748
3620,4364.43350025,5.924098454,399561,3959.71173748
3630,4365.93802829,5.939789038,400662,3959.71173748
3640,4388.20165237,5.956005208,401763,3959.71173748
3650,4394.14630551,5.972055449,402864,3959.71173748
3660,4394.14630551,5.988259644,403965,3959.71173748
3670,4378.77313911,6.004202544,405066,3959.71173748
3680,4408.76385473,6.021855628,406167,3868.46688329
3690,4363.4384069,6.03835747,407268,3959.71173748
3700,4376.82421934,6.054583476,408369,3959.71173748
3710,4365.10482116,6.07095189,409470,3959.71173748
3720,4365.93802829,6.08699144,410571,3959.71173748
3730,4363.4384069,6.103490716,411672,3959.71173748
3740,4378.77313911,6.119325848,412773,4038.80380452
3750,4363.4384069,6.134949291,413874,3959.71173748
3760,4364.27161403,6.150933673,414975,3959.71173748
3770,4363.4384069,6.168578632,416076,3959.71173748
3780,4367.5755746,6.184469786,417177,3959.71173748
3790,4413.57247795,6.200682107,418278,3959.71173748
3800,4408.76385473,6.216772547,419379,3959.71173748
3810,4363.4384069,6.23274025,420480,3959.71173748
3820,4363.4384069,6.24890168,421581,3959.71173748
3830,4373.20125157,6.264873233,422682,3959.71173748
3840,4376.82421934,6.280447924,423783,3959.71173748
3850,4365.42859359,6.296290325,424884,3959.71173748
3860,4365.93802829,6.312049762,425985,3959.71173748
3870,4365.29517677,6.330044113,427086,3959.71173748
3880,4373.92503781,6.346039614,428187,3959.71173748
3890,4408.76385473,6.362150582,429288,3959.71173748
3900,4363.4384069,6.378417215,430389,3959.71173748
3910,4363.4384069,6.394402453,431490,3959.71173748
3920,4375.89706948,6.410524111,432591,3854.08202173
3930,4363.4384069,6.426366085,433692,3959.71173748
3940,4363.4384069,6.442425306,434793,3959.71173748
3950,4374.96991962,6.458626509,435894,3959.71173748
3960,4403.88899982,6.475122792,436995,3959.71173748
3970,4378.77313911,6.491312447,438096,3959.71173748
3980,4363.4384069,6.510246352,439197,3959.71173748
3990,4363.4384069,6.525810351,440298,3927.83048648
4000,4364.27161403,6.542656454,441399,3959.71173748
4010,4363.4384069,6.558867064,442500,3959.71173748
4020,4376.82421934,6.57481424,443601,3959.71173748
4030,4367.5755746,6.590613021,444702,3959.71173748
4040,4363.4384069,6.606232188,445803,3959.71173748
4050,4363.4384069,6.622058339,446904,3916.58169532
4060,4365.10482116,6.638250988,448005,3959.71173748
4070,4408.76385473,6.654110923,449106,3959.71173748
4080,4364.43350025,6.671843977,450207,3959.71173748
4090,4365.10482116,6.687767204,451308,3959.71173748
4100,4363.4384069,6.703702834,452409,3959.71173748
4110,4408.76385473,6.719826631,453510,3959.71173748
4120,4373.20125157,6.735944013,454611,3959.71173748
4130,4370.18164423,6.752097318,455712,3959.71173748
4140,4365.10482116,6.768280986,456813,3959.71173748
4150,4365.10482116,6.7838916,457914,3959.71173748
4160,4376.07362844,6.800015825,459015,3959.71173748
4170,4363.4384069,6.815942046,460116,3959.71173748
4180,4365.10482116,6.831646744,461217,3940.27671492
4190,4363.4384069,6.84963468,462318,3959.71173748
4200,4383.40154559,6.865571165,463419,3959.71173748
4210,4376.82421934,6.881621834,464520,3959.71173748
4220,4363.4384069,6.897949621,465621,3959.71173748
4230,4376.82421934,6.913680833,466722,3959.71173748
4240,4378.77313911,6.929755878,467823,3959.71173748
4250,4373.20125157,6.945684665,468924,3959.71173748
4260,4404.39046032,6.961545028,470025,3959.71173748
4270,4363.4384069,6.977543523,471126,3959.71173748
4280,4363.4384069,6.993610015,472227,3959.71173748
4290,4369.82175438,7.012411774,473328,3959.71173748
4300,4375.96048518,7.029112902,474429,3959.71173748
4310,4369.82175438,7.045013892,475530,3959.71173748
4320,4400.68413174,7.061132557,476631,3959.71173748
4330,4376.82421934,7.077559988,477732,3959.71173748
4340,4400.78189882,7.093035463,478833,3959.71173748
4350,4365.93802829,7.10910281,479934,3959.71173748
4360,4363.4384069,7.124973009,481035,3911.27094542
4370,4363.4384069,7.141046771,482136,3917.51633689
4380,4370.18164423,7.156936214,483237,3959.71173748
4390,4375.89706948,7.17535779,484338,3959.71173748
4400,4376.82421934,7.191477738,485439,3959.71173748
4410,4410.2723473,7.207422776,486540,3889.82115164
4420,4369.82175438,7.224027682,487641,3959.71173748
4430,4378.77313911,7.240152335,488742,3959.71173748
4440,4376.07362844,7.25654983,489843,3959.71173748
4450,4363.4384069,7.272946897,490944,3959.71173748
4460,4378.77313911,7.289265704,492045,3959.71173748
4470,4363.4384069,7.305626848,493146,3959.71173748
4480,4376.82421934,7.321490204,494247,3959.71173748
4490,4375.89706948,7.339550413,495348,3959.71173748
4500,4378.77313911,7.355452258,496449,3959.71173748
4510,4373.20125157,7.371524737,497550,3959.71173748
4520,4364.43350025,7.387860222,498651,3959.71173748
4530,4363.4384069,7.403888653,499752,3959.71173748
4540,4363.4384069,7.419924781,500853,3959.71173748
4550,4363.4384069,7.436361192,501954,3959.71173748
4560,4368.98999366,7.452468738,503055,3959.71173748
4570,4363.4384069,7.468610497,504156,3929.78283339
4580,4371.67852425,7.48658988,505257,3959.71173748
4590,4363.4384069,7.502414748,506358,3959.71173748
4600,4404.39046032,7.518130991,507459,3959.71173748
4610,4369.82175438,7.534241103,508560,3959.71173748
4620,4376.43471564,7.549813655,509661,3959.71173748
4630,4373.92503781,7.565661616,510762,3959.71173748
4640,4375.96048518,7.581537802,511863,3959.71173748
4650,4396.76475986,7.597591464,512964,3959.71173748
4660,4375.96048518,7.614015045,514065,3959.71173748
4670,4396.76475986,7.631949097,515166,3959.71173748
4680,4363.4384069,7.6482632,516267,3966.85353926
4690,4365.93802829,7.665560049,517368,3959.71173748
4700,4363.4384069,7.681507653,518469,3959.71173748
4710,4363.4384069,7.697391536,519570,3959.71173748
4720,4408.76385473,7.713424243,520671,3959.71173748
4730,4363.91263737,7.729769136,521772,3959.71173748
4740,4365.93802829,7.745600418,522873,3959.71173748
4750,4408.76385473,7.762208318,523974,3959.71173748
4760,4388.59570671,7.779753633,525075,3959.71173748
4770,4403.88899982,7.795970658,526176,3959.71173748
4780,4365.10482116,7.812341639,527277,3959.71173748
4790,4365.42859359,7.828507346,528378,3959.71173748
4800,4363.4384069,7.844206056,529479,3959.71173748
4810,4365.93802829,7.860275969,530580,3959.71173748
4820,4408.76385473,7.876131628,531681,3997.83283887
4830,4365.10482116,7.891952647,532782,3959.71173748
4840,4363.4384069,7.910106085,533883,3959.71173748
4850,4376.07362844,7.925977567,534984,3959.71173748
4860,4363.4384069,7.942137714,536085,3959.71173748
4870,4363.4384069,7.958379544,537186,3959.71173748
4880,4376.07362844,7.975464277,538287,3959.71173748
4890,4413.65184448,7.991227135,539388,3959.71173748
4900,4363.4384069,8.007100328,540489,3959.71173748
4910,4404.39046032,8.02335798,541590,3959.71173748
4920,4408.76385473,8.041422038,542691,3959.71173748
4930,4376.07362844,8.057185751,543792,3959.71173748
4940,4363.4384069,8.073025159,544893,3959.71173748
4950,4365.42859359,8.089109612,545994,3959.71173748
4960,4375.89706948,8.105161563,547095,3995.24815304
4970,4363.4384069,8.122056419,548196,3959.71173748
4980,4411.17168326,8.137974942,549297,3959.71173748
4990,4363.91263737,8.153812211,550398,3959.71173748
