it,funval,time,funcount,weight
0,7427.49359393,0.090568757,999,6918.21851853
10,8286.0967681,0.16552519,2100,7662.27792101
20,8411.82332585,0.234297762,3201,7680.90278494
30,8585.13984933,0.300997073,4302,7882.26896767
40,8607.82986613,0.361058784,5403,7965.99051469
50,8616.95200105,0.418423287,6504,7940.45500639
60,8656.38857139,0.47517026,7605,7575.64233689
70,8642.55211668,0.53079165,8706,7940.45500639
80,8638.46409257,0.586154311,9807,7557.39575929
90,8642.55211668,0.645198208,10908,7165.46959069
100,8649.23709096,0.713651323,12009,7937.99482224
110,8636.81587925,0.769496804,13110,7970.9618285
120,8600.56913848,0.826231375,14211,7940.45500639
130,8637.13529223,0.881638084,15312,7940.45500639
140,8640.27670133,0.939544424,16413,7940.45500639
150,8635.1254547,0.995264174,17514,7977.34096577
160,8640.27670133,1.051655768,18615,7990.96663217
170,8615.15390606,1.106716506,19716,7940.45500639
180,8668.64856216,1.164619425,20817,7940.45500639
190,8638.46409257,1.223022697,21918,7839.06288581
200,8635.1254547,1.278290846,23019,7940.45500639
210,8656.38857139,1.333943882,24120,7894.70279005
220,8687.24068574,1.389319372,25221,7969.27329026
230,8619.04570061,1.445304268,26322,6214.66444879
240,8635.1254547,1.501014611,27423,7940.45500639
250,8626.41377676,1.557733786,28524,7940.45500639
260,8638.46409257,1.613883328,29625,7678.34051861
270,8642.55211668,1.669571432,30726,7936.52080898
280,8607.92973765,1.724911426,31827,7940.45500639
290,8628.88004622,1.779170314,32928,7940.45500639
300,8628.88004622,1.833723428,34029,7940.45500639
310,8638.46409257,1.888471552,35130,7838.94105269
320,8652.69555129,1.943800855,36231,7940.45500639
330,8625.83919225,1.99825347,37332,7940.45500639
340,8624.32206119,2.053094821,38433,7940.45500639
350,8630.38966295,2.108863751,39534,7940.45500639
360,8628.88004622,2.163628553,40635,7940.45500639
370,8628.88004622,2.219403471,41736,7940.45500639
380,8619.04570061,2.274697279,42837,7530.27478516
390,8636.81587925,2.329586527,43938,7896.90693649
400,8630.38966295,2.384304287,45039,7976.64640487
410,8625.0000887,2.439138796,46140,7940.45500639
420,8606.14604153,2.494059264,47241,7940.45500639
430,8642.55211668,2.549611802,48342,7891.85130892
440,8612.07371491,2.608223769,49443,7910.60203607
450,8640.76935988,2.663429481,50544,7940.45500639
460,8651.01982839,2.718299486,51645,7909.52462609
470,8648.27097814,2.774641899,52746,7968.08734533
480,8641.23629933,2.832231348,53847,7968.08734533
490,8659.48681261,2.887439198,54948,7968.08734533
500,8641.19305646,2.943394586,56049,7968.08734533
510,8696.8296834,2.997729168,57150,7968.08734533
520,8646.89504628,3.05310081,58251,7906.97595673
530,8635.1254547,3.107180939,59352,7968.08734533
540,8696.8296834,3.162227991,60453,7968.08734533
550,8652.4565586,3.217179249,61554,7714.51088803
560,8638.95030392,3.271723382,62655,7968.08734533
570,8665.97756905,3.327001794,63756,7968.08734533
580,8682.99322869,3.381781564,64857,7968.08734533
590,8682.99322869,3.437234031,65958,7968.08734533
600,8660.95542649,3.492934965,67059,8029.97625781
610,8693.7961177,3.548440889,68160,7968.08734533
620,8653.32825999,3.605926846,69261,7968.08734533
630,8651.86894469,3.660349953,70362,7968.08734533
640,8677.25699126,3.716089376,71463,7968.08734533
650,8672.53285836,3.770243061,72564,7968.08734533
660,8657.21496685,3.825486406,73665,7891.24203203
670,8689.06083045,3.880559973,74766,7917.70989235
680,8671.67419785,3.937123483,75867,7988.62943764
690,8641.05973158,3.992464761,76968,7888.04636401
700,8652.81802265,4.048307248,78069,7702.41070999
710,8640.76935988,4.102477612,79170,7968.08734533
720,8666.28030426,4.158590803,80271,7968.08734533
730,8657.21496685,4.213250829,81372,7875.29620443
740,8656.19122298,4.267956615,82473,7910.16461603
750,8696.8296834,4.322608516,83574,7792.14497348
760,8696.8296834,4.377954498,84675,7976.31301301
770,8651.00512673,4.433030204,85776,8007.25896583
780,8696.8296834,4.488377897,86877,7968.08734533
790,8637.57815889,4.544965783,87978,7968.08734533
800,8696.8296834,4.599393595,89079,7870.76186101
810,8678.90520458,4.654340576,90180,7948.29463709
820,8656.19122298,4.709048927,91281,8051.99112759
830,8678.90520458,4.764045944,92382,7717.99379739
840,8682.99322869,4.819370543,93483,7968.08734533
850,8671.4746901,4.874472763,94584,7876.42901713
860,8678.90520458,4.930437559,95685,7968.08734533
870,8641.05973158,4.985550043,96786,7961.11048318
880,8696.8296834,5.040894742,97887,7968.08734533
890,8653.32825999,5.095751917,98988,7966.60796424
900,8682.99322869,5.151132111,100089,7968.08734533
910,8682.99322869,5.205611241,101190,7868.01340944
920,8680.52919969,5.261321156,102291,7941.45847929
930,8665.97756905,5.318585161,103392,7807.33274966
940,8690.33892696,5.376014241,104493,7968.08734533
950,8665.97756905,5.431915317,105594,7968.08734533
960,8656.19122298,5.48647955,106695,7968.08734533
970,8690.59660315,5.544451748,107796,7604.4330369
980,8678.90520458,5.608625341,108897,7968.08734533
990,8651.00512673,5.6640684,109998,7968.08734533
1000,8666.28030426,5.71964061,111099,7866.55562588
1010,8682.99322869,5.775137125,112200,7905.86289709
1020,8657.21496685,5.830563078,113301,7968.08734533
1030,8675.86476843,5.885278272,114402,7968.08734533
1040,8638.89594139,5.940530598,115503,7951.15458949
1050,8696.8296834,5.995547715,116604,7968.08734533
1060,8677.25699126,6.050169253,117705,7968.08734533
1070,8677.25699126,6.104985801,118806,7968.08734533
1080,8666.28030426,6.167873014,119907,7968.08734533
1090,8655.59501807,6.223904096,121008,7968.08734533
1100,8678.90520458,6.280533464,122109,7968.08734533
1110,8677.25699126,6.335331195,123210,7968.08734533
1120,8656.19122298,6.39072208,124311,7787.20627941
1130,8682.99322869,6.445827721,125412,7968.08734533
1140,8651.86894469,6.500950896,126513,7925.04854685
1150,8696.8296834,6.559555166,127614,7872.29631433
1160,8677.25699126,6.614334935,128715,7968.08734533
1170,8682.99322869,6.669166451,129816,7982.80286604
1180,8666.28030426,6.723375732,130917,8096.37263523
1190,8637.57815889,6.777640607,132018,7655.67194633
1200,8695.54991872,6.835478523,133119,7968.08734533
1210,8651.00512673,6.889588588,134220,7282.26250014
1220,8666.28030426,6.943981332,135321,7968.08734533
1230,8635.1254547,6.999261455,136422,7889.74410434
1240,8667.08644423,7.05611919,137523,7968.08734533
1250,8651.42612321,7.113111208,138624,7968.08734533
1260,8670.17746627,7.168431103,139725,7860.82722155
1270,8673.27850921,7.223715075,140826,7988.48268546
1280,8637.57815889,7.279376237,141927,7961.13012486
1290,8682.99322869,7.334577245,143028,7968.08734533
1300,8665.97756905,7.389824011,144129,7968.08734533
1310,8665.97756905,7.444716253,145230,7859.93256016
1320,8657.21496685,7.501290027,146331,7756.11542239
1330,8666.28030426,7.556396095,147432,7943.7854966
1340,8678.90520458,7.611949917,148533,7968.08734533
1350,8657.61320055,7.667457124,149634,7968.08734533
1360,8665.97756905,7.722895479,150735,7968.08734533
1370,8677.46909809,7.777830059,151836,7968.08734533
1380,8691.28202413,7.833298349,152937,7968.08734533
1390,8657.21496685,7.888929576,154038,7968.08734533
1400,8654.90891118,7.943625525,155139,7958.09415342
1410,8696.8296834,7.999589037,156240,7261.37365072
1420,8678.90520458,8.054655761,157341,7968.08734533
1430,8647.26065823,8.109476585,158442,7968.08734533
1440,8641.01025049,8.165668464,159543,7968.08734533
1450,8678.90520458,8.220644526,160644,7968.08734533
1460,8667.07898659,8.275185665,161745,7968.08734533
1470,8696.8296834,8.330206203,162846,7915.32063482
1480,8710.73100456,8.385477345,163947,7968.08734533
1490,8682.99322869,8.443090742,165048,7757.14957008
1500,8677.25699126,8.500142631,166149,7722.52770693
1510,8670.46588472,8.5547894,167250,7968.08734533
1520,8647.26065823,8.609753916,168351,7946.31331038
1530,8667.36460965,8.664198833,169452,7968.08734533
1540,8644.26937901,8.71866556,170553,7903.61804334
1550,8678.90520458,8.777622215,171654,4843.65511358
1560,8678.90520458,8.833916731,172755,7933.30722111
1570,8699.37476795,8.890654295,173856,7886.35732834
1580,8761.05321605,8.94519629,174957,7994.32456089
1590,8678.90520458,9.000068005,176058,7994.32456089
1600,8699.37476795,9.055884833,177159,7994.32456089
1610,8678.90520458,9.110205303,178260,7994.32456089
1620,8678.90520458,9.164695979,179361,7994.32456089
1630,8711.04780001,9.22054488,180462,7994.32456089
1640,8678.90520458,9.275016312,181563,7994.32456089
1650,8678.90520458,9.330089879,182664,7994.32456089
1660,8678.90520458,9.387589093,183765,7703.89478852
1670,8739.89666866,9.442007923,184866,7056.49512856
1680,8678.90520458,9.498732658,185967,7994.32456089
1690,8678.90520458,9.55431898,187068,7994.32456089
1700,8678.90520458,9.609501171,188169,7923.90357669
1710,8678.90520458,9.664496905,189270,7994.32456089
1720,8678.90520458,9.719349803,190371,7946.10178134
1730,8699.97097286,9.773939267,191472,7994.32456089
1740,8699.97097286,9.828018541,192573,7994.32456089
1750,8681.65733302,9.883294815,193674,7594.55064328
1760,8709.5626424,9.937993331,194775,7974.53185265
1770,8678.90520458,9.993263191,195876,7973.92922077
1780,8678.90520458,10.047645243,196977,7994.32456089
1790,8699.97097286,10.10279365,198078,7994.32456089
1800,8699.97097286,10.157218895,199179,7994.32456089
1810,8709.82019565,10.212663665,200280,7994.32456089
1820,8721.03674114,10.267286914,201381,7994.32456089
1830,8678.90520458,10.321949934,202482,7994.32456089
1840,8699.97097286,10.376527424,203583,7994.32456089
1850,8699.37476795,10.432696638,204684,7994.32456089
1860,8678.90520458,10.48811532,205785,8036.40175734
1870,8708.70334695,10.543380903,206886,7994.32456089
1880,8724.3446686,10.598312917,207987,7947.37723809
1890,8681.92361119,10.652931034,209088,7697.53480074
1900,8684.79000037,10.708139739,210189,7994.32456089
1910,8686.01826555,10.763042244,211290,7741.70015165
1920,8684.79000037,10.819484728,212391,7938.39584511
1930,8678.90520458,10.873793224,213492,7994.32456089
1940,8678.90520458,10.929141772,214593,7870.47920953
1950,8714.90442479,10.98508604,215694,7826.86184472
1960,8678.90520458,11.039566025,216795,7870.92274319
1970,8697.88829969,11.09479483,217896,7994.32456089
1980,8699.97097286,11.150167327,218997,8105.5453788
1990,8699.71890291,11.204631488,220098,7994.32456089
2000,8678.90520458,11.259742688,221199,7994.32456089
2010,8721.03674114,11.314853461,222300,7994.32456089
2020,8682.66091104,11.370039501,223401,7994.32456089
2030,8678.90520458,11.426783908,224502,7994.32456089
2040,8678.90520458,11.48187116,225603,7994.32456089
2050,8679.48506604,11.537409158,226704,7905.08156771
2060,8721.03674114,11.59242713,227805,7994.32456089
2070,8678.90520458,11.647533199,228906,7994.32456089
2080,8678.90520458,11.702631998,230007,7969.52227969
2090,8678.90520458,11.757168433,231108,7994.32456089
2100,8699.37476795,11.812101302,232209,7994.32456089
2110,8681.82738123,11.866618493,233310,8071.54979144
2120,8699.37476795,11.921875523,234411,7839.58757866
2130,8683.45825678,11.976558643,235512,7945.25500137
2140,8678.90520458,12.031977326,236613,8064.54127614
2150,8678.90520458,12.086477838,237714,7994.32456089
2160,8678.90520458,12.141498803,238815,7994.32456089
2170,8678.90520458,12.196315351,239916,7994.32456089
2180,8707.37004202,12.251006596,241017,7994.32456089
2190,8678.90520458,12.305792353,242118,7994.32456089
2200,8721.03674114,12.360076473,243219,7994.32456089
2210,8684.79000037,12.41748588,244320,8038.93155356
2220,8711.75652355,12.47189017,245421,7994.32456089
2230,8699.37476795,12.526861528,246522,7994.32456089
2240,8699.97097286,12.581417635,247623,7994.32456089
2250,8699.97097286,12.636650716,248724,7994.32456089
2260,8684.79000037,12.692241743,249825,7994.32456089
2270,8678.90520458,12.746954798,250926,7959.77934512
2280,8678.90520458,12.802338841,252027,7994.32456089
2290,8678.90520458,12.858066289,253128,7903.0786834
2300,8721.03674114,12.912872573,254229,8051.0518215
2310,8678.90520458,12.967285844,255330,7979.51154599
2320,8721.03674114,13.022301251,256431,7863.88191166
2330,8684.79000037,13.079068323,257532,7994.32456089
2340,8678.90520458,13.133928491,258633,7994.32456089
2350,8721.03674114,13.189129926,259734,7994.32456089
2360,8678.90520458,13.2432293,260835,7051.32804709
2370,8678.90520458,13.298303295,261936,7952.26894066
2380,8721.03674114,13.354911709,263037,7994.32456089
2390,8678.90520458,13.408992266,264138,7505.34286522
2400,8699.37476795,13.463446592,265239,7924.19596901
2410,8678.90520458,13.51795523,266340,7994.32456089
2420,8678.90520458,13.572247047,267441,7994.32456089
2430,8699.37476795,13.62749253,268542,7994.32456089
2440,8684.79000037,13.682824399,269643,7994.32456089
2450,8699.97097286,13.73766233,270744,7994.32456089
2460,8678.90520458,13.791482875,271845,7692.20891785
2470,8678.90520458,13.846023159,272946,7994.32456089
2480,8678.90520458,13.900170858,274047,7994.32456089
2490,8686.53323057,13.955646418,275148,7970.02271216
2500,8678.90520458,14.010616493,276249,7994.32456089
2510,8678.90520458,14.065027198,277350,7994.32456089
2520,8678.90520458,14.121137396,278451,7994.32456089
2530,8678.90520458,14.175835484,279552,7897.10311316
2540,8708.21432968,14.230469852,280653,7994.32456089
2550,8678.90520458,14.284385762,281754,7994.32456089
2560,8678.90520458,14.34105704,282855,7994.32456089
2570,8678.90520458,14.395816709,283956,7994.32456089
2580,8699.97097286,14.450888138,285057,7994.32456089
2590,8678.90520458,14.505675177,286158,7987.68808188
2600,8680.01352422,14.560277043,287259,7865.38595691
2610,8678.90520458,14.614796372,288360,7917.47924759
2620,8684.79000037,14.669429029,289461,7997.93939734
2630,8720.26551726,14.724052705,290562,7994.32456089
2640,8678.90520458,14.778835895,291663,7982.64928673
2650,8678.90520458,14.83302978,292764,7994.32456089
2660,8678.90520458,14.887945543,293865,7994.32456089
2670,8721.03674114,14.942189891,294966,7994.32456089
2680,8721.03674114,14.996663461,296067,7994.32456089
2690,8684.79000037,15.054186623,297168,8022.3269617
2700,8679.0858454,15.110507653,298269,7994.32456089
2710,8699.97097286,15.166434387,299370,7994.32456089
2720,8678.90520458,15.221804318,300471,7994.32456089
2730,8678.90520458,15.275977675,301572,7776.72047228
2740,8683.69911951,15.332447529,302673,7994.32456089
2750,8699.97097286,15.388852807,303774,7994.32456089
2760,8721.03674114,15.443586818,304875,7994.32456089
2770,8678.90520458,15.498706144,305976,7948.62983603
2780,8678.90520458,15.554087193,307077,7795.30127847
2790,8699.97097286,15.609552063,308178,7994.32456089
2800,8701.00390768,15.664870675,309279,8056.21347337
2810,8709.15005142,15.719314309,310380,7992.73545121
2820,8684.79000037,15.774811252,311481,7653.12983474
2830,8678.90520458,15.829878404,312582,7832.12081561
2840,8678.90520458,15.886284537,313683,7906.78905666
2850,8699.97097286,15.94373842,314784,7994.32456089
2860,8684.79000037,15.998484404,315885,7994.32456089
2870,8699.37476795,16.052657334,316986,7994.32456089
2880,8678.90520458,16.1084964,318087,7979.87740762
2890,8678.90520458,16.163827414,319188,7994.32456089
2900,8684.79000037,16.218962563,320289,7994.32456089
2910,8700.30838995,16.275725786,321390,7905.08156771
2920,8678.90520458,16.331188089,322491,7988.23778715
2930,8678.90520458,16.385640704,323592,7994.32456089
2940,8721.03674114,16.441059387,324693,7945.2429045
2950,8678.90520458,16.495712999,325794,7994.32456089
2960,8699.97097286,16.550356347,326895,7994.32456089
2970,8678.90520458,16.605130985,327996,7994.32456089
2980,8721.03674114,16.659467279,329097,7994.32456089
2990,8699.97097286,16.716318599,330198,7994.32456089
3000,8699.97097286,16.773465,331299,7997.43242753
3010,8678.90520458,16.828799008,332400,7994.32456089
3020,8678.90520458,16.884082981,333501,7994.32456089
3030,8699.97097286,16.939334451,334602,7994.32456089
3040,8678.90520458,16.993948291,335703,7841.201615
3050,8727.04790554,17.048366266,336804,7714.03498932
3060,8699.97097286,17.102947177,337905,7994.32456089
3070,8678.90520458,17.157684181,339006,7966.28748074
3080,8699.97097286,17.211871224,340107,7994.32456089
3090,8678.90520458,17.267963888,341208,7994.32456089
3100,8721.03674114,17.323137953,342309,7994.32456089
3110,8724.04943503,17.37887481,343410,7994.32456089
3120,8697.19896073,17.434432053,344511,7873.00488741
3130,8722.70505047,17.489624508,345612,7318.78394127
3140,8700.28694047,17.544544548,346713,7994.32456089
3150,8684.3584755,17.599847337,347814,7936.42142647
3160,8678.90520458,17.654753264,348915,7994.32456089
3170,8699.37476795,17.709868741,350016,7994.32456089
3180,8715.10246426,17.765067182,351117,7994.32456089
3190,8684.79000037,17.819569405,352218,7994.32456089
3200,8678.90520458,17.87430085,353319,7994.32456089
3210,8678.90520458,17.929455671,354420,7994.32456089
3220,8678.90520458,17.98451256,355521,7863.02130455
3230,8678.90520458,18.039754622,356622,7994.32456089
3240,8689.77853979,18.094664826,357723,7994.32456089
3250,8721.03674114,18.149494203,358824,7994.32456089
3260,8744.38164474,18.204711889,359925,7994.32456089
3270,8699.24798469,18.260786592,361026,7994.32456089
3280,8678.90520458,18.315705349,362127,7994.32456089
3290,8699.97097286,18.370116054,363228,7994.32456089
3300,8678.90520458,18.426455046,364329,7994.32456089
3310,8699.37476795,18.481129186,365430,7994.32456089
3320,8678.90520458,18.53564937,366531,7994.32456089
3330,8678.90520458,18.590091721,367632,7994.32456089
3340,8699.97097286,18.644351037,368733,7892.35427887
3350,8699.37476795,18.698840858,369834,7994.32456089
3360,8678.90520458,18.753839158,370935,7965.32464512
3370,8699.97097286,18.808204105,372036,7994.32456089
3380,8709.53347284,18.86269863,373137,7994.32456089
3390,8678.90520458,18.917569917,374238,7994.32456089
3400,8721.03674114,18.973341841,375339,7994.32456089
3410,8678.90520458,19.027722611,376440,7995.80394198
3420,8678.90520458,19.083253339,377541,7994.32456089
3430,8678.90520458,19.137611015,378642,7994.32456089
3440,8678.90520458,19.194917785,379743,7994.32456089
3450,8678.90520458,19.249393065,380844,6494.76711865
3460,8689.94203733,19.304457224,381945,7994.32456089
3470,8678.90520458,19.359761296,383046,7960.61567928
3480,8678.90520458,19.415289886,384147,7994.32456089
3490,8678.90520458,19.470847128,385248,7994.32456089
3500,8678.90520458,19.526305582,386349,7994.32456089
3510,8694.52207393,19.581061403,387450,7994.32456089
3520,8699.97097286,19.636517292,388551,7994.32456089
3530,8678.90520458,19.691671685,389652,7503.29881654
3540,8678.90520458,19.747013818,390753,7972.09606552
3550,8684.79000037,19.802630077,391854,7902.93511117
3560,8689.3446887,19.857884969,392955,7994.32456089
3570,8678.90520458,19.913399019,394056,7994.32456089
3580,8699.97097286,19.967473162,395157,7994.32456089
3590,8721.03674114,20.022793057,396258,7994.32456089
3600,8684.79000037,20.076962994,397359,7994.32456089
3610,8683.82952051,20.131851387,398460,7994.32456089
3620,8678.90520458,20.189271485,399561,7883.79520512
3630,8695.56173126,20.244572136,400662,8031.21052027
3640,8707.62785078,20.299677777,401763,7816.2404395
3650,8721.03674114,20.354574723,402864,7994.32456089
3660,8699.97097286,20.409812081,403965,7994.32456089
3670,8678.90520458,20.464006821,405066,7994.32456089
3680,8678.90520458,20.518860146,406167,7949.32640621
3690,8678.90520458,20.574690658,407268,7994.32456089
3700,8678.90520458,20.630010981,408369,7710.35964719
3710,8678.90520458,20.685522037,409470,7994.32456089
3720,8678.90520458,20.740506653,410571,7994.32456089
3730,8678.90520458,20.795693976,411672,7957.43860152
3740,8678.90520458,20.850643524,412773,8148.77502198
3750,8678.90520458,20.905786798,413874,7960.67563068
3760,8678.90520458,20.960867208,414975,7963.97209658
3770,8678.90520458,21.016007489,416076,7994.32456089
3780,8728.9973891,21.070450268,417177,7994.32456089
3790,8684.79000037,21.126784556,418278,7994.32456089
3800,8693.47682189,21.183658969,419379,8078.20239018
3810,8684.79000037,21.240165601,420480,7997.28332307
3820,8678.90520458,21.295470955,421581,7994.32456089
3830,8678.90520458,21.350350367,422682,7994.32456089
3840,8678.90520458,21.405417519,423783,7924.20131272
3850,8728.7408795,21.460537272,424884,7936.42142647
3860,8692.00669179,21.515674987,425985,7977.87322553
3870,8740.16130509,21.571067583,427086,7994.32456089
3880,8699.97097286,21.626110359,428187,7994.32456089
3890,8715.70126007,21.680972665,429288,7994.32456089
3900,8678.90520458,21.736340458,430389,6910.72128536
3910,8679.57226819,21.790795211,431490,7994.32456089
3920,8678.90520458,21.845696861,432591,7994.32456089
3930,8678.90520458,21.900441136,433692,7974.95428307
3940,8678.90520458,21.955107578,434793,7994.32456089
3950,8678.90520458,22.009965608,435894,7994.32456089
3960,8699.37476795,22.064725278,436995,7994.32456089
3970,8678.90520458,22.121612093,438096,7969.64755785
3980,8678.90520458,22.176541113,439197,7994.32456089
3990,8679.44157292,22.231746397,440298,7994.32456089
4000,8678.90520458,22.286432083,441399,7781.39244046
4010,8678.90520458,22.341565522,442500,7994.32456089
4020,8699.82213363,22.397436234,443601,7933.13854051
4030,8678.90520458,22.452635103,444702,7858.46358166
4040,8678.90520458,22.507422142,445803,7960.98181783
4050,8717.38534492,22.562621011,446904,7994.32456089
4060,8678.90520458,22.617046684,448005,7994.32456089
4070,8678.90520458,22.671504003,449106,7852.89533176
4080,8721.03674114,22.726035733,450207,8061.74232412
4090,8716.65736199,22.780942088,451308,7994.32456089
4100,8678.90520458,22.83640653,452409,7982.0541468
4110,8678.90520458,22.892020223,453510,7861.80885808
4120,8682.82741812,22.947431208,454611,8081.58739137
4130,8678.90520458,23.002617247,455712,8122.60985079
4140,8678.90520458,23.057529589,456813,7994.32456089
4150,8678.90520458,23.114512626,457914,7994.32456089
4160,8678.90520458,23.169006295,459015,7948.57234455
4170,8678.90520458,23.223956698,460116,7994.32456089
4180,8737.68193552,23.278656069,461217,7994.32456089
4190,8699.97097286,23.333461925,462318,7994.32456089
4200,8678.90520458,23.388078759,463419,7994.32456089
4210,8678.90520458,23.442687895,464520,7844.13122512
4220,8699.37476795,23.497940648,465621,7994.32456089
4230,8689.59677823,23.552701601,466722,7964.84476138
4240,8678.90520458,23.607452717,467823,7994.32456089
4250,8684.79000037,23.663064699,468924,7994.32456089
4260,8721.03674114,23.717594292,470025,7611.0636187
4270,8678.90520458,23.773320885,471126,7994.32456089
4280,8678.90520458,23.829536285,472227,8021.47411958
4290,8678.90520458,23.884413559,473328,7994.32456089
4300,8678.90520458,23.939479856,474429,7994.32456089
4310,8684.79000037,23.994336175,475530,7994.32456089
4320,8721.03674114,24.048849516,476631,7963.95036009
4330,8678.90520458,24.104961424,477732,7994.32456089
4340,8721.03674114,24.159419598,478833,7642.03165159
4350,8699.97097286,24.214490171,479934,7972.36142406
4360,8678.90520458,24.269807928,481035,7994.32456089
4370,8692.56725863,24.32460908,482136,7994.32456089
4380,8678.90520458,24.379786566,483237,7994.32456089
4390,8678.90520458,24.434376458,484338,7896.18544185
4400,8678.90520458,24.488950527,485439,7994.32456089
4410,8684.79000037,24.545737699,486540,7994.32456089
4420,8699.97097286,24.600437069,487641,7994.32456089
4430,8699.97097286,24.655752687,488742,7908.39683641
4440,8678.90520458,24.711279566,489843,7994.32456089
4450,8678.90520458,24.766333889,490944,7994.32456089
4460,8678.90520458,24.820993916,492045,7994.32456089
4470,8684.79000037,24.875471762,493146,7943.52629337
4480,8699.97097286,24.930617602,494247,7970.09035793
4490,8721.03674114,24.985305426,495348,7994.32456089
4500,8699.37476795,25.042725952,496449,7994.32456089
4510,8699.37476795,25.09764642,497550,7012.3794699
4520,8678.90520458,25.15212555,498651,7994.32456089
4530,8678.90520458,25.207420641,499752,7994.32456089
4540,8721.03674114,25.261911745,500853,7994.32456089
4550,8678.90520458,25.316383605,501954,7994.32456089
4560,8678.90520458,25.371178343,503055,7894.250625
4570,8678.90520458,25.426617981,504156,7994.32456089
4580,8693.0380412,25.481535454,505257,7994.32456089
4590,8678.90520458,25.537287278,506358,7994.32456089
4600,8678.90520458,25.592417295,507459,7994.32456089
4610,8699.97097286,25.647858216,508560,7994.32456089
4620,8678.90520458,25.701955451,509661,7994.32456089
4630,8678.90520458,25.756802789,510762,7994.32456089
4640,8699.37476795,25.812134231,511863,7907.36279474
4650,8699.97097286,25.866932817,512964,7994.32456089
4660,8684.79000037,25.922834748,514065,7894.03215973
4670,8699.37476795,25.978257279,515166,7924.77468863
4680,8678.90520458,26.035742808,516267,7994.32456089
4690,8678.90520458,26.091380022,517368,7993.33726834
4700,8686.86262473,26.146051596,518469,7994.32456089
4710,8721.03674114,26.200876269,519570,7963.93398249
4720,8678.90520458,26.255648341,520671,7915.9813199
4730,8699.97097286,26.311043931,521772,8024.831383
4740,8678.90520458,26.365791627,522873,7994.32456089
4750,8699.97097286,26.42033576,523974,7994.32456089
4760,8678.90520458,26.475757864,525075,7994.32456089
4770,8684.79000037,26.531314251,526176,7559.38747268
4780,8678.90520458,26.587346188,527277,7960.96658226
4790,8678.90520458,26.642671643,528378,7994.32456089
4800,8678.90520458,26.697598953,529479,7950.84367782
4810,8699.97097286,26.75332298,530580,7994.32456089
4820,8678.90520458,26.809139808,531681,7994.32456089
4830,8678.90520458,26.864398121,532782,7994.32456089
4840,8678.90520458,26.919193286,533883,7994.32456089
4850,8709.58838229,26.97457904,534984,7847.11588233
4860,8678.90520458,27.030846613,536085,7918.66802181
4870,8699.37476795,27.085930016,537186,7985.79111374
4880,8699.37476795,27.14087828,538287,7994.32456089
4890,8678.90520458,27.195854342,539388,7875.37171481
4900,8684.79000037,27.251108807,540489,7994.32456089
4910,8678.90520458,27.306233692,541590,7994.32456089
4920,8737.68193552,27.360543044,542691,7994.32456089
4930,8699.97097286,27.415650823,543792,7994.32456089
4940,8678.90520458,27.471601078,544893,7994.32456089
4950,8684.79000037,27.526809356,545994,7607.8710245
4960,8699.97097286,27.581835026,547095,7901.59139787
4970,8678.90520458,27.636541667,548196,7994.32456089
4980,8721.03674114,27.691842745,549297,7983.21031321
4990,8724.84760697,27.747128428,550398,7994.32456089
