it,funval,time,funcount,weight
0,3466.73281428,0.000248466999977,436,2940.54919509
10,3689.54283722,0.000520453999968,776,3737.82938087
20,3708.74597847,0.000782176999991,1114,3437.95572794
30,3836.41266689,0.00104945999999,1455,3587.33364655
40,3741.11218863,0.00131674299999,1794,3338.12408232
50,3885.24589583,0.00158231499998,2142,3704.3572266
60,3837.91976511,0.00185301899998,2478,3777.21595083
70,3852.60835562,0.00212329599998,2814,3799.18249212
80,3911.51957219,0.00422777599996,3145,3518.27046917
90,3893.33530057,0.00450061799995,3472,3595.72620965
100,3987.78362926,0.00477174999995,3811,3717.02808171
110,3930.73147355,0.00503903299995,4159,3422.26482047
120,3981.96590661,0.00533283099995,4491,3669.33140385
130,3950.94401094,0.00560823899994,4830,3350.97402443
140,3980.20601834,0.00590845199994,5168,3238.43596445
150,3983.58594643,0.00618941999994,5502,3608.90014458
160,4053.19684764,0.00644515599993,5825,3715.04898416
170,4074.23025582,0.00682491199993,6160,3403.03791809
180,4067.10856959,0.00713923699993,6499,3686.34144777
190,4025.91492293,0.00740438199995,6828,3785.61458472
200,4025.91492293,0.00765840799994,7162,3671.44924137
210,3997.23531911,0.00795263299995,7492,3849.52291197
220,4078.22468625,0.00823958799992,7819,3663.63173365
230,4138.71748095,0.00850173899991,8148,3819.71578961
240,4103.0127252,0.00876004199989,8479,3515.558825
250,4127.9865417,0.00905212899988,8809,3946.95015471
260,4042.38017324,0.00932710899988,9159,3752.88214609
270,3909.77746938,0.00958712099987,9504,3714.62618219
280,4033.89238432,0.00987065499987,9828,3673.65925328
290,3963.12205127,0.0101640249999,10159,3727.52322282
300,4008.32240505,0.0104210439999,10498,3985.39076981
310,3994.22559835,0.0106806289998,10833,3781.39662549
320,3971.35711624,0.0109414969998,11174,3595.70459957
330,3956.97212424,0.0112045039998,11509,3185.00535271
340,3945.64415823,0.0114743529998,11842,3493.20890091
350,3978.79913058,0.0117471949999,12192,3676.21786065
360,4042.61403609,0.0120080639999,12535,3388.87733675
370,4006.31435201,0.0122603789999,12862,3572.7664339
380,3971.49188639,0.0125456229999,13198,3671.75963683
390,3997.83624315,0.0128034979999,13530,3465.02781196
400,4050.01275043,0.0130686429999,13860,3331.09631443
410,3988.07339848,0.0133265179999,14191,3689.49188873
420,3947.95339268,0.0135869579999,14532,3627.47431186
430,3943.50938982,0.0138448329999,14871,3343.63856929
440,3850.9173215,0.0140958659998,15215,3716.71005701
450,3982.4068016,0.0143481809999,15544,3396.08408621
460,3904.1469245,0.0147950789999,15884,3296.65985398
470,3959.16261252,0.0150666389999,16224,3479.84510793
480,3895.33399511,0.0153476069999,16566,3583.04901945
490,3885.74431327,0.0156097579999,16903,3650.14296588
500,3987.59239514,0.0158710539999,17240,3554.70021391
510,4113.7615454,0.0161250799999,17582,3757.31871327
520,4109.14828535,0.0164197329999,17913,3838.44220795
530,3963.90683959,0.0166831669999,18248,3175.9065189
540,3941.73411069,0.0169397579998,18588,3529.47362889
550,4022.02304153,0.0171984879998,18917,3389.97431784
560,3935.73916814,0.0174431059998,19244,3754.35574609
570,3969.62039605,0.0177031189998,19584,3624.63373824
580,3901.23895899,0.0179605659998,19926,3517.75458917
590,3758.80649821,0.0204845729998,20266,3441.4989977
600,3833.47117314,0.0207745219998,20609,3866.57320854
610,3900.05517145,0.0210418049998,20940,3802.40799911
620,4000.33950596,0.0213099429998,21275,3778.69074941
630,3829.61674947,0.0215733769998,21610,3668.80046048
640,3839.11534775,0.0218321069999,21954,3610.99219759
650,3868.97757983,0.0220929749999,22295,3692.75725066
660,3965.77010396,0.0223499939999,22631,3721.50393516
670,3809.50068406,0.0226352389999,22967,3668.73144648
680,4033.83510052,0.0229166339999,23304,3731.75851851
690,3833.30591267,0.0231693759999,23632,3407.57049961
700,3868.38743199,0.0234306719999,23958,3603.22097533
710,4048.43555605,0.0236919679999,24283,3460.18018007
720,3940.38182175,0.0239592509999,24625,3793.54386408
730,3932.21807401,0.0242107109999,24945,3563.01176723
740,3975.48410091,0.0244754289999,25282,3656.22795681
750,4010.92673411,0.0247333029999,25610,3349.32048802
760,4004.16367571,0.0250236799999,25950,3604.89720948
770,4138.6418028,0.0252879689999,26285,3562.41368986
780,4138.6418028,0.0255445609999,26616,3565.38051251
790,4120.14030704,0.0258015799999,26942,3891.87483664
800,4014.31865961,0.0261723549999,27272,3751.44831438
810,4061.03681729,0.0264323679999,27604,3321.6838165
820,4185.17517911,0.0266915259999,27943,3880.04166806
830,4046.12886862,0.0269647959999,28275,3694.28874875
840,3990.12524663,0.0272273749999,28611,3559.25856614
850,4028.05830835,0.0274843939999,28940,3629.36392728
860,4180.59880743,0.0277687829999,29272,3723.39299166
870,4058.12109326,0.028068995,29611,3377.28769849
880,4073.64179233,0.028327298,29949,3860.66526427
890,4006.29163693,0.028580469,30284,3496.58871616
900,3868.5881708,0.028844759,30609,3327.46626698
910,4014.42401255,0.029115464,30937,3415.28882911
920,3880.32880201,0.029393866,31268,3511.31237905
930,4051.55680828,0.029674406,31595,3497.41254422
940,4020.55659045,0.029940834,31929,3691.30913354
950,3876.49528388,0.030205979,32275,3801.54326001
960,3922.8308245,0.030464281,32597,3824.27756348
970,3958.93338783,0.030752519,32933,3628.28131737
980,3824.95885327,0.0310074,33274,3495.16754035
990,3875.73891626,0.0312708340001,33608,3536.89607537
1000,3955.53772444,0.0315299920001,33938,3761.39382459
1010,3893.57251371,0.031812243,34262,3477.47151725
1020,4057.14911907,0.032070117,34609,3361.56838627
1030,3811.5381909,0.03239214,34948,3651.16137948
1040,3961.32519825,0.0326517250001,35290,3764.0953608
1050,3900.07536208,0.033033191,35627,3573.86564108
1060,3888.05071568,0.033294059,35958,3721.15825283
1070,3968.98402039,0.033592133,36295,3751.60747061
1080,3951.89991451,0.0338837930001,36631,3609.65429913
1090,3989.21818133,0.034143806,36965,3510.46008452
1100,3983.05174769,0.036478791,37305,3567.39628983
1110,4047.64898449,0.036752489,37649,3539.72677271
1120,4119.981794,0.03704201,37986,3473.52069027
1130,4095.17091516,0.037306727,38320,3849.20317241
1140,4119.77752297,0.037575293,38659,3750.4942612
1150,4049.01730581,0.037839155,38988,3543.18064172
1160,4031.6489104,0.038102589,39319,3644.45290999
1170,3994.55317294,0.038368589,39671,3832.41147955
1180,4014.5966464,0.038637155,40013,3197.3899459
1190,4072.69281787,0.038935657,40349,3917.37633324
1200,4066.5881196,0.039227317,40684,3470.28200993
1210,4105.42447584,0.03950016,41023,3555.79405413
1220,4147.08251105,0.039771292,41357,3683.72857888
1230,4113.16148742,0.0400407130001,41701,3854.2575466
1240,4029.28994037,0.0403152660001,42046,3493.5227974
1250,4134.02145905,0.040583832,42382,3634.41651977
1260,4013.08999852,0.040854536,42724,3228.53887661
1270,4069.71267969,0.041129944,43060,3465.35926926
1280,4083.16334241,0.041402359,43389,3455.19244659
1290,4058.61973694,0.0416636550001,43722,3426.06297341
1300,4122.69881957,0.0419356420001,44064,3390.90573173
1310,3983.45456825,0.0421999310001,44392,3495.33503827
1320,4020.75488514,0.0424847480001,44718,3525.07491021
1330,4020.75488514,0.0427554520001,45052,3206.53122461
1340,3901.09638933,0.0430518150001,45398,3257.2693673
1350,3962.11121409,0.0433208090001,45727,3191.22882854
1360,3952.11469935,0.0435825330001,46069,3283.92196858
1370,4004.79144898,0.0438361320001,46390,3401.27832783
1380,4110.52017712,0.0440987110001,46728,3626.9322901
1390,4005.5301657,0.0443831000001,47056,3791.22468914
1400,4025.51881055,0.0446354150001,47389,3532.13990636
1410,4003.23791185,0.0449240810001,47740,3378.6923102
1420,3993.19314526,0.0451819560001,48079,3598.35122141
1430,3967.41246173,0.0454672010001,48426,3298.25303122
1440,3969.0508832,0.0457511620001,48754,3049.07744436
1450,3973.7424594,0.0460398280001,49075,3439.87670896
1460,3979.60051401,0.0463105320001,49401,3574.78307944
1470,3997.61368148,0.0465842290001,49737,3352.27625482
1480,4046.89570524,0.0468540780001,50067,3691.13651283
1490,4075.78609706,0.0471380390001,50400,3609.48460479
1500,3975.35929003,0.0474001900001,50746,3757.25223486
1510,3980.37485532,0.0476649070002,51075,3390.21363759
1520,4038.19325094,0.0479552830002,51413,3389.88289461
1530,4087.10881898,0.0482388170002,51749,3548.89620678
1540,4087.10881898,0.0485005410002,52091,3597.64780533
1550,3934.68666869,0.0487515730002,52414,3656.06722024
1560,3897.88769448,0.0490256990002,52742,3402.1037547
1570,4004.7708878,0.0492771590002,53077,3461.94005831
1580,3859.43112813,0.0495363170002,53412,3320.48557352
1590,3980.06281663,0.0497954750001,53732,3330.96203105
1600,3963.74900943,0.0500713110001,54065,3215.58023328
1610,3992.09652153,0.0522412220001,54405,3373.78182195
1620,4101.48526435,0.0525328810001,54744,3575.61359362
1630,4075.20900793,0.0527997370001,55078,3677.82302633
1640,4086.96332441,0.0530683030001,55417,3736.03271443
1650,4011.40271919,0.0533278880001,55751,3722.82989892
1660,4081.53816903,0.0535883290001,56080,3765.47042167
1670,4143.07857689,0.0538611710001,56414,3591.14926933
1680,4237.50187157,0.0541323030001,56757,3581.97374854
1690,4264.30330789,0.0544000130001,57100,3486.45540733
1700,4172.94850954,0.0546651580001,57438,3813.40964906
1710,4185.26855824,0.0549281650001,57783,3816.10950149
1720,4184.76010328,0.0551894610001,58106,3648.05808048
1730,4171.66819326,0.0554503300001,58447,3533.17338677
1740,4057.70845227,0.0557197510001,58781,3405.23882523
1750,4128.33005085,0.0559891720002,59110,3656.71875845
1760,4085.99992212,0.0562603040001,59444,3535.31009362
1770,3902.40810326,0.0565378500002,59784,3477.27378861
1780,3989.27180329,0.0568269440001,60119,3349.46633714
1790,4028.99687175,0.0570967930001,60453,3815.85840826
1800,4039.63666992,0.0573512460001,60779,3418.53084321
1810,4053.39832115,0.0576257990001,61117,3550.24110296
1820,4168.55699606,0.0579140370001,61448,3299.11646321
1830,4273.73527701,0.0582104000001,61788,3323.01786922
1840,3958.06583582,0.0584952170001,62122,3842.4189486
1850,3958.06583582,0.0588112530001,62456,3554.0933698
1860,3995.7998305,0.0590840960001,62796,3373.14680017
1870,3997.23612262,0.0593907230001,63134,3831.2065546
1880,4110.96328859,0.0596550120001,63469,3637.18297716
1890,4025.66416108,0.0599201570002,63798,3737.63493904
1900,4034.20780333,0.0601810260002,64130,3627.07809476
1910,4008.82147091,0.0604525860001,64468,3489.71833912
1920,4131.62657912,0.0607202970001,64801,3617.05363513
1930,4208.21204088,0.0609880080001,65132,3717.24105394
1940,4201.97910155,0.0612518700001,65470,3848.13460315
1950,4197.60590562,0.0615324100001,65810,3586.0170067
1960,4157.98019952,0.0617872920001,66145,3670.0303552
1970,4107.04459165,0.0620502990001,66486,3556.12715903
1980,4088.99446498,0.0623064630001,66816,3412.74530913
1990,4107.50046261,0.0625848650001,67151,3426.57868633
2000,4042.40061861,0.0628435950001,67486,3664.82430604
2010,3993.78091758,0.0631070290001,67813,3402.61921221
2020,4007.32768974,0.0634226370001,68138,3356.74066994
2030,4039.04618817,0.0637023220001,68476,3669.1583702
2040,4085.25503744,0.0639687500001,68814,3490.80768332
2050,4071.27564325,0.0642227760001,69139,3449.57998753
2060,4060.3759756,0.0644879210001,69478,3732.95911699
2070,4137.47808356,0.0647470790001,69809,3460.60128269
2080,3912.37358322,0.065013934,70148,3383.21971346
2090,3938.19429136,0.065296613,70480,3290.0250499
2100,3762.98713809,0.0656233400001,70809,3556.54705278
2110,3764.95352227,0.0658914780001,71156,3210.70500682
2120,3793.4469131,0.06805754,71500,3536.48098755
2130,3827.30447083,0.0683231120001,71833,3180.56693129
2140,3844.98880427,0.0685826970001,72190,3330.33638641
2150,3813.14951494,0.0688439930001,72527,3593.25301607
2160,3719.19622812,0.069113414,72860,3375.77959415
2170,3839.60167589,0.069375565,73202,3540.31536002
2180,3882.96545933,0.069630446,73546,3253.8002644
2190,3850.20874342,0.069884471,73880,3717.39838789
2200,3917.28220907,0.070161162,74214,3822.20537632
2210,3989.28627095,0.0704293,74554,3579.06574428
2220,3879.54081043,0.070693162,74899,3396.46526319
2230,3942.73042668,0.070946761,75241,3809.26063168
2240,3908.81017716,0.071204208,75591,3586.1261225
2250,3991.80818831,0.071463366,75932,3868.56118935
2260,3852.14468228,0.071727228,76266,3552.71324154
2270,3768.23846595,0.07198553,76605,3641.90680327
2280,3870.63975413,0.072232713,76944,3634.49076378
2290,3933.76724276,0.072479041,77278,3520.02327337
2300,3819.74008206,0.072748462,77611,3606.51718942
2310,3826.70960037,0.073026864,77952,3704.04728358
2320,3882.04008551,0.07361446,78292,3375.06040939
2330,3777.35453215,0.073926219,78622,3687.07358504
2340,3795.34767799,0.07418281,78966,3575.35155018
2350,3886.43079045,0.074445817,79292,3714.20214667
2360,3887.7798231,0.074713527,79628,3666.29894922
2370,3917.53844034,0.074976106,79961,3489.96929698
2380,3934.85144523,0.075240823,80294,3519.00167531
2390,3990.80006228,0.075491855,80630,3793.46940926
2400,3925.92848903,0.07577325,80972,3724.30279504
2410,4022.20982395,0.076027703,81305,3421.97242571
2420,4029.54588679,0.07640361,81649,3344.73565737
2430,3967.69219855,0.076665761,81978,3319.79596109
2440,4052.12548061,0.076929195,82310,3558.35685188
2450,4047.98831291,0.077183648,82646,3918.75809295
2460,3839.01391223,0.0775386,82980,3702.22977708
2470,3995.68755243,0.077820851,83316,3736.22673777
2480,3884.70595207,0.078097543,83654,3451.15910619
2490,3906.64690634,0.078373807,83995,3468.1298998
2500,3946.88147168,0.0786363860001,84327,3567.87566622
2510,3927.33252749,0.0788963990001,84663,3149.17872225
2520,3912.3600285,0.079160689,85007,3640.17250861
2530,3920.85314755,0.079419847,85333,3343.7487835
2540,3979.52660767,0.079677722,85670,3618.67549745
2550,4031.94798517,0.079974085,86004,3721.96241167
2560,3936.69886737,0.08023196,86335,3834.46703601
2570,4021.0464173,0.080500526,86675,3653.59905078
2580,4010.89061185,0.080775507,87015,3394.36018398
2590,3975.20117631,0.081054764,87356,3681.59959366
2600,4007.18019029,0.081305796,87691,3704.18582484
2610,3931.74642825,0.081584625,88027,3687.63611565
2620,3911.57636223,0.081881844,88372,3794.15976692
2630,3841.07462152,0.084082118,88703,3424.47207885
2640,3935.59366104,0.084351539,89041,3758.06309766
2650,3952.31929067,0.084620105,89374,3541.84125921
2660,4068.38054708,0.084878408,89707,3177.6577203
2670,3952.31929067,0.085140559,90046,3066.41754689
2680,3952.31929067,0.085429225,90393,3656.83359079
2690,4001.04114874,0.085691376,90713,3360.47008816
2700,4092.29208902,0.085958659,91047,3524.10447008
2710,4078.9346961,0.08621525,91393,3697.58278425
2720,4066.75340611,0.086483388,91735,3621.14967174
2730,3917.42477657,0.086744256,92071,3563.94706702
2740,3995.28411501,0.086996999,92403,3530.0987758
2750,4133.81660291,0.087254018,92741,3529.49207428
2760,3929.67075667,0.087514458,93078,3697.39916281
2770,4000.6782838,0.087771049,93417,3444.97480089
2780,4010.71436573,0.088058859,93746,3483.57015233
2790,3926.0134143,0.088326998,94079,3345.02887274
2800,3999.8591518,0.088596419,94413,3542.38816786
2810,3942.86801506,0.088859853,94747,3443.87076783
2820,4099.1118279,0.089108747,95084,3436.89121826
2830,4060.67549942,0.089361918,95417,3465.199847
2840,4032.60441422,0.089639892,95742,3437.86266873
2850,4073.0085313,0.089914873,96090,3351.71262935
2860,4077.88820725,0.090182157,96433,3608.90265127
2870,4101.82315335,0.090436182,96766,3458.00237357
2880,4199.15247904,0.090704748,97096,3109.61712982
2890,4242.89220884,0.090976308,97433,3208.85381126
2900,4147.27959208,0.09127096,97772,3509.69078207
2910,4175.18793292,0.091540809,98108,3644.84978914
2920,4156.07798905,0.091832469,98450,3685.0938244
2930,4096.87314799,0.092090771,98788,3660.47475487
2940,4173.72511549,0.092345225,99133,3460.64902389
2950,4065.5543154,0.092620633,99469,3734.91494383
2960,4010.31751548,0.092879363,99801,3554.5431545
2970,4146.04009805,0.093156054,100129,3488.42698954
2980,4151.17313256,0.093440871,100461,3651.3475784
2990,4169.21169497,0.093702595,100796,3152.43046387
3000,4101.9862004,0.093972444,101133,3573.7412694
3010,4211.91680145,0.094267524,101462,3629.66129472
3020,4234.54022073,0.094560039,101799,3426.83821307
3030,4227.72926623,0.094823901,102138,3771.99591928
3040,4190.44765497,0.095118126,102473,3619.02782714
3050,4206.9172792,0.095399094,102811,3721.94390127
3060,4182.54749619,0.095670226,103147,3417.79490286
3070,4326.70171638,0.095966589,103480,3705.66162785
3080,4261.12785407,0.096264664,103835,3269.55145491
3090,4243.36907783,0.096543494,104171,3641.54364506
3100,4276.50345642,0.096817619,104516,3864.72711778
3110,4296.25771594,0.097093883,104848,3564.90769993
3120,4288.761785,0.097365015,105178,3644.20503918
3130,4210.42041282,0.097639568,105516,3709.47218552
3140,4167.89633105,0.100069492,105846,3106.87881854
3150,4288.06523051,0.100342335,106178,3413.74573977
3160,4126.25400874,0.100611329,106509,3436.1780929
3170,4110.70483117,0.100879895,106838,3621.65985231
3180,4178.61501115,0.101174548,107167,3470.1295331
3190,4090.68036778,0.101444397,107514,3120.73487266
3200,4099.46227002,0.101712107,107850,3478.41557509
3210,4153.22769839,0.101981956,108187,3283.4810128
3220,4216.48036713,0.102252233,108520,3250.63754626
3230,4205.99373622,0.102530208,108859,3515.94736263
3240,4161.87520839,0.102829992,109198,3422.10887347
3250,4148.88006049,0.103098131,109539,3571.91423252
3260,4193.97259255,0.103381665,109873,3494.65865277
3270,4233.01669422,0.103659639,110210,3576.04834229
3280,4157.74929501,0.103922218,110537,3802.82499819
3290,4152.59242457,0.104189928,110874,3500.81416075
3300,4174.78116729,0.104458067,111222,3303.02150033
3310,4131.0085966,0.104720218,111562,3551.53546015
3320,4145.89783803,0.105000759,111905,3522.95901955
3330,4072.03109622,0.105263765,112237,3347.22024933
3340,4123.60448949,0.105532331,112569,3398.08133418
3350,4109.4409148,0.105802608,112894,3421.32294613
3360,4057.51921505,0.106074595,113238,3620.52006447
3370,3986.04888488,0.106357273,113573,3586.8551593
3380,4148.38307192,0.106624556,113899,3564.17150672
3390,4169.86819688,0.106897826,114230,3876.66323045
3400,4169.86819688,0.107180076,114562,3833.56794468
3410,4092.30688599,0.107454202,114903,3478.50203975
3420,4143.32779845,0.107726616,115251,3691.12247413
3430,4071.68118604,0.108001597,115574,3688.91655653
3440,4183.04675184,0.108294539,115900,3376.33642508
3450,4180.07971172,0.108570375,116230,3265.57032371
3460,4080.68957097,0.108844073,116555,3595.11426718
3470,4109.18835588,0.109119054,116890,3775.86973732
3480,4073.07231035,0.109390614,117218,3742.00083019
3490,4096.65610756,0.109659607,117555,3537.49788354
3500,4050.00668904,0.109938437,117884,3797.53672796
3510,4210.67846018,0.110211279,118228,3876.59332582
3520,4092.88407091,0.110514912,118565,3712.70882616
3530,4045.12656316,0.110789038,118897,3381.85878362
3540,3985.99210639,0.111065302,119235,3685.66233008
3550,4018.7540576,0.111338573,119572,3560.72091185
3560,3963.55581204,0.111616548,119906,3628.49552133
3570,3961.76546513,0.111888963,120231,3555.67200241
3580,4100.90477262,0.112165226,120567,3917.60323884
3590,4042.08963352,0.112437213,120908,3627.42055846
3600,3994.69041305,0.11271305,121243,3639.77776863
3610,3994.69041305,0.112978622,121577,3312.60442707
3620,3999.25328271,0.113247188,121911,3645.50372848
3630,4136.84489014,0.113516609,122243,3580.51857094
3640,4053.26130387,0.113783892,122579,3734.60610538
3650,3995.63749956,0.114078117,122916,3720.00186678
3660,4091.94351904,0.114352243,123261,3266.23255034
3670,4028.89098182,0.114617388,123602,3884.93148242
3680,4029.39276301,0.114892368,123937,3848.15737367
3690,4094.99854936,0.115161789,124270,3691.96764799
3700,4116.17050026,0.115450455,124606,3679.04001781
3710,4058.4328181,0.115717738,124939,3526.04078872
3720,4071.81429978,0.115989297,125279,3530.5039051
3730,3924.54086168,0.116263423,125617,3531.28564158
3740,3888.03265948,0.116531989,125960,3868.8173829
3750,3976.17020845,0.11680868,126288,3487.16035924
3760,3980.69220093,0.117081095,126626,3273.98738855
3770,4003.10021027,0.11737361,126964,3482.44091723
3780,4003.10021027,0.117640893,127299,3415.83865527
3790,3892.5554704,0.117937257,127645,3766.97154616
3800,3953.28791568,0.118220363,127977,3629.46507141
3810,3866.83701288,0.118496199,128305,3626.20024521
3820,3941.4519161,0.118767759,128643,3517.5324651
3830,3980.93691951,0.119039318,128979,3860.12583693
3840,4011.1477267,0.119304035,129315,3382.89989204
3850,4031.37968383,0.119578161,129643,3486.91818219
3860,4072.25001961,0.119871959,129973,3519.46833824
3870,4073.32259459,0.120141808,130308,3751.37028151
3880,4040.9430911,0.120412085,130665,3275.93399025
3890,4091.97160659,0.120682362,131002,3523.40823312
3900,4090.35016802,0.12095606,131325,3492.41087949
3910,4086.4136452,0.12121308,131657,3575.50806196
3920,4127.22786667,0.121474804,131995,3430.44331104
3930,4132.96840755,0.121732679,132334,3662.08558871
3940,4135.2725691,0.122024338,132686,3537.64194704
3950,4077.64748026,0.12231001,133024,3911.52076768
3960,4064.55651579,0.122564891,133347,3907.60158675
3970,4032.60766328,0.122817206,133683,3472.4934341
3980,4046.42761371,0.123072087,134028,3556.06443258
3990,4064.0230542,0.123329107,134360,3720.87449706
4000,4112.02189021,0.123781136,134681,3522.16369408
4010,4082.57527477,0.124048847,135022,3566.57266824
4020,4055.36231701,0.124312281,135367,3412.32536137
4030,4111.72560882,0.12458213,135707,3800.04829142
4040,4016.87003174,0.124871651,136041,3436.73308004
4050,3913.57384491,0.125144066,136378,3503.17528207
4060,4022.40125228,0.125410066,136713,3334.8965506
4070,4138.4908556,0.125666658,137047,3962.61542818
4080,4155.09190404,0.125935651,137389,3821.41738374
4090,4072.7135464,0.126199941,137733,3533.89454565
4100,4180.38260213,0.126485185,138068,3601.51892
4110,4192.89737135,0.126756744,138405,3588.35196543
4120,4116.61359622,0.12702531,138751,3467.4174967
4130,4136.7059426,0.127292166,139090,3530.41022035
4140,4121.58329178,0.127555172,139423,3344.65506263
4150,4128.67265519,0.127826304,139763,3411.14098628
4160,4165.03377178,0.128092304,140092,3586.49617806
4170,4194.45861157,0.130288301,140432,3593.75596328
4180,4367.72001012,0.130546176,140762,3331.96216192
4190,4254.02502384,0.130796781,141099,3487.60567546
4200,4386.33534232,0.131068341,141437,3669.50519953
4210,4253.0030095,0.13133092,141771,3714.1367574
4220,4206.43730901,0.131596492,142106,3530.67595023
4230,4243.44096018,0.131853939,142443,3547.51137584
4240,4185.16563487,0.132104971,142773,3536.31893582
4250,4151.30693711,0.132361563,143101,3711.6918974
4260,4175.0158333,0.132615588,143434,3613.34614591
4270,4277.28345904,0.13289399,143772,3597.54243244
4280,4345.75369618,0.133164266,144110,3643.57543216
4290,4345.33158126,0.133425562,144459,3457.15293478
4300,4206.58274858,0.133687713,144791,3696.60234301
4310,4145.14589316,0.133952002,145131,2891.39450157
4320,4206.31160752,0.134222279,145473,3760.93427317
4330,4206.31160752,0.134476732,145808,3373.00803873
4340,4015.1806723,0.134725626,146141,3559.54647424
4350,4078.4139097,0.134998896,146475,3550.95291481
4360,3931.96879282,0.13524779,146812,3319.55491162
4370,3910.18545527,0.135500105,147151,3048.08040308
4380,3889.11939736,0.135753703,147489,3235.19838964
4390,3908.8338979,0.136005163,147827,3577.84833924
4400,4071.46785884,0.136282282,148170,3361.54435066
4410,3955.10364503,0.136540157,148494,3515.59211157
4420,3946.81841342,0.136895109,148837,3492.70870987
4430,4134.34968819,0.137169234,149173,3373.25328617
4440,4035.12682456,0.137424542,149511,3636.90166698
4450,4058.28462009,0.137711924,149851,3546.77104643
4460,4034.9993261,0.137963811,150184,3348.77875294
4470,3973.30886489,0.138221685,150522,3889.77245803
4480,3952.89611537,0.138480842,150856,3573.79339035
4490,3948.6772243,0.138735296,151195,3774.62848697
4500,3986.4362163,0.138984618,151527,3708.67708856
4510,4045.8120249,0.139244631,151864,3618.95158422
4520,4092.91949455,0.139504644,152203,3390.69912331
4530,3944.00936605,0.139769361,152546,3321.82264422
4540,3954.68436891,0.14003194,152884,3647.70781439
4550,4055.36683538,0.140287249,153225,3436.35549901
4560,3953.61641271,0.140551966,153566,3643.79400568
4570,3890.41724369,0.1408154,153903,3654.29118815
4580,3945.51558534,0.14109038,154242,3563.18648786
4590,3885.14813649,0.141366216,154573,3370.441052
4600,4048.54106607,0.141642052,154902,3779.13694281
4610,4127.70712349,0.141911474,155236,3835.52722593
4620,3949.5433362,0.14218731,155570,3696.350042
4630,3978.71904623,0.142469989,155905,3553.6308948
4640,3955.83892812,0.142751385,156230,3331.35854059
4650,4102.9688623,0.143021662,156557,3124.30475912
4660,3924.57220651,0.143294505,156890,3630.07885586
4670,3943.20768362,0.143560933,157222,3510.27429844
4680,3981.72828464,0.145688934,157564,3749.46519507
4690,4106.89067093,0.145965198,157893,3503.95537974
4700,3955.07051898,0.146229488,158221,3599.21196427
4710,3967.5401206,0.146511739,158564,3688.55412184
4720,3956.14494283,0.146762771,158903,3709.75299972
4730,3931.29825922,0.147045449,159236,3574.84416763
4740,3991.43244061,0.147305034,159560,3628.85892437
4750,3984.35916348,0.1475736,159890,3427.5995412
4760,4016.96742302,0.147828053,160229,3227.46343328
4770,3912.43987729,0.148091915,160574,3707.67618865
4780,3972.16763722,0.148379298,160906,3742.27753851
4790,4027.09459131,0.148640594,161230,3534.26891505
4800,4039.38377289,0.148906594,161564,3674.52076382
4810,4033.07401619,0.149172167,161898,3244.88320319
4820,4070.57212382,0.149444154,162224,3562.59338017
4830,4079.40748903,0.149700746,162553,3607.80993351
4840,3996.06601991,0.150031749,162881,3720.13162347
4850,4096.35025648,0.150290479,163216,3310.39246285
4860,4131.96983265,0.150614212,163549,3488.36543217
4870,4175.48768987,0.150894325,163883,3418.68509193
4880,4136.25817759,0.151163746,164212,3525.46240441
4890,4049.67163,0.151441293,164539,3614.4519504
4900,4112.90612333,0.15169318,164870,3357.75904929
4910,4033.81813082,0.151946351,165203,3330.77576903
4920,4168.89104581,0.152200804,165541,3403.86635911
4930,4310.7834843,0.152482628,165877,3391.05379143
4940,4285.25009439,0.152753332,166215,3583.4701594
4950,4204.28670137,0.153029169,166561,3532.57575936
4960,4179.36937622,0.153300728,166903,3712.84128673
4970,4206.25704288,0.153592388,167237,3405.4576308
4980,4200.50509682,0.15386181,167572,3566.0499144
4990,4175.81361011,0.154127383,167906,3607.99457949
