it,funval,time,funcount,weight
0,5888.11815695,0.000927150999928,804,5424.07937102
10,6240.9130649,0.00187739499995,1497,5539.10775287
20,6190.95116613,0.00281352799993,2194,5899.16046708
30,6269.32181477,0.00374666699997,2885,5081.85910532
40,6068.71979127,0.0047011879999,3584,5648.2495771
50,6310.37726333,0.00560267999992,4286,5625.27310721
60,6227.57899105,0.00655292499994,4984,5377.75360288
70,6522.39142545,0.00760110199997,5674,5946.10840581
80,6738.5183131,0.00856460399996,6366,5601.55581833
90,6418.62006885,0.00950843399994,7052,6165.77545865
100,6486.6798322,0.0104364409999,7758,5615.87174878
110,6629.62854729,0.011385403,8450,5913.5824476
120,6544.03811913,0.0123386409999,9137,5541.11880931
130,6618.04590052,0.0132918799999,9846,5523.02511754
140,6740.85688478,0.0142275849998,10532,5704.27453094
150,6709.45727573,0.0151722699998,11239,5467.76829575
160,6544.5518866,0.0161486019997,11936,5843.06434891
170,6673.62229587,0.0171044069997,12637,5570.599103
180,6838.3269198,0.0181059699997,13331,5886.75896694
190,6808.90044392,0.0190284169997,14041,5410.84744762
200,7204.54764022,0.0199547129997,14736,5874.85642012
210,6833.59457954,0.0208874239997,15430,5886.87409453
220,6711.33495709,0.0218158589997,16126,5245.55702616
230,6888.26478664,0.0227135029996,16834,5996.41732013
240,7110.05152666,0.0236419379997,17517,6274.31715065
250,7172.95651356,0.0245806359998,18231,6393.01699045
260,7148.16526633,0.0255244659999,18935,6070.7000732
270,7409.53251715,0.0264563219998,19621,6146.81651086
280,7341.69683717,0.0273864669998,20329,6420.19801549
290,7577.38763262,0.0283277309998,21020,5998.41237918
300,7596.08275881,0.0292630079997,21715,6299.51265762
310,7377.87301422,0.0301713429998,22412,6645.02085715
320,7266.52273057,0.0310916519998,23107,6583.50002628
330,7126.60370099,0.0320893659997,23812,6001.20140838
340,7207.08087018,0.0330468809997,24514,6651.94711908
350,7121.0193615,0.0341245659997,25212,6330.28131934
360,7048.09451549,0.0350547109997,25917,5971.97261015
370,7571.99507186,0.0359835729997,26624,6198.55446218
380,7401.61982195,0.0369761549997,27323,6075.5340293
390,7316.6518062,0.0378990299997,28024,6304.45578891
400,7750.94228175,0.0388313129997,28730,6260.51217982
410,7488.61467536,0.0397661619996,29432,6391.11871169
420,7420.69502984,0.0406967349996,30137,6590.53461224
430,7328.94118343,0.0416944489997,30844,6064.32692155
440,7437.80265601,0.0426275879997,31551,6433.38757489
450,7452.03546543,0.0435692789998,32245,6231.62783549
460,7426.82057588,0.0445387679998,32938,6605.00456498
470,7427.29887586,0.0454714789998,33638,5668.88728268
480,7479.29900955,0.0466103189998,34346,6103.9204228
490,7339.56933247,0.0475669789998,35042,6533.23417442
500,7241.59871351,0.0485223559999,35741,5547.16729438
510,7165.58615729,0.04945635,36427,6018.48007981
520,7114.20536962,0.0505301860001,37146,6106.34607456
530,7166.80938531,0.051532604,37840,6381.17738677
540,7275.20707318,0.052468736,38541,6606.49230112
550,7172.07036152,0.053439936,39243,6178.77703654
560,7189.5131203,0.0544342290001,39955,6568.38350869
570,7031.06966284,0.0554276670001,40647,6601.32875037
580,7162.08437771,0.0563971560001,41352,5907.34757251
590,7051.9778804,0.0573576640002,42060,6390.2111441
600,7361.37981809,0.0582997840002,42765,6262.57273336
610,7356.62832435,0.0592277910002,43472,6133.23909059
620,7197.98142962,0.0601750420002,44169,6080.16587173
630,7322.4152511,0.0611013380002,44858,6674.03296844
640,7326.54196108,0.0620443130002,45540,6264.50110541
650,7348.08229725,0.0629851490003,46239,5963.19981813
660,7251.54101025,0.0638981880003,46930,5975.97530251
670,7495.86405072,0.0648539920003,47637,5638.75182035
680,7573.0258831,0.0657815710002,48318,6579.25856108
690,7365.57482723,0.0667164200003,49015,6782.49615681
700,7677.49225536,0.0676529800003,49710,6270.62150766
710,7672.57600916,0.0686990190003,50392,6327.59559843
720,7582.74940667,0.0696479800002,51099,6875.79957822
730,7551.66284068,0.0706585240002,51792,6136.3564271
740,7739.65956199,0.0715694240002,52476,6301.7817309
750,7527.70316255,0.0724777580002,53161,6328.48464076
760,7523.2661941,0.0734138910002,53856,6686.03854754
770,7450.01322504,0.0743478850003,54560,6213.54109711
780,7564.73302958,0.0753250710003,55260,6301.39180945
790,7521.54908475,0.0762633420003,55961,6315.09817497
800,7606.37165495,0.0771956260003,56656,5931.47370559
810,7356.71094326,0.0781484370003,57352,7370.975838
820,7704.74449047,0.0790824310003,58050,6288.55538263
830,7674.18181228,0.0800100100003,58758,6168.21156009
840,7760.62630343,0.0809611100002,59457,6345.5139304
850,7599.06129233,0.0819040840003,60162,6379.7247805
860,7615.32070277,0.0828645930003,60862,6897.88231263
870,7592.206912,0.0838233910004,61559,6606.22735528
880,7555.97202111,0.0847736360004,62267,6813.00458117
890,7448.63373058,0.0857298680004,62964,6872.52374946
900,7528.34230651,0.0866527430004,63660,6425.18120583
910,7332.99402076,0.0875995670004,64348,6506.57016182
920,7590.01510614,0.0885502390005,65053,6496.34329319
930,7186.67899545,0.0895000560005,65754,6107.15068921
940,7232.84689922,0.0904567160005,66451,6007.77348842
950,7406.75493449,0.0914232120004,67156,6212.08897082
960,7347.58158358,0.0923294080004,67851,5937.28333858
970,7423.93267937,0.0932385980004,68546,5679.47106727
980,7119.29863201,0.0941695980005,69228,6003.29911128
990,7369.83800264,0.0951023090005,69925,6268.16754818
1000,7143.341069,0.0960401520005,70643,6471.52063218
1010,7463.61766902,0.0969442100005,71334,6336.36659882
1020,7493.48032374,0.0978854740006,72036,6103.39005847
1030,7575.61435517,0.0988374290006,72739,6880.64432361
1040,7319.41011206,0.0998073460006,73443,6952.77741233
1050,7350.60945587,0.100743906001,74132,6588.8869103
1060,7417.807511,0.101685170001,74806,6101.08253825
1070,7342.08474162,0.102628572001,75513,6488.43930347
1080,7260.94445367,0.103552302001,76205,6771.93114492
1090,7257.51128627,0.104504258001,76891,6272.99846513
1100,7188.99306086,0.105461773001,77580,6558.49431583
1110,7203.05394337,0.106422709001,78272,6483.08237305
1120,7222.41516747,0.107355420001,78966,6589.335621
1130,7491.05908054,0.108359549001,79667,6431.32783254
1140,7186.85116076,0.109293543001,80381,5985.63874062
1150,7314.2724746,0.110211714001,81082,6334.57197639
1160,7223.08954644,0.111137155001,81771,6116.9391627
1170,7469.00123553,0.112082268001,82468,6900.78437179
1180,7226.54542792,0.113031658001,83175,6663.00964588
1190,7167.41977806,0.113981475001,83863,6370.93376431
1200,7049.93374808,0.114917179001,84559,6385.39217711
1210,7069.12616257,0.115857160001,85270,6580.07370471
1220,7156.15780882,0.116806122001,85976,6085.19647493
1230,7025.85297014,0.117760215001,86665,6553.97853074
1240,7336.53638067,0.118716447001,87372,6692.55400373
1250,7391.09289836,0.119667975001,88061,6128.5568697
1260,7383.28117058,0.120599830001,88741,6515.88261096
1270,7464.71421369,0.121544515001,89436,6487.71191391
1280,7175.34874269,0.122468672001,90123,6449.77833504
1290,7393.79774147,0.123415924001,90824,6766.57414199
1300,7243.17828159,0.124360182001,91524,5334.87778031
1310,7287.51616568,0.125307861001,92224,6155.47918351
1320,7007.65138407,0.126248697001,92916,6343.20513496
1330,7017.68004052,0.127193382001,93612,6086.81113931
1340,6995.19134552,0.128123955001,94313,6453.66199465
1350,7199.81718265,0.129087885001,95021,6568.89883813
1360,7220.14565797,0.130025728001,95724,6477.03951734
1370,7201.96286388,0.130959295001,96426,6242.27551599
1380,7115.55347501,0.131902697001,97128,5734.0487542
1390,7180.80380397,0.132812742001,97833,6055.87052677
1400,7468.74247407,0.133757427001,98539,5946.56269787
1410,7299.4631766,0.134698264001,99249,5908.77762107
1420,7499.52734958,0.135621567001,99936,6595.46975722
1430,7309.33198649,0.136563687001,100643,6184.88158806
1440,7404.65753113,0.137494687001,101331,6713.98288426
1450,7365.66678193,0.138455623001,102031,6433.81262902
1460,7399.31967514,0.139402874001,102728,6568.80414254
1470,7309.70174248,0.140340717001,103438,6519.59795411
1480,7493.9383543,0.141376492001,104125,6575.32800068
1490,7182.04972158,0.142283116001,104833,6896.75729121
1500,7021.35749987,0.143223525001,105540,6567.97921587
1510,7167.76014855,0.144179757001,106222,6349.31545719
1520,7386.52807678,0.145116744001,106927,6963.24117433
1530,7239.70412463,0.146048172001,107624,6522.99644878
1540,7404.87248846,0.146983877001,108313,6821.53438718
1550,7294.25078245,0.147950373001,109021,7013.97332942
1560,7152.37435913,0.148907460001,109711,6679.78617114
1570,7277.38936349,0.149840171001,110423,6558.12556126
1580,7526.60864825,0.150804528001,111122,6731.71796004
1590,7471.01177188,0.151774445001,111818,6890.37038024
1600,7483.0296956,0.152753770001,112514,6452.81737583
1610,7729.27464326,0.153728391001,113209,6786.46751974
1620,7549.595174,0.154671366001,113910,6946.03259911
1630,7577.2142991,0.155621183001,114616,6818.4877419
1640,7501.98254523,0.156543203001,115308,6579.37305802
1650,7376.19654069,0.157478480001,115995,6937.28219188
1660,7518.86850779,0.158405204001,116698,7074.66262179
1670,7668.42211949,0.159357587001,117394,6639.32126589
1680,7420.64922025,0.160312963001,118088,6891.3498246
1690,7499.38219739,0.161276893001,118788,6844.34172488
1700,7308.41058241,0.162296417001,119490,6735.65087852
1710,7209.55686777,0.163271465001,120178,6732.57007702
1720,7366.70817019,0.164209308001,120861,6221.48771858
1730,7529.76381979,0.165153566001,121564,6528.086727
1740,7468.65006995,0.166126904001,122257,6385.38058892
1750,7353.14539082,0.167058332001,122957,6800.29510102
1760,7403.18287865,0.167963673001,123655,6840.64433177
1770,7251.4462245,0.168904937001,124350,6828.83718673
1780,7399.82660971,0.169824391001,125038,6505.8868296
1790,7521.97151299,0.170734864001,125720,6473.13808907
1800,7559.45159381,0.171641060001,126416,6463.64767912
1810,7318.82670551,0.172587028001,127115,6242.28235189
1820,7208.65748998,0.173508620001,127813,6718.61167052
1830,7158.82279759,0.174447318001,128519,5654.40029813
1840,7412.46465685,0.175365916001,129217,5964.57790271
1850,7344.10852397,0.176315733001,129911,6833.28361489
1860,7293.75337707,0.177260418001,130621,6471.20903329
1870,7233.56446256,0.178182009001,131337,6302.04249067
1880,7395.1746747,0.179125411001,132034,6760.30571235
1890,7405.67244318,0.180088913001,132741,6589.24981903
1900,7329.71231932,0.181020341001,133445,6464.04377349
1910,7531.78101063,0.181962460001,134160,6436.32868904
1920,7533.42166858,0.182907573001,134866,6287.3916996
1930,7647.38862292,0.183837290001,135557,6584.20422632
1940,7568.79111623,0.184778554001,136256,6946.15127491
1950,7721.64657774,0.185721957001,136953,6129.14280196
1960,7546.3839498,0.186697433001,137674,6740.71796305
1970,7656.05515703,0.187655803001,138378,6409.85133458
1980,7423.17133822,0.188604337001,139063,6283.51776225
1990,7430.43846054,0.189533199001,139755,6204.57112624
2000,7534.73280225,0.190495846001,140461,6292.48320605
2010,7517.98057763,0.191455499001,141158,6349.11128438
2020,7587.05102789,0.192400611001,141842,6038.24071103
2030,7222.56772326,0.193330329001,142527,6095.19098928
2040,7359.48951095,0.194281001001,143217,5581.56484914
2050,7485.87835966,0.195224831001,143911,6375.35919756
2060,7783.4512546,0.196145995001,144628,6250.47395004
2070,7474.62121967,0.197087687001,145324,6955.44994257
2080,7568.04978843,0.198005002001,146031,6642.35821092
2090,7646.66342378,0.198953964001,146747,6230.93640502
2100,7743.6358981,0.199921315001,147440,6478.9405605
2110,7577.81334262,0.200859158001,148133,6736.47156338
2120,7600.65073433,0.201800422001,148833,6761.84543896
2130,7374.78080016,0.202738264001,149524,6441.05112498
2140,7620.63190959,0.203679100001,150226,6153.3934842
2150,7594.86877334,0.204631911001,150919,6706.3868482
2160,7497.33186222,0.205553075001,151601,6387.17277961
2170,7363.65709995,0.206503319,152296,5981.8776259
2180,7517.88345178,0.2074433,152993,6478.65550701
2190,7755.75998306,0.208398677,153706,6867.20627148
2200,7567.80534108,0.209343362,154397,6418.94243735
2210,7772.21462218,0.210303016,155088,6455.06240765
2220,7686.16922281,0.211240431,155789,6202.74776083
2230,7569.77683602,0.212207782,156481,6039.93816721
2240,7696.63943859,0.213180692,157198,6557.48084538
2250,7589.01932981,0.214108271,157894,6774.0922022
2260,7600.35439758,0.215051674,158593,6142.09820004
2270,7473.95094498,0.215948462,159283,6319.31334938
2280,7443.65743475,0.216903411,159992,6540.87778499
2290,7277.01070035,0.217847669,160690,6702.86585975
2300,7526.7954129,0.218861207,161387,6636.82792626
2310,7424.09949727,0.21978451,162089,6443.48996786
2320,7417.27598318,0.220709523,162793,6832.22873589
2330,7477.28575519,0.221654208,163498,6962.1652787
2340,7495.82520919,0.222663042,164185,6854.0109677
2350,7476.36239194,0.22360174,164883,7034.48045102
2360,7662.93059193,0.22457294,165589,6425.97357658
2370,7720.60428274,0.225533876,166290,6725.23245327
2380,7628.77256354,0.226504648,166978,6995.59082854
2390,7637.23344651,0.227422819,167666,6807.43847268
2400,7570.61993148,0.228345694,168371,6515.90567226
2410,7515.8154026,0.229263864,169078,6614.11884573
2420,7611.06164169,0.230181607,169772,6411.71694781
2430,7409.8607597,0.231080105,170450,6494.28108661
2440,7526.37644932,0.23200469,171150,6813.64012776
2450,7582.32249939,0.232951514,171842,6828.88398953
2460,7618.17688911,0.233896627,172536,6420.56853529
2470,7678.47015437,0.234815653,173241,6708.68191738
2480,7469.37482658,0.235715862,173943,6545.24569258
2490,7553.83873061,0.236621203,174654,6625.92592591
2500,7375.65804894,0.237559901,175344,6735.42884001
2510,7264.22618411,0.238485769,176032,6852.89281623
2520,7591.30536082,0.239459963,176744,7056.57300668
2530,7552.84773587,0.240424748,177446,7202.34885613
2540,7715.31922887,0.241357887,178145,7288.35755376
2550,7446.1368449,0.242289315,178835,6758.50891925
2560,7457.49154257,0.243220316,179535,6822.51765421
2570,7643.41904434,0.244175692,180231,6234.94173992
2580,7523.26553242,0.245134918,180945,6564.68179647
2590,7577.98342506,0.246083025,181636,6504.12807405
2600,7689.70460707,0.247031987,182344,6639.01318976
2610,7646.7669497,0.247980522,183052,6531.71996459
2620,7622.04858778,0.248920075,183734,7112.79107646
2630,7611.80595251,0.249893841,184420,6949.13444583
2640,7484.11882331,0.250858626,185101,6419.47846337
2650,7506.65995885,0.251784922,185785,7098.38106178
2660,7519.01801714,0.252710363,186474,7131.49775742
2670,7552.81063129,0.253609717,187186,6645.55903269
2680,7490.63487562,0.254536441,187881,6660.56464973
2690,7616.21095833,0.255470862,188585,7000.74923079
2700,7585.75967348,0.256405284,189282,6527.59140387
2710,7298.20483306,0.25733885,189966,6478.1690071
2720,7320.22591314,0.258312616,190659,6518.35863033
2730,7260.84526284,0.259239767001,191353,6653.08719246
2740,7247.68221517,0.260207546001,192061,6801.37955319
2750,7292.05147803,0.261105617001,192770,6511.15232757
2760,7288.82768114,0.262037045001,193458,6323.54940715
2770,7372.08875126,0.262944524001,194160,6256.44296996
2780,7297.27879412,0.263858418001,194865,6158.81027436
2790,7470.08150481,0.264831328001,195551,6158.44356552
2800,7251.14257173,0.265799534001,196257,6299.87830587
2810,7247.5522473,0.266748496001,196957,5949.24640978
2820,7369.21198956,0.267697457001,197661,6486.83734828
2830,7393.25729195,0.268623326001,198360,5877.83928289
2840,7212.07880598,0.269571005001,199059,5961.9086197
2850,7036.26295814,0.270519111001,199754,6034.19268955
2860,7130.39390128,0.271477481001,200445,6695.38035941
2870,7194.28684635,0.272436706001,201140,6955.60498525
2880,7613.78826438,0.273384385001,201831,6941.06483855
2890,7508.65556856,0.274330781001,202526,6749.71239189
2900,7283.60524242,0.275271618001,203240,6732.2639135
2910,7380.35969094,0.276197059001,203953,6873.49759788
2920,7386.95152017,0.277165265001,204655,6813.44403811
2930,7346.68611074,0.278110378001,205346,6571.23397182
2940,7317.1993269,0.279062761001,206057,7034.81499299
2950,7477.69956473,0.280021987001,206756,6463.41940113
2960,7460.12806272,0.280946572001,207445,6968.42421708
2970,7671.85008555,0.281868164001,208142,7021.66885188
2980,7551.20354425,0.282812421001,208842,6650.38989609
2990,7666.66578893,0.283802009001,209551,6799.95729191
3000,7676.28718989,0.284764228001,210256,6472.04594969
3010,7548.14955521,0.285733717001,210961,7143.29741854
3020,7576.76495015,0.286680969001,211656,6833.19785493
3030,7429.94848027,0.287631214001,212362,7089.0946559
3040,7538.61435743,0.288573333001,213059,7055.25394073
3050,7582.93588227,0.289529137001,213762,6936.68627943
3060,7665.77232342,0.290523002001,214476,6611.92097766
3070,7591.39541952,0.291514301001,215170,6998.46524637
3080,7525.67805025,0.292443164001,215869,6837.63980098
3090,7846.80209077,0.293371599001,216567,7141.17181175
3100,7524.82469068,0.294309442001,217258,6798.17815426
3110,7376.9758958,0.295246002001,217956,7055.17099498
3120,7439.65616537,0.296180423001,218661,6931.23806101
3130,7411.50501053,0.297112278001,219360,6761.37371785
3140,7594.56586728,0.298089037001,220064,6928.16270277
3150,7385.11061563,0.299059809001,220766,7039.44181122
3160,7553.9676468,0.300002784001,221485,6746.47490258
3170,7571.30642891,0.300952174,222186,6143.18373592
3180,7446.66571803,0.301892155,222889,6599.36235514
3190,7391.44870607,0.302819306001,223588,6660.35315604
3200,7683.65926033,0.303721654,224282,5897.74307666
3210,7500.28904764,0.304624857,224979,6802.42455985
3220,7493.09100605,0.305555429,225668,6145.0762717
3230,7537.80395697,0.306462480001,226377,6879.37702652
3240,7449.67691268,0.307405027001,227073,6688.37617838
3250,7435.50247901,0.308323625001,227766,6209.68339892
3260,7510.75540089,0.309249066001,228464,6465.98962825
3270,7390.12689129,0.310174507001,229158,6213.59172881
3280,7474.31563119,0.311122186,229867,7016.8492898
3290,7524.9252242,0.312064305,230560,6186.46719229
3300,7340.45472362,0.313022675001,231277,6731.90617897
3310,7313.68002195,0.313968643001,231967,6277.64356297
3320,7645.98029608,0.314879544001,232670,6766.55496518
3330,7500.93146447,0.315798143001,233375,7046.3280475
3340,7413.95955654,0.31673342,234053,6754.397776
3350,7421.22786877,0.317648169,234777,7044.81244725
3360,7376.30561472,0.318568051,235475,6712.42587363
3370,7469.73407271,0.319490071,236173,6643.62470592
3380,7486.70997477,0.320429625,236891,6514.56102219
3390,7373.99027431,0.321395692,237594,6664.59962711
3400,7536.20561115,0.322332251,238290,6461.00634964
3410,7423.89128274,0.323288055,238988,6727.19802956
3420,7509.66266288,0.324222049,239683,7093.79404845
3430,7518.93252314,0.325147062,240382,6541.00628922
3440,7488.7571544,0.326248268,241088,6350.11914739
3450,7688.64467305,0.327187821,241776,6356.50696139
3460,7556.4406639,0.328107702,242468,6381.95660105
3470,7634.08726136,0.329044262,243163,6566.64025825
3480,7653.04432067,0.329954735,243841,6336.83201836
3490,7800.92385443,0.330896426,244543,6626.1825136
3500,7492.59156899,0.3318595,245246,6658.16589109
3510,7360.35532686,0.332806751,245935,6931.00581832
3520,7444.34019421,0.333758707,246632,6516.42236363
3530,7405.79935288,0.334729051,247344,6686.74297468
3540,7635.16329475,0.335666894,248041,6148.2227798
3550,7612.2050966,0.336590196,248738,6303.28070974
3560,7526.21627882,0.337523762001,249456,6288.29445638
3570,7381.37514479,0.338454335001,250163,6392.86624695
3580,7340.8640714,0.339439220001,250851,6450.25251455
3590,7733.90222774,0.340431802001,251540,6508.82523657
3600,7571.20035633,0.341349973001,252232,6392.70118393
3610,7724.2513865,0.342311764001,252930,7235.71281159
3620,7487.62041432,0.343365928001,253617,6745.13082453
3630,7507.33240212,0.344329858001,254310,6785.31744159
3640,7656.30004361,0.345283952001,255010,6791.33894394
3650,7544.90957384,0.346239756001,255706,7094.95682069
3660,7562.62766208,0.347176316001,256402,6638.92427627
3670,7562.23865232,0.348134686001,257098,6034.64603616
3680,7629.26325022,0.349071246001,257796,6987.41911764
3690,7486.65072946,0.350024484001,258502,6236.21858273
3700,7586.6481244,0.350981999001,259198,6571.7302078
3710,7619.28781356,0.351911288001,259910,6734.80488499
3720,7663.65720893,0.352871796001,260610,6678.71758346
3730,7811.20161878,0.353798947001,261311,6563.31417877
3740,7814.63858911,0.354737645001,262024,6461.49218678
3750,7621.46288871,0.355707562001,262725,6131.05352826
3760,7643.49870231,0.356667642001,263410,6445.89680296
3770,7534.33829106,0.357614038001,264125,6384.33627723
3780,7618.93656794,0.358589514001,264809,6617.3623699
3790,7549.44499169,0.359524363001,265517,6336.94662406
3800,7625.32928751,0.360469048001,266201,6618.75933725
3810,7496.25712381,0.361405608001,266889,6213.21843323
3820,7416.92613211,0.362366116001,267586,6278.02465411
3830,7279.99219201,0.363314650001,268280,6799.73273106
3840,7349.31638797,0.364654058001,268984,6244.88103679
3850,7391.20482197,0.365633384001,269704,6246.47525476
3860,7358.96336603,0.366618269001,270387,6267.99804744
3870,7519.3139296,0.367586476001,271083,6469.03075847
3880,7443.65836942,0.368538859001,271778,6463.56918946
3890,7171.16040759,0.369559667001,272476,6699.24456531
3900,7100.86671445,0.370512477001,273174,6205.59282828
3910,7287.21632205,0.371492657001,273885,6454.40855801
3920,7499.10223471,0.372443758001,274588,6359.71587472
3930,7194.29898591,0.373350810001,275295,6338.54319142
3940,7300.77893992,0.374278389001,275994,6717.00225789
3950,7278.14949889,0.375200836001,276698,6217.83688364
3960,7266.52032185,0.376151509001,277397,6131.04018357
3970,7407.82377731,0.377053002001,278087,6723.18148934
3980,7463.34910722,0.377990417001,278784,7165.32101353
3990,7654.70571439,0.378923983001,279453,7161.02493481
4000,7576.35898775,0.379868240001,280142,7274.29059914
4010,7510.09460993,0.380834736001,280839,7218.80598503
4020,7612.18667383,0.381753762001,281532,7173.32573807
4030,7707.23165935,0.382698447001,282230,7479.28961576
4040,7624.07833543,0.383632441001,282927,7183.08252988
4050,7468.78140574,0.384551467001,283623,6506.4130981
4060,7521.77814882,0.385473059001,284324,6507.03002532
4070,7604.80793797,0.386397217001,285018,7102.73543286
4080,7467.7699863,0.387350883001,285713,7197.81041923
4090,7441.0441683,0.388310964001,286413,6795.48662149
4100,7655.1860313,0.389246241001,287111,7244.39885416
4110,7473.05558207,0.390175104001,287819,7150.49175781
4120,7713.8481694,0.391085577001,288508,7371.87910693
4130,7580.47653972,0.392024703001,289206,7243.82249609
4140,7499.39076632,0.392964257001,289894,6682.184834
4150,7574.17328039,0.393901244001,290584,7189.04748668
4160,7450.5869086,0.394826685001,291293,6443.92764249
4170,7448.46986199,0.395803872001,291988,6942.71948945
4180,7572.25424749,0.396732735001,292678,6562.30254531
4190,7368.16258743,0.397669722001,293383,6911.69569732
4200,7524.58066592,0.398609703001,294079,6513.37415473
4210,7757.4521342,0.399535144001,294781,6929.22655945
4220,7531.70010046,0.400460157001,295481,7298.10516371
4230,7430.72077623,0.401377472001,296169,6558.74151462
4240,7431.51605426,0.402308045001,296903,6543.09205883
4250,7344.93886214,0.403265560001,297608,6793.01168599
4260,7466.36801929,0.404221364001,298303,6919.8565152
4270,7830.87292347,0.405171609001,299001,6552.44666691
4280,7548.4563084,0.406137677001,299698,7084.72039988
4290,7489.25543204,0.407086211001,300397,7172.99985342
4300,7476.86789394,0.408026192001,301084,6015.11034728
4310,7699.20155884,0.408971305001,301793,6477.65808143
4320,7730.77825261,0.409906154001,302475,6184.11030368
4330,7509.62822988,0.410836299001,303175,6364.72502193
4340,7702.20641808,0.411777563001,303872,6432.81577909
4350,7701.59570659,0.412684187001,304566,6627.90580281
4360,7620.58071603,0.413634432001,305258,6740.29855474
4370,7651.07872056,0.414567998001,305959,6744.65092385
4380,7280.48547741,0.415482747001,306658,6838.01803947
4390,7461.19970648,0.416381674001,307359,6446.51553239
4400,7599.28108978,0.417297707001,308040,6823.37644409
4410,7554.2537324,0.418225286001,308748,6644.40516223
4420,7408.81797623,0.419147733001,309441,6563.13325694
4430,7769.58910821,0.420073174001,310130,6541.10257948
4440,7571.66249226,0.421046512001,310827,6874.07443108
4450,7732.3648886,0.422015145001,311532,6869.98832824
4460,7737.13650285,0.422970094001,312247,6193.41353342
4470,7560.18705162,0.423904943001,312952,6402.4940534
4480,7631.43189842,0.424852622001,313645,6391.73446448
4490,7829.96012921,0.425790037001,314317,6437.62503052
4500,7731.93228623,0.426779626001,315009,5593.45282919
4510,7715.11614223,0.427708488001,315710,5957.8637828
4520,7526.71242982,0.428707057001,316402,6452.42397794
4530,7643.23914265,0.429614536,317081,6651.07793205
4540,7479.28418136,0.430536128001,317775,6210.36711296
4550,7566.14458965,0.431476536001,318469,6845.20873904
4560,7622.32597675,0.432417373001,319168,6384.48764914
4570,7682.29428369,0.433332550001,319868,6251.90213479
4580,7596.42249126,0.434246444001,320574,6294.60219552
4590,7505.50405196,0.435164614001,321262,6309.99925536
4600,7429.07823789,0.436095186001,321948,6449.76828397
4610,7486.02822459,0.437024048001,322664,6396.20468457
4620,7332.20897493,0.437960180001,323349,5637.82213872
4630,7570.55598098,0.438899305001,324058,5891.26886727
4640,7347.59628945,0.439820469001,324749,6175.48918844
4650,7600.12163126,0.440738212001,325442,5919.60892794
4660,7504.36948886,0.441680759001,326141,7043.65947904
4670,7580.71049965,0.442639556001,326834,6938.91848635
4680,7407.56334333,0.443551312001,327523,6240.1964376
4690,7589.80257114,0.444490865001,328226,6064.04881361
4700,7610.91217291,0.445426142001,328930,6704.60917961
4710,7383.34868972,0.446356714001,329635,6592.94747951
4720,7436.86444491,0.447290708001,330331,6369.33840634
4730,7479.54603822,0.448227268001,331027,6291.52773687
4740,7304.8279183,0.449162545001,331732,5988.3112513
4750,7211.11560535,0.450074301001,332419,6389.04203749
4760,7276.44786807,0.450990762001,333126,6017.01678037
4770,7394.10441773,0.451909361001,333826,6227.57728026
4780,7477.16195591,0.452842500001,334519,6819.1454474
4790,7626.96993315,0.453768796001,335220,6675.37459004
4800,7302.98669627,0.454712626001,335917,6589.40085147
4810,7578.32968821,0.455625238001,336619,6720.01818033
4820,7589.13829017,0.456539560001,337321,6624.63244054
4830,7394.30963959,0.457451316001,338028,6503.44675038
4840,7485.41792903,0.458382744001,338734,6676.01759273
4850,7420.41736302,0.459317165001,339425,6215.43035186
4860,7391.6280178,0.460233197001,340123,6840.45402425
4870,7365.11705919,0.461168474001,340836,6900.52312491
4880,7448.37658492,0.462085362001,341520,6300.31844457
4890,7307.93641272,0.462999256001,342203,6649.80795472
4900,7592.62284219,0.463943941001,342886,6547.12219246
4910,7314.79843495,0.464861684001,343575,6742.58351421
4920,7397.05482793,0.465797816001,344285,6131.9238671
4930,7137.44999601,0.466742929001,344961,6858.68823595
4940,7242.12716622,0.467674357001,345652,6627.37381977
4950,7333.36079758,0.468589106001,346359,6094.05596653
4960,7250.80368922,0.469526949001,347066,6756.41177015
4970,7465.59673291,0.470437422001,347762,6487.86782517
4980,7434.58290125,0.471376975001,348467,6857.8391833
4990,7411.53946393,0.472308403001,349166,6594.90516966
