it,funval,time,funcount,weight
0,30886.2061026,3.201217528,999,30378.3792289
10,34199.6564797,6.098180123,2100,33023.7042908
20,36625.7772274,8.815471198,3201,35547.0341077
30,37745.3813324,11.511081127,4302,35765.8524779
40,38707.7783744,14.007879503,5403,35749.7913293
50,39706.7870685,16.497246555,6504,37534.1063693
60,40168.6334068,18.927426447,7605,39187.6137206
70,40466.7090026,21.288202979,8706,37657.0362697
80,40679.0757189,23.550139092,9807,38670.2940005
90,40793.0885295,25.720191843,10908,39786.012893
100,40763.6419881,27.795575501,12009,39658.6224029
110,40774.0919196,29.813870492,13110,39391.368605
120,40779.4803382,31.874886296,14211,38673.4623423
130,40823.2251352,33.844334773,15312,39548.0805672
140,40756.1675925,35.853982195,16413,39576.1737423
150,40791.9551569,37.879473728,17514,39468.6838754
160,40796.3878909,39.89103062,18615,38378.5652722
170,40809.5245636,41.845580099,19716,39281.470133
180,40766.9762121,43.801104198,20817,38858.2602983
190,40764.6387544,45.802374754,21918,39535.8401572
200,40832.3410498,47.770473131,23019,39735.4928168
210,40756.27342,49.72108863,24120,39595.246129
220,40786.8884441,51.679207727,25221,39679.5743143
230,40763.158247,53.651866167,26322,39724.026906
240,40807.8558169,55.683907632,27423,39422.5992015
250,40777.8286315,57.637287052,28524,39603.6115117
260,40836.0477218,59.624854754,29625,39717.7514185
270,40824.3569418,61.606856982,30726,39795.1173836
280,40907.9228893,63.590483436,31827,39463.1449153
290,40767.0695072,65.585133498,32928,39673.5827156
300,40768.4389446,67.577996399,34029,37889.8230598
310,40771.542845,69.584994511,35130,39709.1676215
320,40749.2889828,71.562344303,36231,39425.3050171
330,40805.8523831,73.551202662,37332,39799.2715293
340,40783.1693248,75.543522871,38433,39841.5289119
350,40772.6861928,77.555008772,39534,38736.6970619
360,40787.5626275,79.585649247,40635,39233.5546989
370,40734.7580715,81.159911386,41736,39721.0094358
380,40775.8303739,82.718580872,42837,39409.9435578
390,40776.9103746,84.322514851,43938,39596.5072807
400,40785.6980193,85.887778745,45039,39756.7406231
410,40857.8566704,87.460178027,46140,39489.1418518
420,40766.5532681,89.016240541,47241,39877.1085824
430,40812.7449963,90.560341604,48342,38754.4785036
440,40753.706413,92.094961175,49443,39781.1306747
450,40790.3028309,93.615853943,50544,39769.5911966
460,40811.293022,95.145776602,51645,39611.6587526
470,40823.2738577,96.782799796,52746,39430.2353055
480,40760.1901766,98.429816382,53847,37353.0143137
490,40776.1532548,100.024637078,54948,39763.0746382
500,40773.5894407,101.672165565,56049,39471.2324087
510,40797.3750743,103.294412069,57150,39474.5216083
520,40803.4221034,104.860262275,58251,39663.2564816
530,40806.5483785,106.411521392,59352,39538.7420206
540,40824.2362024,108.011439283,60453,39798.217503
550,40767.0517254,109.582227597,61554,39710.7576667
560,40728.1129295,111.135860187,62655,38948.9934319
570,40841.1710298,112.697129376,63756,39714.7687731
580,40787.1821716,114.268038288,64857,39584.6606523
590,40772.1708832,115.806368175,65958,39024.4511583
600,40788.8701322,117.368872852,67059,39678.9322177
610,40743.2264174,118.921780999,68160,39487.2404178
620,40795.7537481,120.469152323,69261,39755.2732996
630,40792.7479478,121.996009139,70362,39626.856257
640,40732.111834,123.550879785,71463,39172.6220495
650,40886.6250943,125.075878876,72564,39338.5242695
660,40770.2755037,126.616193072,73665,39413.4091203
670,40776.5444342,128.172261573,74766,39757.6816684
680,40808.7649598,129.704943876,75867,38799.9973009
690,40858.2274368,131.27022958,76968,39759.0883329
700,40830.561451,132.908425825,78069,38630.815617
710,40728.1129295,134.434433322,79170,39572.8431464
720,40766.7698641,135.959334053,80271,39525.9301672
730,40728.1129295,137.487963917,81372,39759.7022153
740,40745.6030883,139.048175092,82473,39703.0904408
750,40731.341556,140.600543113,83574,39751.3726302
760,40782.0118099,142.179189977,84675,39720.4420971
770,40768.5338067,143.742500352,85776,39201.157253
780,40771.5057574,145.291974873,86877,39685.2873472
790,40788.0817373,146.835631177,87978,39263.0073876
800,40757.306676,148.392671734,89079,39447.0428526
810,40754.0676957,149.958748169,90180,39226.0097191
820,40866.8231525,151.511644342,91281,39612.4255784
830,40795.4772694,153.047811161,92382,39472.3892698
840,40779.3830513,154.574210388,93483,39609.4867203
850,40881.6456257,156.087204408,94584,39763.0746382
860,40827.724696,157.618358707,95685,39427.4154459
870,40771.0220999,159.159514097,96786,39792.1374424
880,40751.0328178,160.704933614,97887,39704.4188051
890,40749.3202701,162.236571161,98988,39699.8679365
900,40752.269333,163.777468248,100089,39614.4336264
910,40887.6957308,165.32426609,101190,39786.8193289
920,40827.724696,166.914380466,102291,38578.4976201
930,40834.8131565,168.495363597,103392,39763.0746382
940,40836.9195136,170.084596152,104493,39700.4921105
950,40760.9446356,171.672224153,105594,37717.5240918
960,40777.2514905,173.20611372,106695,39762.0504469
970,40769.9308415,174.798886386,107796,39779.6905489
980,40732.4160483,176.434157913,108897,39365.4025579
990,40752.1897663,177.971510186,109998,39734.51311
1000,40780.9165693,179.64749213,111099,39609.4581487
1010,40767.6933819,181.297373135,112200,39767.4714392
1020,40754.1266795,183.009001658,113301,39717.5103475
1030,40807.3848954,184.623933159,114402,39181.761807
1040,40802.2417044,186.299265498,115503,39395.4983826
1050,40798.6283015,187.955125946,116604,39226.9948636
1060,40836.8241212,189.643289156,117705,39534.9335403
1070,40822.84656,191.238326244,118806,39340.321308
1080,40784.6095306,192.811010343,119907,39461.5209806
1090,40788.6985609,194.367490675,121008,39781.7001057
1100,40794.9960911,195.921772871,122109,39683.4298385
1110,40812.0669732,197.587596348,123210,39649.464674
1120,40770.1236844,199.231939249,124311,39691.060657
1130,40784.2222554,200.818921495,125412,39508.3768605
1140,40771.7869905,202.453078559,126513,39507.6643899
1150,40800.2959387,204.032141528,127614,39387.5117017
1160,40798.6660364,205.552737077,128715,39339.8181829
1170,40768.5497452,207.142381463,129816,39358.271192
1180,40788.2924847,208.733943016,130917,39632.6941474
1190,40775.3160939,210.2839072,132018,39536.8555215
1200,40755.0436947,211.900137482,133119,39482.9348569
1210,40765.722164,213.42943363,134220,39712.8602202
1220,40861.8573765,215.056329576,135321,39725.980874
1230,40751.8025835,216.648763968,136422,37175.3205055
1240,40780.6488401,218.209822751,137523,39115.8769847
1250,40783.01953,219.734535743,138624,38819.2629591
1260,40845.8046231,221.347257561,139725,39335.2800424
1270,40776.2932107,222.902545169,140826,39720.0902517
1280,40827.724696,224.43178786,141927,39438.5881973
1290,40779.5950537,226.018644803,143028,36911.2881898
1300,40821.4049256,227.551793248,144129,39434.6753405
1310,40801.2899515,229.103440246,145230,39513.6211287
1320,40742.3478108,230.639099869,146331,39635.6431422
1330,40772.1350637,232.168014122,147432,39763.0746382
1340,40747.3971285,233.689826344,148533,39693.400479
1350,40776.4594603,235.220382784,149634,39699.0013715
1360,40803.1717559,236.748057272,150735,39379.5940696
1370,40765.7687812,238.276368108,151836,39638.9337096
1380,40834.0633976,239.79146062,152937,39568.3470888
1390,40807.6802019,241.302596488,154038,39560.4885233
1400,40737.26862,242.824795308,155139,39932.7134113
1410,40779.4900259,244.364067315,156240,39718.4557774
1420,40808.6508606,245.869175415,157341,39484.4028346
1430,40810.1451489,247.414091157,158442,39396.4611894
1440,40795.6727268,248.971164643,159543,38546.7734125
1450,40846.9964739,250.514383886,160644,39555.9090001
1460,40771.4893308,252.203277099,161745,39156.3790542
1470,40804.9828608,253.816112673,162846,39717.0555524
1480,40792.1687637,255.384711404,163947,38759.1169406
1490,40823.4005321,256.945825354,165048,39573.2588457
1500,40784.4043954,258.479396747,166149,39141.79754
1510,40765.7103689,260.023410142,167250,39632.7018379
1520,40764.6604204,261.569449328,168351,39657.0519918
1530,40743.9504761,263.097790099,169452,39584.9029672
1540,40766.9826563,264.614634705,170553,39498.5178061
1550,40824.7423674,266.132081874,171654,39763.0746382
1560,40767.1806853,267.722827038,172755,39515.4275132
1570,40791.6806065,269.279548565,173856,39430.1899973
1580,40776.9053649,270.796629236,174957,39535.68756
1590,40767.2829976,272.349511296,176058,39429.8402306
1600,40770.2296324,273.907699673,177159,39660.6283855
1610,40801.6277806,275.473321512,178260,39708.9643216
1620,40732.6042358,277.018646945,179361,39685.0595749
1630,40736.0930972,278.572341973,180462,39576.276632
1640,40808.4057274,280.100469345,181563,39735.2024343
1650,40820.5122434,281.645273469,182664,39483.5236231
1660,40806.5051532,283.175507887,183765,39549.5565491
1670,40793.3484664,284.707857476,184866,37749.3580877
1680,40765.6426028,286.236557475,185967,38842.141815
1690,40821.9914729,287.782322963,187068,38999.9945256
1700,40772.8829861,289.318289212,188169,39718.6027493
1710,40833.9458794,290.878198037,189270,39309.3547913
1720,40794.3894201,292.460242603,190371,39576.6261591
1730,40771.4237718,294.033500185,191472,36640.8368104
1740,40792.4504817,295.57958128,192573,39414.9933689
1750,40760.4789093,297.15790441,193674,38950.2577221
1760,40742.2274063,298.690366044,194775,39544.6043322
1770,40841.0473736,300.263631324,195876,39473.9428624
1780,40819.1684721,301.81654332,196977,39941.9357784
1790,40813.6709344,303.403325424,198078,38719.0209339
1800,40789.190161,305.000023944,199179,39619.0079149
1810,40807.8858715,306.522087198,200280,39505.2471317
1820,40834.1389742,308.042982533,201381,38746.0522443
1830,40786.4175197,309.568339569,202482,39677.175283
1840,40807.1911852,311.107508511,203583,39615.1772757
1850,40770.0309518,312.634807947,204684,36035.4086956
1860,40728.1129295,314.18030273,205785,39522.9683624
1870,40778.6632774,315.703861059,206886,39608.5765588
1880,40809.3102179,317.231946949,207987,39418.2289861
1890,40732.9931621,318.756856233,209088,39537.616769
1900,40731.1463258,320.3008491,210189,38953.8545672
1910,40784.5931721,321.842451387,211290,39557.2354095
1920,40731.8804448,323.378387273,212391,39504.5509478
1930,40784.1272693,324.998546402,213492,39448.2228933
1940,40794.6184387,326.621578931,214593,39304.317066
1950,40758.2924047,328.163378794,215694,39051.558421
1960,40788.1133962,329.713669278,216795,39803.4202142
1970,40784.1272693,331.287236053,217896,39682.8230415
1980,40788.5075435,332.811021893,218997,39667.8664004
1990,40833.459954,334.337460892,220098,39665.1413155
2000,40814.2028213,335.88599415,221199,39717.0296025
2010,40899.1106453,337.432314304,222300,39497.458386
2020,40767.2829976,338.98044343,223401,39500.9203606
2030,40753.2950931,340.530003054,224502,37474.074736
2040,40828.6545177,342.080010859,225603,39801.0591399
2050,40813.0335849,343.630626786,226704,39713.2144095
2060,40879.958711,345.159731772,227805,38295.3047001
2070,40835.3540855,346.681507643,228906,39736.5110689
2080,40838.8013662,348.219242238,230007,39812.9945243
2090,40758.8033952,349.735234959,231108,39352.6366114
2100,40764.5511244,351.283230229,232209,39439.2861509
2110,40777.1511226,352.843733491,233310,39595.3968522
2120,40748.4009497,354.349024199,234411,39791.7841279
2130,40756.1980229,355.878012864,235512,38853.0563223
2140,40816.6458709,357.423821972,236613,39796.8602994
2150,40857.8010259,358.976595836,237714,39109.5296057
2160,40789.336523,360.530066773,238815,39632.49695
2170,40798.7472255,362.069015474,239916,39143.0138296
2180,40774.7107255,363.610509564,241017,39129.1809662
2190,40812.7419869,365.145128707,242118,39504.9871887
2200,40829.550616,366.720983425,243219,39916.4487796
2210,40795.5736858,368.283061304,244320,39773.4745631
2220,40742.7025556,369.823485408,245421,39645.2475259
2230,40800.6792088,371.370615109,246522,38795.3831891
2240,40846.1428442,372.88931359,247623,39572.8697413
2250,40843.2674072,374.412460944,248724,39487.5910131
2260,40925.7839547,375.960694417,249825,39828.7407992
2270,40802.9847614,377.486819945,250926,38287.2190432
2280,40801.3242658,379.015189369,252027,39528.3262915
2290,40805.8523831,380.547304604,253128,39443.3810857
2300,40858.4440016,382.095292604,254229,39620.5874226
2310,40757.0918893,383.608605652,255330,38745.6994824
2320,40773.9948219,385.14287412,256431,36995.2495425
2330,40763.4088718,386.661850575,257532,39152.0079397
2340,40792.7297814,388.201914595,258633,39041.286666
2350,40772.4901559,389.734820988,259734,39506.7661522
2360,40770.4159914,391.2870667,260835,39599.4016171
2370,40781.7473116,392.817227989,261936,39643.2552518
2380,40810.3002217,394.374338253,263037,39388.6984567
2390,40800.9777321,395.919840307,264138,38869.4576905
2400,40820.9280094,397.446021859,265239,39529.1004873
2410,40808.7649598,398.954431439,266340,39775.2754515
2420,40728.1129295,400.493474224,267441,39655.1297553
2430,40804.5547597,402.02002484,268542,39705.1300817
2440,40777.2514905,403.537541716,269643,39394.0163746
2450,40795.7429747,405.07491024,270744,38518.0468376
2460,40768.0412626,406.603324995,271845,39510.9472268
2470,40772.1710355,408.12055235,272946,39459.1243753
2480,40741.3241827,409.62826785,274047,39601.6461362
2490,40833.9106464,411.150030464,275148,38193.4661223
2500,40749.5231871,412.67165794,276249,39796.9149724
2510,40762.2351826,414.185349889,277350,39677.269907
2520,40753.6457327,415.698234002,278451,39675.6481076
2530,40818.7984288,417.19986614,279552,39609.0169717
2540,40778.1317251,418.697728089,280653,39518.7748866
2550,40788.2273387,420.211796372,281754,37738.9178089
2560,40728.1129295,421.767809706,282855,39775.8118897
2570,40868.9556207,423.309678421,283956,39608.013911
2580,40801.5050854,424.847020858,285057,39697.6054009
2590,40780.049315,426.365354551,286158,39651.6310383
2600,40769.6848843,427.894220052,287259,39571.1879032
2610,40840.2362309,429.45469851,288360,39695.5328825
2620,40765.3988081,430.997034222,289461,39550.6698016
2630,40768.7836627,432.535259762,290562,39654.6226793
2640,40783.1796189,434.070393371,291663,39777.8355179
2650,40825.2066868,435.618050368,292764,39614.3845466
2660,40751.0343501,437.19325206,293865,39097.1526569
2670,40792.4774343,438.755403068,294966,39687.0957055
2680,40841.4850643,440.321749779,296067,39612.4291827
2690,40753.1534758,441.911531868,297168,38627.3165566
2700,40787.7436418,443.518929407,298269,39573.0044659
2710,40827.724696,445.204761908,299370,39660.961596
2720,40792.3122135,446.72132854,300471,39560.4089854
2730,40753.3452591,448.279135878,301572,39315.545706
2740,40756.4871392,449.895926385,302673,39643.3243514
2750,40793.0154547,451.461315154,303774,39767.615168
2760,40836.4209692,453.000862996,304875,39641.0947992
2770,40780.9679298,454.528474191,305976,39599.8235809
2780,40763.2871441,456.052226674,307077,39108.6978261
2790,40765.4060207,457.586980527,308178,37037.9673947
2800,40797.352327,459.137488258,309279,39659.6781054
2810,40791.5658659,460.73869766,310380,39533.7722682
2820,40844.54129,462.259241036,311481,39747.0166266
2830,40770.6109605,463.781843988,312582,39624.210256
2840,40849.0909749,465.317291495,313683,39478.3969679
2850,40825.5806059,466.853075565,314784,39529.4464309
2860,40774.6620193,468.392262469,315885,39236.7756457
2870,40804.845422,469.933210447,316986,39694.1162216
2880,40787.5317368,471.459124716,318087,39423.8030846
2890,40765.722164,472.993420981,319188,39501.2415208
2900,40781.6617214,474.53166491,320289,39567.1324117
2910,40751.9133936,476.069636851,321390,39036.8034535
2920,40769.9308415,477.774007678,322491,39889.9326989
2930,40784.9544972,479.336560253,323592,38791.5082687
2940,40764.0553194,480.874125925,324693,38758.9280525
2950,40789.6935229,482.385762146,325794,39502.5055683
2960,40765.5173649,483.932733616,326895,39784.8881678
2970,40763.158247,485.494124685,327996,39266.452422
2980,40738.7578804,487.023406293,329097,39574.3194576
2990,40825.7998503,488.576772883,330198,37825.8208788
3000,40822.84656,490.103020293,331299,38801.7399039
3010,40797.2308791,491.625478698,332400,39088.2612601
3020,40810.4702276,493.141083111,333501,39771.9961314
3030,40823.9040505,494.659551515,334602,39379.9312487
3040,40771.3961409,496.187530491,335703,39782.9379621
3050,40758.6722441,497.744536408,336804,36328.5942014
3060,40748.8282071,499.283770354,337905,39491.0487823
3070,40784.276882,500.798261586,339006,39357.1254887
3080,40747.5477929,502.337465596,340107,39808.2936567
3090,40758.5348696,503.889829768,341208,39574.324615
3100,40778.5944032,505.452454616,342309,38954.0629508
3110,40746.4965483,506.985689874,343410,39522.7802482
3120,40766.9762121,508.490924559,344511,39596.0936645
3130,40779.0072493,510.061776593,345612,39558.6769401
3140,40748.8481433,511.594879706,346713,39505.257131
3150,40745.8839028,513.122380139,347814,39716.7887128
3160,40782.6799687,514.659044318,348915,39423.401569
3170,40793.3484664,516.208753621,350016,39717.26997
3180,40761.601894,517.730974252,351117,39567.5344404
3190,40733.6918269,519.258594001,352218,39287.8577839
3200,40777.6400935,520.787845245,353319,39147.2270903
3210,40849.0909749,522.319965612,354420,37886.55602
3220,40749.182644,523.856706769,355521,39905.8798427
3230,40819.7908732,525.386401489,356622,39373.4919585
3240,40882.0224493,526.910997304,357723,39623.0624789
3250,40753.5152016,528.438190682,358824,39655.0050744
3260,40779.6689969,530.052140292,359925,39665.7435022
3270,40812.4579264,531.580693179,361026,38275.5307206
3280,40856.5771677,533.102058931,362127,39665.4274222
3290,40754.8574422,534.640235718,363228,39040.691651
3300,40813.8962239,536.194389618,364329,39482.1557964
3310,40740.1911313,537.746094349,365430,38501.1031004
3320,40827.732566,539.280431668,366531,39752.2980411
3330,40757.0243506,540.806064968,367632,39049.8301565
3340,40787.0965728,542.324438433,368733,39213.3485732
3350,40776.3313954,543.863790411,369834,39826.7500945
3360,40875.5221385,545.390857631,370935,38857.977641
3370,40767.6933819,546.909362813,372036,39306.5517891
3380,40783.2853031,548.47041903,373137,39214.8596963
3390,40874.4810649,549.990664332,374238,39627.6162643
3400,40808.7649598,551.517729842,375339,39678.5078236
3410,40748.8717502,553.022940578,376440,39115.8920907
3420,40773.7861139,554.572510038,377541,39434.7506386
3430,40753.5152016,556.096369006,378642,39761.9156843
3440,40752.4227458,557.626144552,379743,39553.4613627
3450,40778.2557405,559.18809328,380844,39744.2246682
3460,40777.9188127,560.716845025,381945,39435.3517263
3470,40818.9321456,562.269766001,383046,39515.2318563
3480,40783.331824,563.807753339,384147,39720.3507089
3490,40761.3763517,565.354286464,385248,39172.5365988
3500,40771.6234453,566.863549211,386349,39541.7909851
3510,40801.0336745,568.389845801,387450,38701.5851732
3520,40787.6116308,569.940993301,388551,37239.0388442
3530,40759.9549855,571.483632647,389652,39564.7180462
3540,40798.2824631,572.996029235,390753,39737.2117238
3550,40774.5300208,574.53631093,391854,39682.6433857
3560,40728.1129295,576.067686326,392955,39640.3924924
3570,40807.4473973,577.592439944,394056,39554.6736527
3580,40772.7774244,579.11232901,395157,39446.245145
3590,40747.4397682,580.662803384,396258,39183.1865166
3600,40819.7908732,582.189781653,397359,39836.2147808
3610,40786.2402134,583.717527131,398460,39759.6304917
3620,40820.0614504,585.264454124,399561,39602.8925935
3630,40777.2514905,586.819118214,400662,39373.653193
3640,40770.0983516,588.349384279,401763,39573.2836648
3650,40786.72424,589.893433596,402864,39741.6538567
3660,40782.6465503,591.526711406,403965,37055.5343251
3670,40768.7112196,593.101489294,405066,38852.2530377
3680,40803.9294899,594.657967059,406167,38559.3950247
3690,40784.6016535,596.204149508,407268,38830.4380098
3700,40816.8842723,597.724405501,408369,39477.9378915
3710,40781.6136254,599.262612224,409470,39598.4909876
3720,40773.4533933,600.784818742,410571,39500.8055861
3730,40824.3569418,602.310865582,411672,39801.2907181
3740,40771.1491649,603.821490832,412773,39771.7012857
3750,40801.0614599,605.354097441,413874,39564.5929151
3760,40737.5419618,606.87028731,414975,39746.3313233
3770,40790.3247541,608.376999536,416076,39722.1253222
3780,40819.3120647,609.915736976,417177,39618.905081
3790,40861.9961935,611.442638267,418278,39379.6928658
3800,40768.4389446,612.973115164,419379,38266.3453467
3810,40752.7214128,614.48666556,420480,39787.8457208
3820,40773.0271389,615.996048906,421581,39874.414034
3830,40801.1522781,617.510579482,422682,39640.6736488
3840,40818.4601124,619.04256129,423783,39286.0837872
3850,40805.9865261,620.558347455,424884,39424.1697268
3860,40752.1712547,622.068809342,425985,39659.7428424
3870,40902.5466316,623.594913916,427086,39742.3450087
3880,40773.6256439,625.13304024,428187,39599.0258179
3890,40819.7908732,626.665319694,429288,39910.9569903
3900,40861.5643409,628.191707374,430389,39811.8857158
3910,40783.2849944,629.72801318,431490,39637.7786595
3920,40761.328053,631.239479196,432591,39571.7891772
3930,40815.5483768,632.753527807,433692,39462.3259511
3940,40768.2909066,634.272804902,434793,39512.8474036
3950,40836.0090614,635.785982812,435894,39534.147358
3960,40849.9268686,637.282234648,436995,39434.7533842
3970,40759.5561267,638.776402532,438096,39858.1002121
3980,40814.5512204,640.283494514,439197,39684.2263803
3990,40731.6751951,641.811377269,440298,39743.8006202
4000,40745.7530772,643.322638439,441399,39677.7460514
4010,40767.8523998,644.826626516,442500,39493.2329123
4020,40850.2450193,646.351265951,443601,39698.8391909
4030,40812.4677379,647.868738779,444702,39481.6449059
4040,40737.5044837,649.368658594,445803,39668.9968258
4050,40786.4175197,650.864845427,446904,39530.8259055
4060,40813.4501884,652.366281272,448005,37560.037441
4070,40780.119471,653.886257152,449106,39431.0545091
4080,40770.4947608,655.3997434,450207,39653.1782604
4090,40774.628368,656.9196902,451308,39596.764883
4100,40805.9639208,658.440111695,452409,39680.6523548
4110,40777.0484424,659.995255183,453510,39473.2294541
4120,40816.0503928,661.542258726,454611,39914.756417
4130,40830.9887744,663.07666276,455712,39198.0275449
4140,40793.3158234,664.666214772,456813,37948.3984813
4150,40841.4101169,666.226124024,457914,39729.3244696
4160,40747.560081,667.801978314,459015,39728.6112248
4170,40807.1037369,669.391770667,460116,39559.6128868
4180,40751.0343501,671.103799902,461217,39802.3410451
4190,40870.8348469,672.65513001,462318,39469.8847833
4200,40804.1189362,674.210379556,463419,39642.5694479
4210,40815.3399711,675.745984011,464520,39634.737418
4220,40840.1564561,677.282499795,465621,39249.5125887
4230,40839.539371,678.809115842,466722,37547.7343559
4240,40827.2601483,680.351450271,467823,39158.4611008
4250,40774.0138224,681.861750933,468924,39205.5009634
4260,40800.8878606,683.397034649,470025,39622.0549558
4270,40788.2164666,684.925751755,471126,39427.6600475
4280,40799.5194905,686.471310259,472227,39713.7512553
4290,40837.4953853,688.006417354,473328,39199.1092552
4300,40788.8131085,689.546480519,474429,39525.4967315
4310,40812.7118253,691.066564596,475530,39134.7619318
4320,40753.6444888,692.590623279,476631,39757.3290269
4330,40778.7084967,694.13301373,477732,38522.5879055
4340,40741.8629968,695.657718596,478833,39763.0746382
4350,40797.1089687,697.184523665,479934,38679.5521256
4360,40819.7908732,698.729956439,481035,38985.2107267
4370,40795.7144164,700.258744962,482136,39488.5745445
4380,40801.7962453,701.789433119,483237,39763.0746382
4390,40753.7809143,703.306348715,484338,39618.0939849
4400,40806.0510336,704.844561425,485439,39576.3528717
4410,40746.5177094,706.376712155,486540,39872.21442
4420,40761.2181042,707.894467234,487641,39450.5664269
4430,40766.4191131,709.426481971,488742,38034.89289
4440,40801.7858886,710.961966256,489843,39571.2329398
4450,40753.918577,712.495511135,490944,39595.4411861
4460,40753.8797122,714.041550321,492045,39332.9188271
4470,40778.0565218,715.575713587,493146,39613.5158699
4480,40867.3142305,717.105586638,494247,39585.8861674
4490,40789.1102379,718.636270947,495348,39703.2291949
4500,40778.340553,720.143731138,496449,39736.2645043
4510,40791.748246,721.657694646,497550,39230.2211225
4520,40754.2263082,723.181786686,498651,39459.3959814
4530,40807.7469883,724.704415297,499752,39722.4324966
4540,40762.8811557,726.226396014,500853,39671.5453766
4550,40766.936684,727.745635476,501954,37493.8499948
4560,40773.8793277,729.29936942,503055,39333.7661104
4570,40818.8135338,731.069093306,504156,39776.2895232
4580,40749.2477971,732.582310988,505257,39763.0746382
4590,40818.6867863,734.118495341,506358,36341.8336481
4600,40822.84656,735.638734655,507459,39477.6468422
4610,40778.9824838,737.188876315,508560,39096.9101903
4620,40802.2322339,738.695733943,509661,39723.5523067
4630,40773.0848742,740.235140233,510762,39426.6950304
4640,40789.4949301,741.764620271,511863,39505.0135011
4650,40750.0306248,743.312056599,512964,39532.2633262
4660,40758.4478339,744.837796385,514065,39767.9690932
4670,40774.8474141,746.37313484,515166,39464.1151585
4680,40788.2518759,747.896063236,516267,39536.3897444
4690,40779.3446662,749.436987694,517368,39600.4008361
4700,40833.8628389,750.998808126,518469,39226.0234548
4710,40761.9764508,752.575087931,519570,39805.756387
4720,40827.724696,754.121615924,520671,39677.0298335
4730,40752.2628435,755.646604324,521772,39373.5802461
4740,40754.2263082,757.185836131,522873,39307.0789207
4750,40775.7812174,758.719853994,523974,39614.3816504
4760,40868.3591981,760.25882365,525075,39546.4399927
4770,40749.2662782,761.794864311,526176,39245.0788196
4780,40772.0242202,763.336050492,527277,39504.7562344
4790,40751.4816222,764.872562855,528378,39255.9722977
4800,40764.9251305,766.410873926,529479,37842.6846085
4810,40813.1351318,767.954757314,530580,39841.3946297
4820,40806.8197132,769.502650376,531681,39656.8732448
4830,40805.8519902,771.05176182,532782,39777.1842827
4840,40818.2121287,772.609325396,533883,39720.8765069
4850,40811.0714092,774.169768359,534984,39097.6924372
4860,40760.812292,775.78986719,536085,39600.0821523
4870,40780.4226446,777.749933819,537186,39374.8595129
4880,40814.4233292,779.376769894,538287,39543.7409568
4890,40804.5547597,780.920707166,539388,39454.6682773
4900,40804.5547597,782.462974025,540489,37304.4183909
4910,40819.7908732,784.024902654,541590,39421.9141773
4920,40828.6360583,785.571170634,542691,39621.4893097
4930,40752.8607187,787.097504857,543792,39598.238145
4940,40760.812292,788.620361408,544893,39250.2528931
4950,40772.2476662,790.163309518,545994,39466.9359098
4960,40746.3200104,791.721286207,547095,38620.4706511
4970,40778.0584117,793.263350787,548196,39322.33781
4980,40767.4742248,794.817040255,549297,38452.3109783
4990,40804.1129111,796.375333835,550398,39604.3579706
