it,funval,time,funcount,weight
0,3430.23970543,0.000537559999998,722,2282.78573516
10,3468.00533336,0.001089232,1357,2922.24184604
20,3478.56335363,0.00164774599999,1994,2798.02646519
30,3514.32973843,0.00221267599998,2598,2834.32571181
40,3555.82251459,0.00278359299998,3227,3005.76527285
50,3675.82501806,0.00333954199998,3860,3259.32540908
60,3862.12476181,0.00389805699997,4491,3385.0977704
70,3855.22364423,0.00446426999997,5110,3277.4572006
80,3854.14676246,0.00522591999997,5745,3070.34319624
90,3828.89338409,0.00579940299997,6381,3268.23894248
100,4004.45297887,0.00636475999997,7004,3375.83591263
110,3991.25001844,0.00692156399997,7641,2988.19690261
120,3992.6535962,0.00746895899997,8284,3289.71789262
130,4001.41882331,0.00803174999997,8907,3307.29074229
140,4024.59093297,0.00865826199997,9545,3790.3263024
150,4032.58717241,0.00926895099997,10187,3304.13017101
160,3991.90417068,0.00987835599996,10811,3606.80097907
170,4012.86796054,0.010474931,11450,3485.24728961
180,4173.75409552,0.011052262,12079,3455.32422985
190,4136.46398867,0.0116090659999,12720,3885.89695896
200,4178.84817947,0.0122633749999,13344,3725.123672
210,4091.86932676,0.0128111979999,13985,3628.90462827
220,4142.03561359,0.0135232409999,14611,3215.60906183
230,3998.12602944,0.0140749139999,15245,3058.47398601
240,4045.93209808,0.0146428369999,15870,3608.79686617
250,4141.90461288,0.0153694189999,16495,3360.01371435
260,4178.14936026,0.0159809629999,17126,3693.52771815
270,4119.09270264,0.0165364839999,17761,3534.17958893
280,4183.19963329,0.0170992749999,18393,3575.44364453
290,4131.33152406,0.017671047,19021,3340.69348139
300,4114.74123453,0.0182163039999,19649,3870.56315025
310,4217.19423309,0.018805182,20274,3178.51319106
320,4234.27063672,0.019469327,20900,3239.75407101
330,4199.96964817,0.020230977,21519,3610.08042852
340,4198.53643019,0.020881865,22144,3710.80900334
350,4106.79108306,0.0214322549999,22787,3621.57406558
360,4234.90953789,0.0221092289999,23410,3680.56459076
370,4163.60229287,0.0230551979999,24049,3774.22300627
380,4027.22675222,0.0239122139999,24677,3295.41568802
390,4216.49544604,0.0244643139999,25298,3472.13789447
400,4228.75776678,0.0249920369999,25918,3356.72667686
410,4157.38497871,0.0255552559999,26558,3714.14624238
420,4158.08936764,0.0260834079999,27186,3345.56152431
430,4208.80307664,0.0266513309999,27805,3697.54759356
440,4043.64006485,0.0272072799999,28457,3340.93495003
450,4200.65240759,0.0277666499999,29082,3384.04406631
460,4066.22458029,0.0283076309999,29709,3491.83520814
470,3889.34276558,0.0288533159999,30340,3526.32184033
480,4072.38718429,0.0293840329999,30963,3177.1601992
490,3974.82152568,0.0299357059999,31584,3556.96555336
500,3969.02556794,0.0304920819999,32210,3424.8086898
510,4023.7791837,0.0310330629999,32839,3152.91722183
520,4011.25801723,0.0315774649999,33464,3588.58179798
530,3909.82743831,0.0322505909999,34104,3607.18469407
540,4090.6185516,0.0328061119999,34746,3507.62064093
550,3993.69904687,0.0333586389999,35366,3543.66870771
560,4114.07762703,0.0339103109999,36002,3492.80381148
570,4074.37208202,0.0344628389999,36618,3246.73181039
580,3986.92972172,0.0350290509999,37246,3447.88669337
590,3972.36696205,0.0355751639999,37876,3710.29597435
600,3911.96455626,0.0361294019999,38494,3313.60787672
610,3967.14769202,0.0367896979999,39135,3720.53696135
620,3978.55229088,0.0373614699999,39771,3229.3019972
630,3891.98600429,0.0379101489999,40389,3377.6650492
640,4078.87984014,0.0384665259999,41028,3714.60317661
650,3994.20875362,0.0390040859999,41652,3469.42611591
660,3912.03923301,0.0395583239999,42288,3879.41957934
670,3934.57437094,0.0401027259999,42927,3676.1096328
680,3958.48225231,0.0407172629999,43557,3553.00162367
690,4042.50124124,0.0412749219999,44184,3623.3643633
700,4058.27721914,0.0418518259999,44814,3596.98632361
710,3969.77217593,0.0424372829999,45443,3231.90645746
720,3814.79839236,0.0431903799999,46073,3135.88422988
730,3813.49764315,0.0437865279999,46701,3607.72148036
740,3882.43236413,0.0443535959999,47322,3454.5218235
750,4010.0379912,0.0449133939999,47951,3289.21371824
760,4011.10494199,0.0454701979999,48576,3474.84015603
770,4075.27959225,0.0461843789999,49197,3460.43722738
780,4114.46758333,0.0468254309999,49823,3435.25835877
790,4189.6788659,0.0473702609999,50444,3655.8526641
800,4173.20245438,0.0479219329999,51085,3793.09335309
810,4124.37370732,0.0484684739999,51719,3464.0447064
820,4129.2626894,0.0490265609999,52351,3645.41099586
830,4095.4195863,0.0495910629999,52985,3105.78425708
840,4055.29949052,0.0501675389999,53626,3568.50387798
850,4061.79908272,0.0507127959999,54257,3557.01001774
860,4168.11566633,0.0512542049999,54887,3907.14421749
870,4164.60421324,0.051817423,55515,3308.87815938
880,4088.44288195,0.052541012,56143,3112.41646278
890,4217.28503544,0.053085842,56770,3234.99425957
900,4214.8648388,0.053819695,57397,3064.62066011
910,4185.52879974,0.054397026,58039,3712.43704255
920,4164.85277754,0.054947843,58667,3412.97526442
930,4169.76575247,0.055688538,59288,3835.4770376
940,4233.52191316,0.056231657,59927,3344.53150705
950,4182.94611217,0.05679231,60567,3398.76376149
960,4113.0407404,0.057331581,61198,3249.63159754
970,4076.87003241,0.057871279,61840,3691.21839711
980,4066.95357444,0.058433643,62471,3814.38728918
990,4083.72194762,0.058999428,63112,3389.20343153
1000,4049.82005425,0.05958574,63745,3399.2009223
1010,4155.66401584,0.060271695,64375,3299.13021407
1020,4176.24517604,0.060816953,64993,3699.05854533
1030,4054.18936428,0.0613677699999,65610,2959.24549934
1040,4096.86048952,0.0620126709999,66234,3265.21770166
1050,4115.66378491,0.0625660539999,66868,3704.0228013
1060,4096.28539741,0.0631181529999,67503,3388.87897945
1070,4139.83632849,0.0636621279999,68143,3877.52286003
1080,4248.58415219,0.0642048199999,68774,3746.21912816
1090,4282.22589196,0.0647564919999,69402,3210.25226917
1100,4288.44237931,0.0652957629999,70020,3742.56039509
1110,4194.1911868,0.0658487179999,70647,3518.47099509
1120,4139.15434748,0.0663854219999,71276,3197.02071192
1130,4122.76184592,0.0669392319999,71901,3424.6416032
1140,4210.82245458,0.0674883379999,72523,3472.86843336
1150,4118.53311458,0.0680288919999,73157,3473.88584975
1160,4205.825809,0.0685869789999,73792,3732.20431254
1170,4242.77182187,0.0691412169999,74431,3343.63241039
1180,4195.12920924,0.0697074289999,75055,3247.99252988
1190,4148.65913129,0.0702804839999,75701,3258.81897659
1200,4181.64109093,0.0710374299999,76337,3551.37455942
1210,4189.2533371,0.0718529639999,76966,3609.59093349
1220,4126.06696345,0.0725637229999,77590,3483.22730056
1230,4164.83882923,0.0731859579999,78219,3499.45052712
1240,4139.31563033,0.0737560189999,78861,3054.42392563
1250,4170.14309545,0.0743059809999,79486,3237.16426388
1260,4156.81773486,0.0748443959999,80118,3618.37852643
1270,4127.18431217,0.0753832379999,80745,3783.21991011
1280,4167.93285751,0.0759592869999,81380,3396.3142795
1290,4149.23653582,0.0764929979999,81999,3965.3156405
1300,4150.28906874,0.0770177279999,82619,3828.1148822
1310,4159.16432761,0.0775582819999,83258,3434.18189814
1320,4151.73873201,0.0780898549999,83891,3808.17802351
1330,4131.41103402,0.0786115919999,84530,3680.74008015
1340,4153.30110816,0.0791624089999,85169,3324.43208171
1350,4122.8386901,0.0796811519999,85807,3647.81005762
1360,4136.26855781,0.0802725959999,86439,3190.58783605
1370,4201.25075418,0.0807960429999,87075,3648.54265807
1380,4206.85880112,0.0813515639999,87695,3551.3360111
1390,4146.70786307,0.0819083679999,88333,3574.10166408
1400,4162.4327237,0.0824142809999,88974,3345.56566634
1410,4209.15678784,0.0829719409999,89611,3550.82445578
1420,4149.58356578,0.0835120669999,90241,3461.05032584
1430,4162.04406164,0.0840637389999,90870,3623.79759402
1440,4110.28582039,0.0846154109999,91493,3293.81151246
1450,4121.72874524,0.0851696499999,92134,3434.0307948
1460,4143.0759108,0.0857341509999,92778,3363.34224998
1470,4088.46356801,0.0862995079999,93413,3877.41343169
1480,4112.40157502,0.0868426269999,94049,3520.81409608
1490,4112.61028197,0.0875225959999,94679,3233.6868544
1500,4159.83959735,0.0882094069999,95301,3399.01390357
1510,4155.05639711,0.0887726259999,95927,3475.54673208
1520,4078.17433334,0.0893409769999,96557,3412.82017179
1530,4149.61901694,0.0899101829999,97189,3476.6787184
1540,4098.51698382,0.0905046209999,97826,3616.78634749
1550,4233.83974717,0.0913167339999,98453,3702.00328883
1560,4193.78373858,0.0918611359999,99079,3863.44438448
1570,4136.78278562,0.0924175119999,99711,3230.45966882
1580,4124.85201796,0.0929713229999,100339,3450.76139545
1590,4055.24327072,0.0935268449999,100966,3480.13148438
1600,4118.60887495,0.0940900629999,101603,3596.86778738
1610,4135.18940907,0.0946387409999,102225,3493.84174432
1620,4260.28725956,0.0951780119999,102860,3833.15440781
1630,4230.7239622,0.0957185649999,103497,3483.30931558
1640,4218.52108383,0.0962672429999,104108,3677.59256633
1650,4178.08855379,0.0968347379999,104750,3551.51914263
1660,4218.23577023,0.0974129239999,105388,3385.54396468
1670,4224.72889698,0.0979714379999,106016,3273.05803154
1680,4274.05797535,0.0985119909999,106643,3567.3985019
1690,4365.42379355,0.0994925989999,107279,3106.48704536
1700,4319.83816203,0.100298297,107907,3533.16802965
1710,4312.24650187,0.100861944,108535,3724.70627908
1720,4294.37646173,0.101407629,109164,3446.98577419
1730,4353.35436161,0.101993513,109798,3878.25854529
1740,4299.46610135,0.102559725,110419,3406.60770531
1750,4386.56434409,0.103122944,111050,3469.56806655
1760,4204.7147265,0.103640831,111680,3607.54958552
1770,4267.63076549,0.104195497,112313,3402.86480293
1780,4349.3457532,0.104745887,112944,3267.79944236
1790,4341.66178894,0.105289006,113572,3264.1603792
1800,4342.31403901,0.105841534,114204,3978.69665586
1810,4383.16144915,0.106359421,114852,3910.54297395
1820,4345.01078995,0.106910238,115483,3763.8724223
1830,4246.86624804,0.107458917,116128,3692.86088573
1840,4225.95223453,0.108001181,116756,3150.23930607
1850,4212.66170777,0.108552853,117384,3770.95917455
1860,4279.70510635,0.109086136,118012,3354.63408655
1870,4229.83666856,0.109651065,118637,3974.08140041
1880,4252.25508293,0.11019504,119275,3612.81710014
1890,4346.76814557,0.110733027,119915,3683.54092564
1900,4304.81067254,0.111252625,120542,3140.34998646
1910,4271.04658926,0.111818838,121169,3589.31359316
1920,4293.39087494,0.11237607,121815,3359.05100025
1930,4355.39629667,0.112929453,122434,3624.41185378
1940,4349.17372262,0.113566656,123060,3807.49542121
1950,4218.75346995,0.114137145,123680,3305.03004361
1960,4233.23841143,0.114914618,124316,3374.00074739
1970,4220.00696406,0.115481258,124944,3480.72607232
1980,4281.71159336,0.1160402,125563,3374.47711427
1990,4182.47587865,0.116620525,126183,3713.35087579
2000,4205.57152519,0.117170914,126815,3680.64552509
2010,4177.82117872,0.117764497,127448,3552.5218452
2020,4075.56178955,0.118308472,128078,3496.54413771
2030,4274.88476117,0.118886231,128708,3613.96775709
2040,4070.11355893,0.119449877,129340,3390.38843458
2050,4330.23302482,0.119994279,129975,3454.11756118
2060,4048.04169146,0.120533977,130620,3578.53960655
2070,4104.48564444,0.121080518,131257,3222.26592234
2080,4126.93589589,0.121718576,131884,3558.0475759
2090,3968.62040684,0.122264689,132521,3419.14302548
2100,4107.75623961,0.122797972,133144,3396.74005195
2110,4024.57514343,0.123750783,133765,3531.54740762
2120,4025.74587067,0.124286204,134388,3364.68245601
2130,4062.59340698,0.124832317,135018,3671.16920751
2140,4059.41328984,0.125481922,135665,3801.86662638
2150,4064.83071101,0.126044713,136283,3891.80268637
2160,4128.13679079,0.126736656,136918,3340.9738178
2170,4047.43801576,0.127303723,137544,3879.62931023
2180,4117.64975345,0.127896877,138171,3543.40744759
2190,4065.17863995,0.128461378,138813,3294.67561691
2200,4165.39567554,0.129022886,139451,3472.27557924
2210,4144.20657582,0.129586533,140096,3627.77365811
2220,4223.80453481,0.130423022,140716,3643.63635748
2230,4281.64975691,0.13096828,141350,3913.9024876
2240,4184.67738391,0.131539625,141979,3257.74524319
2250,4121.16008674,0.132121661,142612,3900.72541588
2260,4161.97748984,0.132709256,143250,3809.24653171
2270,4135.79552293,0.133252375,143887,3354.5298268
2280,4052.15782148,0.133912671,144521,2935.36097994
2290,4134.77237379,0.134460067,145152,3146.97449801
2300,4198.81941498,0.135085723,145789,3735.59822566
2310,4188.78788524,0.135675029,146428,3449.43480309
2320,4107.30941035,0.136217293,147052,3521.66371176
2330,4039.21225276,0.136773242,147678,3539.53833078
2340,3927.73977763,0.137332612,148322,3131.51797392
2350,4015.79979814,0.137896686,148947,3027.40213962
2360,3973.78238216,0.138449641,149593,3412.99842229
2370,4175.2213008,0.139010294,150225,3191.2508057
2380,4065.70096023,0.13956496,150866,3551.19266612
2390,4245.2655593,0.140108935,151493,3560.7144568
2400,4080.61306136,0.140668305,152129,3249.85025659
2410,4044.20444936,0.141213135,152760,3625.06353018
2420,4145.49568854,0.141920472,153397,3287.95322051
2430,3964.20706525,0.142524318,154024,3254.07098981
2440,4006.17732808,0.143126025,154666,3197.46935899
2450,4169.04022091,0.143724739,155294,3262.67273649
2460,4211.38758531,0.144306775,155914,3491.12374208
2470,4153.73726039,0.144889666,156540,3316.53885429
2480,4170.11069085,0.145459299,157172,3272.13213087
2490,4078.04033914,0.146032354,157800,3577.08667006
2500,4113.76435057,0.14661439,158421,3203.71051687
2510,4230.29475484,0.147198564,159053,3411.54231848
2520,4217.46770344,0.147772474,159693,3563.21771114
2530,4158.3359682,0.148367339,160330,3787.19330713
2540,4192.04251808,0.148982731,160960,3634.59402648
2550,4167.36651754,0.149592136,161603,3730.91212132
2560,4087.53252285,0.15019085,162247,3576.68052571
2570,4153.57287638,0.150759201,162888,3509.35297168
2580,4115.62235583,0.151761192,163506,3689.46125442
2590,4137.43070862,0.152313292,164143,3802.63167167
2600,4157.59251309,0.152913717,164774,3991.39500063
2610,4262.41280911,0.15356375,165400,3719.51910476
2620,4233.8000083,0.154548207,166036,3554.83990023
2630,4211.72390255,0.155140078,166670,3505.24237075
2640,4251.17237557,0.155687046,167289,3579.92838131
2650,4236.42444388,0.156274213,167929,3597.30845076
2660,4210.65145275,0.156837859,168554,3496.08976599
2670,4193.64507067,0.157391242,169186,3702.60014711
2680,4141.81588152,0.157978409,169821,3343.43922599
2690,4143.94585434,0.158519818,170454,3442.81020307
2700,4192.10015152,0.159119387,171092,3844.33757345
2710,4156.50454036,0.159678757,171723,3378.21799484
2720,4096.22311382,0.160286451,172345,3561.98310617
2730,4145.29733899,0.160829997,172981,3396.45222837
2740,4157.21371437,0.161381669,173618,3295.36645569
2750,4186.25883329,0.162044103,174249,3802.66475206
2760,4180.67827688,0.162674036,174886,3391.114108
2770,4176.19957026,0.16328729,175507,3305.90885637
2780,4221.48898778,0.164421854,176151,3437.9745095
2790,4279.32719327,0.165483288,176780,3472.70184856
2800,4230.37123763,0.166023841,177422,3776.93684424
2810,4161.66711965,0.16657979,178056,3582.19078143
2820,4171.90186853,0.167138305,178698,3599.02914618
2830,4107.98208474,0.16767843,179331,3435.9908082
2840,4243.25835929,0.168233951,179956,3515.70361412
2850,4239.51688433,0.168787761,180594,3076.47801027
2860,4165.59541026,0.169371507,181230,3614.73504486
2870,4127.13845728,0.169930877,181863,3533.73106048
2880,4156.65030058,0.170571501,182501,3823.62459059
2890,4261.22792484,0.171115048,183133,3477.89980686
2900,4151.56865302,0.171720605,183757,3571.75097496
2910,4200.66266345,0.172291521,184382,3376.46841086
2920,4189.77644852,0.172844904,185005,3067.30696599
2930,4092.27298126,0.173404274,185644,3785.54892741
2940,4107.88904539,0.173955947,186281,2957.0866962
2950,4163.88819559,0.174493079,186906,3469.18581923
2960,4135.3645096,0.175042185,187537,3384.31444727
2970,4170.82757044,0.175590008,188164,3551.47485497
2980,4179.19356796,0.176134838,188799,3696.80736041
2990,4140.51830802,0.176687793,189449,3312.01040199
3000,4019.62255465,0.177236044,190072,3504.43282993
3010,4081.3640131,0.177791566,190714,3697.43646857
3020,4214.03191879,0.178342383,191361,3702.39474343
3030,4152.43121487,0.178911162,191995,3866.29603413
3040,4065.65335376,0.179473098,192637,3109.98029378
3050,4190.32123301,0.180045725,193271,3675.4895734
3060,4082.97115942,0.180582001,193902,3593.89293494
3070,4212.33807428,0.181130252,194535,3476.8832352
3080,4136.55371209,0.181675937,195166,3781.35999478
3090,4156.87463489,0.182238301,195803,3439.30679821
3100,4087.66252385,0.182848134,196435,3663.76103383
3110,4114.91227965,0.183394247,197065,3511.73889686
3120,4168.98927066,0.18393865,197699,3471.16215012
3130,4208.21089457,0.184476209,198338,3051.35433114
3140,4171.46796297,0.185034296,198969,3299.11312832
3150,4213.76028567,0.185570573,199594,3954.82999503
3160,4157.80710723,0.186123528,200223,3319.36711118
3170,4102.42971379,0.186705564,200855,2993.87897748
3180,4020.89118358,0.187233715,201490,3368.88989413
3190,4096.25187391,0.187782822,202121,3327.55138801
3200,4116.95967321,0.192584509,202761,3196.05046703
3210,4078.61786638,0.19313276,203395,3457.92843742
3220,4062.77383518,0.193658773,204021,3526.78246006
3230,4110.88778576,0.194191201,204645,3453.1844363
3240,3947.96466265,0.194755275,205270,3404.25163465
3250,3995.84357822,0.195282571,205898,3660.15246273
3260,3999.14651995,0.195841513,206528,3375.84494258
3270,3917.73117507,0.19641799,207165,3653.31588044
3280,4054.81099358,0.196984203,207788,3686.35111402
3290,4106.98051034,0.197526894,208414,3445.31962015
3300,4071.85571138,0.198085837,209063,3477.19208017
3310,4110.63721416,0.198641786,209703,3693.671526
3320,4069.78820031,0.199201584,210334,3693.03905102
3330,4059.27180721,0.199746841,210966,3467.7912775
3340,4084.09936747,0.200293809,211591,3097.44625997
3350,4131.20884404,0.200848047,212213,3275.67299998
3360,4175.84556624,0.201403996,212841,3629.63989405
3370,4021.50550201,0.201957806,213467,3412.47897811
3380,4104.15273965,0.202496648,214118,3529.50063153
3390,4143.71947126,0.203027365,214754,3721.2317978
3400,4123.66337755,0.203586735,215407,3317.3087951
3410,4262.77209542,0.204130282,216033,3453.0141776
3420,4131.21557109,0.20466998,216667,3532.94847509
3430,4123.5559011,0.205226784,217291,3432.93515333
3440,4129.26610475,0.205775035,217925,3811.75708479
3450,4154.08095774,0.206316016,218558,3285.32027862
3460,4117.84391859,0.20688009,219180,3396.95225643
3470,4083.90216172,0.207421071,219784,3353.35684614
3480,4138.49748435,0.207955638,220421,3985.34138088
3490,4187.65105179,0.208494053,221050,3438.60472631
3500,4149.89715489,0.209047436,221677,3420.09891756
3510,4108.61771247,0.209580291,222305,3676.29789557
3520,4222.6351305,0.210152491,222925,3350.17145609
3530,4086.81923992,0.210705447,223558,3625.99358482
3540,4222.29832761,0.211270376,224189,3235.44798341
3550,4199.9118585,0.211838727,224816,3673.57760751
3560,4119.2446229,0.212375431,225441,3073.99533375
3570,4010.04150819,0.212922827,226081,3164.51681652
3580,4098.86281958,0.213468085,226700,3336.1222057
3590,4042.48726704,0.214024889,227346,3485.05780805
3600,4059.30087054,0.214556034,227989,3507.57095941
3610,4037.08062774,0.215102146,228619,3712.51246406
3620,4008.5621088,0.215754316,229264,3534.56168606
3630,3940.50595693,0.216269638,229901,3603.48178835
3640,3971.21698236,0.21687605,230536,3600.46528839
3650,4028.29576172,0.217426867,231181,3754.78478744
3660,4004.16724551,0.217997356,231816,3721.9229649
3670,3929.38543124,0.218518665,232444,3824.06055874
3680,4047.83222394,0.219131492,233076,3371.47787977
3690,4023.17173348,0.219681454,233699,3747.90156539
3700,3969.11782069,0.220238686,234336,3776.28707824
3710,4039.05247663,0.22078822,234962,3774.8367871
3720,4090.82474509,0.22133305,235577,3643.02665669
3730,4008.25317965,0.221888571,236229,3695.20010349
3740,4115.2926982,0.222433828,236859,3640.61977575
3750,4100.70459602,0.222984645,237487,3418.26574905
3760,3953.2160128,0.22356497,238105,3279.30782324
3770,3983.89288716,0.224114931,238733,3695.97929259
3780,3967.25087278,0.224685848,239370,3398.23596282
3790,3977.19738813,0.225231961,239991,3578.77669756
3800,3996.03453803,0.225806726,240634,3714.96717823
3810,3886.82703075,0.226345568,241276,3679.5769821
3820,3997.88868882,0.226886121,241900,3236.32841274
3830,4039.23296199,0.227439504,242526,3740.66806555
3840,4038.88110964,0.227973643,243143,3602.28915911
3850,3925.59235157,0.228497946,243766,3340.55403208
3860,4023.52345868,0.229037216,244404,3280.59084853
3870,4017.31012191,0.229567505,245051,3410.11622652
3880,3982.4844187,0.230104638,245682,3630.57327303
3890,4081.89358784,0.230663152,246310,3224.10920143
3900,4034.42809428,0.23123364,246935,3742.29569356
3910,3998.82732887,0.231790444,247558,3343.53655445
3920,3942.82521623,0.232331425,248189,3160.77615383
3930,4094.40510094,0.232907046,248815,3257.40381805
3940,4012.86879144,0.233443751,249450,3078.76208454
3950,3923.02913917,0.233983021,250091,3534.78344416
3960,4046.6298656,0.234532127,250723,3196.45468744
3970,4066.64131373,0.235067549,251336,3430.39674313
3980,4038.80444035,0.235603826,251968,3135.79719199
3990,4111.34207098,0.236144379,252581,3550.06488704
4000,4070.27241331,0.236669537,253210,3381.93958055
4010,4011.38530631,0.237181866,253842,3574.52807971
4020,4066.21263629,0.237725413,254465,3545.13261783
4030,4129.19286383,0.238245867,255112,3910.34149406
4040,4183.14678764,0.238789841,255755,3678.37119782
4050,4151.16700768,0.239343652,256386,3908.89406953
4060,4066.08319397,0.239889338,257014,3435.89917935
4070,4132.36929171,0.240432885,257651,3502.0482629
4080,4186.60696027,0.240989262,258273,3584.92417913
4090,4307.22345718,0.241541789,258900,3626.45400707
4100,4176.9501406,0.242078066,259522,3439.14414374
4110,4199.49420674,0.242612632,260150,3875.81256611
4120,3960.84262447,0.243187397,260787,3521.15156269
4130,4241.37440635,0.243726239,261423,3856.15374365
4140,4251.33029488,0.244265937,262052,3803.20426113
4150,4335.31490041,0.244864223,262686,3865.78670801
4160,4380.13492269,0.245421455,263326,3059.06125164
4170,4262.42139938,0.245978259,263969,4008.86011052
4180,4240.11065934,0.246570985,264612,3536.76606395
4190,4285.21434821,0.247110682,265239,3670.30088059
4200,4229.35364258,0.247735055,265877,3596.08412921
4210,4253.7881389,0.248299129,266498,3439.74445856
4220,4319.86183789,0.248851229,267132,3316.05107412
4230,4125.18857694,0.24951794,267760,3353.68968282
4240,4113.32630728,0.25070596,268396,3522.78292896
4250,4129.32067442,0.251304246,269041,3495.75312212
4260,4146.76710901,0.251882432,269673,3328.82000295
4270,4094.64132683,0.252439664,270307,3675.89032811
4280,4074.506624,0.253008014,270942,3509.79068398
4290,4042.96732736,0.253574226,271577,3435.62020529
4300,4022.31526211,0.254202448,272214,3702.15701926
4310,4161.53961469,0.254766949,272855,3660.6718841
4320,4016.58093632,0.255343852,273479,3497.39620517
4330,4003.70556298,0.255936151,274107,3143.54386992
4340,4034.26421828,0.256502791,274733,3311.52428039
4350,3961.84596611,0.257225524,275364,3661.63095079
4360,3966.63689245,0.257781901,275998,3318.57856476
4370,3993.5505314,0.258956663,276630,3299.08300009
4380,4053.86548403,0.260251596,277262,3253.96895236
4390,3887.71577468,0.260803696,277912,3517.15383896
4400,3942.27442412,0.261418233,278533,3694.70905075
4410,3935.1451595,0.261981452,279170,3631.21067819
4420,3935.91883492,0.26252115,279807,3115.78628928
4430,3930.55555627,0.263237469,280421,2938.00259963
4440,3854.22099879,0.263836611,281056,3500.79307105
4450,3878.28353029,0.264374599,281678,3200.74103701
4460,3905.18660824,0.264932686,282322,3552.35462171
4470,3892.75173859,0.265610943,282951,3305.82048236
4480,3867.85601619,0.266207946,283592,3527.27208091
4490,3843.04900208,0.267060258,284221,3133.56191922
4500,3958.21217301,0.267624332,284851,3604.16333458
4510,3943.22579284,0.268211499,285488,3397.91773739
4520,3998.1387827,0.268765309,286116,3558.5113822
4530,4108.89778123,0.269309711,286734,3468.03884622
4540,4038.2621317,0.269879344,287357,3319.04063116
4550,4027.19825373,0.270418614,287986,3458.24074344
4560,3988.61221634,0.271050685,288612,3591.33711689
4570,3898.77607083,0.271607489,289243,3473.11374314
4580,3870.59861181,0.272157451,289864,3235.59857442
4590,3881.19544801,0.272869493,290500,3846.44243977
4600,3964.49467894,0.273428863,291120,3433.53859051
4610,4047.96151094,0.274129786,291761,3530.0958033
4620,4096.0012528,0.274666491,292384,3700.37649579
4630,4006.04037777,0.275293003,293009,3489.56806383
4640,3992.1744947,0.275851945,293643,3478.22481481
4650,4016.33448346,0.27667646,294279,3665.44326821
4660,4058.56811321,0.277288004,294916,3475.0134589
4670,3993.78450468,0.277950011,295540,3480.9786931
4680,4034.75194584,0.278487571,296173,3649.08817222
4690,4005.20562286,0.279082864,296811,3302.71174605
4700,4042.76761474,0.279645655,297437,3437.94678483
4710,4076.12753376,0.280554417,298074,3643.17387589
4720,4057.22531472,0.281238662,298700,3380.12853153
4730,4120.40631582,0.281781781,299331,3650.68346904
4740,4125.19372124,0.282468592,299966,3288.64736752
4750,4083.51286325,0.283020265,300589,3545.92283253
4760,3979.20080301,0.283640789,301212,3480.0962722
4770,4120.86699788,0.284211706,301839,3352.45531798
4780,4109.11111878,0.284818546,302476,3614.55665943
4790,4045.80310023,0.285372784,303095,3655.8455157
4800,4036.2568124,0.285919752,303732,3540.90669731
4810,4000.32306137,0.286479977,304360,3422.59753582
4820,4038.14299156,0.287036781,305006,3704.85016791
4830,4018.5421947,0.287561084,305654,3578.10561144
4840,4046.0801197,0.28811746,306293,3381.78034353
4850,4121.27435854,0.288655875,306925,3527.25244779
4860,4031.31245379,0.289187448,307565,3825.32511756
4870,4066.74596383,0.290034629,308204,3708.0258266
4880,4051.72609538,0.290570051,308827,3548.52068831
4890,4084.531235,0.291120013,309455,3694.83400373
4900,4092.26968984,0.291677672,310092,3608.08895098
4910,4236.6947881,0.292232765,310731,3197.17814112
4920,4018.82900188,0.292819504,311369,3322.81494133
4930,4045.9164041,0.293732543,312003,3656.44607622
4940,4143.93444529,0.294285925,312636,3419.04709655
4950,4175.34155729,0.294817925,313272,3498.26393674
4960,4188.00148774,0.295384993,313914,3755.33468373
4970,4114.59816509,0.29593025,314546,3188.7290544
4980,4242.4857027,0.296487482,315193,3742.34029584
4990,4000.75917363,0.297042147,315819,3360.04336975
