it,funval,time,funcount,weight
0,3295.67452382,0.000522163999989,652,2296.54131818
10,3520.82396492,0.001048177,1198,3256.2287424
20,3675.4660759,0.00155366300001,1750,3146.92866962
30,3731.52955525,0.00208266900003,2294,3072.31757363
40,3802.27972425,0.00264973700001,2843,3107.09012242
50,3886.11930144,0.003192001,3391,3922.87537454
60,3936.70245356,0.00374067999999,3947,3068.57088712
70,3997.16684095,0.00427267999999,4499,3615.18523786
80,4073.77367202,0.00480553599996,5041,3831.35993779
90,4018.43431338,0.00532684499998,5585,3791.24257572
100,4084.42106445,0.00584216699997,6128,3589.21669994
110,4152.25649291,0.00636304799997,6679,3630.70621353
120,4178.98596876,0.00688221799999,7228,3772.21073551
130,4152.97127208,0.00740138800001,7780,3646.97630891
140,4192.97939747,0.007916282,8329,3959.91379327
150,4238.78680939,0.008426044,8880,3752.59445064
160,4186.42739596,0.00896959100001,9441,3793.88564013
170,4128.53470791,0.00952083500002,9987,3655.95552224
180,4159.3622146,0.010061816,10526,3852.39381553
190,4107.97880911,0.010607929,11075,3725.19628607
200,4136.56368175,0.011133086,11624,3732.24218648
210,4186.07893911,0.0116543950001,12173,3637.42720585
220,4099.68678233,0.012171855,12720,3940.937487
230,4158.82787562,0.012698724,13272,3709.72604645
240,4073.867813,0.0132149010001,13817,3663.36038453
250,4127.76191734,0.013726374,14369,3618.47692155
260,4165.6455489,0.014236991,14927,3428.8006998
270,4110.92851153,0.0147570170001,15478,3906.44260698
280,4113.76622912,0.015295859,16029,3700.77736481
290,4119.27404107,0.015809898,16566,3740.63998998
300,4112.51217305,0.016327358,17117,3671.79681448
310,4128.86599803,0.016875609,17671,3778.53122125
320,4153.29110903,0.017428991,18228,3658.14177598
330,4143.27390989,0.017960136,18775,3700.68578374
340,4169.6207255,0.018481018,19322,3863.82347039
350,4149.24277252,0.019025848,19875,3853.12593854
360,4137.23669007,0.019667327,20427,3553.2222286
370,4149.29339988,0.020186497,20977,3620.20882042
380,4140.24054036,0.020718497,21529,3688.32732814
390,4163.99600593,0.021239379,22076,3782.98353821
400,4197.16352869,0.021778649,22630,3602.35371678
410,4200.18133963,0.022315781,23185,3869.69129473
420,4180.32855283,0.022856334,23734,3963.70005906
430,4157.43346613,0.023376788,24285,3330.77334739
440,4215.63557034,0.026495661,24841,3889.14417824
450,4234.02001809,0.027054603,25395,3933.58400109
460,4191.42768154,0.027633645,25942,3771.53598115
470,4216.43446811,0.028163079,26485,3670.0859138
480,4225.0796015,0.028708764,27029,3769.58004435
490,4197.57640465,0.0292373429999,27578,3470.27451067
500,4196.06459821,0.029759507,28123,3435.70970137
510,4208.24889224,0.030307758,28667,3281.41053979
520,4262.00014104,0.030835482,29208,3635.50117609
530,4273.57346761,0.031367482,29758,3689.54209631
540,4214.69050293,0.031913167,30312,3579.00557363
550,4228.60742177,0.032426351,30866,3509.29091095
560,4269.16721483,0.032988287,31415,3660.77879209
570,4250.10475437,0.033519004,31968,3587.094485
580,4242.53286795,0.034044162,32514,3688.92283089
590,4264.35489091,0.034595406,33059,3731.80797053
600,4265.76570043,0.035122275,33610,3337.35005193
610,4230.81273333,0.035664967,34160,3776.05552484
620,4249.57713753,0.036196967,34699,3707.67154097
630,4246.62150671,0.036729395,35249,3577.97143266
640,4300.42136086,0.037266527,35796,3695.31195536
650,4302.80397738,0.037804942,36350,3759.63049013
660,4308.46456541,0.038329672,36906,3921.65797381
670,4287.55478275,0.038886049,37464,3904.94731918
680,4295.35429467,0.039423608,38010,3642.03740988
690,4297.31230527,0.039965444,38561,3851.7887855
700,4283.45795471,0.040505569,39108,3656.20573092
710,4195.95448786,0.041022602,39665,3542.38513757
720,4259.46443125,0.04157855,40218,3811.01529978
730,4262.63711933,0.042122524,40764,3795.41634569
740,4272.04123981,0.042673768,41315,3489.6797466
750,4224.75992609,0.043192939,41867,3851.61179603
760,4198.2642974,0.043734348,42426,3722.47661838
770,4171.30774924,0.044295429,42970,3549.98404927
780,4238.22136057,0.0448376929999,43509,3393.04969216
790,4214.4048201,0.0453705489999,44058,3810.16337698
800,4160.29494408,0.0459055419999,44605,3581.96147635
810,4169.80080526,0.0464422469999,45155,3738.54100925
820,4154.63146098,0.0469840829999,45712,3967.75382507
830,4159.80266361,0.0475182209999,46267,3758.57357098
840,4163.39949366,0.0480544969999,46821,3662.17810012
850,4131.04818909,0.0486138669999,47366,3654.33236291
860,4130.89224853,0.0491612619999,47911,3543.48234524
870,4109.06321913,0.0497086579999,48463,3720.36244671
880,4128.83569656,0.0502500669999,49013,3814.31805173
890,4191.3154779,0.0507833499999,49561,3542.69324809
900,4215.35084449,0.0513221919999,50117,3673.02418024
910,4210.40700518,0.0518760029999,50670,3706.05559436
920,4198.32288381,0.0524054369999,51222,3872.98827134
930,4213.55318446,0.0529352989998,51775,3972.02911013
940,4182.25083064,0.0534638779999,52330,3964.68827282
950,4201.91324654,0.0561174639999,52887,3874.1729223
960,4221.71653819,0.0566481809998,53439,3549.42262781
970,4175.14295268,0.0571801809998,53994,3467.9489699
980,4189.75634656,0.0576989239998,54547,3661.87063578
990,4246.38875637,0.0582334899998,55096,3620.61997959
1000,4182.93564771,0.0587808859998,55650,3755.00643667
1010,4191.3889949,0.0593013389998,56199,3733.28627379
1020,4226.17911926,0.0598406089998,56748,3685.59665337
1030,4214.09614686,0.0603713259998,57288,3599.97830503
1040,4177.07233942,0.0608930619998,57835,3774.88273581
1050,4171.59987694,0.0614071009998,58375,3861.90494416
1060,4194.72172939,0.0619698919998,58920,3721.75913157
1070,4137.26572829,0.0625057409998,59471,3820.90463465
1080,4076.92208575,0.0630638279998,60018,3911.29183881
1090,4166.42231888,0.0635949729998,60569,3561.22009223
1100,4173.37368875,0.0641265459998,61119,3844.09654419
1110,4154.20917934,0.0646773629998,61673,3695.2469746
1120,4195.81597868,0.0652097909998,62209,3755.87564864
1130,4244.48010814,0.0657186979998,62755,3871.31788361
1140,4216.61598049,0.0662737909998,63305,3700.05265559
1150,4208.39716499,0.0668173379998,63858,3885.08663173
1160,4242.59283545,0.0673501939998,64406,3371.45896672
1170,4215.19292973,0.0678843319998,64950,3673.77506232
1180,4187.30028053,0.0684368589998,65507,3877.62461639
1190,4255.14099049,0.0689667209998,66053,3866.47290085
1200,4265.86999263,0.0694927339999,66594,3692.87290916
1210,4266.03486842,0.0700255899999,67154,3685.57553126
1220,4293.60361772,0.0705451879998,67699,3267.44981243
1230,4222.15242649,0.0710981429999,68244,3639.08996524
1240,4242.71904936,0.0716228729999,68799,3854.3462779
1250,4326.11124725,0.0721711239999,69345,3766.70783272
1260,4312.76814186,0.0727172369999,69902,3775.80770428
1270,4210.55326845,0.0732505199999,70453,3752.00532543
1280,4274.76058346,0.0737743949999,71000,4007.03003457
1290,4304.67620755,0.0742935649999,71547,3572.48799366
1300,4270.38878327,0.0748105979999,72100,3532.32405333
1310,4299.24280669,0.0753147999999,72653,3578.17969231
1320,4282.75157636,0.0758429509999,73197,3741.20279989
1330,4315.59375078,0.0764023209999,73745,3845.88117558
1340,4345.97108753,0.0769360319999,74288,3866.37911492
1350,4308.88193879,0.0774693159999,74846,3643.47476058
1360,4341.53211558,0.0780239819999,75391,3900.52789025
1370,4332.85289529,0.0785521339999,75945,3421.77072313
1380,4365.7243922,0.0790884109999,76491,3967.98594127
1390,4352.38538783,0.0796054429999,77039,3751.18415245
1400,4392.7471064,0.0801665229999,77597,3813.9771869
1410,4426.10592389,0.0806869759999,78145,3853.61491784
1420,4364.11319276,0.0812305229999,78683,3646.73038562
1430,4395.39755747,0.0817347259999,79238,3615.98747939
1440,4387.93745253,0.0845178909999,79780,3508.49380581
1450,4284.58979074,0.0850815369999,80327,3551.35356752
1460,4338.82989304,0.0856066949999,80877,3456.28311321
1470,4343.61121185,0.0861476759999,81421,3499.33427892
1480,4343.10048845,0.0866929339999,81968,3791.90666976
1490,4308.99582624,0.0872296389999,82513,3522.09238667
1500,4366.20584914,0.0879989859999,83057,3892.4571304
1510,4340.00757917,0.0885630599999,83610,3624.57277406
1520,4382.06555945,0.0890745329999,84163,3569.62289203
1530,4311.93764586,0.0896227839999,84709,3668.40497337
1540,4375.07802913,0.0901860029999,85253,3403.80940561
1550,4417.62802957,0.0907261289999,85806,3621.84787006
1560,4376.42808337,0.0912709589999,86360,3776.43954453
1570,4391.03352178,0.0918016759999,86905,3735.32293236
1580,4414.30103254,0.0923105829999,87455,3581.32122346
1590,4313.51491922,0.0928199169999,88013,3700.41255955
1600,4398.04096675,0.0933596149999,88560,3823.30563489
1610,4391.73122341,0.0938822069999,89115,3441.85659847
1620,4379.01102925,0.0944137789999,89677,3705.37042638
1630,4360.2937269,0.0949342329999,90222,3597.29587785
1640,4448.31216172,0.0954700819998,90772,3293.17021587
1650,4363.39187412,0.0960102079999,91327,3450.94837034
1660,4317.2096449,0.0967119859998,91874,3592.79250066
1670,4406.18288973,0.0972683619998,92425,3640.51578696
1680,4424.20244333,0.0978204609998,92970,3787.81248289
1690,4353.14759847,0.0983511779998,93511,3572.61875565
1700,4363.57434849,0.0988853159998,94058,3442.59056159
1710,4396.14842864,0.0994352769998,94599,3693.5694589
1720,4379.92270501,0.0999685599998,95151,3795.77881743
1730,4354.85917248,0.100504837,95695,3409.22642113
1740,4299.64387764,0.101034699,96244,3810.37468152
1750,4176.99627266,0.10156841,96791,3451.84947179
1760,4254.82899424,0.102110674,97347,3723.50672701
1770,4261.01861817,0.102646523,97896,3638.3496584
1780,4257.33309258,0.103177668,98446,3518.73069919
1790,4196.82442312,0.103708385,98997,3395.85796562
1800,4138.08055314,0.10426134,99540,3606.35992971
1810,4234.91021063,0.104818571,100085,3880.36327725
1820,4180.92991946,0.105356558,100635,3684.90253233
1830,4165.57112261,0.105882571,101188,3553.20735903
1840,4195.69133821,0.10639276,101731,3585.95846258
1850,4340.76362209,0.106932031,102283,3663.3933502
1860,4271.81677217,0.107479855,102830,3858.71665013
1870,4218.03828694,0.107999453,103376,3533.06418803
1880,4218.90281203,0.108543856,103924,3756.08947806
1890,4175.96534065,0.109075857,104469,3468.88523024
1900,4153.93844373,0.109620259,105022,3501.25513365
1910,4188.88971719,0.110152687,105574,3613.10763457
1920,4157.4966638,0.110682549,106124,3543.45393601
1930,4144.32226955,0.111200009,106671,3436.12989904
1940,4115.86938329,0.114282958,107220,3712.80828725
1950,4220.99918666,0.114829071,107767,3472.81381525
1960,4079.66170951,0.115360216,108323,3357.2916299
1970,4086.36620101,0.11590077,108876,3464.31626385
1980,4077.73797623,0.116433198,109429,3659.72880278
1990,4096.48075101,0.116949802,109979,3528.90778355
2000,4154.98843582,0.117491211,110531,3625.64702769
2010,4158.82299478,0.118045877,111088,3502.53076602
2020,4132.41892186,0.118560344,111642,3548.02259603
2030,4144.39793252,0.11907866,112183,3513.87936836
2040,4109.02518894,0.119599969,112724,3406.44147028
2050,4121.76075755,0.120129403,113266,3487.14809858
2060,4105.93898958,0.120668673,113821,3444.78677701
2070,4162.66408586,0.121204094,114367,3476.67208021
2080,4171.75740318,0.121734811,114910,3466.17896841
2090,4208.46897868,0.122273654,115462,3129.69988319
2100,4094.69203469,0.122824899,116009,3571.13509235
2110,4086.63132501,0.123379992,116560,3394.08242645
2120,4179.30723321,0.123921828,117118,3410.67468039
2130,4138.10356931,0.124479487,117666,3483.66340672
2140,4246.29372838,0.125031586,118209,3489.9128295
2150,4174.88459174,0.125561876,118762,3538.52374563
2160,4167.45121678,0.126108416,119312,3773.39061783
2170,4205.43404272,0.126639134,119860,3304.04873911
2180,4263.31981724,0.127192944,120413,3537.50384727
2190,4239.30170051,0.127771559,120968,3474.05069837
2200,4224.81403476,0.128322376,121515,3506.66240592
2210,4241.86218425,0.128848817,122068,3184.35744092
2220,4224.94464124,0.129399634,122619,3313.01136559
2230,4309.12381324,0.129953872,123172,3384.35343306
2240,4297.94655647,0.13052821,123723,3774.41260327
2250,4266.22507662,0.131070474,124268,3634.3189072
2260,4280.42375904,0.131598198,124816,3533.36641073
2270,4172.41890022,0.13212977,125370,3515.03688029
2280,4248.19642877,0.13263825,125927,3403.07832191
2290,4263.5465096,0.133184363,126481,3585.65387877
2300,4202.51219896,0.133740739,127030,3658.15046683
2310,4250.11086747,0.134268463,127572,3299.05959329
2320,4305.41317126,0.134825267,128112,3759.18068091
2330,4270.51448588,0.135348287,128673,3416.86149342
2340,4237.1227337,0.135889695,129225,3516.77231612
2350,4305.92308359,0.136433669,129777,3412.41850091
2360,4299.27446685,0.136949418,130320,3597.36245485
2370,4397.50907204,0.137493392,130876,3596.04501465
2380,4304.5824069,0.138031379,131425,3700.44789968
2390,4353.35797777,0.138569794,131973,3561.58368863
2400,4368.44454816,0.139125315,132521,3569.10390805
2410,4342.5685461,0.139670572,133066,3577.99246138
2420,4431.91544403,0.140194019,133621,3655.71644249
2430,4360.31458072,0.14075681,134165,3644.67753638
2440,4350.38485814,0.141313614,134709,3639.05758205
2450,4294.11478523,0.143864991,135261,3442.6947132
2460,4344.99251607,0.144434197,135800,3479.4880377
2470,4376.60913001,0.144997415,136351,3696.31845934
2480,4318.9741675,0.145544383,136904,3219.31280501
2490,4373.24683466,0.146091779,137459,3350.7502104
2500,4311.65009318,0.146805104,138009,3429.90761758
2510,4291.33860625,0.147353355,138563,3244.94720326
2520,4268.13973522,0.147869959,139108,3323.74450287
2530,4250.5438835,0.148449001,139658,3411.54080769
2540,4249.74216999,0.148964323,140203,3706.96173291
2550,4289.78962478,0.149506587,140760,3896.04303556
2560,4270.19180759,0.1500527,141307,3418.16203451
2570,4268.8846494,0.150567167,141854,3758.35473084
2580,4350.44752991,0.151109431,142404,3465.93866157
2590,4303.65473366,0.15166538,142959,3659.68430507
2600,4283.56723047,0.152210638,143507,3650.58130958
2610,4260.21046059,0.152740073,144046,3546.25014773
2620,4300.88447674,0.153264376,144600,3403.91922917
2630,4262.83888728,0.153952897,145150,3482.65338825
2640,4256.41908807,0.154488746,145696,3524.71990524
2650,4304.05323128,0.155016898,146241,3730.47980192
2660,4289.33112833,0.15559038,146786,3712.87938332
2670,4311.53084675,0.156138203,147344,3557.94447254
2680,4273.70790062,0.156684315,147897,3584.17168157
2690,4311.82921789,0.15723,148452,3727.79042843
2700,4392.75183298,0.157786804,149001,3603.0435036
2710,4303.74522599,0.158313245,149543,3623.49547316
2720,4402.06735574,0.158870049,150094,3676.92983789
2730,4404.68821364,0.159407181,150635,3867.71580093
2740,4335.69941239,0.159944313,151180,3459.04403755
2750,4313.87470175,0.160482728,151726,3648.30030796
2760,4341.81629996,0.161015156,152275,3755.24910197
2770,4296.02080941,0.161552288,152830,3474.56894818
2780,4300.5480057,0.16212235,153378,3770.65052285
2790,4345.9826666,0.162659055,153925,3791.8218972
2800,4370.57078917,0.163167107,154478,3772.34953416
2810,4331.88442684,0.16370039,155022,3865.431658
2820,4384.47501519,0.164302525,155564,3543.73106915
2830,4384.27051062,0.164862751,156113,3416.25968569
2840,4327.36745069,0.165403304,156660,3571.37439152
2850,4363.25957542,0.165936587,157211,3870.93630016
2860,4279.90164891,0.166465166,157761,3589.31186174
2870,4325.84410916,0.167025391,158309,3716.70198964
2880,4338.44405528,0.167554398,158853,3589.57426978
2890,4268.89396899,0.168082122,159398,3628.70230313
2900,4314.06938884,0.168637216,159948,3814.54146112
2910,4324.14993908,0.16917948,160505,3598.96487347
2920,4286.01745764,0.169723027,161059,3396.21974595
2930,4279.69803525,0.170269567,161602,3723.05224073
2940,4338.1508312,0.17080841,162151,3463.12840988
2950,4316.38020424,0.171360082,162701,3600.07690483
2960,4338.25044447,0.174093212,163256,3658.27034577
2970,4341.77439382,0.174655576,163809,3685.12310003
2980,4345.02958854,0.17521067,164366,3617.44885123
2990,4339.20542573,0.175756355,164917,3688.12886555
3000,4395.57864553,0.1763277,165466,3346.9080041
3010,4371.68811916,0.176875523,166017,3767.67412329
3020,4432.59903751,0.17744088,166577,3980.8405443
3030,4424.40592749,0.17806953,167134,3594.37269735
3040,4426.79339534,0.178596826,167680,3825.90530351
3050,4420.18563687,0.179142511,168224,3555.02112815
3060,4404.22651976,0.179677077,168772,3859.88637668
3070,4426.52130297,0.18023602,169322,3792.49299947
3080,4409.19261759,0.180781278,169872,3776.83221217
3090,4420.40657323,0.18132397,170421,3457.23627613
3100,4419.67046857,0.181882057,170964,3619.91523949
3110,4340.99424283,0.182415767,171508,3752.62912881
3120,4437.91435782,0.182922536,172052,3661.61873738
3130,4363.29325069,0.183432298,172600,3925.71499985
3140,4427.2176681,0.18398226,173154,3721.08822895
3150,4415.76977329,0.184532221,173695,3678.6924077
3160,4388.44648851,0.185085604,174245,3516.10674882
3170,4393.50801405,0.185646684,174800,3360.54481448
3180,4379.46631602,0.186196645,175346,3433.89668889
3190,4375.22775934,0.186746179,175889,3679.26586879
3200,4365.20126104,0.1873419,176431,3636.3721158
3210,4340.45901962,0.187881598,176971,3898.44832012
3220,4376.63410598,0.18845337,177526,3498.55358201
3230,4385.09096762,0.189048663,178075,3636.85481193
3240,4338.25719311,0.189562702,178628,3674.23415358
3250,4367.58611104,0.190070753,179186,3696.23565535
3260,4361.19444368,0.190603181,179729,3638.75041923
3270,4301.24405208,0.191128339,180272,3412.53915181
3280,4325.96254964,0.191636819,180822,3847.52787746
3290,4404.2974831,0.192140595,181374,3773.34231799
3300,4363.6096502,0.192657627,181919,3569.90862064
3310,4313.81405764,0.193197325,182465,3617.26380181
3320,4383.22791671,0.193721628,183007,3832.04782736
3330,4264.51667711,0.194266885,183563,3813.27028176
3340,4296.20003943,0.194792043,184111,3913.89340931
3350,4294.42386733,0.195333024,184666,3852.39362349
3360,4311.56754314,0.195866734,185207,3649.61135324
3370,4289.16393183,0.196394886,185757,3879.00741949
3380,4301.29264908,0.196904221,186310,3520.74525908
3390,4283.32898481,0.197450334,186848,3560.22128265
3400,4283.84326497,0.198022961,187391,3605.70346059
3410,4295.67094289,0.198569929,187946,3539.40951654
3420,4313.00514348,0.199103212,188494,3845.02134515
3430,4301.5185123,0.199643765,189050,3733.39725744
3440,4323.93752073,0.20019501,189587,3684.07007852
3450,4265.18659923,0.200728721,190136,3686.69713931
3460,4249.81818989,0.20322878,190689,3881.7135744
3470,4290.14991026,0.203769333,191246,3726.82446012
3480,4285.95791688,0.204329131,191787,3735.27934376
3490,4337.74094579,0.204865835,192338,3707.40272176
3500,4307.85068174,0.205372176,192884,3681.89910959
3510,4255.33438334,0.205888781,193434,3572.64047614
3520,4231.21930073,0.206394694,193981,3552.76637505
3530,4279.38049156,0.206910443,194533,3775.50805688
3540,4282.85486942,0.207449713,195079,3853.07191712
3550,4316.76503004,0.207981713,195627,3982.5376216
3560,4273.97254113,0.208509437,196172,3577.32058269
3570,4274.76413083,0.209042721,196727,3737.61171132
3580,4227.63717391,0.209570017,197276,3963.88814569
3590,4229.10994572,0.210120406,197826,3339.1143799
3600,4259.24504497,0.210637438,198373,3739.02896357
3610,4259.24504497,0.211182268,198928,3590.88229713
3620,4273.52366215,0.211722393,199486,3784.97613128
3630,4266.10139289,0.212249261,200029,3697.46216874
3640,4245.39259365,0.212778696,200588,3703.28640452
3650,4277.84177783,0.213307702,201135,3894.01006429
3660,4236.38593948,0.213820886,201683,3435.17723496
3670,4245.56358781,0.214343906,202232,3521.50069959
3680,4281.9865274,0.214881465,202778,3891.08757628
3690,4320.87763833,0.215437414,203321,3752.64517641
3700,4286.82808387,0.215970698,203868,3610.0847387
3710,4325.36294011,0.216489014,204415,3697.98182876
3720,4296.43964734,0.217012889,204965,3748.13167558
3730,4275.60317992,0.217529921,205517,3373.93252764
3740,4287.36973297,0.218070046,206067,3747.11156052
3750,4257.69148376,0.218612737,206616,3972.79443806
3760,4291.18045021,0.219181088,207168,3628.39088254
3770,4261.75574789,0.219728911,207716,3769.53095354
3780,4293.70811845,0.220257062,208267,3838.01821361
3790,4239.1740729,0.220792911,208819,3848.14558875
3800,4233.67774716,0.221323201,209371,3959.67768523
3810,4174.82833725,0.221848787,209922,3704.65167051
3820,4126.44816101,0.22241115,210468,3888.88210789
3830,4130.300184,0.222967098,211019,3867.27603465
3840,4168.586932,0.223489263,211565,3320.79471947
3850,4117.89624825,0.224037086,212115,3813.93068233
3860,4133.83463622,0.224574218,212657,3837.36544359
3870,4170.00575921,0.225132305,213209,3769.64425162
3880,4237.76011501,0.225697235,213760,3690.53593016
3890,4205.25053206,0.226246342,214311,3689.09368165
3900,4193.72409636,0.226768933,214861,3505.55343857
3910,4202.93454989,0.227310341,215404,3807.11691209
3920,4191.10274113,0.227839347,215949,3835.90236653
3930,4174.98720903,0.2284201,216495,3648.29444685
3940,4258.84791451,0.228974338,217050,3482.43345616
3950,4235.91432763,0.231459857,217591,3832.76028558
3960,4259.01204805,0.232003404,218142,3847.03098272
3970,4215.13613346,0.232544813,218692,3733.56101016
3980,4192.210045,0.233094347,219247,3513.83908364
3990,4177.38920057,0.233637466,219799,3609.34709658
4000,4296.29499255,0.234163052,220343,3841.5834511
4010,4205.47597324,0.234663406,220894,3946.49053648
4020,4226.88932217,0.23516547,221444,3712.66783761
4030,4178.13552636,0.235694049,221993,3635.86849953
4040,4150.21781903,0.236199962,222541,3599.1280224
4050,4246.66000209,0.236728969,223091,3584.7381986
4060,4223.73774873,0.237227612,223632,3738.71061882
4070,4326.28461191,0.237765599,224169,3513.88477278
4080,4173.21554289,0.23830658,224716,3890.01987665
4090,4271.4572282,0.238859535,225260,3704.35010132
4100,4179.94072112,0.239385121,225812,3594.09157928
4110,4209.43967461,0.239905147,226359,3823.55958693
4120,4259.72171554,0.240460668,226911,3711.69001893
4130,4217.0679198,0.241013195,227465,3434.14239408
4140,4207.05145101,0.241594375,228017,3687.23879329
4150,4277.38140999,0.242120816,228577,3486.57181287
4160,4141.93853707,0.242638703,229129,3760.67415785
4170,4161.38043546,0.243176263,229677,3501.43521527
4180,4222.34995971,0.243718527,230227,3715.8479752
4190,4252.50565998,0.244258225,230780,3511.59360146
4200,4270.18403181,0.244817595,231332,3807.01300576
4210,4325.76279276,0.2453543,231878,3496.92722193
4220,4305.34823945,0.245864063,232428,3494.7160144
4230,4268.69989432,0.246364845,232972,3322.81726844
4240,4275.49160987,0.24689599,233521,3690.66272868
4250,4263.24656729,0.247410456,234070,3912.65150261
4260,4287.16690168,0.247928343,234622,3642.47779362
4270,4322.15543488,0.248448369,235177,3747.48928627
4280,4332.42628043,0.248952144,235725,3649.1928019
4290,4295.2380455,0.24949227,236271,3623.9260351
4300,4287.16690168,0.250043514,236814,3579.71183082
4310,4307.5497032,0.250575942,237362,3778.07180203
4320,4274.64716518,0.251158405,237908,3574.78633669
4330,4311.88328434,0.251680569,238457,3712.20993057
4340,4315.24140145,0.252204871,239010,3889.05561205
4350,4306.50797743,0.252727035,239563,3847.34504545
4360,4287.67592687,0.25323979,240110,3852.9482681
4370,4339.52751838,0.253757678,240653,3808.27661886
4380,4402.00275886,0.254264446,241189,3752.11775992
4390,4320.18492473,0.254785755,241740,3694.26486329
4400,4286.06856999,0.255319894,242286,3732.50441964
4410,4333.37925185,0.255882258,242840,3564.18465046
4420,4284.07388664,0.256421528,243388,3749.87600639
4430,4316.92392334,0.256971062,243940,3730.81369155
4440,4282.40554469,0.257531714,244485,3401.9562416
4450,4366.10094259,0.2601652,245037,3755.76113965
4460,4290.6022398,0.260722432,245584,3615.28639264
4470,4247.51629553,0.261256571,246124,3600.00453875
4480,4270.66698044,0.26177788,246680,3679.88061107
4490,4252.91140028,0.262311591,247221,3554.1036786
4500,4293.46646001,0.262838887,247764,3614.25565206
4510,4215.00769119,0.263371742,248315,3628.50789247
4520,4222.82755277,0.263899466,248865,3546.2925187
4530,4256.84774159,0.264724409,249419,3721.36554401
4540,4246.48318594,0.265232033,249965,3621.80463452
4550,4245.66173337,0.265743934,250508,3530.60927189
4560,4225.13401863,0.266287909,251056,3682.40770947
4570,4208.67638636,0.26685626,251607,3685.97230977
4580,4184.64271462,0.267387405,252156,3711.59146768
4590,4316.64610664,0.267915557,252709,3286.49026528
4600,4235.85289129,0.26844157,253250,3462.86734752
4610,4280.19030861,0.268968439,253792,3530.93676876
4620,4252.19343647,0.269508137,254344,3550.54998833
4630,4177.52613831,0.270024742,254901,3474.76540355
4640,4207.67891792,0.270554176,255449,3572.54202129
4650,4275.09714875,0.271112263,255999,3700.73404452
4660,4247.33203263,0.27165752,256550,3908.89997841
4670,4229.54794731,0.272204488,257100,3754.66469997
4680,4214.2209032,0.272753167,257648,3765.40401492
4690,4270.93418791,0.273303984,258204,3656.43367114
4700,4262.93330008,0.273844538,258748,3928.08592542
4710,4271.45633351,0.274389368,259297,3981.34569402
4720,4271.81884076,0.274940612,259848,3765.64494694
4730,4263.16886163,0.275484159,260398,3656.47991757
4740,4260.02899874,0.276027278,260951,3778.75919903
4750,4238.60115129,0.276575529,261504,3819.56820132
4760,4220.49142312,0.277113089,262056,3666.65299583
4770,4210.38925985,0.27765578,262606,3749.06033637
4780,4229.43234484,0.278166397,263154,3782.09179007
4790,4321.66465754,0.278671455,263693,3487.35160666
4800,4236.93341566,0.279208159,264238,3567.79974078
4810,4217.9620065,0.279739304,264783,3800.45043638
4820,4271.02643449,0.280289266,265324,3840.96246254
4830,4275.68183239,0.280832385,265885,3911.14840327
4840,4245.30509082,0.281393038,266427,3793.71382516
4850,4216.04849991,0.281948559,266972,3775.30746888
4860,4236.83254165,0.282480559,267527,3781.18726342
4870,4211.53045774,0.283005289,268075,3493.65540174
4880,4217.70516106,0.283551402,268619,3729.25811543
4890,4269.83862608,0.284088962,269170,3881.30314359
4900,4312.34334369,0.284638068,269722,3615.40035861
4910,4251.71279709,0.285177766,270269,3749.909156
4920,4244.17277671,0.285717036,270821,3742.00026769
4930,4266.2024889,0.2862593,271376,3704.78857183
4940,4352.68699485,0.286802847,271922,3268.91118731
4950,4213.94859002,0.289377317,272474,3814.21963964
4960,4236.56444026,0.289899909,273032,3959.70965306
4970,4258.50110344,0.290429771,273587,3839.08869207
4980,4267.13350906,0.290951507,274136,3677.37991184
4990,4239.841787,0.291496337,274683,3606.78335165
