it,funval,time,funcount,weight
0,25050.4653407,2.865299939e-05,10,26326.1428959
10,25057.2836315,7.99720000941e-05,21,26518.8628221
20,25051.7502783,0.000121881999803,32,26452.4234781
30,24871.2808147,0.00016464700002,43,26327.6867301
40,24809.4730297,0.000204418000067,54,26071.5479092
50,24849.0203119,0.000253170000178,65,26009.3720882
60,24964.9247281,0.000295935000395,76,26006.8798546
70,25115.2621536,0.000341694000781,87,26293.8286495
80,25248.7647426,0.000374195001314,98,26516.9679056
90,25328.2117643,0.000412256001255,109,26635.4391967
100,25891.830169,0.00045929800126,120,27053.0065051
110,26179.5885461,0.000496504001603,131,27129.966939
120,26184.8677283,0.000541835001968,142,27164.6788931
130,26258.6708145,0.000588449001953,153,27245.2167585
140,26577.7619255,0.000635918001535,164,27583.106065
150,26846.258655,0.000684671001181,175,27797.9051454
160,27111.089594,0.000730857001145,186,27940.394571
170,27416.0675508,0.00077789900115,197,28280.7190995
180,27481.8742685,0.000828362000902,208,28291.5383954
190,27608.4811472,0.000882247000845,219,28375.5441236
200,27775.9399916,0.000928862000364,230,28641.2430084
210,27808.4308174,0.000990016000287,241,28726.3027365
220,28087.1821455,0.00103449200014,252,28836.9564956
230,28300.6598896,0.0010858100004,263,29088.5290822
240,28431.2971091,0.00112387100035,274,29408.0634453
250,28453.6704069,0.00115936699967,285,29493.5346251
260,28652.2616471,0.00119999399976,296,29441.7672524
270,28912.742959,0.0012483190003,307,29836.3764649
280,29203.7427745,0.00130434200037,318,30080.7534635
290,29526.1111584,0.00135095600035,329,30217.4864308
300,29614.5047298,0.00140099100008,340,30517.3655542
310,29791.0031274,0.00144589399952,351,30700.8392041
320,29998.6609501,0.00148224399891,362,30836.7412274
330,30163.4654242,0.00153912099904,373,30952.7793115
340,30206.5500086,0.00158830099917,384,31072.3817576
350,30408.0487553,0.00165415999982,395,31273.7253097
360,30442.7287147,0.00170547899961,406,31303.9392012
370,30534.0157483,0.00176021799962,417,31409.925506
380,30582.4592028,0.00181025300026,428,31293.56378
390,30731.9976412,0.00186071600092,439,31414.1569033
400,30881.4152909,0.00191289000031,450,31665.3922835
410,31103.9569076,0.00195693900059,461,31949.3832707
420,31284.4566485,0.0020048360002,472,32094.6298615
430,31356.3369321,0.00204375300018,483,32108.2368986
440,31644.8097515,0.00208224200014,494,32472.5397012
450,31655.3904206,0.00212244200065,505,32535.1150599
460,31785.7567044,0.00216178600112,516,32414.7959402
470,31996.089956,0.00220925500071,527,32713.8069096
480,32100.5757607,0.00225800800126,538,32731.4775645
490,32133.6894985,0.0023071880014,549,32760.9638683
500,32368.3983972,0.0023426830021,560,32910.7348849
510,32534.5700272,0.00239314600276,571,32966.2360178
520,32553.4670843,0.00244318200293,582,32905.789012
530,32731.2537075,0.00249236200307,593,33186.7839757
540,32962.6755848,0.00254325300284,604,33422.4531425
550,33367.4519343,0.00259842000287,615,33664.1263272
560,33378.5193679,0.00264845500351,626,33674.8825532
570,33450.8494508,0.00270105700383,637,33718.13391
580,33486.5961998,0.00275451400466,648,33825.5511676
590,33527.0081601,0.00280112800465,659,33856.8670561
600,33527.0081601,0.00284945300427,670,33845.3836883
610,33655.7323984,0.00289008000345,681,34024.1159842
620,33671.5452741,0.00293583900293,692,34184.788846
630,33671.5452741,0.002976038003,703,34184.788846
640,33677.401116,0.00301367200245,714,34231.6756787
650,33724.9706028,0.00305429900254,725,34290.4440767
660,33859.5877417,0.0030936430021,736,34463.6622586
670,34102.451033,0.003130848002,747,34631.4924135
680,34103.5128919,0.00317062000158,758,34611.037488
690,34228.654593,0.00320910900155,769,34806.5259196
700,34228.654593,0.00325401200189,780,34726.1564774
710,34304.0705275,0.00329891600177,791,34944.5387729
720,34400.2166909,0.00333483900249,802,34947.5318608
730,34400.2166909,0.00338059800288,813,35045.2807367
740,34400.2166909,0.00342036900292,824,35059.010812
750,34550.8437918,0.00346826600253,835,35187.5030129
760,34628.547273,0.00350547200287,846,35295.4823131
770,34693.029175,0.00354481600334,857,35401.2539791
780,34840.4022881,0.00359570600358,868,35347.3134697
790,35110.4340958,0.00365386700378,879,35674.3999495
800,35110.4340958,0.00370090800334,890,35595.1788721
810,35221.1318085,0.00374666700372,901,35884.9417106
820,35335.295616,0.00379028700354,912,35920.6254449
830,35406.4851325,0.00382578200333,923,35970.910592
840,35606.1420696,0.00386555400291,934,36203.4125754
850,35671.9916283,0.00392371500311,945,36513.3117485
860,35766.4123924,0.00396861800255,956,36636.879583
870,35889.2893588,0.00400325800183,967,36796.1836455
880,35933.5415023,0.00404987200181,978,36855.0330413
890,36104.6189593,0.0041007630025,989,37047.6336765
900,36211.1667498,0.00414096200257,1000,37128.385766
910,36344.9010039,0.00419399100247,1011,37212.6479093
920,36383.7707307,0.00425899400307,1022,37289.33498
930,36416.6663491,0.00430646400218,1033,37217.2382714
940,36437.8012166,0.00434495300215,1044,37340.6886877
950,36548.1023875,0.00440097500177,1055,37417.3945442
960,36561.708625,0.0044501550019,1066,37531.645012
970,36605.737167,0.00449762500193,1077,37592.9986083
980,36643.84975,0.00454466700194,1088,37714.0722898
990,36690.4832145,0.00459128100192,1099,37729.5224261
1000,36776.1692561,0.00463960600155,1110,37681.7390412
1010,36956.2138878,0.0046840820014,1121,37841.955718
1020,36988.5528344,0.00473240700103,1132,37817.2321394
1030,37020.7292097,0.00476918500044,1143,37812.9797333
1040,37115.9699484,0.00481537199994,1154,38111.7509084
1050,37164.4928451,0.00486583499969,1165,38036.0243942
1060,37168.1052284,0.00491415899978,1176,38211.2790765
1070,37170.9300226,0.00496504900002,1187,38203.7712698
1080,37291.3216818,0.00501850500041,1198,38343.5377267
1090,37310.1825586,0.0050711060012,1209,38279.0759073
1100,37384.1665034,0.00512285200148,1220,38502.2965538
1110,37453.6019182,0.0051788740011,1231,38527.5781634
1120,37504.3778732,0.00523019200136,1242,38599.2565206
1130,37577.5708574,0.00528236600167,1253,38579.4612065
1140,37673.8838101,0.00534651400176,1264,38962.1108428
1150,37786.9215143,0.00539441100136,1275,39094.1488163
1160,37790.7202151,0.00544444600109,1286,39134.5390177
1170,37940.6006491,0.00549319900165,1297,39173.9519145
1180,37945.5652189,0.00554580000153,1308,39433.3009375
1190,38003.2750511,0.0055958360017,1319,39548.9665885
1200,38223.4891372,0.00564373400175,1330,39747.5754552
1210,38282.9697172,0.00569633500163,1341,39760.0176354
1220,38440.1216596,0.00574765300098,1352,39869.8899036
1230,38526.6734561,0.00579982700128,1363,39759.1515856
1240,38607.3872097,0.00585029000104,1374,39905.7153823
1250,38687.1208182,0.00589947000117,1385,39869.9226544
1260,38701.9597554,0.00595036100094,1396,39975.2351773
1270,38723.6114462,0.00601408100101,1407,39879.4856797
1280,38723.6114462,0.00606368900117,1418,40057.6342233
1290,38723.6114462,0.00611458000185,1429,39896.0619003
1300,38723.6114462,0.006164188002,1440,39893.1276381
1310,38723.6114462,0.00621507900178,1451,39952.39744
1320,38723.6114462,0.00628478600174,1462,39951.5934297
1330,38723.6114462,0.00633824200213,1473,39987.9600641
1340,38723.6114462,0.00640966000265,1484,39913.0475304
1350,38723.6114462,0.00645884100322,1495,39987.9600641
1360,38727.9617492,0.00650887600295,1506,40020.2657115
1370,38727.9617492,0.00656104900281,1517,39952.4674296
1380,38727.9617492,0.0066025310025,1528,39953.8320002
1390,38727.9617492,0.00664829000289,1539,39981.7732015
1400,38727.9617492,0.00669832500353,1550,39941.4367114
1410,38727.9617492,0.00675263700305,1561,40071.4470927
1420,38727.9617492,0.00679497500278,1572,39985.1165565
1430,38727.9617492,0.00685270800295,1583,39919.0710479
1440,38727.9617492,0.006892479003,1594,40047.5372173
1450,38727.9617492,0.00693054000294,1605,39944.3334852
1460,38727.9617492,0.00697929200305,1616,40040.7516608
1470,38727.9617492,0.00702676200308,1627,39921.0495874
1480,38727.9617492,0.00707637000323,1638,39999.990846
1490,38727.9617492,0.00711870800387,1649,40074.3358918
1500,38727.9617492,0.00716917200407,1660,39941.1990231
1510,38727.9617492,0.00722134500393,1671,39870.6608252
1520,38727.9617492,0.0072606890044,1682,39994.3067447
1530,38727.9617492,0.00729789500474,1693,39992.2178555
1540,38727.9617492,0.00734023300538,1704,39999.0500851
1550,38727.9617492,0.00738813000589,1715,39998.1460494
1560,38727.9617492,0.00744115900579,1726,39996.6282971
1570,38727.9617492,0.00748948300588,1737,39951.7277297
1580,38727.9617492,0.0075271160058,1748,39999.990846
1590,38727.9617492,0.00757928900566,1759,40000.8925904
1600,38727.9617492,0.00763360100518,1770,39999.990846
1610,38727.9617492,0.0076870580051,1781,39963.4907085
1620,38727.9617492,0.00773837600445,1792,39968.7445621
1630,38727.9617492,0.00778541800446,1803,39912.1549682
1640,38727.9617492,0.00782561700362,1814,40006.6424614
1650,38727.9617492,0.00789275900388,1825,40010.9735637
1660,38727.9617492,0.00796246700338,1836,39980.3440851
1670,38727.9617492,0.00801036400389,1847,39999.990846
1680,38727.9617492,0.0080642480043,1858,39936.6090978
1690,38727.9617492,0.00811513800454,1869,39958.4855317
1700,38727.9617492,0.00817672000449,1880,39999.990846
1710,38727.9617492,0.00822632800373,1891,39957.0736782
1720,38727.9617492,0.00826267900356,1902,39862.2298964
1730,38727.9617492,0.00834222300364,1913,39997.9394857
1740,38727.9617492,0.00839739000367,1924,39990.0126511
1750,38727.9617492,0.00843887200335,1935,39999.990846
1760,38727.9617492,0.00848805200349,1946,39999.990846
1770,38727.9617492,0.00856930600366,1957,39956.2770437
1780,38727.9617492,0.00861677500325,1968,39999.990846
1790,38727.9617492,0.00867151400325,1979,39961.9574581
1800,38727.9617492,0.00873437900282,1990,39987.0512121
1810,38727.9617492,0.00878740800272,2001,39992.0211364
1820,38727.9617492,0.00886609600275,2012,39950.4459948
1830,38727.9617492,0.00891955300267,2023,39817.9934408
1840,38727.9617492,0.0089747200027,2034,39873.3449652
1850,38727.9617492,0.00901235300262,2045,39977.2124195
1860,38727.9617492,0.00906623700212,2056,39977.0904807
1870,38727.9617492,0.00911969400204,2067,39810.3259939
1880,38727.9617492,0.0091710120023,2078,39917.073495
1890,38727.9617492,0.00922062000245,2089,39999.990846
1900,38727.9617492,0.00927835300263,2100,39906.7213104
1910,38727.9617492,0.00937714000247,2111,39999.990846
1920,38727.9617492,0.00942845900317,2122,39998.9089115
1930,38727.9617492,0.0094767840028,2133,40072.6979274
1940,38727.9617492,0.00952938600221,2144,39884.9602399
1950,38727.9617492,0.00957984900197,2155,39999.990846
1960,38727.9617492,0.00963116800267,2166,39996.664781
1970,38727.9617492,0.00967008500265,2177,39992.1914047
1980,38727.9617492,0.00971926500279,2188,40065.0708497
1990,38727.9617492,0.00977229400269,2199,39977.2544409
2000,38727.9617492,0.00982104700233,2210,39999.990846
2010,38727.9617492,0.00986552300219,2221,39964.5916869
2020,38727.9617492,0.00991598600285,2232,39999.990846
2030,38727.9617492,0.0099557570029,2243,39860.6541149
2040,38727.9617492,0.00999895000314,2254,39954.7613353
2050,38727.9617492,0.0100370110031,2265,40041.7221006
2060,38727.9617492,0.0100900400039,2276,39906.9252912
2070,38727.9617492,0.0101409300041,2287,39911.5326662
2080,38727.9617492,0.0101841230035,2298,39999.990846
2090,38727.9617492,0.0102427110032,2309,39969.5149973
2100,38727.9617492,0.010285477003,2320,39998.4594274
2110,38727.9617492,0.0103359400027,2331,39895.9462502
2120,38727.9617492,0.0103859760029,2342,39997.0283617
2130,38727.9617492,0.0104317350024,2353,39949.8978303
2140,38727.9617492,0.0104766380027,2364,39999.990846
2150,38727.9617492,0.0105288110026,2375,39907.7249356
2160,38727.9617492,0.0105856890032,2386,39994.5532382
2170,38727.9617492,0.0106335860028,2397,39960.9478159
2180,38727.9617492,0.0106827660029,2408,39928.5345992
2190,38727.9617492,0.0107439200028,2419,39943.4824449
2200,38727.9617492,0.0107956660022,2430,39960.0477855
2210,38727.9617492,0.0108585310027,2441,40031.4187693
2220,38727.9617492,0.0109128430031,2452,39999.990846
2230,38727.9617492,0.0109517600031,2463,39983.6566093
2240,38727.9617492,0.0110035060034,2474,39999.990846
2250,38727.9617492,0.0110556800028,2485,39806.9383809
2260,38727.9617492,0.0111117020024,2496,40000.0272289
2270,38727.9617492,0.0111660140019,2507,40000.94143
2280,38727.9617492,0.0112173320022,2518,39928.3936091
2290,38727.9617492,0.011261808002,2529,40125.1846098
2300,38727.9617492,0.0113135540023,2540,39999.990846
2310,38727.9617492,0.011355464002,2551,39999.990846
2320,38727.9617492,0.0114161910014,2562,39999.990846
2330,38727.9617492,0.0114610950013,2573,39944.6686417
2340,38727.9617492,0.0115004390009,2584,39999.990846
2350,38727.9617492,0.0115534680008,2595,39982.1421758
2360,38727.9617492,0.0116129120006,2606,39990.5507174
2370,38727.9617492,0.0116629480008,2617,39984.1654434
2380,38727.9617492,0.0117219640006,2628,39964.2627226
2390,38727.9617492,0.0117634470007,2639,39999.990846
2400,38727.9617492,0.0118049290004,2650,40072.3091963
2410,38727.9617492,0.0118579580003,2661,39999.990846
2420,38727.9617492,0.0119097039997,2672,40084.4878971
2430,38727.9617492,0.0119631609996,2683,40099.216565
2440,38727.9617492,0.0120204659997,2694,39999.990846
2450,38727.9617492,0.0120739220001,2705,39956.3182054
2460,38727.9617492,0.0121218189997,2716,39923.0456639
2470,38727.9617492,0.0121633010003,2727,39970.2211913
2480,38727.9617492,0.0122141920001,2738,39915.9466276
2490,38727.9617492,0.0122689310001,2749,39999.990846
2500,38727.9617492,0.0123099860002,2760,39930.1236461
2510,38727.9617492,0.0124523950008,2771,39999.990846
2520,38727.9617492,0.0125114110006,2782,40013.2940768
2530,38727.9617492,0.0125755589997,2793,39999.990846
2540,38727.9617492,0.0126260220004,2804,39999.990846
2550,38727.9617492,0.0126807610004,2815,39980.0193157
2560,38727.9617492,0.0127393499997,2826,39991.6811004
2570,38727.9617492,0.0127876749993,2837,39960.4428116
2580,38727.9617492,0.0128372829995,2848,39969.306352
2590,38727.9617492,0.0132238809992,2859,40077.4586892
2600,38727.9617492,0.0132794759993,2870,39999.990846
2610,38727.9617492,0.0133372089995,2881,39995.6631083
2620,38727.9617492,0.0133957969992,2892,39999.7562236
2630,38727.9617492,0.0134531029989,2903,39997.2924598
2640,38727.9617492,0.0135125469988,2914,39996.0505349
2650,38727.9617492,0.0135685699988,2925,39851.1647889
2660,38727.9617492,0.0136280139986,2936,40049.6037055
2670,38727.9617492,0.0136857469988,2947,39979.6218624
2680,38727.9617492,0.0137477569988,2958,39998.8941322
2690,38727.9617492,0.0138097669987,2969,39999.990846
2700,38727.9617492,0.0138546699982,2980,39855.9893487
2710,38727.9617492,0.0139021399982,2991,39999.990846
2720,38727.9617492,0.0139667159983,3002,39946.5550167
2730,38727.9617492,0.0140253039981,3013,39960.506973
2740,38727.9617492,0.0140826099978,3024,39999.0891016
2750,38727.9617492,0.0141424819976,3035,39990.7001114
2760,38727.9617492,0.0142173209979,3046,39960.6979095
2770,38727.9617492,0.0142737709984,3057,39999.990846
2780,38727.9617492,0.0144089099986,3068,39980.1670441
2790,38727.9617492,0.0144798999991,3079,39965.4773418
2800,38727.9617492,0.014542337999,3090,39937.6735247
2810,38727.9617492,0.0146052029986,3101,39999.990846
2820,38727.9617492,0.0146560939984,3112,39999.990846
2830,38727.9617492,0.0147155379982,3123,39955.8253799
2840,38727.9617492,0.0147724159979,3134,40013.99097
2850,38727.9617492,0.0148344259978,3145,39929.6819287
2860,38727.9617492,0.0149019949986,3156,39896.600606
2870,38727.9617492,0.0149605829984,3167,39999.990846
2880,38727.9617492,0.0150191709981,3178,39999.990846
2890,38727.9617492,0.0150820359986,3189,39824.3190903
2900,38727.9617492,0.015127794999,3200,39846.2328445
2910,38727.9617492,0.0151756919986,3211,39949.5092432
2920,38727.9617492,0.0152411229983,3222,40012.0216278
2930,38727.9617492,0.0153044159988,3233,40099.6864373
2940,38727.9617492,0.0153647149982,3244,39933.6844698
2950,38727.9617492,0.0154245859985,3255,39848.422412
2960,38727.9617492,0.0154904449982,3266,39999.990846
2970,38727.9617492,0.0155554479979,3277,39994.7009353
2980,38727.9617492,0.0156042009976,3288,39999.990846
2990,38727.9617492,0.0156683489977,3299,39868.1798279
3000,38727.9617492,0.0157183839974,3310,39996.6184231
3010,38727.9617492,0.0157632879973,3321,40025.7642602
3020,38727.9617492,0.0158158889972,3332,39999.990846
3030,38727.9617492,0.015875760997,3343,39928.5345992
3040,38727.9617492,0.0159313559971,3354,39880.1730387
3050,38727.9617492,0.0159899439968,3365,39893.8187467
3060,38727.9617492,0.0160468219965,3376,39944.6511604
3070,38727.9617492,0.0161054109967,3387,39957.4781112
3080,38727.9617492,0.0161648539961,3398,39999.990846
3090,38727.9617492,0.0162213039966,3409,40000.8925904
3100,38727.9617492,0.0162824579966,3420,39854.5243082
3110,38727.9617492,0.0163495999968,3431,39945.6429298
3120,38727.9617492,0.0164137479969,3442,39921.4580322
3130,38727.9617492,0.0164740469972,3453,40012.9304798
3140,38727.9617492,0.0165202329972,3464,39970.2579603
3150,38727.9617492,0.0165698409974,3475,40039.2572529
3160,38727.9617492,0.0166327059978,3486,40006.1759036
3170,38727.9617492,0.0166912949981,3497,39881.948527
3180,38727.9617492,0.0167481729977,3508,39921.1731218
3190,38727.9617492,0.0168067609975,3519,39985.2702959
3200,38727.9617492,0.0168888709977,3530,40045.5436062
3210,38727.9617492,0.0169495979972,3541,39996.6880344
3220,38727.9617492,0.0170004889969,3552,40015.8162486
3230,38727.9617492,0.0170599319972,3563,39948.4440175
3240,38727.9617492,0.0171232249968,3574,39833.8904761
3250,38727.9617492,0.0171843799963,3585,39982.2761462
3260,38727.9617492,0.0172446789957,3596,39838.8605342
3270,38727.9617492,0.0173041229955,3607,39964.1542734
3280,38727.9617492,0.017398633996,3618,39999.990846
3290,38727.9617492,0.0174717629952,3629,39950.3821603
3300,38727.9617492,0.0175316339955,3640,39882.868261
3310,38727.9617492,0.0175906499953,3651,39967.291141
3320,38727.9617492,0.0176496659951,3662,40041.7316067
3330,38727.9617492,0.0177009839954,3673,39979.5342763
3340,38727.9617492,0.0177621389957,3684,39999.990846
3350,38727.9617492,0.0178215829956,3695,40042.2061396
3360,38727.9617492,0.017881881995,3706,40007.9605555
3370,38727.9617492,0.0179391869942,3717,39965.1537664
3380,38727.9617492,0.0180037629943,3728,39983.6780227
3390,38727.9617492,0.0180657729943,3739,39929.4001606
3400,38727.9617492,0.0181166639941,3750,40074.0032593
3410,38727.9617492,0.0181769629944,3761,39956.8342717
3420,38727.9617492,0.018225715994,3772,40025.9705486
3430,38727.9617492,0.0182830219946,3783,39816.8424442
3440,38727.9617492,0.0183411829939,3794,39888.8404861
3450,38727.9617492,0.0184006269938,3805,39971.7246204
3460,38727.9617492,0.0184630639942,3816,39961.2449395
3470,38727.9617492,0.0185237909945,3827,39999.990846
3480,38727.9617492,0.0185716879951,3838,39984.0514269
3490,38727.9617492,0.0186161639949,3849,40090.849853
3500,38727.9617492,0.0186811669955,3860,39960.7244391
3510,38727.9617492,0.0187418939959,3871,39901.7010641
3520,38727.9617492,0.0188004829961,3882,39999.2251367
3530,38727.9617492,0.0188586439954,3893,40014.3733218
3540,38727.9617492,0.0189210819954,3904,39984.1654434
3550,38727.9617492,0.0189813809957,3915,39999.990846
3560,38727.9617492,0.0190912879953,3926,39970.4700318
3570,38727.9617492,0.0191537249957,3937,39975.0200014
3580,38727.9617492,0.0192123139959,3948,39942.6276428
3590,38727.9617492,0.0192687639956,3959,40021.2883233
3600,38727.9617492,0.0193252149957,3970,39977.2087006
3610,38727.9617492,0.0194154499959,3981,39920.1047251
3620,38727.9617492,0.0194727559956,3992,39975.4660672
3630,38727.9617492,0.019535192996,4003,39965.5274326
3640,38727.9617492,0.0195950649959,4014,39960.4077978
3650,38727.9617492,0.0196459559966,4025,39997.2236511
3660,38727.9617492,0.0196921429961,4036,39964.8921295
3670,38727.9617492,0.0197426069963,4047,40017.4298364
3680,38727.9617492,0.0198003399964,4058,40077.2476139
3690,38727.9617492,0.0198576459961,4069,39999.9404068
3700,38727.9617492,0.0199205109966,4080,40040.450745
3710,38727.9617492,0.0199705459972,4091,40042.4034152
3720,38727.9617492,0.0200163039972,4102,39960.506973
3730,38727.9617492,0.0200624909976,4113,39816.1945183
3740,38727.9617492,0.0201031179977,4124,39935.6047133
3750,38727.9617492,0.0201424619981,4135,39999.990846
3760,38727.9617492,0.0201873649976,4146,39907.7482002
3770,38727.9617492,0.0202258539975,4157,39999.990846
3780,38727.9617492,0.0202805929976,4168,39936.7942386
3790,38727.9617492,0.0203225029982,4179,39898.7851795
3800,38727.9617492,0.0203665519984,4190,39981.4514154
3810,38727.9617492,0.0204088899991,4201,39944.3334852
3820,38727.9617492,0.0204490899987,4212,39888.8780953
3830,38727.9617492,0.0205012639981,4223,40026.0385959
3840,38727.9617492,0.0205508719982,4234,39956.2770437
3850,38727.9617492,0.0205970589977,4245,39999.990846
3860,38727.9617492,0.020640679998,4256,39919.65405
3870,38727.9617492,0.020688149998,4267,39999.990846
3880,38727.9617492,0.020773680998,4278,39940.5194405
3890,38727.9617492,0.020820294998,4289,39934.5445047
3900,38727.9617492,0.0208707579977,4300,39999.990846
3910,38727.9617492,0.0209246419972,4311,39969.5221904
3920,38727.9617492,0.0209806639978,4322,39999.990846
3930,38727.9617492,0.0210324099971,4333,39941.7822352
3940,38727.9617492,0.0210965579972,4344,39963.1093764
3950,38727.9617492,0.0211517249973,4355,39920.2109256
3960,38727.9617492,0.0212047539972,4366,39945.6429298
3970,38727.9617492,0.0212612039968,4377,39988.9121788
3980,38727.9617492,0.0213210749962,4388,39997.1390939
3990,38727.9617492,0.0213839399967,4399,39893.6176188
4000,38727.9617492,0.0214395339963,4410,40011.1259597
4010,38727.9617492,0.021481871996,4421,39831.0500762
4020,38727.9617492,0.0215374659956,4432,40036.3939494
4030,38727.9617492,0.0215977659955,4443,39940.8675998
4040,38727.9617492,0.0216584919954,4454,39999.990846
4050,38727.9617492,0.0217234949951,4465,39999.990846
4060,38727.9617492,0.0217795169947,4476,40045.7955141
4070,38727.9617492,0.021839815995,4487,39891.6446689
4080,38727.9617492,0.0218996869953,4498,39915.5602588
4090,38727.9617492,0.0219595579956,4509,39981.854507
4100,38727.9617492,0.022027981996,4520,39965.1376027
4110,38727.9617492,0.0220814379954,4531,39999.990846
4120,38727.9617492,0.0221451579955,4542,39979.5247534
4130,38727.9617492,0.0221973319958,4553,39999.990846
4140,38727.9617492,0.0222580589962,4564,39999.990846
4150,38727.9617492,0.0223166479964,4575,39863.9361476
4160,38727.9617492,0.0223709589964,4586,39950.845955
4170,38727.9617492,0.0224316849963,4597,39999.990846
4180,38727.9617492,0.0224753059965,4608,40038.6192299
4190,38727.9617492,0.0225283349964,4619,39938.0876345
4200,38727.9617492,0.0225882059967,4630,39924.0218426
4210,38727.9617492,0.0226463669969,4641,39998.4594274
4220,38727.9617492,0.0226972569972,4652,40054.9390348
4230,38727.9617492,0.0227579839966,4663,39979.5247534
4240,38727.9617492,0.0228063079967,4674,39996.6184231
4250,38727.9617492,0.0228653239974,4685,39912.5938698
4260,38727.9617492,0.0229222009975,4696,39991.4420869
4270,38727.9617492,0.0229816439969,4707,39966.7589822
4280,38727.9617492,0.0230363839974,4718,40003.8915153
4290,38727.9617492,0.023094117998,4729,39989.8057447
4300,38727.9617492,0.0231407329975,4740,39939.0391486
4310,38727.9617492,0.0232027429975,4751,39935.4940694
4320,38727.9617492,0.0232480739978,4762,39999.990846
4330,38727.9617492,0.0233045249979,4773,39936.1104774
4340,38727.9617492,0.0233588369974,4784,39999.990846
4350,38727.9617492,0.0234169979967,4795,39999.990846
4360,38727.9617492,0.023461046997,4806,39996.6282971
4370,38727.9617492,0.0235179249967,4817,39938.854422
4380,38727.9617492,0.0235726639967,4828,39999.990846
4390,38727.9617492,0.0236380939969,4839,39976.4787562
4400,38727.9617492,0.0237052349967,4850,39912.5839326
4410,38727.9617492,0.0237616849972,4861,39999.990846
4420,38727.9617492,0.0238147139971,4872,39999.990846
4430,38727.9617492,0.0238741579979,4883,39881.8438349
4440,38727.9617492,0.0239370229983,4894,39832.1699049
4450,38727.9617492,0.0239977499978,4905,39927.398947
4460,38727.9617492,0.0240507789977,4916,39929.6819287
4470,38727.9617492,0.0241033799985,4927,39999.8395286
4480,38727.9617492,0.0241589749985,4938,40013.99097
4490,38727.9617492,0.0242171349983,4949,39899.9516713
4500,38727.9617492,0.0242616109981,4960,39908.0577194
4510,38727.9617492,0.0243197719974,4971,39999.990846
4520,38727.9617492,0.024369806998,4982,39999.990846
4530,38727.9617492,0.0244194139977,4993,39999.990846
4540,38727.9617492,0.0244762919983,5004,39963.4587817
4550,38727.9617492,0.0245348799981,5015,39882.868261
4560,38727.9617492,0.0246062979986,5026,39999.990846
4570,38727.9617492,0.024651200999,5037,39868.2370293
4580,38727.9617492,0.0247153479986,5048,39981.954527
4590,38727.9617492,0.0247670939989,5059,39967.3149329
4600,38727.9617492,0.0248141349994,5070,39999.990846
4610,38727.9617492,0.0248791379991,5081,39939.3227259
4620,38727.9617492,0.0249287459983,5092,39999.990846
4630,38727.9617492,0.0249762159983,5103,39929.1330188
4640,38727.9617492,0.0250305279978,5114,40003.3663043
4650,38727.9617492,0.0250865499984,5125,39914.7775058
4660,38727.9617492,0.0251451379982,5136,39957.1848136
4670,38727.9617492,0.0252041539979,5147,39897.4502232
4680,38727.9617492,0.0252627429982,5158,39917.204547
4690,38727.9617492,0.0253247519977,5169,39979.523302
4700,38727.9617492,0.0253752149974,5180,40019.9456923
4710,38727.9617492,0.0254320919976,5191,40031.9248656
4720,38727.9617492,0.0254898249977,5202,39999.990846
4730,38727.9617492,0.0255462759978,5213,39960.3432423
4740,38727.9617492,0.0255958829985,5224,39970.1834367
4750,38727.9617492,0.0256578929984,5235,39977.7891577
4760,38727.9617492,0.025706645999,5246,39968.5774605
4770,38727.9617492,0.025762240999,5257,39999.990846
4780,38727.9617492,0.0258067169989,5268,39958.5976965
4790,38727.9617492,0.0258606009993,5279,39988.2178117
4800,38727.9617492,0.0259243209994,5290,39907.7249356
4810,38727.9617492,0.0259846199988,5301,39950.1353103
4820,38727.9617492,0.0260389319983,5312,39872.7531383
4830,38727.9617492,0.0260992309977,5323,40014.6590941
4840,38727.9617492,0.0261796299983,5334,39954.0734553
4850,38727.9617492,0.026229664998,5345,39999.6205927
4860,38727.9617492,0.0262886809978,5356,39966.6281447
4870,38727.9617492,0.0263451309984,5367,39999.990846
4880,38727.9617492,0.0264028639986,5378,39901.3440802
4890,38727.9617492,0.0264503329981,5389,39957.9904739
4900,38727.9617492,0.0265063549987,5400,39931.64441
4910,38727.9617492,0.0265640879979,5411,39908.3815097
4920,38727.9617492,0.0266688629972,5422,39999.990846
4930,38727.9617492,0.0267261679974,5433,39958.0356107
4940,38727.9617492,0.0267860399972,5444,39999.990846
4950,38727.9617492,0.0268518979974,5455,39976.5545402
4960,38727.9617492,0.0269190389972,5466,39939.0140924
4970,38727.9617492,0.0269801929971,5477,39803.0516217
4980,38727.9617492,0.0270422029971,5488,39999.990846
4990,38727.9617492,0.027102928997,5499,39999.990846
