it,funval,time,funcount,weight
0,5813.1349166,0.000550816999976,438,5275.78278308
10,6149.53571141,0.000958797999942,777,5312.63842871
20,6252.30813888,0.00135223899997,1111,5524.61781636
30,6324.36554488,0.00174225900003,1443,5815.87680034
40,6485.75252017,0.00213056699999,1777,5918.69316662
50,6452.50959726,0.00250305200007,2119,5710.59765997
60,6586.46757154,0.00293883100005,2456,6613.14177748
70,6767.95734246,0.00334253500012,2795,6386.4879648
80,6785.06807243,0.00372913300009,3133,6149.92592997
90,6819.26798348,0.00412513900005,3463,6289.98299624
100,6790.47389449,0.00452584900006,3794,6363.95060742
110,6856.55126033,0.004919718,4135,6217.58272293
120,6888.76128057,0.00531786299996,4481,6475.33410844
130,6751.45472861,0.00571344199989,4811,6430.43940333
140,6806.93914373,0.00610175099996,5138,6389.55376431
150,6758.6226363,0.006499469,5477,6076.40962676
160,6929.46281847,0.00686981699994,5804,6219.73386041
170,7093.17796808,0.00729148199991,6142,6591.20804844
180,7153.49264293,0.00789276199987,6478,6477.74320882
190,7086.25397839,0.00828962399987,6815,6801.34489694
200,7152.59921326,0.00865997199992,7155,6597.92128336
210,7183.1757328,0.00908420399992,7489,6445.26988581
220,7282.4076571,0.00949646099991,7827,6106.5308863
230,7242.4421855,0.00990700799991,8151,6422.13862967
240,7373.44896891,0.010287192,8484,6328.85743287
250,7435.0569224,0.010713562,8826,6546.97650302
260,7386.67140389,0.011095456,9164,6362.82260784
270,7451.79379909,0.011490607,9505,6355.73151937
280,7471.30318928,0.0119058580001,9842,6320.77192127
290,7577.9411817,0.01228818,10179,6128.79748688
300,7692.14997934,0.012708563,10514,6812.12080795
310,7607.97114561,0.0131118400001,10852,6421.91127799
320,7598.39513086,0.0134890300001,11187,6455.82000146
330,7754.72459092,0.0138923070001,11526,7126.74552349
340,7527.69158709,0.0143015710001,11872,7009.05839923
350,7711.55399841,0.0147240920002,12213,6322.22175624
360,7783.28036623,0.0151089790002,12549,6407.93713439
370,7843.43051123,0.0155011360001,12894,6847.23320507
380,7885.71203032,0.0159031300001,13231,6682.43228625
390,7957.56036936,0.0162995640001,13561,7124.84825408
400,7916.77439585,0.016812748,13895,6977.09453962
410,7948.53373992,0.017263067,14226,6809.6996434
420,7889.05702824,0.0179049740001,14560,7239.9431879
430,7934.0752833,0.0182907170001,14906,7470.67185068
440,7908.94006787,0.0186794540001,15243,7408.90905115
450,7833.2586924,0.0190741780002,15565,6831.65185946
460,7728.99867561,0.0194988370002,15909,6812.10331966
470,7636.09616135,0.0199157980003,16247,7050.06397248
480,7702.59996537,0.0203036790003,16583,7186.17071587
490,7796.55480524,0.0207163640004,16915,6985.6463551
500,7634.18905082,0.0211324700003,17242,7129.3505711
510,7453.44598134,0.0215297600004,17581,6892.41179466
520,7638.13037546,0.0219232010004,17913,7138.95677411
530,7718.40188774,0.0223239120004,18252,7124.92313854
540,7635.54873732,0.0227062340003,18577,7085.6193489
550,7686.74534375,0.0231184910003,18916,6772.19927696
560,7599.10831887,0.0235179190004,19258,7327.44257926
570,7581.19813691,0.0239186300004,19602,7011.47262464
580,7593.82601456,0.0243035180004,19937,6846.25799502
590,7696.84286556,0.0246888330004,20271,6966.62297054
600,7630.27374063,0.0250856950004,20605,7221.99029977
610,7561.23467087,0.0254911100004,20939,6923.6094176
620,7753.5917054,0.0258657340004,21282,6954.01288313
630,7501.54870458,0.0262390750004,21624,6578.02094179
640,7471.30801197,0.0266149810004,21963,6728.8718821
650,7600.83129692,0.0269878940004,22302,6721.98506824
660,7628.44080795,0.0273834730004,22636,6522.9066398
670,7321.85107556,0.0277756310004,22973,6972.24442465
680,7471.2791786,0.0282020010004,23311,6538.56948431
690,7395.39121183,0.0286001460004,23648,6795.67458394
700,7260.12043211,0.0289824670003,23974,6655.49282895
710,7286.55796957,0.0294238050003,24310,6831.67201348
720,7332.87750282,0.0298257980004,24650,6595.46398745
730,7315.93981602,0.0302179560003,24985,6352.19738603
740,7287.39901443,0.0305942910003,25318,6592.92935169
750,7232.02513035,0.0309778960003,25654,6876.9183673
760,7168.45458088,0.0313653490003,25990,6793.84461673
770,7233.75580626,0.0317557960003,26315,6546.1262674
780,7418.13424291,0.0321714740003,26657,6558.72247882
790,7172.02951501,0.0325572170002,26996,6472.08478394
800,7276.2294329,0.0329609210003,27337,6712.82999174
810,7083.41289113,0.0333500850003,27662,6348.82155182
820,7313.42223552,0.0337358280003,27998,6579.41643214
830,7320.78769168,0.0341237090004,28344,6687.65466389
840,7268.07600292,0.0345180050003,28676,6699.65344269
850,7460.54656418,0.0349020370003,29019,6584.26222905
860,7459.61800687,0.0353147220003,29344,6621.5219265
870,7387.03826564,0.0356983270002,29675,6847.10418943
880,7422.8057245,0.0361037420001,30016,6934.93141467
890,7487.54841113,0.0365207030002,30356,6663.53016532
900,7447.30548545,0.0369295390002,30695,6995.4408325
910,7451.35709786,0.0373405130002,31040,6969.10931918
920,7616.00811336,0.0377352370002,31370,7097.16392249
930,7609.65685483,0.0381329540003,31706,6877.5730098
940,7803.45400288,0.0385234010004,32041,7494.13188492
950,7628.14821649,0.0389129930004,32373,7188.48912108
960,7652.43157323,0.0393102830004,32714,6823.83487674
970,7630.35598919,0.0397794180004,33053,6796.8367309
980,7506.80380875,0.0402344410004,33393,7101.94338766
990,7502.49979963,0.0406496920003,33725,6557.42293769
1000,7337.94816399,0.0410628050004,34070,6555.63438352
1010,7438.97821742,0.0414767730003,34407,6508.11139739
1020,7368.4380219,0.0418719240004,34749,6821.94014555
1030,7328.84584939,0.0422602330003,35089,6220.59452594
1040,7567.35388133,0.0426549570003,35422,6443.03667001
1050,7534.23762631,0.0430432660004,35749,6539.26778965
1060,7499.0156524,0.0434174620003,36084,6680.48990718
1070,7565.53194021,0.0437916580003,36423,6720.68151456
1080,7522.91820586,0.0441889480003,36765,6634.35970093
1090,7519.0132233,0.0445922240003,37098,6990.3473876
1100,7450.32231021,0.0449715530003,37440,6733.20741736
1110,7509.33669819,0.0453744020003,37769,6702.74946322
1120,7595.85882397,0.0457674150003,38107,6941.90277642
1130,7527.42336463,0.0461621390003,38450,6776.96138593
1140,7647.63577254,0.0465769620004,38792,6665.83268037
1150,7425.43532139,0.0469917860004,39134,6496.34048202
1160,7376.97819692,0.0474014780004,39461,6772.45955052
1170,7626.45113226,0.0479091020004,39797,6496.79528872
1180,7643.3828478,0.0483004040004,40137,6792.32090709
1190,7452.64033129,0.0486994040004,40472,6727.5563368
1200,7571.51764173,0.0490898510004,40795,6858.55298568
1210,7541.72121318,0.0494884240004,41121,6852.02226126
1220,7470.7368895,0.0498964050004,41460,6783.69693438
1230,7437.40700139,0.0503108000003,41796,6685.59510583
1240,7558.28179831,0.0507350310003,42142,6914.35376402
1250,7632.61864739,0.0511434400003,42478,6591.3820637
1260,7526.8800215,0.0515484270002,42813,6438.49757877
1270,7471.86394423,0.0519863430002,43148,6586.74280961
1280,7429.36091163,0.0524041600003,43477,6422.02100536
1290,7430.33073591,0.0528023040004,43811,6369.02536128
1300,7601.32675564,0.0532000220004,44143,6628.61049126
1310,7528.57547628,0.0535789220004,44472,6592.39740113
1320,7508.07858793,0.0539595330004,44817,6265.46469026
1330,7621.58605342,0.0543687970003,45156,6350.1779976
1340,7462.89610872,0.0547519740003,45487,6342.69065633
1350,7470.85944595,0.0551274530003,45821,6198.68257853
1360,7449.61838335,0.0555187560002,46146,6294.70848666
1370,7469.39247286,0.0559057820003,46482,6093.4067891
1380,7500.39419318,0.0563022160003,46819,6681.78471414
1390,7558.22259813,0.0567084860003,47150,6780.56708432
1400,7280.22644135,0.0571027820004,47475,6645.80584843
1410,7424.7531798,0.0575013540004,47808,6850.12462417
1420,7497.91908872,0.0579170330004,48136,6648.74090896
1430,7540.90426472,0.0583391270004,48471,6389.71277219
1440,7463.17883137,0.0587577990004,48813,6965.14879708
1450,7374.24638947,0.0591944320005,49149,6701.65865413
1460,7374.24638947,0.0595930050005,49487,6512.14434161
1470,7298.09631946,0.0599873010004,49824,6282.87642509
1480,7319.65423283,0.0604025520005,50170,6555.34235707
1490,7250.99932083,0.0608041180004,50510,6564.60185391
1500,7401.64385055,0.0611954200003,50842,6886.79621359
1510,7330.31568377,0.0615961300003,51171,6239.2200345
1520,7396.78824872,0.0619934200004,51494,6439.59528619
1530,7639.39147934,0.0624185070003,51820,6753.28764545
1540,7447.10719566,0.0628247770003,52166,6909.3643332
1550,7323.23503866,0.0632520030003,52503,6465.04714096
1560,7417.11144618,0.0636715310003,52835,6468.06836239
1570,7313.78011935,0.0640696760003,53176,6085.06660461
1580,7347.45874144,0.0644917700002,53507,6508.75740185
1590,7359.60029602,0.0648924800003,53847,6458.93065461
1600,7246.24954468,0.0652867760003,54184,6400.63440924
1610,7275.87289066,0.0656806440003,54512,6865.59361917
1620,7394.36551217,0.0660834930003,54845,6571.54523234
1630,7409.22905128,0.0664889080002,55184,6354.86335252
1640,7243.99699218,0.0668934670002,55522,6818.40585555
1650,7274.87334088,0.0672950330003,55857,6554.35729288
1660,7310.11145923,0.0676965990002,56198,6774.63903787
1670,7378.51880024,0.0680904680003,56531,6458.43822544
1680,7324.94937059,0.0684886120002,56869,6820.30053548
1690,7490.22243757,0.0688833350002,57202,6511.42719526
1700,7474.34276553,0.0693015790002,57535,6605.82845598
1710,7493.86944045,0.0697027170003,57870,6504.74594868
1720,7644.71613202,0.0701068490002,58209,6545.58926894
1730,7683.61541761,0.0705015720002,58534,7015.74528774
1740,7575.01061904,0.0709027100003,58873,7010.44449132
1750,7512.86019086,0.0713029930002,59216,6853.57672739
1760,7627.34537113,0.0716998550002,59550,6824.32621953
1770,7599.41028064,0.0721112570002,59890,6822.13928002
1780,7471.13413227,0.0725128230002,60232,6771.31739732
1790,7643.06855821,0.0729113950003,60562,6765.09318934
1800,7443.15552312,0.0733377640004,60891,6338.79586559
1810,7350.52126208,0.0737290660004,61233,6146.49851552
1820,7292.26073318,0.0741190850003,61557,6635.87846134
1830,7392.4550265,0.0745300590004,61900,6334.81186476
1840,7383.10249192,0.0749282040003,62249,6503.14090962
1850,7042.64408638,0.0753327630003,62586,6457.51745822
1860,7089.11049647,0.0757386060004,62918,6118.91940077
1870,7072.41227542,0.0761354670004,63240,5994.07234985
1880,6982.99257539,0.0765438760004,63587,5857.1647171
1890,7074.44454591,0.0769403110004,63919,5991.32429459
1900,7282.46585319,0.0773256260004,64249,6296.0906296
1910,7057.19904596,0.0777169280003,64594,6119.37659359
1920,6916.72752175,0.0781103690003,64937,5976.09952242
1930,6959.16403284,0.0785008160003,65274,5788.89819466
1940,7013.07941068,0.0788955400003,65605,6073.5086209
1950,6864.11823426,0.0793125010002,65928,5887.98686515
1960,6874.99870206,0.0796995270002,66272,5980.24226112
1970,6868.46349831,0.0801045150002,66616,5790.35282636
1980,6995.14186612,0.0805390100003,66949,6112.20301466
1990,7033.49738991,0.0809341610003,67280,5856.56425266
2000,7094.26330143,0.0813177650002,67618,6198.75846599
2010,7366.80974546,0.0817129160002,67951,6298.33543659
2020,7370.58304026,0.0821461280003,68293,6320.17531269
2030,7344.54717311,0.0825267390003,68625,6367.71684264
2040,7294.26125042,0.0829578130002,68961,6536.16610835
2050,7458.58565043,0.0833623730002,69290,6648.71465618
2060,7485.58123711,0.0838011450002,69625,6582.15673008
2070,7588.81747779,0.0841954410001,69957,6692.57285339
2080,7408.7389597,0.0846286530001,70297,6765.49882322
2090,7491.11548758,0.0850597280001,70641,6736.52335971
2100,7464.37075292,0.0854749790001,70970,6739.19568265
2110,7457.65975615,0.085907764,71303,6281.57410017
2120,7519.69383443,0.086324298,71647,6635.08268883
2130,7433.28269015,0.0867510960001,71979,6538.68755599
2140,7398.18715103,0.0871967100001,72312,6462.96657696
2150,7464.05012383,0.0875897230001,72637,6553.33442873
2160,7538.62067779,0.087993855,72977,6399.75666237
2170,7365.49409227,0.088462135,73312,6277.12243993
2180,7571.35289588,0.088941106,73648,6429.56783114
2190,7454.5202799,0.0894089589999,73981,6510.39733856
2200,7493.71077989,0.0899178659998,74317,6501.02948252
2210,7410.91572711,0.0945591829998,74647,6131.40670317
2220,7452.53674111,0.0950253249997,74982,6206.9876449
2230,7506.91487408,0.0954931769998,75320,6950.47177635
2240,7542.56016041,0.0959554699998,75660,6862.03948489
2250,7516.98302302,0.0964074989998,75986,7061.70959025
2260,7539.5997643,0.0968740689998,76313,6285.77650007
2270,7508.92249729,0.0973410659999,76657,7040.78264081
2280,7518.02429773,0.0977700019998,76990,6467.9831149
2290,7246.81049394,0.0981578829998,77332,6392.50866713
2300,7314.58075173,0.0985590219998,77663,6557.84479897
2310,7154.92090485,0.0989597329998,78008,6395.59003714
2320,7231.76521935,0.0994464019998,78351,6568.5243269
2330,7366.55564029,0.0999168209997,78692,6545.43942129
2340,7476.87683012,0.100391088,79046,6049.35484831
2350,7476.87683012,0.100852525,79383,6160.97544598
2360,7507.57493279,0.101316956,79721,6284.48545176
2370,7419.05703484,0.101770696,80067,6654.60408662
2380,7449.06308351,0.10215259,80406,6460.59990022
2390,7382.62077091,0.102528497,80735,6543.91712091
2400,7369.834679,0.102938616,81068,6912.1792271
2410,7286.82743486,0.103334623,81400,6603.76098927
2420,7365.43729284,0.103829845,81730,6378.71302473
2430,7213.85090969,0.104239537,82055,6775.03406208
2440,7227.62544347,0.104654788,82386,6617.50478288
2450,7190.11451451,0.105055926,82722,6170.21429901
2460,7128.96271732,0.105443807,83058,6027.80871157
2470,7186.00401561,0.105853499,83379,6573.42868297
2480,7288.10102813,0.106237104,83707,6075.52594649
2490,7266.35515376,0.106657059,84041,6181.33115305
2500,7327.1269846,0.107045368,84367,6293.34347497
2510,7167.77795872,0.10743667,84699,6041.67717093
2520,7284.67576351,0.107812577,85023,5701.00479573
2530,7214.76966352,0.108201741,85360,6684.85958552
2540,7298.49357401,0.108602879,85704,6369.64968754
2550,7173.35901048,0.108974937,86038,6432.00822139
2560,7241.02777042,0.109376503,86373,6634.69135214
2570,7254.87878463,0.109769944,86709,6395.77834693
2580,7364.51004576,0.110159536,87044,6684.36399621
2590,7214.75904242,0.110543568,87372,6837.25464176
2600,7197.78664375,0.110930594,87705,6434.6429636
2610,7316.78024273,0.111317192,88047,6377.11352759
2620,7396.50568431,0.11171662,88386,6473.11096963
2630,7376.84898641,0.112129732,88712,6199.92271524
2640,7349.51572171,0.112522317,89042,6007.07834174
2650,7080.05600904,0.112912764,89383,6326.78511577
2660,7116.82162781,0.113311765,89717,5617.89462343
2670,7195.67081748,0.113706917,90056,6178.7212347
2680,7064.70474983,0.114130294,90395,6356.61238393
2690,6980.11871644,0.114516464,90726,6377.14605668
2700,7157.23290687,0.114941979,91052,6671.54701353
2710,7116.17219541,0.115346966,91390,6434.10841892
2720,7234.99494084,0.115753664,91727,6272.81933983
2730,7396.08112553,0.116157369,92067,6495.83067744
2740,7400.66381566,0.116555087,92402,6307.30410882
2750,7320.31542717,0.116980601,92738,6522.83340111
2760,7157.48451218,0.117386871,93066,6200.58089902
2770,7192.5038143,0.117781167,93395,6372.62135419
2780,7165.53981694,0.118177602,93729,6417.88561041
2790,7296.00187094,0.118580451,94068,6239.4973382
2800,7494.4390678,0.11898886,94401,6426.83865867
2810,7391.28318865,0.119390426,94740,6635.14957925
2820,7347.15763126,0.119807388,95072,6487.12277215
2830,7319.18459735,0.120256851,95414,6238.84791926
2840,7475.89616779,0.120693057,95750,6261.20621835
2850,7576.99715617,0.121115578,96083,6308.44035494
2860,7519.6492889,0.121515861,96410,6523.07387381
2870,7493.20857552,0.121940093,96744,6389.84226208
2880,7453.74566901,0.122336527,97089,6465.87935049
2890,7312.25518095,0.122740659,97430,6637.04710832
2900,7304.8486547,0.123148639,97760,6132.50381032
2910,7186.93497905,0.123555764,98096,6659.95752068
2920,7104.02472273,0.123954764,98440,5988.07818552
2930,7314.16260581,0.124381989,98767,6012.75740121
2940,7126.03801886,0.124776713,99099,6408.24050255
2950,7366.02742562,0.125183838,99431,6262.43805714
2960,7398.55012818,0.125577706,99764,6786.68130469
2970,7505.85548049,0.125962593,100097,6513.54135893
2980,7602.74119095,0.126385114,100440,6933.5557816
2990,7472.04655587,0.126778982,100775,7098.06034839
3000,7436.54073108,0.127163014,101103,6767.16125599
3010,7396.58680355,0.127553461,101449,6667.91485447
3020,7455.9534228,0.127946474,101789,6759.84530461
3030,7630.94038885,0.128334783,102120,6797.38575973
3040,7585.55816716,0.12872694,102460,6706.74760985
3050,7589.49138132,0.129112255,102789,6861.02693472
3060,7831.55000712,0.129520236,103125,7185.77483129
3070,7855.07929358,0.12993121,103472,6623.25998946
3080,7748.95636366,0.130337908,103808,7034.22562399
3090,7651.29202325,0.130721513,104138,7061.50958303
3100,7568.92868127,0.131125217,104473,6768.20706966
3110,7622.25845721,0.13151994,104805,6556.97112627
3120,7503.68499174,0.131960851,105147,6729.38791535
3130,7558.73545041,0.132363273,105484,6789.72357969
3140,7592.31409204,0.132790926,105817,6647.60449946
3150,7721.71677768,0.133182228,106148,7029.09021228
3160,7537.49440474,0.133643238,106476,6790.13642716
3170,7539.77547014,0.13403283,106817,7319.24800216
3180,7539.51573626,0.134423704,107154,6994.54615667
3190,7504.62104041,0.134806881,107491,6876.19073139
3200,7638.31257052,0.13518792,107825,7505.7163979
3210,7549.50816403,0.135570669,108160,7023.84025298
3220,7435.04626358,0.135979077,108495,7086.45277567
3230,7420.62210872,0.136390907,108838,7051.35257012
3240,7441.40934447,0.136804447,109181,6745.09043708
3250,7329.05960419,0.137199171,109509,7117.70933242
3260,7539.84277426,0.13759646,109845,6878.97843271
3270,7615.02812759,0.13798819,110185,7294.67026776
3280,7501.59254849,0.138396599,110517,6961.03406286
3290,7482.86938332,0.138799876,110851,7076.83097421
3300,7522.95429741,0.139228385,111184,6948.45435356
3310,7664.88172158,0.139614983,111516,7094.56474195
3320,7587.77416856,0.140007568,111850,7185.30969919
3330,7870.46800964,0.1404117,112187,7411.95682735
3340,7848.60735605,0.140837642,112528,7245.62713194
3350,7798.57770811,0.141237498,112865,7065.35232764
3360,7816.31850635,0.141636926,113215,7123.92379075
3370,7874.56106891,0.142035926,113552,7813.08147038
3380,7713.40380726,0.142434071,113882,7215.23888722
3390,7819.07966476,0.142830933,114216,7406.45691828
3400,7591.85826808,0.143230789,114560,7268.48451444
3410,7714.63943084,0.143636204,114911,7010.54745011
3420,7546.73841243,0.14403221,115235,7279.77362044
3430,7535.93350018,0.144437624,115576,6847.49299975
3440,7646.13450871,0.144815242,115908,7359.05675186
3450,7510.44940853,0.14525102,116241,7111.59514607
3460,7547.96961879,0.145647026,116569,6915.07887392
3470,7547.06199332,0.146069119,116913,7208.10340702
3480,7666.06559034,0.146499338,117248,7097.21917226
3490,7577.17164883,0.146898766,117582,7155.91518834
3500,7624.58381964,0.147300332,117917,7183.25919927
3510,7589.80779203,0.147723708,118258,7202.83815326
3520,7480.72529963,0.14814623,118603,7203.61084133
3530,7488.33812018,0.148572172,118946,6985.992148
3540,7489.87799555,0.148963902,119295,7386.57367084
3550,7489.87799555,0.149356488,119629,6975.41121576
3560,7564.75378516,0.149748646,119965,7157.31196024
3570,7563.02823372,0.150130968,120295,7041.68618482
3580,7608.33744035,0.150528685,120612,7217.36349243
3590,7562.77648959,0.150922981,120942,6631.21374244
3600,7286.23245324,0.151363463,121276,6960.79397951
3610,7347.36034559,0.15175391,121610,7011.29116656
3620,7256.97854126,0.152126396,121942,6920.86246056
3630,7391.1928968,0.15255576,122286,7323.3150204
3640,7428.38484706,0.152952622,122624,6770.23952963
3650,7153.8886589,0.153414058999,122971,6840.02514741
3660,7177.95917662,0.153813487,123311,6968.86079034
3670,7058.88923286,0.154230447999,123653,6675.7715408
3680,7133.5011817,0.154650402999,123982,6531.75747962
3690,7204.07016253,0.155055817999,124321,6795.17736566
3700,7234.92852596,0.155443698999,124657,6546.37852775
3710,7021.258916,0.155832007999,124985,6557.94721316
3720,7176.22337363,0.156232290999,125322,6604.91737709
3730,7196.97970912,0.156621454999,125656,6514.26407978
3740,7091.57894735,0.157013612999,125989,6500.46016162
3750,7090.31203293,0.157414322999,126318,6727.34223098
3760,7090.31203293,0.157836843999,126651,6611.35760605
3770,7279.07806919,0.158235843999,126981,6823.89578028
3780,7105.08607451,0.158629285,127305,6796.62709218
3790,7185.69270317,0.159017593999,127636,6898.61050988
3800,7067.74873804,0.159402481999,127961,6549.4478451
3810,7097.27877175,0.159787369999,128296,6776.73250356
3820,7287.53724263,0.160196633999,128630,6067.2305649
3830,7110.5997719,0.160586225999,128973,6556.69937257
3840,7071.16338943,0.160974961999,129311,6489.70294562
3850,7092.58895026,0.161357711999,129660,6363.74924974
3860,7154.77103469,0.161756284999,129997,6375.98120313
3870,7180.74530996,0.162154857999,130333,6349.84038242
3880,7184.58740461,0.162547015999,130681,7025.21095365
3890,7084.72173854,0.162932758999,131018,6470.63175962
3900,7182.00873836,0.163545584999,131353,6605.79761258
3910,7216.98200666,0.163972382999,131683,6804.7436856
3920,7287.33791225,0.164390628,132013,6407.69046041
3930,7406.71166494,0.164794759999,132336,6761.01330792
3940,7462.70370999,0.16518649,132660,6911.47889998
3950,7379.44289537,0.165573944,132979,6424.36929117
3960,7481.43516516,0.166013999,133312,6598.44912695
3970,7545.66583586,0.166441651,133654,7014.93940542
3980,7423.35297828,0.166848349,134000,6851.31033438
3990,7389.90162338,0.167509073,134341,6622.8578693
4000,7482.43221368,0.167927745,134681,6960.01510151
4010,7495.71514851,0.168322041,135014,6843.36176537
4020,7499.3075992,0.168826244,135347,6665.91802479
4030,7528.31857965,0.169244916,135685,6946.61470062
4040,7602.74799271,0.169627237,136024,7048.5622965
4050,7507.99370811,0.170031369,136356,7035.53907915
4060,7532.79947036,0.170420533,136681,6727.47001991
4070,7694.19960369,0.170836639,137021,6781.21995655
4080,7786.42978276,0.171236494,137358,7070.58833234
4090,7512.5724092,0.17163079,137693,7218.78382072
4100,7409.78467702,0.172027224,138034,7010.03448039
4110,7433.52715653,0.172433066999,138372,6397.31999671
4120,7411.43764438,0.17283164,138710,6993.0529859
4130,7381.10795473,0.173231923,139050,6452.58241395
4140,7440.09400289,0.173631350999,139382,6591.60659763
4150,7189.54283248,0.174008540999,139725,6446.52995849
4160,7442.8515926,0.174419943,140049,6495.24872525
4170,7453.60740867,0.174820653,140379,6496.87444162
4180,7415.58685854,0.175198269999,140722,6509.71849224
4190,7318.29509024,0.175657140999,141045,6854.58425078
4200,7287.25183283,0.176056568999,141374,6677.94980701
4210,7408.11504665,0.176472246999,141707,6613.16168848
4220,7304.17172684,0.176860127999,142043,6408.72717839
4230,7294.02522382,0.177240310999,142373,6434.11421487
4240,7437.46824999,0.177629046999,142701,6197.17503002
4250,7476.06098179,0.178023770999,143053,6291.25688873
4260,7444.60691773,0.178411224999,143383,6830.88848699
4270,7170.66861537,0.178828185999,143711,6543.22583258
4280,7323.13745156,0.179220343999,144046,6251.09684957
4290,7404.9040597,0.179609507999,144384,6306.18348247
4300,7314.54721833,0.180022192999,144704,6755.00942398
4310,7283.11384626,0.180412212999,145026,6121.32215751
4320,7304.95040746,0.180817627999,145356,6666.30031093
4330,7365.31698457,0.181211495999,145697,6481.39685733
4340,7431.39532225,0.181612206999,146039,6952.13632148
4350,7268.24243642,0.182002226999,146372,7062.64567852
4360,7360.523191,0.182402936999,146710,7269.37364399
4370,7586.25842322,0.182789962999,147042,6765.06105491
4380,7406.5059892,0.183184258999,147384,6923.11229808
4390,7544.47189547,0.183579409999,147713,7026.73583337
4400,7528.92794943,0.183992522999,148051,6967.94954301
4410,7544.14488376,0.184383397999,148387,6891.74589678
4420,7533.95718929,0.184767857999,148703,7245.48900342
4430,7529.0517809,0.185151034999,149046,6578.7891005
4440,7447.0429904,0.185611189999,149387,6963.33933321
4450,7395.69145811,0.186001636999,149712,7005.8571122
4460,7477.9290181,0.186419881999,150042,6461.81600909
4470,7441.00210522,0.186809473999,150374,6759.75656616
4480,7196.28684607,0.187193505999,150710,6839.10496295
4490,7298.31398175,0.187600631999,151035,6908.16410474
4500,7229.19741274,0.188000487999,151372,6745.6041554
4510,7196.79108717,0.188402481999,151717,6434.07708952
4520,7285.06335228,0.188786086999,152049,6464.61703408
4530,7333.20900393,0.189166269999,152379,6504.05767123
4540,7504.39691778,0.189539610999,152714,6822.19507089
4550,7290.29488668,0.189930485999,153049,6010.39234848
4560,7312.1484532,0.190325637999,153394,6658.62062675
4570,7371.56367733,0.190716084999,153725,6236.1541867
4580,7399.772404,0.191111236999,154060,6916.14667176
4590,7278.5260642,0.191485432999,154399,6477.48535068
4600,7253.25891137,0.191881866999,154737,6452.33273271
4610,7224.80683474,0.192282577999,155073,6461.66372551
4620,7311.32931189,0.192684143999,155411,6548.90694387
4630,7488.17339578,0.193083143999,155747,6296.11365041
4640,7440.81814084,0.193487703999,156082,6609.26533627
4650,7372.35636925,0.193912363999,156413,6208.97341935
4660,7345.01149766,0.194307514999,156745,6635.42146528
4670,7365.43627368,0.194708224999,157089,6824.13479132
4680,7341.1128635,0.195117487999,157424,6708.66320708
4690,7534.53506284,0.195537014999,157767,6002.59606959
4700,7495.79165065,0.195928316999,158101,6587.23830386
4710,7386.60112087,0.196341001999,158440,6266.0471371
4720,7392.29829104,0.196733159999,158773,6377.90893747
4730,7605.52581056,0.197122751999,159104,6829.46441623
4740,7482.03381565,0.197512771999,159444,6915.0230634
4750,7394.91688452,0.197897231999,159776,7008.82832715
4760,7337.28883056,0.198276131999,160114,6437.24248801
4770,7456.43647047,0.198662729999,160451,6678.33775677
4780,7369.92386019,0.199086533999,160800,6423.43673774
4790,7430.51811207,0.199493659999,161129,6706.32312169
4800,7636.24578595,0.199872987999,161460,6296.40914065
4810,7636.24578595,0.200267711999,161797,6747.15630604
4820,7658.27417455,0.200671843999,162134,6927.24424852
4830,7701.28312025,0.201069132999,162471,6962.74256656
4840,7654.38633351,0.201471126999,162804,6875.30337245
4850,7688.91366734,0.201862428999,163134,7003.08215119
4860,7711.00317949,0.202251164999,163463,6513.84798925
4870,7936.83084702,0.202657434999,163808,6728.83668858
4880,7638.87029995,0.203034624999,164151,6715.57206227
4890,7691.45239373,0.203476390999,164487,6606.80753451
4900,7651.4934575,0.203857428999,164822,6903.19088754
4910,7871.69742181,0.204231196999,165154,6840.82476879
4920,7831.29916348,0.204619504999,165504,7059.87920084
4930,7833.31290451,0.205000543999,165842,6725.89266557
4940,7767.7611974,0.205394412999,166173,7181.83289468
4950,7996.64882536,0.205792985999,166511,6955.04313931
4960,7899.98261929,0.206191130999,166851,7048.08985617
4970,7899.98261929,0.206587564999,167184,7203.95423527
4980,7654.63428506,0.207004953999,167518,6829.19963135
4990,8053.8337223,0.207391124999,167860,6751.54358327
