it,funval,time,funcount,weight
0,25498.7945554,0.00345287000073,559,27561.4170217
10,25307.3996545,0.00693824100017,1044,25512.4886007
20,24860.2201894,0.0104351590007,1523,24940.4418364
30,25112.008915,0.013911977001,2004,24986.745895
40,25448.3122105,0.0173922160011,2492,25092.6181727
50,25984.982702,0.0209810790011,2978,25279.9799445
60,26074.3650884,0.0246717240016,3456,26084.6719544
70,26369.9413489,0.0283978640018,3949,26372.8039312
80,26762.7971814,0.0321098910017,4444,26958.1415121
90,26117.2503601,0.035782574002,4917,26211.0596
100,26431.8538945,0.0394710800019,5389,26162.923741
110,26393.4020472,0.0431749820027,5864,26566.8808963
120,26226.1033942,0.0466834460021,6339,27590.2482694
130,26892.1464989,0.0501132220024,6822,27589.0574006
140,26590.4130399,0.0536101400021,7300,27056.6778938
150,26766.7025564,0.057111334002,7788,26976.8607262
160,26705.8108453,0.060559071002,8256,27861.1011709
170,26887.4373174,0.0640405930017,8730,27152.2791644
180,26691.3228805,0.0675584650016,9226,27457.2828153
190,26651.6118696,0.0709903800016,9696,25926.9817571
200,27008.8815591,0.0744770340016,10188,27615.6895519
210,26554.480196,0.0778918420019,10666,27437.9545995
220,26924.6398218,0.0813596790022,11139,27723.5088613
230,27084.4945849,0.0848001470022,11629,27904.0313038
240,27604.1315192,0.0882765370025,12109,28486.0643374
250,27332.8810477,0.0917298340019,12598,28352.8190289
260,27285.507714,0.0951305300014,13062,27647.8218471
270,27240.8166172,0.0986056370011,13541,27752.7523586
280,27133.1764987,0.102106832001,14024,27699.0351316
290,26977.2987988,0.105593913001,14508,28136.0581685
300,26945.4194909,0.109667734001,15005,27821.5632873
310,27214.1782591,0.113446903001,15482,28114.9153487
320,27279.461457,0.116928425001,15957,27842.4241505
330,27144.513068,0.120439027001,16441,28209.9066969
340,27526.6945646,0.123921832001,16936,27420.790207
350,27582.9844477,0.127379406001,17420,27997.8706706
360,27792.4925467,0.130834413001,17924,28114.8299097
370,27706.0715365,0.134279157001,18406,28306.8419829
380,27754.5503063,0.137721335002,18897,28672.1368665
390,27808.2930505,0.141188317001,19372,27708.3213522
400,27656.559462,0.144679247001,19860,28873.9297719
410,27711.7797239,0.148104747002,20344,28669.932438
420,27825.3164701,0.151769305001,20826,28596.1237745
430,27626.0078651,0.155249116001,21310,28058.9695833
440,27545.7077051,0.158703268001,21809,28414.7570233
450,27328.950511,0.162199330001,22294,28043.8905853
460,27795.4085827,0.165702662001,22773,28929.8521288
470,27855.7322381,0.169176486002,23247,28333.9429601
480,27782.4044597,0.172675970002,23744,28527.6130899
490,27968.4494791,0.176136965003,24218,28531.5172675
500,27937.7491359,0.179580854003,24690,28688.8077585
510,27921.1938439,0.183079482003,25159,28477.7470355
520,27859.5971761,0.186553307002,25640,28491.3107857
530,27673.9914686,0.190005322002,26132,28782.7973151
540,27764.2261439,0.193506088002,26618,28968.9475503
550,27892.9897948,0.197076562003,27107,29560.312186
560,27677.2601165,0.200737698003,27591,28589.5038991
570,27991.6139688,0.204409953003,28072,28982.0475481
580,27775.5118091,0.208148922003,28561,28449.5759849
590,27628.28819,0.211785682003,29038,28955.9333729
600,27717.2812956,0.215315528004,29521,28938.2201927
610,27758.9670319,0.218797051004,29996,28122.7934123
620,27803.8774257,0.222262750003,30470,28580.9903121
630,27862.9161785,0.225795162003,30953,28234.1342503
640,27747.7348788,0.229330568003,31433,28880.2273842
650,27789.9242122,0.232859987003,31927,28595.4101957
660,28067.1113574,0.236395821003,32417,27808.5574917
670,27825.7361504,0.239948334003,32913,28745.8113274
680,28090.5713684,0.243492293003,33409,28697.7189644
690,28074.0741426,0.246976809003,33884,28353.0757012
700,27633.6305798,0.250696106003,34368,28075.722877
710,28010.1280506,0.254361091003,34842,28644.4356587
720,27749.6747669,0.258026504003,35316,28382.7096482
730,27718.0202275,0.261553786003,35802,28806.0067767
740,27566.0561396,0.265190974003,36284,28362.7114054
750,27663.3926189,0.268829872002,36777,28536.8785225
760,27717.9389742,0.272247674003,37256,28255.321105
770,27749.2213881,0.275692846003,37746,28221.744258
780,27359.8269727,0.279102523003,38215,28450.7618549
790,27856.4589967,0.282514765003,38695,28375.5442615
800,27585.7833583,0.285963358003,39186,27752.8071681
810,27340.0712671,0.289481231003,39669,28319.6425945
820,27569.1680031,0.292984564003,40163,28537.1450993
830,27343.9939893,0.296543919003,40645,27458.9318044
840,27389.6888081,0.300117814003,41125,28086.0483172
850,27446.9341996,0.303772964004,41621,28024.6781581
860,27610.3803116,0.307300673004,42098,28277.8200888
870,27682.221886,0.310975494004,42575,27970.1211937
880,27353.7158895,0.314474550004,43051,28159.6789891
890,27570.7321514,0.317950085004,43528,29238.599002
900,27426.577245,0.321461971003,44010,28256.7674996
910,27274.506818,0.324943921003,44479,28288.1354732
920,27389.9679104,0.328430148003,44962,29065.4185143
930,27355.0783042,0.331870616003,45456,28493.3698339
940,27709.9598821,0.335369672004,45943,28325.1457416
950,27586.9105156,0.338892249004,46417,27867.2580427
960,27500.0454906,0.342375482004,46896,27415.9175058
970,27384.5044268,0.345868978005,47382,27835.8424861
980,27423.5942724,0.349317998004,47858,27971.4107865
990,27653.8115374,0.352798665004,48351,27813.2810328
1000,27662.2635095,0.356335782004,48825,27862.0440954
1010,27623.1766067,0.359821153004,49313,27650.8305393
1020,27469.5488836,0.363299682004,49800,27650.4458791
1030,27728.9625822,0.366832950004,50289,27974.0200835
1040,27823.2564014,0.370368785004,50771,27717.7378312
1050,27464.623743,0.373822937004,51264,28355.9059895
1060,27480.5292779,0.377333968004,51745,27951.0073684
1070,27562.5831685,0.380843288004,52226,28420.7207992
1080,27571.387312,0.384342344004,52715,28082.2348616
1090,27736.5756211,0.387788371004,53211,28292.5494471
1100,27734.9598904,0.391440955003,53706,28713.2772436
1110,27971.0025008,0.394965243004,54179,28613.1738692
1120,27748.1630514,0.398400579003,54660,28340.4792644
1130,27970.787848,0.402083526003,55142,28174.9964106
1140,27747.2162204,0.405611662003,55614,28271.0913481
1150,27699.6221619,0.409314709003,56109,28420.3094877
1160,27922.8719492,0.412932652003,56590,27501.5929691
1170,27644.7970307,0.416595499003,57082,28515.1494169
1180,27838.3875397,0.420282294003,57564,28059.9814569
1190,27927.226274,0.423946851003,58044,27752.4054073
1200,27772.6238263,0.427501074003,58526,28223.3541275
1210,27774.9510183,0.431105760003,59007,28060.0755819
1220,27654.481764,0.434623633004,59487,28016.7393836
1230,27609.4340838,0.438115846004,59970,27647.5679436
1240,27827.7551519,0.441590526003,60457,27551.1109445
1250,27785.8173759,0.445063495003,60939,27872.7096918
1260,27685.4809369,0.448581368003,61420,27622.1023802
1270,27524.6649132,0.452074865003,61915,27593.0866322
1280,27727.2836454,0.455662018003,62396,27559.2423624
1290,27566.2531181,0.459354801003,62879,27868.0657988
1300,27464.0518471,0.463035609002,63366,27266.5622958
1310,27692.8144749,0.466725398001,63850,27969.4092684
1320,27641.0259505,0.470192808001,64327,27444.8328038
1330,27552.4989269,0.473674330001,64819,28186.3299166
1340,27507.0427135,0.477138318,65299,27993.0692366
1350,27521.6760165,0.480647638001,65793,27951.745289
1360,27353.6943496,0.484137286,66275,27915.8099814
1370,27422.5265579,0.487638908,66763,27575.2695221
1380,27337.1738218,0.491152077,67243,27942.0578286
1390,27209.7265789,0.494663535,67734,28403.2256686
1400,27390.4514849,0.498105713,68220,28443.7737359
1410,27438.9221058,0.501574833,68708,27254.3725405
1420,27788.8371088,0.505104252,69183,27596.6969059
1430,27486.6911563,0.508646501,69670,27535.2025343
1440,27393.9082464,0.512203718,70164,27390.0153873
1450,27168.1057734,0.515738697,70642,27746.8840363
1460,27183.8525037,0.519319862001,71111,28081.3461596
1470,27371.2791623,0.522896751001,71603,28561.6728241
1480,27696.1748311,0.526562591001,72084,28457.8438614
1490,27254.1759985,0.533580803,72563,27735.0591474
1500,27519.7141232,0.537268454,73052,27883.2988051
1510,27472.7200109,0.540687539,73536,27535.791354
1520,27166.3967409,0.54438802,74031,27892.2468353
1530,27910.581516,0.548106462,74510,27495.9030899
1540,27215.5686993,0.551591833,74982,28206.934588
1550,27279.6829699,0.555298301,75465,27625.6521663
1560,27183.5656707,0.558841832,75958,27625.9574463
1570,27397.7096514,0.562530766,76438,27682.0775119
1580,26883.5432031,0.566194896001,76910,27744.8708036
1590,26959.25701,0.569905212,77392,28102.5832751
1600,26847.6016473,0.573589013999,77879,27968.9456304
1610,27177.5219387,0.577110734999,78359,27368.275173
1620,26838.0160001,0.580860822999,78843,27676.133218
1630,26980.8797352,0.584574560999,79313,27953.33512
1640,27158.8143883,0.588262211999,79805,28721.8733601
1650,27260.5680719,0.592170104999,80290,28097.5233176
1660,27350.6024851,0.596230240999,80764,28477.7493304
1670,27223.6537815,0.599940128999,81260,28190.936989
1680,27361.3567945,0.603618798999,81749,28643.8536813
1690,27489.5168637,0.607311154,82247,28923.7687944
1700,27710.613349,0.610903011,82723,28131.2774488
1710,27425.6747779,0.614419173,83212,28339.0643166
1720,27263.1376306,0.617908820001,83696,28249.0393715
1730,27482.2810096,0.621432680001,84181,28845.7293478
1740,27727.1323036,0.624925322,84665,28771.8644951
1750,27884.0291138,0.628421385,85146,28690.1283444
1760,27895.7438001,0.631929849,85630,28908.8025145
1770,27838.9975398,0.635457558,86117,29178.0361465
1780,28059.7941716,0.63893908,86598,29873.8694266
1790,27861.8712835,0.642451821001,87083,29140.8484849
1800,28170.3204963,0.645964989,87562,29510.1606437
1810,28040.3053983,0.649459341001,88040,29444.1641818
1820,28032.824899,0.652998596001,88516,29067.9426018
1830,27945.0881679,0.656427945001,88989,29139.957937
1840,27820.2625394,0.659912033001,89472,29142.5321943
1850,28069.8587283,0.663448295001,89966,29310.1590677
1860,28154.1109687,0.666952910001,90446,29459.0356797
1870,27838.9857719,0.670474632,90929,29946.612588
1880,27881.1139,0.673995926,91410,29128.0752759
1890,28215.9946648,0.677497976,91892,29443.0625351
1900,28054.8180465,0.681048778,92378,29103.3784338
1910,27941.6167819,0.684561946,92878,29527.0291162
1920,27832.8710238,0.688063995,93357,28705.7745069
1930,27848.7711625,0.6915669,93841,28837.6762808
1940,27693.0544189,0.69507964,94318,28966.9911996
1950,27622.9869095,0.698597512001,94789,28895.2943803
1960,27651.0773635,0.702105976001,95265,28836.4124501
1970,27750.4809304,0.705614013002,95749,29269.666716
1980,27746.3212748,0.709054908002,96226,29361.4916941
1990,27537.8145621,0.712583900003,96705,29755.7741433
2000,27625.2056632,0.716062429003,97175,28899.1923717
2010,27713.2329136,0.719550366003,97647,28989.8692573
2020,27702.3505986,0.723002808004,98123,29345.6044289
2030,27536.3100454,0.726498443004,98613,29242.4544321
2040,27708.0034349,0.729989374004,99092,29630.6017852
2050,27729.5973554,0.733448230004,99583,29541.303892
2060,27608.4980576,0.736984064004,100058,29601.4994887
2070,27701.6581789,0.740469863004,100537,29586.5011644
2080,28107.1518617,0.743989018005,101025,29528.0922784
2090,27973.3975927,0.747552649005,101504,29352.1915168
2100,28177.1323226,0.751044863005,101988,30322.738926
2110,28274.3802426,0.754558886005,102478,29230.9013544
2120,28224.332987,0.758110543005,102966,29207.0042227
2130,27706.1354934,0.761641673005,103448,29541.611304
2140,27831.9839986,0.765145005005,103931,29398.3124605
2150,27737.2676699,0.768669721006,104421,29612.7692022
2160,28074.5824446,0.772173909006,104902,29621.0437919
2170,27742.2973056,0.775598125006,105378,29633.1982171
2180,27961.6665992,0.779112149006,105866,29122.7082866
2190,28183.6246361,0.782604790006,106350,29650.6501698
2200,28035.0144856,0.786084174007,106829,29304.8423815
2210,27992.5044386,0.789593494006,107322,29018.3166894
2220,28241.9193502,0.793103241006,107813,29446.2779437
2230,28052.7940513,0.796559104007,108296,28946.4131291
2240,28020.3006225,0.800017105006,108779,29189.6069043
2250,27866.7939626,0.803514023007,109269,29325.73853
2260,28153.9015451,0.807009230007,109752,29518.4546821
2270,28352.9093844,0.810539932007,110246,29634.559613
2280,28201.6446963,0.814115538007,110717,28808.5204065
2290,28232.5985112,0.817630417007,111191,29241.1015152
2300,28390.9133325,0.821207306007,111677,29512.5083394
2310,28010.1908915,0.824662742007,112170,29603.6434833
2320,28091.7332214,0.828187885007,112653,29174.8330037
2330,28204.5989568,0.831722436006,113141,29694.6656343
2340,28203.8908659,0.835140666006,113624,29373.7495956
2350,28126.4000144,0.838609359006,114102,29247.082822
2360,28122.0310217,0.842085750006,114575,29731.9702806
2370,28229.1906434,0.845588227005,115054,29761.3770707
2380,28354.6876597,0.849059914005,115533,29580.1392547
2390,28154.101773,0.852767664005,116026,29803.4757945
2400,28243.2887666,0.856248759005,116513,29786.510614
2410,28322.6312982,0.859675114006,117000,29423.1721045
2420,28343.4005931,0.863121996005,117478,29945.2908849
2430,28294.3691269,0.866530817005,117957,29861.4335331
2440,28517.7077184,0.869975561005,118438,29742.6855389
2450,28193.4088977,0.873461360005,118929,29206.389397
2460,28176.3389663,0.876911664005,119415,29320.0732966
2470,28213.5972957,0.880342723005,119899,29222.9217214
2480,28159.2548377,0.883778486005,120388,29388.9230957
2490,28508.9525639,0.887210828005,120866,29348.5455309
2500,28356.2305701,0.890721430005,121354,29149.230047
2510,28483.459124,0.894184991005,121831,29462.1432984
2520,28581.3937503,0.897656677005,122313,29504.8910958
2530,28438.0929203,0.901110830006,122801,29568.9772087
2540,28660.4315683,0.904574390006,123277,29528.4208187
2550,28650.3511815,0.908008443005,123760,29737.971347
2560,28731.9432015,0.911489965005,124239,29720.4746941
2570,28735.6133944,0.914944973006,124722,29687.7732906
2580,28623.9159583,0.918421791006,125203,30155.1827347
2590,29061.7264483,0.921893477006,125687,29486.7722546
2600,28836.5134024,0.925411350006,126175,29666.942606
2610,28961.9757986,0.928840699005,126647,30046.9644418
2620,28840.1441239,0.932276463005,127124,29903.7301479
2630,28859.9918432,0.935810159005,127613,29504.1495987
2640,28943.8134221,0.939303228005,128094,29640.6906396
2650,28803.4424074,0.942785605005,128581,29965.0604817
2660,28784.7969869,0.946232487005,129055,29314.453234
2670,28853.2297282,0.949723845005,129536,29927.3824596
2680,28660.709886,0.953184840005,130014,29483.462269
2690,28868.9012167,0.956616327005,130499,29864.7531842
2700,29258.563331,0.960051235004,130983,29115.9638281
2710,29007.0244054,0.963614438005,131455,30163.9960311
2720,29056.3212567,0.967150700005,131939,29485.1782595
2730,28852.1953709,0.970718608005,132420,29753.422946
2740,29038.6873374,0.974153517005,132904,29697.3641586
2750,29095.4414335,0.977614084005,133386,29632.8709394
2760,29238.4603085,0.981052841005,133863,29807.929571
2770,29082.8036317,0.984505710005,134343,29899.3878406
2780,29305.3828853,0.988088158005,134838,30300.8422632
2790,29418.9792804,0.991622281005,135321,29852.6196302
2800,29327.4943415,0.995194893006,135801,29844.9134049
2810,29152.6090594,0.998745267006,136289,29937.8445065
2820,28916.9319378,1.00223961801,136757,30262.8530988
2830,29157.9795525,1.00566725601,137237,29946.2468555
2840,29086.6989415,1.00908676801,137713,29937.5725882
2850,29299.9349965,1.01258838901,138194,30060.2330421
2860,29599.9979642,1.01601175001,138677,29875.5209701
2870,29168.4526597,1.01949198901,139157,29906.675732
2880,29054.4995391,1.02298933501,139637,30326.9964226
2890,29066.307515,1.02651234001,140113,29661.9352924
2900,29066.4035018,1.03001909401,140601,29773.1898531
2910,28763.5130693,1.03349420201,141081,29815.8157442
2920,28840.9591053,1.03699154801,141571,29961.6491027
2930,28921.616612,1.04048162301,142050,28933.7272104
2940,29193.8064351,1.04394988801,142529,29823.2446686
2950,28930.2107106,1.04744979901,143015,29808.7397752
2960,29059.666309,1.05094671601,143506,29670.8214063
2970,29212.6222287,1.05445090401,143997,30100.9619246
2980,28881.4258979,1.05793157001,144469,29837.9620411
2990,28736.471849,1.06140539501,144946,29559.0112563
3000,28505.0294481,1.06489333201,145423,29731.4695389
3010,28534.63749,1.06836886701,145901,29831.5359355
3020,28832.5316086,1.07190085201,146378,29889.2887484
3030,28910.922008,1.07547688601,146852,30120.1069603
3040,28485.6951124,1.079011865,147339,29710.3465889
3050,28554.7950135,1.08255924601,147829,29538.1298348
3060,28873.7748039,1.08610919201,148320,29413.4596519
3070,28645.2051734,1.089589859,148803,29989.1238292
3080,28572.009698,1.093027332,149289,29315.7167958
3090,28677.1543139,1.096510992,149774,28802.1202775
3100,28913.7504543,1.099948894,150246,29406.8587053
3110,28821.1390347,1.103449661,150736,29686.7358096
3120,28787.7688238,1.106976942,151206,29300.1103131
3130,28624.6265835,1.110526461,151686,29497.4025353
3140,28916.1260789,1.114003707,152172,29490.3354639
3150,28828.7789922,1.117512171,152660,29274.597257
3160,28989.2512047,1.12096461201,153131,29366.1792006
3170,29063.9933901,1.12755346,153600,29247.7410387
3180,28706.6137902,1.131117947,154075,29330.0676404
3190,28772.3025654,1.134689704,154548,29319.2398292
3200,28976.001315,1.13827471801,155028,29950.087457
3210,28672.0010859,1.14184904101,155512,29073.1189958
3220,28758.5833272,1.14542806801,156003,29643.2709452
3230,28809.1204387,1.14893781601,156485,29325.9935493
3240,28884.4100387,1.15237186901,156976,29879.8752239
3250,28755.0883079,1.15580934301,157452,29535.5966379
3260,28908.3628916,1.15929728001,157928,29102.4172236
3270,28851.7189085,1.16275442601,158406,29381.1205643
3280,29005.981451,1.16620515801,158886,29543.9539569
3290,29237.1249013,1.16970036501,159362,30046.0772967
3300,28989.3717045,1.173284524,159840,29319.8548794
3310,29029.1379336,1.176900757,160317,29480.8479772
3320,29112.5611918,1.18039981301,160803,29734.9241153
3330,28986.4401674,1.18389715801,161289,29593.0652496
3340,28862.777566,1.18741716801,161771,29125.6150821
3350,29051.6040861,1.19130239401,162251,28914.6678303
3360,28957.4592807,1.19488569801,162733,28559.2168963
3370,28976.0433489,1.198452323,163219,29260.4024653
3380,28798.3237845,1.20201467201,163707,29569.9044251
3390,28877.280653,1.20549106201,164189,29504.372429
3400,29054.7711934,1.20900038201,164675,29842.8480009
3410,29018.4889617,1.21243486201,165156,29478.088605
3420,29128.0259626,1.21591809501,165637,29384.5000578
3430,29058.7525191,1.21941159201,166116,29987.6557893
3440,29139.2667242,1.22286659901,166601,30166.0457821
3450,28974.1000632,1.22634256201,167077,30025.3849984
3460,29077.1098355,1.22982622301,167570,29939.6582884
3470,29187.7299527,1.23336676101,168045,29501.7873052
3480,29202.3756115,1.23689147601,168530,29955.7704693
3490,29504.3093291,1.24039651901,169017,30113.5736388
3500,29213.7094705,1.24402216001,169519,30080.8044001
3510,29297.2496997,1.24771836401,170001,30399.5704451
3520,29112.2160734,1.25125334201,170482,30295.1954318
3530,29353.601233,1.25489780001,170961,30283.7890085
3540,29433.0713425,1.25833313501,171441,30098.3255659
3550,29185.3816644,1.26181080801,171922,29968.1220559
3560,29531.1837866,1.26530473301,172411,29944.0109352
3570,29407.4555887,1.26885211301,172899,30465.6443951
3580,29400.9433795,1.27234945801,173386,30196.4979379
3590,29411.7229107,1.27584338201,173873,29881.4599479
3600,29409.2048275,1.27928812601,174370,29940.9860857
3610,29301.4714217,1.28277905601,174857,30017.0074954
3620,29229.5756516,1.28620412801,175340,29940.5741693
3630,29220.676011,1.28960867301,175808,29758.1516991
3640,29123.9214844,1.29309575401,176288,29884.7805833
3650,29014.4491045,1.29663543601,176771,30013.113726
3660,29045.6904073,1.30016998701,177262,29529.9540247
3670,29241.5590737,1.30373019701,177743,30329.0293213
3680,28886.6518049,1.30723866101,178230,29986.5271152
3690,28964.6868431,1.31090108101,178714,30151.84778
3700,28946.7217835,1.31442750701,179187,29423.1671441
3710,28989.1369908,1.31793511601,179679,30004.0786368
3720,28879.0941778,1.32142005901,180157,29451.3991888
3730,28852.0729767,1.32490714101,180640,29951.8879396
3740,28986.6380237,1.32842586901,181126,29741.9713919
3750,28970.1401219,1.33214944301,181609,29020.6596022
3760,28975.8418358,1.33651064701,182088,29384.6363789
3770,28954.1220512,1.33999430801,182567,30123.7577058
3780,28990.0235811,1.34349421901,183046,29664.4670245
3790,29053.2310429,1.34704288201,183540,30044.949234
3800,29059.4905073,1.35055818901,184019,29360.9218133
3810,29197.5587152,1.35411754401,184509,29072.8493523
3820,29166.9951347,1.35770555101,184991,30339.295518
3830,28987.4892152,1.36113404501,185474,30464.317616
3840,29182.3683676,1.36466089801,185971,29675.7104761
3850,29120.1367066,1.36823949701,186454,29846.4558383
3860,28909.8553743,1.37172871701,186941,30761.016746
3870,29214.7387703,1.37518415301,187423,30324.8837136
3880,29013.5203413,1.37865797701,187909,30155.2161984
3890,28961.8817912,1.38214420301,188392,29942.9771855
3900,29270.0204696,1.38557654501,188876,30188.3084275
3910,29181.4622769,1.38907859401,189350,29689.2098623
3920,29013.5497567,1.392614856,189827,29880.8548471
3930,28794.269361,1.396049764,190321,29767.6275817
3940,28604.1417435,1.399532142,190810,29613.6145833
3950,28941.027107,1.403028632,191295,29282.4485066
3960,28718.7489118,1.406466962,191777,29773.8121013
3970,29024.5603536,1.410033587,192261,29127.3346225
3980,28840.7948193,1.413588665,192754,29814.1524339
3990,28970.5087849,1.417194634,193244,30187.1037097
4000,28727.2666805,1.42071763801,193720,30022.9164165
4010,28697.9332276,1.424215411,194190,29465.8279919
4020,28869.9087935,1.427660583,194679,29161.168973
4030,29004.8222095,1.431109603,195160,29065.5936436
4040,28959.369866,1.434735244,195637,29197.4571702
4050,28951.5805066,1.438201798,196122,29237.7103502
4060,29478.5144321,1.44169615,196606,29313.2141702
4070,29230.3135016,1.445233267,197094,30071.4936572
4080,29377.3419079,1.448711368,197573,29620.9442075
4090,29453.7141003,1.452205292,198054,29657.3313228
4100,29214.6774806,1.455653458,198537,29703.3535366
4110,29166.5295458,1.459191431,199024,29703.2728638
4120,29158.942655,1.462736245,199507,30144.3484348
4130,29299.6348255,1.466199805,199992,29744.6785111
4140,29082.5861549,1.469914826,200470,30030.6525223
4150,29190.0994382,1.473438258,200958,30406.1325271
4160,29138.1306285,1.476942446,201434,29760.3526208
4170,29547.3429174,1.480427817,201920,30263.46145
4180,29214.411858,1.483875983,202398,29901.3279083
4190,29412.1593503,1.487534126,202894,29832.9166222
4200,29434.3463311,1.491220066,203378,29769.8026219
4210,29264.6011388,1.494705437,203860,29723.0481204
4220,29250.3058393,1.498250679,204337,29367.7852014
4230,29297.3106335,1.501744603,204827,29900.477255
4240,29385.303687,1.505223987,205308,29511.9086812
4250,29329.9459676,1.508729457,205789,29232.7291505
4260,29384.5871954,1.512225519,206278,30102.8796081
4270,29657.8398877,1.515711746,206764,29994.5781241
4280,29199.188465,1.519258699,207259,29762.9678677
4290,28922.067544,1.522755189,207754,29681.136161
4300,29439.4686406,1.526189242,208237,29690.9462095
4310,29537.166366,1.52961132,208720,29549.9779953
4320,29609.3460796,1.53304409,209196,29999.4344579
4330,29542.7502028,1.536454621,209681,29908.370362
4340,29619.1807001,1.539938282,210172,29957.0150019
4350,29561.1203207,1.543444608,210662,30339.5255805
4360,29721.9425327,1.546947941,211135,30280.2341315
4370,29564.3225332,1.550472656,211613,30001.6177286
4380,29454.2182791,1.554031583,212099,30589.9810868
4390,29426.8633022,1.557546463,212586,29936.9222072
4400,29526.8847328,1.561054072,213078,30515.4408362
4410,29734.1158857,1.564549706,213559,29930.2891671
4420,29819.6038622,1.568046624,214044,30435.7157093
4430,29526.5210969,1.571768487,214523,30501.6323767
4440,29691.4405427,1.575484791,215010,30559.6862491
4450,29498.7146699,1.579139513,215501,29956.1749562
4460,29496.7558797,1.582644983,215980,29998.6076135
4470,29859.3238856,1.586161145,216474,29900.497848
4480,29558.4510543,1.58968415,216964,29667.1562156
4490,29281.2004419,1.593230675,217447,30683.8928297
4500,29670.1835445,1.596884542,217935,30013.7549883
4510,29390.4765721,1.60055679701,218419,30146.4856713
4520,29500.2192533,1.60405200401,218897,30491.214001
4530,29545.417215,1.607599384,219380,29853.7771228
4540,29733.8171086,1.611071925,219862,30480.9472554
4550,29567.0816623,1.614563283,220337,29784.69609
4560,29772.6560265,1.617999047,220812,30171.7355772
4570,29795.6259993,1.621640084,221305,30540.698255
4580,29758.3016012,1.62525033,221787,29884.6364308
4590,29660.8272709,1.628942685,222278,30263.6742227
4600,30045.933657,1.632428056,222756,29523.035249
4610,29852.6099625,1.636087054,223243,29606.9796054
4620,29850.1661056,1.63976102,223729,29831.548135
4630,30217.4382533,1.643422156,224205,29638.5656884
4640,29623.7459977,1.64712734001,224699,29763.8441828
4650,29522.8894069,1.65078420001,225177,29665.7114369
4660,29513.8802593,1.65429266401,225667,29708.4548656
4670,29580.8871374,1.65776777201,226130,29526.4913015
4680,29501.2896771,1.66118386301,226605,29617.9187742
4690,29579.5337624,1.66466410201,227082,30080.8241396
4700,29621.4291518,1.66813792701,227559,30244.3445928
4710,29913.2667931,1.67162928501,228052,29681.8024474
4720,29548.3653259,1.67508728601,228532,29763.5346598
4730,29668.9044893,1.678600027,229018,29773.497971
4740,29399.4976199,1.682104215,229487,29707.0716055
4750,29432.5841133,1.68577091101,229970,29995.9995905
4760,29416.8381597,1.68945428601,230449,29469.9600744
4770,29682.798904,1.69298755401,230927,29378.1770627
4780,29854.462298,1.69654135001,231416,29791.7321857
4790,29938.2701772,1.70020077601,231885,29733.5559859
4800,29959.8237496,1.70388115701,232360,28927.428186
4810,30017.7292163,1.70743281401,232834,29264.9769831
4820,29979.4047721,1.711118754,233307,30210.8024098
4830,29618.5969971,1.714777752,233787,29714.1511111
4840,29971.6131544,1.71836062801,234265,29939.4013935
4850,29996.7789335,1.72474334801,234752,29648.7739388
4860,29922.8012521,1.72841218201,235232,30417.6416017
4870,30175.6489951,1.73206348201,235719,29930.0263171
4880,30316.2220028,1.73566346401,236204,29961.2267935
4890,29984.9862461,1.73922795101,236684,30078.2380719
4900,30360.011828,1.74275865301,237177,30383.9081664
4910,30164.2744488,1.74619441701,237667,30075.505948
4920,30294.5244839,1.74961264701,238139,30293.2564472
4930,30241.3888671,1.75309759001,238633,29983.2181151
4940,30404.050275,1.75660177801,239118,30385.1627246
4950,30228.4591251,1.76010596601,239605,30594.8823277
4960,30265.5998277,1.76356268401,240084,29632.3995771
4970,30372.5566568,1.76701940201,240562,30429.9959223
4980,30122.8076504,1.77046414601,241052,30236.6352917
4990,30138.7890706,1.77395721501,241529,29513.6072611
