it,funval,time,funcount,weight
0,3391.86031316,0.000294225999994,553,2695.82012498
10,3483.03345821,0.000566213000013,1010,3011.70271992
20,3470.89831561,0.000834351999998,1472,2779.58749659
30,3608.95790454,0.00113456399998,1937,3053.50919383
40,3718.59835119,0.00140526799998,2387,3360.79843849
50,3668.17232273,0.00168067599998,2849,3504.40921913
60,3645.81218625,0.00195095299998,3316,3405.93082103
70,3586.59428086,0.00223320399996,3772,3063.13926755
80,3661.94791381,0.00251160599996,4225,3357.80189726
90,3695.61852859,0.00279257399995,4689,3105.97635535
100,3611.00082164,0.00306669899996,5137,3772.27827843
110,3706.0765035,0.00334253499994,5611,2928.70436644
120,3680.24404176,0.00363034499995,6079,3078.7334508
130,3710.10151445,0.00390917399994,6547,3614.44757754
140,3669.29101464,0.00419270799995,7006,3212.49689258
150,3566.04344687,0.00447239299993,7458,3372.32230556
160,3836.53774743,0.00474993999995,7900,3574.89821092
170,3597.43057898,0.00509762099995,8361,3052.40348098
180,3719.63858729,0.00542092599994,8825,3514.97503745
190,3777.30859835,0.00569804499995,9273,3390.00281477
200,3767.24616172,0.00597858599994,9727,3276.33621892
210,3798.22616566,0.00627110099992,10179,3402.31438624
220,3941.92662394,0.00655035799994,10635,3198.40981874
230,3798.94241954,0.00682148999994,11093,3175.3163538
240,3843.20861084,0.00709347799994,11559,3229.64804301
250,3914.1112128,0.00742105999996,12036,2962.54486531
260,3991.50002543,0.00774094399995,12489,3385.84956698
270,3922.70612593,0.00801806299995,12943,3622.38801407
280,3968.06778742,0.00829389899997,13400,3148.64714348
290,3926.01444448,0.00857999899998,13860,3176.2437784
300,4062.61438134,0.00886866499999,14329,3297.50156767
310,3911.20381046,0.00915006099999,14772,3319.63305817
320,4020.63458073,0.00944856199999,15230,3333.49713162
330,4064.76079594,0.00974663700001,15684,3578.27615479
340,4081.98400437,0.010037868,16149,3232.74757198
350,4070.80301541,0.010320546,16600,3416.85712348
360,3932.24470596,0.010600659,17055,3667.73132991
370,4055.69187135,0.010877778,17518,3649.93406905
380,4057.65463253,0.011161312,17974,3750.18968785
390,4159.44198569,0.011440141,18430,3677.41611673
400,4019.59833597,0.011699726,18883,3746.03681137
410,3978.04002113,0.011985398,19323,3521.31386168
420,3939.79275827,0.012279623,19772,3444.05418594
430,4038.44915901,0.012552466,20223,3606.45887382
440,4031.41820677,0.012828302,20671,3497.6538001
450,3984.25777915,0.013112692,21126,3600.57054561
460,4055.04016592,0.013404779,21573,3491.51301291
470,4127.87573438,0.013682753,22030,3548.68388348
480,4068.54405858,0.013972274,22483,3618.35796586
490,4091.7753568,0.014254098,22937,3886.6471547
500,3946.91666198,0.014533355,23392,3473.89912656
510,3915.42873078,0.014838699,23861,3521.36536172
520,3876.31454828,0.015120094,24332,3481.14420608
530,4038.46889643,0.015412608,24790,3635.15059443
540,4153.17906519,0.015704694,25257,3545.13599208
550,4152.02002384,0.015991649,25718,3818.96223641
560,4136.72828478,0.016276038,26166,3604.43184907
570,4098.02103685,0.016557434,26628,3462.1604595
580,4031.92846745,0.016856363,27088,3715.61340213
590,3971.86654189,0.0171467389999,27552,3596.72056451
600,3925.8151808,0.0174319839999,28019,3803.10103357
610,3945.51253306,0.0177142349999,28482,3347.72811363
620,4014.53831918,0.018001617,28934,3043.98839387
630,3903.05757633,0.018289,29398,3667.43883238
640,4015.02052127,0.018566119,29844,3650.95779745
650,4027.45787279,0.018847943,30304,3714.93782948
660,4033.80487387,0.0191473,30773,3763.95550486
670,4173.75663726,0.01948985,31233,3774.20647284
680,4162.40309688,0.019774667,31693,3596.73015597
690,4110.97297903,0.020067609,32149,3701.61518978
700,4099.68926497,0.020353709,32600,3384.80063552
710,4092.12604206,0.020638954,33053,3679.20265413
720,4023.41551675,0.020931897,33510,3439.10488747
730,4065.49668445,0.021218425,33962,3509.37825015
740,3982.69040046,0.021503241,34430,3677.38278974
750,4004.11022563,0.021800888,34891,2872.13415552
760,4030.86565204,0.02210837,35339,3257.54398741
770,4141.6949295,0.022391904,35805,3709.17107101
780,4062.97015049,0.0226985309999,36275,3242.78580633
790,4112.13280857,0.022988052,36744,3623.82083657
800,4095.00902765,0.023288692,37200,2863.28796426
810,4233.71769149,0.0235756469999,37635,3976.58983651
820,4185.99038777,0.0238818469999,38096,3469.53912474
830,4079.9601201,0.0241709409999,38536,3635.66414327
840,4000.16098535,0.0244587509999,38990,3466.63808536
850,4011.58465447,0.0247478449999,39446,3250.47984514
860,3982.77051979,0.0250450639999,39904,3752.67505813
870,3876.37885106,0.0253546849999,40366,3851.58746743
880,3783.24711763,0.0256655889999,40815,3177.70517422
890,3833.90195458,0.0259722159999,41272,3588.31105509
900,3909.91937715,0.0262365059999,41736,3611.37135696
910,3814.83362186,0.0264995119999,42198,3407.17429114
920,3951.29625999,0.0267599529999,42649,3090.94644569
930,3882.31449718,0.0288161079999,43094,3901.99743457
940,3903.76670494,0.0291060569999,43540,3435.26257983
950,3972.89554938,0.0293895909998,43999,3161.14588322
960,3938.02726232,0.0296821059999,44467,3425.03258281
970,3772.76891262,0.0299921539998,44927,3074.44001381
980,3756.26082583,0.0302726939998,45383,3546.41264061
990,3850.83463177,0.0305519509998,45867,3442.09635902
1000,4015.55317431,0.0308329189999,46321,3172.59050485
1010,3815.7937885,0.0311185909999,46783,3527.95750311
1020,4012.0309697,0.0314076839999,47258,3261.29179205
1030,3979.15778032,0.0316882239999,47708,3782.12664446
1040,3936.81866222,0.0319614939998,48175,3507.68410236
1050,4009.58617182,0.0322445999998,48641,3249.00079182
1060,4077.71460501,0.0325221469998,49088,3326.05404687
1070,3872.19791523,0.0328266359998,49536,3411.52026414
1080,3793.80484363,0.0331093149998,49996,3529.74076383
1090,3836.74009898,0.0334108099998,50459,3489.99947079
1100,3961.80378339,0.0336900679998,50907,3438.21523324
1110,3979.91061281,0.0339723189998,51363,3217.38736396
1120,3858.8641825,0.0342733859998,51807,3515.8978479
1130,3897.57713043,0.0345688939998,52262,3299.42879839
1140,3967.62395495,0.0348507179998,52722,3749.61888022
1150,4006.40946915,0.0351359629998,53168,2801.41880025
1160,3958.81180949,0.0354079509998,53621,3806.2880828
1170,3960.64425978,0.0357081629998,54067,3816.77132523
1180,3949.91866154,0.0360053819998,54531,3382.67222496
1190,3776.14421931,0.0362872059998,54992,3338.8156441
1200,3945.10826657,0.0365762989998,55446,3339.41496344
1210,3955.80072168,0.0368589779998,55895,3523.75480642
1220,3954.91024979,0.0371373799998,56347,3691.01241875
1230,3943.28778312,0.0374132159999,56806,3178.77102492
1240,3825.40244016,0.0376920459998,57266,3763.23859088
1250,3964.10212264,0.0379768629998,57733,3302.22869153
1260,4036.28569074,0.0382552649998,58198,3773.8047452
1270,3969.43038813,0.0385340939998,58652,3091.2222755
1280,4020.51888275,0.0388137789998,59116,3568.04375211
1290,4008.54089494,0.0390994509998,59573,3511.79896439
1300,4110.67213344,0.0394026569998,60025,3758.3082611
1310,4148.89075546,0.0396964549998,60486,3678.45760208
1320,4031.9786517,0.0399816989998,60959,3509.35426887
1330,3979.6432162,0.0402677989998,61432,3594.32266247
1340,4064.18710235,0.0405372199998,61885,3861.6624691
1350,3926.08547616,0.0408040749998,62354,3742.92926385
1360,3965.31304548,0.0410662259998,62799,3446.19803766
1370,3785.46613716,0.0413638729998,63254,3541.37917812
1380,3882.75992098,0.0416516829998,63725,3431.01190197
1390,3933.53226035,0.0419544619998,64182,3643.7264682
1400,4008.87135365,0.0422435559998,64642,3486.72002224
1410,3936.47763036,0.0425373539998,65086,3313.61579205
1420,3881.72838561,0.0428375659998,65532,3459.38614977
1430,4044.52824687,0.0431317909998,65994,3959.37580872
1440,4034.07911578,0.0434166079998,66458,3579.10494328
1450,4019.12083182,0.0437151099998,66910,3542.02046251
1460,3884.72715616,0.0439994989998,67363,3253.58130735
1470,3961.17673739,0.0461121039998,67822,3361.64747553
1480,3869.1172214,0.0463952099998,68260,3407.37546652
1490,3860.63095801,0.0466907179998,68717,3000.20243971
1500,3905.35403913,0.0469691209998,69182,3645.1399792
1510,3976.2330032,0.0472569309998,69651,3481.18189169
1520,4076.27711201,0.0475327669998,70098,3375.25311649
1530,4075.0887647,0.0478141629999,70552,3575.38048998
1540,4019.0253659,0.0480750319999,71008,3606.99668533
1550,3994.27854081,0.0483688299999,71448,2948.47771062
1560,3947.07080421,0.0486455219999,71898,3368.29104219
1570,3909.18878914,0.0489607029999,72362,3366.08361747
1580,3879.0679269,0.0492309799999,72819,3477.7290173
1590,3657.86117958,0.0495825109999,73273,3081.88001883
1600,3785.21695515,0.0498750259999,73735,3027.39009487
1610,3903.26462726,0.0501529999999,74203,3145.09083521
1620,3897.32610017,0.0505669679999,74653,3498.52818018
1630,3824.54197624,0.0508355339999,75097,3449.77659197
1640,3882.98514347,0.0511062379999,75551,3118.89816126
1650,3910.94991516,0.0513722389999,75993,3292.54850488
1660,3975.92325236,0.0516523519999,76457,3316.45272833
1670,4014.97716207,0.0519337469999,76924,3384.41043067
1680,4051.27141479,0.0522301099999,77381,3099.89054984
1690,3965.80995128,0.0525033799999,77834,3782.13828837
1700,3963.00183052,0.0527967499999,78281,3758.87304892
1710,3992.45031761,0.0530772899999,78741,3321.76255125
1720,3839.26130935,0.0533514149999,79198,3106.63430325
1730,3878.45768378,0.0536281059999,79646,3549.78878221
1740,3977.38890058,0.0539060809999,80105,2956.53003593
1750,3753.19477169,0.0542131349999,80559,3402.05266113
1760,3841.82379475,0.0544868329999,81030,3086.78931084
1770,3670.5677196,0.0547806309999,81490,3062.47245606
1780,3816.8134891,0.0550539009999,81946,3581.20633418
1790,3778.39774915,0.0553293089999,82401,3140.54852176
1800,3791.98837676,0.0555995859999,82856,3297.60454023
1810,3713.8728247,0.0558711459999,83302,3101.98380029
1820,3750.56932714,0.0561469819999,83771,3127.77968715
1830,3953.17748069,0.0564146929999,84210,3380.08968829
1840,3871.93022555,0.0567226029999,84668,3539.26445877
1850,3864.60888212,0.0570074199998,85116,3435.91007008
1860,3795.42220784,0.0573345749998,85570,3726.62665911
1870,3744.83726976,0.0576420579998,86034,3265.34032634
1880,3722.71586747,0.0579358559998,86487,3461.83723175
1890,3763.50191631,0.0582172519998,86957,3666.21421191
1900,3738.70142878,0.0585114769998,87412,3088.759999
1910,3802.96946327,0.0588001429998,87867,3669.94223803
1920,3746.7911586,0.0591166059998,88320,3203.65257789
1930,3842.50455611,0.0594065549998,88770,3702.55743331
1940,4012.76829524,0.0596853849998,89222,3499.92222174
1950,3804.34947401,0.0599847419998,89695,3603.44938925
1960,3889.15818853,0.0602699859998,90149,3728.16037885
1970,3824.53691516,0.0605556579998,90608,3060.85883573
1980,3820.6320866,0.0608562979998,91053,3258.59490626
1990,3960.38785275,0.0611770379998,91501,3224.29851423
2000,3954.29877679,0.0636775249998,91945,3144.31434058
2010,3980.06485385,0.0639721779998,92392,3656.22178635
2020,3848.89610866,0.0642381779998,92841,3332.72967413
2030,3835.81476207,0.0645264159999,93312,3271.31775991
2040,3862.79323476,0.0648155089999,93776,3610.39075861
2050,3894.93559144,0.0650921999999,94235,3615.83406496
2060,3853.80871865,0.0653633319999,94685,3763.45750735
2070,3920.7674158,0.0656353199999,95142,3737.60640704
2080,3897.6053916,0.0658931949999,95608,3814.33783567
2090,3815.95683129,0.0661476479999,96054,3786.13765596
2100,3765.04649262,0.0664042399999,96509,3722.90947633
2110,3739.92367302,0.0666834969999,96977,3575.23363695
2120,3803.33950651,0.0669486409999,97425,3458.27758625
2130,3781.20005146,0.0672069429999,97864,3672.08074055
2140,3841.11116768,0.0674956089999,98324,3518.07602194
2150,3898.93184686,0.0677710179999,98789,3750.85308919
2160,3948.33118986,0.0680485649999,99237,3226.34468133
2170,3930.32933188,0.0683457839999,99693,3392.30257111
2180,3961.66449286,0.0686207649998,100151,3622.32406016
2190,4012.0165878,0.0688940349999,100605,3736.69461276
2200,3890.82151264,0.0691831289999,101062,3607.333597
2210,3840.75882777,0.0694901829999,101513,3520.67653589
2220,3876.0079219,0.0697711499999,101963,3831.62643291
2230,3777.14865492,0.0700593879999,102429,3538.80594934
2240,3817.68599094,0.0703373629999,102891,3689.04812624
2250,4082.62686196,0.0705990869999,103344,3591.65761796
2260,4096.23416224,0.0708578169999,103811,3617.80856449
2270,4017.84184417,0.0711447719999,104264,3557.32351667
2280,3982.46177702,0.0714342929998,104716,3210.26602271
2290,3816.49003946,0.0717225309998,105168,3567.13045514
2300,3864.99392917,0.0720184669998,105620,3408.94720234
2310,3925.39059654,0.0723349299998,106070,3370.64056004
2320,3861.4044299,0.0726291549998,106517,3191.57076508
2330,3941.74495027,0.0729122609999,106978,3573.84573333
2340,3823.15369353,0.0732013539998,107435,3428.89824271
2350,3985.70118248,0.0734900189998,107897,3294.48729909
2360,3746.47629073,0.0737838159999,108349,3904.13703821
2370,3969.48845022,0.0740741929999,108804,3507.12448168
2380,3957.53130597,0.0743658519999,109266,3626.21460761
2390,3878.60916874,0.0746570839999,109720,3202.32007763
2400,3887.24339878,0.0749564409998,110170,3367.42426752
2410,3968.08623437,0.0752356979998,110637,3700.56044682
2420,4018.00583822,0.0755072569998,111085,3239.68319544
2430,4036.33466306,0.0757715469998,111549,3855.50151424
2440,4094.7973736,0.0760345539998,112011,3558.57120831
2450,4078.0220224,0.0763206529998,112465,3772.40173775
2460,4187.60314178,0.0765849419998,112912,3675.05270262
2470,4102.33850685,0.0768586399998,113386,3643.35409824
2480,4014.18448596,0.0771310549999,113826,3458.25078988
2490,4215.40409851,0.0774081739999,114285,3650.84668425
2500,4059.51056281,0.0777100969999,114759,3914.84384819
2510,4059.10253957,0.0779837949999,115226,3885.01153136
2520,3961.99691161,0.0805954709999,115682,3455.60856101
2530,3982.69793362,0.0808884139999,116145,3410.37188218
2540,3871.64787836,0.0811728029999,116596,3045.68989503
2550,3859.25913498,0.0814452179999,117044,3212.37631383
2560,3821.79985233,0.0817347389999,117493,3123.02413354
2570,3840.21415001,0.0820238319999,117957,2974.27189077
2580,4040.82509842,0.0822966749999,118424,3297.36367117
2590,4038.60164945,0.0825669519999,118874,3755.98107973
2600,4072.68579474,0.0828462089999,119342,3471.32405413
2610,4176.16374635,0.0831220449999,119813,3222.30610899
2620,4097.9007691,0.0834017299999,120279,3338.44246316
2630,4072.38221224,0.0836762829999,120748,3459.22018371
2640,3992.32467496,0.0839546849999,121196,3620.64725479
2650,3828.52140794,0.0842369359999,121652,3240.31567801
2660,3753.95439361,0.0845153379999,122114,3366.91006409
2670,3739.90368053,0.0847950229999,122578,3045.95340778
2680,3870.56797644,0.0850794129998,123035,3124.51045416
2690,3869.11425823,0.0853625189998,123488,3097.86704921
2700,3840.27383217,0.0856473359998,123953,3138.4597361
2710,3729.3463966,0.0859509689998,124394,3090.75690572
2720,3826.3382026,0.0862400619998,124845,3511.82696517
2730,3872.45906765,0.0865287279998,125311,3291.9181225
2740,4063.6363947,0.0868772649999,125757,3179.70776574
2750,4078.5552625,0.0871732009998,126221,3455.05609226
2760,4075.5493027,0.0877030629999,126662,3230.13979916
2770,4033.05122522,0.0879874519999,127116,3369.64941664
2780,4127.1215838,0.0882658539998,127564,3377.36536788
2790,4116.7917015,0.0885506709998,128009,3300.8250476
2800,4130.87462429,0.0888401919998,128462,3675.21263894
2810,4127.46964632,0.0891280019998,128932,3659.80535143
2820,4091.2936481,0.0894081139998,129384,3423.89368102
2830,3955.12360899,0.0896796739999,129834,3755.94145045
2840,4007.74387725,0.0899619249999,130285,3595.38457339
2850,3840.57044041,0.0902514459999,130745,3042.74787755
2860,3827.93521888,0.0905307029999,131194,3505.32378221
2870,3911.67277261,0.0908073939999,131651,3508.05959201
2880,3805.34571439,0.0910853689999,132116,3279.82234548
2890,4019.20853016,0.0913654819999,132575,3333.61669097
2900,3990.2292221,0.0916857939999,133030,3118.37104353
2910,4141.73666735,0.0919924209999,133488,3478.7687119
2920,4155.83634357,0.0922853629999,133931,3537.954463
2930,4165.4903348,0.0925723179999,134377,3640.04007734
2940,4134.81771326,0.0928378899999,134825,3601.17094437
2950,3997.67103267,0.0931034619999,135280,3620.85857338
2960,4000.99755201,0.0933750209999,135741,3561.37342759
2970,4060.25710887,0.0936444419999,136195,3695.73251711
2980,4062.14944176,0.0939224169999,136641,3457.5769526
2990,4104.56690169,0.0941939759999,137084,3433.42835753
3000,4112.29693342,0.0944698119999,137535,3657.2568999
3010,4136.4727178,0.0947559119999,138003,3546.14409041
3020,3981.62162684,0.0950595449999,138441,3235.46778517
3030,3836.81655062,0.0974150569999,138903,3561.66891421
3040,3921.24025441,0.0977024399999,139346,3682.91714253
3050,3946.06236882,0.0979718609999,139802,3585.32703759
3060,3830.60391439,0.0982515459999,140250,3506.44778518
3070,3734.93782496,0.0985260989999,140698,3395.34357526
3080,3693.37797852,0.0988382859999,141155,2770.76868421
3090,3707.03752412,0.0991320829999,141614,3640.90591985
3100,3632.72679004,0.0994310119999,142071,3525.73281684
3110,3830.53964238,0.0997273759999,142519,3289.93898906
3120,3711.45424445,0.10015118,142996,3524.41742563
3130,3682.57877577,0.100452676,143462,3394.57860799
3140,3849.31368022,0.100754599,143914,3148.5748578
3150,3909.31466092,0.101066785,144355,3799.91214238
3160,3892.7138267,0.101389236,144808,3407.66928241
3170,3787.59338597,0.101699284,145261,3661.15081617
3180,3819.86867434,0.102014464,145727,3214.92401517
3190,3866.82909202,0.102312538,146173,3590.94775933
3200,3865.89509176,0.102619593,146634,2896.19344421
3210,3932.59450982,0.102906549,147095,3191.01346248
3220,3904.57160299,0.103199491,147549,3663.3594666
3230,3985.51758407,0.10349671,148004,3475.05465042
3240,3960.92077591,0.103805047,148471,3508.68771849
3250,3860.96489595,0.104087298,148921,3467.696463
3260,3851.89029235,0.104379385,149386,3571.04677548
3270,3731.55086551,0.104685156,149836,3387.0913844
3280,3852.58853145,0.105002902,150292,3223.17690281
3290,3710.97816502,0.105294989,150751,3264.32248519
3300,3663.91437901,0.105587932,151207,3216.17497775
3310,3671.52532512,0.105880875,151690,3449.78844869
3320,3845.92502286,0.106170824,152146,3415.26255004
3330,3826.16361609,0.106477023,152610,3571.1712021
3340,3840.39842825,0.106768254,153057,3289.13740683
3350,3941.05073823,0.107081723,153520,3511.99188698
3360,3881.69681749,0.107374238,153977,3628.11274178
3370,4021.51255324,0.107688563,154428,3707.85840048
3380,3916.70731592,0.107984071,154887,3602.10758056
3390,3935.86664925,0.108272309,155357,3525.84682813
3400,4077.97951333,0.108579791,155808,3510.01135277
3410,4047.772086,0.108879148,156266,3495.31433397
3420,3897.8178192,0.109196467,156723,3831.5518473
3430,4011.67737981,0.109497107,157176,3452.93628643
3440,3969.43318657,0.109795609,157619,3660.56747919
3450,3917.61161582,0.110085985,158088,3293.01067647
3460,3995.86439316,0.110377216,158552,3495.10930169
3470,3963.6457197,0.11066631,159006,3636.87308916
3480,3984.72925426,0.110960963,159465,3070.00169865
3490,4101.18811154,0.111256043,159932,3487.44658476
3500,4151.78699679,0.111545136,160379,3542.02129637
3510,3985.00044994,0.111832946,160842,3809.94522944
3520,3983.24207907,0.112126744,161304,3501.99977297
3530,3975.16418849,0.112421397,161757,3249.98485994
3540,3976.49064629,0.112704503,162209,3342.52566475
3550,3932.31800753,0.112973069,162676,3598.26829367
3560,3958.65340733,0.113266866,163145,3879.87489445
3570,3843.48714327,0.113525596,163600,3567.4742792
3580,3888.06132548,0.113807847,164078,3560.21818756
3590,3851.99731236,0.114096085,164531,3509.73640523
3600,3854.5451622,0.114380046,164996,3422.3049909
3610,3893.9262745,0.114672988,165451,3489.56738315
3620,3801.74262029,0.114988596,165917,3406.75067254
3630,3927.21780627,0.115278117,166380,3532.70634017
3640,3838.23804484,0.115560795,166824,3678.96833048
3650,3780.5693073,0.115907194,167280,3394.72715239
3660,3781.6298852,0.116197571,167732,3301.54379962
3670,3841.43445969,0.116479394,168179,3363.34514696
3680,3709.79051248,0.116753092,168627,3356.17174995
3690,3796.811653,0.117040047,169093,3491.23052555
3700,3819.05689659,0.117325719,169546,3254.73249409
3710,3842.4701068,0.117617378,169998,3305.97653726
3720,3822.97941107,0.117912886,170444,3413.03681003
3730,3903.42743153,0.11821096,170915,3481.90584741
3740,3835.57244036,0.118491072,171367,3519.01444495
3750,3954.23045955,0.118776317,171835,3584.66785107
3760,3974.46703064,0.119061562,172293,3477.58584174
3770,3820.69356631,0.119347661,172729,3529.95390345
3780,3963.71499996,0.119639748,173181,3581.24548078
3790,3845.65784811,0.11993269,173638,3470.57971506
3800,4012.74003011,0.120264976,174101,3725.6330417
3810,4078.76422733,0.120582722,174557,3528.8110942
3820,4004.23997556,0.12087823,175021,3278.76809482
3830,3876.56827959,0.121143375,175480,3513.66386807
3840,3828.1396548,0.121421777,175942,3778.13937335
3850,3878.53423785,0.121689487,176389,3508.66307145
3860,3871.18844406,0.12195677,176833,3581.05463135
3870,3887.34368587,0.122231323,177290,3249.98381415
3880,3910.75950836,0.122499034,177742,3427.80890066
3890,3785.50390734,0.12276033,178197,3235.26396007
3900,3863.06973388,0.123021198,178645,3493.97010519
3910,3902.13140624,0.123298317,179111,3499.58666694
3920,3947.43424916,0.123589977,179576,3525.75208988
3930,3766.57427811,0.123879498,180041,3755.51327139
3940,3773.1100887,0.124168591,180496,3406.54365806
3950,3900.46979965,0.124471369,180945,3357.32462141
3960,3853.6508618,0.124754475,181404,3249.79240866
3970,3820.44738497,0.125032021,181857,3582.96437711
3980,3897.22993642,0.125305719,182309,3709.06496007
3990,3810.42672741,0.125581983,182762,3456.66373185
4000,3963.52685923,0.125859102,183221,3401.64163967
4010,3791.19575718,0.126121253,183662,3064.69640593
4020,3853.67736774,0.126387253,184128,3495.11813349
4030,4008.40402904,0.126824314,184596,3107.24497779
4040,3868.39382799,0.127125381,185051,3263.73833127
4050,3966.15018177,0.127429442,185501,3557.59562738
4060,3860.33166709,0.129801633,185956,3403.19530467
4070,3890.63392299,0.130067633,186425,3585.2404672
4080,4029.23736746,0.130364424,186879,3413.6160261
4090,3928.60591784,0.130649669,187345,3510.09451211
4100,4072.49629396,0.130943894,187802,3532.87747672
4110,3961.10397279,0.131258647,188264,3581.66712475
4120,4014.28939407,0.131549023,188731,3031.90008692
4130,3996.16739748,0.131838972,189193,3405.77048453
4140,3956.8844564,0.132131915,189630,3314.3616331
4150,3980.92503951,0.132418015,190099,3232.57945502
4160,4111.31396664,0.132705826,190549,3200.74548089
4170,3986.78435007,0.133007749,191007,3620.71941698
4180,3948.16065031,0.133298553,191472,3677.22407944
4190,3939.2474778,0.133591068,191947,3499.41343211
4200,4065.2548448,0.133880161,192404,3710.50732045
4210,3939.87576198,0.134169255,192843,3483.4201689
4220,4053.76381698,0.134501114,193299,3648.37073545
4230,4006.04907823,0.134789352,193763,3996.89702144
4240,3868.33386333,0.135080583,194208,3631.48133408
4250,3871.22723446,0.135367111,194663,3404.98603083
4260,3848.19596738,0.135660908,195124,3511.13339813
4270,3973.62919226,0.135950429,195584,3391.38928848
4280,3907.58918733,0.13623995,196042,3912.5753761
4290,3869.58453389,0.136533747,196498,3786.11561253
4300,3910.21704874,0.136828828,196951,3392.46571354
4310,4038.91721944,0.137119632,197409,3236.40461341
4320,3825.6003868,0.137404877,197849,3257.29782413
4330,3835.59442181,0.137697392,198307,3371.61420235
4340,3797.86892247,0.137986057,198772,3317.81411149
4350,3771.54321687,0.138278572,199231,3495.70007275
4360,3835.7247056,0.138569803,199696,3617.41331852
4370,3751.13961209,0.138862745,200164,3231.10455723
4380,3892.13622325,0.13915697,200605,3376.76891088
4390,3794.30704363,0.13945034,201060,3427.84793049
4400,3840.65622301,0.139742427,201522,3333.92192603
4410,3911.93709267,0.140030238,201983,3200.764169
4420,3947.34635935,0.140323608,202434,3672.42546291
4430,3898.92441062,0.140607997,202898,3645.9154228
4440,3894.75828556,0.14089709,203355,3814.577542
4450,3879.71770807,0.141205427,203805,3836.22968767
4460,3845.62922691,0.141489816,204247,3619.39188227
4470,4196.67619973,0.141790884,204699,3498.69983143
4480,3917.67225844,0.142104354,205162,3442.85418499
4490,3952.32124542,0.142399435,205629,3288.31496426
4500,3923.98613891,0.142720175,206101,3974.68293988
4510,3899.28205213,0.143013545,206541,3271.70668849
4520,3865.78424602,0.143311191,206995,3667.95584187
4530,3915.75803402,0.143602423,207456,3550.88219068
4540,3816.04390658,0.14390178,207917,3630.02598956
4550,4004.55136335,0.144190018,208367,3660.75158506
4560,3959.77554199,0.144576616,208834,3272.40941724
4570,3925.73869847,0.147039042,209303,3352.35119067
4580,3830.30668829,0.147337116,209753,3289.01697646
4590,3876.11898329,0.147594991,210196,3210.77869483
4600,3772.41842796,0.147862274,210642,3130.08058013
4610,3751.31917005,0.14813255,211101,3669.60873133
4620,3899.91966454,0.148397694,211555,3866.97386309
4630,3924.17829539,0.148658135,212024,3579.52657338
4640,3875.21905858,0.148921997,212499,3403.56789113
4650,4038.9014521,0.14920938,212961,3364.32605721
4660,3942.53725422,0.149473242,213426,3735.54943525
4670,3875.3176511,0.149758059,213887,3571.90283855
4680,3973.62024911,0.150037744,214346,3572.12777489
4690,3925.31421274,0.150338812,214806,3510.16383242
4700,3966.99554341,0.150665966,215264,3577.78912793
4710,3923.80511328,0.150947362,215712,3788.13039449
4720,3998.18856057,0.151238166,216170,3405.40653512
4730,3922.6526582,0.151520416,216622,3627.34202963
4740,4018.59857594,0.151832603,217066,3531.37930567
4750,3868.28829254,0.152115281,217528,3741.4802302
4760,3870.44080765,0.152398815,217988,3605.02052045
4770,4007.55595304,0.152714851,218436,3138.90191683
4780,3862.5000726,0.153002234,218886,3384.39799522
4790,3965.83858022,0.153290045,219342,3795.01634018
4800,4005.40699339,0.153610784,219805,3695.0109998
4810,4023.99031358,0.153911423,220263,3712.07974872
4820,3994.84920382,0.154209925,220707,3490.57295894
4830,3936.52248323,0.154493887,221166,3554.1053521
4840,4006.06836694,0.15477571,221626,3775.04760339
4850,4054.16800108,0.155065658,222069,3164.91853355
4860,4105.84383433,0.155347054,222525,3469.96691747
4870,3942.40199853,0.155636148,222995,3695.42683084
4880,4110.90764624,0.15591455,223449,3388.11375855
4890,3849.87985762,0.156199794,223911,3408.43942937
4900,3992.16338676,0.156502572,224361,3532.35411725
4910,3931.83391587,0.156783968,224806,3639.83446773
4920,3976.20029202,0.157067075,225254,3308.81524396
4930,3878.3978995,0.157360445,225705,3478.09148327
4940,4019.62620062,0.157643124,226162,3719.66490236
4950,3969.43133436,0.157930507,226613,3517.09755796
4960,3935.67248091,0.158215324,227071,3272.70470562
4970,4040.18653605,0.158493726,227518,3516.15172272
4980,4000.12308991,0.158774694,227967,3286.59167896
4990,4043.39624711,0.159063359,228427,3209.92325132
