it,funval,time,funcount,weight
0,11024.8905867,1.71060000866e-05,10,10733.742226
10,10687.5738583,3.37850001415e-05,21,10337.3628181
20,10343.8487558,5.00360001752e-05,32,10022.0053236
30,10265.9683845,6.79980003042e-05,43,9909.22658408
40,10361.6690924,8.68150002589e-05,54,9900.48153384
50,10500.367038,0.000108198000362,65,9826.75778475
60,10589.2361111,0.000124022000364,76,9770.21511906
70,11063.426106,0.000147115000345,87,10324.7357589
80,11156.9379025,0.000168498000448,98,10441.9735879
90,11076.8737577,0.000185177000503,109,10233.3059596
100,11058.8309854,0.000201000000516,120,10327.0358361
110,10981.2501304,0.000215968000475,131,10305.5286525
120,10938.494919,0.000235213000451,142,10254.8585651
130,10744.1817259,0.000253174000363,153,10096.9666331
140,10621.2888866,0.000270707000254,164,10080.5717974
150,11071.61575,0.000307058000317,175,10587.3671535
160,11248.7111619,0.000329724000267,186,10757.0559952
170,10915.8297662,0.000350251000327,197,10482.2350082
180,10996.2318808,0.00036607400034,208,10694.1563416
190,11237.1600448,0.000382752000178,219,10950.210144
200,11415.6333095,0.00039857600018,230,11195.6227309
210,11581.0641785,0.000416110000288,241,11239.0542025
220,11474.0389354,0.000431505000279,252,11101.2624915
230,11127.5128295,0.000450322000233,263,10546.3073571
240,10785.2873281,0.000465290000193,274,10363.0525744
250,10961.2462924,0.000480686000174,285,10575.4055869
260,10666.5191533,0.000496081000165,296,10336.5644139
270,10615.8831989,0.000511904000177,307,10137.8059463
280,10650.7856543,0.000526872000137,318,10120.5327412
290,10682.3584701,0.000541839000107,329,10182.1644122
300,10719.7463917,0.000558945000193,340,10408.2889923
310,10825.7642726,0.000574340000185,351,10338.2291735
320,10912.3788416,0.000599144000262,362,10463.2823466
330,11078.7680045,0.000638061000245,373,10780.9597297
340,11050.7767211,0.000654739000311,384,10501.909397
350,10797.8084933,0.000676121000197,395,10519.0234431
360,11053.0255332,0.000692799000035,406,10756.4219698
370,11269.4802933,0.000708622000047,417,11007.8500375
380,11353.6799238,0.000728294000055,428,11097.0531236
390,11369.1372216,0.000747538000041,439,11240.1613901
400,11657.3904683,0.000763788000086,450,11380.9711286
410,11791.2356415,0.000783459999866,461,11502.1661569
420,11846.0368922,0.000797144999979,472,11555.4622617
430,12162.4413978,0.000812112999938,483,11758.4209052
440,12162.4413978,0.000827508999919,494,11694.776036
450,12465.9707452,0.000842476999878,505,11938.6193099
460,12785.4050847,0.000856590000012,516,12303.4503772
470,12862.9412806,0.000876690000041,527,12458.305514
480,12862.9412806,0.000902348999944,538,12505.0836275
490,13079.1990455,0.000922876999994,549,12666.790232
500,13178.3967627,0.000940410000112,560,12673.099495
510,13576.5938867,0.000960937000173,571,13161.5504181
520,13698.3905346,0.000979754000127,582,13307.1517449
530,14181.166868,0.00099771500004,593,13638.3006285
540,14469.7733023,0.00101781499984,604,13768.271958
550,14554.9762825,0.00104048099979,615,13937.905128
560,14695.3011479,0.00105929799997,626,13978.428272
570,15077.7321833,0.00107768699991,637,14191.0266992
580,15194.39128,0.00109735899991,648,14287.592393
590,15335.7521118,0.00111703099992,659,14439.6113315
600,15374.6998455,0.00113413700001,670,14304.8459175
610,15557.4852029,0.00115338099999,681,14634.4923948
620,15744.0220847,0.0011713429999,692,14816.9200223
630,15826.6077708,0.00119144199994,703,14872.5435927
640,16176.8008999,0.00120983099987,714,15199.4862092
650,16351.8773663,0.00123677299985,725,15251.2536949
660,16421.477718,0.00125943800003,736,15488.6485688
670,16432.1778475,0.00128124800017,747,15515.2159215
680,16618.9882069,0.00130476900017,758,15679.6357231
690,16759.8418229,0.00132572400025,769,15843.7879688
700,16800.5720512,0.00134667900033,780,16020.729658
710,16850.4734743,0.0013672060004,791,15846.9347069
720,16850.4734743,0.00138645000061,802,15925.2770031
730,16873.2199845,0.00140569500059,813,15973.5147854
740,16881.1048858,0.00142536700059,824,15996.2785791
750,16881.1048858,0.00144375600053,835,15875.4499324
760,16881.1048858,0.00146642200048,846,15999.3772163
770,16881.1048858,0.00148694900031,857,16063.0747858
780,16881.1048858,0.00150662100032,868,15959.1064061
790,16881.1048858,0.00152928700027,879,15959.2435925
800,16881.1048858,0.00154853100025,890,16009.4683225
810,16881.1048858,0.00157290700008,901,15991.9106496
820,16881.1048858,0.00159428999996,912,15999.3772163
830,16881.1048858,0.00161524500004,923,16106.6576275
840,16881.1048858,0.00163705500017,934,15973.391553
850,16881.1048858,0.001657583,945,15959.8776706
860,16881.1048858,0.0016789660001,956,15881.635821
870,16881.1048858,0.00170419799997,967,15949.6333231
880,16881.1048858,0.0017264359999,978,15888.7539062
890,16881.1048858,0.00175081299994,989,15999.3772163
900,16881.1048858,0.00177048499995,1000,15976.5496845
910,16881.1048858,0.00179742699993,1011,15911.8056641
920,16881.1048858,0.00182223099978,1022,15948.330718
930,16881.1048858,0.00184275899983,1033,15999.3772163
940,16881.1048858,0.00186328699988,1044,15996.2785791
950,16881.1048858,0.00188424199996,1055,16025.1925739
960,16881.1048858,0.00190519700004,1066,15983.274562
970,16881.1048858,0.00192657900016,1077,15964.3391246
980,16881.1048858,0.00194625100016,1088,15999.3772163
990,16881.1048858,0.00196977200017,1099,15958.9963107
1000,16881.1048858,0.0019915820003,1110,15994.8131483
1010,16881.1048858,0.0020129650004,1121,15989.652673
1020,16881.1048858,0.00203648600041,1132,15999.3772163
1030,16881.1048858,0.00205829600054,1143,15875.475047
1040,16881.1048858,0.00207796800055,1154,15999.3772163
1050,16881.1048858,0.00210020600048,1165,15968.8211282
1060,16881.1048858,0.00212500900034,1176,16049.5610871
1070,16881.1048858,0.00214810300031,1187,15999.3772163
1080,16881.1048858,0.00217290700039,1198,15967.1719077
1090,16881.1048858,0.00219557300056,1209,15927.3140988
1100,16881.1048858,0.00221610100061,1220,15934.966599
1110,16881.1048858,0.00223833900077,1231,15999.3772163
1120,16881.1048858,0.00226014900068,1242,15963.0672585
1130,16881.1048858,0.00228195900058,1253,16015.3016087
1140,16881.1048858,0.00230291400044,1264,16076.4480914
1150,16881.1048858,0.00232215800042,1275,16078.3763078
1160,16881.1048858,0.00234311300051,1286,15926.9531246
1170,16881.1048858,0.00236492300064,1297,15993.6295246
1180,16881.1048858,0.00238630500075,1308,16084.3993976
1190,16881.1048858,0.00240640500078,1319,16022.0396103
1200,16881.1048858,0.00242736000064,1330,15802.3113738
1210,16881.1048858,0.00244917100076,1341,15855.8890159
1220,16881.1048858,0.00246969800082,1352,15988.5422294
1230,16881.1048858,0.00249022500066,1363,15974.2898847
1240,16881.1048858,0.00251075200049,1374,15872.4262916
1250,16881.1048858,0.00253085200052,1385,15999.3772163
1260,16881.1048858,0.00255480000033,1396,15951.0692534
1270,16881.1048858,0.00258259800034,1407,15890.4473429
1280,16881.1048858,0.0026086850005,1418,15999.3772163
1290,16881.1048858,0.00263092300042,1429,15999.3772163
1300,16881.1048858,0.00265273400032,1440,15960.6736117
1310,16881.1048858,0.00268053200011,1451,15953.5430842
1320,16881.1048858,0.00270319800006,1462,15999.3772163
1330,16881.1048858,0.00272543500023,1473,16099.7449579
1340,16881.1048858,0.00274596300005,1484,16022.4391739
1350,16881.1048858,0.00276862800001,1495,16056.8914763
1360,16881.1048858,0.00278872800004,1506,15999.3772163
1370,16881.1048858,0.00280968300012,1517,15952.553886
1380,16881.1048858,0.00283020999996,1528,15986.6561319
1390,16881.1048858,0.00285201999986,1539,16078.6305777
1400,16881.1048858,0.00287340199998,1550,15908.0196972
1410,16881.1048858,0.00290119900001,1561,15999.3772163
1420,16881.1048858,0.00292728599993,1572,16120.279611
1430,16881.1048858,0.00296021500003,1583,15968.8211282
1440,16881.1048858,0.00298031500006,1594,15980.2651034
1450,16881.1048858,0.00300298100001,1605,16076.7844255
1460,16881.1048858,0.00302350800007,1616,15908.0196972
1470,16881.1048858,0.00304489099994,1627,15976.3864496
1480,16881.1048858,0.00306670199984,1638,15983.5331433
1490,16881.1048858,0.00308594599983,1649,15991.5320814
1500,16881.1048858,0.00310647399988,1660,15915.1318013
1510,16881.1048858,0.00312571799986,1671,15986.1008375
1520,16881.1048858,0.00314581799989,1682,15999.3772163
1530,16881.1048858,0.00316677299975,1693,15967.1719077
1540,16881.1048858,0.00319371499972,1704,15986.6561319
1550,16881.1048858,0.00322022899991,1715,15917.049105
1560,16881.1048858,0.00324246599985,1726,15950.9798367
1570,16881.1048858,0.00326427599975,1737,15987.0422559
1580,16881.1048858,0.00328993499966,1748,15951.335138
1590,16881.1048858,0.00331131699977,1759,15927.2614258
1600,16881.1048858,0.00333269999987,1770,15999.3772163
1610,16881.1048858,0.00335408299975,1781,15974.0830256
1620,16881.1048858,0.00337161599964,1792,15943.4568362
1630,16881.1048858,0.00339171499968,1803,15967.8086284
1640,16881.1048858,0.00341010399961,1814,16047.1919111
1650,16881.1048858,0.00343148699949,1825,15947.4058896
1660,16881.1048858,0.00345372499942,1836,16080.2016762
1670,16881.1048858,0.00347810099947,1847,16035.6871741
1680,16881.1048858,0.00350290499955,1858,16030.9073563
1690,16881.1048858,0.00352257699956,1869,15858.9072253
1700,16881.1048858,0.00354695299961,1880,15999.3772163
1710,16881.1048858,0.00356876299952,1891,16029.602815
1720,16881.1048858,0.00359014599962,1902,15999.3772163
1730,16881.1048858,0.00361195599953,1913,15978.5348843
1740,16881.1048858,0.00363761499966,1924,15873.0090939
1750,16881.1048858,0.00366370199981,1935,15983.274562
1760,16881.1048858,0.00368551199972,1946,15949.9615057
1770,16881.1048858,0.0037047569997,1957,15999.3772163
1780,16881.1048858,0.00373212699969,1968,15948.933062
1790,16881.1048858,0.00375949699969,1979,15977.0846366
1800,16881.1048858,0.00378729399972,1990,15978.7352652
1810,16881.1048858,0.00380995899968,2001,15999.3772163
1820,16881.1048858,0.00383732799969,2012,15999.3772163
1830,16881.1048858,0.00386341499984,2023,15952.5991028
1840,16881.1048858,0.00388479799994,2034,15820.3612278
1850,16881.1048858,0.00390489799997,2045,15964.1904775
1860,16881.1048858,0.00392456999998,2056,15988.1681675
1870,16881.1048858,0.00394723599993,2067,16003.2976167
1880,16881.1048858,0.00397332299985,2078,16020.6380129
1890,16881.1048858,0.00400069299985,2089,15860.0516936
1900,16881.1048858,0.00402293099978,2100,15999.3772163
1910,16881.1048858,0.00404858999968,2111,15985.1214004
1920,16881.1048858,0.00406612399979,2122,16051.0079315
1930,16881.1048858,0.00408964499979,2133,15999.3772163
1940,16881.1048858,0.0041114549997,2144,15984.0991723
1950,16881.1048858,0.00413454799968,2155,15910.6432528
1960,16881.1048858,0.00415721399963,2166,15951.5625215
1970,16881.1048858,0.00417859699974,2177,15991.5320814
1980,16881.1048858,0.00420168999972,2188,15881.635821
1990,16881.1048858,0.00422007899965,2199,15992.8055407
2000,16881.1048858,0.00424103399973,2210,15969.6972837
2010,16881.1048858,0.00426412699971,2221,15956.0372688
2020,16881.1048858,0.0042850819998,2232,16043.2626239
2030,16881.1048858,0.00430817499978,2243,15912.4093656
2040,16881.1048858,0.00433169499979,2254,15878.976345
2050,16881.1048858,0.00435564299983,2265,15945.3073009
2060,16881.1048858,0.00437617099965,2276,16031.5634893
2070,16881.1048858,0.00440354099965,2287,15991.8587747
2080,16881.1048858,0.00442577899958,2298,16002.4758535
2090,16881.1048858,0.00444758899971,2309,15980.765407
2100,16881.1048858,0.00446726099972,2320,15999.3772163
2110,16881.1048858,0.00448736099975,2331,15881.635821
2120,16881.1048858,0.00451088199975,2342,15888.9795658
2130,16881.1048858,0.00453611299986,2353,15979.6753512
2140,16881.1048858,0.00455963299987,2364,15975.5761718
2150,16881.1048858,0.00457930599987,2375,15999.3772163
2160,16881.1048858,0.0046015439998,2386,15976.0501065
2170,16881.1048858,0.00462549199983,2397,15999.3772163
2180,16881.1048858,0.00464815799978,2408,15964.951877
2190,16881.1048858,0.00467296199986,2419,15915.3802955
2200,16881.1048858,0.00469648299986,2430,15978.331491
2210,16881.1048858,0.00471872099979,2441,15999.3772163
2220,16881.1048858,0.00474010399967,2452,16085.6486062
2230,16881.1048858,0.00475977599967,2463,15907.262551
2240,16881.1048858,0.0047803039995,2474,15951.7751273
2250,16881.1048858,0.00480125899958,2485,16078.3763078
2260,16881.1048858,0.00481793699942,2496,15999.3772163
2270,16881.1048858,0.00483718199939,2507,15928.3467128
2280,16881.1048858,0.00485728199942,2518,15992.9831547
2290,16881.1048858,0.00487524299933,2529,15953.9553442
2300,16881.1048858,0.00489705299947,2540,16029.602815
2310,16881.1048858,0.00492313999962,2551,15981.0627021
2320,16881.1048858,0.00494666099962,2562,16027.0466498
2330,16881.1048858,0.00496376699971,2573,15977.8905665
2340,16881.1048858,0.00498600499986,2584,16025.3628797
2350,16881.1048858,0.00500610499989,2595,15999.3772163
2360,16881.1048858,0.00502449399983,2606,15999.3772163
2370,16881.1048858,0.00504630399973,2617,15963.7177111
2380,16881.1048858,0.00506683199978,2628,15953.0836596
2390,16881.1048858,0.00509078099958,2639,16010.0076146
2400,16881.1048858,0.00511772299956,2650,15999.3772163
2410,16881.1048858,0.00514124399956,2661,15891.2373854
2420,16881.1048858,0.00516177099962,2672,15999.3772163
2430,16881.1048858,0.00518828599979,2683,15872.087478
2440,16881.1048858,0.00520924099987,2694,15881.635821
2450,16881.1048858,0.00523361699993,2705,15852.3694627
2460,16881.1048858,0.00525500000003,2716,15939.5261196
2470,16881.1048858,0.00528023200013,2727,16099.498815
2480,16881.1048858,0.00530289700009,2738,15964.951877
2490,16881.1048858,0.00532427999997,2749,15999.3772163
2500,16881.1048858,0.00534694499993,2760,15988.8039656
2510,16881.1048858,0.00536918299986,2771,16076.0211457
2520,16881.1048858,0.00538757199979,2782,16019.5640092
2530,16881.1048858,0.00540638799976,2793,15953.5430842
2540,16881.1048858,0.00542477699969,2804,15920.8829528
2550,16881.1048858,0.00545000799957,2815,15985.7676454
2560,16881.1048858,0.00548678599944,2826,15999.3772163
2570,16881.1048858,0.00551800499943,2837,15940.0173511
2580,16881.1048858,0.00555178899936,2848,15987.0422559
2590,16881.1048858,0.00557830299931,2859,15948.933062
2600,16881.1048858,0.00559840199935,2870,15979.1904235
2610,16881.1048858,0.00562790999948,2881,15975.7702724
2620,16881.1048858,0.00565656299955,2892,16001.6313188
2630,16881.1048858,0.00567495199948,2903,15999.3772163
2640,16881.1048858,0.00569505199951,2914,15962.7104271
2650,16881.1048858,0.00571600699959,2925,15860.4965461
2660,16881.1048858,0.00573439599953,2936,15957.3570682
2670,16881.1048858,0.00575748899951,2947,15964.5532972
2680,16881.1048858,0.00577972699944,2958,15953.8992189
2690,16881.1048858,0.00580196499959,2969,15931.5704736
2700,16881.1048858,0.00582591399962,2980,15953.9556593
2710,16881.1048858,0.00584601299965,2991,15999.3772163
2720,16881.1048858,0.0058686789996,3002,16083.4175125
2730,16881.1048858,0.00589006199971,3013,15800.4016436
2740,16881.1048858,0.00590845099964,3024,15931.3900343
2750,16881.1048858,0.00592812299965,3035,15963.1651705
2760,16881.1048858,0.00594651199981,3046,15999.3772163
2770,16881.1048858,0.00596661199984,3057,15967.1909433
2780,16881.1048858,0.00598713999989,3068,15906.7901028
2790,16881.1048858,0.00600595699984,3079,15978.0162857
2800,16881.1048858,0.00602605699987,3090,15928.7909654
2810,16881.1048858,0.00604487399983,3101,16161.6580655
2820,16881.1048858,0.00606368999979,3112,15999.3772163
2830,16881.1048858,0.0060833619998,3123,15951.6652987
2840,16881.1048858,0.00610944899972,3134,15999.3772163
2850,16881.1048858,0.00613296999973,3145,16016.6097706
2860,16881.1048858,0.00615477999963,3156,15953.9553442
2870,16881.1048858,0.00617616199975,3167,15991.5320814
2880,16881.1048858,0.00619583399975,3178,15948.330718
2890,16881.1048858,0.00621465099971,3189,15999.3772163
2900,16881.1048858,0.00623646199983,3200,16031.2260011
2910,16881.1048858,0.00625698899989,3211,15852.1803489
2920,16881.1048858,0.00627794399998,3222,15964.9121076
2930,16881.1048858,0.00629932599986,3233,15878.2344996
2940,16881.1048858,0.00631942599989,3244,15978.0162857
2950,16881.1048858,0.00634551300004,3255,16045.5173531
2960,16881.1048858,0.0063664679999,3266,15996.5247621
2970,16881.1048858,0.00638956099988,3277,15915.3802955
2980,16881.1048858,0.00641265399986,3288,15999.3772163
2990,16881.1048858,0.00643745799994,3299,15967.6890704
3000,16881.1048858,0.00646055099992,3310,16039.9474286
3010,16881.1048858,0.00648620999982,3321,15927.0519091
3020,16881.1048858,0.006508876,3332,15977.9934925
3030,16881.1048858,0.00652726499993,3343,15903.4442984
3040,16881.1048858,0.00654650899992,3354,15996.3749658
3050,16881.1048858,0.00656489799985,3365,16011.1806883
3060,16881.1048858,0.00658328699978,3376,16053.0174219
3070,16881.1048858,0.00660424199987,3387,16013.5606312
3080,16881.1048858,0.0066243419999,3398,15866.0121771
3090,16881.1048858,0.00664315899985,3409,15969.8244186
3100,16881.1048858,0.0066641139997,3420,15999.3772163
3110,16881.1048858,0.00668549699981,3431,15962.7104271
3120,16881.1048858,0.00670816199977,3442,15999.3772163
3130,16881.1048858,0.00673638699959,3453,15999.3772163
3140,16881.1048858,0.0067616179997,3464,15999.3772163
3150,16881.1048858,0.00679069899979,3475,15912.802178
3160,16881.1048858,0.00681379299976,3486,16006.1395238
3170,16881.1048858,0.00683688599997,3497,15999.3772163
3180,16881.1048858,0.00686425599997,3508,15962.2185028
3190,16881.1048858,0.0068903429999,3519,16021.669796
3200,16881.1048858,0.00691429199992,3530,15915.1318013
3210,16881.1048858,0.00693652899986,3541,15971.4170263
3220,16881.1048858,0.00696176099973,3552,16041.3756767
3230,16881.1048858,0.00698399899966,3563,15999.3772163
3240,16881.1048858,0.00700709199987,3574,16013.5606312
3250,16881.1048858,0.0070310399999,3585,15962.1659467
3260,16881.1048858,0.00705541599973,3596,15999.3772163
3270,16881.1048858,0.00708150199966,3607,15854.1589686
3280,16881.1048858,0.00710716099979,3618,15999.3772163
3290,16881.1048858,0.00713281999992,3629,16036.0440055
3300,16881.1048858,0.00715890699985,3640,15972.1580745
3310,16881.1048858,0.00717900599989,3651,15931.3900343
3320,16881.1048858,0.00720423799999,3662,16082.4939452
3330,16881.1048858,0.00722433700003,3673,16125.4376606
3340,16881.1048858,0.00724315299999,3684,15968.8211282
3350,16881.1048858,0.00726624599997,3695,15957.0602414
3360,16881.1048858,0.00729318799995,3706,15999.3772163
3370,16881.1048858,0.00731670899995,3717,15999.3772163
3380,16881.1048858,0.00734194000006,3728,16016.8317249
3390,16881.1048858,0.00736802700021,3739,15943.4568362
3400,16881.1048858,0.00739197500025,3750,16021.669796
3410,16881.1048858,0.0074142130004,3761,15981.0627021
3420,16881.1048858,0.00743645100033,3772,15968.3953953
3430,16881.1048858,0.00746082700039,3783,15999.3772163
3440,16881.1048858,0.00748605800027,3794,15916.4097337
3450,16881.1048858,0.00751171700017,3805,15875.475047
3460,16881.1048858,0.00753609400022,3816,15987.7136614
3470,16881.1048858,0.00756474700006,3827,15941.1815666
3480,16881.1048858,0.00758912299989,3838,15862.3409376
3490,16881.1048858,0.00761136099982,3849,16048.5109859
3500,16881.1048858,0.00765327099975,3860,15935.5952786
3510,16881.1048858,0.00768106799978,3871,15999.3772163
3520,16881.1048858,0.00770758299973,3882,15999.3772163
3530,16881.1048858,0.00773366999988,3893,15860.4965461
3540,16881.1048858,0.00775933,3904,15991.8587747
3550,16881.1048858,0.0077845620001,3915,15935.7323472
3560,16881.1048858,0.00781022100023,3926,15859.0428757
3570,16881.1048858,0.00783417000025,3937,15985.7676454
3580,16881.1048858,0.00785940200012,3948,15938.6749063
3590,16881.1048858,0.00788292300012,3959,15903.9533811
3600,16881.1048858,0.00790687100016,3970,15999.3772163
3610,16881.1048858,0.00793167500001,3981,15999.3772163
3620,16881.1048858,0.00795647900009,3992,15987.9634504
3630,16881.1048858,0.00798085600013,4003,15999.3772163
3640,16881.1048858,0.00800437700013,4014,16099.498815
3650,16881.1048858,0.00802747000012,4025,15963.8619645
3660,16881.1048858,0.00805312900002,4036,16020.6380129
3670,16881.1048858,0.00807750500007,4047,15874.7644637
3680,16881.1048858,0.0081070130002,4058,16084.3993976
3690,16881.1048858,0.00813267200033,4069,15999.3772163
3700,16881.1048858,0.00815704800038,4080,15962.2185028
3710,16881.1048858,0.00818399000036,4091,16039.9474286
3720,16881.1048858,0.0082100760003,4102,15932.9989724
3730,16881.1048858,0.00823530800039,4113,16047.1919111
3740,16881.1048858,0.00826182300034,4124,16090.0540123
3750,16881.1048858,0.00828748200024,4135,15976.7148223
3760,16881.1048858,0.00831271400011,4146,15990.0172457
3770,16881.1048858,0.00833880100004,4157,15986.6561319
3780,16881.1048858,0.00836317700009,4168,16107.1431629
3790,16881.1048858,0.00838712500013,4179,15999.3772163
3800,16881.1048858,0.00841492300015,4190,15906.4935345
3810,16881.1048858,0.00844015500002,4201,15999.3772163
3820,16881.1048858,0.00846453099985,4212,15951.335138
3830,16881.1048858,0.00848805199985,4223,15976.7148223
3840,16881.1048858,0.00851199999988,4234,15999.3772163
3850,16881.1048858,0.00853851400007,4245,15867.6702187
3860,16881.1048858,0.00856374599994,4256,16045.434549
3870,16881.1048858,0.00859068799991,4267,15955.0102345
3880,16881.1048858,0.00861378100012,4278,15931.3152186
3890,16881.1048858,0.00863944000002,4289,15931.0644563
3900,16881.1048858,0.00866509899993,4300,15878.4185925
3910,16881.1048858,0.00869075800006,4311,15872.087478
3920,16881.1048858,0.00872539800002,4322,15961.0635465
3930,16881.1048858,0.00875790000009,4333,15918.2723432
3940,16881.1048858,0.00878355899999,4344,15878.2344996
3950,16881.1048858,0.00880622399995,4355,15943.560312
3960,16881.1048858,0.00882931699994,4366,15999.3772163
3970,16881.1048858,0.00885326599996,4377,16009.4683225
3980,16881.1048858,0.00888020799994,4388,15908.0196972
3990,16881.1048858,0.00890672299988,4399,15983.5293921
4000,16881.1048858,0.00893238200001,4410,15882.3287518
4010,16881.1048858,0.00895889599997,4421,16041.3973644
4020,16881.1048858,0.00898369999982,4432,15902.4692829
4030,16881.1048858,0.00901149699985,4443,15971.4170263
4040,16881.1048858,0.0090380109998,4454,16003.5552657
4050,16881.1048858,0.00906495299978,4465,16033.842325
4060,16881.1048858,0.00909232299978,4476,15929.7293781
4070,16881.1048858,0.0091162719998,4487,15952.553886
4080,16881.1048858,0.00914235899972,4498,15954.0381606
4090,16881.1048858,0.00916758999983,4509,16082.4939452
4100,16881.1048858,0.00919410499978,4520,16013.3010813
4110,16881.1048858,0.00921463199984,4531,15809.7474532
4120,16881.1048858,0.00923772499982,4542,15999.3772163
4130,16881.1048858,0.00926979899987,4553,15999.3772163
4140,16881.1048858,0.0092941749997,4564,15979.1724623
4150,16881.1048858,0.00932539399992,4575,15978.0162857
4160,16881.1048858,0.00935490200004,4586,15999.3772163
4170,16881.1048858,0.00938355499989,4597,16059.8284136
4180,16881.1048858,0.00941049699986,4608,15999.3772163
4190,16881.1048858,0.00943829499988,4619,15975.1502329
4200,16881.1048858,0.00946096099983,4630,15999.3772163
4210,16881.1048858,0.00948405399981,4641,15908.699105
4220,16881.1048858,0.00950629199974,4652,15896.9080763
4230,16881.1048858,0.00953323399972,4663,15989.8146604
4240,16881.1048858,0.00955974799967,4674,15834.7209937
4250,16881.1048858,0.00958497999977,4685,16006.8956579
4260,16881.1048858,0.0096110669997,4696,15991.9045171
4270,16881.1048858,0.00963886399973,4707,16026.318703
4280,16881.1048858,0.00966623299973,4718,16031.5634893
4290,16881.1048858,0.0096923189999,4729,15902.8183973
4300,16881.1048858,0.00971712299975,4740,15905.761995
4310,16881.1048858,0.00974107199977,4751,15967.8470763
4320,16881.1048858,0.00976459299977,4762,16014.1217826
4330,16881.1048858,0.0097868309997,4773,15952.5991028
4340,16881.1048858,0.00981120699976,4784,15909.6005713
4350,16881.1048858,0.00983301699966,4795,16152.6650751
4360,16881.1048858,0.00985568199962,4806,16030.9073563
4370,16881.1048858,0.00987963099965,4817,15999.3772163
4380,16881.1048858,0.00990571799957,4828,15994.0545741
4390,16881.1048858,0.00993394299962,4839,15905.8209893
4400,16881.1048858,0.00996516199962,4850,16078.8901164
4410,16881.1048858,0.00999466999951,4861,15889.1214011
4420,16881.1048858,0.0100224669995,4872,15953.9774153
4430,16881.1048858,0.0100502639996,4883,15925.8733395
4440,16881.1048858,0.0100754949995,4894,15958.2131606
4450,16881.1048858,0.0101037199995,4905,16037.699181
4460,16881.1048858,0.0101310889995,4916,15999.3772163
4470,16881.1048858,0.0101597419994,4927,15947.4058896
4480,16881.1048858,0.0101858289993,4938,15981.0627021
4490,16881.1048858,0.0102127709993,4949,16025.1925739
4500,16881.1048858,0.0102427069992,4960,16070.6530316
4510,16881.1048858,0.0102687939993,4971,15999.3772163
4520,16881.1048858,0.0102987299992,4982,15821.9092893
4530,16881.1048858,0.0103256719995,4993,15910.4671902
4540,16881.1048858,0.0103560349994,5004,15855.8890159
4550,16881.1048858,0.0103834049994,5015,15984.9511247
4560,16881.1048858,0.0104103469994,5026,15989.2861101
4570,16881.1048858,0.0104313019992,5037,16039.1336663
4580,16881.1048858,0.0104556779993,5048,15954.0137689
4590,16881.1048858,0.0104821929992,5059,15969.6972837
4600,16881.1048858,0.0105099899993,5070,16042.8953944
4610,16881.1048858,0.0105369319992,5081,15999.3772163
4620,16881.1048858,0.0105630179992,5092,15961.1529906
4630,16881.1048858,0.0105925259993,5103,15999.3772163
4640,16881.1048858,0.0106177569994,5114,16022.0396103
4650,16881.1048858,0.0106434159993,5125,16082.4939452
4660,16881.1048858,0.0106682199992,5136,15995.1991669
4670,16881.1048858,0.0106934519993,5147,16039.9474286
4680,16881.1048858,0.0107451979993,5158,15908.6503215
4690,16881.1048858,0.0107734229994,5169,15999.3772163
4700,16881.1048858,0.0108003649996,5180,16034.5639551
4710,16881.1048858,0.0108281619996,5191,16034.415308
4720,16881.1048858,0.0108542489997,5202,15964.3391246
4730,16881.1048858,0.0108807629999,5213,16031.5634893
4740,16881.1048858,0.0109072769999,5224,15890.4473429
4750,16881.1048858,0.0109325089998,5235,15979.2418112
4760,16881.1048858,0.0109598789998,5246,15918.5582005
4770,16881.1048858,0.0109842549998,5257,15976.7148223
4780,16881.1048858,0.0110064929997,5268,16030.9073563
4790,16881.1048858,0.0110308689998,5279,15999.3772163
4800,16881.1048858,0.0110552449999,5290,16027.2916351
4810,16881.1048858,0.0110834699997,5301,15998.9817423
4820,16881.1048858,0.0111104119997,5312,15999.3772163
4830,16881.1048858,0.0111394919995,5323,16010.0076146
4840,16881.1048858,0.0111638679996,5334,15999.3772163
4850,16881.1048858,0.0111886719997,5345,15910.4671902
4860,16881.1048858,0.0112147579996,5356,16027.0827926
4870,16881.1048858,0.0112404169995,5367,16054.7883689
4880,16881.1048858,0.0112682139995,5378,16046.1553298
4890,16881.1048858,0.0112938729994,5389,15999.3772163
4900,16881.1048858,0.0113195319996,5400,15909.8692221
4910,16881.1048858,0.0113469019996,5411,16031.3548556
4920,16881.1048858,0.0113751279994,5422,15927.0519091
4930,16881.1048858,0.0114016419993,5433,16053.0174219
4940,16881.1048858,0.0114281559993,5444,15897.9444069
4950,16881.1048858,0.0114555249993,5455,15918.8355958
4960,16881.1048858,0.0114794739993,5466,15999.3772163
4970,16881.1048858,0.0115081269992,5477,16083.4175125
4980,16881.1048858,0.0115342129991,5488,15926.6962662
4990,16881.1048858,0.011559444999,5499,15984.1850118
