it,funval,time,funcount,weight
0,12773.6086925,0.00122351499999,688,10420.3934897
10,12399.1515969,0.00245301700011,1262,11956.7968991
20,12782.8876977,0.00371202700012,1847,11529.5071932
30,12957.8073756,0.0049432400001,2421,10051.6334464
40,13297.2209801,0.00618856600022,2993,11054.2837157
50,14053.9442712,0.00749803900021,3574,11676.1995563
60,13707.9079871,0.00879853200036,4157,11852.9760725
70,14065.8781214,0.0101071500005,4724,12272.5648333
80,13694.8606793,0.0113828390004,5291,12623.913273
90,13800.2279635,0.0126465530004,5866,12464.8479322
100,13943.1380048,0.0139436240004,6434,12248.4285877
110,14472.0235215,0.0151709880004,7002,12677.727998
120,14218.9258365,0.0164081880002,7587,12660.3302261
130,14393.797669,0.0176355510002,8169,12172.872203
140,14429.0643241,0.0189022590002,8746,11988.5991681
150,15100.247516,0.0201390310003,9330,13140.4065498
160,15073.0206687,0.0221973250002,9907,13543.8353484
170,14450.4443517,0.0235354510003,10474,12848.2463127
180,14517.814252,0.0248487730003,11067,12473.082376
190,14688.9713769,0.0262010110002,11638,13188.756208
200,15166.7774218,0.0276208180003,12233,13039.8370634
210,14940.2108713,0.0289722010004,12792,13178.2715744
220,14951.7267256,0.0303676320004,13353,13509.8422949
230,16075.3025132,0.0317403980002,13912,13681.528328
240,15591.743015,0.0331170130003,14491,12873.0872998
250,15163.8164949,0.0344974770003,15077,13243.3665174
260,15142.1685707,0.0358822170003,15658,13646.8880025
270,15071.8844817,0.0370950410004,16225,13125.0151868
280,15008.8409693,0.0383266810004,16783,12947.6550892
290,15028.5871391,0.0396045080004,17375,12774.8441954
300,14860.0220381,0.0408772030003,17954,13311.7478486
310,14793.9624526,0.0421058490003,18531,13254.2511618
320,14951.0770033,0.0433071260004,19109,12781.0069889
330,15156.9610141,0.0445135350003,19681,13795.9401233
340,15031.4114666,0.0457152390002,20259,12814.4315497
350,15158.4702492,0.046995204,20844,12887.7409082
360,14905.5016546,0.048218719,21419,13128.3434531
370,14996.5844616,0.0494867099999,21993,12193.6576442
380,15204.271298,0.0507465749999,22564,13119.3823467
390,15540.6176018,0.0519846300001,23132,12977.3726037
400,15192.3843058,0.0537666600001,23689,13622.5514029
410,15081.7706146,0.055016261,24272,13509.2926747
420,15531.7768151,0.056228657,24843,13145.8011894
430,15191.3583552,0.0577113300001,25430,13435.5867438
440,15053.4871059,0.058969057,26006,13028.1912728
450,15034.3714514,0.0602601410001,26600,12865.3253956
460,14954.8561955,0.0627636210002,27181,12884.8390232
470,15112.0628346,0.0639956890002,27746,13050.0335222
480,14687.4319117,0.0651973940001,28315,13088.4957046
490,14823.3139493,0.0664174880001,28886,13448.4767997
500,15179.4442145,0.067651695,29456,13298.6928015
510,15178.9326063,0.0688927439999,30026,13431.2600116
520,14884.3329369,0.0701483329999,30620,13224.4194304
530,15169.6188739,0.0714094809998,31194,12483.7610601
540,15204.1910073,0.0726637869998,31765,13172.1490691
550,15230.3226602,0.0738368389998,32345,12653.3714696
560,15019.2798825,0.0750453859996,32928,12903.7799615
570,14992.1158609,0.0762552169995,33493,13093.2749011
580,14904.2193073,0.0775672559994,34075,12789.223794
590,14839.7192906,0.0788613339994,34652,12267.9611655
600,15039.7906261,0.0805321739995,35229,13043.3594398
610,14976.5094353,0.0817689459996,35809,12672.2795468
620,14787.9911857,0.0830074289997,36375,12027.3117046
630,14968.768322,0.0842326539998,36961,12544.1083831
640,14801.423977,0.0854681429998,37538,12990.4505884
650,14718.7676713,0.08670577,38110,12247.2996358
660,14740.6952873,0.087937838,38689,11905.6671741
670,14682.8119466,0.0892054020001,39261,12874.3452762
680,15078.8181734,0.0904451680001,39845,12564.2287422
690,14980.3481888,0.0916502939999,40415,12662.9628604
700,15039.8779433,0.0928353199999,41004,12344.0889032
710,15060.6544831,0.094037025,41585,12771.1320269
720,15156.8658707,0.0954102189999,42150,12735.1206032
730,14995.6274178,0.0966333059998,42715,12476.0110157
740,15155.9584831,0.0978970209999,43296,12890.8627132
750,15174.5463623,0.099118398,43853,12806.6388955
760,14952.5828356,0.10036244,44411,12927.1030102
770,15035.7302421,0.101583389,44980,12893.7116592
780,14963.5360969,0.102918949,45553,12734.89773
790,15116.3980317,0.104204901,46139,12826.1709941
800,15007.9006449,0.105443384,46719,13171.9284568
810,14816.3658222,0.106678446,47301,12764.4175918
820,15050.0238444,0.107916074,47869,13073.7735685
830,14820.3568815,0.109191762,48445,12332.0850617
840,14802.2734331,0.110479853,49034,12739.7726322
850,14715.7141155,0.111765805,49614,12696.0529082
860,14504.8867175,0.113076134,50195,12033.6659595
870,14680.3950348,0.114373206,50786,12555.6143648
880,14810.1467355,0.11565702,51369,12164.1660494
890,14587.7554328,0.116969914,51940,11943.1146995
900,14937.0300544,0.118190863,52513,12272.855665
910,15003.7783327,0.119408391,53093,12473.3627143
920,14997.7784183,0.120684935,53669,12981.9097775
930,14681.975027,0.122071386,54237,12258.5806582
940,14836.9238807,0.123348356999,54817,12657.7961431
950,14747.9250924,0.124643718,55385,13378.6004363
960,14921.5028815,0.126319689,55962,13408.0401797
970,15175.6369096,0.127560737999,56528,12942.9768391
980,15064.4668534,0.128859091999,57101,12352.8378012
990,15393.4274827,0.130124943999,57688,13288.0866346
1000,14961.2723071,0.131648671999,58289,12941.3136953
1010,15094.1225814,0.132934195999,58875,13335.8745488
1020,15083.7720968,0.134210739999,59453,13493.5540863
1030,15337.3535189,0.135510803999,60042,13279.0827902
1040,15261.6793054,0.136833533999,60615,12996.5432391
1050,15282.3145881,0.138124617999,61189,13174.0005401
1060,15216.9542415,0.139416984999,61765,13773.3975264
1070,15537.4643792,0.140726885999,62335,13074.9395124
1080,15407.6937656,0.141935004999,62899,13087.2747706
1090,14957.0098757,0.143214113999,63467,13175.4096537
1100,15269.6152562,0.144501348999,64042,11952.5319013
1110,14653.3090693,0.145805263,64618,12294.7092546
1120,14930.0530987,0.147071116,65202,11993.2190431
1130,14965.8501229,0.148347232,65786,13053.3238389
1140,15045.1381518,0.14957203,66354,12970.6856018
1150,14875.8257816,0.150844297,66950,12131.2577517
1160,15132.2832391,0.152176008,67536,12642.4131524
1170,14996.6153335,0.153420477,68115,12558.3707974
1180,14865.3031234,0.154702153,68686,12490.0141166
1190,14842.3073883,0.155966295,69258,12963.6625815
1200,14644.94127,0.157290736,69825,12142.6121476
1210,14604.4728436,0.158560437,70395,12499.6404849
1220,14773.1864351,0.159890865,70982,12465.1022605
1230,14740.5072542,0.161200766,71568,11974.1268607
1240,14688.9608354,0.16250468,72140,13278.1786671
1250,14627.698393,0.163946725999,72728,12362.5268065
1260,14304.9995806,0.165227973999,73308,12962.9985593
1270,14775.3217768,0.166461324,73889,12683.2828429
1280,14805.269959,0.167737867999,74449,12635.0722788
1290,14511.8232483,0.168999443999,75039,12726.5893147
1300,14630.8178185,0.170321318999,75611,11788.5197068
1310,14647.5371451,0.17161839,76186,12481.7020909
1320,14572.9315594,0.172914177999,76783,12946.0866438
1330,14439.1086302,0.174208683,77379,12425.6615404
1340,14657.0310059,0.175489075999,77965,11670.9225553
1350,14787.2111371,0.176788284999,78529,12563.1892165
1360,15255.5531057,0.178069532999,79114,12270.6125849
1370,14836.2999085,0.179365320999,79686,12534.4876262
1380,14501.8471905,0.180657259999,80265,12650.7423944
1390,14893.3520764,0.182593671999,80845,12572.633541
1400,15183.8197072,0.183896729999,81419,12648.4815301
1410,14853.351687,0.185146758999,82011,12893.9845828
1420,15031.7028325,0.186434848999,82594,13161.2635988
1430,15050.248289,0.187715669999,83169,13022.5892366
1440,14977.5980943,0.188981094999,83738,12881.3046229
1450,15125.6767524,0.190327345999,84316,13119.7551206
1460,15179.9345053,0.191792911999,84891,12911.6417329
1470,15367.2644643,0.193085278999,85488,12899.7051794
1480,15195.8611857,0.194359256999,86063,12434.4365577
1490,14873.0245729,0.195585764999,86631,12941.395291
1500,15085.4289966,0.196852044999,87198,12820.2575147
1510,15101.9583262,0.198172637,87773,13104.9830768
1520,15284.142495,0.199465003999,88340,12945.4216715
1530,15075.021031,0.200827934,88922,12926.3996264
1540,15392.9674665,0.202245175999,89496,12855.6701132
1550,15223.3640737,0.203640178999,90075,11959.1018255
1560,15113.1134979,0.2049009,90640,12471.2234081
1570,15006.8497557,0.206115006999,91208,12813.8000012
1580,15119.4848036,0.207341942999,91785,12120.722736
1590,15237.244092,0.208563748,92353,12890.7881365
1600,15118.6030414,0.210293604,92945,12428.0411684
1610,15034.7317194,0.21154064,93526,12770.4077243
1620,15103.4395951,0.212811197,94099,12747.1888616
1630,15023.4327359,0.214086458,94674,12104.7628302
1640,14975.9413867,0.21537968,95257,12469.8338348
1650,14887.3284277,0.216639118,95821,12091.5706247
1660,14898.453804,0.217967835,96385,11968.5420547
1670,14785.5470245,0.219308954,96959,11645.185511
1680,14778.4116059,0.220565399,97525,12139.2432035
1690,14644.2467452,0.221822699,98089,13102.6348161
1700,14834.0995341,0.22302141,98665,12157.1558595
1710,14659.6502349,0.224289829,99230,12454.7231905
1720,14830.9425354,0.22555782,99827,12116.5507708
1730,15316.8822212,0.2268241,100405,12099.5105585
1740,14980.7143436,0.228206702,100989,12114.3538243
1750,15395.8112239,0.229489233,101559,12258.8881768
1760,14766.8841617,0.230756796,102141,12783.7346798
1770,14973.2595791,0.232058571,102712,12319.7839994
1780,15221.0455506,0.233362057,103280,12642.2871742
1790,14899.4134302,0.234646726,103852,12897.1725382
1800,15031.1556895,0.235924125,104411,12098.8084526
1810,15143.2149449,0.23725712,104976,12219.1041799
1820,14610.3030958,0.238521262,105545,12188.0044646
1830,14917.0079607,0.239788825,106129,11952.1838137
1840,14759.8554917,0.241064086,106703,12352.7088859
1850,14593.4702985,0.242324379,107284,12656.1973391
1860,14757.8614502,0.243656518,107864,12282.8546729
1870,14901.4102348,0.244928357,108433,12757.7477111
1880,14734.2492129,0.246198914,109003,12810.8592425
1890,15216.2168305,0.247498978,109584,13180.9742663
1900,14939.0230978,0.248766969,110160,12882.0735531
1910,15098.7053939,0.250042658,110727,13038.7921731
1920,14814.0777414,0.251355125,111303,12637.2859414
1930,14931.2486097,0.252644498,111878,12568.9483143
1940,14998.3664909,0.253942853,112456,12732.0278835
1950,14924.7326087,0.255216831,113039,12371.9813746
1960,14862.6501304,0.256494658,113625,12466.7424743
1970,15179.6105681,0.257713897,114210,13341.297021
1980,14901.1808536,0.259012679,114786,12894.601389
1990,15060.185087,0.260286229,115364,13336.3524794
2000,15216.6434425,0.261535831,115941,13156.9942186
2010,15144.1277056,0.26280596,116519,12927.0843434
2020,15139.3588033,0.26413425,117089,13421.3800414
2030,15280.4476341,0.265516852,117676,13438.2813932
2040,15301.1721347,0.26690929,118247,13768.6265749
2050,15319.5076078,0.268341927,118821,12780.2947238
2060,15034.4355811,0.269753609,119402,14046.0210212
2070,15210.4161584,0.271141342,119970,13505.4632479
2080,15197.5874224,0.272515391,120552,14036.5506349
2090,15036.9720172,0.273895855,121129,13029.4186419
2100,14909.0580032,0.275282734,121712,13104.3228682
2110,15285.1112334,0.276688001,122292,13391.9470222
2120,15274.8426881,0.278068037,122869,13114.0698668
2130,15056.1653765,0.279469883,123457,12749.3604674
2140,15305.7430533,0.280847353,124036,12988.097256
2150,15241.7036356,0.28222525,124619,13018.3541844
2160,15351.7270454,0.283594167,125197,12957.4332346
2170,15463.2879971,0.284995158,125784,12994.7510782
2180,15175.2705002,0.286388451,126381,12872.474549
2190,15440.9956607,0.287782600001,126961,13061.9736928
2200,15144.9691289,0.289143392001,127526,13261.946257
2210,15553.6031966,0.290484511001,128098,12525.5529701
2220,15102.2665346,0.291874810001,128683,12532.1403301
2230,14965.7785631,0.293250569001,129247,12780.4297133
2240,14853.2070431,0.294637020001,129807,12687.0374949
2250,14781.1935889,0.295983699001,130381,13315.3171767
2260,15132.7075496,0.297362879001,130952,12394.3639801
2270,14595.192541,0.298703570001,131532,12627.0472725
2280,14956.2008882,0.300016892001,132108,12813.0599509
2290,14710.9585953,0.301356728001,132663,13017.292624
2300,14940.0922275,0.302615738001,133243,12832.3338495
2310,14861.4309913,0.303874748001,133824,12814.025388
2320,15054.9119724,0.305605887001,134402,12523.8679289
2330,15159.9412982,0.306911511001,135001,12563.6315161
2340,15118.5362421,0.308196608001,135585,12534.9671392
2350,15034.2720352,0.309501377001,136170,12369.2874446
2360,14958.7566053,0.310741143001,136770,12965.102551
2370,14710.8776725,0.312036931001,137338,12342.3472227
2380,15360.7338186,0.313280546001,137919,12431.3122598
2390,14959.1020941,0.314499785001,138497,11880.2411683
2400,15233.6067824,0.315800277001,139098,12591.7626149
2410,15228.5474308,0.317062281001,139685,12551.2438252
2420,15262.2298595,0.318356358001,140258,12419.2159214
2430,15110.5857763,0.319647014001,140832,12739.058773
2440,15440.0568917,0.320952638001,141406,12102.2407457
2450,15139.2443528,0.322236024001,141982,13172.6633244
2460,15516.2408886,0.323526681001,142563,13116.8712847
2470,15453.1004881,0.324824180001,143154,13127.9469378
2480,15423.0577059,0.326078914001,143722,12944.9245931
2490,15440.9930775,0.327423883001,144294,13090.3426711
2500,15562.6933177,0.328767568001,144867,13158.7157994
2510,15310.6214574,0.330006051001,145432,13213.567678
2520,15780.1049991,0.331267199001,146013,13160.4263467
2530,15221.0539992,0.332567264001,146584,13361.1518465
2540,15243.0498334,0.333849795001,147168,13071.4145493
2550,15296.2329722,0.335138313001,147747,13081.0076124
2560,15397.779397,0.336446075001,148324,13232.9038185
2570,15307.7215297,0.337746995001,148914,13081.7902394
2580,15618.7122206,0.339030382001,149487,13410.9829927
2590,15572.8254898,0.340278274001,150060,13797.1567647
2600,15337.6448198,0.341510769001,150653,12658.5821899
2610,15602.9734724,0.342791161001,151223,13577.2550285
2620,15546.2455111,0.344105766,151779,13036.1812332
2630,15662.716013,0.345478104,152351,13292.8757128
2640,15706.401097,0.346857285001,152931,12971.9533608
2650,15926.3463523,0.348146658001,153491,12854.9220677
2660,15774.9425961,0.349418926001,154065,12537.7480811
2670,15634.322255,0.350659975001,154648,13214.6514635
2680,15506.2625805,0.351924545001,155213,13392.1328026
2690,15657.464149,0.353245564001,155767,13019.4269691
2700,15462.5833051,0.354567011001,156339,12742.1302901
2710,15579.4951551,0.355845265001,156920,13016.6726563
2720,15103.4201428,0.357154738001,157489,12911.396687
2730,14913.7735562,0.358483455001,158045,13007.9117429
2740,15274.1329171,0.359801481001,158619,12675.7722236
2750,15256.281674,0.361078025001,159197,12842.1483405
2760,15251.3986142,0.362361839001,159779,13431.6906465
2770,15421.7416888,0.363679438001,160367,13121.2311502
2780,15532.0810451,0.364900815001,160949,13138.3621301
2790,15472.1852837,0.366302661,161539,13380.1908071
2800,15657.9830787,0.367581343,162129,13406.0019264
2810,15504.2471292,0.368881408001,162688,12736.2801005
2820,15423.7794928,0.370192164,163266,13014.241244
2830,15285.6128457,0.371478544,163859,12696.9445476
2840,15305.0727487,0.37283848,164432,12745.8443713
2850,15133.4042459,0.374121011,165009,12848.4357747
2860,15131.4062091,0.375409957,165596,12389.7263848
2870,15126.6546138,0.37674509,166173,12831.9380584
2880,15136.0890613,0.378029759,166744,12576.0451601
2890,15306.8451163,0.379304592,167298,11556.8393734
2900,15046.4831174,0.380603802,167875,12110.1021589
2910,14799.33621,0.381885906,168443,12878.9628487
2920,15214.0746983,0.383189392,169018,12331.4369398
2930,15113.2121216,0.384545479,169603,12310.4889585
2940,14914.7076774,0.385829293,170177,11966.7236418
2950,14869.8461697,0.387093008,170746,12141.3164802
2960,15011.9346702,0.388394784,171324,12508.0787085
2970,14885.4347831,0.389705968,171932,11503.5865541
2980,15003.60277,0.39098465,172515,11944.8693724
2990,14773.2560313,0.392257345,173099,12333.503228
3000,15039.8888262,0.393549285,173683,12338.840983
3010,14654.5002851,0.394842508,174265,12602.597003
3020,14959.4662668,0.396130171,174857,12735.6551227
3030,15122.5212182,0.397379345,175433,13142.9368148
3040,14978.8460458,0.398669574,176022,12702.8078134
3050,15285.2608776,0.399983324,176598,12397.0625063
3060,15278.0579802,0.401287665,177175,12839.2082335
3070,15150.4934574,0.402607402,177750,12608.4678326
3080,15061.6039277,0.403893354,178333,12521.2025937
3090,15114.9221778,0.405234901,178898,13432.4688339
3100,15033.7291229,0.406529834,179484,13018.2705663
3110,15466.9634781,0.407805522,180069,13392.7303165
3120,15435.8052068,0.409084632,180656,13149.6302147
3130,15451.3615693,0.410380847999,181240,12794.9350359
3140,15404.2657557,0.411659101999,181799,13465.4121405
3150,15420.8857374,0.412924953999,182370,13291.1399022
3160,15333.7391767,0.414160870999,182957,13280.2115129
3170,15358.0553442,0.415439124999,183520,14077.7960719
3180,15343.3907316,0.416732346999,184096,13000.4640219
3190,15436.4482886,0.418077742999,184669,12698.8442625
3200,15396.9632076,0.419368399999,185243,12971.0752164
3210,15340.3775903,0.420641522999,185818,13579.1880459
3220,15326.8120359,0.421958693999,186401,12827.1248034
3230,15300.4703659,0.423210433999,186961,12691.4386748
3240,15301.8342658,0.424792321999,187549,13421.0927276
3250,15212.7178985,0.426032942999,188133,12903.6065833
3260,15210.3401889,0.427323171999,188717,13084.8737466
3270,15189.2043776,0.428545831999,189288,12948.9612127
3280,15583.6415284,0.429865140999,189879,13166.3423161
3290,15382.7175323,0.431146388999,190477,13132.7446276
3300,15211.9667769,0.432402405999,191058,13220.6932378
3310,15282.0436826,0.433687074999,191634,13677.3079301
3320,15540.7900958,0.434970033999,192218,12898.4130473
3330,15130.6830426,0.436229043999,192788,13247.0604855
3340,15440.0757479,0.437553912999,193368,13226.9154623
3350,15642.5699598,0.439024182999,193938,12807.46512
3360,15868.9481195,0.440310989999,194518,13014.2711911
3370,15404.6110219,0.441585395999,195085,13391.8119074
3380,15408.3814868,0.442845688999,195643,12997.2852205
3390,15197.288073,0.444128647999,196207,12623.6405445
3400,15357.9471413,0.445585232999,196795,12516.3634777
3410,15286.3490058,0.446919936999,197363,12481.0084
3420,15137.2036443,0.448199901999,197941,13413.1228944
3430,15370.1755082,0.449440522999,198515,13166.1910061
3440,15136.5780739,0.450727329999,199084,12731.9857143
3450,15185.5485117,0.452133024999,199666,13160.0236121
3460,15697.5944201,0.453410851999,200244,12988.8195406
3470,14972.1916378,0.454720324999,200823,12913.1039776
3480,15002.7438789,0.456002000999,201398,13280.318922
3490,14883.6336969,0.457320881999,201968,12860.1226965
3500,15285.0438044,0.458596997999,202547,12611.8898546
3510,14926.4152278,0.459904759999,203147,12299.9820544
3520,14900.2372721,0.461191566999,203732,13163.2588606
3530,14995.2351706,0.462482650999,204303,13618.8812566
3540,15000.0835562,0.463753207999,204874,12882.2499726
3550,15111.9399141,0.465092189,205454,13301.7075968
3560,14982.9405459,0.466393537,206038,13306.7550788
3570,15293.0582672,0.467633303,206626,12953.1665951
3580,15157.6527573,0.468942776,207211,13130.9244308
3590,14980.1838678,0.470223169,207803,13144.0613601
3600,14768.131434,0.471498002,208374,12496.7881925
3610,14732.5074418,0.472760861,208953,12510.5646638
3620,14689.2302633,0.473998488,209533,12734.6158053
3630,14646.4982254,0.475249373,210104,12623.2063551
3640,14396.6085574,0.47662556,210684,12899.971272
3650,14741.7667942,0.477898682,211247,12676.1098321
3660,14427.1414983,0.47917437,211827,12247.4976727
3670,14427.8302798,0.480464171,212390,12145.0426863
3680,14562.1717644,0.481751833,212960,12327.4229102
3690,14502.1629688,0.483083544,213537,12788.8594504
3700,14912.1150562,0.48442338,214113,13166.0272699
3710,15172.1973291,0.485797429,214692,13448.3200714
3720,15188.2617862,0.487088513,215271,12798.8962843
3730,15129.1894041,0.488371044,215852,13940.9680548
3740,15374.4881008,0.489705321,216422,12991.5661016
3750,15446.7004852,0.490959199,217007,13747.1388406
3760,15093.1577985,0.492240875,217581,13620.9508897
3770,15512.3767133,0.493480213,218153,13766.4532182
3780,15573.7756222,0.494796956,218732,13741.4455078
3790,15083.5577437,0.496121825,219320,13559.1683753
3800,15156.9293242,0.497433864,219892,13340.0353747
3810,15116.2894793,0.49871169,220467,13189.6808296
3820,15207.7755505,0.500075048,221038,13406.1508089
3830,14790.2359853,0.501379389,221619,12721.6072607
3840,15059.2486515,0.502628136,222201,13284.9238098
3850,14783.6673918,0.503917081,222764,13258.1010785
3860,14731.7410857,0.505198329,223340,12474.8576606
3870,15267.950706,0.506463326,223908,12793.4949687
3880,15150.2802051,0.507715066,224490,12960.4446848
3890,14995.3660477,0.508950982,225075,12533.240724
3900,15027.7325613,0.510171931001,225651,12771.6661891
3910,14914.6008771,0.511429230001,226216,13048.2042438
3920,14614.0525813,0.512685674001,226798,12711.1935078
3930,14864.5954923,0.513933565001,227387,12671.0425934
3940,14724.2586942,0.515172048001,227953,13062.530028
3950,14599.3661967,0.51644517,228543,12938.383061
3960,15292.1460407,0.517716582,229116,13611.5161089
3970,15353.4791764,0.518969177,229693,12672.3064604
3980,15222.0376989,0.520211509,230274,13020.4775383
3990,14959.8541543,0.521456835,230852,13006.8355014
4000,15375.8488519,0.52294806,231436,13521.1634844
4010,15288.6185955,0.524241283,232016,13209.8917673
4020,15141.1950221,0.52546993,232594,13270.5802232
4030,15272.5044264,0.526670352,233168,13091.4387206
4040,15186.6019145,0.528143188,233737,13619.1230504
4050,15427.2149786,0.529388086,234321,13361.2140758
4060,15216.1113515,0.530638971,234890,13389.2324141
4070,15088.7936967,0.531924068,235481,13482.4438555
4080,15118.3302287,0.533207027,236064,13401.2195323
4090,15089.0569675,0.534522487,236641,13495.1576036
4100,14674.1908509,0.536109935,237217,13380.8797669
4110,14858.4892078,0.537480135,237808,13186.7078762
4120,14948.1206166,0.538810135,238387,12760.1947494
4130,15051.696769,0.540162374,238952,13026.1124389
4140,14907.9864324,0.541521027,239540,13129.5850271
4150,14840.7092093,0.542807407,240133,12745.255024
4160,14917.2125354,0.544051877,240715,12934.2730944
4170,14871.4312869,0.545332269,241290,13058.8751808
4180,15044.5150258,0.546616083,241864,12923.610147
4190,15003.3515331,0.547896904,242444,13029.9132912
4200,15076.8391496,0.549144795,243018,13221.5952043
4210,14947.5503349,0.550400812,243590,12963.1252705
4220,14922.8757908,0.551659822,244162,13769.8124322
4230,14957.2500537,0.552932517,244745,12956.0425234
4240,14815.3350166,0.55434591,245319,13211.9290177
4250,15180.1203906,0.555604065,245900,13144.9768854
4260,15232.1736705,0.556887451,246485,13408.0842026
4270,14960.4324572,0.558187943,247068,12795.4245984
4280,15010.7053827,0.559511101,247640,12771.3822058
4290,14795.0675934,0.560797908,248221,13153.0201212
4300,15001.8332082,0.562092413,248796,13324.7194245
4310,14833.2562571,0.563362542,249374,13687.2831191
4320,15079.6988814,0.564665601,249948,13080.16261
4330,15215.148229,0.565934875,250525,12831.6361631
4340,15088.172916,0.567282409,251102,13700.3923965
4350,15404.171014,0.5685906,251664,13430.7886774
4360,15594.4974763,0.569855597,252245,13437.6842026
4370,15392.8192057,0.571163788,252810,13166.7359162
4380,15543.6877514,0.572700773,253400,13261.0297827
4390,15245.0868258,0.57392771,253977,13004.1368937
4400,15148.2325887,0.575142672,254568,13437.5192481
4410,15009.0307185,0.576344376,255157,13402.1548079
4420,15036.5348637,0.577699181,255734,12786.3327129
4430,15278.8870762,0.578955197,256315,13224.998134
4440,14924.7534634,0.580218056,256874,13174.8504216
4450,15183.5650245,0.581755041,257439,12968.8811398
4460,14749.0244091,0.583036717,258017,12923.4317407
4470,15186.2001609,0.584310695,258589,12674.5263576
4480,15089.611089,0.585553882,259157,12921.9737057
4490,15087.8144528,0.586878323001,259739,12917.7804126
4500,15140.6717534,0.588228424,260316,13073.5605945
4510,15358.0138548,0.589457071,260916,12775.6931628
4520,15472.9437905,0.59074174,261490,12860.8928252
4530,15489.3436315,0.592018711,262061,12740.034906
4540,15246.5075686,0.593299104,262636,12631.3769231
4550,15262.2600956,0.594572654,263192,12679.2679048
4560,14980.0518999,0.595934729,263769,12450.0772111
4570,14848.4854507,0.597151401,264347,12017.5733859
4580,14805.8220696,0.598381331,264917,13451.2898714
4590,14479.6955353,0.599604418,265489,12884.2416759
4600,14472.1738198,0.600870698,266057,12554.5561759
4610,14909.5395617,0.602094213,266647,12542.765328
4620,14499.3224928,0.603291641,267222,13694.1782037
4630,14847.4975811,0.604545947,267814,13130.0799706
4640,14870.2608769,0.605775877,268393,12737.2080612
4650,14899.8255186,0.607080218,268987,12688.8831328
4660,14744.9371394,0.608304588,269573,12413.856135
4670,14913.472879,0.609610212,270164,12978.4392727
4680,14794.7942278,0.610913698001,270754,13099.9322644
4690,15004.2683491,0.612172280001,271320,13012.6752176
4700,15168.0525138,0.613420598001,271893,12536.4231021
4710,15179.7177611,0.614773692001,272465,13515.3369136
4720,15149.7706344,0.615998917001,273052,13497.6939733
4730,15177.9242813,0.617268618,273649,13598.1128013
4740,15081.5231481,0.61851822,274240,13053.0971814
4750,15186.3646467,0.619799468001,274804,12546.6583308
4760,15217.4785952,0.621058478001,275372,13397.135335
4770,15102.6399432,0.622358543001,275948,13647.0157259
4780,14736.4346518,0.623637225001,276537,13565.5980819
4790,14975.297775,0.624848765001,277120,13300.7109585
4800,14513.9273569,0.626043628001,277694,12707.8934652
4810,14715.5337914,0.627327014001,278274,12792.9955442
4820,14993.2100906,0.628590728001,278867,13341.1047526
4830,14887.1544551,0.630093073001,279455,13500.1773068
4840,14880.8078836,0.631366196001,280023,12830.6934814
4850,14950.1400072,0.632636325001,280603,12424.3223042
4860,14914.814112,0.634062975001,281178,13331.7628998
4870,15060.7054466,0.635331821001,281760,13304.7928072
4880,15139.3552504,0.636604944001,282339,13191.9336776
4890,14910.649105,0.637865665001,282920,13179.358244
4900,14976.8159693,0.639105859001,283495,12999.6445342
4910,15081.8129643,0.640348191001,284063,13059.685668
4920,15129.7909498,0.641584964001,284632,12875.1553348
4930,15030.3020734,0.642836276001,285223,13329.2014246
4940,15347.8349711,0.644079890001,285805,13774.0602015
4950,15233.918212,0.645315807001,286390,13400.9972365
4960,15344.2911928,0.646616300002,286983,13221.6728612
4970,15294.8484122,0.647886429002,287562,13429.2518338
4980,15231.0068344,0.649159979002,288147,13918.8824863
4990,15175.0903597,0.650430108002,288731,13655.7643821
