it,funval,time,funcount,weight
0,4105.42261821,0.023795034,999,3548.3589103
10,4291.84560289,0.045177679,2100,3620.28671877
20,4316.28136776,0.062395412,3201,3955.89745196
30,4316.28136776,0.078720206,4302,3955.89745196
40,4313.58119387,0.095152768,5403,3938.00437985
50,4310.8005623,0.111448909,6504,3955.89745196
60,4336.48893794,0.127658664,7605,3955.89745196
70,4311.66046585,0.143508763,8706,3158.80533906
80,4297.5681364,0.159376395,9807,3997.46525548
90,4336.48893794,0.177594408,10908,3939.18931272
100,4303.79871164,0.193721198,12009,3955.89745196
110,4303.68556838,0.209755615,13110,3955.89745196
120,4300.79954633,0.225748978,14211,3955.89745196
130,4311.66046585,0.242141341,15312,3955.89745196
140,4335.3090232,0.258671408,16413,3985.82635605
150,4317.93511498,0.275076601,17514,3955.89745196
160,4306.49822231,0.290845018,18615,3860.44966202
170,4317.93511498,0.30722669,19716,3955.89745196
180,4328.85356101,0.325525957,20817,3642.7902448
190,4306.49822231,0.341453462,21918,3955.89745196
200,4332.11554352,0.357454522,23019,3955.89745196
210,4317.93511498,0.373905046,24120,3955.89745196
220,4322.63292144,0.389999763,25221,3955.89745196
230,4306.49822231,0.406150502,26322,3955.89745196
240,4294.54116831,0.422228968,27423,3955.89745196
250,4335.3090232,0.438170157,28524,3955.89745196
260,4336.48893794,0.454503077,29625,3955.89745196
270,4332.11554352,0.472752736,30726,3926.68774432
280,4328.85356101,0.488998414,31827,3974.95800266
290,4328.85356101,0.505266757,32928,3993.56998591
300,4303.62215268,0.521447004,34029,3955.89745196
310,4332.11554352,0.537869731,35130,4043.9093535
320,4336.48893794,0.553915695,36231,3955.89745196
330,4310.8005623,0.569971923,37332,3997.46525548
340,4330.76304043,0.586138485,38433,3925.17468873
350,4333.31883651,0.602411533,39534,3955.89745196
360,4303.62215268,0.620616289,40635,3955.89745196
370,4303.79871164,0.636680642,41736,3366.34467342
380,4294.87702984,0.6524234,42837,3955.89745196
390,4329.82931495,0.668834152,43938,3955.89745196
400,4335.3090232,0.685696078,45039,3955.89745196
410,4322.63292144,0.702199203,46140,3955.89745196
420,4328.85356101,0.718254575,47241,3955.89745196
430,4332.11554352,0.734321066,48342,3955.89745196
440,4297.5681364,0.75075149,49443,3955.89745196
450,4297.28389074,0.766920618,50544,3955.89745196
460,4336.48893794,0.78472894,51645,3976.79671917
470,4322.63292144,0.801096072,52746,3955.89745196
480,4291.16349011,0.817349448,53847,3955.89745196
490,4303.62215268,0.833153788,54948,3997.69598639
500,4303.62215268,0.849568388,56049,3955.89745196
510,4332.11554352,0.865667809,57150,3955.89745196
520,4332.11554352,0.882154256,58251,3955.89745196
530,4291.63772057,0.898166863,59352,3955.89745196
540,4310.8005623,0.914569918,60453,3968.25056148
550,4332.11554352,0.931039259,61554,3955.89745196
560,4307.52329815,0.948602536,62655,3955.89745196
570,4335.3090232,0.964705806,63756,3924.53371466
580,4311.66046585,0.981367163,64857,3955.89745196
590,4306.49822231,0.997502507,65958,3955.89745196
600,4295.30065781,1.013895725,67059,3928.2978956
610,4336.48893794,1.030353519,68160,3955.89745196
620,4310.8005623,1.04642557,69261,3997.69598639
630,4335.3090232,1.063231045,70362,3955.89745196
640,4343.52333135,1.079303523,71463,3955.89745196
650,4303.79871164,1.095807931,72564,3768.70415382
660,4336.48893794,1.113590593,73665,3955.89745196
670,4332.11554352,1.129602345,74766,3955.89745196
680,4303.79871164,1.145859142,75867,3955.89745196
690,4317.07138082,1.162032119,76968,3955.89745196
700,4312.87007677,1.178943225,78069,3955.89745196
710,4310.8005623,1.195073864,79170,3955.89745196
720,4317.93511498,1.211209207,80271,4025.27797269
730,4293.02025997,1.22760157,81372,3955.89745196
740,4310.8005623,1.243909685,82473,3955.89745196
750,4335.3090232,1.259911173,83574,3896.19134324
760,4316.28136776,1.278586347,84675,3867.1882555
770,4316.28136776,1.294553623,85776,3955.89745196
780,4332.11554352,1.310351121,86877,3955.89745196
790,4336.48893794,1.326393236,87978,3946.48366914
800,4303.68556838,1.342504631,89079,3955.89745196
810,4328.85356101,1.3585352,90180,3955.89745196
820,4335.3090232,1.374618798,91281,3955.89745196
830,4307.8802992,1.390874312,92382,3955.89745196
840,4297.5681364,1.40692883,93483,3765.09953441
850,4335.3090232,1.422695964,94584,3955.89745196
860,4335.3090232,1.441188103,95685,3955.89745196
870,4303.62215268,1.457736131,96786,3955.89745196
880,4293.02025997,1.473550308,97887,3955.89745196
890,4326.78231701,1.489961915,98988,3944.05198011
900,4316.28136776,1.506726336,100089,3955.89745196
910,4311.66046585,1.522824046,101190,3955.89745196
920,4336.48893794,1.538745991,102291,3955.89745196
930,4328.85356101,1.554997656,103392,3955.89745196
940,4328.85356101,1.571109478,104493,3955.89745196
950,4340.76211817,1.587056227,105594,3955.89745196
960,4314.75516765,1.604851291,106695,3955.89745196
970,4310.8005623,1.621355699,107796,3955.89745196
980,4303.62215268,1.637685625,108897,3831.80593242
990,4303.62215268,1.654011274,109998,3981.69357439
1000,4305.47892255,1.670039704,111099,4157.71737746
1010,4316.14423096,1.686261005,112200,3981.69357439
1020,4324.11912842,1.702104262,113301,3981.69357439
1030,4311.24785314,1.717710171,114402,3981.69357439
1040,4324.11912842,1.733768965,115503,3981.69357439
1050,4303.62215268,1.752270085,116604,3981.69357439
1060,4303.62215268,1.768338287,117705,3981.69357439
1070,4303.62215268,1.784648968,118806,3981.69357439
1080,4324.11912842,1.801088373,119907,3345.27087202
1090,4316.14423096,1.816914524,121008,3981.69357439
1100,4303.62215268,1.832775314,122109,3981.69357439
1110,4313.25820891,1.849297684,123210,3981.69357439
1120,4313.40529813,1.865410362,124311,3988.83537616
1130,4324.11912842,1.881456753,125412,3981.69357439
1140,4303.62215268,1.899759442,126513,3981.69357439
1150,4303.62215268,1.915601416,127614,3981.69357439
1160,4316.14423096,1.932116088,128715,3981.69357439
1170,4323.28592129,1.948466114,129816,3981.69357439
1180,4304.45535981,1.964553133,130917,3981.69357439
1190,4331.93179215,1.98089375,132018,3960.59587409
1200,4324.11912842,1.997003434,133119,3981.69357439
1210,4313.25820891,2.012892021,134220,3802.27281823
1220,4303.62215268,2.029357512,135321,3981.69357439
1230,4305.47892255,2.048676304,136422,3546.13909888
1240,4313.25820891,2.064364322,137523,3981.69357439
1250,4303.62215268,2.080710071,138624,3981.69357439
1260,4303.62215268,2.097325241,139725,3981.69357439
1270,4313.25820891,2.113584177,140826,4007.48969681
1280,4304.5934391,2.129634846,141927,3981.69357439
1290,4303.62215268,2.145857859,143028,3981.69357439
1300,4316.14423096,2.162084293,144129,3981.69357439
1310,4324.11912842,2.179622339,145230,3981.69357439
1320,4305.38344843,2.195622972,146331,3981.69357439
1330,4303.62215268,2.211757033,147432,3981.69357439
1340,4319.04081619,2.22739245,148533,3981.69357439
1350,4303.62215268,2.244094006,149634,3962.08669742
1360,4303.62215268,2.260367054,150735,3981.69357439
1370,4307.33569242,2.276913372,151836,3981.69357439
1380,4303.62215268,2.292838738,152937,3981.69357439
1390,4322.65339999,2.310618835,154038,3981.69357439
1400,4303.62215268,2.32690514,155139,3940.90697227
1410,4303.62215268,2.342724875,156240,3981.69357439
1420,4324.11912842,2.358611752,157341,2942.23946965
1430,4313.25820891,2.374976745,158442,4061.98930135
1440,4313.43004805,2.391320356,159543,3981.69357439
1450,4303.62215268,2.407368458,160644,3981.69357439
1460,4303.62215268,2.423404158,161745,3981.69357439
1470,4313.25820891,2.441085895,162846,3981.69357439
1480,4313.25820891,2.45706258,163947,3981.69357439
1490,4309.29733498,2.472902844,165048,3981.69357439
1500,4325.0264906,2.489328136,166149,4023.49210881
1510,4303.62215268,2.505646942,167250,3981.69357439
1520,4324.11912842,2.521630896,168351,3981.69357439
1530,4317.73578094,2.538079281,169452,3886.24578445
1540,4307.33569242,2.553854541,170553,3981.69357439
1550,4307.33569242,2.572433066,171654,3981.69357439
1560,4303.62215268,2.588313528,172755,3981.69357439
1570,4316.14423096,2.604906032,173856,3981.69357439
1580,4310.75858752,2.621125196,174957,3981.69357439
1590,4307.33569242,2.637127967,176058,3981.69357439
1600,4305.47892255,2.652790754,177159,3981.69357439
1610,4303.62215268,2.668728522,178260,3981.69357439
1620,4303.62215268,2.686874262,179361,3981.69357439
1630,4316.14423096,2.702832985,180462,3958.05174495
1640,4316.14423096,2.719421213,181563,3981.69357439
1650,4316.14423096,2.735288846,182664,3981.69357439
1660,4316.14423096,2.75137672,183765,3981.69357439
1670,4303.62215268,2.767361957,184866,3691.22508265
1680,4303.62215268,2.783638853,185967,3847.91775857
1690,4313.25820891,2.79981183,187068,3981.69357439
1700,4343.63051808,2.817086441,188169,3981.69357439
1710,4316.14423096,2.833016939,189270,4025.21793242
1720,4324.11912842,2.849109517,190371,3981.69357439
1730,4324.11912842,2.865304305,191472,3981.69357439
1740,4304.45535981,2.88198405,192573,3981.69357439
1750,4303.62215268,2.897714834,193674,4025.69952515
1760,4303.62215268,2.913593586,194775,4024.82361655
1770,4303.62215268,2.931608464,195876,3981.69357439
1780,4324.11912842,2.947294344,196977,3649.46211497
1790,4305.47892255,2.963210729,198078,3981.69357439
1800,4303.62215268,2.978814073,199179,3981.69357439
1810,4313.25820891,2.99508541,200280,4059.08194166
1820,4303.62215268,3.011240853,201381,3981.69357439
1830,4324.11912842,3.027775197,202482,3981.69357439
1840,4303.62215268,3.043635132,203583,3981.69357439
1850,4348.89106702,3.061165907,204684,3981.69357439
1860,4316.14423096,3.076972813,205785,3981.69357439
1870,4304.45535981,3.093626044,206886,3981.69357439
1880,4313.25820891,3.10958434,207987,3981.69357439
1890,4307.33569242,3.125544346,209088,3981.69357439
1900,4324.11912842,3.141568073,210189,3981.69357439
1910,4313.25820891,3.157611472,211290,3981.69357439
1920,4303.62215268,3.173650166,212391,4068.74229045
1930,4313.25820891,3.189994204,213492,3981.69357439
1940,4313.25820891,3.207787558,214593,3981.69357439
1950,4303.62215268,3.224346278,215694,3981.69357439
1960,4303.62215268,3.240780551,216795,3971.14472424
1970,4303.62215268,3.256740985,217896,3981.69357439
1980,4324.11912842,3.273015316,218997,3981.69357439
1990,4303.62215268,3.289115592,220098,3981.69357439
2000,4303.62215268,3.305383508,221199,3981.69357439
2010,4316.14423096,3.321835743,222300,3923.2741591
2020,4316.14423096,3.339923322,223401,3981.69357439
2030,4304.53679335,3.35600863,224502,3981.69357439
2040,4303.62215268,3.372059298,225603,3981.69357439
2050,4303.62215268,3.388318661,226704,3981.69357439
2060,4304.57443562,3.404331696,227805,3981.69357439
2070,4303.62215268,3.420570532,228906,3981.69357439
2080,4304.45535981,3.436737094,230007,4067.11143325
2090,4324.11912842,3.453423255,231108,4048.39496583
2100,4307.00797128,3.471013474,232209,3981.69357439
2110,4317.61094068,3.487383599,233310,3981.69357439
2120,4307.33569242,3.504340036,234411,3981.69357439
2130,4324.11912842,3.520293627,235512,3981.69357439
2140,4324.11912842,3.536492691,236613,4051.42770281
2150,4303.62215268,3.5522517,237714,3981.69357439
2160,4316.14423096,3.568250194,238815,3981.69357439
2170,4305.47892255,3.584100293,239916,3981.69357439
2180,4303.62215268,3.602479532,241017,3981.69357439
2190,4324.11912842,3.618499837,242118,3981.69357439
2200,4303.62215268,3.634824203,243219,3981.69357439
2210,4303.62215268,3.651014286,244320,3981.69357439
2220,4316.14423096,3.667029032,245421,3981.69357439
2230,4309.53534085,3.683196022,246522,3941.59504178
2240,4303.62215268,3.698913121,247623,3860.57235232
2250,4324.11912842,3.716379748,248724,3981.69357439
2260,4307.32654259,3.732334195,249825,3543.4418433
2270,4316.14423096,3.748352789,250926,3469.75661663
2280,4324.11912842,3.765824121,252027,3981.69357439
2290,4313.25820891,3.781911996,253128,3981.69357439
2300,4313.25820891,3.79774114,254229,3981.69357439
2310,4316.14423096,3.813781973,255330,3981.69357439
2320,4303.62215268,3.829744973,256431,3981.69357439
2330,4313.25820891,3.848240961,257532,3363.59710877
2340,4316.14423096,3.864292057,258633,3981.69357439
2350,4303.62215268,3.880020703,259734,3876.06385863
2360,4325.7055097,3.896355333,260835,3981.69357439
2370,4324.11912842,3.912415837,261936,3808.44345356
2380,4307.33569242,3.928621743,263037,3981.69357439
2390,4305.47892255,3.944370061,264138,3981.69357439
2400,4303.62215268,3.962505537,265239,3981.69357439
2410,4338.32694355,3.978709732,266340,3981.69357439
2420,4316.14423096,3.995192329,267441,3991.47926168
2430,4316.14423096,4.011414914,268542,3991.47926168
2440,4316.14423096,4.027581477,269643,3742.03443973
2450,4318.00100082,4.043478191,270744,3991.47926168
2460,4316.14423096,4.059667847,271845,3991.47926168
2470,4316.14423096,4.07777852,272946,3991.47926168
2480,4316.14423096,4.093926266,274047,3949.28386109
2490,4316.14423096,4.110038944,275148,3991.47926168
2500,4354.12333041,4.126376568,276249,3991.47926168
2510,4316.14423096,4.142710342,277350,3991.47926168
2520,4316.14423096,4.158784104,278451,3991.47926168
2530,4318.00100082,4.176297773,279552,3991.47926168
2540,4316.14423096,4.192565689,280653,3991.47926168
2550,4316.14423096,4.208523557,281754,3991.47926168
2560,4316.14423096,4.224754694,282855,3991.47926168
2570,4345.47679099,4.240686474,283956,3991.47926168
2580,4316.14423096,4.256570357,285057,3991.47926168
2590,4316.14423096,4.272958871,286158,3991.47926168
2600,4316.14423096,4.290862131,287259,3991.47926168
2610,4318.11626262,4.30675414,288360,3991.47926168
2620,4324.56055534,4.322737239,289461,3991.47926168
2630,4316.14423096,4.339294248,290562,3991.47926168
2640,4316.14423096,4.355562164,291663,3991.47926168
2650,4316.14423096,4.371596154,292764,3991.47926168
2660,4316.14423096,4.387545896,293865,3991.47926168
2670,4316.14423096,4.405192565,294966,4056.76579873
2680,4316.14423096,4.421441237,296067,3991.47926168
2690,4316.14423096,4.437639017,297168,3991.47926168
2700,4316.14423096,4.45419902,298269,3991.47926168
2710,4316.14423096,4.470379267,299370,3991.47926168
2720,4316.14423096,4.486224235,300471,4012.88614828
2730,4316.14423096,4.502486164,301572,3991.47926168
2740,4316.14423096,4.518364915,302673,3991.47926168
2750,4316.14423096,4.536444368,303774,3991.47926168
2760,4316.14423096,4.552329962,304875,3960.13518581
2770,4333.43637526,4.568325463,305976,3991.47926168
2780,4316.14932083,4.584415047,307077,3991.47926168
2790,4316.14423096,4.60069622,308178,3991.47926168
2800,4316.14423096,4.616619876,309279,3991.47926168
2810,4316.14423096,4.63293013,310380,3991.19791012
2820,4316.14423096,4.650885564,311481,3991.47926168
2830,4316.14423096,4.666847708,312582,3991.47926168
2840,4316.14423096,4.682716196,313683,3991.47926168
2850,4335.24303941,4.698959308,314784,3991.47926168
2860,4316.14423096,4.715129719,315885,3936.78298178
2870,4316.14423096,4.731313388,316986,3991.47926168
2880,4316.14423096,4.746992426,318087,4033.0470652
2890,4316.14423096,4.762861769,319188,3991.47926168
2900,4316.14423096,4.780696177,320289,3974.56997808
2910,4316.14423096,4.796501372,321390,3991.47926168
2920,4316.14423096,4.812666224,322491,3991.47926168
2930,4316.14423096,4.828355097,323592,3991.47926168
2940,4316.14423096,4.844039267,324693,3991.47926168
2950,4318.00100082,4.860562064,325794,3991.47926168
2960,4316.14423096,4.876782938,326895,3991.47926168
2970,4318.00100082,4.892964469,327996,3991.47926168
2980,4316.14423096,4.910801015,329097,3991.47926168
2990,4340.49641696,4.926820465,330198,3862.53873126
3000,4316.14423096,4.942763792,331299,3991.47926168
3010,4316.14423096,4.958361576,332400,4030.5039625
3020,4316.14423096,4.974194141,333501,2856.82817524
3030,4318.00100082,4.990563411,334602,3991.47926168
3040,4316.14423096,5.006232613,335703,3991.47926168
3050,4316.14423096,5.022408584,336804,3991.47926168
3060,4316.14423096,5.040671928,337905,4012.3785289
3070,4316.14423096,5.05685132,339006,4053.6373955
3080,4316.14423096,5.073384809,340107,3991.47926168
3090,4316.14423096,5.08929649,341208,3991.47926168
3100,4318.00100082,5.105617007,342309,3991.47926168
3110,4328.14332583,5.121640733,343410,3991.47926168
3120,4316.14423096,5.138120765,344511,3991.47926168
3130,4316.14423096,5.154289465,345612,3991.47926168
3140,4316.14423096,5.17208624,346713,3991.47926168
3150,4319.92051409,5.18779051,347814,3991.47926168
3160,4316.14423096,5.204133693,348915,3991.47926168
3170,4318.00100082,5.220713796,350016,3991.47926168
3180,4316.14423096,5.236994114,351117,3991.47926168
3190,4316.14423096,5.253374503,352218,4030.5039625
3200,4316.14423096,5.269317403,353319,3991.47926168
3210,4317.49116426,5.285561799,354420,4076.00943073
3220,4316.14423096,5.301865638,355521,3948.98548221
3230,4316.14423096,5.319849725,356622,3976.5527345
3240,4318.00100082,5.335553567,357723,3991.47926168
3250,4330.41333632,5.351480216,358824,3991.47926168
3260,4316.14423096,5.36788156,359925,3991.47926168
3270,4316.14423096,5.383720541,361026,3991.47926168
3280,4318.00100082,5.401109763,362127,3991.47926168
3290,4332.50403899,5.417389225,363228,3991.47926168
3300,4347.0422561,5.433637897,364329,3991.47926168
3310,4331.64413544,5.449657347,365430,3991.47926168
3320,4333.65592666,5.466938372,366531,3901.7688836
3330,4316.14423096,5.48342653,367632,3991.47926168
3340,4316.14423096,5.499988244,368733,3991.47926168
3350,4316.14423096,5.515711758,369834,3991.47926168
3360,4316.14423096,5.531586234,370935,3933.0598464
3370,4316.14423096,5.547955932,372036,3991.47926168
3380,4347.24645596,5.563994626,373137,3991.47926168
3390,4316.14423096,5.579721133,374238,3991.47926168
3400,4316.14423096,5.597416554,375339,3991.47926168
3410,4316.14423096,5.613787534,376440,3991.47926168
3420,4316.14423096,5.629788594,377541,3991.47926168
3430,4316.14423096,5.645720375,378642,3991.47926168
3440,4322.19824724,5.661714593,379743,3991.47926168
3450,4316.14423096,5.677872602,380844,3991.47926168
3460,4318.00100082,5.693834746,381945,3991.47926168
3470,4316.14423096,5.710109077,383046,3991.47926168
3480,4316.14423096,5.72610244,384147,3991.47926168
3490,4316.14423096,5.743789308,385248,3991.47926168
3500,4316.14423096,5.75974461,386349,3991.47926168
3510,4318.00100082,5.775816233,387450,3991.47926168
3520,4318.00100082,5.791975098,388551,3991.47926168
3530,4316.14423096,5.808089914,389652,3991.47926168
3540,4316.14423096,5.824342007,390753,3991.47926168
3550,4318.00100082,5.840205791,391854,4033.0470652
3560,4316.14423096,5.856220109,392955,3878.05307889
3570,4331.06809464,5.872050536,394056,3991.47926168
3580,4318.00100082,5.890712026,395157,3991.47926168
3590,4316.14423096,5.907120212,396258,3991.47926168
3600,4318.00100082,5.923539944,397359,3594.67359676
3610,4316.14423096,5.939428104,398460,3854.21223595
3620,4316.14423096,5.95561391,399561,3991.47926168
3630,4316.14423096,5.971685534,400662,3991.47926168
3640,4316.14423096,5.98817754,401763,3991.47926168
3650,4316.14423096,6.004283803,402864,3991.47926168
3660,4316.14423096,6.020526059,403965,3216.69661432
3670,4316.14423096,6.038765027,405066,3991.47926168
3680,4316.14423096,6.054936294,406167,3991.47926168
3690,4316.14423096,6.071320532,407268,3991.47926168
3700,4316.14423096,6.087186455,408369,3991.47926168
3710,4316.14423096,6.104049664,409470,3998.62106346
3720,4316.14423096,6.119930126,410571,3991.47926168
3730,4316.14423096,6.136012013,411672,3991.47926168
3740,4316.14423096,6.151928398,412773,3927.25223068
3750,4316.14423096,6.167892681,413874,3991.47926168
3760,4318.00100082,6.184345343,414975,3991.47926168
3770,4316.14423096,6.202094221,416076,3991.47926168
3780,4316.14423096,6.218227426,417177,3991.47926168
3790,4316.14423096,6.233898766,418278,3991.47926168
3800,4316.14423096,6.250215862,419379,3991.47926168
3810,4316.14423096,6.266482923,420480,3991.47926168
3820,4326.32517531,6.282280849,421581,4034.32795229
3830,4316.14423096,6.298594096,422682,3991.47926168
3840,4316.14423096,6.314363369,423783,3991.47926168
3850,4316.14423096,6.330562006,424884,3991.47926168
3860,4316.14423096,6.346726858,425985,3991.47926168
3870,4316.14423096,6.364676305,427086,3991.47926168
3880,4316.14423096,6.381105446,428187,3991.47926168
3890,4316.14423096,6.397316057,429288,3991.47926168
3900,4316.14423096,6.413236719,430389,3991.47926168
3910,4316.14423096,6.429936564,431490,3845.12792338
3920,4316.14423096,6.445966705,432591,3991.47926168
3930,4316.14423096,6.461824501,433692,3956.29039984
3940,4316.14423096,6.478109095,434793,3991.47926168
3950,4335.64611335,6.493826194,435894,3991.47926168
3960,4316.14423096,6.510116347,436995,3991.47926168
3970,4316.14423096,6.526122539,438096,3991.47926168
3980,4316.14423096,6.542192024,439197,3991.47926168
3990,4318.35400569,6.557898431,440298,3991.47926168
4000,4318.00100082,6.574484948,441399,3951.93322817
4010,4318.00100082,6.590609173,442500,3991.47926168
4020,4316.14423096,6.606612372,443601,3991.47926168
4030,4316.14423096,6.622847359,444702,3991.47926168
4040,4316.14423096,6.639539507,445803,3991.47926168
4050,4318.00100082,6.65606658,446904,3991.47926168
4060,4316.14423096,6.673965136,448005,3991.47926168
4070,4335.09567496,6.689928563,449106,3991.47926168
4080,4327.86322655,6.705830408,450207,3991.47926168
4090,4316.14423096,6.722148787,451308,3991.47926168
4100,4316.14423096,6.737992472,452409,3991.47926168
4110,4316.14423096,6.753772864,453510,3991.47926168
4120,4316.14423096,6.769469436,454611,3288.86545366
4130,4316.14423096,6.785204924,455712,3991.47926168
4140,4316.14423096,6.801293226,456813,3991.47926168
4150,4316.14423096,6.818153441,457914,3991.47926168
4160,4316.14423096,6.835861692,459015,3991.47926168
4170,4316.14423096,6.851789624,460116,3991.47926168
4180,4328.27409508,6.867822331,461217,3998.62106346
4190,4316.14423096,6.884156961,462318,3991.47926168
4200,4316.14423096,6.900541626,463419,3991.47926168
4210,4316.14423096,6.916638053,464520,3991.47926168
4220,4316.14423096,6.932902548,465621,4329.40672797
4230,4316.14423096,6.949485216,466722,3953.80672774
4240,4316.14423096,6.965694971,467823,3991.47926168
4250,4316.14423096,6.981901305,468924,3991.47926168
4260,4334.48913379,7.000283109,470025,3991.47926168
4270,4316.14423096,7.016553591,471126,3991.47926168
4280,4349.0621053,7.032455009,472227,3991.47926168
4290,4316.14423096,7.048405179,473328,3991.47926168
4300,4318.00100082,7.064256561,474429,3991.47926168
4310,4316.14423096,7.08004123,475530,3991.47926168
4320,4318.00100082,7.096529815,476631,3991.47926168
4330,4316.14423096,7.112568937,477732,3946.62407264
4340,4330.00024746,7.128673062,478833,3991.47926168
4350,4316.14423096,7.14666784,479934,3991.47926168
4360,4318.00100082,7.162751438,481035,3991.47926168
4370,4335.23299967,7.178753354,482136,3991.47926168
4380,4316.14423096,7.194661186,483237,3991.47926168
4390,4316.14423096,7.210435591,484338,3672.79606254
4400,4316.14423096,7.226800584,485439,4033.27779611
4410,4319.56868709,7.24291369,486540,3991.47926168
4420,4316.14423096,7.258916034,487641,3991.47926168
4430,4338.40186157,7.274883738,488742,3991.47926168
4440,4316.14423096,7.293096619,489843,3974.77112245
4450,4318.00100082,7.309683136,490944,3906.06140283
4460,4316.14423096,7.325668373,492045,3991.47926168
4470,4319.56359721,7.341623675,493146,3991.47926168
4480,4316.14423096,7.358007485,494247,3991.47926168
4490,4316.14423096,7.374354089,495348,3991.47926168
4500,4316.14423096,7.39119335,496449,3812.05850552
4510,4316.14423096,7.407492485,497550,3991.47926168
4520,4316.14423096,7.425682701,498651,3991.47926168
4530,4316.14423096,7.441719684,499752,3424.21642672
4540,4316.14423096,7.457844764,500853,3861.42967829
4550,4318.00100082,7.473671342,501954,3991.47926168
4560,4316.14423096,7.489644177,503055,3991.47926168
4570,4316.14423096,7.505873604,504156,3991.47926168
4580,4316.14423096,7.521774594,505257,3991.47926168
4590,4316.14423096,7.538013857,506358,3991.47926168
4600,4316.14423096,7.553752339,507459,3867.7105353
4610,4316.14423096,7.571421246,508560,3991.47926168
4620,4316.14423096,7.587689162,509661,3991.47926168
4630,4316.14423096,7.603713316,510762,3877.08013727
4640,4318.00100082,7.619687434,511863,3991.47926168
4650,4316.14423096,7.635610234,512964,3991.47926168
4660,4316.14423096,7.651672449,514065,4014.86146357
4670,4316.14423096,7.667454551,515166,4034.22590161
4680,4316.14423096,7.683686544,516267,3991.47926168
4690,4318.41170955,7.700075914,517368,4076.89712054
4700,4316.14423096,7.718323008,518469,3957.66069448
4710,4316.14423096,7.734332621,519570,3881.08103622
4720,4316.14423096,7.750300752,520671,3991.47926168
4730,4337.94624194,7.766250494,521772,3991.47926168
4740,4316.14423096,7.782105297,522873,3903.56963797
4750,4316.14423096,7.798350548,523974,3885.84954593
4760,4316.14423096,7.814055673,525075,3976.5527345
4770,4318.00100082,7.830255592,526176,3991.47926168
4780,4316.14423096,7.846236553,527277,3991.47926168
4790,4316.14423096,7.864306599,528378,3991.47926168
4800,4322.68614384,7.880034389,529479,3991.47926168
4810,4316.14423096,7.896240296,530580,3991.47926168
4820,4341.42279876,7.913685113,531681,3991.47926168
4830,4316.14423096,7.93039009,532782,3991.47926168
4840,4316.14423096,7.94627825,533883,3991.47926168
4850,4316.14423096,7.962280593,534984,3991.47926168
4860,4316.14423096,7.978245303,536085,3991.47926168
4870,4316.14423096,7.994496541,537186,3991.47926168
4880,4316.14423096,8.010501023,538287,3991.47926168
4890,4316.14423096,8.026518334,539388,3991.47926168
4900,4318.00100082,8.042718254,540489,3991.47926168
4910,4316.14423096,8.0590717,541590,3991.47926168
4920,4316.14423096,8.075054799,542691,3991.47926168
4930,4316.14423096,8.091005397,543792,3991.47926168
4940,4322.1955344,8.107540596,544893,3991.47926168
4950,4316.14423096,8.124074084,545994,3991.47926168
4960,4316.14423096,8.141795592,547095,3991.47926168
4970,4316.14423096,8.158009196,548196,3991.47926168
4980,4318.00100082,8.174143685,549297,3991.47926168
4990,4316.14423096,8.190376533,550398,3991.47926168
