it,funval,time,funcount,weight
0,26127.1799585,0.00540595999973,641,25547.5364711
10,27910.455992,0.0119161199991,1185,24722.4728717
20,26768.0773591,0.0184566429989,1735,26223.8189775
30,26624.1288397,0.0249377229984,2281,25781.1781208
40,26378.534076,0.0316018379981,2823,27189.6495143
50,26488.1070469,0.0371561929978,3370,27349.9598067
60,27466.2620677,0.0429380599981,3924,26902.3144841
70,26849.1543213,0.0483204999982,4478,27470.6819694
80,27225.4780082,0.0549131969983,5027,27473.2703795
90,27253.5266611,0.0610521549979,5580,28868.3349028
100,27467.7434584,0.0674524079977,6127,27706.9856532
110,27128.3888424,0.0726214489978,6673,28889.3093251
120,27415.5165466,0.0783092329984,7219,27957.6482152
130,27284.6378112,0.0837002249991,7767,29080.7306346
140,27526.9671598,0.0891527999993,8310,29433.1423202
150,27317.9833875,0.0945664579995,8862,29054.5254335
160,27280.6897015,0.0999270869997,9410,28469.4466977
170,27615.6696981,0.10534545,9953,28745.9036262
180,27443.2613985,0.111644776999,10504,29196.1251096
190,27621.7184285,0.117702051999,11058,29044.6061359
200,27347.5517149,0.123441580999,11610,29575.6932216
210,27298.723192,0.129900849998,12164,29117.142276
220,27464.7064055,0.135063475998,12710,27985.1334507
230,27360.4154769,0.141175062999,13262,28640.4472606
240,27589.9953962,0.147470540999,13811,28667.8654908
250,27770.4125214,0.153962311999,14365,29187.5752545
260,27859.8837241,0.160425857999,14910,28790.3877884
270,27914.6278525,0.166789761,15462,28360.6053372
280,27878.9006605,0.173234062,16006,29525.5506044
290,27865.3318659,0.179671521,16560,28965.3945689
300,27898.8208549,0.186266784001,17115,29141.6441166
310,27834.8364824,0.192326626001,17658,29532.5580959
320,27996.4410467,0.198561805001,18213,29685.2078912
330,27996.4686174,0.204056717001,18758,29006.9507771
340,27910.3792289,0.209221481001,19308,29206.3219312
350,27650.0255247,0.214450393,19858,29207.6856542
360,27671.7111781,0.220752714,20410,29152.7478748
370,27755.103647,0.226945983,20966,28756.2278127
380,27617.0101685,0.233110171001,21523,29091.7545616
390,27815.1708701,0.238249703001,22074,29427.3113917
400,27727.8645513,0.243615464002,22624,29310.0276678
410,27682.8175339,0.248768681002,23173,29038.0308902
420,27680.0328023,0.254939712002,23726,29419.2323363
430,27504.0821473,0.261445595002,24271,28823.7508912
440,27536.7209168,0.267889042003,24822,28789.1000119
450,27498.2821248,0.273175687003,25373,28965.4285991
460,27530.8248861,0.279703808003,25919,28499.0499756
470,27449.9368033,0.285877833003,26461,28972.1332298
480,27384.9731623,0.292028337002,27016,29037.891383
490,27462.5813316,0.298245555003,27566,28987.9129759
500,27707.5721085,0.304732194003,28110,28569.4501437
510,27773.8983174,0.311137579002,28657,28962.9887914
520,27757.9929918,0.317182881003,29206,28792.5274589
530,27429.8610509,0.323669520003,29759,29254.920501
540,27622.671419,0.329506982003,30308,28668.9868537
550,27540.6932102,0.334958701003,30856,28679.794563
560,27352.1290591,0.340223964004,31401,28954.3561755
570,27415.886506,0.345420802004,31951,28866.9997564
580,27263.0421567,0.351637165004,32500,28344.3279449
590,27327.9980143,0.357959585004,33050,28633.5016142
600,27526.2084394,0.363630263004,33602,28733.0662913
610,27442.1174491,0.369057178003,34143,28643.0480905
620,27158.6010693,0.374291650003,34699,28716.465764
630,27416.5024621,0.379482928003,35247,28459.6729377
640,27338.4272279,0.385461515003,35794,28618.1259736
650,27482.4898604,0.390883298002,36341,28923.8965593
660,27467.0645288,0.397185191002,36889,28548.2623726
670,27621.2696514,0.402835341002,37434,28763.6370505
680,27600.6878122,0.408449140002,37985,28882.4583142
690,27541.0494216,0.414016325001,38540,29133.066725
700,27699.145265,0.420245517002,39092,29286.0193482
710,27709.3497638,0.425600586002,39640,29013.3929769
720,27724.1743411,0.430932562002,40185,29012.008562
730,27723.8064581,0.437266957002,40733,28879.4207728
740,27622.756492,0.443491445001,41278,28975.5497206
750,27442.0763722,0.449680437001,41824,28794.0112328
760,27442.9508321,0.455792452001,42366,28598.3323277
770,27537.3752124,0.461386152002,42915,28684.7491484
780,27687.9781062,0.467543498002,43463,28939.6559948
790,27614.5259082,0.474014741001,44014,28959.2997304
800,27670.1476962,0.480511644001,44566,28892.7660956
810,27669.0858866,0.487049174001,45117,28981.0995985
820,27730.9349562,0.493274517002,45667,29214.5763195
830,27702.9521692,0.498637284002,46218,29182.8991569
840,27650.2709392,0.504785649003,46768,28816.0408096
850,27559.8569997,0.510829667002,47316,28986.2772796
860,27603.6767749,0.516996850002,47866,28960.3335943
870,27577.6993436,0.522303595002,48422,28920.8945972
880,27498.9058861,0.527761729002,48963,28990.1169049
890,27473.2702955,0.533118509002,49516,28843.0383664
900,27524.9143907,0.538624112002,50063,28789.7445011
910,27454.5628977,0.544178040002,50616,28854.6038509
920,27572.0365172,0.549959480002,51178,28747.0453015
930,27411.0847733,0.555225597002,51718,28836.4069334
940,27279.9161598,0.561728060002,52269,28737.9431166
950,27376.4700011,0.567109644002,52820,28711.8094051
960,27432.758836,0.572412967002,53376,28689.7535324
970,27679.378736,0.577713297002,53916,28895.4436281
980,27636.5892987,0.582842138002,54459,28814.5201552
990,27638.6896125,0.588074899002,55009,28788.4299638
1000,27505.1837986,0.593379078002,55562,28599.0223499
1010,27402.889896,0.598503642002,56110,28839.6034142
1020,27276.5193533,0.603732982002,56659,28648.3962321
1030,27267.2175351,0.608790405002,57198,28735.9303677
1040,27324.6422454,0.614067642002,57745,28402.6898115
1050,27213.7912437,0.621188490002,58294,28275.6158423
1060,27158.390414,0.627465579003,58848,28551.1910647
1070,27116.7780057,0.633587430003,59397,28474.6775659
1080,27216.2408997,0.642666929003,59936,28247.2050864
1090,27193.140032,0.648617719004,60488,28442.5087812
1100,27387.8324165,0.654293101004,61040,28585.0833357
1110,27567.6340262,0.659927856003,61589,28522.713511
1120,27201.8129572,0.665722552004,62134,28572.6016835
1130,27274.1131523,0.671065647004,62676,28469.7399455
1140,27279.5652604,0.676306533004,63232,28446.2674468
1150,27207.1021519,0.681735586004,63793,28495.8970519
1160,27192.1148794,0.686854591004,64342,27993.8364038
1170,27296.5628494,0.693127404003,64887,27963.8493894
1180,27219.4896458,0.699710265003,65439,28610.7131209
1190,27090.3426251,0.706034396003,65990,28426.7873685
1200,27410.4874753,0.712428235003,66542,28261.6200936
1210,27343.0994659,0.718870826003,67091,28555.0161121
1220,27605.4396848,0.725217195002,67645,28606.932822
1230,27374.0877273,0.730594931003,68191,28750.7374158
1240,27349.3367207,0.736812149003,68741,28559.8220348
1250,27318.8410258,0.743276122002,69293,28829.4378798
1260,27219.8723576,0.749282507003,69840,28343.1094272
1270,27185.8072036,0.755430017003,70392,28747.8131108
1280,27306.4785306,0.761916656003,70934,28203.4334923
1290,27322.8247009,0.768022256003,71486,28766.8223435
1300,27585.419223,0.774215953003,72037,28599.7965151
1310,27249.1068974,0.780372871003,72581,28734.5319911
1320,27469.6246673,0.785874198004,73132,28827.4159045
1330,27241.1574503,0.791969107003,73688,29005.1802533
1340,27116.395898,0.797652187003,74232,28409.2798195
1350,27155.7044612,0.803828350004,74779,28519.1697959
1360,27080.3296301,0.810103729003,75319,28689.617358
1370,27051.647899,0.815542619003,75863,28411.0314212
1380,27191.3324555,0.821762402004,76418,28424.5908228
1390,27161.4153147,0.827727732003,76962,28485.8835305
1400,27130.7935628,0.834299046003,77511,28366.8298538
1410,27078.1818909,0.839789254003,78054,28272.8477599
1420,27055.7269595,0.845959858004,78602,28517.7866894
1430,27250.5552362,0.851186632004,79148,28138.569481
1440,27210.6770868,0.857333287004,79694,28262.7704162
1450,27472.5818121,0.863741238004,80241,28412.8712047
1460,27396.0945695,0.869831870004,80789,28020.662821
1470,27453.9656388,0.875666766004,81337,28507.5523965
1480,27395.0590092,0.882600730003,81878,28287.7817876
1490,27290.3645367,0.887813391003,82428,28360.0346255
1500,27602.821346,0.892964043003,82984,28087.2356326
1510,27368.8357937,0.898379839004,83535,28205.474739
1520,27400.1721211,0.904703970004,84077,28085.7569217
1530,27560.9570982,0.909980779003,84626,28367.8996342
1540,27783.483436,0.916347247004,85179,28430.5880481
1550,27663.5421324,0.922762468003,85737,28036.8767305
1560,27541.7492888,0.928925374003,86293,28389.3350556
1570,27602.6561068,0.935149434004,86843,28410.3675669
1580,27359.1535439,0.941308491003,87388,28483.5772822
1590,27481.8304638,0.946569477002,87939,28162.4121981
1600,27519.8620717,0.952102878003,88482,28171.3614721
1610,27545.6275665,0.958297430003,89027,28172.639942
1620,27630.9271991,0.964426979002,89578,28487.699275
1630,27431.4432738,0.970033936002,90127,28547.369204
1640,27505.4010047,0.976163912002,90671,28439.701352
1650,27558.2809737,0.981822188003,91222,28557.6099768
1660,27594.6120305,0.987974830003,91764,28497.9244619
1670,27632.9043038,0.994181356003,92311,28429.404422
1680,27602.6378977,1.000272844,92856,28254.7064437
1690,27826.9418684,1.0064922,93414,28227.753024
1700,27736.4992884,1.011773713,93968,28939.3807155
1710,27902.3781803,1.017092432,94520,28744.1624609
1720,28042.7027897,1.023457618,95071,28983.3374102
1730,27852.2494033,1.029408835,95620,28833.6330499
1740,27974.3802562,1.0345133,96169,28513.4083801
1750,27983.3900165,1.040301155,96717,28647.135964
1760,27973.5214176,1.045736195,97272,28368.8448206
1770,28027.405181,1.051867455,97823,28605.6207646
1780,27986.3416687,1.057110907,98375,28579.0577354
1790,28063.7419006,1.063272957,98926,28667.652719
1800,28052.0576685,1.069423889,99478,28585.1142942
1810,28127.2578179,1.07557311,100032,28500.3530524
1820,28036.9862032,1.081759537,100586,28677.4513867
1830,28092.5783885,1.087955372,101138,28475.6512982
1840,27891.6701389,1.093994686,101684,28181.4919156
1850,27862.3897101,1.099399363,102236,28662.7398306
1860,28031.6161764,1.105409597,102786,28916.9920273
1870,28029.5001088,1.110875001,103338,28419.1904346
1880,28084.076956,1.117259003,103879,28223.4674613
1890,28070.0614341,1.123792683,104434,28376.9490892
1900,28361.6324071,1.128919813,104989,28594.8970895
1910,28028.5509791,1.134065333,105537,29022.50983
1920,28057.1514913,1.139896808,106084,28603.9171762
1930,28118.575902,1.145271977,106634,28711.8845297
1940,28121.4841519,1.150442728,107178,28892.5749386
1950,27955.2956494,1.156689454,107724,28346.7937736
1960,27997.7765753,1.163232543,108268,28510.8717464
1970,27933.9214294,1.16866459,108817,28186.6339795
1980,27984.5289329,1.174827923,109368,28628.6351468
1990,28080.9785299,1.180136379,109920,28424.8291498
2000,28244.8535905,1.186569561,110464,29043.7977946
2010,28033.6633065,1.191940882,111012,28618.2958335
2020,27880.2312876,1.197296379,111566,28648.5668586
2030,27909.4377168,1.20265487,112116,28579.8047611
2040,27867.0572077,1.207859406,112668,28146.6483904
2050,27902.5414568,1.214186531,113220,28242.9966375
2060,27880.3751694,1.220641952,113769,28315.4463262
2070,27765.0433384,1.227195305,114322,28294.8171
2080,27886.42657,1.233329558,114872,28439.7656874
2090,27772.6605962,1.239798663,115421,28244.7212114
2100,27768.6771648,1.245885019,115971,28056.8191994
2110,27676.8159082,1.252053484,116518,28130.8504233
2120,27781.6027473,1.257453885,117063,28194.4875919
2130,27865.3290069,1.263794695,117613,28010.3697325
2140,27993.259013,1.269957601,118165,28271.5171531
2150,27862.3876022,1.276146594,118720,28471.4591436
2160,27759.5090327,1.282342857,119264,28351.7502724
2170,27695.0224483,1.288481814,119807,28468.0690878
2180,27696.3189769,1.293748788,120360,28854.3667594
2190,27594.1343517,1.299605067,120913,28579.5546524
2200,27579.2394973,1.305781658,121463,28484.9712363
2210,27589.6962931,1.311898805,122000,28540.3059795
2220,27377.4863381,1.317569055,122547,28640.8600061
2230,27327.0642205,1.32370844,123091,28551.4271815
2240,27503.4887356,1.329424021,123635,28527.2910598
2250,27382.3298235,1.335833683,124190,28272.0703392
2260,27243.1442974,1.342005997,124737,28193.3446281
2270,27298.4961381,1.347357646,125286,28548.5920252
2280,27275.8625317,1.353834022,125833,28205.3565635
2290,27244.8513095,1.360102131,126384,28495.4715046
2300,27290.3098509,1.365457201,126935,28207.477535
2310,27379.9791816,1.37120058,127484,28496.8736705
2320,27428.0780285,1.377649158,128039,28446.9185694
2330,27365.9004792,1.382766025,128590,28420.7214768
2340,27348.8086626,1.388414465,129140,28568.733568
2350,27515.2723732,1.394972095,129696,28792.4187061
2360,27498.1334609,1.401504921,130247,28590.7712393
2370,27402.1680544,1.408095053,130789,29106.8939095
2380,27427.7753281,1.414254965,131334,28687.9220985
2390,27480.8472828,1.420706536,131880,28540.1545906
2400,27441.7871947,1.426081705,132435,28741.5085184
2410,27610.1728614,1.431451315,132977,28567.3082558
2420,27546.1120387,1.438017497,133540,28970.8876198
2430,27744.9474265,1.444588811,134092,28726.1797461
2440,27779.7186547,1.451099827,134642,28739.9665034
2450,27789.2742926,1.457678839,135185,29155.3860585
2460,27879.8647465,1.462934693,135737,29139.6979552
2470,28117.3338537,1.469157042,136287,29295.770677
2480,28103.1361116,1.474670771,136836,28581.0022206
2490,28001.8183315,1.47995314,137381,28788.6044762
2500,28060.8025064,1.486097229,137933,28920.6895385
2510,28096.8799756,1.492325138,138479,28926.9194047
2520,28121.1281784,1.49866552,139029,29340.9302319
2530,28048.4445549,1.505154725,139574,29090.166682
2540,28075.9547825,1.510751418,140125,29034.4759984
2550,28155.4987826,1.516238632,140672,28833.644513
2560,28181.2155174,1.522644445,141226,28930.2432576
2570,28033.2413397,1.528836003,141774,29120.0279422
2580,28098.7273683,1.534629845,142315,29013.8797696
2590,27944.4396443,1.539829249,142865,29032.4975904
2600,27883.9222759,1.545009836,143414,29069.3934001
2610,27962.676874,1.551168893,143959,28929.463508
2620,27937.2615448,1.557074352,144510,29058.6997652
2630,27884.4150264,1.562543177,145065,29266.2997016
2640,27933.0950485,1.567641654,145607,28972.6984088
2650,27844.2954426,1.572727302,146157,29014.2978608
2660,28052.2274252,1.577791567,146706,29069.4150132
2670,27872.8941325,1.582846424,147261,28844.8298349
2680,27695.0055446,1.587919243,147816,29012.791212
2690,27715.7680368,1.593057065,148370,29084.4140424
2700,27732.0327572,1.598143141,148926,28874.9809914
2710,27732.4890477,1.603235632,149470,29019.2455001
2720,27885.6094069,1.608445727,150024,29464.5085209
2730,27905.0743205,1.613554041,150573,29303.6028992
2740,27768.2627012,1.618658078,151123,29170.1617261
2750,27935.1804403,1.628990599,151670,29154.9083733
2760,27847.2823068,1.634624499,152220,29092.3107705
2770,27786.6036381,1.640674504,152766,29023.4864063
2780,27836.6529922,1.64629258,153314,28865.6694634
2790,27765.7888823,1.652510225,153858,29050.8117042
2800,27885.8635623,1.658754813,154411,29052.2058646
2810,28073.4436711,1.66506141,154955,28842.3226005
2820,27882.6919156,1.671310274,155508,29241.2260464
2830,27819.4508187,1.676583662,156056,29096.7276773
2840,27853.0571857,1.681830107,156612,28755.8092902
2850,27723.697575,1.687636351,157161,29125.8060209
2860,27790.48515,1.692968327,157701,29149.3975355
2870,27809.6668701,1.698150197,158248,29144.5450688
2880,27712.5476962,1.703495002,158798,28936.5034276
2890,27694.9254737,1.708946721,159347,29011.4478462
2900,27792.6309953,1.715170353,159895,29037.3861759
2910,27698.6614434,1.72174851,160440,29290.9581902
2920,27809.4806022,1.726985119,160979,29162.7817559
2930,27842.6602385,1.732237552,161529,29011.2891654
2940,27766.8270004,1.737384782,162084,29031.9960227
2950,27869.2469496,1.742566652,162634,28842.2289952
2960,27733.3195621,1.74887496,163180,28944.6532026
2970,27750.1940577,1.754290328,163729,28575.3689875
2980,27737.3732033,1.759675333,164285,28632.8878572
2990,27797.5551105,1.765829258,164838,28585.4382642
3000,27618.7730095,1.771347691,165383,28903.394998
3010,27598.2263129,1.776686509,165923,28669.0839096
3020,27783.2743289,1.782194679,166470,29051.0437643
3030,27761.8030186,1.787499713,167020,28916.358268
3040,27727.6796484,1.793978655,167573,28848.0520527
3050,27788.2381085,1.800397297,168119,28688.0992818
3060,27920.9793891,1.805629203,168665,28934.2109633
3070,27925.0692583,1.811928958,169224,28970.656176
3080,27957.7870226,1.818239832,169764,28902.4882771
3090,27797.8482051,1.824344577,170303,29122.7760621
3100,27918.3238593,1.830806839,170859,28616.8177748
3110,27814.7803653,1.836102465,171408,28624.9560439
3120,27820.0422304,1.842570287,171954,28812.449589
3130,27878.2158346,1.848784939,172510,28870.1281588
3140,27845.2508348,1.854194748,173060,29014.0733698
3150,27908.5465321,1.860591152,173602,28579.7051375
3160,28074.3234612,1.8667609,174154,28565.0110425
3170,27937.386697,1.872903706,174694,28214.177744
3180,27962.8860022,1.878990917,175242,29044.7467939
3190,27932.8385202,1.885412553,175790,28523.4192706
3200,27873.3243923,1.891546806,176330,28404.4713347
3210,27874.997725,1.896735946,176880,28784.2256782
3220,28156.854184,1.902638839,177433,28805.4788206
3230,27953.3670256,1.909099819,177975,28747.8919574
3240,27998.6432403,1.914245338,178525,29395.4626927
3250,28140.6088707,1.920362057,179082,28799.5730117
3260,28165.7621413,1.926508285,179628,28926.5684584
3270,28037.7559449,1.931934345,180176,28903.4536198
3280,28051.6796428,1.937560546,180725,29379.3035545
3290,28165.9898298,1.943231223,181282,29227.1729007
3300,28278.0287387,1.949051151,181830,29040.2959605
3310,28308.877119,1.955412916,182382,29271.5643813
3320,28274.0078453,1.960744892,182932,28976.632521
3330,28282.7771319,1.966319775,183480,29402.092675
3340,28168.3038153,1.971445195,184028,29471.2963909
3350,28267.2987778,1.976589432,184579,29134.4476048
3360,28317.0672519,1.981832884,185133,29560.8680887
3370,28359.2113796,1.988312681,185676,29485.9666184
3380,28426.3328542,1.994741587,186226,29563.6961965
3390,28374.4608524,2.000150968,186779,29573.3316126
3400,28541.6648309,2.006301472,187337,29510.5094452
3410,28681.7243843,2.012452404,187888,29251.4104034
3420,28389.2684393,2.018598631,188441,29417.2943371
3430,28497.4564242,2.024838087,188986,29536.2208109
3440,28396.2424836,2.031060009,189541,29529.2687301
3450,28442.273714,2.037281076,190089,29856.1441582
3460,28385.3197296,2.043520104,190632,29808.3067631
3470,28443.1871954,2.049639389,191172,29677.4452456
3480,28515.6832,2.055775353,191721,29335.9202703
3490,28463.7955689,2.061073118,192268,29539.200984
3500,28277.9296054,2.066580859,192821,29144.4698369
3510,28311.7627009,2.07310727,193369,29336.923649
3520,28328.125583,2.078274172,193917,29101.473692
3530,28139.5292029,2.083473576,194461,29265.4724272
3540,28185.6322823,2.089294359,195002,29407.4070684
3550,28276.6078268,2.095495326,195546,29004.440509
3560,28224.8495462,2.101733926,196090,29249.8156524
3570,28210.6938867,2.107953282,196637,29560.6207261
3580,28120.9458653,2.114217969,197187,29360.2671739
3590,27983.9921914,2.120231624,197742,29528.8066898
3600,28031.0502101,2.12548705,198290,29467.9295561
3610,28094.7912803,2.130612043,198835,29158.3725724
3620,28133.5691551,2.13582,199386,29348.1914747
3630,28077.0749256,2.141213558,199930,29502.8138877
3640,28076.2830849,2.147431204,200476,29622.7584531
3650,28180.3513734,2.15374892,201036,29320.029817
3660,28087.7715712,2.160028147,201586,29415.1524513
3670,28076.6019223,2.166212435,202133,29532.1898912
3680,28203.6628571,2.172425377,202685,29349.0929197
3690,27936.5474065,2.178693485,203233,29335.4013543
3700,28083.2701955,2.183848413,203780,29365.7510503
3710,28022.6973834,2.190066913,204332,29134.7423601
3720,28090.2768779,2.196225115,204875,29214.6660623
3730,28120.2617553,2.20136593,205422,29465.5430614
3740,28007.4612322,2.206529411,205962,29373.8701878
3750,27952.9573514,2.21276288,206513,29203.0630259
3760,27997.168122,2.218946313,207066,29401.5124075
3770,28036.8562525,2.224096537,207617,29297.2890702
3780,27903.2998064,2.229390024,208166,29548.0840191
3790,27960.4111894,2.23467282,208713,29161.5375966
3800,27858.6936386,2.239794391,209266,28913.0993823
3810,27952.8463659,2.245037416,209825,29150.7795631
3820,27802.2230717,2.251266608,210368,29148.6958132
3830,27895.8561183,2.257452179,210919,29397.6017242
3840,27958.8201206,2.263637323,211472,29250.8966617
3850,28035.2675968,2.269831875,212023,28868.0255083
3860,27778.5960267,2.276058501,212575,29131.6144418
3870,27967.1364511,2.282251343,213120,29267.9094217
3880,27994.3052275,2.288452738,213667,29296.1925049
3890,28026.1714177,2.293611087,214218,29002.6234247
3900,27874.7822013,2.299797086,214768,28840.6868714
3910,27836.0053548,2.304945171,215319,28891.2194215
3920,27956.555247,2.311145711,215874,29275.8186906
3930,28134.2791145,2.316639341,216416,29214.1048734
3940,27897.5498899,2.322823201,216965,28624.7800521
3950,27986.6260211,2.329025023,217520,29096.048385
3960,28190.036403,2.335182797,218065,29056.0634393
3970,27955.7533182,2.341084835,218620,29147.0243323
3980,27934.8068073,2.346340689,219172,29078.3190674
3990,27963.5551918,2.352052849,219717,28946.9445742
4000,28060.5642133,2.358254671,220265,29464.3830764
4010,28108.9768523,2.36452278,220813,29243.6729908
4020,27938.1309104,2.369736724,221358,29311.4698968
4030,28001.8366974,2.375720016,221898,28800.867324
4040,27859.9741711,2.381948353,222446,29169.6217682
4050,27821.4602056,2.388124516,222993,29077.7800053
4060,27969.603999,2.393883717,223538,28904.4593954
4070,27941.3985113,2.399737858,224087,28838.5834721
4080,27948.0043037,2.405967905,224636,29325.1495153
4090,28098.0452868,2.412238152,225177,29014.3227716
4100,27933.8667526,2.418416881,225723,29411.9152075
4110,28100.465743,2.423656912,226274,29122.0457872
4120,28078.0251137,2.429941699,226821,29114.1533961
4130,28404.4126272,2.436164904,227370,29160.3368681
4140,28301.9931378,2.442473639,227911,29303.5230669
4150,28290.2052395,2.448010461,228452,29108.9213186
4160,28237.0295491,2.453175653,228998,28988.7488163
4170,28306.0447381,2.458504208,229549,29365.7529774
4180,28209.9510904,2.464636323,230088,29102.8742743
4190,28183.3354204,2.469889611,230634,29215.1770814
4200,28250.5177074,2.476038832,231186,29040.8679011
4210,28349.5265701,2.482347139,231727,29241.3994924
4220,28301.9730032,2.488821376,232270,29356.4622724
4230,28201.779195,2.494612651,232804,29564.0542198
4240,28113.16205,2.499776132,233355,29445.8717525
4250,28207.2562557,2.505937327,233901,29722.3369298
4260,28363.0120635,2.511112355,234451,29671.5064581
4270,28313.9783099,2.51840512,235005,29501.6005211
4280,28242.9503845,2.524488482,235539,29768.1035274
4290,28460.5551892,2.529682326,236090,29600.6083981
4300,28510.038676,2.534832977,236637,29678.3581085
4310,28527.1804168,2.54005804,237185,29639.8929715
4320,28253.5167268,2.545333993,237737,29363.4441134
4330,28270.1438092,2.550700609,238282,29439.3295461
4340,28229.1795935,2.556150617,238835,29271.7842161
4350,28321.0965856,2.56138851,239382,29416.1717981
4360,28336.3938234,2.566795325,239932,29689.673423
4370,28360.8482617,2.572188884,240480,29786.0613862
4380,28292.1314729,2.577611095,241035,29259.9982481
4390,28357.7770228,2.584302152,241589,28899.2177468
4400,28616.7884023,2.590468051,242139,29294.629197
4410,28423.7585135,2.596897384,242687,29327.326423
4420,28414.0221375,2.603085094,243232,29548.1254545
4430,28376.1290189,2.612454969,243789,29394.9599402
4440,28573.8289615,2.618432701,244342,29041.7106283
4450,28498.6717991,2.624214141,244888,29009.9241318
4460,28671.6546861,2.630031504,245429,29353.9385012
4470,28330.0272209,2.636790986,245974,29539.1202618
4480,28486.2500491,2.643021889,246528,29284.3120563
4490,28430.6140071,2.648831981,247080,29248.5054207
4500,28572.4418178,2.653996745,247626,29558.1908933
4510,28495.4746295,2.659290232,248163,29554.0039408
4520,28539.4318719,2.664521709,248712,29262.8363388
4530,28755.3412534,2.670743203,249259,29882.4223954
4540,28333.6608108,2.675899414,249804,29605.7650836
4550,28331.9079846,2.681143294,250351,29336.6679699
4560,28438.4255505,2.687253171,250904,29251.0096045
4570,28303.7462062,2.693040597,251455,29245.8032418
4580,28489.0787678,2.698753612,252006,29479.4090695
4590,28405.5958352,2.704990074,252557,29369.5140103
4600,28472.2549859,2.710279285,253104,29771.659036
4610,28347.2594674,2.716461435,253653,28826.8227821
4620,28270.747216,2.721669819,254207,29353.010706
4630,28217.0544673,2.727124959,254753,28921.1633123
4640,28092.6260931,2.732267057,255303,29269.005308
4650,28098.8586591,2.738480854,255851,29171.8617885
4660,28313.9422019,2.74360157,256395,29543.0298034
4670,28217.2024483,2.749738389,256939,29368.5676712
4680,28202.1249149,2.755935079,257483,29219.4926226
4690,28237.0234525,2.761046814,258038,29167.9942563
4700,28211.5928249,2.767261038,258594,28991.699738
4710,28193.8188305,2.772521169,259141,28747.9780264
4720,28202.5395984,2.778785429,259685,29181.1570038
4730,28162.0336781,2.784975277,260236,29066.3490302
4740,28170.4839006,2.790828562,260794,28428.2887654
4750,28134.0501864,2.796195178,261343,29257.0556123
4760,28160.5374948,2.801557946,261892,28942.5708405
4770,28172.3787335,2.807632756,262441,28844.077242
4780,28270.0458143,2.81382517,262986,28955.136482
4790,28215.1944962,2.819938895,263543,29289.6929865
4800,28192.8441872,2.825271727,264097,29006.5391344
4810,28152.8903203,2.830509191,264643,29337.1031693
4820,28201.7844538,2.835663691,265190,28793.2623917
4830,28246.3577063,2.840791249,265735,28861.8396708
4840,28104.8182523,2.846558576,266284,28842.0709536
4850,28056.8579323,2.851745578,266830,29008.721398
4860,28211.2147558,2.856907348,267375,29045.662781
4870,28276.085401,2.862046025,267925,28760.2631872
4880,28269.4394639,2.868218767,268479,29077.7417615
4890,28199.9959875,2.874362428,269028,28461.734003
4900,28220.1264617,2.880553131,269577,28705.5528004
4910,28263.5927365,2.886718603,270122,28797.8485817
4920,28100.0679727,2.892785287,270670,28570.2423041
4930,27987.797737,2.898974279,271223,28902.2961754
4940,28070.0804322,2.904932766,271773,28946.6379662
4950,28005.5656096,2.910309218,272319,28849.7398098
4960,27936.7600018,2.915618528,272858,28715.5201752
4970,28117.6701809,2.921518,273402,28315.3891997
4980,28163.6389982,2.927698012,273955,28859.9882863
4990,28126.670665,2.934151294,274495,28736.6907573
