it,funval,time,funcount,weight
0,23660.2745873,3.50669997715e-05,10,25554.1487304
10,23685.4557578,8.0397999227e-05,21,25499.9229299
20,23565.912815,0.000121879998915,32,25545.3432067
30,24006.0878111,0.000164217998645,43,25852.1382497
40,24203.2349329,0.000214252999285,54,26316.394739
50,24391.5139106,0.000263004999397,65,26617.3391491
60,24573.0818339,0.00030021099974,76,26715.3225903
70,24829.0729568,0.000335278999955,87,27015.6859121
80,25131.3816928,0.000370775000192,98,27339.4464596
90,25238.0425299,0.0004169620006,109,27444.3628838
100,25268.5565335,0.000463576000584,120,27583.5052095
110,25446.0098434,0.000503775000652,131,27721.2669027
120,25655.4791129,0.000540554000509,142,28079.2495675
130,25855.26489,0.000580326001,153,28282.9779792
140,25961.709153,0.000626940000984,164,28451.0610577
150,26073.8891313,0.000674409000567,175,28688.664511
160,26331.5486345,0.000727866000489,186,28965.8259117
170,26609.322548,0.000774052999986,197,29179.3589356
180,26756.7270199,0.000817246000224,208,29321.7358388
190,26823.5064833,0.00086428800023,219,29311.5562179
200,26923.3332713,0.000910047000616,230,29343.3875707
210,27103.1970323,0.000966069001151,241,29529.4351121
220,27282.4651313,0.00101567700131,252,29667.2676131
230,27444.2203829,0.001080680001,263,29760.3106253
240,27540.4369149,0.00113071500073,274,29838.5730163
250,27723.6907684,0.00118331600061,285,29947.4326355
260,27896.6172836,0.00123420600085,296,30043.19608
270,28152.2407124,0.00127825500113,307,30262.6286494
280,28280.0343928,0.0013252960016,318,30467.0898504
290,28414.7457614,0.00137105500198,329,30564.4196722
300,28534.0204085,0.00141595800142,340,30774.539852
310,28837.8456725,0.00145273600174,351,30903.1216301
320,28861.079464,0.00150020500132,362,31122.1556904
330,29118.5214977,0.00154895700143,373,31333.4474945
340,29398.289053,0.00159685400195,384,31716.9523139
350,29454.4806801,0.00164133000271,395,31677.3710184
360,29608.6374747,0.00168922700323,406,31821.0129044
370,29769.0174198,0.00172942700374,417,32106.7530934
380,29803.4106055,0.00177005400383,428,32282.5405416
390,29933.5499952,0.00181752400385,439,32449.2547532
400,30112.9457565,0.00186413800384,450,32542.2039352
410,30182.029034,0.00190947000374,461,32729.5641361
420,30291.4173973,0.00194539300355,472,32821.945439
430,30525.0784473,0.0019817440043,483,32956.080947
440,30628.6050746,0.00202921300479,494,33085.399757
450,30714.8290389,0.00207967600454,505,33097.354265
460,30765.3486911,0.0021284290051,516,33256.6915595
470,30939.9446675,0.00219386000572,527,33376.162848
480,30987.4358306,0.00223833600558,538,33436.0833899
490,30999.7617639,0.00228708800569,549,33433.8503801
500,31063.7767819,0.00233370200567,560,33511.8746405
510,31253.3191051,0.00238245400578,571,33621.5598676
520,31315.1066188,0.0024320610064,582,33837.614222
530,31390.1266491,0.00250347900601,593,33942.5624605
540,31468.0059914,0.00254795500587,604,33965.6453214
550,31680.3729854,0.00260012900526,615,34365.2039273
560,31708.4276483,0.00263690700558,626,34309.9132352
570,31743.3843871,0.00268565900569,637,34436.1568875
580,31914.5580522,0.00272372000563,648,34665.6032348
590,32079.2154582,0.00277247200574,659,34860.0076827
600,32088.5729279,0.002816093006,670,34954.7574682
610,32159.9281971,0.00285372600592,681,35002.0763606
620,32377.6578463,0.00290162300553,692,35118.9878539
630,32418.4131758,0.00294781000594,703,35173.541635
640,32553.2527399,0.00299528000596,714,35390.2610414
650,32553.2527399,0.00304702600533,725,35384.0759837
660,32705.1213663,0.0030923570057,736,35575.2579424
670,32944.1659683,0.00313768800606,747,35760.3506992
680,33046.7460021,0.00318815100582,758,35809.7838282
690,33091.7593319,0.00323690400637,769,35814.9262752
700,33159.2664452,0.00327667600595,780,35990.5951168
710,33176.5315856,0.00332542800606,791,36008.8305985
720,33190.9528438,0.00337802900594,802,36047.2200205
730,33307.030131,0.00342678100606,813,36177.3175938
740,33392.1620911,0.00351744300588,824,36257.8769663
750,33409.7986851,0.00360511200506,835,36283.5741745
760,33470.9647942,0.0036718260053,846,36446.2582891
770,33593.5131633,0.00372015100584,857,36356.7375172
780,33608.5039678,0.00376890400639,868,36554.2324947
790,33712.0051648,0.00380739300635,879,36581.1203225
800,33741.6992181,0.00385400700634,890,36665.1699194
810,33778.5642825,0.00390147700637,901,36822.4949041
820,33806.4130967,0.00396177600669,912,36837.4512291
830,33835.4394653,0.00399898200703,923,36931.5313857
840,33897.586871,0.00404773400714,934,36990.6902085
850,34022.6632764,0.0040964870077,945,37096.104397
860,34141.6433448,0.00414224500764,956,37273.2560193
870,34185.3731215,0.00418201700722,967,37339.5808938
880,34207.5997231,0.00422520900793,978,37422.4650865
890,34229.3132005,0.00427524400766,989,37443.3748903
900,34428.739293,0.00430902800781,1000,37592.8101536
910,34529.3590463,0.00435649700739,1011,37763.8523443
920,34586.217191,0.0043984070071,1022,37783.6767823
930,34626.0380119,0.004451436007,1033,37845.4273778
940,34626.0380119,0.00450275400726,1044,37877.2714019
950,34813.7882354,0.00454979600727,1055,38011.9334826
960,34863.6765559,0.00459769300687,1066,38010.6184196
970,34985.2199948,0.00464858400665,1077,38102.4677303
980,34997.051933,0.00468921100673,1088,38140.9072306
990,34997.051933,0.00472727200668,1099,38100.1692635
1000,35124.4689099,0.00476789900677,1110,38170.4341043
1010,35185.0609577,0.00481964500705,1121,38181.0321059
1020,35258.6222233,0.00487224700737,1132,38263.5008276
1030,35610.0936553,0.00492100000702,1143,38575.2148095
1040,35720.2268956,0.00497103600719,1154,38568.9950639
1050,35822.2484775,0.00502192600652,1165,38617.9625747
1060,35909.4603046,0.0050745270064,1176,38673.8846773
1070,36021.0673946,0.0051275560063,1187,38719.4966308
1080,36126.3769816,0.00518999300675,1198,38716.8301894
1090,36243.5305707,0.0052404560065,1209,38896.7519558
1100,36243.5305707,0.00528493200636,1220,38896.7519558
1110,36402.1488878,0.00533411200649,1231,39047.8508778
1120,36407.6541761,0.00537217300644,1242,39299.7174322
1130,36411.2721423,0.00541536600667,1253,39319.9922977
1140,36465.6817608,0.00546411800678,1264,39380.9426199
1150,36610.6851299,0.00551287100734,1275,39524.1629252
1160,36643.8796929,0.00555392600745,1286,39443.6497174
1170,36643.8796929,0.00560225100799,1297,39538.7746256
1180,36643.8796929,0.00564972100801,1308,39573.6401784
1190,36823.7234774,0.00570018400867,1319,39640.312903
1200,36973.1015009,0.00574979200883,1330,39776.7621322
1210,36973.1015009,0.00579213000947,1341,39732.6078664
1220,36973.1015009,0.00584601500941,1352,39776.7621322
1230,36993.6619935,0.00590032700984,1363,39801.2877069
1240,37109.9923463,0.00595891601006,1374,39918.7634324
1250,37112.1073814,0.00601750501028,1385,39950.0369724
1260,37150.5188051,0.00607865901111,1396,39926.5623442
1270,37150.5188051,0.00613853001141,1407,39871.3408128
1280,37150.5188051,0.00619797301169,1418,39990.6777871
1290,37150.5188051,0.00624373201117,1429,39993.8705659
1300,37150.5188051,0.00629804401069,1440,39993.8705659
1310,37150.5188051,0.00635363901074,1451,39993.8705659
1320,37150.5188051,0.00639897001111,1462,39811.0956223
1330,37150.5188051,0.00645670301128,1473,40009.8677361
1340,37182.0103865,0.00651614601156,1484,40090.3127175
1350,37182.0103865,0.00657516201136,1495,39992.8664154
1360,37182.0103865,0.00663246701151,1506,39993.9631292
1370,37182.0103865,0.00669362101144,1517,39993.9631292
1380,37210.5863166,0.00674964401151,1528,39932.29454
1390,37210.5863166,0.00680908701179,1539,39933.0613276
1400,37210.5863166,0.0068736630119,1550,39990.5081584
1410,37210.5863166,0.00692883101146,1561,39973.3518849
1420,37210.5863166,0.00699126801101,1572,39988.7426687
1430,37210.5863166,0.0070502840108,1583,39994.1977515
1440,37244.3775342,0.00710416801121,1594,39959.135418
1450,37244.3775342,0.00716318501145,1605,40088.9832802
1460,37269.3216945,0.0072196350111,1616,39974.1170173
1470,37269.3216945,0.00730773201121,1627,39972.9137071
1480,37269.3216945,0.00736503701137,1638,39895.0629838
1490,37269.3216945,0.00742619101129,1649,39947.1584029
1500,37269.3216945,0.00749033901138,1660,40007.7001474
1510,37269.3216945,0.00755106601173,1671,39854.8200314
1520,37269.3216945,0.00760666101178,1682,40014.217139
1530,37269.3216945,0.00765798001248,1693,39981.4332648
1540,37269.3216945,0.00772469401272,1704,39977.4912965
1550,37269.3216945,0.00778157201239,1715,39891.0061425
1560,37269.3216945,0.00783716701244,1726,39961.1131966
1570,37269.3216945,0.00788677501259,1737,39885.3565684
1580,37269.3216945,0.00794579201283,1748,39999.4567319
1590,37269.3216945,0.00801550001233,1759,39969.8178459
1600,37269.3216945,0.00806211401232,1770,39991.3556286
1610,37269.3216945,0.00811685401277,1781,39999.4567319
1620,37269.3216945,0.0081720210128,1792,39926.723463
1630,37269.3216945,0.00822034601333,1803,39851.7523137
1640,37269.3216945,0.00826824301294,1814,39999.4567319
1650,37269.3216945,0.00831186301275,1825,39969.6870772
1660,37269.3216945,0.00836189901293,1836,39847.8882979
1670,37269.3216945,0.00842904001274,1847,39999.4567319
1680,37269.3216945,0.00847651001277,1858,39908.4580294
1690,37269.3216945,0.00853509801345,1869,40008.8788071
1700,37269.3216945,0.00859625201338,1880,39827.0167043
1710,37269.3216945,0.00864030001412,1891,39942.6449621
1720,37269.3216945,0.00870231001409,1902,39814.9249113
1730,37269.3216945,0.00876218101439,1913,39919.9488436
1740,37269.3216945,0.00881948601454,1924,39957.69343
1750,37269.3216945,0.00887636301377,1935,39861.8778117
1760,37269.3216945,0.00893965601335,1946,39996.7291906
1770,37269.3216945,0.00898584201332,1957,39994.1712155
1780,37269.3216945,0.00904058201286,1968,39925.3227947
1790,37269.3216945,0.00910943401323,1979,40012.6103228
1800,37269.3216945,0.00917144401319,1990,39959.2720109
1810,37269.3216945,0.00923046001299,2001,39999.4567319
1820,37269.3216945,0.00928520001253,2012,40016.4669745
1830,37269.3216945,0.00934079501258,2023,39999.4567319
1840,37269.3216945,0.00938313201277,2034,39999.4567319
1850,37269.3216945,0.00942760801263,2045,39999.4567319
1860,37269.3216945,0.00947165701291,2056,39952.827262
1870,37269.3216945,0.00951827101289,2067,39999.4567319
1880,37269.3216945,0.00956360201326,2078,39902.8397867
1890,37269.3216945,0.00960636701348,2089,39999.4567319
1900,37269.3216945,0.00965169801384,2100,39991.5751469
1910,37269.3216945,0.00970301601319,2111,39979.0877484
1920,37269.3216945,0.00976288801303,2122,40120.3044658
1930,37269.3216945,0.00981549001244,2133,39961.1131966
1940,37269.3216945,0.00989760001266,2144,39987.0866167
1950,37269.3216945,0.00994934601295,2155,39940.8664275
1960,37269.3216945,0.0100062240135,2166,39971.1837618
1970,37269.3216945,0.0100498450138,2177,39979.6955662
1980,37269.3216945,0.0100956040142,2188,39905.6830666
1990,37269.3216945,0.0101559030136,2199,39969.0893415
2000,37269.3216945,0.0102153470134,2210,39999.4567319
2010,37269.3216945,0.0102739360136,2221,39999.4567319
2020,37269.3216945,0.0103248270134,2232,40035.4830415
2030,37269.3216945,0.0103710130134,2243,39972.8502702
2040,37269.3216945,0.0104150610141,2254,39998.0929613
2050,37269.3216945,0.0104603920145,2265,39964.9933186
2060,37269.3216945,0.0105134210144,2276,39999.4567319
2070,37269.3216945,0.0105574700146,2287,39999.4567319
2080,37269.3216945,0.0106143470148,2298,40093.4868065
2090,37269.3216945,0.0106742190146,2309,39824.6627796
2100,37269.3216945,0.0107212610146,2320,39999.4567319
2110,37269.3216945,0.0107824160141,2331,40028.5610373
2120,37269.3216945,0.0108632430138,2342,39999.4567319
2130,37269.3216945,0.0109102850138,2353,39913.2367181
2140,37269.3216945,0.0109641690142,2364,39976.141997
2150,37269.3216945,0.0110308830144,2375,39946.2701184
2160,37269.3216945,0.0111005900144,2386,39979.8102637
2170,37269.3216945,0.0111566130145,2397,39999.4567319
2180,37269.3216945,0.0112181960139,2408,39997.5555639
2190,37269.3216945,0.0112639550134,2419,39921.9888887
2200,37269.3216945,0.0113251090133,2430,39973.0897014
2210,37269.3216945,0.0113832700135,2441,39958.9070009
2220,37269.3216945,0.0114388650136,2452,39999.4567319
2230,37269.3216945,0.0114859060141,2463,39998.3086831
2240,37269.3216945,0.011538935014,2474,39871.7206534
2250,37269.3216945,0.0115868320136,2485,39963.6201594
2260,37269.3216945,0.0116458480143,2496,39988.1970462
2270,37269.3216945,0.0117027260139,2507,39977.2550437
2280,37269.3216945,0.0117591770131,2518,39935.3834653
2290,37269.3216945,0.0118216150131,2529,39972.6837267
2300,37269.3216945,0.0118772090127,2540,39999.4567319
2310,37269.3216945,0.0119383630126,2551,40045.8095796
2320,37269.3216945,0.0119841220121,2562,39965.2765244
2330,37269.3216945,0.0120388620126,2573,39982.7590601
2340,37269.3216945,0.0120961680132,2584,39986.5512482
2350,37269.3216945,0.0121594610127,2595,39955.7429296
2360,37269.3216945,0.0122184770134,2606,40027.9515799
2370,37269.3216945,0.0122757820136,2617,39991.1997044
2380,37269.3216945,0.0123318040132,2628,39872.5498845
2390,37269.3216945,0.0123882540129,2639,40033.9201453
2400,37274.8064198,0.0124438490129,2650,39954.6524755
2410,37274.8064198,0.0125002990126,2661,39979.1480702
2420,37274.8064198,0.0125469140121,2672,39965.5287662
2430,37274.8064198,0.0125922450115,2683,39936.2084672
2440,37274.8064198,0.012646129012,2694,39999.6046399
2450,37274.8064198,0.0127047180122,2705,40034.2861719
2460,37274.8064198,0.0127615960118,2716,39970.0838257
2470,37274.8064198,0.0128988730121,2727,39877.6412281
2480,37274.8064198,0.0129561780122,2738,39999.6046399
2490,37274.8064198,0.0130164770126,2749,39999.6046399
2500,37274.8064198,0.0130737830132,2760,39999.6046399
2510,37274.8064198,0.0131302330137,2771,39926.5405114
2520,37274.8064198,0.0131836890132,2782,39890.1042275
2530,37274.8064198,0.013242705013,2793,39952.1532826
2540,37274.8064198,0.0132974450134,2804,39897.3770187
2550,37274.8064198,0.0133436310134,2815,39944.2649544
2560,37274.8064198,0.0133885340138,2826,39959.6615795
2570,37274.8064198,0.0134351480137,2837,39936.2084672
2580,37274.8064198,0.0134779140144,2848,39999.6046399
2590,37274.8064198,0.0135369300142,2859,39981.3869955
2600,37274.8064198,0.0135938080139,2870,40034.4876921
2610,37274.8064198,0.0136519690132,2881,39999.6046399
2620,37274.8064198,0.0136947340134,2892,39858.7014424
2630,37274.8064198,0.0137528950136,2903,39987.844382
2640,37274.8064198,0.0138007920132,2914,39999.6046399
2650,37274.8064198,0.013860236013,2925,40014.3025956
2660,37274.8064198,0.0139059950125,2936,39973.2376094
2670,37274.8064198,0.0139680050124,2947,39928.1652647
2680,37274.8064198,0.0140137640128,2958,39889.048172
2690,37274.8064198,0.0140543910129,2969,40041.5598752
2700,37274.8064198,0.0141052810131,2980,39906.6550794
2710,37274.8064198,0.0141604480132,2991,39801.4252353
2720,37274.8064198,0.0142267340134,3002,40026.1979467
2730,37274.8064198,0.0142857500132,3013,39947.4954888
2740,37274.8064198,0.0143409170132,3024,40040.0645389
2750,37274.8064198,0.0143883860137,3035,39871.7838786
2760,37274.8064198,0.0144350000137,3046,39999.6046399
2770,37274.8064198,0.0144965820136,3057,39950.281257
2780,37274.8064198,0.0145594470141,3068,39999.6046399
2790,37274.8064198,0.0146052060145,3079,40009.8384119
2800,37274.8064198,0.0146659330139,3090,39994.3147293
2810,37274.8064198,0.0147249490137,3101,39877.0748869
2820,37274.8064198,0.0147895250138,3112,39999.6046399
2830,37274.8064198,0.0148502510137,3123,39966.2092962
2840,37274.8064198,0.0148960100141,3134,39999.6046399
2850,37274.8064198,0.0149545980139,3145,40045.9574876
2860,37274.8064198,0.015011475014,3156,39972.1116562
2870,37274.8064198,0.0150751950141,3167,40009.731015
2880,37274.8064198,0.0151359220145,3178,39972.9981782
2890,37274.8064198,0.0151919440141,3189,39887.6699775
2900,37274.8064198,0.0152466830141,3200,39992.9209561
2910,37274.8064198,0.0153001390136,3211,39996.8653544
2920,37274.8064198,0.0153484640141,3222,39916.5940114
2930,37274.8064198,0.0153950780141,3233,39999.6046399
2940,37274.8064198,0.0154489620145,3244,40020.3345178
2950,37274.8064198,0.0155066950147,3255,40016.8414423
2960,37274.8064198,0.0155652830144,3266,40058.5767598
2970,37274.8064198,0.0156255820148,3277,39902.126882
2980,37274.8064198,0.0156721970152,3288,40047.6397193
2990,37274.8064198,0.0157277920152,3299,39869.3503972
3000,37274.8064198,0.0157975000157,3310,39934.1582986
3010,37274.8064198,0.0158565160154,3321,39999.5682569
3020,37274.8064198,0.0159168150158,3332,39989.1892119
3030,37274.8064198,0.0159745490155,3343,40020.3345178
3040,37274.8064198,0.0160211630155,3354,39976.8224946
3050,37274.8064198,0.0160793240157,3365,39978.80479
3060,37274.8064198,0.0161413340156,3376,39875.5065947
3070,37274.8064198,0.0162007780154,3387,39895.6858294
3080,37274.8064198,0.0162580830147,3398,39868.5867183
3090,37274.8064198,0.0163175270145,3409,39989.7366467
3100,37274.8064198,0.0163658510146,3420,39999.6046399
3110,37274.8064198,0.0164120370146,3431,40036.1987321
3120,37274.8064198,0.0164693420138,3442,39961.8441257
3130,37274.8064198,0.0165322070134,3453,39999.6046399
3140,37274.8064198,0.0165860920133,3464,39999.6046399
3150,37274.8064198,0.016644252014,3475,39966.9026694
3160,37274.8064198,0.0167007020145,3486,39890.3953296
3170,37274.8064198,0.0167490270142,3497,39875.2452591
3180,37274.8064198,0.0168024840141,3508,39999.6046399
3190,37274.8064198,0.0168469590135,3519,39976.9951306
3200,37274.8064198,0.0169051200128,3530,39999.6046399
3210,37274.8064198,0.0169658470131,3541,40077.4585729
3220,37274.8064198,0.0170231530128,3552,40032.8812535
3230,37274.8064198,0.0170774650132,3563,39871.4581067
3240,37274.8064198,0.0171300660131,3574,40022.2746005
3250,37274.8064198,0.0171997730131,3585,39866.4789351
3260,37274.8064198,0.0172566510137,3596,39999.6046399
3270,37274.8064198,0.0173178050136,3607,39924.2381969
3280,37274.8064198,0.0173622810134,3618,39999.6046399
3290,37274.8064198,0.017417021013,3629,39999.6046399
3300,37274.8064198,0.0174619240124,3640,39999.6046399
3310,37274.8064198,0.0175115320126,3651,39945.2567237
3320,37274.8064198,0.0175611400118,3662,39958.843825
3330,37274.8064198,0.0176210110112,3673,39913.3067426
3340,37274.8064198,0.0176838760117,3684,39942.7770998
3350,37274.8064198,0.0177441750111,3695,39881.3581476
3360,37274.8064198,0.0178040470109,3706,39967.8685607
3370,37274.8064198,0.0178553650112,3717,39961.7196132
3380,37274.8064198,0.0179148080106,3728,39986.7415346
3390,37274.8064198,0.0179768180105,3739,39999.6046399
3400,37274.8064198,0.018039683011,3750,39967.8272085
3410,37274.8064198,0.0180892900116,3761,39999.6046399
3420,37274.8064198,0.0181363320116,3772,39999.6046399
3430,37274.8064198,0.0181953480114,3783,39962.9662812
3440,37274.8064198,0.0182517980111,3794,40022.7165383
3450,37274.8064198,0.0183086760117,3805,39978.80479
3460,37274.8064198,0.0183655540122,3816,39918.0830101
3470,37274.8064198,0.0184220050123,3827,39946.4605405
3480,37274.8064198,0.0184831600127,3838,39964.3092972
3490,37274.8064198,0.0185426040125,3849,39995.2769023
3500,37274.8064198,0.0186041860125,3860,40028.8997922
3510,37274.8064198,0.0186666240124,3871,39912.1770353
3520,37274.8064198,0.0187286340124,3882,39946.8705789
3530,37274.8064198,0.018783802012,3893,39956.763077
3540,37274.8064198,0.018839825012,3904,39977.6392045
3550,37274.8064198,0.0188979860122,3915,39900.3789209
3560,37274.8064198,0.0189548640119,3926,40023.8682107
3570,37274.8064198,0.0190202950116,3937,39919.8247196
3580,37274.8064198,0.0190716130119,3948,39999.6046399
3590,37274.8064198,0.0191430310124,3959,40024.3159523
3600,37274.8064198,0.0191952040122,3970,40008.9547011
3610,37274.8064198,0.0192525090115,3981,40012.4098381
3620,37274.8064198,0.0193209340114,3992,39998.0732214
3630,37274.8064198,0.019363700012,4003,39999.6046399
3640,37274.8064198,0.019410314012,4014,39999.6046399
3650,37274.8064198,0.0194509410112,4025,39999.6046399
3660,37274.8064198,0.0195129510112,4036,39999.6046399
3670,37274.8064198,0.0195569990119,4047,40019.3658056
3680,37274.8064198,0.0195980530125,4058,39999.6046399
3690,37274.8064198,0.019637397012,4069,39999.6046399
3700,37274.8064198,0.0196814450128,4080,40079.2494396
3710,37274.8064198,0.0197267760132,4091,39912.1633855
3720,37274.8064198,0.019770396013,4102,40008.9547011
3730,37274.8064198,0.0198195760131,4113,39966.8672661
3740,37274.8064198,0.0198614860128,4124,39960.8587334
3750,37274.8064198,0.0199038230121,4135,40038.5316064
3760,37274.8064198,0.019965405012,4146,39817.8866259
3770,37274.8064198,0.0200616270122,4157,39873.8929465
3780,37274.8064198,0.0201180770118,4168,39999.6046399
3790,37274.8064198,0.0201711050113,4179,39908.7456329
3800,37274.8064198,0.0202305490111,4190,39989.1335114
3810,37274.8064198,0.0202869990108,4201,39972.5180957
3820,37274.8064198,0.0203455870105,4212,40041.3595246
3830,37274.8064198,0.0203994720105,4223,39999.6046399
3840,37274.8064198,0.0204533560109,4234,39904.7019253
3850,37274.8064198,0.020502536011,4245,39977.5238149
3860,37274.8064198,0.020557703011,4256,39999.6046399
3870,37274.8064198,0.0206017520113,4267,39976.1683342
3880,37274.8064198,0.0206594850115,4278,40199.0267824
3890,37274.8064198,0.0207227770115,4289,39999.6046399
3900,37274.8064198,0.020770246012,4300,39918.0830101
3910,37274.8064198,0.020816860012,4311,39957.8638792
3920,37274.8064198,0.0208741650122,4322,39999.6046399
3930,37274.8064198,0.0209366020126,4333,39862.0257196
3940,37274.8064198,0.0209943350128,4344,39868.7285679
3950,37274.8064198,0.0210512130125,4355,39902.6232295
3960,37274.8064198,0.0211085180126,4366,39905.5405036
3970,37274.8064198,0.0211726660127,4377,39908.7456329
3980,37274.8064198,0.0212269780122,4388,39999.6046399
3990,37274.8064198,0.0212808620126,4399,39932.5071932
4000,37274.8064198,0.0214138620122,4410,40046.6196772
4010,37274.8064198,0.0214621870127,4421,40024.3348861
4020,37274.8064198,0.0215199200129,4432,39999.6046399
4030,37274.8064198,0.0215712380132,4443,39999.6046399
4040,37274.8064198,0.0216293990134,4454,39999.4567319
4050,37274.8064198,0.0216764410134,4465,39885.5044764
4060,37274.8064198,0.0217200620136,4476,39999.6046399
4070,37274.8064198,0.0217675320137,4487,39975.1634441
4080,37274.8064198,0.0218286870131,4498,39999.6046399
4090,37274.8064198,0.0218834270136,4509,39915.0956424
4100,37274.8064198,0.0219467200141,4520,40047.0208529
4110,37274.8064198,0.0220087290136,4531,40128.0227371
4120,37274.8064198,0.0220664620138,4542,39804.6491241
4130,37274.8064198,0.0221233400134,4553,39973.9945405
4140,37274.8064198,0.0221840670138,4564,39854.6840185
4150,37274.8064198,0.0222516360136,4575,39856.6921465
4160,37274.8064198,0.0222995330141,4586,39953.5855542
4170,37274.8064198,0.0223461470141,4597,39924.9815316
4180,37274.8064198,0.0223923340136,4608,39977.3959507
4190,37274.8064198,0.0224504950138,4619,39994.3147293
4200,37274.8064198,0.0225142150139,4630,39935.9007332
4210,37274.8064198,0.0225715210145,4641,40023.8019396
4220,37274.8064198,0.0226318200139,4652,40044.3321926
4230,37274.8064198,0.0226916920137,4663,39971.6043919
4240,37274.8064198,0.0227481420134,4674,39910.6879819
4250,37274.8064198,0.0228157110132,4685,39919.7879441
4260,37274.8064198,0.0228691680131,4696,40002.2481298
4270,37274.8064198,0.0229277570133,4707,39999.6046399
4280,37274.8064198,0.022984207013,4718,39999.6046399
4290,37274.8064198,0.0230718760122,4729,39860.4287004
4300,37274.8064198,0.0231283260118,4740,39904.8554942
4310,37274.8064198,0.0231856320124,4751,39907.5953693
4320,37274.8064198,0.0232288250118,4762,39999.6046399
4330,37274.8064198,0.023286986012,4773,39999.6046399
4340,37274.8064198,0.0233468580118,4784,39940.3268679
4350,37274.8064198,0.0234041640124,4795,39912.1770353
4360,37274.8064198,0.0234550550122,4806,39822.9427757
4370,37274.8064198,0.0235110780122,4817,39997.9184285
4380,37274.8064198,0.0235555530126,4828,39999.6046399
4390,37274.8064198,0.0236205560122,4839,39959.6653708
4400,37274.8064198,0.0236808550126,4850,39965.8255826
4410,37274.8064198,0.0237450030127,4861,39979.8434742
4420,37274.8064198,0.0238014530123,4872,39929.9304807
4430,37274.8064198,0.023866884012,4883,39940.3211428
4440,37274.8064198,0.0239297490125,4894,39917.2099791
4450,37274.8064198,0.0239917590125,4905,40041.8531655
4460,37274.8064198,0.0240473530121,4916,39890.9088075
4470,37274.8064198,0.0241025200121,4927,39978.3071625
4480,37274.8064198,0.0241700890128,4938,39960.1340106
4490,37274.8064198,0.0242265390125,4949,40003.7073605
4500,37274.8064198,0.0242838450122,4960,39996.6421556
4510,37274.8064198,0.024342433012,4971,39999.6046399
4520,37274.8064198,0.0243950350123,4982,39980.3099819
4530,37274.8064198,0.0244493470118,4993,39988.8154964
4540,37274.8064198,0.0245096460112,5004,39991.3476124
4550,37274.8064198,0.0245720830117,5015,40016.6148824
4560,37274.8064198,0.0246259680116,5026,39999.6046399
4570,37274.8064198,0.0246837020122,5037,39999.6046399
4580,37274.8064198,0.0247380140127,5048,39828.8776445
4590,37274.8064198,0.0247966020133,5059,39944.1178552
4600,37274.8064198,0.0248483480127,5070,39999.6046399
4610,37274.8064198,0.0249090750131,5081,39936.7487932
4620,37274.8064198,0.0249685190129,5092,40047.605139
4630,37274.8064198,0.0250433580131,5103,39950.865761
4640,37274.8064198,0.0251070780132,5114,39995.3409985
4650,37274.8064198,0.0251626730133,5125,39974.9429485
4660,37274.8064198,0.025222117014,5136,39999.6046399
4670,37274.8064198,0.0252836990139,5147,39989.370868
4680,37274.8064198,0.0253448530138,5158,39860.2563215
4690,37274.8064198,0.0254273900136,5169,39855.5610343
4700,37274.8064198,0.0254928200138,5180,40070.1271958
4710,37274.8064198,0.025550125014,5191,39944.1178552
4720,37274.8064198,0.0256027270134,5202,39999.6046399
4730,37274.8064198,0.025659605014,5213,39902.6155325
4740,37274.8064198,0.0257284570143,5224,39838.931048
4750,37274.8064198,0.0257814860142,5235,39980.4479292
4760,37274.8064198,0.025825962015,5246,39982.5943974
4770,37274.8064198,0.0258798460154,5257,39960.6776734
4780,37274.8064198,0.0259397180153,5268,40003.5392566
4790,37274.8064198,0.0259936020157,5279,40020.3770804
4800,37274.8064198,0.0260581780158,5290,40035.4412125
4810,37274.8064198,0.0261112070157,5301,39999.6046399
4820,37274.8064198,0.0261552550155,5312,39999.6046399
4830,37274.8064198,0.0262168370155,5323,40019.3658056
4840,37274.8064198,0.0262762810153,5334,39971.7324361
4850,37274.8064198,0.0263387180148,5345,39999.6046399
4860,37274.8064198,0.0263921750147,5356,39933.1409124
4870,37274.8064198,0.026450764015,5367,39993.1518981
4880,37274.8064198,0.0265003710147,5378,40032.757828
4890,37274.8064198,0.0265598150145,5389,39913.3067426
4900,37274.8064198,0.0266068570145,5400,39999.6046399
4910,37274.8064198,0.0266645900147,5411,39999.6046399
4920,37274.8064198,0.026724889015,5422,39993.0278445
4930,37274.8064198,0.0267877540155,5433,39973.5384062
4940,37274.8064198,0.0268591720151,5444,39952.8245901
4950,37274.8064198,0.0269181880149,5455,39990.5929064
4960,37274.8064198,0.0269729280153,5466,39999.6046399
4970,37274.8064198,0.0270191150157,5477,39954.0518797
4980,37274.8064198,0.0270777030155,5488,40029.363103
4990,37274.8064198,0.0271409960151,5499,40035.4412125
