it,funval,time,funcount,weight
0,15816.1461631,0.501167706,999,13782.1101911
10,17306.4848725,1.034010379,2100,15051.5160802
20,18073.2564422,1.536667173,3201,14801.1156874
30,18559.5544879,2.053354831,4302,15375.3987692
40,18629.7082679,2.544996569,5403,15255.232298
50,18816.3666758,3.027794873,6504,14877.9039753
60,19154.7797758,3.509238373,7605,15474.7080729
70,19225.4178788,4.014689878,8706,15202.0796868
80,19412.7328818,4.525527672,9807,15915.3442025
90,19372.5249551,4.881198456,10908,15851.8421731
100,19346.2939224,5.309625826,12009,16050.8064733
110,19351.3334284,5.700386386,13110,15335.1214516
120,19364.0646191,6.075041538,14211,14391.3686294
130,19324.105044,6.433178168,15312,15426.2923194
140,19376.947155,6.763403605,16413,16025.4845976
150,19325.58615,7.090404111,17514,15848.7362555
160,19376.922359,7.429378471,18615,15799.8557906
170,19362.1968945,7.78275447,19716,14279.8616096
180,19361.3904667,8.131039261,20817,14778.3625161
190,19361.3904667,8.492433324,21918,15877.8825783
200,19386.0953836,9.02551591,23019,16093.2322785
210,19361.3904667,9.572606694,24120,15948.5601884
220,19400.6619945,9.927124953,25221,15155.1014255
230,19374.7813434,10.344693361,26322,15725.3952984
240,19361.3904667,10.778654988,27423,15963.9457357
250,19361.3904667,11.087584167,28524,15755.3243257
260,19381.182735,11.39633587,29625,14631.3688305
270,19380.9296286,11.791357991,30726,14635.0818637
280,19399.5105078,12.266622334,31827,15812.4492332
290,19361.6582209,12.727424312,32928,15887.1479168
300,19361.3904667,13.166702947,34029,14871.7733432
310,19386.4226345,13.741169076,35130,15725.5567526
320,19371.6431566,14.172808975,36231,15377.3713023
330,19361.3904667,14.676244097,37332,15321.8627358
340,19361.3904667,15.225204153,38433,15660.4583268
350,19399.9432512,15.732169121,39534,15984.9914609
360,19361.3904667,16.052021838,40635,15785.4857121
370,19371.2516927,16.365532034,41736,15251.4062761
380,19361.3904667,16.677633114,42837,15632.0952416
390,19374.2313436,16.982249841,43938,15414.9962239
400,19366.7668302,17.296324967,45039,15273.0639008
410,19361.3904667,17.606420355,46140,14948.7094363
420,19361.3904667,17.928230439,47241,16082.8315794
430,19361.3904667,18.245747743,48342,15470.12987
440,19361.3904667,18.554727813,49443,15830.1782977
450,19387.7162606,18.863824204,50544,15604.7980323
460,19370.1366062,19.177803535,51645,15984.9914609
470,19361.3904667,19.489582593,52746,15068.0870158
480,19393.962289,19.797823678,53847,15100.1708987
490,19405.1595833,20.108105095,54948,15724.2519897
500,19390.8215747,20.425571508,56049,15115.6187271
510,19393.5187995,20.758309834,57150,15886.2092943
520,19397.3501132,21.093380578,58251,15658.3414217
530,19405.4183213,21.39923536,59352,15611.7693015
540,19358.0534185,21.709075012,60453,15615.7133124
550,19392.9723429,22.020519217,61554,15655.8992182
560,19374.7861085,22.328407061,62655,14362.1837665
570,19383.788111,22.662907744,63756,15577.8375057
580,19395.6781977,22.976833619,64857,15583.9822463
590,19395.116667,23.279271454,65958,15669.6093037
600,19357.4021935,23.585014191,67059,15805.2284523
610,19381.304791,23.893115006,68160,15762.3027199
620,19356.599874,24.199942698,69261,15856.0825473
630,19379.1204001,24.49939851,70362,15960.7535527
640,19356.599874,24.805973459,71463,15842.56712
650,19366.2944991,25.111572504,72564,15906.2968855
660,19382.790366,25.418936046,73665,15944.6105554
670,19394.0259414,25.726973996,74766,15276.7308696
680,19361.3904667,26.032117591,75867,15974.7546208
690,19400.3689907,26.336567961,76968,15538.3136207
700,19402.3860835,26.640364877,78069,15593.5998336
710,19399.7737915,26.946656292,79170,15828.4732221
720,19360.446895,27.25337365,80271,15849.1432516
730,19392.1700234,27.557878331,81372,15494.9535184
740,19388.3672707,27.86108808,82473,15718.8415586
750,19444.5383837,28.170905065,83574,15784.7185828
760,19373.9943495,28.475050946,84675,15529.5885954
770,19409.5525547,28.782216912,85776,15612.3873042
780,19402.700178,29.082526747,86877,15660.41492
790,19397.4938379,29.383738929,87978,15741.5731616
800,19397.4938379,29.68716507,89079,15924.2293921
810,19400.7373476,29.998561806,90180,15473.6008637
820,19366.4665185,30.30791094,91281,15996.2064426
830,19396.2253156,30.61476087,92382,15690.0685788
840,19368.328029,30.916302773,93483,16100.5695966
850,19391.6223716,31.218192357,94584,15906.8509772
860,19356.599874,31.523987695,95685,15944.6105554
870,19397.4938379,31.832883517,96786,15203.8853592
880,19379.8094459,32.13599405,97887,15582.6860653
890,19386.5853658,32.440143352,98988,14868.7052799
900,19389.3318735,32.749123849,100089,14746.8816377
910,19415.0786815,33.052632955,101190,14932.7481146
920,19356.599874,33.362399905,102291,15043.1322534
930,19383.9683309,33.665968455,103392,15762.9338542
940,19392.9723429,33.972446327,104493,15717.2000916
950,19379.3463843,34.278187781,105594,16020.028524
960,19397.4938379,34.583850975,106695,15778.6093985
970,19386.1642723,34.888556654,107796,15771.7722608
980,19398.9782716,35.198361238,108897,15849.1430613
990,19370.3972343,35.504502547,109998,15685.6227818
1000,19402.0928945,35.815055524,111099,15944.6105554
1010,19388.3672707,36.126453115,112200,15821.1990376
1020,19356.599874,36.440782267,113301,15567.7608499
1030,19381.5505856,36.745870267,114402,15860.3343528
1040,19397.4938379,37.05116354,115503,15441.3667426
1050,19398.1377759,37.35238513,116604,15763.0872223
1060,19375.2225959,37.674086163,117705,15863.2187209
1070,19381.6320418,37.979822913,118806,15968.9464003
1080,19357.4021935,38.297336368,119907,15840.6200619
1090,19376.1390359,38.641073926,121008,15746.9817895
1100,19415.0786815,38.947703615,122109,15914.2261464
1110,19367.3562115,39.256306922,123210,15539.5274848
1120,19394.6206767,39.564179798,124311,15623.0506574
1130,19390.8215747,39.874427858,125412,15978.1289197
1140,19388.1817502,40.183422467,126513,15985.0398458
1150,19388.0493755,40.510836514,127614,15994.2341947
1160,19369.0752298,40.817431564,128715,15986.3559944
1170,19370.6016903,41.134221003,129816,11905.3873862
1180,19415.0786815,41.45585746,130917,15614.17238
1190,19402.0928945,41.769974496,132018,15596.9387638
1200,19356.599874,42.0805078,133119,15685.6959268
1210,19373.3145364,42.385611623,134220,15746.7019626
1220,19398.287404,42.691083656,135321,15869.0222791
1230,19356.599874,43.003194145,136422,15497.0499353
1240,19395.174571,43.323103311,137523,15973.253641
1250,19394.6206767,43.632182168,138624,15511.9824238
1260,19378.963771,43.945069702,139725,15772.7718363
1270,19392.8777215,44.299878765,140826,15805.3867303
1280,19388.8249538,44.606874952,141927,15967.7762554
1290,19367.8508509,44.918669405,143028,13576.7766216
1300,19366.6826534,45.22583537,144129,15786.8782436
1310,19376.1397488,45.536813434,145230,15506.0359784
1320,19370.3052769,45.847587079,146331,15608.8305394
1330,19399.7737915,46.170016832,147432,15836.4368695
1340,19378.3139723,46.478250219,148533,15659.9560281
1350,19400.4589797,46.78472467,149634,15946.1744127
1360,19356.599874,47.094828184,150735,15944.6105554
1370,19380.3212944,47.401799995,151836,15834.0792147
1380,19385.7118541,47.709309793,152937,15345.8653811
1390,19370.9252493,48.016971409,154038,15747.6742901
1400,19387.200945,48.333151442,155139,15067.3848743
1410,19371.1134892,48.645788799,156240,15778.2088598
1420,19375.0235415,48.957991232,157341,15434.5621776
1430,19385.6219273,49.265946217,158442,15340.3117935
1440,19395.2472106,49.574667556,159543,15427.6340519
1450,19382.790366,49.881957113,160644,15656.2028556
1460,19371.3867745,50.189500696,161745,15206.9428385
1470,19370.9952638,50.499984393,162846,15569.6829657
1480,19386.1835518,50.872406769,163947,15880.9656862
1490,19419.4988769,51.324860962,165048,15769.762393
1500,19378.3139723,51.753099738,166149,15904.3397451
1510,19391.7725593,52.179472665,167250,15949.3310439
1520,19374.0374616,52.623587199,168351,15860.488875
1530,19365.330038,53.10960188,169452,15870.0853605
1540,19391.7725593,53.60042894,170553,15882.662644
1550,19370.3743132,54.094390695,171654,15944.6105554
1560,19381.493977,54.575435622,172755,15902.3117794
1570,19380.6787563,55.061239898,173856,15806.1547768
1580,19386.9819666,55.574605975,174957,15300.8057368
1590,19378.4719774,56.108171381,176058,15863.5777464
1600,19423.703886,56.466378147,177159,15609.5536131
1610,19426.7556844,56.771552533,178260,15806.8421446
1620,19380.3212944,57.086332859,179361,15643.4399858
1630,19381.304791,57.395094398,180462,15769.1585778
1640,19385.678969,57.708049501,181563,12790.9301933
1650,19372.6511784,58.134284296,182664,15708.1181089
1660,19442.3662761,58.491223071,183765,16108.1146112
1670,19378.0122744,58.968440505,184866,15926.6377105
1680,19398.9782716,59.437679646,185967,15827.1660039
1690,19377.209012,59.988872904,187068,15897.2031146
1700,19395.289411,60.580519132,188169,16092.8576871
1710,19395.174571,61.028919604,189270,15905.3492645
1720,19368.328029,61.372551532,190371,15532.9053575
1730,19358.1805534,61.688162359,191472,15770.004975
1740,19419.4988769,61.99471507,192573,15609.6804473
1750,19376.1390359,62.29578741,193674,15996.4932695
1760,19411.9378923,62.607745227,194775,15949.9421175
1770,19390.8215747,62.917874827,195876,15826.190265
1780,19371.2195759,63.225569799,196977,15482.5986905
1790,19381.304791,63.537394188,198078,15831.160371
1800,19379.9422882,63.873413039,199179,15944.6105554
1810,19398.1377759,64.368243785,200280,15873.3982745
1820,19369.0752298,64.803417807,201381,15944.6105554
1830,19367.6340812,65.247362562,202482,15726.1662168
1840,19385.4756955,65.78565952,203583,14406.7919846
1850,19382.6322503,66.437379005,204684,15895.335206
1860,19389.144194,67.0477436,205785,15554.7997941
1870,19358.803047,67.448111381,206886,15529.9675234
1880,19389.6179856,67.868275215,207987,15874.8933459
1890,19390.8973399,68.297292747,209088,15323.4800187
1900,19356.599874,68.835149222,210189,15890.2320308
1910,19398.9782716,69.386608909,211290,15603.068942
1920,19386.1835518,69.803630777,212391,16008.9372149
1930,19356.599874,70.262567332,213492,15563.7930307
1940,19444.0741814,70.709408153,214593,15990.6878546
1950,19400.7373476,71.162258353,215694,15886.679093
1960,19363.0031459,71.70121518,216795,15678.0483521
1970,19366.9808844,72.186653812,217896,15367.4256712
1980,19416.8477776,72.62032378,218997,15914.5199496
1990,19371.2195759,73.082300947,220098,14796.2087484
2000,19358.9265495,73.517556223,221199,15862.8296758
2010,19439.9588987,73.952373156,222300,15789.5439874
2020,19389.144194,74.369034085,223401,15538.46972
2030,19392.9723429,74.94894338,224502,15052.0134325
2040,19366.255686,75.549125988,225603,15571.1798362
2050,19402.700178,76.248859774,226704,15833.9328215
2060,19376.1390359,76.921444871,227805,15732.4053526
2070,19399.7737915,77.515559512,228906,15850.6258228
2080,19385.4756955,78.084338285,230007,15841.2447629
2090,19389.144194,78.484176632,231108,15735.2595665
2100,19417.2723279,78.971137709,232209,15389.1625328
2110,19387.5128885,79.387501847,233310,15324.1468746
2120,19402.3897743,79.739050058,234411,15917.419891
2130,19394.8555263,80.140035798,235512,13713.3436619
2140,19381.6320418,80.598273997,236613,15797.9446126
2150,19395.8714018,81.040429881,237714,15731.5128946
2160,19397.4938379,81.398223534,238815,16089.5840679
2170,19402.3645481,81.779105311,239916,15796.0846876
2180,19402.700178,82.231479533,241017,15297.6062958
2190,19356.599874,82.66372114,242118,15944.6105554
2200,19419.4988769,83.055169365,243219,16013.2139775
2210,19402.3860835,83.486754952,244320,15928.6426288
2220,19380.6787563,83.915893509,245421,15944.6105554
2230,19419.4988769,84.347639038,246522,15928.9612095
2240,19389.6179856,84.828423952,247623,15944.6105554
2250,19401.401162,85.211674927,248724,15773.6537385
2260,19395.8714018,85.629770631,249825,15627.8456834
2270,19381.6320418,86.094553629,250926,15788.6854935
2280,19363.4525755,86.509845214,252027,15224.0968244
2290,19377.9355577,86.928794942,253128,14798.3857493
2300,19395.174571,87.397340002,254229,15866.6340427
2310,19370.3052769,87.845355586,255330,15924.9511337
2320,19403.4214056,88.24289145,256431,15349.8470012
2330,19380.5559072,88.674929494,257532,15944.6105554
2340,19385.678969,89.141142136,258633,12191.1318951
2350,19391.8870459,89.62678818,259734,15895.4767858
2360,19396.453735,90.165748,260835,15570.9603653
2370,19388.9099402,90.896995956,261936,15600.3390424
2380,19391.3446317,91.620980654,263037,15622.4094151
2390,19401.3653936,92.294026761,264138,15808.3485935
2400,19369.7813606,93.027437357,265239,15944.6105554
2410,19381.6320418,93.682456184,266340,15978.5139267
2420,19397.0706819,94.238936087,267441,15847.1447853
2430,19400.4589797,94.963416863,268542,15870.7539591
2440,19356.599874,95.662879945,269643,15304.2238283
2450,19382.9034672,96.407337671,270744,15794.5528135
2460,19419.4988769,97.117031065,271845,15663.8095433
2470,19356.599874,97.849751857,272946,10902.7460599
2480,19403.0326162,98.422190911,274047,15944.6105554
2490,19398.9782716,99.159469627,275148,15771.2924449
2500,19390.213822,99.893402815,276249,15725.0759025
2510,19399.7737915,100.657769921,277350,15808.3039671
2520,19394.0259414,101.345631636,278451,15831.4040585
2530,19389.7969324,101.927412767,279552,15796.6022343
2540,19377.4137588,102.506757132,280653,15851.3929488
2550,19398.9782716,103.152617773,281754,15605.8183893
2560,19400.4589797,104.014594085,282855,15944.6105554
2570,19401.4421902,104.743289808,283956,15860.8965834
2580,19376.1960654,105.493038883,285057,15154.494283
2590,19357.700496,106.089380312,286158,15728.8474585
2600,19400.7373476,106.755504858,287259,15840.7087743
2610,19356.599874,107.324609503,288360,15298.0134285
2620,19393.9023858,107.897368442,289461,15677.1580857
2630,19391.3446317,108.490573038,290562,15746.0982123
2640,19370.9937041,109.052818558,291663,15809.8982012
2650,19402.3860835,109.555673782,292764,15881.9818436
2660,19396.453735,110.030445041,293865,15805.776059
2670,19391.3446317,110.439147777,294966,14947.2075299
2680,19379.3463843,110.807992409,296067,15258.9040687
2690,19374.0374616,111.192747867,297168,15839.4585343
2700,19375.7347389,111.637650138,298269,15519.4998578
2710,19356.599874,112.060855867,299370,15797.8866879
2720,19402.700178,112.478399471,300471,15305.7629266
2730,19391.7725593,112.888680247,301572,15670.1631207
2740,19378.3898598,113.312459886,302673,16052.8625135
2750,19394.7199151,113.816119525,303774,15713.9232465
2760,19376.1439033,114.25926457,304875,15239.2802854
2770,19399.7737915,114.733035977,305976,15954.7491551
2780,19400.4589797,115.169081128,307077,15986.9275303
2790,19405.8409293,115.615991657,308178,15695.3322836
2800,19403.1930367,116.015509692,309279,15944.6105554
2810,19363.8566816,116.400503352,310380,16060.0750592
2820,19356.599874,116.778559627,311481,15869.8489515
2830,19356.599874,117.263422639,312582,15255.4545691
2840,19390.1681004,117.695098461,313683,15522.24899
2850,19389.3318735,118.130270346,314784,15464.8266382
2860,19375.2833172,118.600710337,315885,15970.425913
2870,19415.0786815,119.015614896,316986,15850.0201355
2880,19378.3898598,119.445058798,318087,15466.5549469
2890,19377.1579784,119.881766811,319188,15978.9092299
2900,19392.9723429,120.345876256,320289,15455.811945
2910,19392.002816,120.772019105,321390,15912.4052467
2920,19356.599874,121.155620755,322491,15644.2205788
2930,19412.8285706,121.558432572,323592,15590.5656282
2940,19402.6367643,121.949397122,324693,15878.4326419
2950,19381.0794295,122.411581701,325794,15386.9396128
2960,19406.536663,122.881224974,326895,15845.0131993
2970,19358.1805534,123.303105407,327996,15976.2179182
2980,19385.4756955,123.807399256,329097,15889.1635731
2990,19376.3800974,124.251137028,330198,15647.5929097
3000,19359.4246092,124.753973008,331299,15741.0466708
3010,19375.7583174,125.302369844,332400,15825.2959558
3020,19405.5285668,125.842033581,333501,15944.6105554
3030,19356.599874,126.414564581,334602,15917.663654
3040,19391.7089867,126.935404748,335703,15974.9185282
3050,19390.8215747,127.432466559,336804,15797.1192478
3060,19373.9943495,127.864518716,337905,15571.6567689
3070,19372.4511858,128.27477597,339006,15885.2859125
3080,19402.3860835,128.678988778,340107,15377.8148783
3090,19391.7725593,129.120498478,341208,15824.041858
3100,19387.200945,129.584061811,342309,16037.8687673
3110,19371.0377848,130.076407893,343410,16108.151021
3120,19389.144194,130.533324217,344511,15078.9278534
3130,19389.1381757,130.900556169,345612,15920.5895162
3140,19385.4756955,131.326611777,346713,15624.3029418
3150,19380.6787563,131.757707702,347814,15609.3204583
3160,19382.1304784,132.235171464,348915,15696.5090487
3170,19389.7969324,132.666550067,350016,15664.8501641
3180,19389.3318735,133.058555524,351117,16054.4969219
3190,19419.4988769,133.47930567,352218,15882.6873841
3200,19399.2600672,133.89580794,353319,15751.071338
3210,19433.9914429,134.361232418,354420,15734.1042644
3220,19381.7751542,134.753367454,355521,15891.2131526
3230,19383.4636345,135.196417132,356622,15587.8278205
3240,19419.4988769,135.631471839,357723,15291.3957497
3250,19390.8215747,136.105652081,358824,15555.6712232
3260,19378.182731,136.47896483,359925,15939.6956999
3270,19377.3066995,136.877471466,361026,15744.8298944
3280,19395.6781977,137.290089792,362127,15757.0713265
3290,19398.9782716,137.771173636,363228,15408.6767517
3300,19356.599874,138.189654228,364329,15442.1042497
3310,19401.6388558,138.614822028,365430,15944.6105554
3320,19397.4938379,139.049743308,366531,14377.335033
3330,19364.8068912,139.452307942,367632,15889.1994028
3340,19397.3099391,139.87684196,368733,15246.458311
3350,19391.7089867,140.276864626,369834,15867.1795578
3360,19358.7315954,140.709494542,370935,15975.3064987
3370,19443.789207,141.124866953,372036,15243.38656
3380,19433.3659718,141.566723907,373137,15390.528683
3390,19389.3318735,141.977651721,374238,15962.5036163
3400,19400.4589797,142.508063187,375339,15754.3979891
3410,19385.4345444,142.943369355,376440,15921.8997769
3420,19378.3621221,143.361338047,377541,15851.0543283
3430,19380.3212944,143.816400923,378642,15757.1061973
3440,19391.7089867,144.302990798,379743,15698.2060563
3450,19369.7813606,144.809174873,380844,15624.4013392
3460,19394.3722516,145.262616088,381945,15813.7875602
3470,19390.4383808,145.707677017,383046,15910.1852161
3480,19400.3208676,146.146318021,384147,15607.6844374
3490,19364.4847754,146.59336326,385248,15957.9673125
3500,19404.2960675,147.021883859,386349,15775.0913192
3510,19356.599874,147.517542969,387450,16057.4679105
3520,19402.700178,147.932353871,388551,15800.3015419
3530,19399.7737915,148.363064908,389652,15599.0166662
3540,19381.0070671,148.750717714,390753,15924.2197462
3550,19412.8603255,149.18499837,391854,15973.4627385
3560,19396.453735,149.614494445,392955,14725.1733553
3570,19381.6320418,150.04468845,394056,15881.2540857
3580,19391.9915377,150.519748375,395157,15861.2948734
3590,19382.9034672,150.969428383,396258,14349.6180373
3600,19370.466969,151.415799641,397359,15817.5328721
3610,19378.3898598,151.86489462,398460,15722.5140542
3620,19419.4988769,152.300182826,399561,15848.2845209
3630,19402.700178,152.730390515,400662,15818.9289704
3640,19389.7969324,153.142015404,401763,15800.9127643
3650,19356.599874,153.540565661,402864,15905.3771728
3660,19378.0122744,153.955612628,403965,15259.6234718
3670,19356.599874,154.424807721,405066,15900.2435736
3680,19358.7315954,154.851793901,406167,15525.7681098
3690,19356.599874,155.259065711,407268,15802.8316816
3700,19361.5955443,155.700004922,408369,15765.4197577
3710,19431.728438,156.153624469,409470,15769.1095536
3720,19383.788111,156.544668134,410571,15863.4991464
3730,19368.9852083,156.948986573,411672,15741.9707288
3740,19378.963771,157.385411908,412773,15720.5633824
3750,19356.599874,157.847008464,413874,15507.7775532
3760,19380.6787563,158.257935851,414975,15832.7689076
3770,19385.4756955,158.6497989,416076,15494.7905778
3780,19395.3492451,159.1108827,417177,15897.5694246
3790,19368.2064004,159.514091808,418278,15444.6887154
3800,19379.3463843,159.922281361,419379,15906.5424322
3810,19398.9782716,160.293898894,420480,15753.7628849
3820,19382.0749344,160.709986768,421581,15781.5609806
3830,19356.599874,161.172843618,422682,15530.1863176
3840,19394.0259414,161.590278599,423783,15694.049273
3850,19379.4637734,162.053782915,424884,15756.3973639
3860,19441.3644223,162.477273033,425985,15857.0620982
3870,19381.5505856,162.954632448,427086,15720.4942596
3880,19379.1204001,163.393545868,428187,15831.7314236
3890,19415.1787811,163.78267878,429288,14535.6804948
3900,19391.8287299,164.240127531,430389,15798.5365954
3910,19378.963771,164.628900359,431490,15436.7075039
3920,19356.599874,164.990155435,432591,15597.5306913
3930,19399.7737915,165.393413722,433692,15663.7395746
3940,19425.8085829,165.890843314,434793,15846.4783368
3950,19400.2528774,166.322161191,435894,16105.9785699
3960,19356.599874,166.803650022,436995,15863.8290729
3970,19424.5014723,167.268732377,438096,15780.4751703
3980,19370.9952638,167.73768884,439197,15902.0900608
3990,19381.5505856,168.106254214,440298,14807.5607142
4000,19389.6179856,168.539263885,441399,15944.6105554
4010,19391.7725593,168.966084136,442500,15675.1780889
4020,19403.1930367,169.37459058,443601,15958.5833507
4030,19402.3860835,169.864534536,444702,15805.1899166
4040,19387.200945,170.311660174,445803,15259.9789578
4050,19385.678969,170.704656503,446904,15829.1816694
4060,19405.5285668,171.21413992,448005,15670.6481393
4070,19371.2195759,171.64194976,449106,15705.3429414
4080,19391.3446317,172.088853874,450207,15877.6096547
4090,19403.1930367,172.582174149,451308,15783.5751864
4100,19376.3223259,173.005950367,452409,15581.7302372
4110,19418.4109684,173.364829403,453510,15411.671415
4120,19381.6320418,173.818982234,454611,15718.4353358
4130,19381.5505856,174.279861189,455712,13975.2241949
4140,19403.1930367,174.782251555,456813,15817.3066041
4150,19394.6206767,175.19525092,457914,15738.6697191
4160,19416.0453319,175.595483991,459015,15457.5620605
4170,19380.0564424,176.0308573,460116,15435.4397353
4180,19396.453735,176.447044817,461217,15895.5397015
4190,19378.3621221,176.932837119,462318,15653.6847738
4200,19395.9956246,177.397261317,463419,15896.5847601
4210,19391.8691097,177.805168191,464520,14688.9215279
4220,19402.3860835,178.226688968,465621,14931.3001913
4230,19389.6179856,178.609687627,466722,15782.6673872
4240,19382.9034672,179.00789063,467823,15823.8491541
4250,19402.0928945,179.463732689,468924,15953.9272318
4260,19385.4756955,179.936683002,470025,15888.4187716
4270,19380.6787563,180.321049295,471126,15817.2787118
4280,19363.8566816,180.770879837,472227,15915.9472767
4290,19397.4938379,181.258733853,473328,15862.9007966
4300,19402.700178,181.693313011,474429,15886.4149056
4310,19415.0786815,182.073439126,475530,15322.023986
4320,19368.328029,182.477505249,476631,15858.8649338
4330,19356.8759644,182.923223909,477732,15807.868958
4340,19378.3139723,183.36727515,478833,15910.7996189
4350,19390.3327221,183.844904841,479934,14561.3352364
4360,19388.0493755,184.271660517,481035,15808.2831247
4370,19394.0259414,184.675683448,482136,15338.6325816
4380,19356.599874,185.120583153,483237,15148.4588634
4390,19392.2241002,185.55288677,484338,15816.5225288
4400,19379.8590585,186.029697506,485439,15837.1465713
4410,19377.4588593,186.515581326,486540,15488.3547407
4420,19388.0493755,186.955912415,487641,15710.1796998
4430,19397.5508282,187.388898993,488742,15405.2483443
4440,19402.0928945,187.748024785,489843,15876.7866724
4450,19388.3171296,188.158862793,490944,15754.5258203
4460,19385.678969,188.591256644,492045,12283.9209212
4470,19356.599874,189.00267241,493146,15679.5759426
4480,19383.6311008,189.420151011,494247,15873.7911737
4490,19368.550881,189.876220154,495348,15753.703153
4500,19356.599874,190.280505236,496449,15849.494325
4510,19379.166455,190.67760746,497550,15770.0376694
4520,19379.8094459,191.086654884,498651,14950.17954
4530,19363.8566816,191.59316312,499752,15636.603755
4540,19402.3860835,191.998904787,500853,15104.5565479
4550,19378.5684403,192.500763581,501954,15737.8444349
4560,19373.9256845,192.948038469,503055,15144.9393772
4570,19366.6669657,193.383708997,504156,15967.8845889
4580,19371.0377848,193.820478165,505257,15637.9543124
4590,19369.9428014,194.249552575,506358,16029.58848
4600,19399.0696314,194.67247477,507459,15896.1773625
4610,19382.9034672,195.141079275,508560,15970.8523211
4620,19468.5721023,195.61488019,509661,15561.2485447
4630,19390.8215747,196.047481025,510762,15716.2222218
4640,19356.599874,196.440122402,511863,16014.4945056
4650,19400.4589797,196.830832926,512964,15816.0200447
4660,19384.1432469,197.325776145,514065,15733.749256
4670,19381.6916048,197.784546344,515166,12254.5340737
4680,19381.304791,198.191966977,516267,15752.4396955
4690,19396.1763909,198.598181201,517368,15940.3709152
4700,19374.060202,199.017992649,518469,15780.4458802
4710,19381.7751542,199.488706337,519570,15806.8049944
4720,19371.6467564,199.906624993,520671,15715.2948495
4730,19381.7751542,200.337064899,521772,15884.442273
4740,19378.1128745,200.72683758,522873,15851.3746716
4750,19419.4988769,201.142115908,523974,15809.0191696
4760,19388.3672707,201.540344997,525075,15899.2107544
4770,19400.4589797,201.948576888,526176,15896.568477
4780,19376.4263731,202.384744349,527277,15797.0079148
4790,19437.2959634,202.782262679,528378,15884.6007529
4800,19398.9782716,203.249156572,529479,15668.5452008
4810,19400.7373476,203.696634168,530580,15949.8939489
4820,19390.8215747,204.145317745,531681,15860.4753913
4830,19419.4988769,204.55503744,532782,15818.6151741
4840,19391.3927651,204.918272121,533883,15767.8954747
4850,19398.589657,205.345444758,534984,15412.811211
4860,19387.200945,205.802168637,536085,15791.2931447
4870,19391.3446317,206.222489847,537186,15301.3380226
4880,19403.1241873,206.667392546,538287,15846.1013903
4890,19375.9184246,207.031355092,539388,15585.8843755
4900,19378.0122744,207.445136207,540489,15914.536789
4910,19381.7751542,207.84957054,541590,15888.4272728
4920,19373.9688199,208.265154212,542691,15883.1247941
4930,19417.7507836,208.71876991,543792,15955.1233316
4940,19380.9446532,209.186279196,544893,15920.2162371
4950,19378.8454423,209.641998947,545994,15944.6105554
4960,19398.8329723,210.062867553,547095,15686.8716958
4970,19409.0088737,210.466410657,548196,15789.1052996
4980,19387.200945,210.872795943,549297,15523.9025373
4990,19361.9499388,211.283568947,550398,16122.2897735
