it,funval,time,funcount,weight
0,12496.4251472,0.000681252000049,435,10829.2937684
10,12688.4869132,0.00142237400019,779,10899.8309886
20,13413.8388934,0.00216948300022,1111,10167.9604847
30,13361.9469471,0.00288280800009,1457,11232.4785808
40,13473.1923515,0.00357945500014,1795,11400.5514858
50,13180.5963973,0.00423932300009,2136,11653.764461
60,13182.0617928,0.00490346800007,2478,11479.9329988
70,13110.1611626,0.00556932299992,2821,11404.6390817
80,13068.5202566,0.00623945499979,3163,11368.200241
90,13299.3841765,0.00695876699979,3504,11069.7132571
100,13173.7337743,0.00768748699966,3837,11104.2630532
110,12954.5053929,0.00841364199982,4175,11167.6592253
120,13006.8371235,0.00938697999982,4511,11034.9827026
130,13112.8402954,0.0100861919998,4857,11494.7424761
140,13152.2855365,0.0108132019998,5181,11075.2592436
150,13515.7428073,0.0115346529999,5501,11745.9617396
160,13619.7651886,0.012247122,5829,11420.6577796
170,13691.0403481,0.0129202479998,6166,11215.9258358
180,13423.3746531,0.0136062029997,6508,12126.9687086
190,13725.3720478,0.0145568749997,6837,11907.059233
200,13913.9193543,0.0152577979998,7178,12027.1951831
210,13759.3875198,0.0159732609998,7508,11842.3502967
220,13739.1347105,0.016715239,7848,11360.397334
230,13841.0157948,0.017388365,8180,12402.2727686
240,14115.3883181,0.018135902,8511,12208.020504
250,13903.5669341,0.01885778,8847,11886.4498477
260,14008.6202982,0.019592915,9176,12560.7833445
270,14201.9203469,0.020363117,9505,12488.9903191
280,14202.0241253,0.0211705260001,9857,12435.2907662
290,14354.2978797,0.021954414,10192,12585.4324347
300,14135.2542486,0.0227849159999,10529,12437.7550706
310,13978.1650236,0.0236025889999,10860,12028.8249272
320,14230.1200732,0.0244476309999,11195,12702.2005109
330,14066.3253526,0.0252507629998,11535,12336.6144045
340,14247.1377012,0.026086825,11875,12576.8624167
350,14152.498495,0.026892095,12207,12494.4981981
360,14164.5234021,0.027725591,12533,12438.5664548
370,14253.7428467,0.028577048,12869,12052.4765041
380,14382.8987148,0.0294152469999,13188,12674.6103532
390,14315.4208216,0.0301786069999,13535,12860.518977
400,14309.4242913,0.0308825239999,13863,12410.5006729
410,14200.3629753,0.0316099619999,14203,12329.4200078
420,14262.6133965,0.0322835149998,14531,12722.1144796
430,14411.5336012,0.0330199329997,14858,12700.7639294
440,14170.3794835,0.0337289809995,15190,12456.678738
450,14148.8332929,0.0344452999993,15534,12811.6264707
460,14202.5681815,0.0351265509994,15878,12439.9560415
470,14124.2561371,0.0358043809995,16217,12358.4671056
480,14215.1673084,0.0364728029995,16553,12612.872101
490,14247.4045654,0.0371339539993,16884,12801.5810391
500,14419.0361805,0.0378109289993,17212,12876.2070851
510,14349.3070486,0.0384960289994,17545,12741.0035682
520,14602.557076,0.0391742869992,17895,12145.833118
530,14273.5749078,0.0398777759992,18227,12613.0179822
540,14208.6210322,0.0406180429991,18567,12536.9502286
550,14066.1239208,0.0413540339991,18895,12236.8026908
560,14395.5895765,0.0420438379992,19232,13084.4585566
570,14272.0991261,0.0427520309991,19578,12638.3470087
580,14208.2042195,0.0434302879992,19913,13146.7649852
590,14096.3601954,0.0441620019992,20253,12759.4397422
600,14020.6577202,0.0449001309992,20586,11952.4834738
610,14304.1697607,0.0455672699991,20915,12612.7862577
620,14214.2787342,0.046273751999,21261,13139.7120642
630,14140.3782656,0.047012735999,21588,12615.5830503
640,14444.7480731,0.047720073999,21934,12806.0862299
650,14241.2659247,0.0484530709989,22265,12889.4003838
660,14410.5649424,0.0491518559988,22590,12592.1590523
670,14444.4728885,0.0498348179988,22934,13048.4998992
680,14412.7307487,0.0505537029987,23275,12571.6907673
690,14559.7691828,0.0512802849987,23608,13059.7914566
700,14407.5640774,0.0520500599989,23946,12855.7329322
710,14558.144221,0.0527065069989,24274,13227.7050107
720,14614.5783066,0.0534330899989,24603,12950.0075776
730,14574.4300283,0.054225102999,24936,13115.6786806
740,14533.4300675,0.055069716999,25271,13317.8077299
750,14604.1212479,0.0558694269992,25612,13193.0983147
760,14652.0957239,0.0566768359993,25944,12742.7853583
770,14481.008301,0.0574919419992,26279,12705.1748705
780,14635.4983529,0.0582168139993,26603,13357.7278526
790,14622.8105216,0.0589579359994,26937,13040.6082758
800,14596.8467864,0.0596438909995,27273,12658.0422936
810,14596.8467864,0.0603247139995,27600,12688.8489607
820,14583.2051286,0.0610175119996,27933,12637.523063
830,14620.6003141,0.0617145869994,28259,12895.0894285
840,14722.466417,0.0624907769993,28581,13120.8466622
850,15004.5521409,0.0632366039995,28923,13525.3638341
860,14997.6702495,0.0639657529996,29263,13371.6793445
870,15112.4117866,0.0646440099997,29608,13158.1173008
880,15169.0619674,0.0653171359997,29938,13388.6744075
890,15105.7490078,0.0659906889998,30274,12806.5279153
900,15205.8576343,0.0666561169999,30592,13136.8941926
910,15572.7646507,0.0673296699997,30932,13831.4302406
920,15586.6537886,0.0680387189996,31263,13552.3191736
930,15457.7515187,0.0687802689997,31606,13668.6324393
940,15591.3954679,0.0695449129998,31937,13016.9187619
950,15704.3112033,0.0702454089999,32277,13699.7725786
960,15621.9623617,0.0709399179998,32614,13982.7001207
970,15546.3902369,0.0716399849998,32955,13782.7540054
980,15713.5851318,0.0723644289999,33297,13808.7726974
990,15586.6615406,0.0730957149999,33634,13181.4563492
1000,15444.6453344,0.0738462459999,33973,13892.3013523
1010,15690.7549145,0.0745848019999,34314,13576.8370705
1020,15571.7154323,0.0753310559999,34640,13691.719042
1030,15556.8609453,0.0760212869998,34979,13984.9675173
1040,15689.280131,0.0766760229999,35307,14082.008819
1050,15695.892456,0.0773589849998,35644,13554.8885288
1060,15522.9309482,0.0780569149999,35987,13533.6145412
1070,15515.5470063,0.0788010309998,36326,13138.6233374
1080,15539.9744107,0.0795455749997,36653,14054.0215573
1090,15469.9589742,0.0802618939997,36989,13271.7877855
1100,15603.0427332,0.0809884759997,37336,13548.1260674
1110,15707.6128696,0.0817287429998,37668,13901.7741626
1120,15795.6014782,0.0824625959997,37999,13438.8950269
1130,15822.7897151,0.0831370039996,38322,13527.5123665
1140,15823.9223982,0.0838075629995,38648,13094.1566723
1150,15716.2137776,0.0845388489995,38978,13844.6352557
1160,15699.5321546,0.0852970769995,39319,13437.8320736
1170,15644.3529746,0.0860104019994,39637,13584.6580907
1180,15860.5004798,0.0867331359993,39975,13777.6209836
1190,15829.8039381,0.0874314929993,40305,13364.7549266
1200,15773.7344383,0.0881319879993,40637,13725.0647169
1210,15976.4512067,0.0888273509993,40971,13560.4504237
1220,16286.7501592,0.0895171559994,41304,14329.2048538
1230,15854.6846981,0.0902411729994,41632,14352.7051544
1240,15809.0612246,0.0909827229996,41955,13816.8740716
1250,15887.9090957,0.0916691059995,42297,14098.5944638
1260,15754.4065071,0.0923426589993,42624,13502.5457022
1270,15528.8622424,0.0930470029994,42955,13922.7480332
1280,15729.004255,0.0937577619993,43291,13934.4445014
1290,15811.8800746,0.0944822059992,43624,13908.3957447
1300,16098.7708351,0.0951673059992,43961,14083.6249459
1310,15908.4061226,0.0958759269993,44311,14181.8911369
1320,15846.8456724,0.0965460589994,44639,14028.7821123
1330,16085.195923,0.0973000109996,44979,13654.2414277
1340,15876.0307027,0.0980214619997,45323,13544.5802953
1350,15884.7212295,0.0987518929996,45665,13318.085476
1360,16036.7473799,0.0994318619996,46005,13348.0109674
1370,15787.5895081,0.100149463,46334,13919.5170478
1380,16193.0320088,0.100849531,46662,13259.8345685
1390,15833.0918302,0.101558152,47011,13315.8657885
1400,15896.4602985,0.102327928,47349,13667.0538509
1410,15767.7578006,0.103101124,47674,13963.7582873
1420,15728.7835738,0.103844385,48011,13554.65393
1430,15805.5637146,0.104520076,48346,13910.510082
1440,15649.8767906,0.105179516,48676,13667.2796323
1450,15669.5567837,0.105893269,49017,13616.8731265
1460,15593.0986388,0.106584356,49352,13675.6790087
1470,15501.7181171,0.107250212,49675,13158.4427187
1480,15785.707406,0.107959688,50000,13374.6486999
1490,16061.15155,0.108633669,50345,13458.5064886
1500,15987.0605279,0.109293966,50689,12830.7076175
1510,15500.8851078,0.109995745,51028,13507.8832943
1520,15553.1750425,0.110688114999,51371,13317.249773
1530,15526.4009666,0.111359529999,51720,13573.8280407
1540,15441.4642254,0.112089532999,52050,13269.8608982
1550,15257.2986006,0.112775915999,52395,12996.4760364
1560,15368.2881776,0.113475555999,52731,13580.5141322
1570,15639.7729087,0.114146971,53065,12894.2387929
1580,15642.6651647,0.114878257,53398,13437.0231665
1590,15595.8352555,0.115612537,53722,13424.3730789
1600,15568.0288858,0.116342969,54059,12362.3427954
1610,15641.1209702,0.117045175,54392,12200.1014992
1620,15432.0625628,0.117790574,54735,12700.9814759
1630,15604.0892449,0.11849278,55063,12774.1874031
1640,15397.7802254,0.119187288,55405,13064.2163521
1650,15416.4618426,0.123232456,55743,12612.9240609
1660,15434.5906384,0.123901305,56077,13161.372164
1670,15505.0976447,0.124608643,56399,12443.2255544
1680,15472.7528497,0.125309139,56729,13342.367607
1690,15462.794225,0.126016477,57068,12174.692076
1700,15711.3678239,0.126688319,57395,13505.4054686
1710,15864.3461652,0.127383255,57734,13837.8309402
1720,15550.3162762,0.128023879,58076,12888.8563822
1730,15520.6996607,0.128688879,58407,12907.0824695
1740,15664.9221295,0.129340193999,58742,13017.1639023
1750,15587.0539754,0.130003911999,59066,13562.4292863
1760,15605.1364019,0.130641541999,59403,12926.4128334
1770,15670.0131592,0.131313383999,59748,13026.0763874
1780,15626.9996919,0.131974962999,60077,12953.3957619
1790,15407.0757618,0.132667333,60417,12830.1728295
1800,15340.1444451,0.133347729,60758,12740.5260389
1810,15472.7945327,0.134037105,61099,13271.3623349
1820,15427.8825725,0.134708092,61425,12677.3694773
1830,15311.5021153,0.135405167,61755,12747.7293479
1840,15479.5717815,0.13607316,62079,12518.7474513
1850,15400.8187593,0.136767667999,62407,12982.5489148
1860,15524.6354913,0.137463458999,62750,13193.8874065
1870,15319.7123618,0.13815198,63085,12993.0943892
1880,15459.8458162,0.138843494999,63402,12755.6841888
1890,15356.3808094,0.139509778,63740,13062.1836368
1900,15158.4892579,0.140202574999,64072,12655.6423441
1910,15345.5475177,0.140882116,64424,12625.067555
1920,15127.7880265,0.141580045,64758,12852.8538015
1930,15119.4038973,0.142254454,65097,12897.0545142
1940,15070.4920233,0.142935277,65437,12777.7952412
1950,15075.7361745,0.143616101,65773,12816.1779558
1960,15156.0950045,0.144370908,66117,12801.3631824
1970,15062.4316011,0.145094069,66442,13133.3273956
1980,15224.9415641,0.145814664,66775,12526.3836866
1990,15246.4837725,0.146510027,67099,12556.170828
2000,15124.8806267,0.147238319999,67432,12994.5679931
2010,15157.5975744,0.147965328999,67767,12917.9625497
2020,15062.0417906,0.148703884999,68101,13175.2425059
2030,15005.8583363,0.149439447999,68433,13040.8288103
2040,15066.3083676,0.150164746999,68762,12923.9073893
2050,15203.0825983,0.150898598999,69094,13309.3144909
2060,15210.9007747,0.151631168999,69427,13323.7953701
2070,15379.3004073,0.152372718999,69757,13366.3968787
2080,15776.5224295,0.153068937999,70094,13029.3401469
2090,15533.4793288,0.153730516999,70430,13074.4732732
2100,15021.4298821,0.154392950999,70764,13054.864483
2110,15087.5007994,0.155128941999,71099,12876.5123358
2120,15000.1433944,0.155870064999,71431,12278.7298191
2130,15025.1373054,0.156612470999,71767,12912.1611975
2140,14929.7690394,0.157324512999,72100,12767.0368234
2150,14956.5833212,0.158030994999,72433,12460.4819911
2160,14986.207712,0.158788367999,72774,12900.5148999
2170,15031.7344324,0.159502119999,73126,12321.1637765
2180,15051.366172,0.160243669999,73468,12803.3581672
2190,15007.2731739,0.160941170999,73814,12751.8884787
2200,14895.2601473,0.161637389999,74155,12643.5894677
2210,15052.4401133,0.162401605,74498,11985.3613841
2220,14880.8165045,0.163114929999,74821,12576.9911453
2230,14889.0699486,0.163858618999,75161,12461.9318147
2240,14902.3756768,0.164624545999,75504,12185.141075
2250,14889.0699486,0.165310501,75844,12359.0593404
2260,14953.9758022,0.166025537,76179,12415.7078575
2270,14938.64121,0.166758960999,76516,12434.0711066
2280,15234.0554195,0.167495378999,76852,12390.1907028
2290,15093.5759709,0.168206565999,77189,12318.2971063
2300,15025.6023831,0.168942983999,77535,12603.5123426
2310,15051.7259903,0.169667855999,77862,12994.6256525
2320,15212.7400559,0.170404274999,78204,12663.1236194
2330,15076.9706264,0.171166779999,78533,13069.9468767
2340,15291.2441559,0.171899776999,78856,13122.91875
2350,15221.27411,0.172737977,79185,12879.8019559
2360,15092.1798981,0.173470118999,79503,12739.6744401
2370,15191.5460168,0.174203971,79835,12835.9277907
2380,15148.3890948,0.174892065,80157,12673.3184991
2390,15198.1643628,0.175758062,80495,13080.396094
2400,15022.0336539,0.176437175,80828,13399.9685205
2410,15091.6115555,0.177159053,81164,12620.9058398
2420,15383.675026,0.177904024,81491,12699.7501002
2430,15161.4624567,0.17861906,81837,12727.876101
2440,15032.581838,0.179381137,82182,12779.9904659
2450,15040.6049506,0.180088902,82510,12755.8455483
2460,14922.4639174,0.180826603,82851,12441.9090014
2470,15001.4636416,0.181509992,83188,12973.9064547
2480,14888.9551319,0.182247266,83514,12558.8236171
2490,15228.2430549,0.182987961,83860,12799.0483078
2500,14888.2863976,0.18374063,84200,12730.9918287
2510,14928.807347,0.184491161,84530,12169.7105193
2520,14878.9716942,0.185236987,84865,13070.757826
2530,14933.6704991,0.185935771,85193,12635.2577629
2540,15005.6235021,0.186644392,85538,12431.0737455
2550,15247.6779789,0.18738466,85874,12322.2683399
2560,15092.0312764,0.188125355,86202,12394.5281272
2570,15317.555637,0.188836114,86534,12932.1116232
2580,15142.376414,0.189655924,86862,13215.9910257
2590,15388.9122592,0.190412442,87206,12674.7736874
2600,15096.991241,0.19129469,87552,12529.5805698
2610,15156.9104309,0.191977224,87890,13312.316622
2620,15185.2392131,0.192637948,88224,12855.2698815
2630,15098.6863993,0.193423119,88557,13278.2558892
2640,15090.6910498,0.194123614,88889,12671.0935053
2650,15090.6910498,0.194799733,89212,13107.1080707
2660,15165.5672665,0.19561655,89543,12937.1995795
2670,15204.5150002,0.196373923,89882,12942.223824
2680,15283.8282517,0.1971561,90211,13014.5179879
2690,15080.8194136,0.198001997,90551,12955.5064142
2700,15241.1451579,0.198855592,90893,12992.2960841
2710,15306.7551574,0.199565923,91227,13204.3108521
2720,15552.2291513,0.200304907,91563,13166.3470316
2730,15412.1886469,0.201193569,91910,12580.4864236
2740,15313.6578856,0.202092495,92250,12757.3688121
2750,15482.1971532,0.202963624,92591,13121.804475
2760,15359.9355729,0.203679942,92927,12813.124281
2770,15431.8639374,0.204506167,93259,12917.807358
2780,15353.6731417,0.205252421,93592,12576.9159989
2790,15395.1649967,0.20596318,93938,12955.4777915
2800,15262.4815746,0.206851843,94281,13079.5055901
2810,15334.0392657,0.207660963,94611,12559.9607844
2820,15356.7434196,0.208409783,94944,12826.7186612
2830,15496.9365504,0.209121397,95279,12924.4541322
2840,15422.1493102,0.209823175001,95615,13280.7759842
2850,15362.8396818,0.210521960001,95956,12597.131516
2860,15560.3532221,0.211228442,96293,13465.3996874
2870,15523.9775896,0.211929365,96621,13530.5583867
2880,15476.3777153,0.212634137,96956,12444.3277746
2890,15406.1450724,0.213583954,97277,12632.6366652
2900,15559.2562025,0.214385375,97613,12510.0239618
2910,15506.104643,0.215075606,97940,12602.2953735
2920,15618.5162965,0.215811169001,98268,12964.0837185
2930,15472.8913837,0.216562556,98599,12866.1554842
2940,15589.7075799,0.21727417,98936,13125.2317377
2950,15685.4702958,0.217942163,99279,12954.4698517
2960,15598.2641889,0.218627691,99613,12701.4500856
2970,15451.7860895,0.219365392001,99953,12858.4867136
2980,15621.6078843,0.220064605001,100281,13233.9090699
2990,15624.5858119,0.220749705001,100616,13117.9284654
3000,15518.9545196,0.221486551,100946,13173.5905349
3010,15353.070429,0.222225536,101287,13086.5516153
3020,15512.8793268,0.222930735001,101635,13161.5971259
3030,15381.1816866,0.223596163,101974,13339.8218001
3040,15528.3416373,0.224284684,102306,13081.9606051
3050,15360.5027919,0.224945835,102643,13035.8176863
3060,15276.8190437,0.225671989,102986,13052.7267348
3070,15304.5366613,0.226423376,103322,13029.7158428
3080,15191.4235007,0.227103772,103656,12943.4135238
3090,15223.9371005,0.227814103001,103980,12661.0925163
3100,15147.4833994,0.228493216001,104315,12575.9287947
3110,15200.1833096,0.229190291001,104652,13272.1695199
3120,15273.1915182,0.229882661001,104976,13157.4006816
3130,15198.9878471,0.230627633001,105312,13198.9097957
3140,15493.1357717,0.231375171001,105638,13125.5751359
3150,15314.6094556,0.232040599001,105981,12835.9890224
3160,15284.8976801,0.232760766001,106333,13202.0036266
3170,15270.0153655,0.233450570001,106667,12782.2903836
3180,15339.6305748,0.234139518001,107003,12729.7763621
3190,15314.4612364,0.234822908001,107329,12700.260557
3200,15236.6142039,0.235502448,107661,13353.5506587
3210,15312.6265862,0.236193107,107983,13200.7916385
3220,15386.1287398,0.236898307001,108322,13066.3058798
3230,15308.3927242,0.237575281,108659,13137.7059889
3240,15174.1160064,0.238233011,108995,13050.5375861
3250,15164.0737392,0.238948046,109333,13085.4051482
3260,15276.2086379,0.239672063,109665,13455.3298941
3270,15389.626489,0.240359729,110004,13814.4935935
3280,15490.8595429,0.241018742,110335,13195.8700274
3290,15206.1886028,0.241702559,110665,12429.8013091
3300,15007.4883487,0.242390653,110991,13141.1111685
3310,15131.6986987,0.243103123001,111324,13375.725449
3320,15093.5851937,0.243799769001,111665,12856.8899249
3330,15124.1726364,0.244486152001,111999,13162.57662
3340,15212.0514178,0.245226847001,112329,13261.4431255
3350,15279.7454329,0.245910664001,112666,13103.3182957
3360,15344.6553351,0.246676591001,112990,13059.8980414
3370,15436.095757,0.247383073001,113330,13061.2288191
3380,15260.3582483,0.248095971001,113668,13546.4498946
3390,15420.462969,0.248791334001,113998,12797.3298762
3400,15329.5008175,0.249499100001,114336,13037.6355735
3410,15355.6839627,0.250175219001,114682,13027.2738588
3420,15209.8781588,0.250862030001,115010,13152.7017268
3430,15273.9625321,0.251539860001,115350,13360.8026835
3440,15200.4414089,0.252230092001,115681,12859.1511075
3450,15161.0036885,0.252920324001,116019,12682.1527205
3460,15167.8599803,0.253589173001,116346,13318.6965612
3470,15256.906469,0.254280260001,116682,12503.6390355
3480,15331.176592,0.254965788001,117004,13050.5623035
3490,15441.6813245,0.255660724001,117338,13381.2115263
3500,15181.2524385,0.256359509001,117663,13336.5632532
3510,15400.9865927,0.257053162001,118004,12560.0858948
3520,15069.4460084,0.257727571001,118338,13286.1556833
3530,15190.6164048,0.258402835001,118667,12568.7490139
3540,14922.2609294,0.259098198001,119015,12679.977852
3550,14840.8106293,0.259765336001,119352,13035.1502033
3560,15135.4136213,0.260446159001,119687,13032.1046109
3570,15245.8363213,0.261130403001,120020,12826.9316507
3580,15202.7808823,0.261817213001,120353,12736.4668723
3590,15051.0137036,0.262498036001,120695,12789.5095265
3600,15111.824332,0.263161753001,121039,13129.5121459
3610,15105.2172854,0.263859255,121361,12594.7065312
3620,15153.5766028,0.264562744,121696,12837.978941
3630,15446.5963322,0.265308571,122023,12715.156853
3640,15047.4825065,0.26601377,122364,12501.5963442
3650,14982.0490626,0.266834008,122690,12599.7595574
3660,15013.9717006,0.267499436,123031,12684.0100969
3670,15002.8484521,0.268149468,123372,12815.0835744
3680,14740.6803691,0.26879779,123696,12849.2685811
3690,14888.0010785,0.26950299,124029,12169.4996737
3700,14833.1309229,0.270172267,124357,12925.2371619
3710,14897.6930449,0.270827858001,124691,12743.4066486
3720,14964.137491,0.271525788001,125024,12927.2309861
3730,14908.1182696,0.272198914001,125361,12312.7675373
3740,14736.1638417,0.272912667001,125690,12836.2169049
3750,14926.5391144,0.273593490001,126031,12934.9891073
3760,14968.8097241,0.274280728001,126367,13258.8228798
3770,14998.1170059,0.275003034001,126700,13240.5735018
3780,15207.2050589,0.275707806001,127040,13127.0248476
3790,14727.519483,0.276376227001,127376,12922.9102255
3800,14699.5327622,0.277121199001,127712,12884.6946459
3810,14685.5901023,0.277795608001,128049,12633.3871066
3820,14953.7862581,0.278457187001,128383,12613.8437162
3830,14813.7071336,0.279154689001,128711,12432.2508873
3840,15074.9791937,0.279858178,129045,12422.1676095
3850,14954.2103721,0.280563805,129389,12898.8477083
3860,15016.6785209,0.2812643,129720,12521.34453
3870,15097.7904077,0.281919036,130056,13266.822818
3880,14922.2749219,0.282643908,130389,13018.4507561
3890,15072.5207577,0.283297789,130724,12693.2151703
3900,15203.5009045,0.284000422,131067,12623.6037945
3910,15177.1681909,0.284689798,131406,13172.2195537
3920,15160.0066852,0.285386872,131738,12939.9670381
3930,15338.0786163,0.286110033,132077,12630.0828787
3940,15252.9974481,0.286795988,132408,13208.5503873
3950,15005.5934458,0.287489641,132742,13071.3236067
3960,15304.9537337,0.288188853,133073,12675.1118496
3970,15043.019995,0.288892769,133419,12351.479468
3980,14961.6014932,0.28976903,133749,13166.4601438
3990,14982.2688621,0.290424622,134077,12752.8532796
4000,14875.8095011,0.291122979,134426,12940.8998213
4010,14795.2073224,0.291805941,134757,12478.0440734
4020,14776.9999152,0.292488903,135098,13159.2747052
4030,14853.772581,0.293162456,135428,12854.3767696
4040,14731.4415941,0.293879203,135766,13173.3558508
4050,15039.4898913,0.294572,136096,12941.4546661
4060,15033.704148,0.295257528,136437,12774.2879396
4070,15160.942673,0.295967005,136787,13055.2764758
4080,14770.6017504,0.296666645,137098,12970.3901772
4090,14923.6472607,0.297359442,137430,12564.2931782
4100,14808.1505881,0.298115532,137770,12578.8509383
4110,14935.6574836,0.298772835,138097,12498.342667
4120,15100.151216,0.299454941,138429,12631.4363283
4130,15309.4877295,0.300141324,138770,13172.9263494
4140,15312.8312704,0.300842247,139102,12762.5560855
4150,15247.4820356,0.301555999,139450,12465.337366
4160,15134.9568158,0.302273173,139796,12634.0444882
4170,14867.287486,0.303006598,140131,12774.3924138
4180,14936.7390696,0.303712225,140467,12699.1168167
4190,14876.5441348,0.304404167,140785,12621.8368413
4200,14830.479762,0.305095254,141115,12772.1333066
4210,15129.1752876,0.305779499,141451,13027.4292898
4220,15149.7721658,0.306461178,141778,12625.3017385
4230,15062.2378761,0.307179635,142116,12954.875268
4240,14849.4575528,0.307870294,142444,12759.4989167
4250,14896.2663138,0.308573355,142766,12784.3442268
4260,14725.0757966,0.309243914,143106,12969.5926485
4270,14780.7791437,0.309930297,143441,12706.9715053
4280,14744.1239372,0.310637635,143776,12692.400587
4290,14838.5146451,0.311340696,144114,12672.2675396
4300,15017.1562887,0.312016387,144444,12960.389597
4310,14619.7774564,0.31270448,144779,12272.283539
4320,14911.2749984,0.313456294,145115,12337.8901561
4330,14807.606546,0.314239754,145443,12803.8861491
4340,14942.0253995,0.315024925,145787,12830.7569209
4350,14769.879644,0.315813517,146119,12077.2329516
4360,14611.323285,0.316626485,146457,12633.2278014
4370,14844.6774173,0.31741636,146798,12771.0723412
4380,15048.1584483,0.318233177,147136,12428.4936882
4390,14895.0591287,0.319041441,147476,12776.1397135
4400,14781.3540134,0.319835593,147809,12463.7312374
4410,14959.1399494,0.320636159,148141,12521.4919321
4420,14880.9041881,0.321446989,148476,12521.3867295
4430,14854.6523105,0.322282195,148810,13028.1894789
4440,14528.5975527,0.32305197,149145,12616.9057915
4450,14527.2918482,0.323843555,149491,12550.377469
4460,14675.2800237,0.324617179,149832,12364.9088019
4470,14622.6068948,0.325371559,150163,12475.0299722
4480,14651.8776284,0.326168703,150490,12150.0314151
4490,14824.0059462,0.326980388,150829,12682.3188872
4500,14666.3738687,0.327789507,151166,12499.5642162
4510,14813.6682801,0.328502832,151510,12485.3481475
4520,14828.9373149,0.329207176,151848,12355.405542
4530,14985.0425434,0.329886289,152182,12300.1323857
4540,14929.1414703,0.33067146,152519,12901.467903
4550,14655.6518105,0.331399752999,152857,12675.546514
4560,14950.0440985,0.332093833999,153187,12765.5301755
4570,14959.997361,0.332799461999,153528,12914.0963568
4580,15223.9357003,0.333503805999,153858,12827.5754009
4590,15014.3144764,0.334243218,154190,12673.6297833
4600,14940.4715917,0.334906934999,154522,12634.4426263
4610,14875.7088884,0.335594172999,154848,12852.9930326
4620,15077.0872877,0.336280556,155173,12438.0742952
4630,14989.0195509,0.337044344,155512,12478.6505678
4640,14704.9084857,0.337795303,155846,12690.6208705
4650,15068.2962508,0.338477409,156177,12647.2623478
4660,14909.1966059,0.339154811,156499,12433.4156743
4670,14987.1247519,0.33982922,156833,12734.502517
4680,15184.7108055,0.340624227,157169,12433.8989027
4690,15382.5627459,0.341310182,157494,12301.6614214
4700,15239.4193719,0.341993999,157829,12718.393996
4710,15216.5631515,0.34279371,158180,12617.2708228
4720,15392.792631,0.343593421,158517,13499.1513262
4730,15283.256062,0.344483367,158856,12953.6861578
4740,15474.16676,0.345276663,159198,13184.1217062
4750,15465.9715456,0.346076801,159532,13390.8250421
4760,15331.8743831,0.346914145,159876,12795.8920582
4770,15579.4187413,0.347673657,160215,13391.8188633
4780,15563.702971,0.348484487,160539,13467.5203061
4790,15677.0109817,0.349191397,160882,13155.1153054
4800,15743.1854538,0.34987778,161222,13358.0746293
4810,15511.0363304,0.350599658,161557,13091.4624656
4820,15394.2481883,0.351321108,161890,13025.5059071
4830,15211.9165417,0.352016471,162235,12984.2570513
4840,15447.4232291,0.352718677,162580,13279.3423556
4850,15345.7446722,0.353411475,162917,12799.1049312
4860,15025.7357305,0.354149604,163258,12821.47901
4870,15137.1521495,0.354841974,163587,12977.8409724
4880,15318.9801662,0.355552733,163924,12375.8021567
4890,15569.7688978,0.35628744,164257,13236.0406747
4900,15199.1101725,0.356971684,164600,12570.1051692
4910,15259.8775173,0.357633263,164933,12920.4926803
4920,15326.8010131,0.358312376,165265,13220.554369
4930,15409.5772283,0.359034253999,165593,12814.231928
4940,15257.6381448,0.359756559999,165923,13370.3624111
4950,15244.7310413,0.360501530999,166252,13349.057103
4960,14963.4162766,0.361187913999,166588,12959.5946516
4970,15216.0322262,0.361941010999,166928,12672.1828792
4980,15168.0019268,0.362619695999,167258,13312.6109797
4990,15310.0969116,0.363286405999,167599,13435.2852828
