it,funval,time,funcount,weight
0,3503.32943854,0.000392157000022,577,2901.65730066
10,3624.75466122,0.000774907000022,1056,2785.35002079
20,3749.16866081,0.00114696500003,1545,2724.79671293
30,3730.59977517,0.00153142500002,2024,3085.7318552
40,3773.85034515,0.001944538,2498,3147.00608431
50,3724.8277429,0.00233370200002,2984,2784.72466954
60,3807.86919184,0.00276990700002,3467,3191.60476732
70,3685.65202776,0.00315051800001,3954,3065.45258762
80,3824.9770564,0.00353283999999,4443,3209.76664293
90,3854.3336954,0.00432784599997,4939,3399.21488509
100,3766.61928974,0.00471230599996,5416,2930.30008395
110,3959.61352652,0.00509505599996,5893,3551.46883518
120,3895.13643599,0.00552399099996,6380,2585.09165914
130,4007.31073612,0.00594608399996,6864,3857.09334622
140,3971.18168872,0.00635620299997,7356,3519.51948382
150,4034.10768711,0.00676888799995,7834,3583.27420031
160,4146.06986917,0.00718969899995,8321,3726.76201015
170,4192.04763518,0.00768919699996,8811,3969.01190703
180,4008.30152963,0.00809204599997,9305,3284.9402308
190,4048.81676801,0.00848976299997,9791,2972.17680138
200,4119.85381241,0.00889646099998,10290,3778.50462095
210,4206.53018548,0.00934250299997,10780,3526.11214418
220,4141.95717443,0.00974620699998,11273,3526.19395952
230,4128.29386441,0.014612469,11750,3337.3769082
240,3989.7209782,0.0150307139999,12239,3625.55792494
250,4110.02556406,0.0154271489999,12723,3423.72471126
260,4028.75344014,0.0158210179999,13211,3488.56065273
270,3919.34993431,0.016204623,13700,3667.2640551
280,4017.2095449,0.016611749,14193,3242.37541841
290,4132.84761481,0.017002196,14689,3665.08771831
300,3905.83083178,0.017382808,15178,3651.70832285
310,4075.290516,0.017778814,15665,3402.93667923
320,3962.76831513,0.018162846,16147,3466.86359951
330,3977.11316196,0.018570827,16631,3512.93742432
340,3925.64090583,0.018981374,17127,3499.51089818
350,4004.76873682,0.019374815,17607,3916.16899274
360,4025.26504441,0.01976013,18084,3583.31207964
370,3915.18456621,0.020154426,18570,3326.61190252
380,4068.91640965,0.020557703,19060,3512.48187079
390,4090.5902275,0.020955847,19546,3327.36222555
400,4134.63372011,0.021356558,20026,3655.33833893
410,4025.37317142,0.02177352,20503,3743.36175388
420,4086.49878872,0.022193475,20987,3825.33348428
430,4117.61732184,0.022585205,21470,3442.44391772
440,4038.76756352,0.022982922,21949,3402.83897194
450,4173.27505883,0.023399884,22426,3558.50466755
460,4189.25129781,0.023798029,22916,3636.52306882
470,4035.77082532,0.024189332,23403,3300.2750847
480,3990.62667711,0.024614846,23879,3670.88708699
490,4151.03566596,0.025002727,24365,3515.0336265
500,3992.59615766,0.025420544,24849,3565.28803865
510,4141.72846685,0.025803293,25323,3631.96471366
520,4037.26764762,0.02619203,25803,3491.08904218
530,4025.64192332,0.026582477,26295,3443.91022809
540,3985.55025695,0.026989603,26775,3499.34014608
550,4022.37018777,0.027395446,27262,3578.0817255
560,4014.61065656,0.027805992,27756,3379.64143909
570,4082.29291951,0.028231079,28238,3474.70353372
580,4094.1024013,0.028626658,28725,3689.04689318
590,4026.81941019,0.029034639,29209,3412.73366744
600,4004.70874509,0.029445614,29696,3245.5101118
610,3916.69042585,0.029875833,30182,3366.49198124
620,4023.52377657,0.030277399,30682,3637.78460671
630,3930.3151618,0.030663142,31169,3180.32887887
640,4031.30192235,0.031071978,31655,3330.26374964
650,4000.62060994,0.031455582,32140,3565.49689308
660,3930.96585644,0.031858431,32613,3556.4602989
670,4136.820564,0.032273682,33091,3645.555586
680,4166.55810206,0.032670971,33577,3712.21067125
690,4052.06990788,0.033055003,34070,3049.56517213
700,4122.87734359,0.033437752,34559,3544.11741187
710,4165.49354071,0.033815797,35034,3507.08173928
720,4093.21999975,0.034235753,35510,3691.90924367
730,4138.27405407,0.034618502,35984,3665.51734755
740,4103.7510172,0.034994837,36466,3727.59134594
750,4085.63634814,0.035403246,36947,3750.28432067
760,4054.58068535,0.035803529,37431,3451.8852355
770,4101.18574673,0.036193548,37908,3864.55109828
780,4136.01489552,0.036579291,38394,3869.07828531
790,4155.73493105,0.036964607,38885,3564.23554942
800,4073.32142804,0.037370877,39373,3704.61804346
810,4036.06453312,0.037758331,39849,3652.14602944
820,4137.28920657,0.038165885,40338,3668.65608225
830,4004.33367182,0.038594393,40822,3592.37909475
840,3990.37619888,0.039066094,41307,3801.38455893
850,4004.30706836,0.039464667,41778,3652.54518748
860,4093.03881531,0.039861529,42260,3429.79250397
870,4046.64157147,0.040253687,42754,3564.70042751
880,4042.73362864,0.040667655,43234,3799.03474511
890,4041.44209938,0.041050405,43720,3891.76708923
900,4147.88315076,0.041460524,44205,3704.25520652
910,4103.80866143,0.041853964,44686,3774.47078135
920,4059.25411191,0.042237996,45165,3126.7320532
930,4096.94976875,0.0426258769999,45656,3468.386801
940,4225.86330747,0.0430176069999,46143,3698.18510366
950,4323.50055479,0.0434807549999,46637,3637.0309975
960,4237.04098082,0.0438746229999,47116,3391.50807281
970,4036.6484541,0.0442706289999,47587,3763.41879827
980,4043.30025329,0.0446850239999,48077,3396.07907135
990,4230.66322648,0.0450810299999,48561,3376.03592233
1000,4134.4670075,0.0454723329999,49045,3389.08918993
1010,4054.03612033,0.0458807409998,49533,3452.50665205
1020,4144.39974122,0.0462570759999,50023,3928.35997589
1030,4157.22911844,0.0466411079999,50514,3634.77895644
1040,4168.42887406,0.0470225749999,51007,3626.96137172
1050,4095.09420097,0.0474194369999,51491,3673.75880604
1060,4107.7890176,0.0477949169999,51973,3724.73829634
1070,4175.49132907,0.0481990489999,52466,3872.18954864
1080,4128.49601701,0.0485950559999,52946,3732.90912998
1090,4128.8413898,0.0490398149999,53424,3482.7212949
1100,4158.09840458,0.0494914159999,53909,3474.4613458
1110,4178.3415826,0.0499203519999,54395,3586.7965802
1120,4225.28919256,0.0503706699999,54868,3716.99035737
1130,4120.55429501,0.0508013159998,55352,3661.05668477
1140,4187.41682318,0.0511887689999,55838,3312.90513144
1150,4184.91816378,0.0516040199999,56322,3890.16040138
1160,4068.85447514,0.0519940389999,56802,3557.03611104
1170,4090.44587194,0.0523810649998,57283,3349.0985325
1180,3942.00267149,0.0527603929998,57774,3519.53465804
1190,4061.15687787,0.0531516949998,58249,3595.38059656
1200,4154.83360758,0.0535417149998,58734,3661.45413226
1210,4052.63854091,0.0539342999998,59222,3853.5429384
1220,4128.2821805,0.0543226089998,59702,3361.35612693
1230,4221.18148068,0.0547074959998,60174,3751.90433426
1240,4127.04022984,0.0550910999998,60646,3543.68210413
1250,4066.91456078,0.0554785529998,61138,3467.9275372
1260,4112.78544616,0.0558809749998,61631,3327.87454846
1270,4063.63412616,0.0562692839998,62126,3291.0002192
1280,4117.32979117,0.0566558819998,62614,3630.26049019
1290,4104.47800084,0.0570441909998,63100,3725.9504577
1300,4076.50127442,0.0574312169998,63586,3796.33236762
1310,4188.62039518,0.0578169599999,64062,3589.0214587
1320,4205.12807063,0.0582240859999,64545,3667.46521232
1330,4015.79836725,0.0586508839999,65035,3925.258764
1340,3975.88010858,0.0590327779999,65514,3497.09756724
1350,4018.88458271,0.0594078299999,66001,3448.38576791
1360,4073.0864614,0.0597978489999,66484,3457.34056289
1370,4072.51365052,0.0601895789999,66974,3888.99714394
1380,4106.44880944,0.0605740389999,67454,3897.41026862
1390,4144.8093851,0.0609833019999,67945,3637.41490758
1400,4136.4228548,0.0614011189999,68422,3497.95965216
1410,4156.28950549,0.0617864349999,68902,3382.45642112
1420,4138.29817947,0.0621743159999,69381,3432.4762655
1430,4104.50559062,0.0625848629999,69866,3392.81985622
1440,4285.80349906,0.0629740269999,70347,3144.2479862
1450,4201.00064023,0.0633978309999,70827,3440.11891539
1460,4222.54145829,0.0638041009999,71320,3581.89301263
1470,4023.92087701,0.064199252,71804,3471.31618732
1480,4100.94684224,0.064608943,72288,3432.09632939
1490,4135.49200935,0.06499939,72761,3073.42194058
1500,4187.80105236,0.065394969,73243,3586.33522445
1510,4264.9767563,0.0657794289999,73725,3367.48736281
1520,4287.1594989,0.066174153,74212,3501.43065377
1530,4251.79304011,0.066574009,74686,3617.68100336
1540,4286.91467118,0.0669700159999,75169,3413.80891519
1550,4130.83436498,0.0673634569999,75639,3196.3362133
1560,3929.31720702,0.0677500549999,76128,3397.63201365
1570,4176.01732529,0.0681781359999,76631,3173.07456208
1580,4053.02476474,0.068580558,77112,3706.67167628
1590,4097.36309697,0.068980841,77589,3445.59952626
1600,4189.50406445,0.0693777019999,78077,3530.50608959
1610,4153.45851553,0.0697903869999,78562,3593.87253657
1620,4060.04423606,0.0701748469999,79055,3215.42594649
1630,4180.32875074,0.070563583,79544,3526.1617614
1640,4149.86886156,0.07095403,80029,3679.84564158
1650,4226.7172466,0.071379972,80517,3305.35847367
1660,4141.06696307,0.071790092,80990,3617.96999454
1670,4176.69657197,0.072186953,81463,3577.16423752
1680,4211.04448734,0.072578683,81936,3782.78788475
1690,4210.57187634,0.072964426,82417,3793.2399086
1700,4229.93722085,0.0733574389999,82891,3984.61189067
1710,4180.1956379,0.0739159539999,83379,3741.69593281
1720,4123.84204894,0.0743226519999,83859,3333.72562254
1730,4116.15782231,0.0747105329999,84338,3273.9136638
1740,4160.45319398,0.0751009799999,84813,3573.22384038
1750,4149.45456669,0.075510672,85293,3472.49808274
1760,4061.22367391,0.0758981259999,85787,3692.83929865
1770,4146.15060131,0.0762851519999,86276,3452.67751061
1780,4200.17086171,0.076669612,86757,3435.99943137
1790,4170.69977545,0.0770818699999,87234,3349.17785275
1800,4218.25814562,0.0775065299999,87714,3763.07416027
1810,4211.76069874,0.0779046749999,88189,3619.80250844
1820,4255.73736974,0.0783216359999,88679,3697.2956298
1830,4259.43144036,0.078726196,89167,3558.0329671
1840,4207.82111283,0.0791217749999,89650,3627.59425379
1850,4184.7158644,0.0795216299999,90139,3340.87621145
1860,4231.66735912,0.0799193469999,90622,3702.01823556
1870,4199.33573266,0.0803059449999,91092,3608.13929338
1880,4285.7405406,0.0807002409999,91574,3639.8424853
1890,4165.46034067,0.0810915429999,92058,3851.2716734
1900,4210.33854983,0.0815012339999,92547,3390.1752003
1910,4139.41770991,0.0818921089999,93030,3367.42033137
1920,4187.33130333,0.0822778519999,93514,3604.28899302
1930,3997.93981947,0.0826828389999,93997,3220.34915544
1940,4054.17558335,0.0830677269999,94490,3354.03244431
1950,3950.79544187,0.0834821219999,94989,3627.86687055
1960,4146.72414142,0.0838999389999,95485,3673.92143778
1970,4150.8351253,0.0843173289999,95968,3377.79282541
1980,4132.89645489,0.0847398499999,96462,3791.63979488
1990,4051.55309433,0.0851345739999,96943,3274.20067859
2000,4010.46162201,0.0855767669999,97435,3774.43792813
2010,4115.23302099,0.0860095519999,97915,3450.03298203
2020,4084.19827333,0.0864162499999,98408,3139.73718627
2030,3953.58588676,0.0868169609999,98889,3550.43959204
2040,3989.18425186,0.0872219479999,99368,3519.68856858
2050,4032.61889306,0.0876295009999,99848,3447.82051702
2060,4133.76110807,0.0880387649999,100345,3572.99166952
2070,4134.46106681,0.0884830959999,100843,3554.51461379
2080,4095.9400956,0.0888820959999,101319,3657.47987483
2090,4064.27561394,0.0892900769999,101804,3451.49537968
2100,4092.48022545,0.0897057549999,102294,3848.20660471
2110,4146.36706973,0.0901043269999,102784,3722.60555848
2120,4194.77371493,0.0904934909999,103268,3420.90334257
2130,4162.36715165,0.0908942009999,103762,3643.36441364
2140,4091.39943553,0.0912846479999,104245,3438.54531117
2150,4162.01423315,0.0916951949999,104742,3449.01939801
2160,4179.25100452,0.0920924849999,105228,3861.60809561
2170,4195.14818373,0.0924850699999,105705,3933.09114435
2180,4012.79378419,0.0928797939999,106189,3661.6910851
2190,4124.54565868,0.0932740899999,106665,3385.24136537
2200,4124.34610378,0.0936872029999,107155,3805.56672843
2210,4086.83327046,0.0940823539999,107637,3712.80592622
2220,3996.92256755,0.0944804989999,108120,3605.747838
2230,3983.9703902,0.0948747949999,108609,3290.30870619
2240,4065.74686842,0.0952639599999,109095,3801.17690788
2250,3999.52033246,0.0956467099999,109583,3806.51307659
2260,4003.34929294,0.0960504149999,110069,3392.03851337
2270,4050.86942924,0.0964425729999,110538,3709.85660039
2280,4074.24724898,0.0968424279999,111033,3869.72183263
2290,4097.41994521,0.0972705089999,111525,3482.10200578
2300,4121.08184269,0.0976553959999,112006,3719.98111331
2310,4110.19330504,0.0980625219999,112488,3580.0917446
2320,4102.5876955,0.0984700749999,112972,3641.04750726
2330,4078.857698,0.0991231009999,113463,3348.25638454
2340,4079.81972104,0.0995366409999,113951,3105.05858239
2350,4060.3743151,0.0999279429999,114428,3246.52255852
2360,3896.41899088,0.100324805,114920,3512.16365967
2370,4013.46669216,0.100710976,115411,3433.40477579
2380,4210.03531387,0.101109549,115907,3238.97764975
2390,4075.78263874,0.101521379,116387,3392.16747055
2400,4068.81961536,0.101925083,116871,3376.83826482
2410,3977.82915296,0.102311253,117359,3327.45201614
2420,4106.09378734,0.102706832,117846,3442.08371895
2430,4052.5677939,0.103132774,118331,3801.82227666
2440,4118.12281059,0.103564703,118817,3293.48291607
2450,4133.34010605,0.103970545,119299,3534.49468526
2460,4113.0887025,0.104398625,119782,3643.65228792
2470,4089.22215339,0.10482585,120272,3339.97122973
2480,4112.53937683,0.105246233,120748,3496.19475556
2490,4141.46180917,0.105644806,121234,3497.05185954
2500,4140.32548486,0.106084434,121715,3565.73466343
2510,4106.82343454,0.106503962,122196,3320.25494473
2520,4161.04901143,0.10691066,122669,3656.75487292
2530,4216.11498026,0.107320779,123141,3313.91230243
2540,4272.20420497,0.107735603,123628,3278.51601992
2550,4123.77790874,0.108152993,124110,3662.72836793
2560,4116.97298592,0.108570383,124584,3459.64099588
2570,4103.84172375,0.108993332,125079,2935.22471444
2580,4086.77880433,0.109395326,125565,3216.31993621
2590,4226.00037244,0.109804162,126042,3273.1041322
2600,4134.3602673,0.110217702,126537,3685.51958462
2610,4322.11452992,0.110626966,127033,3339.34108014
2620,4216.01289134,0.111047349,127522,3478.26983563
2630,4188.20125268,0.11142796,127999,3835.84154354
2640,4209.40957666,0.11183252,128483,3293.19129529
2650,4079.90850216,0.112226816,128968,3465.40594734
2660,4025.92838117,0.112647198,129450,3090.42176147
2670,4201.86875232,0.113040638,129927,3309.37391155
2680,4109.59362737,0.113460593,130410,2898.3745272
2690,4126.4040298,0.113882686,130908,3345.98887713
2700,4139.00444786,0.114266718,131398,3468.92104459
2710,3995.90875257,0.114678975,131882,3311.12071795
2720,3978.52420554,0.115060014,132362,3101.496714
2730,4029.48113778,0.115464146,132850,3097.72206503
2740,3814.77041245,0.115869133,133339,3275.30353311
2750,3899.93900294,0.116271555,133823,3099.73205326
2760,3919.82199995,0.116664568,134305,3173.79192789
2770,3968.50117295,0.117073831,134791,3126.06398742
2780,3979.50347635,0.117482667,135273,3403.66914609
2790,3823.90202679,0.117892358,135762,3155.63233584
2800,3925.60864548,0.118322149,136267,3184.10939696
2810,3771.53467252,0.118767336,136755,3039.76127067
2820,4073.05615136,0.119192423,137244,3313.54029232
2830,3920.221915,0.119587147,137736,3403.11811407
2840,3946.26612251,0.119992134,138220,3432.10864987
2850,3994.15884194,0.120384719,138703,3286.69604991
2860,4097.58163622,0.12080895,139184,3369.06984631
2870,4049.19608451,0.121210088,139670,3804.40200202
2880,4065.80424266,0.121609516,140152,3272.18151541
2890,3931.00826827,0.122015358,140626,3298.38340272
2900,4077.529984,0.122438735,141093,3802.37056619
2910,4084.70309299,0.122842867,141576,3414.44157007
2920,4077.3409975,0.123240157,142051,3590.92833541
2930,4264.19866981,0.123655408,142531,3161.0003611
2940,4247.56994165,0.124077502,143013,3483.14257981
2950,4217.11631509,0.124472226,143505,3653.80823852
2960,4175.37748409,0.124906294,143977,3766.72700938
2970,4159.66384905,0.125407075,144462,3490.60205224
2980,4266.57906565,0.125840288,144950,3806.91785095
2990,4263.35216564,0.126252118,145423,3795.29324675
3000,4242.67120354,0.126677205,145914,3435.12806997
3010,4268.32750776,0.127100582,146386,3437.64871929
3020,4287.19455601,0.127517971,146866,3473.60709027
3030,4305.78176471,0.127920393,147346,3521.84494007
3040,4220.09738232,0.128338638,147819,3420.37997894
3050,4241.31595801,0.128766719,148308,3862.9985725
3060,4165.82399859,0.129176839,148793,3848.00331564
3070,4415.25195491,0.129593372,149290,3270.43465128
3080,4327.75036429,0.13002017,149773,3723.86398005
3090,4344.1442944,0.130455948,150252,3613.07323799
3100,4426.01363312,0.130871199,150739,3586.38494117
3110,4368.52848053,0.131286878,151222,3797.51944216
3120,4313.85537269,0.131762,151701,3310.30962132
3130,4175.86987706,0.132166987,152187,3503.50875741
3140,4287.57123811,0.132592501,152676,3620.81188919
3150,4214.37999998,0.133003048,153161,3389.4110729
3160,4106.26923411,0.133458498,153636,3344.98165629
3170,4039.59576826,0.133890428,154123,3503.02150843
3180,4126.44252893,0.13432364,154593,3530.51120611
3190,4010.30044202,0.13473718,155078,3137.989643
3200,4103.52928254,0.135148582,155567,3392.62762321
3210,4059.62251149,0.135552287,156043,3634.72237694
3220,4173.62549582,0.135965828,156527,3601.05252465
3230,4057.18426234,0.136394764,156997,3604.583052
3240,4062.5077088,0.136807876,157476,3506.15702037
3250,3981.84751318,0.13721714,157951,3385.17122272
3260,3931.61153792,0.137626831,158436,3436.2909292
3270,4011.7320744,0.138048924,158930,3403.35449824
3280,4088.5233998,0.138470162,159404,3468.160195
3290,4150.54156278,0.138888834,159893,3731.90841136
3300,4077.68332171,0.1432479,160380,3169.75252245
3310,3971.64633241,0.143652887,160855,3669.44263173
3320,4118.31718209,0.14403307,161349,3404.35671062
3330,4191.80071365,0.144434636,161828,3183.03407973
3340,4088.96936967,0.144834492,162306,3715.50056352
3350,4142.04068781,0.145222373,162781,3774.12881888
3360,4214.22216072,0.145638907,163266,3408.97901992
3370,4155.12924531,0.146042611,163747,3562.38689161
3380,4139.36649006,0.146445033,164246,3430.84176074
3390,4135.14733283,0.146816664,164726,3617.73835738
3400,4181.93956132,0.147207966,165224,3712.80042661
3410,4154.11533333,0.147592853,165712,3472.47296385
3420,4138.81845929,0.147979023,166193,4027.32251889
3430,4150.54989396,0.148385721,166675,3616.85174045
3440,4139.94576272,0.14879028,167164,3832.21496549
3450,4082.14180268,0.149201255,167640,3572.33984253
3460,3994.72344807,0.149591275,168117,3674.22113267
3470,4031.73142252,0.149991558,168595,3482.62067577
3480,4020.5292652,0.15037944,169077,3453.26809538
3490,4233.27973714,0.150788276,169569,3707.43590607
3500,4021.85204586,0.151183428,170048,2982.94218745
3510,3961.37199759,0.151577724,170533,3540.9343332
3520,4079.62418753,0.152001956,171024,3507.40232296
3530,4087.47992159,0.152413786,171511,3462.28479322
3540,4111.49762295,0.152816207,171988,3516.8621324
3550,4183.96097144,0.153201522,172473,3718.64953376
3560,4191.1071675,0.15358812,172954,3384.84902758
3570,4293.12947848,0.153999095,173430,3510.60045476
3580,4323.5852105,0.154387832,173915,3483.40217814
3590,4307.1282818,0.154803511,174402,3891.07299035
3600,4222.10561938,0.155207643,174889,3458.48836062
3610,4160.80092052,0.155600229,175369,3439.71572472
3620,4140.26738324,0.15599923,175846,3309.92275122
3630,4240.94739991,0.156411487,176321,3137.21128433
3640,4238.44777853,0.156827594,176818,3647.61099665
3650,4218.45535735,0.157222745,177295,3552.80996023
3660,4121.400301,0.157631581,177782,3613.03289353
3670,4174.41336247,0.158054958,178268,3811.26331242
3680,4181.98226697,0.158496724,178750,3789.29176145
3690,4349.13420736,0.158877763,179234,3347.73255275
3700,4257.79063603,0.159281039,179714,3813.22307566
3710,4241.21791247,0.159671486,180184,3467.60345256
3720,4247.08769326,0.160052952,180649,3767.63227072
3730,4270.05027405,0.160450242,181132,3625.99425893
3740,4316.96098515,0.160821872,181617,3527.61145434
3750,4272.44056322,0.161196924,182094,3611.50540141
3760,4331.04545102,0.16169685,182574,3502.86235107
3770,4171.44666123,0.162092429,183055,3715.36897963
3780,4198.67167499,0.162529062,183551,3837.48688093
3790,4260.03221948,0.16291566,184028,3865.02462032
3800,4441.57806709,0.163317653,184498,3824.22302667
3810,4321.19544809,0.16375728,184973,3823.37269388
3820,4398.70297101,0.164154997,185460,3585.42483078
3830,4356.39097936,0.16456811,185929,3592.79168312
3840,4302.99429031,0.164971387,186406,3201.6633993
3850,4180.61882687,0.165380651,186879,3718.17665213
3860,4336.30940576,0.165776658,187354,3412.37684506
3870,4389.68663698,0.166205594,187830,3373.61288561
3880,4373.77385055,0.166611009,188306,3458.28805866
3890,4275.71187423,0.167014286,188792,3517.84371194
3900,4243.56035914,0.167449209,189275,3449.95008916
3910,4267.41787675,0.167882849,189758,3640.66016487
3920,4326.73267921,0.168277145,190240,3560.96077638
3930,4431.49392132,0.168689831,190722,3590.22697047
3940,4310.14377933,0.169102517,191199,3184.15781697
3950,4339.60443084,0.169505793,191681,3134.03467882
3960,4343.58480422,0.169940289,192166,3862.00794134
3970,4233.57477245,0.170369653,192659,3627.68415286
3980,4436.07532557,0.170920042,193143,3648.12486666
3990,4305.67754754,0.171318186,193622,3972.95700764
4000,4321.49280131,0.171703929,194104,3712.52520257
4010,4277.42493405,0.172160663,194595,3361.37475334
4020,4276.28341375,0.172566933,195084,3530.07487379
4030,4190.7937019,0.172984749,195563,3623.79392316
4040,4222.31679072,0.173397861,196052,3661.70794661
4050,4223.26919956,0.173816961,196531,3542.66579726
4060,4245.26785184,0.174235205,197018,3709.06229763
4070,4300.65650688,0.174722302,197505,3353.59073688
4080,4217.61946556,0.175138836,197987,3746.03198285
4090,4220.99802869,0.175541686,198469,3756.84478724
4100,4364.36209664,0.175947956,198947,3439.23064607
4110,4175.96281869,0.176368339,199439,3728.52886822
4120,4239.45077607,0.176758786,199920,3400.55993752
4130,4212.6897322,0.177171471,200401,3509.80916256
4140,4224.87171447,0.177620079,200881,2988.13896187
4150,4249.3468048,0.178029343,201348,3735.73473481
4160,4214.0734682,0.178423639,201838,3278.76813045
4170,4211.50626254,0.178839317,202325,3664.43573445
4180,4186.989316,0.179258844,202809,3131.12367481
4190,4174.4547563,0.179684786,203293,3187.12407076
4200,4154.6722322,0.180162902,203783,3382.85613596
4210,4153.53219658,0.180601673,204270,2961.6679369
4220,4071.76894984,0.181050709,204769,3319.83039183
4230,4135.74467304,0.181509153,205257,3347.60774433
4240,4030.21248175,0.181946214,205747,3127.01963027
4250,4107.2724694,0.182352056,206231,3644.12561102
4260,4111.69881336,0.182758754,206711,3474.09417823
4270,4161.30956241,0.183186407,207197,3722.995131
4280,4008.14243874,0.183600803,207687,3090.60977486
4290,4042.37256074,0.184015626,208165,3202.90982725
4300,4152.41149075,0.184456964,208660,3501.10654275
4310,4058.61846682,0.184902151,209162,3437.3420114
4320,3954.69185951,0.185337074,209642,3283.16680828
4330,4109.47735586,0.185734791,210113,3531.88162407
4340,4005.77151707,0.186127377,210616,3001.73107251
4350,3962.0662994,0.186533647,211101,3422.09100674
4360,3953.45193285,0.186940772,211592,3491.85548835
4370,4146.869918,0.187354312,212089,3291.75903061
4380,4092.00116943,0.18775545,212561,3016.05191744
4390,4037.64579713,0.188160009,213048,3031.24574437
4400,3881.45916943,0.188558581,213527,3471.33675326
4410,4014.87642497,0.188967845,214023,3111.04287591
4420,4074.98712325,0.189376681,214505,3587.19415127
4430,4055.67853762,0.189800485,214978,3639.99678807
4440,4065.92989038,0.190208893,215461,3619.6001378
4450,4077.11954559,0.190628849,215926,3532.13377213
4460,4217.88062363,0.191032126,216404,3533.11852327
4470,4016.14193372,0.191440107,216894,3630.14053534
4480,4184.04411932,0.191851081,217376,3413.57757155
4490,4123.3366047,0.192255213,217850,3559.66984056
4500,4009.00260495,0.192685432,218337,3415.1355217
4510,3965.80244412,0.19316141,218830,3929.18342445
4520,4005.92797984,0.193552712,219306,3173.42060601
4530,3872.65375162,0.19394487,219780,3124.41671229
4540,4007.8287287,0.194337455,220257,3880.27286006
4550,3869.50759609,0.194736027,220739,3229.32593438
4560,3914.66065169,0.195130323,221212,3072.48834884
4570,3840.77455086,0.195521198,221685,3206.49017608
4580,3876.43864291,0.195922337,222174,3410.51886794
4590,3977.80065033,0.196338016,222670,3397.39422374
4600,4087.66563792,0.196759681,223162,3205.04602228
4610,4059.46064085,0.197159964,223641,3514.40099603
4620,4099.73647166,0.19757436,224120,3153.80859507
4630,4035.9745552,0.197977209,224605,2802.80166238
4640,3994.82766385,0.198457464,225074,3896.20133051
4650,4083.05598345,0.1988663,225536,3775.1509395
4660,4084.23801496,0.199333297,226017,3650.57745787
4670,4074.94566234,0.19974085,226511,3676.60588406
4680,3925.49184699,0.200147547,226995,3263.58698096
4690,3900.35752185,0.200563226,227484,3824.15570414
4700,4024.97344717,0.200976339,227966,3742.17927852
4710,4026.92782852,0.201356095,228440,3173.50201505
4720,3997.42530898,0.201737989,228914,3625.0207941
4730,4104.26546176,0.202121594,229406,3585.39920528
4740,4123.97669848,0.202504771,229889,3585.00994703
4750,4060.21346285,0.202934562,230371,3732.09090451
4760,4180.99150589,0.203334845,230851,3491.86513237
4770,3972.40117441,0.203736411,231344,3650.87483229
4780,3924.14474003,0.204145675,231834,3301.3872631
4790,4023.0692312,0.204569051,232319,3475.58894049
4800,3937.53413215,0.204993711,232797,3253.30942796
4810,3981.95041879,0.205395704,233283,3463.7013255
4820,3860.49057587,0.205798553,233765,3354.04765889
4830,4042.80592547,0.20620012,234263,3624.30993565
4840,4050.02195535,0.206607673,234758,3590.05134482
4850,3974.14842185,0.2070071,235237,3426.01900181
4860,3958.84145565,0.207409521,235714,3505.90934908
4870,3935.55545727,0.207802961,236191,3588.05026134
4880,3893.50538042,0.208334534,236686,3453.95970065
4890,3905.87860984,0.208736528,237163,3708.61548476
4900,3887.84652133,0.209121843,237645,3920.26337516
4910,4059.24050138,0.209502882,238134,3373.91072433
4920,3930.85434571,0.209934812,238617,3552.62575531
4930,4143.70938563,0.210362037,239097,3765.26666092
4940,4032.26008373,0.210797388,239578,3634.15845174
4950,4111.50985505,0.211198527,240053,3570.7126099
4960,3943.85340686,0.211599666,240532,3587.00720596
4970,3997.16908846,0.212020049,241009,3239.06788554
4980,4036.31277257,0.212421615,241496,3548.34991141
4990,3992.82752317,0.212817621,241985,3458.05394349
