it,funval,time,funcount
0,8.0,0.000587167000049,429
10,11.0,0.00124831799985,764
20,9.0,0.00190604799991,1090
30,8.0,0.0026702629998,1429
40,8.0,0.00330618299995,1767
50,11.0,0.00396733400021,2100
60,8.0,0.00463490100037,2444
70,11.0,0.00530674300035,2779
80,11.0,0.00596703900055,3111
90,11.0,0.00662605200068,3441
100,11.0,0.0072440100007,3783
110,13.0,0.00784101300087,4109
120,11.0,0.00851371100089,4446
130,11.0,0.00918427000079,4785
140,11.0,0.00983259200075,5119
150,11.0,0.0104685110009,5449
160,11.0,0.0110907460012,5774
170,11.0,0.0117347920009,6102
180,11.0,0.0124023580011,6440
190,11.0,0.0130699240008,6780
200,11.0,0.0137362070009,7113
210,11.0,0.0144243000009,7465
220,13.0,0.0150965700009,7802
230,13.0,0.0157850920009,8148
240,13.0,0.0164560790013,8477
250,11.0,0.0171304870014,8809
260,11.0,0.0177822300016,9147
270,14.0,0.0184420980017,9479
280,14.0,0.0190964070016,9823
290,14.0,0.019767822002,10155
300,14.0,0.020440092002,10492
310,15.0,0.021080716002,10829
320,15.0,0.0218179900021,11163
330,14.0,0.0225172020023,11501
340,14.0,0.0231894720023,11834
350,14.0,0.0238412150024,12168
360,14.0,0.0244908200025,12504
370,15.0,0.0251310160024,12838
380,15.0,0.0258173990023,13180
390,14.0,0.0265439810023,13533
400,14.0,0.0272115470025,13865
410,14.0,0.0278795410027,14199
420,14.0,0.0285051970027,14530
430,15.0,0.029143255003,14861
440,15.0,0.029809111003,15199
450,15.0,0.0304595710031,15540
460,15.0,0.031137401003,15873
470,22.0,0.0318554300029,16211
480,22.0,0.032490066003,16546
490,24.0,0.033114867003,16877
500,24.0,0.033756347003,17208
510,24.0,0.0344636850027,17550
520,24.0,0.0351047370032,17884
530,24.0,0.0357611840031,18210
540,24.0,0.0364176310031,18547
550,24.0,0.0370851970033,18885
560,24.0,0.0377074320031,19211
570,24.0,0.0383454900029,19556
580,25.0,0.038994667003,19896
590,25.0,0.0396258830028,20233
600,25.0,0.0402840410029,20575
610,25.0,0.0409332180029,20911
620,25.0,0.0416003560031,21246
630,25.0,0.0422837450033,21590
640,24.0,0.042928645003,21935
650,25.0,0.0468570640032,22273
660,25.0,0.047493839003,22613
670,25.0,0.0481250540029,22945
680,25.0,0.0487699540031,23284
690,25.0,0.0494024520031,23616
700,25.0,0.0500610370032,23956
710,25.0,0.0507268920032,24286
720,25.0,0.0513897540031,24617
730,26.0,0.0520243910032,24952
740,25.0,0.0526945230035,25296
750,25.0,0.0533193240035,25642
760,25.0,0.0539719220037,25970
770,25.0,0.0546702790039,26309
780,25.0,0.0553049160039,26649
790,25.0,0.055931000004,26984
800,25.0,0.0565870190039,27317
810,25.0,0.0571964240039,27643
820,25.0,0.0578293500039,27978
830,25.0,0.0584776720043,28320
840,25.0,0.0591336910043,28653
850,25.0,0.0597922760044,28995
860,25.0,0.0604393150043,29335
870,25.0,0.0610769450045,29674
880,25.0,0.0617214180043,30002
890,25.0,0.0623663180045,30333
900,29.0,0.0630039490043,30674
910,25.0,0.0636441460047,31004
920,25.0,0.0642809210049,31344
930,25.0,0.0649664490052,31679
940,25.0,0.0656498380054,32007
950,25.0,0.0663182590056,32330
960,25.0,0.0670016480053,32654
970,26.0,0.0676640820056,32991
980,29.0,0.0683171080059,33329
990,27.0,0.0691908020062,33659
1000,27.0,0.0698716260063,33984
1010,27.0,0.0705357710062,34313
1020,27.0,0.0712538000062,34651
1030,26.0,0.0718922860065,34984
1040,26.0,0.0725423180065,35318
1050,27.0,0.0731829420065,35656
1060,26.0,0.0738103090061,35999
1070,26.0,0.0744552090059,36334
1080,26.0,0.0756753020059,36674
1090,27.0,0.0763129330062,37018
1100,27.0,0.0769403000063,37349
1110,27.0,0.077731885006,37681
1120,27.0,0.078366095006,38010
1130,27.0,0.0789827710059,38349
1140,27.0,0.079640073006,38681
1150,27.0,0.0802939550058,39028
1160,27.0,0.0809371450059,39365
1170,26.0,0.0816205340061,39692
1180,26.0,0.0822932330061,40017
1190,27.0,0.0829513910062,40352
1200,27.0,0.083769919006,40693
1210,27.0,0.084417385006,41033
1220,26.0,0.0850695560057,41371
1230,26.0,0.0857251480056,41702
1240,26.0,0.0863281390052,42037
1250,27.0,0.0870034030054,42376
1260,27.0,0.087669259005,42703
1270,26.0,0.0883402460049,43048
1280,27.0,0.0890206420049,43389
1290,26.0,0.089693768005,43719
1300,26.0,0.0904511410049,44046
1310,26.0,0.0911037390047,44383
1320,27.0,0.0918517040045,44738
1330,26.0,0.0925085790045,45076
1340,27.0,0.0931427890046,45407
1350,26.0,0.0937992360045,45741
1360,26.0,0.0944278860043,46072
1370,27.0,0.0950864710044,46401
1380,26.0,0.0957309440046,46738
1390,27.0,0.0963625880045,47073
1400,26.0,0.0969976530046,47414
1410,26.0,0.0976109070043,47750
1420,26.0,0.0982921580044,48083
1430,26.0,0.0989648560044,48422
1440,26.0,0.0995661360043,48759
1450,26.0,0.100225149004,49097
1460,26.0,0.100851233005,49435
1470,26.0,0.101494423004,49773
1480,27.0,0.102168404004,50108
1490,26.0,0.102853932005,50447
1500,26.0,0.103511235005,50786
1510,26.0,0.104190775005,51131
1520,26.0,0.104867322005,51459
1530,27.0,0.105549856005,51793
1540,27.0,0.106345718005,52124
1550,27.0,0.107113355005,52460
1560,29.0,0.107798027005,52780
1570,27.0,0.108481844005,53108
1580,28.0,0.109170365005,53446
1590,29.0,0.109814411005,53783
1600,34.0,0.110455890005,54115
1610,35.0,0.111224809005,54455
1620,35.0,0.111894941005,54792
1630,35.0,0.112579614005,55131
1640,34.0,0.113274122005,55461
1650,35.0,0.113918168005,55795
1660,34.0,0.114583169005,56121
1670,34.0,0.115227642005,56470
1680,34.0,0.115872115005,56805
1690,34.0,0.116515733005,57138
1700,34.0,0.117161489005,57477
1710,34.0,0.117817936004,57816
1720,34.0,0.118447013005,58145
1730,34.0,0.119082077005,58487
1740,34.0,0.119727406005,58829
1750,37.0,0.120323554004,59166
1760,37.0,0.121044149004,59492
1770,37.0,0.121704017004,59816
1780,38.0,0.122343358004,60152
1790,38.0,0.122986548004,60482
1800,38.0,0.123664805004,60814
1810,38.0,0.124325101004,61152
1820,38.0,0.124980265004,61488
1830,38.0,0.125627731004,61819
1840,38.0,0.126259374004,62164
1850,38.0,0.126888879004,62493
1860,38.0,0.127539339004,62836
1870,38.0,0.128188088004,63168
1880,39.0,0.128806902004,63515
1890,40.0,0.129453085004,63835
1900,42.0,0.130106539004,64162
1910,42.0,0.130754005004,64496
1920,42.0,0.131400616004,64836
1930,43.0,0.132064761004,65174
1940,43.0,0.132746867004,65518
1950,43.0,0.136177498004,65854
1960,43.0,0.136877138004,66197
1970,43.0,0.137640071004,66531
1980,43.0,0.138335862004,66871
1990,43.0,0.139017968004,67208
2000,43.0,0.139697080004,67545
2010,48.0,0.140405701005,67881
2020,48.0,0.141072412005,68211
2030,48.0,0.141773763005,68546
2040,48.0,0.142471693005,68890
2050,48.0,0.143146957005,69226
2060,48.0,0.143834196005,69570
2070,48.0,0.144580451005,69910
2080,48.0,0.145256998005,70248
2090,49.0,0.145944236005,70581
2100,48.0,0.146581866004,70918
2110,49.0,0.147285355004,71264
2120,49.0,0.147952921004,71599
2130,49.0,0.148614073004,71939
2140,48.0,0.149268809004,72274
2150,48.0,0.149911999004,72617
2160,49.0,0.150590684004,72952
2170,48.0,0.151219334004,73285
2180,48.0,0.151921540004,73615
2190,48.0,0.152633154004,73948
2200,49.0,0.153314833005,74284
2210,48.0,0.154049113004,74622
2220,49.0,0.154748754004,74957
2230,49.0,0.155420597004,75304
2240,49.0,0.156121092004,75645
2250,49.0,0.156781816004,75973
2260,49.0,0.157498990004,76312
2270,51.0,0.158135338004,76645
2280,51.0,0.158780239004,76975
2290,51.0,0.159403757004,77308
2300,51.0,0.160064909004,77652
2310,51.0,0.160831691004,77991
2320,52.0,0.161512087004,78330
2330,52.0,0.162180509004,78664
2340,51.0,0.162859622004,78995
2350,51.0,0.163513075004,79332
2360,51.0,0.164192616005,79661
2370,51.0,0.164941008004,79997
2380,51.0,0.165662887004,80330
2390,51.0,0.166308643004,80666
2400,52.0,0.166930878004,80995
2410,51.0,0.167542422004,81336
2420,51.0,0.168193309004,81668
2430,51.0,0.168803998004,82011
2440,51.0,0.169444194004,82357
2450,51.0,0.170089522003,82699
2460,51.0,0.170769062003,83035
2470,51.0,0.171380605003,83370
2480,52.0,0.172014814003,83720
2490,52.0,0.172701625003,84051
2500,53.0,0.173335407003,84388
2510,52.0,0.174051725003,84724
2520,52.0,0.174710738003,85043
2530,52.0,0.175400970003,85387
2540,52.0,0.176088208003,85730
2550,53.0,0.176724983004,86066
2560,52.0,0.177448144003,86402
2570,52.0,0.178058832003,86730
2580,52.0,0.178669947004,87054
2590,52.0,0.179397384004,87397
2600,52.0,0.180081201004,87740
2610,52.0,0.180773144004,88090
2620,52.0,0.181394524004,88419
2630,52.0,0.182000508004,88748
2640,52.0,0.182667219004,89074
2650,52.0,0.183379689004,89409
2660,54.0,0.184070777004,89733
2670,52.0,0.184746041004,90069
2680,52.0,0.185413607004,90411
2690,53.0,0.186102556004,90752
2700,52.0,0.186800058004,91087
2710,52.0,0.187512528004,91418
2720,53.0,0.188277599004,91754
2730,52.0,0.188946021005,92092
2740,53.0,0.189660201005,92423
2750,52.0,0.190284574005,92765
2760,52.0,0.190887137005,93089
2770,52.0,0.191659050005,93431
2780,52.0,0.192275725005,93767
2790,52.0,0.192877005005,94098
2800,52.0,0.193549275005,94430
2810,52.0,0.194254474005,94771
2820,52.0,0.194937863005,95113
2830,52.0,0.195614838005,95446
2840,52.0,0.196348690005,95788
2850,52.0,0.197001288006,96118
2860,52.0,0.197642339006,96444
2870,54.0,0.198292372006,96779
2880,54.0,0.199045041006,97113
2890,54.0,0.199662144006,97453
2900,54.0,0.200294215006,97791
2910,54.0,0.201002408005,98130
2920,53.0,0.201675534006,98462
2930,53.0,0.202354219005,98800
2940,53.0,0.203031194006,99138
2950,53.0,0.203691062005,99471
2960,53.0,0.204380439005,99815
2970,53.0,0.205089487005,100148
2980,54.0,0.205730966005,100490
2990,54.0,0.206398532006,100834
3000,53.0,0.207086198006,101172
3010,53.0,0.207750771006,101505
3020,53.0,0.208400375006,101841
3030,53.0,0.209099160006,102172
3040,53.0,0.209753041006,102503
3050,54.0,0.210403073006,102840
3060,54.0,0.211047118006,103165
3070,56.0,0.211679616006,103506
3080,56.0,0.212327083006,103839
3090,56.0,0.212962147006,104172
3100,56.0,0.213576684006,104516
3110,56.0,0.214203623006,104863
3120,56.0,0.214875038006,105183
3130,56.0,0.215539183006,105522
3140,59.0,0.216990637005,105865
3150,56.0,0.217660770005,106205
3160,56.0,0.218327053005,106539
3170,56.0,0.219016430005,106882
3180,56.0,0.219707944006,107225
3190,57.0,0.220372944006,107561
3200,56.0,0.221021266006,107908
3210,56.0,0.221670016006,108244
3220,56.0,0.222300804006,108577
3230,56.0,0.222997451006,108920
3240,56.0,0.223658603006,109259
3250,56.0,0.224354394006,109598
3260,56.0,0.225062159006,109938
3270,57.0,0.225746403005,110278
3280,56.0,0.226462294005,110612
3290,56.0,0.227201279005,110969
3300,56.0,0.227867134005,111308
3310,57.0,0.228592861005,111634
3320,57.0,0.229321581005,111965
3330,57.0,0.232484502006,112297
3340,57.0,0.233131969006,112634
3350,57.0,0.233893619006,112960
3360,59.0,0.234542796006,113297
3370,57.0,0.235210790006,113640
3380,57.0,0.235947636007,113972
3390,57.0,0.236616913006,114317
3400,58.0,0.237260530007,114635
3410,57.0,0.237908852007,114974
3420,58.0,0.238627309006,115308
3430,58.0,0.239254675006,115655
3440,57.0,0.239953460006,115998
3450,58.0,0.240623164006,116340
3460,57.0,0.241277901006,116675
3470,57.0,0.242025438005,117000
3480,57.0,0.242882454005,117335
3490,57.0,0.243556008005,117667
3500,58.0,0.244203474005,117996
3510,58.0,0.244818011005,118331
3520,57.0,0.245445805006,118656
3530,57.0,0.246074455005,118993
3540,58.0,0.246727481006,119327
3550,58.0,0.247348861006,119657
3560,57.0,0.247979221006,119994
3570,57.0,0.249599170006,120322
3580,57.0,0.250282132005,120651
3590,57.0,0.250898380005,120992
3600,57.0,0.251526174005,121325
3610,58.0,0.252189891005,121663
3620,57.0,0.252831798005,122004
3630,57.0,0.253461731005,122340
3640,57.0,0.254113046005,122686
3650,57.0,0.254813114005,123025
3660,57.0,0.255537558005,123364
3670,57.0,0.256164925005,123696
3680,59.0,0.257729279005,124032
3690,60.0,0.258376318005,124373
3700,57.0,0.259023784005,124705
3710,57.0,0.259643025005,125035
3720,59.0,0.260306742005,125364
3730,59.0,0.260973453005,125691
3740,59.0,0.261623485005,126024
3750,59.0,0.262306020005,126364
3760,59.0,0.263198531004,126703
3770,59.0,0.263874223005,127042
3780,59.0,0.264528960005,127387
3790,59.0,0.265186691005,127733
3800,59.0,0.265894456004,128054
3810,59.0,0.266558173004,128397
3820,59.0,0.267226167005,128737
3830,61.0,0.267900576005,129076
3840,61.0,0.268560017004,129419
3850,61.0,0.269301140004,129755
3860,62.0,0.269972128004,130081
3870,61.0,0.270635846005,130429
3880,61.0,0.271313675004,130767
3890,61.0,0.272000485004,131101
3900,61.0,0.272639826004,131436
3910,61.0,0.273516515004,131762
3920,61.0,0.274354714004,132101
3930,64.0,0.275059914004,132437
3940,64.0,0.275730902004,132772
3950,64.0,0.276540449004,133099
3960,64.0,0.277520630004,133440
3970,65.0,0.278158688005,133761
3980,64.0,0.279062318004,134102
3990,65.0,0.279730739004,134441
4000,65.0,0.280416695004,134776
4010,66.0,0.281153969004,135107
4020,65.0,0.281837359004,135443
4030,69.0,0.282501076005,135781
4040,65.0,0.283163083005,136122
4050,65.0,0.283809694005,136464
4060,65.0,0.284484958005,136809
4070,65.0,0.285172623005,137147
4080,65.0,0.285826932005,137480
4090,65.0,0.286478675005,137817
4100,65.0,0.287132129005,138147
4110,65.0,0.287765911005,138476
4120,65.0,0.288434760006,138813
4130,65.0,0.289092918006,139149
4140,65.0,0.289739101006,139489
4150,65.0,0.290393409006,139817
4160,66.0,0.291151638006,140154
4170,65.0,0.291863680006,140492
4180,65.0,0.292568025006,140838
4190,66.0,0.293225756006,141182
4200,65.0,0.293875361006,141525
4210,66.0,0.294556612006,141864
4220,66.0,0.295217336006,142198
4230,66.0,0.295874211006,142532
4240,66.0,0.296557600006,142871
4250,66.0,0.297217896006,143202
4260,66.0,0.298029581006,143532
4270,66.0,0.298710832006,143872
4280,69.0,0.299401064006,144205
4290,69.0,0.300082743006,144532
4300,69.0,0.300734914007,144873
4310,66.0,0.301345175007,145200
4320,66.0,0.301999484007,145540
4330,69.0,0.302689715006,145871
4340,66.0,0.303343169006,146217
4350,66.0,0.304018433006,146553
4360,69.0,0.304660768006,146887
4370,69.0,0.305386495006,147232
4380,69.0,0.306084852006,147561
4390,66.0,0.306737878007,147895
4400,66.0,0.307393470006,148226
4410,66.0,0.308034522006,148565
4420,69.0,0.308685838007,148903
4430,67.0,0.309360247007,149236
4440,66.0,0.310015839007,149569
4450,66.0,0.310668437007,149903
4460,67.0,0.311323173007,150238
4470,66.0,0.311959093007,150579
4480,66.0,0.312627515007,150915
4490,66.0,0.313280968007,151244
4500,67.0,0.313986595007,151581
4510,66.0,0.314634062007,151924
4520,67.0,0.315282383007,152250
4530,67.0,0.315894782007,152588
4540,67.0,0.316559782007,152939
4550,67.0,0.317199978007,153289
4560,67.0,0.317841885007,153630
4570,67.0,0.318478233006,153969
4580,67.0,0.319274523006,154298
4590,67.0,0.319973735006,154631
4600,67.0,0.320643439006,154969
4610,67.0,0.321314854006,155304
4620,67.0,0.322005513006,155632
4630,69.0,0.322661105006,155975
4640,69.0,0.323310710006,156307
4650,69.0,0.324023180006,156652
4660,69.0,0.324667652006,156990
4670,69.0,0.325310415006,157334
4680,69.0,0.325961303006,157677
4690,69.0,0.326580544006,157997
4700,69.0,0.327193798006,158338
4710,69.0,0.330601336007,158667
4720,69.0,0.331274034007,159006
4730,69.0,0.331897980006,159347
4740,69.0,0.332537322007,159683
4750,69.0,0.333182223007,160019
4760,67.0,0.333822847007,160354
4770,69.0,0.334435673006,160688
4780,67.0,0.335088271006,161023
4790,67.0,0.335804590006,161353
4800,67.0,0.336456333006,161696
4810,67.0,0.337100806005,162044
4820,67.0,0.337758536005,162397
4830,67.0,0.338403009006,162742
4840,69.0,0.339064588005,163070
4850,67.0,0.339777485005,163411
4860,67.0,0.340418964005,163741
4870,67.0,0.341071990006,164065
4880,67.0,0.341725016006,164407
4890,67.0,0.342375476006,164746
4900,67.0,0.343049457006,165079
4910,67.0,0.343712747006,165428
4920,69.0,0.344407256006,165760
4930,68.0,0.345089790006,166094
4940,69.0,0.345783443006,166429
4950,69.0,0.346439035006,166766
4960,69.0,0.347179730006,167104
4970,71.0,0.347858415006,167451
4980,69.0,0.348479367006,167782
4990,69.0,0.349141374007,168113
