it,funval,time,funcount
0,10.0,0.000369919000036,473
10,20.0,0.000761221000062,842
20,70.0,0.00114268700008,1212
30,68.0,0.00152671900014,1579
40,68.0,0.00191160600014,1948
50,67.0,0.00230590200022,2313
60,67.0,0.00269250100018,2678
70,67.0,0.00309706100029,3047
80,67.0,0.00349905400026,3421
90,68.0,0.00388650800016,3796
100,72.0,0.00427438900022,4168
110,71.0,0.00466911200022,4537
120,72.0,0.00505485500025,4904
130,71.0,0.00546540200025,5269
140,72.0,0.00584515700018,5638
150,72.0,0.0062403080002,6010
160,72.0,0.00662690600018,6382
170,72.0,0.00701179400028,6754
180,72.0,0.0074266180003,7116
190,72.0,0.00783588200022,7489
200,72.0,0.00822547400026,7852
210,72.0,0.00862361900022,8230
220,75.0,0.00900978900029,8603
230,72.0,0.00943958000028,8968
240,74.0,0.00984328400023,9334
250,72.0,0.0103055770003,9703
260,72.0,0.0107233930003,10075
270,72.0,0.0111194000003,10438
280,72.0,0.0115363620004,10809
290,75.0,0.0119302300004,11174
300,75.0,0.0123463360004,11537
310,75.0,0.0127389210004,11910
320,75.0,0.0131524610005,12285
330,75.0,0.0135612970004,12653
340,75.0,0.0139513170004,13022
350,75.0,0.0143935100004,13391
360,75.0,0.0148267230005,13761
370,75.0,0.0152235850005,14129
380,76.0,0.0156118940005,14497
390,75.0,0.0160498110005,14867
400,75.0,0.0164462450005,15234
410,76.0,0.0168576470005,15599
420,76.0,0.0172468110005,15967
430,76.0,0.0176522260006,16332
440,79.0,0.0180452390006,16701
450,78.0,0.0184395350005,17064
460,76.0,0.0188381080005,17425
470,76.0,0.0192294110004,17786
480,76.0,0.0196207140004,18153
490,76.0,0.0200073120004,18528
500,78.0,0.0203922000004,18895
510,76.0,0.0207783710005,19264
520,78.0,0.0211773710005,19630
530,78.0,0.0215716670004,19993
540,76.0,0.0219749440005,20359
550,78.0,0.0223765100005,20725
560,76.0,0.0227746550005,21094
570,78.0,0.0231685230005,21462
580,76.0,0.0235585430005,21825
590,76.0,0.0239635300005,22184
600,76.0,0.0243685170005,22563
610,78.0,0.0247709380005,22934
620,78.0,0.0251737870005,23299
630,78.0,0.0255693660006,23671
640,78.0,0.0259658000006,24043
650,78.0,0.0263528260006,24413
660,78.0,0.0267428450006,24788
670,78.0,0.0271367140007,25151
680,78.0,0.0277409870007,25516
690,78.0,0.0281340000007,25886
700,80.0,0.0285308620007,26248
710,78.0,0.0289204540006,26607
720,78.0,0.0293374160007,26974
730,78.0,0.0297231590006,27340
740,78.0,0.0301071910005,27705
750,80.0,0.0305066190006,28074
760,78.0,0.0309090410005,28438
770,78.0,0.0312990600006,28802
780,78.0,0.0317010540006,29169
790,78.0,0.0321017650006,29531
800,78.0,0.0324977720006,29897
810,78.0,0.0329108840007,30269
820,78.0,0.0333197200007,30639
830,78.0,0.0337097400007,31011
840,78.0,0.0341014710008,31385
850,78.0,0.0345047480007,31753
860,78.0,0.0349195710007,32117
870,78.0,0.0353322560007,32482
880,78.0,0.0357415200008,32844
890,79.0,0.0361785820008,33217
900,80.0,0.0365797210007,33577
910,80.0,0.0369877020007,33944
920,80.0,0.0374042360007,34303
930,80.0,0.0377963940007,34671
940,80.0,0.0382103620008,35038
950,81.0,0.0386187710008,35407
960,80.0,0.0390233310007,35772
970,80.0,0.0394638130008,36144
980,80.0,0.0398692280008,36512
990,80.0,0.0403020130009,36876
1000,80.0,0.0407211120009,37239
1010,83.0,0.041140212001,37611
1020,80.0,0.041564871001,37988
1030,83.0,0.041965581001,38353
1040,83.0,0.042369713001,38716
1050,83.0,0.0427875300011,39089
1060,83.0,0.0432019260011,39456
1070,83.0,0.043624875001,39826
1080,83.0,0.044027724001,40197
1090,83.0,0.0444233030009,40563
1100,83.0,0.0448612200009,40932
1110,83.0,0.0453042690009,41302
1120,83.0,0.0456921500009,41678
1130,83.0,0.046109539001,42049
1140,83.0,0.0465401850009,42422
1150,83.0,0.0470148800009,42782
1160,84.0,0.0474220050008,43149
1170,83.0,0.0478235710008,43515
1180,84.0,0.0482880020007,43880
1190,83.0,0.0487182210007,44249
1200,83.0,0.0491668290008,44621
1210,84.0,0.0496115880007,44987
1220,86.0,0.0500379580008,45355
1230,86.0,0.0504523530008,45728
1240,86.0,0.0508684600009,46097
1250,86.0,0.0512802900008,46469
1260,83.0,0.0517357410008,46843
1270,83.0,0.0521420110008,47216
1280,83.0,0.0525410110007,47578
1290,83.0,0.0529190560006,47941
1300,86.0,0.0533360170006,48304
1310,86.0,0.0537538340005,48677
1320,86.0,0.0541601040006,49051
1330,86.0,0.0545663740007,49419
1340,86.0,0.0549914610008,49792
1350,88.0,0.0554101330008,50163
1360,88.0,0.0559626600009,50529
1370,88.0,0.0564826860009,50896
1380,86.0,0.0568804040008,51270
1390,86.0,0.0572879570008,51637
1400,88.0,0.0577032080007,52000
1410,86.0,0.0581197420007,52364
1420,86.0,0.0585388420008,52744
1430,86.0,0.0589506720007,53113
1440,87.0,0.0593406910008,53479
1450,85.0,0.0597388350008,53840
1460,85.0,0.0601301380007,54205
1470,85.0,0.0605175910006,54569
1480,85.0,0.0608982020005,54934
1490,85.0,0.0612890770005,55306
1500,85.0,0.0616778140005,55677
1510,86.0,0.0621071780005,56038
1520,85.0,0.0625044680005,56411
1530,85.0,0.0629004740006,56779
1540,85.0,0.0632900660006,57154
1550,85.0,0.0636715320006,57516
1560,85.0,0.0640739530006,57877
1570,85.0,0.0644703870006,58247
1580,85.0,0.0648527090005,58617
1590,85.0,0.0652743750006,58977
1600,85.0,0.0656571240006,59343
1610,85.0,0.0660355970006,59717
1620,85.0,0.0664546970005,60088
1630,85.0,0.0668442890005,60456
1640,86.0,0.0672920420005,60819
1650,86.0,0.0676991670006,61182
1660,85.0,0.0680896140005,61551
1670,89.0,0.0684937460005,61916
1680,85.0,0.0689261030005,62286
1690,85.0,0.0693357940005,62656
1700,85.0,0.0697442020005,63023
1710,85.0,0.0701363600004,63393
1720,89.0,0.0705259510005,63754
1730,89.0,0.0709467610004,64121
1740,89.0,0.0713568800004,64491
1750,89.0,0.0717811120004,64861
1760,89.0,0.0722408390004,65230
1770,89.0,0.0726415500004,65602
1780,89.0,0.0730349900003,65976
1790,89.0,0.0734198770003,66344
1800,89.0,0.0738137450003,66709
1810,89.0,0.0742003440004,67071
1820,89.0,0.0745805270003,67449
1830,89.0,0.0749842310003,67817
1840,89.0,0.0753909290003,68184
1850,89.0,0.0757847980002,68556
1860,89.0,0.0761872200003,68933
1870,89.0,0.0765763840003,69311
1880,89.0,0.0769766670003,69683
1890,89.0,0.0773983330002,70053
1900,89.0,0.0777802270003,70428
1910,89.0,0.0781634040003,70798
1920,89.0,0.0785692470002,71158
1930,89.0,0.0789823590003,71530
1940,89.0,0.0793792210003,71891
1950,89.0,0.0797666750003,72254
1960,89.0,0.0801725180004,72626
1970,89.0,0.0805603990004,72997
1980,89.0,0.0809598270005,73362
1990,89.0,0.0813678080006,73731
2000,89.0,0.0818065800006,74103
2010,89.0,0.0821961720006,74463
2020,89.0,0.0826058630006,74832
2030,89.0,0.0830117060007,75202
2040,89.0,0.0834012980006,75568
2050,89.0,0.0838045750006,75938
2060,89.0,0.0842249580006,76305
2070,89.0,0.0846192540006,76666
2080,89.0,0.0850725660006,77041
2090,89.0,0.0855609450006,77414
2100,89.0,0.0859655050006,77774
2110,89.0,0.0864094080006,78144
2120,89.0,0.0868225200005,78508
2130,89.0,0.0872779700005,78873
2140,89.0,0.0876705550005,79240
2150,89.0,0.0880687000005,79600
2160,89.0,0.0886092540004,79962
2170,89.0,0.0891476690003,80326
2180,89.0,0.0896715440003,80683
2190,89.0,0.0900748210004,81050
2200,89.0,0.0904823740003,81418
2210,89.0,0.0908903550004,81791
2220,89.0,0.0912850790004,82163
2230,89.0,0.0917016130004,82531
2240,89.0,0.0920886390004,82904
2250,89.0,0.0924790860004,83267
2260,89.0,0.0928947650004,83633
2270,89.0,0.0932997530005,84003
2280,89.0,0.0937329650004,84368
2290,89.0,0.0941580520005,84733
2300,89.0,0.0945425120004,85091
2310,89.0,0.0949470720004,85449
2320,89.0,0.0953417950004,85825
2330,89.0,0.0957527690003,86192
2340,89.0,0.0961560460004,86560
2350,89.0,0.0965631720004,86923
2360,89.0,0.0969694420004,87290
2370,89.0,0.0973778510004,87662
2380,89.0,0.0977794170004,88026
2390,89.0,0.0981933850005,88395
2400,89.0,0.0985885360005,88767
2410,89.0,0.0989802660006,89141
2420,89.0,0.0993660090006,89507
2430,89.0,0.0997804040006,89878
2440,89.0,0.100191806001,90247
2450,89.0,0.100623736001,90613
2460,89.0,0.101035139001,90974
2470,89.0,0.101438416001,91334
2480,89.0,0.101834850001,91701
2490,89.0,0.102251812001,92065
2500,89.0,0.102657227001,92424
2510,89.0,0.103053233001,92792
2520,89.0,0.103453088001,93161
2530,89.0,0.103846956001,93528
2540,89.0,0.104434979001,93893
2550,89.0,0.104848947001,94263
2560,89.0,0.105319793001,94630
2570,89.0,0.105716655001,94995
2580,89.0,0.106145591001,95366
2590,89.0,0.106567257001,95731
2600,89.0,0.106962836001,96109
2610,89.0,0.107367823001,96483
2620,89.0,0.107787351001,96845
2630,89.0,0.108197042001,97207
2640,89.0,0.113207423001,97576
2650,89.0,0.113616259001,97938
2660,89.0,0.114034076001,98298
2670,89.0,0.114432649001,98674
2680,89.0,0.114847472001,99043
2690,89.0,0.115302067001,99408
2700,89.0,0.115703205001,99777
2710,89.0,0.116132141001,100143
2720,89.0,0.116596572001,100513
2730,89.0,0.117043897001,100886
2740,89.0,0.117705048001,101254
2750,89.0,0.118101054001,101622
2760,89.0,0.118512456001,101989
2770,89.0,0.118904186001,102360
2780,89.0,0.119327135001,102731
2790,89.0,0.119727846001,103101
2800,89.0,0.120137538001,103471
2810,89.0,0.120555782001,103835
2820,89.0,0.120949650001,104204
2830,89.0,0.121343090001,104581
2840,89.0,0.121767750001,104946
2850,89.0,0.122255702001,105314
2860,89.0,0.122670953001,105679
2870,89.0,0.123065249001,106049
2880,89.0,0.123465105001,106419
2890,89.0,0.123845716001,106786
2900,89.0,0.124286198001,107156
2910,89.0,0.124729247001,107526
2920,89.0,0.125177428001,107894
2930,89.0,0.125633733001,108261
2940,89.0,0.126084051001,108632
2950,89.0,0.126520685001,109001
2960,89.0,0.127025315001,109365
2970,89.0,0.127480766001,109733
2980,89.0,0.128012338001,110101
2990,89.0,0.128499007001,110480
3000,89.0,0.128933503001,110852
3010,89.0,0.129368854001,111224
3020,89.0,0.129809336001,111596
3030,89.0,0.130242121001,111959
3040,89.0,0.131090584001,112325
3050,89.0,0.131521658001,112688
3060,89.0,0.131912533001,113055
3070,89.0,0.132315810001,113419
3080,89.0,0.132706685001,113782
3090,89.0,0.133145030001,114154
3100,89.0,0.133583374001,114521
3110,89.0,0.134500261001,114893
3120,89.0,0.134963410001,115254
3130,89.0,0.135363693001,115620
3140,89.0,0.135761410001,115986
3150,89.0,0.136341307001,116345
3160,89.0,0.136758269001,116711
3170,89.0,0.137172237001,117084
3180,89.0,0.137556269001,117445
3190,89.0,0.138052774001,117805
3200,89.0,0.138461182001,118166
3210,89.0,0.138874294001,118534
3220,89.0,0.139281420001,118902
3230,89.0,0.139712066001,119266
3240,89.0,0.140147844001,119628
3250,89.0,0.140563095001,120001
3260,89.0,0.141006571001,120371
3270,89.0,0.141411130001,120744
3280,89.0,0.141886680001,121106
3290,89.0,0.142297227001,121475
3300,89.0,0.142725735001,121847
3310,89.0,0.143153388001,122213
3320,89.0,0.143573343001,122585
3330,89.0,0.144363218001,122955
3340,89.0,0.144768205001,123324
3350,89.0,0.145174047001,123691
3360,89.0,0.145586304001,124050
3370,89.0,0.146724288001,124423
3380,89.0,0.147158783001,124792
3390,89.0,0.147566763001,125160
3400,89.0,0.147973033001,125526
3410,89.0,0.148379303001,125892
3420,89.0,0.148784718001,126264
3430,89.0,0.149174310001,126628
3440,89.0,0.149564329001,127001
3450,89.0,0.149964612001,127366
3460,89.0,0.150366606001,127744
3470,89.0,0.150792549001,128115
3480,89.0,0.151980568001,128487
3490,89.0,0.152368449001,128859
3500,89.0,0.153055259001,129225
3510,89.0,0.153501301001,129593
3520,89.0,0.153895169001,129962
3530,89.0,0.154294169001,130335
3540,89.0,0.154702578001,130705
3550,89.0,0.155102861001,131071
3560,89.0,0.155505282001,131441
3570,89.0,0.155907703001,131808
3580,89.0,0.156313973001,132175
3590,89.0,0.157424160001,132548
3600,89.0,0.157847536001,132912
3610,89.0,0.158257655001,133291
3620,89.0,0.158654517001,133645
3630,89.0,0.159059932001,134014
3640,89.0,0.159517092001,134381
3650,89.0,0.160681591001,134745
3660,89.0,0.161079308001,135112
3670,89.0,0.161504395001,135477
3680,89.0,0.161905961001,135846
3690,89.0,0.162301968001,136213
3700,89.0,0.162700112001,136578
3710,89.0,0.163112797001,136949
3720,89.0,0.163514363001,137317
3730,89.0,0.163906093001,137684
3740,89.0,0.164311080001,138050
3750,89.0,0.164722910001,138420
3760,89.0,0.165107797001,138784
3770,89.0,0.165508081001,139152
3780,89.0,0.165924187001,139514
3790,89.0,0.166323614001,139881
3800,89.0,0.166738865001,140251
3810,89.0,0.167164807001,140620
3820,89.0,0.167566373001,140995
3830,89.0,0.167957676001,141364
3840,89.0,0.168348123001,141734
3850,89.0,0.168748406001,142108
3860,89.0,0.169161946001,142476
3870,89.0,0.169580619001,142847
3880,89.0,0.170016825001,143212
3890,89.0,0.170428655001,143586
3900,89.0,0.170826373001,143957
3910,89.0,0.171219813001,144322
3920,89.0,0.171615392001,144688
3930,89.0,0.171996858001,145053
3940,89.0,0.172395431001,145421
3950,89.0,0.172790582001,145779
3960,89.0,0.173205405001,146153
3970,89.0,0.173608682001,146518
3980,89.0,0.174031631002,146876
3990,89.0,0.174448592002,147246
4000,89.0,0.174950657002,147617
4010,89.0,0.175365481001,147984
4020,89.0,0.175772607001,148353
4030,89.0,0.176193417002,148720
4040,89.0,0.176600115002,149076
4050,89.0,0.177040598002,149443
4060,89.0,0.177443447001,149811
4070,89.0,0.177865541001,150180
4080,89.0,0.178264113001,150547
4090,89.0,0.178715715001,150916
4100,89.0,0.179146361001,151291
4110,89.0,0.179539374001,151660
4120,89.0,0.179938802002,152023
4130,89.0,0.180346783001,152392
4140,89.0,0.180749204001,152762
4150,89.0,0.181253834001,153125
4160,89.0,0.181667374002,153500
4170,89.0,0.182066802002,153862
4180,89.0,0.182510278002,154231
4190,89.0,0.182927667002,154593
4200,89.0,0.183348905002,154956
4210,89.0,0.183746622002,155326
4220,89.0,0.184161872002,155694
4230,89.0,0.184571136002,156060
4240,89.0,0.184980400002,156434
4250,89.0,0.185383677002,156805
4260,89.0,0.185831002002,157178
4270,89.0,0.186274050002,157547
4280,89.0,0.186841973001,157912
4290,89.0,0.187258079001,158281
4300,89.0,0.187657507002,158652
4310,89.0,0.188068053002,159026
4320,89.0,0.188484587002,159392
4330,89.0,0.188890857002,159756
4340,89.0,0.189304397001,160128
4350,89.0,0.189727345001,160490
4360,89.0,0.190228127001,160854
4370,89.0,0.190741311001,161222
4380,89.0,0.191169819001,161588
4390,89.0,0.191582504001,161959
4400,89.0,0.192014861001,162333
4410,89.0,0.192421559001,162705
4420,89.0,0.192826119002,163071
4430,89.0,0.193267884002,163435
4440,89.0,0.193673299002,163809
4450,89.0,0.194096247002,164168
4460,89.0,0.194505084002,164540
4470,89.0,0.194918624002,164904
4480,89.0,0.195482271002,165275
4490,89.0,0.195897094002,165642
4500,89.0,0.196313200002,166016
4510,89.0,0.196735721002,166387
4520,89.0,0.197125741002,166756
4530,89.0,0.197539281002,167127
4540,89.0,0.197939136002,167501
4550,89.0,0.198361229002,167866
4560,89.0,0.198773058002,168234
4570,89.0,0.199156662001,168600
4580,89.0,0.199574479001,168963
4590,89.0,0.199966209001,169335
4600,89.0,0.200375473001,169704
4610,89.0,0.200764210002,170070
4620,89.0,0.201173474002,170441
4630,89.0,0.201563066002,170808
4640,89.0,0.201979600002,171174
4650,89.0,0.202426070002,171533
4660,89.0,0.202852440002,171902
4670,89.0,0.203263842002,172269
4680,89.0,0.203685936002,172639
4690,89.0,0.204083225002,173010
4700,89.0,0.204487785002,173378
4710,89.0,0.204905174002,173747
4720,89.0,0.205325557002,174119
4730,89.0,0.205744657002,174479
4740,89.0,0.206171455002,174846
4750,89.0,0.206573021002,175213
4760,89.0,0.206981857002,175581
4770,89.0,0.207373587002,175955
4780,89.0,0.207812359002,176325
4790,89.0,0.208219485002,176693
4800,89.0,0.208619768002,177056
4810,89.0,0.209042717002,177424
4820,89.0,0.209445566002,177796
4830,89.0,0.209836440002,178170
4840,89.0,0.210256823002,178535
4850,89.0,0.210657962002,178902
4860,89.0,0.211173283002,179270
4870,89.0,0.211592383002,179631
4880,89.0,0.211980264002,179999
4890,89.0,0.212396371002,180374
4900,89.0,0.212788101002,180741
4910,89.0,0.213220458002,181100
4920,89.0,0.213620313002,181458
4930,89.0,0.214048393002,181825
4940,89.0,0.214465354002,182180
4950,89.0,0.214858367002,182548
4960,89.0,0.215252663002,182926
4970,89.0,0.215661071002,183293
4980,89.0,0.216069907002,183649
4990,89.0,0.216501836002,184018
