it,funval,time,funcount
0,16.0,0.000857444000076,645
10,16.0,0.00173840900015,1181
20,16.0,0.00260739900011,1729
30,16.0,0.00349563400005,2270
40,18.0,0.004395843,2814
50,18.0,0.00526697199996,3371
60,20.0,0.00613981200001,3918
70,18.0,0.00700709200009,4458
80,18.0,0.00788934000013,5000
90,18.0,0.00876945000016,5550
100,18.0,0.00966196200022,6100
110,18.0,0.0106224700003,6644
120,18.0,0.0115282380002,7187
130,18.0,0.0124451260001,7724
140,18.0,0.0133457630001,8276
150,18.0,0.014670632,8816
160,18.0,0.0155524520001,9360
170,20.0,0.016432989,9908
180,20.0,0.017307967,10457
190,18.0,0.018200051,11006
200,20.0,0.01906391,11555
210,19.0,0.019949579,12106
220,20.0,0.020850216,12653
230,19.0,0.021743155,13213
240,19.0,0.022640371,13762
250,18.0,0.0235273229999,14310
260,18.0,0.0244052939998,14855
270,19.0,0.0252901079999,15404
280,20.0,0.0261988709999,15946
290,20.0,0.0270785529999,16499
300,20.0,0.033764478,17048
310,20.0,0.0346398839999,17603
320,20.0,0.0355268359999,18159
330,20.0,0.0364125049999,18710
340,20.0,0.0372879109999,19253
350,23.0,0.0381543359998,19808
360,20.0,0.0390459929998,20363
370,20.0,0.0399825529998,20907
380,20.0,0.0408579579998,21458
390,20.0,0.0417260939998,22005
400,20.0,0.0426284419998,22551
410,23.0,0.0434897349999,23092
420,26.0,0.0443856679999,23649
430,26.0,0.0452576519999,24197
440,26.0,0.0461852319999,24741
450,26.0,0.0470914289998,25277
460,26.0,0.0479954869999,25828
470,27.0,0.0488623399998,26373
480,27.0,0.0497659709998,26922
490,28.0,0.0506362449999,27473
500,27.0,0.0515095119998,28022
510,27.0,0.0524837049999,28571
520,27.0,0.0533774989999,29128
530,27.0,0.0542785629998,29678
540,27.0,0.0551561069998,30222
550,27.0,0.0560319399998,30769
560,27.0,0.0570784059998,31325
570,28.0,0.0579747669998,31881
580,27.0,0.0588664229997,32427
590,27.0,0.0597717639997,32972
600,27.0,0.0606458859997,33525
610,27.0,0.0615063229997,34071
620,27.0,0.0623877149997,34614
630,27.0,0.0632763779996,35162
640,28.0,0.0641522109996,35711
650,28.0,0.0650900539996,36250
660,27.0,0.0660727999996,36797
670,27.0,0.0669837009996,37347
680,27.0,0.0678890419996,37894
690,27.0,0.0688067849995,38449
700,27.0,0.0696834729996,39000
710,27.0,0.0705593059996,39554
720,27.0,0.0714355669996,40103
730,27.0,0.0723113999996,40648
740,27.0,0.0732116089997,41201
750,27.0,0.0740882969998,41742
760,27.0,0.0749859409998,42290
770,28.0,0.0760550729998,42836
780,27.0,0.0769309059998,43374
790,28.0,0.0779119419999,43918
800,27.0,0.0788138619998,44471
810,28.0,0.0796845629998,45010
820,27.0,0.0805633889997,45561
830,27.0,0.0814623159997,46111
840,27.0,0.0823471299998,46659
850,27.0,0.0832251019998,47203
860,27.0,0.0840928099998,47754
870,27.0,0.0849635109998,48305
880,29.0,0.0858431929998,48860
890,28.0,0.0869893029998,49408
900,28.0,0.0880015569998,49963
910,28.0,0.0889086089998,50508
920,28.0,0.0897887189997,51058
930,28.0,0.0906996199997,51611
940,28.0,0.0916173629997,52169
950,28.0,0.0925034599998,52724
960,28.0,0.0933887019997,53271
970,28.0,0.0943072999997,53819
980,28.0,0.0951998119997,54368
990,28.0,0.0960512689996,54921
1000,28.0,0.0969442079996,55466
1010,28.0,0.0978208959996,56012
1020,28.0,0.0987211049995,56563
1030,28.0,0.0996072009996,57106
1040,28.0,0.100483034,57667
1050,28.0,0.101371697,58215
1060,29.0,0.102256510999,58763
1070,29.0,0.103119941999,59306
1080,31.0,0.104071469999,59857
1090,29.0,0.104953289999,60405
1100,29.0,0.105838103999,60954
1110,29.0,0.106721634999,61502
1120,29.0,0.107649640999,62050
1130,29.0,0.108536164999,62598
1140,29.0,0.109413707999,63137
1150,29.0,0.110306646999,63692
1160,31.0,0.111188038999,64244
1170,33.0,0.112076273999,64799
1180,33.0,0.112966646999,65353
1190,33.0,0.113844190999,65902
1200,33.0,0.114749531999,66438
1210,33.0,0.115721158999,66989
1220,33.0,0.116627782999,67532
1230,36.0,0.117489075999,68083
1240,33.0,0.118406819999,68632
1250,33.0,0.119280941999,69175
1260,33.0,0.120146939999,69728
1270,33.0,0.121039451999,70277
1280,33.0,0.121925547999,70827
1290,33.0,0.122798386999,71374
1300,33.0,0.123687049999,71919
1310,33.0,0.124597522999,72477
1320,33.0,0.125470361999,73009
1330,33.0,0.126381261999,73551
1340,33.0,0.127250680999,74106
1350,33.0,0.128127368999,74653
1360,33.0,0.129213606999,75204
1370,36.0,0.130143751999,75744
1380,36.0,0.131017018999,76286
1390,36.0,0.131936472999,76836
1400,36.0,0.132860202999,77386
1410,36.0,0.133736462999,77935
1420,36.0,0.134612295999,78486
1430,36.0,0.135501813999,79040
1440,36.0,0.136373369999,79590
1450,36.0,0.137247491999,80140
1460,36.0,0.138107929999,80689
1470,37.0,0.138970934,81242
1480,37.0,0.139837359,81789
1490,37.0,0.140688387999,82338
1500,37.0,0.141586458999,82892
1510,40.0,0.142443475999,83438
1520,37.0,0.143360363999,83991
1530,37.0,0.144233630999,84539
1540,37.0,0.145115450999,85090
1550,37.0,0.146034904999,85644
1560,37.0,0.146912021999,86198
1570,40.0,0.147780157999,86755
1580,42.0,0.148648292999,87305
1590,42.0,0.149510869,87843
1600,41.0,0.150416638,88396
1610,40.0,0.151310432999,88945
1620,37.0,0.152293605999,89497
1630,37.0,0.153187401,90040
1640,37.0,0.154083762,90584
1650,37.0,0.154993379999,91142
1660,40.0,0.155865791999,91686
1670,40.0,0.156771132999,92237
1680,37.0,0.157724370999,92790
1690,37.0,0.158669911999,93333
1700,37.0,0.159634268999,93884
1710,37.0,0.160517371999,94442
1720,40.0,0.161409027999,94992
1730,37.0,0.162277163999,95539
1740,37.0,0.163335176999,96087
1750,42.0,0.164215713999,96638
1760,37.0,0.165108224999,97186
1770,41.0,0.165987906999,97738
1780,41.0,0.166860318999,98289
1790,37.0,0.167733157999,98832
1800,41.0,0.168639781999,99381
1810,37.0,0.169597724999,99939
1820,37.0,0.170544975999,100482
1830,37.0,0.171443046999,101026
1840,37.0,0.172319307999,101569
1850,41.0,0.173203693999,102119
1860,41.0,0.174111600999,102671
1870,41.0,0.175012237999,103214
1880,37.0,0.176038176999,103762
1890,37.0,0.176914009999,104312
1900,37.0,0.177787703999,104858
1910,37.0,0.178659260999,105413
1920,41.0,0.179522264999,105966
1930,41.0,0.180375432999,106506
1940,42.0,0.181278209,107053
1950,37.0,0.182139929999,107598
1960,42.0,0.183014053,108146
1970,42.0,0.183873207,108702
1980,42.0,0.184734928,109254
1990,42.0,0.185681324,109802
2000,42.0,0.186579396,110354
2010,42.0,0.187479178,110894
2020,42.0,0.188399915,111440
2030,42.0,0.189281736,111992
2040,42.0,0.190342743,112544
2050,42.0,0.191238675999,113094
2060,43.0,0.192122634999,113632
2070,43.0,0.193179365,114187
2080,43.0,0.194139445,114735
2090,46.0,0.195043931,115279
2100,46.0,0.19597151,115826
2110,46.0,0.196956395,116369
2120,46.0,0.197876704,116922
2130,46.0,0.198827804,117473
2140,44.0,0.199706631,118015
2150,46.0,0.200635066,118567
2160,46.0,0.20151988,119118
2170,46.0,0.20244917,119670
2180,46.0,0.203352373,120219
2190,52.0,0.204316302,120769
2200,52.0,0.205223781,121317
2210,47.0,0.206115865,121870
2220,48.0,0.207015647,122418
2230,48.0,0.207904737,122968
2240,53.0,0.20881692,123520
2250,53.0,0.209716274,124072
2260,53.0,0.210631451,124630
2270,53.0,0.211558603,125178
2280,53.0,0.212471213999,125737
2290,53.0,0.213365863999,126287
2300,55.0,0.214269066999,126831
2310,55.0,0.215160295999,127383
2320,55.0,0.216115244999,127936
2330,55.0,0.217085160999,128488
2340,55.0,0.218064912999,129043
2350,55.0,0.219030980999,129593
2360,55.0,0.220024419,130144
2370,55.0,0.220985782,130689
2380,55.0,0.221949283999,131241
2390,57.0,0.222905943,131779
2400,57.0,0.22384293,132328
2410,57.0,0.224811563,132878
2420,57.0,0.225767794999,133427
2430,55.0,0.226723598999,133986
2440,55.0,0.227599858999,134540
2450,55.0,0.228494936999,135088
2460,55.0,0.229400278,135640
2470,55.0,0.230285518999,136187
2480,55.0,0.231178457999,136733
2490,55.0,0.232092352999,137280
2500,55.0,0.232994272999,137825
2510,55.0,0.233883362999,138374
2520,55.0,0.234763044999,138928
2530,55.0,0.235673518,139480
2540,55.0,0.236569023,140035
2550,55.0,0.237460252,140584
2560,57.0,0.238345922,141129
2570,55.0,0.239228169999,141675
2580,55.0,0.240158314999,142227
2590,55.0,0.241035858999,142773
2600,55.0,0.241954456999,143322
2610,55.0,0.242852955999,143873
2620,55.0,0.243752309999,144425
2630,55.0,0.244721370999,144979
2640,55.0,0.245722079,145535
2650,57.0,0.246602617,146090
2660,57.0,0.247487002999,146638
2670,57.0,0.248432543999,147194
2680,57.0,0.249342161,147747
2690,57.0,0.250218849,148293
2700,57.0,0.25111692,148836
2710,59.0,0.252007293,149384
2720,59.0,0.252897666,149930
2730,59.0,0.25378419,150485
2740,59.0,0.254680122,151037
2750,59.0,0.255570923,151580
2760,59.0,0.256447611,152132
2770,59.0,0.257347393,152678
2780,59.0,0.258252306,153238
2790,59.0,0.259175608,153788
2800,59.0,0.260045026,154332
2810,59.0,0.260950367,154885
2820,61.0,0.261883506,155428
2830,61.0,0.262796545,155971
2840,61.0,0.263707873,156513
2850,59.0,0.264591832,157064
2860,61.0,0.265507865,157617
2870,61.0,0.266424753,158168
2880,61.0,0.267334371,158726
2890,61.0,0.268220467,159270
2900,61.0,0.269106137,159814
2910,61.0,0.269999076,160367
2920,61.0,0.270902279,160917
2930,62.0,0.271792225,161470
2940,61.0,0.272691579,162015
2950,61.0,0.273546885,162559
2960,61.0,0.27442956,163110
2970,61.0,0.275318223,163667
2980,61.0,0.276219287,164213
2990,61.0,0.277124628,164763
3000,61.0,0.278029542,165307
3010,62.0,0.278907941,165858
3020,62.0,0.279773083,166405
3030,62.0,0.280656614,166949
3040,62.0,0.281542283,167506
3050,62.0,0.282440782,168047
3060,62.0,0.283354676,168589
3070,62.0,0.284304493,169143
3080,62.0,0.285198715,169692
3090,62.0,0.286069844,170232
3100,62.0,0.286957223,170789
3110,65.0,0.287843747,171340
3120,65.0,0.288810243,171889
3130,65.0,0.289754073,172434
3140,65.0,0.290723135,172970
3150,65.0,0.291617785,173517
3160,65.0,0.292544936,174066
3170,65.0,0.293510576,174620
3180,69.0,0.294453978,175167
3190,69.0,0.295370011,175717
3200,65.0,0.296316406,176266
3210,65.0,0.297208062,176814
3220,65.0,0.298118108,177360
3230,65.0,0.299001211,177906
3240,65.0,0.299894578,178447
3250,65.0,0.300777681,179000
3260,65.0,0.301694569,179544
3270,65.0,0.302634978,180096
3280,65.0,0.303704965,180649
3290,65.0,0.304622281,181201
3300,65.0,0.305494692,181747
3310,65.0,0.306375657,182295
3320,65.0,0.307301954,182838
3330,65.0,0.308204729,183382
3340,69.0,0.309130597,183932
3350,69.0,0.31013772,184479
3360,69.0,0.311027666,185034
3370,69.0,0.312032222,185590
3380,69.0,0.312952103,186142
3390,70.0,0.313853168,186693
3400,69.0,0.31474739,187245
3410,69.0,0.315658718,187792
3420,69.0,0.316566197,188343
3430,69.0,0.3174694,188891
3440,70.0,0.318392275,189443
3450,69.0,0.31929676,189989
3460,69.0,0.320257696,190539
3470,69.0,0.321163465,191087
3480,69.0,0.322048279,191632
3490,69.0,0.322948489001,192183
3500,74.0,0.323856396,192735
3510,69.0,0.324748908,193281
3520,69.0,0.325809487,193829
3530,69.0,0.326941912,194373
3540,69.0,0.327821166,194928
3550,69.0,0.32872223,195472
3560,70.0,0.329674613,196017
3570,70.0,0.330564559,196574
3580,69.0,0.331437826,197123
3590,69.0,0.332326916,197683
3600,69.0,0.333229263,198225
3610,70.0,0.3341299,198769
3620,69.0,0.335036096,199317
3630,69.0,0.335935878,199867
3640,69.0,0.336833949,200419
3650,69.0,0.337717908,200973
3660,70.0,0.338620256,201528
3670,70.0,0.339523459,202078
3680,70.0,0.340438208,202633
3690,70.0,0.341340983,203183
3700,70.0,0.342274549,203751
3710,75.0,0.343307331,204296
3720,75.0,0.344221653,204839
3730,75.0,0.345105184,205389
3740,75.0,0.346034474,205946
3750,75.0,0.346918005,206493
3760,72.0,0.347840452,207043
3770,74.0,0.348753918,207599
3780,75.0,0.349647713,208152
3790,75.0,0.350553054,208710
3800,75.0,0.351652122,209264
3810,75.0,0.352606644,209816
3820,75.0,0.353508991,210362
3830,75.0,0.354436143,210909
3840,75.0,0.355338063,211457
3850,75.0,0.356217745,212005
3860,75.0,0.357290299,212548
3870,75.0,0.358198206,213097
3880,75.0,0.359103119,213646
3890,76.0,0.360016158,214200
3900,76.0,0.361092988,214756
3910,75.0,0.362014152,215298
3920,75.0,0.362962258,215851
3930,75.0,0.363871875,216395
3940,75.0,0.36480929,216944
3950,75.0,0.365703512,217492
3960,75.0,0.366628097,218046
3970,75.0,0.36755311,218600
3980,75.0,0.368430226,219141
3990,76.0,0.369344548,219697
4000,75.0,0.370250745,220239
4010,75.0,0.371144111,220789
4020,76.0,0.372025076,221342
4030,84.0,0.372939398,221884
4040,76.0,0.37383191,222429
4050,76.0,0.374719718,222972
4060,76.0,0.375640027,223521
4070,76.0,0.376534249,224071
4080,76.0,0.377464394,224614
4090,75.0,0.378352202,225156
4100,75.0,0.379251983,225702
4110,75.0,0.380178707,226251
4120,75.0,0.381113129,226802
4130,75.0,0.382015904,227358
4140,76.0,0.382936641,227903
4150,76.0,0.383852674,228461
4160,76.0,0.384818742,229006
4170,76.0,0.385715102,229555
4180,76.0,0.386616167,230102
4190,75.0,0.387589505,230648
4200,75.0,0.388483727,231195
4210,75.0,0.389398477,231737
4220,76.0,0.39032349,232291
4230,76.0,0.391222416,232837
4240,76.0,0.392112789,233377
4250,76.0,0.393107082,233928
4260,76.0,0.394045352,234473
4270,76.0,0.39498961,235019
4280,84.0,0.396236218,235569
4290,84.0,0.397149685,236120
4300,76.0,0.39805075,236665
4310,76.0,0.398966355,237220
4320,76.0,0.399872124,237767
4330,76.0,0.40074924,238324
4340,76.0,0.4016456,238876
4350,76.0,0.402556928,239425
4360,76.0,0.40344217,239977
4370,76.0,0.404337675,240525
4380,76.0,0.405229759,241072
4390,76.0,0.406132534,241617
4400,84.0,0.407022052,242168
4410,77.0,0.407914564,242720
4420,76.0,0.408811352,243271
4430,76.0,0.409711989,243818
4440,76.0,0.410613909,244366
4450,76.0,0.41150471,244911
4460,76.0,0.412397222,245471
4470,76.0,0.413268779,246020
4480,76.0,0.414260934,246570
4490,76.0,0.415148742,247119
4500,76.0,0.416057076,247659
4510,76.0,0.416979096,248206
4520,76.0,0.417887003,248748
4530,84.0,0.418771389,249296
4540,84.0,0.419702389,249839
4550,84.0,0.420630396,250381
4560,84.0,0.421631104,250923
4570,84.0,0.422538156,251466
4580,84.0,0.423457182,252016
4590,84.0,0.424388183,252563
4600,84.0,0.425298656,253110
4610,84.0,0.426202287,253661
4620,84.0,0.427173059,254220
4630,84.0,0.428081394,254775
4640,84.0,0.429008118,255323
4650,84.0,0.429907044,255874
4660,84.0,0.430806398,256423
4670,84.0,0.431686508,256971
4680,84.0,0.432588428,257522
4690,84.0,0.433512586,258066
4700,84.0,0.43441921,258615
4710,84.0,0.435327545,259170
4720,84.0,0.436232031,259723
4730,84.0,0.437227179,260277
4740,84.0,0.438148343,260825
4750,84.0,0.439048553,261384
4760,86.0,0.439984258,261931
4770,87.0,0.440921673,262476
4780,86.0,0.441825303,263027
4790,86.0,0.442725084,263573
4800,86.0,0.443627859,264125
4810,86.0,0.444493856,264673
4820,86.0,0.445749018,265233
4830,87.0,0.446684294,265776
4840,87.0,0.447624703,266330
4850,86.0,0.448541591,266877
4860,86.0,0.44951108,267425
4870,87.0,0.450409151,267978
4880,86.0,0.451386338,268530
4890,86.0,0.452302798,269079
4900,86.0,0.453197875,269628
4910,86.0,0.454116046,270178
4920,86.0,0.454991023,270725
4930,86.0,0.455900641,271266
4940,86.0,0.456820095,271816
4950,86.0,0.457775044,272348
4960,86.0,0.458688083,272900
4970,86.0,0.459610102,273447
4980,87.0,0.460512878,274004
4990,86.0,0.461417792,274550
