it,funval,time,funcount
0,33.0,0.000338274000001,727
10,33.0,0.000670988000024,1366
20,33.0,0.000995149000005,1985
30,35.0,0.00133342200002,2630
40,35.0,0.00168580700003,3265
50,35.0,0.00207454400004,3900
60,35.0,0.00245686600005,4530
70,35.0,0.00278872400003,5165
80,35.0,0.00311972700004,5789
90,35.0,0.00345244100004,6427
100,35.0,0.00379328000005,7054
110,35.0,0.00412214500005,7683
120,35.0,0.00445314800004,8306
130,35.0,0.00480810000005,8929
140,35.0,0.00512969500002,9557
150,35.0,0.00545984300001,10191
160,35.0,0.00578614200001,10827
170,35.0,0.00611415200001,11452
180,35.0,0.00645627400002,12081
190,35.0,0.00677829600002,12715
200,35.0,0.00710288500002,13348
210,35.0,0.00745013900001,13981
220,35.0,0.00777643800001,14614
230,35.0,0.008126686,15255
240,35.0,0.00846709800001,15885
250,35.0,0.00880280600001,16521
260,35.0,0.00917144200002,17160
270,35.0,0.00949303600004,17781
280,35.0,0.00981719700005,18406
290,35.0,0.0101422130001,19030
300,35.0,0.0104719340001,19661
310,35.0,0.0107943840001,20285
320,35.0,0.0111198280001,20910
330,35.0,0.0114786290001,21541
340,35.0,0.0118600950001,22173
350,35.0,0.0121808340001,22819
360,35.0,0.0125024290001,23446
370,35.0,0.0128826120001,24071
380,35.0,0.0133256600001,24706
390,35.0,0.0136930130001,25337
400,35.0,0.0140518140001,25968
410,35.0,0.0143823900001,26595
420,35.0,0.0147163870001,27219
430,35.0,0.0150709110002,27863
440,35.0,0.0154027700002,28495
450,35.0,0.0157299240001,29129
460,35.0,0.0160643480001,29749
470,35.0,0.0163859430001,30374
480,35.0,0.0167096770001,31010
490,35.0,0.0170261400001,31629
500,35.0,0.0173515840001,32264
510,35.0,0.0176821600001,32904
520,35.0,0.0180533630001,33534
530,35.0,0.0183796620001,34167
540,35.0,0.0187273440001,34794
550,35.0,0.0190754530001,35430
560,35.0,0.0194038910001,36060
570,35.0,0.0197366050001,36700
580,35.0,0.0200629040001,37331
590,35.0,0.0203947630001,37963
600,35.0,0.0207373130001,38604
610,35.0,0.0210610470001,39232
620,35.0,0.0213894850001,39861
630,35.0,0.0217200610001,40497
640,35.0,0.0220904080001,41122
650,35.0,0.0224209840001,41754
660,35.0,0.0227742250001,42387
670,35.0,0.0231013800001,43027
680,35.0,0.0234255400001,43654
690,35.0,0.0237539780001,44302
700,35.0,0.0241085020001,44930
710,35.0,0.0244416440001,45563
720,35.0,0.0247649490001,46191
730,35.0,0.0251186180001,46818
740,35.0,0.025906782,47452
750,35.0,0.026243345,48085
760,35.0,0.02657777,48723
770,35.0,0.0269027860001,49342
780,35.0,0.027233789,49966
790,35.0,0.027572062,50599
800,35.0,0.027959088,51226
810,35.0,0.028346541,51863
820,35.0,0.02910092,52491
830,35.0,0.02945972,53124
840,35.0,0.0298313500001,53769
850,35.0,0.03020298,54390
860,35.0,0.0305498060001,55024
870,35.0,0.0308825200001,55647
880,35.0,0.0312195100001,56283
890,35.0,0.031564198,56918
900,35.0,0.031902043,57542
910,35.0,0.032235185,58164
920,35.0,0.0325696090001,58791
930,35.0,0.0329091660001,59420
940,35.0,0.033238459,60034
950,35.0,0.033586996,60662
960,35.0,0.033913296,61285
970,35.0,0.0342575560001,61919
980,35.0,0.0346257660001,62551
990,35.0,0.0350166410001,63184
1000,35.0,0.0353553420001,63817
1010,35.0,0.0357008860001,64441
1020,35.0,0.036042153,65070
1030,35.0,0.036370163,65704
1040,35.0,0.036701166,66343
1050,35.0,0.037042433,66972
1060,35.0,0.037370443,67613
1070,35.0,0.037727533,68235
1080,35.0,0.038091893,68869
1090,35.0,0.038472076,69500
1100,35.0,0.038804362,70128
1110,35.0,0.039136221,70754
1120,35.0,0.039472784,71379
1130,35.0,0.039843986,72027
1140,35.0,0.040171996,72666
1150,35.0,0.040508559,73303
1160,35.0,0.040842556,73936
1170,35.0,0.041175698,74565
1180,35.0,0.041500286,75200
1190,35.0,0.041827868,75837
1200,35.0,0.0421563049999,76478
1210,35.0,0.0424868799999,77108
1220,35.0,0.0428392659999,77751
1230,35.0,0.0431758289999,78390
1240,35.0,0.0435042669999,79018
1250,35.0,0.0438331319999,79651
1260,35.0,0.0442158809999,80285
1270,35.0,0.0445447459999,80923
1280,35.0,0.0448671959999,81549
1290,35.0,0.0452037589999,82174
1300,35.0,0.0455612769999,82798
1310,35.0,0.0459119529999,83441
1320,35.0,0.0462630559999,84076
1330,35.0,0.0465961979999,84705
1340,35.0,0.0469177929999,85327
1350,35.0,0.047275311,85976
1360,35.0,0.0476371049999,86606
1370,35.0,0.0480121559999,87233
1380,35.0,0.048356417,87865
1390,35.0,0.0486959739999,88492
1400,35.0,0.0490274049999,89125
1410,35.0,0.0494657489999,89764
1420,35.0,0.049795897,90399
1430,35.0,0.050230393,91033
1440,35.0,0.0505613959999,91659
1450,35.0,0.050882991,92298
1460,35.0,0.0512199809999,92949
1470,35.0,0.0515847689999,93578
1480,35.0,0.0519337329999,94206
1490,35.0,0.052264736,94840
1500,35.0,0.052597022,95465
1510,35.0,0.052930163,96100
1520,35.0,0.053256889,96749
1530,35.0,0.0535878929999,97380
1540,35.0,0.0539124819999,98019
1550,35.0,0.0542871059999,98641
1560,34.0,0.054615116,99270
1570,35.0,0.0549482579999,99907
1580,35.0,0.0552809719999,100542
1590,35.0,0.0556551679999,101172
1600,35.0,0.0560152509999,101820
1610,35.0,0.056344544,102443
1620,35.0,0.0566853829999,103074
1630,35.0,0.0570245119999,103710
1640,35.0,0.057358081,104337
1650,35.0,0.057690367,104972
1660,35.0,0.058018377,105608
1670,35.0,0.058348953,106232
1680,35.0,0.058694497,106856
1690,35.0,0.059027638,107473
1700,35.0,0.059367622,108102
1710,35.0,0.059700764,108737
1720,35.0,0.0600488729999,109374
1730,35.0,0.0603773109999,110014
1740,35.0,0.0607331179999,110632
1750,35.0,0.061086787,111265
1760,35.0,0.061433186,111894
1770,35.0,0.061797118,112532
1780,35.0,0.062137102,113165
1790,35.0,0.062465967,113799
1800,35.0,0.062799964,114431
1810,35.0,0.063129684,115056
1820,35.0,0.063479504,115695
1830,35.0,0.0638780769999,116328
1840,35.0,0.0642432929999,116957
1850,35.0,0.0645995279999,117582
1860,35.0,0.0649933969999,118231
1870,35.0,0.065368876,118861
1880,35.0,0.0657358019999,119485
1890,35.0,0.0661065769999,120125
1900,35.0,0.066506432,120756
1910,35.0,0.066854969,121385
1920,35.0,0.067201368,122025
1930,35.0,0.067597802,122650
1940,35.0,0.067993809,123274
1950,35.0,0.068341918,123902
1960,35.0,0.068722529,124526
1970,35.0,0.069067645,125155
1980,35.0,0.069440986,125799
1990,35.0,0.0697929450001,126426
2000,35.0,0.0701312180001,127063
2010,35.0,0.0704921570001,127692
2020,35.0,0.0708201670001,128333
2030,35.0,0.0711456110001,128949
2040,35.0,0.0714642130001,129567
2050,35.0,0.0718640690001,130192
2060,35.0,0.0721959280001,130819
2070,35.0,0.0725461760001,131457
2080,35.0,0.072886588,132077
2090,35.0,0.073222296,132708
2100,35.0,0.073550306,133345
2110,35.0,0.07389029,133958
2120,35.0,0.074222576,134593
2130,35.0,0.074554862,135216
2140,35.0,0.078823265,135850
2150,35.0,0.079171375,136494
2160,35.0,0.07950024,137113
2170,34.0,0.079823974,137749
2180,34.0,0.0801511290001,138375
2190,35.0,0.0804812770001,139012
2200,34.0,0.0808122800001,139648
2210,35.0,0.081150554,140284
2220,35.0,0.081499519,140914
2230,35.0,0.081847628,141557
2240,35.0,0.082362523,142187
2250,35.0,0.082707639,142822
2260,35.0,0.083050617,143457
2270,35.0,0.08338718,144086
2280,35.0,0.083709203,144707
2290,35.0,0.084038495,145334
2300,35.0,0.084381901,145959
2310,35.0,0.084695798,146584
2320,35.0,0.085025946,147216
2330,35.0,0.085360798,147831
2340,35.0,0.085703776,148470
2350,35.0,0.086056162,149098
2360,35.0,0.086453023,149728
2370,35.0,0.086780605,150370
2380,35.0,0.087124438,151000
2390,35.0,0.087485804,151644
2400,35.0,0.087811676,152280
2410,35.0,0.088141396,152916
2420,35.0,0.088512598,153553
2430,35.0,0.088846595,154184
2440,35.0,0.089302045,154808
2450,35.0,0.089631338,155441
2460,35.0,0.089955499,156069
2470,35.0,0.090319859,156711
2480,35.0,0.090697049,157347
2490,35.0,0.091050718,157988
2500,35.0,0.091379583,158615
2510,35.0,0.091724271,159261
2520,35.0,0.092051426,159890
2530,35.0,0.092372594,160528
2540,35.0,0.092732677,161164
2550,35.0,0.0931043069999,161803
2560,35.0,0.0934425809999,162429
2570,35.0,0.093824903,163069
2580,35.0,0.094183704,163706
2590,35.0,0.094530958,164325
2600,35.0,0.094868376,164956
2610,35.0,0.095209216,165593
2620,35.0,0.095540647,166219
2630,35.0,0.095868229,166861
2640,35.0,0.09619068,167500
2650,35.0,0.09652596,168125
2660,35.0,0.096841141,168758
2670,35.0,0.097219186,169382
2680,35.0,0.097551472,170006
2690,35.0,0.097895733,170628
2700,35.0,0.098382402,171267
2710,35.0,0.098718965,171898
2720,34.0,0.099105991,172529
2730,35.0,0.099456239,173169
2740,35.0,0.099789381,173811
2750,34.0,0.100120812,174445
2760,34.0,0.100522378,175076
2770,34.0,0.100885883,175719
2780,35.0,0.101226294,176350
2790,35.0,0.101566705,176979
2800,35.0,0.101910111,177612
2810,35.0,0.102267201,178243
2820,35.0,0.102616166,178872
2830,35.0,0.102954439,179499
2840,35.0,0.103273896,180137
2850,35.0,0.103589931,180760
2860,35.0,0.103953863,181389
2870,35.0,0.104287005,182014
2880,35.0,0.104609883,182647
2890,35.0,0.104931478,183288
2900,35.0,0.105252218,183908
2910,35.0,0.105590492,184553
2920,35.0,0.105925772,185186
2930,35.0,0.106303818,185816
2940,35.0,0.106654921,186449
2950,35.0,0.106978654,187080
2960,35.0,0.107317782,187711
2970,35.0,0.107658194,188344
2980,35.0,0.10799048,188975
2990,35.0,0.108345859,189599
3000,35.0,0.108693968,190227
3010,35.0,0.109009148,190858
3020,35.0,0.10934956,191490
3030,35.0,0.109663885,192096
3040,35.0,0.110011994,192720
3050,35.0,0.110365663,193365
3060,35.0,0.110730878,193984
3070,35.0,0.111082409,194618
3080,35.0,0.111452756,195238
3090,35.0,0.111804286,195859
3100,35.0,0.112139138,196492
3110,35.0,0.112484254,197130
3120,35.0,0.112806277,197758
3130,35.0,0.113125307,198387
3140,35.0,0.113468284,199015
3150,35.0,0.113816822,199639
3160,35.0,0.114155951,200275
3170,35.0,0.114478829,200903
3180,35.0,0.114796148,201535
3190,35.0,0.115122875,202148
3200,35.0,0.115448318,202785
3210,35.0,0.115787447,203408
3220,35.0,0.116113746,204047
3230,35.0,0.116442611,204676
3240,35.0,0.11679457,205302
3250,35.0,0.117145245,205938
3260,35.0,0.117573753,206568
3270,35.0,0.117906894,207214
3280,35.0,0.118240036,207853
3290,35.0,0.118576171,208484
3300,35.0,0.118905463,209113
3310,35.0,0.119258277,209745
3320,35.0,0.119596123,210366
3330,35.0,0.119942522,210996
3340,35.0,0.120273098,211625
3350,35.0,0.120601963,212266
3360,35.0,0.120934249,212901
3370,35.0,0.121275516,213532
3380,35.0,0.121645009,214159
3390,35.0,0.121993546,214790
3400,35.0,0.122334386,215426
3410,35.0,0.122688055,216057
3420,35.0,0.123046,216688
3430,35.0,0.123411215,217323
3440,35.0,0.123787977,217940
3450,35.0,0.124113849,218572
3460,35.0,0.124472222,219194
3470,35.0,0.124804509,219820
3480,35.0,0.125152618,220459
3490,35.0,0.125481483,221096
3500,35.0,0.125807782,221722
3510,35.0,0.126148622,222362
3520,35.0,0.126497587,222994
3530,35.0,0.126821321,223628
3540,35.0,0.127142916,224253
3550,35.0,0.127474347,224888
3560,35.0,0.127798508,225526
3570,35.0,0.128129511,226161
3580,35.0,0.128458376,226768
3590,35.0,0.128793655,227399
3600,35.0,0.129152456,228021
3610,35.0,0.129503559,228650
3620,35.0,0.129842687,229268
3630,35.0,0.130191224,229898
3640,35.0,0.130514958,230533
3650,35.0,0.130837408,231173
3660,35.0,0.13117226,231815
3670,35.0,0.13150583,232443
3680,35.0,0.131839827,233069
3690,35.0,0.132173397,233696
3700,35.0,0.13250269,234330
3710,35.0,0.132829417,234952
3720,35.0,0.133194205,235583
3730,35.0,0.133520504,236205
3740,35.0,0.133845948,236848
3750,35.0,0.13417353,237483
3760,35.0,0.134494697,238120
3770,35.0,0.134811587,238760
3780,35.0,0.135125912,239384
3790,35.0,0.135452211,240010
3800,35.0,0.135773806,240642
3810,35.0,0.136133462,241254
3820,35.0,0.136508513,241885
3830,35.0,0.136860044,242514
3840,35.0,0.13718335,243155
3850,35.0,0.137519057,243786
3860,35.0,0.137865028,244422
3870,35.0,0.138196886,245055
3880,35.0,0.138523613,245680
3890,35.0,0.138852478,246315
3900,35.0,0.139179633,246934
3910,35.0,0.139514913,247563
3920,35.0,0.139851049,248199
3930,35.0,0.140178631,248814
3940,35.0,0.140506641,249435
3950,35.0,0.140829518,250057
3960,35.0,0.141151113,250706
3970,35.0,0.141470997,251331
3980,35.0,0.141802,251958
3990,35.0,0.142122739,252593
4000,35.0,0.142490948,253223
4010,35.0,0.142829222,253855
4020,35.0,0.143158087,254500
4030,35.0,0.143489946,255126
4040,35.0,0.143835917,255760
4050,35.0,0.14418873,256388
4060,35.0,0.14465145,257020
4070,35.0,0.145012817,257656
4080,35.0,0.145363492,258283
4090,35.0,0.14569364,258912
4100,35.0,0.146026354,259539
4110,35.0,0.146362489,260170
4120,35.0,0.146695203,260803
4130,35.0,0.147022786,261443
4140,35.0,0.147369613,262064
4150,35.0,0.147700189,262705
4160,35.0,0.148049153,263343
4170,35.0,0.148445159,263970
4180,35.0,0.148783433,264613
4190,35.0,0.149118713,265247
4200,35.0,0.149448005,265872
4210,35.0,0.1497696,266508
4220,35.0,0.150105308,267140
4230,35.0,0.150436739,267775
4240,35.0,0.15079383,268414
4250,35.0,0.151148354,269034
4260,35.0,0.151469521,269670
4270,35.0,0.15180865,270302
4280,35.0,0.152164029,270938
4290,33.0,0.152517698,271562
4300,34.0,0.152865808,272198
4310,35.0,0.153202798,272840
4320,35.0,0.153529953,273470
4330,33.0,0.153870793,274112
4340,35.0,0.154210349,274736
4350,33.0,0.154547339,275370
4360,33.0,0.154901863,276005
4370,33.0,0.155253821,276625
4380,33.0,0.155621603,277256
4390,33.0,0.155994944,277896
4400,32.0,0.156363153,278542
4410,32.0,0.156713401,279176
4420,32.0,0.1570598,279818
4430,33.0,0.157416034,280450
4440,32.0,0.157803915,281073
4450,33.0,0.158163999,281704
4460,34.0,0.158517668,282341
4470,34.0,0.158848672,282977
4480,34.0,0.159182241,283605
4490,35.0,0.159521797,284240
4500,34.0,0.159853228,284877
4510,35.0,0.16020647,285509
4520,35.0,0.160557573,286134
4530,34.0,0.160894136,286782
4540,34.0,0.161231554,287414
4550,34.0,0.161568972,288043
4560,34.0,0.161898693,288673
4570,35.0,0.162267329,289297
4580,35.0,0.162625702,289945
4590,35.0,0.162979371,290571
4600,35.0,0.163328764,291201
4610,35.0,0.163681577,291831
4620,35.0,0.164009586,292457
4630,35.0,0.164343155,293085
4640,35.0,0.164718634,293710
4650,35.0,0.165069737,294344
4660,35.0,0.165443078,294978
4670,35.0,0.165786056,295613
4680,35.0,0.16616239,296258
4690,35.0,0.166495532,296878
4700,35.0,0.166816699,297512
4710,35.0,0.167165664,298149
4720,35.0,0.167497523,298784
4730,35.0,0.167832803,299422
4740,35.0,0.168180912,300061
4750,35.0,0.168512343,300701
4760,35.0,0.168841636,301338
4770,35.0,0.169188035,301972
4780,35.0,0.169518183,302612
4790,35.0,0.169853463,303246
4800,35.0,0.170188742,303889
4810,35.0,0.170522739,304510
4820,35.0,0.170855881,305141
4830,35.0,0.171187312,305767
4840,35.0,0.17154483,306409
4850,35.0,0.171873695,307040
4860,35.0,0.172206409,307661
4870,35.0,0.172554518,308291
4880,35.0,0.172888087,308909
4890,35.0,0.173223367,309534
4900,35.0,0.173560785,310162
4910,35.0,0.173897348,310794
4920,35.0,0.174240326,311425
4930,35.0,0.174583304,312065
4940,35.0,0.174920295,312691
4950,35.0,0.175275247,313307
4960,35.0,0.175602401,313938
4970,35.0,0.175944951,314571
4980,35.0,0.176288784,315188
4990,35.0,0.176671961,315821
