it,funval,time,funcount
0,14.0,0.000649605000035,560
10,13.0,0.00130947400021,1014
20,13.0,0.00195180800029,1475
30,13.0,0.00256035800021,1949
40,11.0,0.0032386150001,2405
50,16.0,0.00394937500005,2870
60,16.0,0.00461309200045,3327
70,25.0,0.00527210500059,3785
80,25.0,0.00593197300032,4229
90,25.0,0.00656703799996,4688
100,25.0,0.00732911600016,5138
110,28.0,0.00800865600013,5585
120,28.0,0.00871214500012,6051
130,28.0,0.00938826400034,6512
140,28.0,0.0100434280002,6971
150,29.0,0.010719975,7424
160,28.0,0.0115042910002,7875
170,28.0,0.0123578860002,8323
180,28.0,0.0130387090003,8786
190,28.0,0.0136921630001,9240
200,29.0,0.0143687099999,9701
210,29.0,0.0150148939997,10152
220,30.0,0.0157055529994,10604
230,29.0,0.0163466049994,11062
240,29.0,0.0170116049994,11508
250,29.0,0.0177031189992,11967
260,29.0,0.0184694729992,12438
270,28.0,0.0191729619992,12887
280,29.0,0.0198683249992,13319
290,29.0,0.0205795119991,13765
300,29.0,0.021288132999,14227
310,29.0,0.021992904999,14673
320,29.0,0.0226767219992,15120
330,29.0,0.0234221209994,15577
340,29.0,0.0241093589993,16045
350,33.0,0.0247944589992,16509
360,33.0,0.0254393589994,16959
370,40.0,0.0261317289996,17418
380,40.0,0.0268052829997,17869
390,42.0,0.0274920929996,18325
400,42.0,0.0281737719997,18778
410,42.0,0.0288306469997,19233
420,42.0,0.0294712709997,19686
430,42.0,0.030164069,20142
440,42.0,0.0308555840002,20593
450,43.0,0.0315624950003,21042
460,43.0,0.0322424630003,21521
470,42.0,0.0353053130002,21963
480,42.0,0.0359331080003,22438
490,42.0,0.0366276160007,22901
500,42.0,0.0373135710011,23369
510,43.0,0.0379956770012,23838
520,43.0,0.0386837710012,24301
530,43.0,0.039337224001,24773
540,43.0,0.0399774200009,25208
550,43.0,0.0406449860011,25661
560,43.0,0.0413356450013,26114
570,43.0,0.0420476870013,26565
580,47.0,0.0427657170012,27029
590,43.0,0.0434837460011,27478
600,43.0,0.0441692740014,27943
610,43.0,0.0449009880012,28397
620,47.0,0.0455629950015,28848
630,47.0,0.0464482360017,29313
640,47.0,0.0471068220013,29762
650,47.0,0.0478013300012,30220
660,47.0,0.0484346840012,30674
670,47.0,0.0491659710015,31127
680,47.0,0.0498523540018,31588
690,48.0,0.0506281160015,32027
700,48.0,0.0513059450013,32486
710,48.0,0.0521300320011,32945
720,50.0,0.0528831290007,33414
730,50.0,0.0535335890004,33875
740,50.0,0.0542199710003,34338
750,52.0,0.0549581000005,34792
760,50.0,0.0556573120007,35255
770,50.0,0.0563573800005,35721
780,50.0,0.0570565920002,36173
790,50.0,0.0577365610002,36619
800,50.0,0.0583823170005,37069
810,52.0,0.0590648510001,37525
820,50.0,0.0597289960001,37971
830,50.0,0.0603798839998,38448
840,50.0,0.061150514,38911
850,52.0,0.0618728200002,39362
860,50.0,0.0625634799999,39830
870,50.0,0.0631921300001,40279
880,50.0,0.0639174300004,40742
890,50.0,0.0645867070002,41184
900,50.0,0.0653376650002,41632
910,52.0,0.0659996720001,42093
920,52.0,0.0667891190001,42549
930,53.0,0.0674861930001,43009
940,53.0,0.0682773510002,43470
950,53.0,0.0690124860002,43941
960,53.0,0.0697638720003,44408
970,53.0,0.0704712100005,44865
980,53.0,0.0711161110003,45316
990,53.0,0.0718110470002,45773
1000,53.0,0.0724756200002,46224
1010,53.0,0.0731277899999,46692
1020,58.0,0.0738308509999,47143
1030,58.0,0.0745326289998,47591
1040,54.0,0.0752198669998,48051
1050,56.0,0.0759656939999,48499
1060,56.0,0.0766584919998,48951
1070,58.0,0.0773572769995,49416
1080,56.0,0.0780641869992,49866
1090,56.0,0.0787770839993,50331
1100,56.0,0.0794831389994,50775
1110,56.0,0.0805261839992,51233
1120,58.0,0.081171939999,51690
1130,56.0,0.081829242999,52150
1140,58.0,0.0824844079989,52612
1150,60.0,0.0831750679986,53061
1160,60.0,0.0838678659984,53514
1170,60.0,0.0845405639984,53980
1180,61.0,0.0852034259988,54447
1190,61.0,0.0858611559984,54904
1200,60.0,0.0865368479986,55363
1210,61.0,0.0871646429987,55827
1220,61.0,0.0878882319985,56287
1230,61.0,0.0885408309982,56749
1240,61.0,0.0892135289982,57202
1250,61.0,0.089881094998,57667
1260,62.0,0.090538396998,58121
1270,62.0,0.091211522998,58578
1280,62.0,0.0918825109979,59035
1290,62.0,0.0926163639979,59496
1300,62.0,0.0934220619979,59951
1310,61.0,0.0940780819978,60404
1320,61.0,0.0947597609979,60869
1330,61.0,0.0954534139983,61317
1340,62.0,0.0961115719983,61774
1350,62.0,0.0967748609983,62242
1360,62.0,0.0974916069981,62710
1370,62.0,0.0981527589979,63162
1380,62.0,0.0988472669978,63633
1390,62.0,0.0995670069979,64084
1400,62.0,0.100261514998,64545
1410,63.0,0.103407329997,65004
1420,62.0,0.104074895997,65474
1430,62.0,0.104774535997,65923
1440,62.0,0.105489999998,66384
1450,62.0,0.106169540998,66833
1460,63.0,0.106862337997,67275
1470,63.0,0.107558556997,67723
1480,62.0,0.108235958997,68179
1490,63.0,0.109234100997,68632
1500,67.0,0.109923476997,69093
1510,67.0,0.110619695997,69556
1520,67.0,0.111257753998,70019
1530,63.0,0.111918049997,70474
1540,63.0,0.112539001997,70930
1550,63.0,0.113178769997,71386
1560,63.0,0.113839065998,71847
1570,63.0,0.114509625997,72309
1580,63.0,0.115157519998,72769
1590,64.0,0.115845613998,73221
1600,63.0,0.116524726999,73675
1610,63.0,0.117192293999,74120
1620,63.0,0.117849168999,74591
1630,63.0,0.118514169999,75031
1640,63.0,0.119199269999,75497
1650,62.0,0.119854433999,75952
1660,63.0,0.120501899999,76410
1670,63.0,0.121137391999,76867
1680,62.0,0.121800253999,77321
1690,62.0,0.122430186998,77766
1700,62.0,0.123057980998,78230
1710,62.0,0.123687912998,78682
1720,63.0,0.124343503998,79131
1730,62.0,0.125072651998,79597
1740,64.0,0.125716268999,80051
1750,62.0,0.126348767998,80517
1760,62.0,0.127000082998,80968
1770,62.0,0.127703998998,81421
1780,62.0,0.129286742998,81872
1790,61.0,0.129972697998,82319
1800,62.0,0.130647105998,82781
1810,62.0,0.131318948998,83242
1820,62.0,0.131984376998,83708
1830,62.0,0.132675463998,84175
1840,62.0,0.133425139998,84647
1850,62.0,0.134094416998,85102
1860,61.0,0.134770963998,85573
1870,61.0,0.135624986998,86035
1880,62.0,0.136293835998,86489
1890,61.0,0.136933603998,86942
1900,62.0,0.137578076998,87393
1910,62.0,0.138258900998,87838
1920,62.0,0.138920479998,88300
1930,62.0,0.139589756998,88746
1940,62.0,0.140259888998,89203
1950,62.0,0.140915052998,89663
1960,63.0,0.141545840998,90125
1970,64.0,0.142467432998,90585
1980,62.0,0.143152960998,91031
1990,60.0,0.143823092998,91487
2000,60.0,0.144487236998,91950
2010,60.0,0.145160789998,92417
2020,60.0,0.145874114998,92874
2030,60.0,0.146538686998,93332
2040,60.0,0.147203259998,93772
2050,60.0,0.147891353998,94230
2060,60.0,0.148588000998,94700
2070,60.0,0.149317148998,95134
2080,60.0,0.150073238998,95600
2090,60.0,0.150759621998,96055
2100,60.0,0.151437023998,96495
2110,60.0,0.152144361998,96956
2120,61.0,0.152890615998,97395
2130,60.0,0.153576998998,97857
2140,60.0,0.154259960998,98311
2150,61.0,0.155257246998,98768
2160,60.0,0.155913265998,99221
2170,60.0,0.156558593998,99683
2180,60.0,0.157234285998,100147
2190,60.0,0.157967710998,100602
2200,60.0,0.158716530998,101051
2210,60.0,0.159355444999,101495
2220,61.0,0.160007615999,101947
2230,61.0,0.160687583999,102419
2240,60.0,0.161406040999,102870
2250,62.0,0.162246378999,103316
2260,61.0,0.162956710999,103765
2270,61.0,0.163670463999,104230
2280,60.0,0.164368393999,104699
2290,61.0,0.165077869999,105148
2300,60.0,0.165797181999,105607
2310,60.0,0.166476294999,106072
2320,61.0,0.167178072999,106517
2330,61.0,0.167964526999,106971
2340,61.0,0.168659034999,107426
2350,61.0,0.169318474999,107874
2360,61.0,0.170021536999,108325
2370,61.0,0.170666864999,108777
2380,61.0,0.171341273999,109229
2390,61.0,0.172079402999,109680
2400,61.0,0.172732001999,110159
2410,61.0,0.175889790999,110631
2420,61.0,0.176653150999,111072
2430,61.0,0.177290781999,111539
2440,61.0,0.178091347998,111981
2450,61.0,0.178762334998,112435
2460,61.0,0.179438453999,112891
2470,62.0,0.180227900998,113352
2480,65.0,0.180891618998,113807
2490,65.0,0.181628464999,114270
2500,66.0,0.182316557999,114735
2510,66.0,0.183011493998,115186
2520,62.0,0.183686757999,115654
2530,65.0,0.184363304998,116117
2540,65.0,0.185077912999,116558
2550,65.0,0.185756170999,117016
2560,65.0,0.186421170999,117481
2570,63.0,0.187051958999,117928
2580,65.0,0.187720808999,118392
2590,66.0,0.188351168999,118845
2600,66.0,0.189002912,119300
2610,66.0,0.189703407,119745
2620,66.0,0.190405613,120193
2630,66.0,0.191109102,120637
2640,66.0,0.191834829,121101
2650,67.0,0.192520783999,121546
2660,67.0,0.193205028999,122018
2670,66.0,0.193909373999,122470
2680,66.0,0.194608158999,122940
2690,66.0,0.195302666999,123400
2700,66.0,0.195927467999,123863
2710,66.0,0.196594606999,124317
2720,66.0,0.197280134999,124783
2730,67.0,0.197972504999,125242
2740,66.0,0.198679842998,125706
2750,66.0,0.199382048998,126164
2760,67.0,0.200062444998,126618
2770,66.0,0.200753958998,127073
2780,66.0,0.201430077998,127516
2790,66.0,0.202114322998,127988
2800,66.0,0.202812251998,128440
2810,66.0,0.203602981998,128905
2820,66.0,0.204303476998,129359
2830,66.0,0.204955219998,129804
2840,66.0,0.205613377998,130258
2850,66.0,0.206239889998,130725
2860,67.0,0.206931403999,131183
2870,66.0,0.207613082999,131637
2880,66.0,0.208284497999,132094
2890,66.0,0.209054273998,132563
2900,66.0,0.209683778998,133010
2910,66.0,0.210319271998,133479
2920,66.0,0.211008220998,133922
2930,66.0,0.211717269998,134370
2940,66.0,0.212388256998,134845
2950,66.0,0.213137932998,135289
2960,66.0,0.213800794998,135740
2970,67.0,0.214485039998,136202
2980,66.0,0.215163724999,136663
2990,66.0,0.215938204999,137117
3000,66.0,0.216584815999,137563
3010,66.0,0.217309259999,138016
3020,67.0,0.218100844999,138477
3030,67.0,0.218995066999,138928
3040,66.0,0.219674178999,139385
3050,66.0,0.220353718998,139835
3060,66.0,0.221026416998,140293
3070,66.0,0.221845371999,140750
3080,66.0,0.222501819999,141207
3090,66.0,0.223140305999,141675
3100,67.0,0.223955839998,142132
3110,67.0,0.224653769998,142595
3120,73.0,0.225416274998,143053
3130,73.0,0.227146130998,143510
3140,73.0,0.227863732998,143968
3150,66.0,0.228568076998,144433
3160,66.0,0.229275414998,144877
3170,73.0,0.229987456998,145340
3180,66.0,0.230711045998,145792
3190,66.0,0.231374762998,146263
3200,66.0,0.232029499998,146722
3210,66.0,0.232892502997,147188
3220,67.0,0.233672113998,147644
3230,66.0,0.234347376998,148091
3240,66.0,0.235011094998,148546
3250,66.0,0.235685930998,148997
3260,73.0,0.236340667998,149450
3270,66.0,0.237175873998,149916
3280,66.0,0.237835314998,150371
3290,66.0,0.238502025999,150820
3300,66.0,0.239303874999,151272
3310,66.0,0.240118125998,151717
3320,66.0,0.240816910999,152189
3330,66.0,0.241497733999,152641
3340,69.0,0.242241849998,153089
3350,70.0,0.242926521998,153536
3360,69.0,0.243627871998,153981
3370,69.0,0.244361723998,154430
3380,70.0,0.245082318998,154879
3390,70.0,0.245932492998,155324
3400,73.0,0.246716380998,155792
3410,70.0,0.247392071998,156254
3420,73.0,0.248067335998,156705
3430,73.0,0.250249220998,157164
3440,73.0,0.250935603998,157619
3450,73.0,0.251612150998,158078
3460,73.0,0.252278434998,158528
3470,73.0,0.252943434998,158982
3480,73.0,0.256145271998,159427
3490,73.0,0.256829515998,159881
3500,73.0,0.257519747998,160339
3510,72.0,0.258207413998,160801
3520,72.0,0.258898928998,161263
3530,73.0,0.259601134998,161717
3540,73.0,0.260294359999,162177
3550,73.0,0.260957648999,162640
3560,73.0,0.261643176999,163091
3570,73.0,0.262330841999,163537
3580,73.0,0.263089070999,163985
3590,75.0,0.263733543999,164443
3600,75.0,0.264408807999,164884
3610,75.0,0.265072525999,165348
3620,73.0,0.265746934999,165808
3630,73.0,0.266650992999,166268
3640,74.0,0.267685912999,166721
3650,73.0,0.268359465999,167189
3660,73.0,0.269028742999,167645
3670,73.0,0.269707427999,168107
3680,78.0,0.270357887999,168559
3690,78.0,0.271002360999,169010
3700,74.0,0.271640418999,169475
3710,74.0,0.272282325999,169934
3720,76.0,0.272963148999,170370
3730,73.0,0.273632425999,170815
3740,73.0,0.274351309999,171280
3750,74.0,0.275042824999,171734
3760,73.0,0.275741609999,172201
3770,73.0,0.276436545999,172649
3780,77.0,0.277219577999,173108
3790,73.0,0.277904250999,173570
3800,73.0,0.278552571999,174014
3810,73.0,0.279227408999,174472
3820,73.0,0.279917212999,174918
3830,73.0,0.280589482999,175369
3840,74.0,0.281263891999,175818
3850,73.0,0.281945569999,176272
3860,73.0,0.282701659999,176733
3870,72.0,0.283549267999,177193
3880,72.0,0.284206997999,177651
3890,73.0,0.284911341999,178116
3900,73.0,0.285574203999,178577
3910,73.0,0.286243052999,179031
3920,73.0,0.286908907999,179482
3930,73.0,0.287577757999,179936
3940,76.0,0.288258580999,180389
3950,73.0,0.288940686999,180840
3960,73.0,0.289585587999,181287
3970,73.0,0.290265555999,181730
3980,73.0,0.290930555999,182187
3990,73.0,0.291779018999,182647
4000,73.0,0.292483364,183110
4010,74.0,0.293184286999,183565
4020,74.0,0.293932679999,184034
4030,74.0,0.294668669999,184486
4040,73.0,0.295367881999,184939
4050,74.0,0.296068376999,185405
4060,74.0,0.296812492999,185870
4070,74.0,0.297550621999,186304
4080,74.0,0.298274210999,186751
4090,73.0,0.299123528999,187218
4100,73.0,0.299884323999,187670
4110,73.0,0.300534783999,188123
4120,77.0,0.301418741999,188577
4130,74.0,0.302107689999,189033
4140,74.0,0.302867628999,189487
4150,73.0,0.303696420999,189946
4160,73.0,0.304336616999,190402
4170,73.0,0.305066619999,190861
4180,73.0,0.305761983999,191312
4190,73.0,0.306463761999,191781
4200,73.0,0.307176231999,192234
4210,73.0,0.307833534999,192688
4220,73.0,0.308502383999,193139
4230,73.0,0.309173371999,193591
4240,73.0,0.309836233999,194058
4250,76.0,0.310501661999,194520
4260,76.0,0.311315056999,194969
4270,76.0,0.312027526999,195422
4280,76.0,0.312734436999,195888
4290,74.0,0.313372067999,196350
4300,74.0,0.314031508999,196795
4310,73.0,0.314709766999,197247
4320,73.0,0.315389307999,197714
4330,74.0,0.316048748999,198172
4340,74.0,0.316737697999,198642
4350,73.0,0.317400986999,199103
4360,73.0,0.318052302999,199552
4370,73.0,0.318810103999,200012
4380,73.0,0.319470827999,200470
4390,73.0,0.320146519999,200923
4400,73.0,0.320852574999,201384
4410,72.0,0.321518857999,201841
4420,73.0,0.322193693999,202296
4430,73.0,0.322865536999,202744
4440,73.0,0.323510009999,203186
4450,71.0,0.324276791999,203646
4460,71.0,0.324946924,204093
4470,71.0,0.325621759999,204557
4480,71.0,0.326283338999,205010
4490,71.0,0.326951333,205464
4500,73.0,0.327603930999,205931
4510,71.0,0.328262517,206381
4520,71.0,0.328924096,206836
4530,73.0,0.329574983,207295
4540,72.0,0.330249819,207758
4550,71.0,0.330979394,208206
4560,71.0,0.331646105,208664
4570,72.0,0.332305118,209116
4580,71.0,0.332990218,209570
4590,71.0,0.333656929,210011
4600,71.0,0.334321502,210453
4610,71.0,0.334999332,210917
4620,72.0,0.335662622,211370
4630,71.0,0.340421971,211824
4640,72.0,0.341094241,212286
4650,71.0,0.341780196,212749
4660,71.0,0.342461875,213205
4670,71.0,0.343141416001,213656
4680,71.0,0.343826088001,214123
4690,71.0,0.344491944001,214577
4700,72.0,0.345159938001,215035
4710,71.0,0.345817668001,215485
4720,72.0,0.346474115001,215957
4730,72.0,0.347148951001,216412
4740,72.0,0.347775463001,216871
4750,72.0,0.348462273001,217329
4760,71.0,0.349190138001,217792
4770,71.0,0.349902608001,218247
4780,71.0,0.350581293001,218698
4790,71.0,0.351257413001,219154
4800,71.0,0.351931822001,219617
4810,71.0,0.352604520001,220067
4820,71.0,0.353243861001,220523
4830,71.0,0.353884485001,220993
4840,71.0,0.354514418001,221443
4850,71.0,0.355256396001,221909
4860,72.0,0.356053114001,222359
4870,72.0,0.356691172,222808
4880,72.0,0.357357028,223272
4890,72.0,0.358050681,223722
4900,71.0,0.358721668001,224177
4910,71.0,0.359414038001,224632
4920,71.0,0.360109402,225101
4930,71.0,0.360837267001,225541
4940,72.0,0.361612602001,226007
4950,72.0,0.362396917,226479
4960,72.0,0.363073037,226942
4970,71.0,0.36377225,227403
4980,71.0,0.364460344,227862
4990,71.0,0.365122351,228317
