it,funval,time,funcount
0,11.0,0.00116920299979,690
10,11.0,0.00247183399961,1274
20,11.0,0.00359570599949,1851
30,11.0,0.00475464599913,2418
40,11.0,0.00588493299938,3004
50,13.0,0.00704900399933,3577
60,14.0,0.00819938999939,4162
70,15.0,0.00935918399955,4739
80,14.0,0.0105001619995,5314
90,14.0,0.0116449889993,5898
100,14.0,0.0152180289992,6489
110,14.0,0.0163478879995,7068
120,15.0,0.0174880099994,7653
130,15.0,0.0186991229998,8225
140,21.0,0.0199311909996,8810
150,18.0,0.0211153619994,9377
160,15.0,0.0223025269993,9947
170,15.0,0.0234926849994,10521
180,15.0,0.0246405059993,11094
190,15.0,0.0258007289995,11662
200,15.0,0.0269275939995,12219
210,15.0,0.0280488999992,12796
220,17.0,0.0291817529992,13377
230,17.0,0.0303252969993,13950
240,17.0,0.0314756829994,14537
250,17.0,0.0326170889994,15111
260,18.0,0.0337584939994,15680
270,17.0,0.0349649019995,16274
280,18.0,0.0361272629998,16871
290,18.0,0.0372810709996,17448
300,17.0,0.0384378719996,18021
310,18.0,0.0397165539994,18596
320,21.0,0.0408596699995,19173
330,21.0,0.0419916669994,19741
340,22.0,0.0431497509994,20325
350,22.0,0.0443882339996,20901
360,23.0,0.0455582919994,21471
370,25.0,0.0470311289992,22055
380,25.0,0.0482341159991,22654
390,25.0,0.0494050289994,23222
400,23.0,0.0505656789992,23803
410,28.0,0.0517259019994,24374
420,25.0,0.0528660239993,24939
430,25.0,0.0539928889993,25532
440,25.0,0.055113338999,26121
450,25.0,0.056245763999,26705
460,30.0,0.057435065999,27283
470,30.0,0.058568346999,27866
480,30.0,0.0597345559991,28437
490,30.0,0.0609238589991,29017
500,30.0,0.0620601329992,29594
510,30.0,0.0632545679996,30158
520,30.0,0.0644019609995,30728
530,30.0,0.0655497819994,31329
540,34.0,0.0667138529993,31904
550,34.0,0.0678886159994,32484
560,34.0,0.0689932439996,33058
570,34.0,0.0700991549993,33632
580,34.0,0.0712469749992,34200
590,34.0,0.0724029209991,34773
600,39.0,0.0735366289991,35338
610,35.0,0.0747323459991,35907
620,39.0,0.0759148059988,36482
630,39.0,0.0771438809988,37063
640,39.0,0.0783259129989,37640
650,41.0,0.0794929779991,38208
660,43.0,0.0806694509993,38792
670,45.0,0.0818031589993,39365
680,45.0,0.0830655899995,39947
690,45.0,0.0842369309994,40527
700,45.0,0.0853877449995,41086
710,45.0,0.0866219509999,41665
720,45.0,0.0877565139999,42248
730,45.0,0.0888974919999,42835
740,48.0,0.0900671230002,43422
750,48.0,0.0912072450001,44022
760,45.0,0.0923567760001,44588
770,45.0,0.093512722,45178
780,45.0,0.0947272559997,45742
790,53.0,0.0959165579998,46322
800,53.0,0.0970596739994,46898
810,53.0,0.0983114139995,47453
820,53.0,0.0994622279991,48028
830,53.0,0.100607481999,48612
840,53.0,0.101770697999,49204
850,53.0,0.102919373999,49793
860,53.0,0.104071897999,50381
870,57.0,0.105351862999,50971
880,54.0,0.106544586999,51562
890,53.0,0.107717638999,52147
900,53.0,0.108954410998,52719
910,53.0,0.110161674998,53302
920,53.0,0.111371504998,53888
930,53.0,0.112480836998,54468
940,53.0,0.113791165998,55037
950,53.0,0.115019812998,55602
960,53.0,0.116159935998,56181
970,53.0,0.117463848998,56762
980,53.0,0.118602260998,57331
990,53.0,0.119755640998,57915
1000,53.0,0.120866254998,58483
1010,53.0,0.122050425998,59077
1020,53.0,0.123217917998,59645
1030,53.0,0.126923957998,60233
1040,53.0,0.128147900998,60811
1050,53.0,0.129354308997,61396
1060,53.0,0.130654373997,61968
1070,53.0,0.131862493998,62539
1080,53.0,0.133069757998,63129
1090,53.0,0.134293699998,63706
1100,53.0,0.135447079998,64279
1110,53.0,0.136625263998,64850
1120,54.0,0.138044643998,65427
1130,54.0,0.139320331998,66013
1140,54.0,0.140517759998,66599
1150,54.0,0.141768643998,67171
1160,53.0,0.142981894998,67754
1170,54.0,0.144172908998,68330
1180,54.0,0.145387014998,68915
1190,54.0,0.146588718998,69487
1200,54.0,0.147777593998,70063
1210,53.0,0.148978442998,70646
1220,54.0,0.150169455998,71206
1230,54.0,0.151341224998,71782
1240,53.0,0.152507433997,72364
1250,54.0,0.153716835997,72954
1260,54.0,0.154917257998,73527
1270,54.0,0.156160017998,74101
1280,54.0,0.157367281998,74682
1290,55.0,0.158557867997,75257
1300,54.0,0.159814311997,75836
1310,54.0,0.161036115997,76408
1320,54.0,0.162243379997,76987
1330,54.0,0.163467749996,77559
1340,54.0,0.164606161996,78145
1350,54.0,0.165813853996,78726
1360,58.0,0.166983483996,79311
1370,55.0,0.168168509996,79883
1380,55.0,0.169318040996,80456
1390,55.0,0.170608696996,81035
1400,55.0,0.171841192996,81595
1410,55.0,0.173054015996,82172
1420,55.0,0.174220224996,82745
1430,55.0,0.175357781996,83309
1440,57.0,0.176531260996,83869
1450,55.0,0.177835173996,84456
1460,55.0,0.178954769996,85037
1470,55.0,0.180164171996,85615
1480,57.0,0.181297451996,86197
1490,55.0,0.182450831996,86776
1500,58.0,0.184391947997,87355
1510,58.0,0.185553452997,87931
1520,61.0,0.186868057997,88507
1530,61.0,0.188005186997,89073
1540,61.0,0.189160704997,89665
1550,61.0,0.190319643997,90230
1560,59.0,0.191458911997,90794
1570,59.0,0.192600317997,91366
1580,58.0,0.193744716998,91927
1590,61.0,0.194949842998,92500
1600,58.0,0.196113913998,93072
1610,58.0,0.197220251997,93645
1620,58.0,0.198338991997,94224
1630,59.0,0.199899924998,94810
1640,59.0,0.201197850998,95373
1650,59.0,0.202379455998,95953
1660,59.0,0.203505465998,96522
1670,58.0,0.204677662998,97099
1680,58.0,0.205839168998,97657
1690,58.0,0.207041728998,98246
1700,58.0,0.208231458998,98821
1710,58.0,0.209403655998,99395
1720,59.0,0.210617762998,99991
1730,58.0,0.211790814998,100575
1740,59.0,0.212928371998,101166
1750,61.0,0.214078757998,101737
1760,59.0,0.215213748998,102310
1770,58.0,0.216391076999,102883
1780,58.0,0.217543173999,103464
1790,60.0,0.218698263999,104029
1800,58.0,0.219844372999,104603
1810,61.0,0.221027688,105177
1820,59.0,0.222190903999,105735
1830,58.0,0.223338296999,106321
1840,60.0,0.224513915,106906
1850,61.0,0.225669432999,107472
1860,58.0,0.226817680999,108031
1870,58.0,0.227983890999,108598
1880,58.0,0.229094932999,109185
1890,58.0,0.230186302999,109771
1900,60.0,0.231355932999,110348
1910,58.0,0.232509312999,110947
1920,58.0,0.233646869999,111535
1930,60.0,0.237236159999,112122
1940,61.0,0.238388683998,112694
1950,61.0,0.239535649999,113261
1960,61.0,0.240693306999,113855
1970,61.0,0.241977548998,114442
1980,61.0,0.243196359999,115014
1990,61.0,0.244355299999,115602
2000,61.0,0.245543319999,116184
2010,66.0,0.246672323999,116763
2020,66.0,0.247826558999,117333
2030,67.0,0.248977372999,117902
2040,67.0,0.250113218999,118482
2050,66.0,0.251270447999,119057
2060,66.0,0.252481560999,119635
2070,66.0,0.253630663999,120213
2080,66.0,0.254787037999,120802
2090,67.0,0.255937425,121377
2100,67.0,0.257093370999,121961
2110,66.0,0.258307906,122537
2120,67.0,0.259481385,123107
2130,66.0,0.260684373,123698
2140,66.0,0.261889926,124268
2150,66.0,0.263113013,124863
2160,66.0,0.264259551,125452
2170,66.0,0.265434741,126022
2180,66.0,0.266617202,126609
2190,66.0,0.267771865,127188
2200,67.0,0.26892995,127758
2210,67.0,0.270122674,128331
2220,67.0,0.271269211,128907
2230,67.0,0.272430716,129475
2240,67.0,0.273606762,130057
2250,67.0,0.274821724,130629
2260,67.0,0.275933194,131189
2270,67.0,0.277078876,131759
2280,67.0,0.2782113,132331
2290,68.0,0.279311223,132907
2300,67.0,0.280520197,133487
2310,69.0,0.282021686,134055
2320,67.0,0.283165658,134632
2330,68.0,0.284388745,135199
2340,67.0,0.285528868,135767
2350,68.0,0.286757514999,136335
2360,68.0,0.287941684999,136917
2370,68.0,0.289101051999,137507
2380,67.0,0.290251437999,138078
2390,68.0,0.291457846999,138668
2400,67.0,0.292670243,139260
2410,68.0,0.293908725999,139817
2420,67.0,0.295118127999,140402
2430,67.0,0.296502012999,140965
2440,67.0,0.297718257999,141532
2450,68.0,0.299241557999,142110
2460,68.0,0.300447111999,142682
2470,68.0,0.301656086999,143258
2480,68.0,0.302982665999,143821
2490,68.0,0.304168974999,144409
2500,69.0,0.305368968999,144998
2510,68.0,0.306551428999,145570
2520,68.0,0.308099959999,146152
2530,68.0,0.309299098999,146728
2540,68.0,0.310513205999,147299
2550,69.0,0.311726029999,147868
2560,68.0,0.312889672999,148441
2570,68.0,0.314137136999,149032
2580,68.0,0.315295220999,149612
2590,68.0,0.316625220999,150192
2600,68.0,0.317766198999,150772
2610,68.0,0.318964909999,151350
2620,68.0,0.320128980999,151923
2630,69.0,0.321282360999,152502
2640,69.0,0.322461399999,153081
2650,68.0,0.323616489999,153653
2660,68.0,0.324775856999,154236
2670,69.0,0.325942921998,154823
2680,68.0,0.327110841999,155412
2690,68.0,0.328277906999,155992
2700,68.0,0.329432569999,156586
2710,68.0,0.330581673998,157169
2720,69.0,0.331743606999,157750
2730,69.0,0.332911954999,158328
2740,68.0,0.334069183999,158919
2750,68.0,0.335315791999,159492
2760,69.0,0.336472592999,160068
2770,69.0,0.337613142999,160646
2780,69.0,0.338786621998,161224
2790,69.0,0.339993885998,161801
2800,68.0,0.341192596998,162361
2810,69.0,0.342400715998,162941
2820,69.0,0.343551956998,163521
2830,72.0,0.344716027999,164109
2840,69.0,0.345997703999,164671
2850,69.0,0.347160918999,165233
2860,69.0,0.348331404999,165823
2870,69.0,0.349974874999,166398
2880,69.0,0.351200527999,166983
2890,69.0,0.352366309999,167556
2900,69.0,0.353618049999,168143
2910,69.0,0.354776561999,168715
2920,69.0,0.355949613999,169295
2930,69.0,0.357120954999,169860
2940,70.0,0.358281176999,170435
2950,69.0,0.359439260999,171017
2960,69.0,0.360630701999,171588
2970,76.0,0.362051791999,172168
2980,70.0,0.363182078999,172743
2990,71.0,0.364355130999,173337
3000,70.0,0.365511931999,173927
3010,70.0,0.366800877999,174514
3020,76.0,0.367983338999,175076
3030,76.0,0.369154251999,175663
3040,76.0,0.370384180999,176248
3050,76.0,0.371579897999,176825
3060,76.0,0.372735416,177403
3070,76.0,0.373906329,177985
3080,76.0,0.375063984999,178575
3090,76.0,0.376217363999,179142
3100,76.0,0.377340380999,179718
3110,76.0,0.378465107999,180298
3120,76.0,0.379712570999,180888
3130,77.0,0.381026320999,181477
3140,77.0,0.382182266999,182060
3150,76.0,0.383329231999,182647
3160,76.0,0.384488598999,183224
3170,77.0,0.385667637999,183815
3180,77.0,0.386821872999,184392
3190,77.0,0.388007326998,184967
3200,76.0,0.389168831999,185532
3210,77.0,0.390373101999,186100
3220,77.0,0.391517928998,186683
3230,80.0,0.392690125998,187258
3240,77.0,0.393811859999,187837
3250,77.0,0.395108075998,188415
3260,77.0,0.396274284999,188994
3270,77.0,0.397437072998,189567
3280,77.0,0.398709767998,190144
3290,77.0,0.400164642998,190718
3300,78.0,0.401327857998,191298
3310,77.0,0.402499198999,191865
3320,77.0,0.403677809998,192450
3330,80.0,0.404870533998,193025
3340,77.0,0.406054704998,193611
3350,80.0,0.407442865998,194188
3360,77.0,0.408613779999,194753
3370,80.0,0.409793674999,195334
3380,77.0,0.410978273998,195911
3390,80.0,0.412139351998,196488
3400,77.0,0.413294014998,197056
3410,77.0,0.414467921998,197648
3420,77.0,0.415614031998,198222
3430,77.0,0.416733198998,198802
3440,80.0,0.417880163998,199386
3450,81.0,0.419054070998,199963
3460,77.0,0.420250215998,200550
3470,80.0,0.421411720998,201129
3480,81.0,0.422590759998,201715
3490,77.0,0.423730881998,202288
3500,77.0,0.424869293998,202871
3510,78.0,0.425992310998,203438
3520,78.0,0.427122597998,204023
3530,78.0,0.428311472998,204590
3540,80.0,0.429503341998,205161
3550,81.0,0.430661425998,205740
3560,77.0,0.431828490998,206334
3570,80.0,0.432982725998,206916
3580,77.0,0.434152783998,207497
3590,77.0,0.435379719999,208066
3600,77.0,0.436592115999,208640
3610,77.0,0.437770298999,209206
3620,81.0,0.439013057999,209789
3630,81.0,0.440189103999,210363
3640,80.0,0.441346760999,210931
3650,81.0,0.442512969999,211508
3660,77.0,0.443675758999,212087
3670,79.0,0.444858219999,212682
3680,79.0,0.445990644999,213273
3690,79.0,0.447515226999,213867
3700,79.0,0.448681863999,214458
3710,79.0,0.449863040999,215037
3720,79.0,0.451273012999,215605
3730,79.0,0.452453333999,216182
3740,77.0,0.453603292999,216756
3750,77.0,0.454779338999,217339
3760,77.0,0.455994728999,217914
3770,77.0,0.457157516998,218492
3780,77.0,0.458329285998,219050
3790,77.0,0.459489935999,219625
3800,77.0,0.460692495999,220206
3810,77.0,0.462049437998,220793
3820,77.0,0.463356344998,221372
3830,77.0,0.464512290998,221948
3840,77.0,0.465699882998,222533
3850,76.0,0.466861815999,223112
3860,77.0,0.468051545999,223683
3870,77.0,0.469223314999,224257
3880,79.0,0.470372844999,224849
3890,79.0,0.471527507999,225418
3900,79.0,0.472695427999,225997
3910,79.0,0.476665756999,226585
3920,79.0,0.477851638999,227146
3930,79.0,0.479005018999,227724
3940,79.0,0.480122475999,228307
3950,79.0,0.481476852999,228885
3960,79.0,0.482631515999,229463
3970,78.0,0.483803712999,230029
3980,77.0,0.485072986999,230613
3990,76.0,0.486273407999,231197
4000,76.0,0.487435768999,231758
4010,76.0,0.488627636999,232331
4020,76.0,0.489766049,232909
4030,77.0,0.490928837,233481
4040,76.0,0.492079224,234062
4050,76.0,0.493235169999,234634
4060,77.0,0.494393254,235200
4070,76.0,0.495569727,235779
4080,76.0,0.496819328,236359
4090,77.0,0.497962444,236908
4100,77.0,0.499170136,237482
4110,77.0,0.500304699,238074
4120,77.0,0.501463639001,238651
4130,77.0,0.502624717001,239234
4140,77.0,0.503823428001,239817
4150,77.0,0.505015297001,240408
4160,77.0,0.506383786001,240971
4170,76.0,0.507747571001,241560
4180,76.0,0.508916774001,242136
4190,77.0,0.510072292001,242734
4200,77.0,0.511243634001,243316
4210,76.0,0.512449615001,243913
4220,76.0,0.513617107001,244481
4230,76.0,0.514984314001,245069
4240,78.0,0.517393283001,245647
4250,76.0,0.518578737001,246239
4260,76.0,0.519759914001,246818
4270,76.0,0.52096504,247400
4280,76.0,0.522095326,247968
4290,76.0,0.52326624,248549
4300,75.0,0.524479064,249113
4310,76.0,0.525973711,249694
4320,76.0,0.527231866,250284
4330,78.0,0.528437847,250860
4340,76.0,0.529613465,251443
4350,76.0,0.530748884,252006
4360,76.0,0.53192664,252574
4370,76.0,0.533078737,253144
4380,76.0,0.534253071,253730
4390,76.0,0.535407306,254307
4400,76.0,0.536561541,254878
4410,76.0,0.537687124,255455
4420,75.0,0.538846491,256022
4430,75.0,0.540011418,256613
4440,75.0,0.541175917,257195
4450,75.0,0.542354529,257784
4460,76.0,0.543523304,258358
4470,76.0,0.544704481,258936
4480,77.0,0.545836906,259511
4490,78.0,0.546993279,260079
4500,78.0,0.54819199,260658
4510,78.0,0.549350501,261236
4520,78.0,0.550535955,261820
4530,78.0,0.551821051999,262401
4540,77.0,0.552981274,262979
4550,80.0,0.554175708,263556
4560,75.0,0.5553432,264131
4570,78.0,0.556492303,264698
4580,78.0,0.557682034,265280
4590,78.0,0.55885808,265856
4600,78.0,0.560029421,266432
4610,78.0,0.561190926,267002
4620,77.0,0.562308383,267579
4630,77.0,0.563466467,268167
4640,78.0,0.564627116999,268749
4650,75.0,0.565794182,269325
4660,77.0,0.566960818999,269910
4670,76.0,0.568149694999,270493
4680,77.0,0.569330444999,271069
4690,77.0,0.570517180999,271656
4700,76.0,0.571674837999,272255
4710,75.0,0.572801275999,272836
4720,75.0,0.573928567999,273409
4730,75.0,0.575078953999,273999
4740,77.0,0.576243453,274570
4750,75.0,0.577456276,275136
4760,75.0,0.578649428,275724
4770,77.0,0.579819059,276304
4780,76.0,0.581100735,276871
4790,75.0,0.582268227,277453
4800,75.0,0.583431442999,278024
4810,75.0,0.584551893,278599
4820,76.0,0.585735635999,279182
4830,77.0,0.586911680999,279759
4840,77.0,0.588414025,280344
4850,77.0,0.589575103,280918
4860,77.0,0.590733187,281498
4870,77.0,0.59185321,282079
4880,77.0,0.593008728,282656
4890,77.0,0.594151417,283225
4900,77.0,0.597300653,283797
4910,77.0,0.598467289999,284366
4920,78.0,0.599610834,284952
4930,77.0,0.601143968999,285531
4940,77.0,0.602317448999,286092
4950,78.0,0.603473394999,286671
4960,77.0,0.604670395999,287255
4970,77.0,0.606082505999,287837
4980,76.0,0.607285064999,288396
4990,76.0,0.608402094999,288963
