it,funval,time,funcount
0,8.0,0.000346825999941,282
10,8.0,0.000704344000042,468
20,8.0,0.00107298100011,649
30,8.0,0.00142921600013,839
40,8.0,0.00179357600018,1015
50,8.0,0.00214895500017,1204
60,8.0,0.00253084900032,1394
70,8.0,0.00289692000024,1588
80,8.0,0.00324802300042,1778
90,8.0,0.00359955300041,1970
100,8.0,0.00397802600037,2152
110,11.0,0.00432955600036,2338
120,11.0,0.00468450800054,2525
130,11.0,0.00504330900048,2709
140,13.0,0.00539569500052,2892
150,13.0,0.00575193000054,3076
160,13.0,0.00609790100043,3263
170,13.0,0.0064648270004,3445
180,15.0,0.00685270800045,3634
190,15.0,0.0072170680005,3820
200,15.0,0.00758100000053,4007
210,15.0,0.00795990000051,4190
220,15.0,0.00832212200044,4379
230,15.0,0.0086749350005,4564
240,15.0,0.0090384400005,4746
250,15.0,0.00938997100047,4937
260,16.0,0.00973337600044,5128
270,15.0,0.0100836230006,5315
280,15.0,0.0104702210006,5500
290,15.0,0.0109072820005,5692
300,15.0,0.0113956620005,5880
310,15.0,0.0117732790006,6068
320,15.0,0.0121380670007,6254
330,15.0,0.0124964410006,6438
340,15.0,0.0128552420006,6618
350,15.0,0.0132174640005,6807
360,15.0,0.0135809690005,6994
370,15.0,0.0139410530005,7186
380,15.0,0.0142883070005,7373
390,15.0,0.0146321400005,7562
400,16.0,0.0149755450004,7745
410,16.0,0.0153326350003,7929
420,16.0,0.0156828830002,8121
430,16.0,0.0160271430002,8310
440,16.0,0.0164346970002,8496
450,16.0,0.0168704750004,8680
460,16.0,0.0172600670003,8866
470,16.0,0.0176573570002,9053
480,16.0,0.0180798780002,9239
490,16.0,0.0184630550002,9424
500,16.0,0.0188299810002,9613
510,17.0,0.0192200000001,9801
520,16.0,0.0195882089999,9988
530,17.0,0.0199970449999,10175
540,16.0,0.0204118679997,10359
550,17.0,0.0209207749997,10547
560,16.0,0.0213065179996,10730
570,16.0,0.0216678849997,10919
580,16.0,0.0220450749998,11108
590,16.0,0.0225291779998,11299
600,16.0,0.0228849849998,11484
610,16.0,0.0232313839997,11666
620,16.0,0.0235799209997,11855
630,16.0,0.0239502679999,12037
640,17.0,0.0243133449999,12229
650,18.0,0.0246768499999,12415
660,17.0,0.0250347959998,12603
670,17.0,0.0254449149998,12785
680,17.0,0.0258118409997,12972
690,17.0,0.0261886039996,13157
700,17.0,0.0265491149994,13343
710,17.0,0.0269057769992,13531
720,17.0,0.0272765519992,13721
730,16.0,0.0276657159993,13908
740,16.0,0.0280698479994,14095
750,17.0,0.0284470379993,14281
760,17.0,0.0288323529994,14467
770,16.0,0.0291787519993,14654
780,16.0,0.0295550869994,14843
790,16.0,0.0299361259993,15033
800,16.0,0.0303411129994,15222
810,16.0,0.0307238619994,15412
820,17.0,0.0311378299994,15596
830,16.0,0.0315205789993,15776
840,16.0,0.0319229999993,15960
850,16.0,0.0323006179992,16146
860,16.0,0.0326906379992,16338
870,17.0,0.0330549979992,16528
880,18.0,0.0334219239992,16709
890,18.0,0.0337768759994,16894
900,16.0,0.0341455129994,17085
910,16.0,0.0345120119994,17279
920,16.0,0.0349430869994,17470
930,16.0,0.0353202769995,17660
940,17.0,0.0357149999995,17845
950,16.0,0.0362589749996,18032
960,16.0,0.0366605409997,18218
970,16.0,0.0370159209997,18405
980,17.0,0.0373588989999,18592
990,16.0,0.0377052979998,18777
1000,16.0,0.0380504139998,18968
1010,16.0,0.0383951019999,19156
1020,16.0,0.0387620280001,19342
1030,16.0,0.0391114199999,19534
1040,16.0,0.039487755,19720
1050,18.0,0.0398311609999,19904
1060,16.0,0.040180554,20095
1070,16.0,0.0406980140001,20279
1080,16.0,0.0412270200002,20466
1090,16.0,0.0415965120003,20649
1100,17.0,0.0419617280004,20832
1110,17.0,0.0423414840004,21021
1120,17.0,0.0427250890004,21208
1130,17.0,0.0430898760005,21388
1140,16.0,0.0434773290006,21579
1150,18.0,0.0438801780006,21764
1160,18.0,0.0442920080006,21954
1170,18.0,0.0446657770005,22142
1180,18.0,0.0450583620006,22328
1190,22.0,0.0454385450007,22519
1200,22.0,0.0458170180007,22703
1210,22.0,0.0461882210006,22890
1220,22.0,0.0465465940008,23078
1230,22.0,0.0469071050006,23269
1240,22.0,0.0473591340005,23461
1250,22.0,0.0478133010006,23643
1260,25.0,0.0482858580006,23821
1270,25.0,0.0498083020004,24005
1280,25.0,0.0502603320003,24189
1290,25.0,0.0507538440004,24373
1300,28.0,0.0511930440005,24558
1310,28.0,0.0517361630004,24746
1320,28.0,0.0522882630005,24933
1330,28.0,0.0527650950005,25117
1340,30.0,0.0532385070003,25300
1350,28.0,0.0536965230003,25496
1360,28.0,0.0541092080005,25675
1370,28.0,0.0544885360005,25857
1380,28.0,0.0548794110005,26044
1390,28.0,0.0552805490006,26229
1400,28.0,0.0556915240006,26415
1410,28.0,0.0561307230007,26608
1420,30.0,0.0564967940006,26798
1430,30.0,0.0568996430006,26983
1440,30.0,0.0572930840005,27166
1450,30.0,0.0576972150006,27352
1460,30.0,0.0580885170007,27539
1470,30.0,0.0584627130006,27725
1480,30.0,0.0588497390006,27913
1490,30.0,0.0592277840008,28102
1500,30.0,0.0595977040007,28296
1510,30.0,0.0600052570007,28486
1520,30.0,0.0603734660008,28674
1530,30.0,0.0607446690008,28861
1540,30.0,0.0611312670007,29052
1550,30.0,0.0614990490008,29240
1560,30.0,0.0619023260006,29427
1570,30.0,0.0623051750006,29612
1580,30.0,0.0626768060006,29800
1590,30.0,0.0630740950007,29988
1600,30.0,0.0634491470007,30169
1610,30.0,0.0638254810008,30356
1620,30.0,0.0642013880006,30546
1630,30.0,0.0645589060007,30742
1640,30.0,0.0649463590007,30927
1650,30.0,0.0653697350006,31116
1660,30.0,0.0657559060005,31306
1670,30.0,0.0661570450006,31496
1680,30.0,0.0665201230006,31685
1690,30.0,0.0668938920005,31871
1700,30.0,0.0672531200005,32060
1710,30.0,0.0676764970005,32250
1720,30.0,0.0680481280006,32443
1730,30.0,0.0684167650006,32631
1740,30.0,0.0687888230007,32818
1750,30.0,0.0692100610008,33006
1760,30.0,0.0695859680009,33192
1770,30.0,0.0699879610008,33379
1780,30.0,0.0704579510009,33563
1790,30.0,0.0708377070009,33747
1800,30.0,0.0711999290011,33930
1810,30.0,0.071609620001,34115
1820,30.0,0.071996646001,34305
1830,30.0,0.0725337780011,34493
1840,30.0,0.072906263001,34678
1850,30.0,0.0732761820009,34870
1860,30.0,0.0736520880009,35058
1870,30.0,0.0740104610011,35250
1880,30.0,0.0743863680011,35433
1890,30.0,0.074763558001,35620
1900,30.0,0.0751244970011,35811
1910,30.0,0.0754901400012,35996
1920,30.0,0.0758711790013,36180
1930,30.0,0.0762372500014,36365
1940,30.0,0.0766229930014,36552
1950,30.0,0.0769903470014,36739
1960,30.0,0.0773863540014,36925
1970,33.0,0.0777853540014,37115
1980,33.0,0.0781441550014,37302
1990,33.0,0.0785063770013,37483
2000,33.0,0.0788681720014,37667
2010,33.0,0.0792244070014,37855
2020,33.0,0.0795810690015,38042
2030,33.0,0.0799552650014,38232
2040,35.0,0.0803162040013,38421
2050,35.0,0.0806737210014,38610
2060,35.0,0.0810342330014,38801
2070,35.0,0.0814075740013,38988
2080,35.0,0.0818005870015,39175
2090,35.0,0.0821546840016,39365
2100,35.0,0.0825323010015,39551
2110,35.0,0.0828975160016,39741
2120,35.0,0.0832640140015,39926
2130,35.0,0.0836587370015,40114
2140,35.0,0.0840158270016,40297
2150,35.0,0.0844233800017,40483
2160,35.0,0.0848168200016,40671
2170,35.0,0.0851687780016,40855
2180,35.0,0.0855784690018,41039
2190,37.0,0.0859646400017,41225
2200,37.0,0.0863123220017,41418
2210,37.0,0.0866621420018,41606
2220,37.0,0.0870136730018,41795
2230,37.0,0.0874032650017,41983
2240,35.0,0.0877877250018,42167
2250,35.0,0.0881426760018,42349
2260,35.0,0.0884984840018,42539
2270,35.0,0.0888987670016,42728
2280,35.0,0.0892716800017,42912
2290,35.0,0.0896313360017,43093
2300,35.0,0.0900016830017,43274
2310,35.0,0.0903562080018,43461
2320,35.0,0.0907124430018,43647
2330,35.0,0.0910806520019,43835
2340,35.0,0.091434320002,44024
2350,36.0,0.0917956870021,44211
2360,35.0,0.0921912660019,44395
2370,35.0,0.0925453630018,44581
2380,35.0,0.0929208430018,44770
2390,35.0,0.0933472130018,44957
2400,36.0,0.0938180590019,45143
2410,36.0,0.0942114990019,45328
2420,36.0,0.0946216180018,45515
2430,36.0,0.0949936760019,45706
2440,36.0,0.0954345860021,45893
2450,36.0,0.095820757002,46078
2460,36.0,0.096184690002,46265
2470,36.0,0.096570861002,46450
2480,38.0,0.0969831180018,46641
2490,36.0,0.0973915260017,46827
2500,36.0,0.0977682890016,47015
2510,36.0,0.0981617290015,47198
2520,38.0,0.0985461890016,47377
2530,36.0,0.0990538130015,47565
2540,36.0,0.0994151800014,47755
2550,36.0,0.0998158910013,47941
2560,38.0,0.100202062001,48128
2570,36.0,0.100601917001,48318
2580,36.0,0.100983383001,48500
2590,36.0,0.101357151001,48688
2600,36.0,0.101720229001,48872
2610,38.0,0.102083734001,49064
2620,136.0,0.102445956001,49244
2630,136.0,0.102800481001,49434
2640,136.0,0.103155860001,49615
2650,136.0,0.103546735001,49803
2660,136.0,0.103918793001,49986
2670,136.0,0.104378520001,50176
2680,136.0,0.104749723001,50361
2690,136.0,0.105109807001,50547
2700,136.0,0.105468180001,50738
2710,136.0,0.105834678001,50921
2720,136.0,0.106223414002,51110
2730,138.0,0.106621131002,51291
2740,136.0,0.107002169002,51484
2750,136.0,0.107365674002,51670
2760,138.0,0.107758687002,51857
2770,138.0,0.108111929002,52040
2780,138.0,0.108482704002,52225
2790,138.0,0.108842787002,52410
2800,138.0,0.109217839002,52591
2810,138.0,0.109623681001,52774
2820,139.0,0.109993173002,52962
2830,138.0,0.110356678002,53144
2840,138.0,0.110726598002,53332
2850,138.0,0.111100367001,53520
2860,139.0,0.111491242001,53709
2870,139.0,0.111865439001,53893
2880,139.0,0.112242201001,54074
2890,138.0,0.112630510001,54263
2900,138.0,0.113017535001,54449
2910,138.0,0.113393015001,54638
2920,138.0,0.113766784001,54827
2930,138.0,0.114146967001,55014
2940,138.0,0.114556659001,55198
2950,138.0,0.114931283001,55384
2960,138.0,0.115303341001,55573
2970,138.0,0.115690795001,55766
2980,138.0,0.116084663001,55954
2990,138.0,0.116456721001,56140
3000,138.0,0.116827068001,56327
3010,138.0,0.117223930001,56519
3020,138.0,0.117645595001,56701
3030,138.0,0.118016797001,56891
3040,138.0,0.118391848001,57079
3050,138.0,0.118749366001,57264
3060,138.0,0.119129550001,57447
3070,138.0,0.119499470001,57635
3080,138.0,0.119852711001,57823
3090,138.0,0.120236743001,58012
3100,138.0,0.120607091001,58207
3110,138.0,0.121003098001,58395
3120,138.0,0.121382426001,58582
3130,138.0,0.121768169001,58771
3140,138.0,0.122144931001,58960
3150,138.0,0.122515706001,59150
3160,138.0,0.122883488001,59337
3170,141.0,0.123273507001,59521
3180,138.0,0.123658394001,59702
3190,141.0,0.124107857001,59890
3200,138.0,0.124485047001,60071
3210,138.0,0.124851973001,60253
3220,138.0,0.125259098001,60443
3230,141.0,0.125637571001,60627
3240,138.0,0.126006208001,60813
3250,138.0,0.126394089001,60998
3260,138.0,0.126766575001,61186
3270,138.0,0.127139488001,61372
3280,138.0,0.127517533001,61564
3290,138.0,0.127927652001,61755
3300,138.0,0.128306980001,61944
3310,141.0,0.128808617001,62136
3320,138.0,0.129236698001,62320
3330,138.0,0.129626717002,62508
3340,138.0,0.129998347001,62697
3350,138.0,0.130355437001,62881
3360,138.0,0.130710817001,63068
3370,138.0,0.131095704001,63260
3380,138.0,0.131473749001,63453
3390,138.0,0.131838965001,63637
3400,138.0,0.132206747001,63825
3410,138.0,0.132568969002,64013
3420,138.0,0.132929908002,64196
3430,141.0,0.133351574002,64381
3440,141.0,0.133712085002,64565
3450,138.0,0.134073452002,64754
3460,138.0,0.134436102002,64944
3470,138.0,0.134799179002,65136
3480,141.0,0.135190909002,65326
3490,141.0,0.135553987002,65512
3500,141.0,0.135927328002,65697
3510,138.0,0.136301952002,65885
3520,138.0,0.136659897002,66073
3530,138.0,0.137019981002,66268
3540,138.0,0.137389045002,66457
3550,138.0,0.137745280002,66642
3560,138.0,0.138118194002,66830
3570,138.0,0.138478277002,67016
3580,138.0,0.138849480002,67205
3590,141.0,0.139231801002,67399
3600,138.0,0.139591885002,67588
3610,138.0,0.139951969002,67778
3620,138.0,0.140307777002,67967
3630,138.0,0.140675986002,68151
3640,138.0,0.141063439002,68341
3650,138.0,0.146275672002,68536
3660,136.0,0.146634045002,68725
3670,135.0,0.146995839002,68912
3680,135.0,0.147387997002,69103
3690,138.0,0.147771174002,69289
3700,135.0,0.148165897002,69477
3710,135.0,0.148543087002,69662
3720,135.0,0.148910869002,69850
3730,135.0,0.149297467002,70036
3740,135.0,0.149656268002,70221
3750,135.0,0.150017635002,70407
3760,135.0,0.150376008002,70598
3770,135.0,0.150740796002,70782
3780,135.0,0.151100025002,70962
3790,136.0,0.151477643002,71147
3800,135.0,0.151850984002,71335
3810,135.0,0.152344068002,71519
3820,135.0,0.152755042002,71701
3830,136.0,0.153135653002,71892
3840,135.0,0.153494881002,72075
3850,135.0,0.153847267002,72267
3860,135.0,0.154203930002,72455
3870,135.0,0.154577271002,72647
3880,135.0,0.154949329002,72832
3890,135.0,0.155313690002,73016
3900,135.0,0.155678051002,73198
3910,135.0,0.156063794002,73386
3920,135.0,0.156423878002,73572
3930,134.0,0.156818601002,73757
3940,134.0,0.157181678002,73939
3950,134.0,0.157553309002,74124
3960,134.0,0.157954875002,74304
3970,134.0,0.158340190002,74483
3980,134.0,0.158744749002,74666
3990,134.0,0.159136907002,74852
4000,134.0,0.159525216002,75042
4010,134.0,0.159897274002,75227
4020,135.0,0.160257358002,75418
4030,136.0,0.160625140002,75600
4040,134.0,0.161000620002,75789
4050,134.0,0.161387219002,75974
4060,134.0,0.161780232002,76156
4070,135.0,0.162159132002,76340
4080,135.0,0.162561126002,76526
4090,134.0,0.162922065002,76717
4100,134.0,0.163300538002,76903
4110,134.0,0.163708519002,77097
4120,134.0,0.164082715002,77285
4130,134.0,0.164442371002,77472
4140,135.0,0.164803738002,77660
4150,135.0,0.165905799002,77846
4160,135.0,0.166284700002,78030
4170,135.0,0.166667022002,78215
4180,135.0,0.167270868002,78408
4190,135.0,0.167647630002,78596
4200,135.0,0.168016267002,78786
4210,135.0,0.168381910002,78972
4220,135.0,0.168749264002,79160
4230,135.0,0.169108064002,79345
4240,135.0,0.169487820002,79533
4250,135.0,0.169873990002,79718
4260,136.0,0.170273418002,79900
4270,134.0,0.170641627002,80088
4280,133.0,0.171070991002,80274
4290,133.0,0.171469991002,80463
4300,133.0,0.171837772002,80651
4310,133.0,0.172196573002,80836
4320,133.0,0.172553236002,81023
4330,133.0,0.172950526002,81214
4340,133.0,0.173333703002,81400
4350,133.0,0.173715597002,81586
4360,133.0,0.174090221002,81775
4370,133.0,0.174470404002,81960
4380,133.0,0.174845456002,82147
4390,133.0,0.175231627002,82330
4400,133.0,0.175635332002,82523
4410,133.0,0.176019364002,82710
4420,133.0,0.176391422002,82898
4430,136.0,0.176787001002,83088
4440,136.0,0.177159486002,83275
4450,136.0,0.177540953002,83464
4460,133.0,0.177907024002,83653
4470,133.0,0.178268390002,83838
4480,133.0,0.178630185002,84026
4490,133.0,0.178997967002,84216
4500,136.0,0.179361044002,84400
4510,136.0,0.179720273002,84584
4520,136.0,0.180102595002,84765
4530,136.0,0.180465245002,84953
4540,136.0,0.180821052002,85140
4550,136.0,0.181205512002,85315
4560,136.0,0.181595104002,85500
4570,136.0,0.181968445002,85687
4580,136.0,0.182333660002,85875
4590,136.0,0.182910136002,86061
4600,136.0,0.183301011002,86251
4610,136.0,0.183697017002,86434
4620,136.0,0.184069503002,86623
4630,136.0,0.184480050002,86806
4640,137.0,0.184867504002,86999
4650,133.0,0.185271636002,87189
4660,136.0,0.185664649002,87369
4670,136.0,0.186035852002,87558
4680,136.0,0.186403206002,87749
4690,136.0,0.186779541002,87939
4700,133.0,0.187180680002,88124
4710,133.0,0.187574976002,88309
4720,136.0,0.187965850002,88499
4730,136.0,0.188331494002,88686
4740,136.0,0.188714671002,88876
4750,137.0,0.189091433002,89061
4760,137.0,0.189448523002,89246
4770,137.0,0.189840680002,89430
4780,137.0,0.190239680002,89620
4790,136.0,0.190738323002,89804
4800,136.0,0.191107815002,89990
4810,137.0,0.191459345002,90176
4820,136.0,0.191822422002,90361
4830,136.0,0.192211158002,90545
4840,136.0,0.192578084002,90735
4850,136.0,0.192933892002,90920
4860,136.0,0.193300819002,91105
4870,136.0,0.193651494002,91299
4880,136.0,0.194003452002,91486
4890,137.0,0.194387057002,91674
4900,136.0,0.194747141002,91859
4910,137.0,0.195166241002,92039
4920,137.0,0.195588334002,92223
4930,138.0,0.195950983002,92411
4940,137.0,0.196303796002,92600
4950,137.0,0.196661742002,92788
4960,137.0,0.197018832002,92979
4970,137.0,0.197447768002,93168
4980,137.0,0.197827096002,93353
4990,136.0,0.198211128002,93542
