it,funval,time,funcount
0,12.0,0.000602562999575,433
10,13.0,0.00121154099952,767
20,13.0,0.00183120999964,1100
30,13.0,0.00245900399977,1432
40,13.0,0.00307952899993,1759
50,13.0,0.00369877100002,2100
60,13.0,0.00431929600018,2421
70,14.0,0.00500995500033,2746
80,14.0,0.00565271700043,3087
90,14.0,0.00627153100049,3436
100,14.0,0.00689718800049,3771
110,15.0,0.00759982200043,4106
120,14.0,0.00823317600043,4444
130,15.0,0.0088609710001,4778
140,15.0,0.00949218700043,5120
150,15.0,0.0125802680004,5460
160,16.0,0.0132251680006,5800
170,15.0,0.0138538170008,6136
180,15.0,0.0144995730011,6475
190,20.0,0.0151483220011,6809
200,21.0,0.0158693450012,7150
210,21.0,0.0165322070015,7492
220,21.0,0.0172451050016,7822
230,22.0,0.0178519450019,8159
240,22.0,0.0184527980018,8486
250,22.0,0.0191135210021,8812
260,22.0,0.0198726050021,9150
270,22.0,0.0205371780021,9485
280,22.0,0.0211718150022,9816
290,22.0,0.021826124002,10153
300,22.0,0.0224757290016,10478
310,22.0,0.0231163530016,10806
320,23.0,0.0237428640016,11136
330,23.0,0.0243668100015,11470
340,23.0,0.0250886880017,11807
350,23.0,0.0258469160017,12149
360,26.0,0.0265914590018,12489
370,23.0,0.027314620002,12813
380,23.0,0.0279240260024,13152
390,26.0,0.0285312930023,13476
400,23.0,0.0291483970022,13805
410,23.0,0.0297740530023,14139
420,23.0,0.0304095460024,14465
430,23.0,0.0310339190028,14806
440,23.0,0.0316698390025,15138
450,23.0,0.0323091800028,15476
460,23.0,0.032976318003,15814
470,23.0,0.0336148040028,16159
480,23.0,0.0342447360031,16487
490,23.0,0.0349443760033,16811
500,23.0,0.0355760200036,17153
510,26.0,0.0362033870038,17489
520,23.0,0.0368423010036,17830
530,26.0,0.0375509220039,18158
540,28.0,0.0381693080039,18487
550,28.0,0.0388283210041,18826
560,29.0,0.0394377260041,19169
570,29.0,0.0400869040041,19503
580,29.0,0.0407395020038,19828
590,29.0,0.0413976590039,20167
600,29.0,0.0420442700042,20500
610,29.0,0.0427417720039,20830
620,29.0,0.043369566004,21177
630,29.0,0.0439841030038,21521
640,29.0,0.0446153190042,21857
650,29.0,0.0453218020039,22201
660,29.0,0.0459756830037,22550
670,29.0,0.046638117004,22887
680,30.0,0.047286439004,23224
690,29.0,0.0479300560041,23557
700,30.0,0.0485758120044,23892
710,30.0,0.0492420950045,24231
720,30.0,0.0498899890044,24574
730,30.0,0.0505314690045,24905
740,30.0,0.0511785080043,25233
750,35.0,0.0518302510045,25557
760,35.0,0.0526030200044,25877
770,35.0,0.0532517700044,26212
780,35.0,0.0538911120043,26553
790,35.0,0.0546467740041,26897
800,39.0,0.0552630220041,27244
810,39.0,0.055872427004,27577
820,39.0,0.0564989390041,27913
830,39.0,0.0571177530041,28254
840,39.0,0.0577361390042,28582
850,39.0,0.0583575180044,28919
860,41.0,0.0589707720042,29248
870,41.0,0.0595972830042,29584
880,39.0,0.0602101100044,29928
890,41.0,0.0608237920042,30251
900,41.0,0.0614455990039,30580
910,42.0,0.0620823740041,30915
920,42.0,0.062729413004,31246
930,43.0,0.0633678990039,31580
940,44.0,0.0640453010037,31913
950,44.0,0.0646765170036,32254
960,44.0,0.0653064500034,32599
970,44.0,0.0659355270036,32918
980,44.0,0.0665800000038,33259
990,43.0,0.0672381580039,33594
1000,43.0,0.067881776004,33925
1010,44.0,0.0685121370038,34271
1020,44.0,0.0691266740037,34604
1030,44.0,0.0698960220038,34946
1040,45.0,0.0705447720038,35284
1050,45.0,0.0711597370041,35617
1060,45.0,0.0717798340042,35949
1070,45.0,0.0724362810042,36278
1080,45.0,0.0731846730041,36614
1090,45.0,0.0739352040041,36952
1100,45.0,0.0745955000039,37280
1110,45.0,0.0752279980038,37611
1120,45.0,0.0758549370039,37943
1130,45.0,0.0764793100043,38279
1140,45.0,0.0771169400041,38616
1150,49.0,0.0777635510044,38943
1160,48.0,0.0783716730043,39271
1170,50.0,0.0790358180043,39613
1180,48.0,0.0796999630043,39935
1190,48.0,0.080603166004,40276
1200,49.0,0.0812463560042,40617
1210,49.0,0.0818874080041,40959
1220,49.0,0.0825139190042,41285
1230,50.0,0.0831639510043,41629
1240,49.0,0.083816122004,41970
1250,49.0,0.084449476004,42310
1260,50.0,0.0851097720038,42653
1270,49.0,0.0857414150037,42990
1280,50.0,0.0865201710039,43334
1290,50.0,0.087169776004,43673
1300,49.0,0.0878493170039,44000
1310,49.0,0.088530568004,44337
1320,50.0,0.0892135300037,44659
1330,50.0,0.0898635630033,44997
1340,50.0,0.0906140940033,45325
1350,50.0,0.0937432300034,45660
1360,50.0,0.0944377380033,45993
1370,50.0,0.0950916190036,46337
1380,50.0,0.0957459280035,46681
1390,49.0,0.0964293180036,47019
1400,51.0,0.0971221160034,47355
1410,49.0,0.0977738590036,47686
1420,51.0,0.0984491230033,48023
1430,49.0,0.0990769170035,48360
1440,51.0,0.0996893160036,48693
1450,51.0,0.100345763004,49026
1460,51.0,0.100987670004,49372
1470,52.0,0.101620596004,49719
1480,51.0,0.102252667004,50060
1490,52.0,0.102906120004,50404
1500,52.0,0.103567699004,50735
1510,52.0,0.104222008003,51074
1520,51.0,0.104829703003,51410
1530,51.0,0.105475459004,51754
1540,51.0,0.106116083004,52083
1550,51.0,0.106749865004,52420
1560,51.0,0.107381936004,52750
1570,52.0,0.108020421004,53093
1580,52.0,0.108666177004,53430
1590,51.0,0.109284991004,53767
1600,52.0,0.109933313004,54098
1610,52.0,0.110571371004,54432
1620,52.0,0.111203015004,54775
1630,51.0,0.111872719005,55121
1640,51.0,0.112516336005,55456
1650,51.0,0.113170218005,55805
1660,52.0,0.114116614005,56144
1670,52.0,0.114782470005,56481
1680,52.0,0.115440627005,56808
1690,52.0,0.116109049005,57146
1700,52.0,0.116765923005,57490
1710,52.0,0.117426647005,57818
1720,52.0,0.118146387005,58157
1730,52.0,0.118857146005,58500
1740,52.0,0.119542246005,58826
1750,52.0,0.120282086004,59165
1760,52.0,0.120929980004,59496
1770,52.0,0.121558630004,59825
1780,52.0,0.122257842004,60155
1790,51.0,0.122902315004,60492
1800,51.0,0.123523267004,60819
1810,51.0,0.124153200004,61151
1820,51.0,0.124793397004,61491
1830,51.0,0.125429745004,61840
1840,52.0,0.126036157004,62169
1850,51.0,0.126674643004,62514
1860,52.0,0.127311846004,62857
1870,51.0,0.127967011003,63186
1880,51.0,0.128625169003,63520
1890,51.0,0.129275201003,63858
1900,51.0,0.129938918003,64193
1910,51.0,0.130577404003,64535
1920,51.0,0.131234279003,64870
1930,51.0,0.131885595003,65205
1940,51.0,0.132523653002,65554
1950,52.0,0.133190791002,65882
1960,51.0,0.133831415002,66229
1970,51.0,0.134472894002,66567
1980,52.0,0.135217010002,66901
1990,51.0,0.135947869002,67237
2000,51.0,0.136606454002,67559
2010,51.0,0.137254776002,67893
2020,52.0,0.137930895002,68225
2030,53.0,0.138572802002,68565
2040,53.0,0.139211716002,68892
2050,53.0,0.139840793002,69224
2060,53.0,0.140489115002,69542
2070,53.0,0.141154116002,69882
2080,53.0,0.141766087002,70217
2090,53.0,0.142405855002,70559
2100,53.0,0.143058453002,70908
2110,53.0,0.143736283002,71243
2120,53.0,0.144377762002,71581
2130,53.0,0.145030361003,71913
2140,53.0,0.145736844003,72258
2150,53.0,0.146419805003,72589
2160,53.0,0.147228069003,72920
2170,53.0,0.147940111003,73257
2180,54.0,0.148576459003,73590
2190,54.0,0.149280375003,73919
2200,53.0,0.149938533003,74261
2210,53.0,0.150615508004,74605
2220,53.0,0.151260836004,74944
2230,53.0,0.151906592004,75282
2240,53.0,0.152542939004,75616
2250,53.0,0.153220769004,75971
2260,53.0,0.153928962004,76301
2270,53.0,0.154655117004,76639
2280,53.0,0.155393246004,76981
2290,53.0,0.156086044004,77323
2300,54.0,0.156758742004,77654
2310,54.0,0.157406208004,77992
2320,53.0,0.158124237003,78326
2330,53.0,0.158875196003,78662
2340,53.0,0.159491016003,78997
2350,56.0,0.160132923003,79332
2360,54.0,0.160783383003,79656
2370,54.0,0.161417592004,79989
2380,54.0,0.162080454003,80337
2390,56.0,0.162727920003,80668
2400,53.0,0.163371966004,81004
2410,53.0,0.164006175004,81347
2420,53.0,0.164622423003,81693
2430,53.0,0.165258770003,82028
2440,53.0,0.165915645003,82365
2450,53.0,0.166553703003,82702
2460,54.0,0.167193044003,83031
2470,54.0,0.167855906003,83362
2480,54.0,0.168487977003,83686
2490,54.0,0.169351836003,84002
2500,54.0,0.170131447003,84340
2510,54.0,0.170803290003,84670
2520,56.0,0.171498654003,85005
2530,56.0,0.172139278003,85344
2540,56.0,0.172788027003,85675
2550,57.0,0.173469278003,86003
2560,56.0,0.174107764003,86335
2570,57.0,0.174770199003,86675
2580,57.0,0.175414245003,87003
2590,57.0,0.176119872003,87352
2600,57.0,0.176775036003,87682
2610,57.0,0.177421220003,88014
2620,57.0,0.180858694003,88346
2630,57.0,0.181482212004,88684
2640,59.0,0.182107868004,89014
2650,57.0,0.182762604004,89344
2660,57.0,0.183402373004,89683
2670,57.0,0.184072505004,90027
2680,57.0,0.184732801004,90350
2690,57.0,0.185469647005,90689
2700,57.0,0.186168860004,91021
2710,57.0,0.186837281005,91358
2720,58.0,0.187495866005,91696
2730,57.0,0.188105699005,92036
2740,57.0,0.188712111004,92372
2750,57.0,0.189420732004,92706
2760,57.0,0.190084021004,93035
2770,59.0,0.190801195004,93374
2780,59.0,0.191505111004,93711
2790,57.0,0.192244951004,94049
2800,57.0,0.192926630004,94387
2810,57.0,0.193650646004,94720
2820,57.0,0.194376373004,95061
2830,57.0,0.195078579004,95390
2840,57.0,0.195727756004,95725
2850,57.0,0.196464174004,96057
2860,57.0,0.197203585004,96391
2870,59.0,0.198009283004,96735
2880,59.0,0.198740142004,97068
2890,59.0,0.199386325004,97403
2900,59.0,0.200120177004,97733
2910,59.0,0.200795869004,98063
2920,59.0,0.201410834004,98402
2930,59.0,0.202099356005,98736
2940,59.0,0.202727150004,99062
2950,59.0,0.203432350004,99390
2960,59.0,0.204067842004,99726
2970,59.0,0.204769193004,100058
2980,59.0,0.205484228004,100387
2990,60.0,0.206128273003,100715
3000,60.0,0.206757778004,101053
3010,60.0,0.207478801003,101384
3020,59.0,0.208128833003,101713
3030,59.0,0.208787847003,102045
3040,59.0,0.209455414003,102379
3050,59.0,0.210135382003,102717
3060,59.0,0.210786270003,103045
3070,60.0,0.211427749003,103373
3080,59.0,0.212111138003,103703
3090,59.0,0.212780843003,104038
3100,59.0,0.213428737003,104376
3110,59.0,0.214071927003,104717
3120,59.0,0.214687747003,105059
3130,60.0,0.215334786003,105401
3140,59.0,0.216028866003,105742
3150,60.0,0.216725940003,106086
3160,59.0,0.217372551003,106421
3170,60.0,0.218024722003,106757
3180,60.0,0.218739758003,107091
3190,59.0,0.219398343003,107425
3200,60.0,0.220039395003,107757
3210,59.0,0.220684723003,108097
3220,60.0,0.221350151003,108425
3230,60.0,0.222002321002,108755
3240,60.0,0.222651925003,109092
3250,60.0,0.223289983002,109429
3260,60.0,0.223908797002,109776
3270,59.0,0.224567383003,110110
3280,59.0,0.225236232003,110443
3290,59.0,0.225876429003,110782
3300,59.0,0.226552548003,111114
3310,59.0,0.227192317003,111458
3320,59.0,0.227861166003,111793
3330,59.0,0.228540279003,112127
3340,59.0,0.229183469003,112464
3350,59.0,0.229823665003,112806
3360,59.0,0.230595578003,113147
3370,59.0,0.231277684003,113485
3380,59.0,0.231925150003,113833
3390,59.0,0.232590578002,114170
3400,59.0,0.233235906002,114499
3410,59.0,0.234630910002,114830
3420,59.0,0.235275811002,115158
3430,59.0,0.235932686002,115488
3440,59.0,0.236601535002,115825
3450,59.0,0.237231895002,116172
3460,59.0,0.237880217001,116507
3470,59.0,0.238527256001,116848
3480,60.0,0.239216205001,117183
3490,59.0,0.239915845001,117514
3500,60.0,0.240559035001,117843
3510,60.0,0.241218048001,118170
3520,60.0,0.242054110001,118494
3530,60.0,0.242696017001,118827
3540,60.0,0.243343911001,119165
3550,60.0,0.243999930001,119501
3560,60.0,0.244634995001,119841
3570,60.0,0.245299140001,120183
3580,60.0,0.245912394002,120520
3590,60.0,0.246559861002,120842
3600,60.0,0.247206044001,121185
3610,60.0,0.247883874001,121522
3620,60.0,0.248539893001,121844
3630,63.0,0.249209170001,122183
3640,60.0,0.249871605001,122510
3650,60.0,0.250531474001,122839
3660,60.0,0.251215291001,123171
3670,60.0,0.251896114001,123513
3680,60.0,0.252547430001,123855
3690,60.0,0.253195324001,124192
3700,60.0,0.253851343001,124532
3710,60.0,0.254489401001,124860
3720,60.0,0.255131308001,125189
3730,63.0,0.255780913001,125526
3740,63.0,0.256429235001,125866
3750,63.0,0.257070714001,126196
3760,63.0,0.257683541001,126529
3770,63.0,0.258331435001,126857
3780,64.0,0.258964788001,127188
3790,63.0,0.259613965001,127529
3800,63.0,0.260253307001,127861
3810,63.0,0.260897779001,128199
3820,63.0,0.261518731001,128526
3830,63.0,0.262150374001,128861
3840,63.0,0.262790143001,129194
3850,63.0,0.263437182001,129536
3860,63.0,0.264044449001,129875
3870,63.0,0.264744945001,130207
3880,63.0,0.265397971001,130536
3890,63.0,0.266050569001,130879
3900,63.0,0.269804934001,131218
3910,63.0,0.270458387001,131562
3920,63.0,0.271105854001,131908
3930,64.0,0.271766150001,132253
3940,63.0,0.272446545001,132582
3950,63.0,0.273150034001,132918
3960,63.0,0.273826581001,133255
3970,63.0,0.274464639001,133589
3980,63.0,0.275107401001,133917
3990,63.0,0.275808325001,134243
4000,63.0,0.276504544001,134576
4010,63.0,0.277153293001,134915
4020,64.0,0.277777666,135246
4030,65.0,0.278501683,135576
4040,64.0,0.279179513,135903
4050,64.0,0.279825269,136239
4060,64.0,0.280645935,136561
4070,64.0,0.281342154,136893
4080,64.0,0.282007582,137241
4090,64.0,0.283078425,137573
4100,64.0,0.283796882,137901
4110,64.0,0.284433657,138247
4120,64.0,0.2850452,138575
4130,64.0,0.285758952,138919
4140,64.0,0.286441914,139262
4150,64.0,0.287104776,139596
4160,64.0,0.287811686,139934
4170,64.0,0.288584455,140264
4180,65.0,0.28935423,140594
4190,64.0,0.290101339,140931
4200,64.0,0.29078088,141263
4210,64.0,0.291434761,141591
4220,64.0,0.292294771,141929
4230,64.0,0.29294352,142267
4240,65.0,0.293614507,142594
4250,64.0,0.294254276,142925
4260,63.0,0.294925691,143251
4270,63.0,0.2955398,143582
4280,63.0,0.296190688,143909
4290,64.0,0.296879637,144236
4300,63.0,0.297546348,144564
4310,63.0,0.298184406,144906
4320,63.0,0.298848978,145237
4330,63.0,0.299479338001,145577
4340,63.0,0.300122100001,145915
4350,64.0,0.300748611001,146254
4360,64.0,0.301438843001,146585
4370,64.0,0.302088875001,146916
4380,64.0,0.302736342001,147253
4390,64.0,0.303368841001,147593
4400,64.0,0.303999629,147932
4410,64.0,0.304638970001,148264
4420,64.0,0.305280449001,148606
4430,64.0,0.305925777001,148932
4440,64.0,0.306581369,149272
4450,64.0,0.307257061,149606
4460,64.0,0.307976801,149945
4470,64.0,0.308622129,150287
4480,65.0,0.309259759,150614
4490,65.0,0.309874296,150945
4500,65.0,0.310512782,151283
4510,65.0,0.311153406,151618
4520,65.0,0.311777352,151943
4530,65.0,0.312423963,152280
4540,65.0,0.313082976,152608
4550,64.0,0.313739851,152943
4560,64.0,0.314408272,153275
4570,64.0,0.315058304999,153602
4580,66.0,0.315736561999,153933
4590,64.0,0.316419950999,154272
4600,65.0,0.317082812999,154607
4610,64.0,0.317750806999,154941
4620,64.0,0.318395279999,155278
4630,64.0,0.319058996999,155616
4640,64.0,0.319743241999,155952
4650,64.0,0.320417222999,156290
4660,64.0,0.321070248999,156627
4670,64.0,0.321729689999,156963
4680,64.0,0.322384426999,157316
4690,64.0,0.323030610999,157640
4700,64.0,0.323700743,157976
4710,64.0,0.324393968,158311
4720,65.0,0.325044,158646
4730,64.0,0.325722257,158985
4740,64.0,0.326423607999,159313
4750,65.0,0.327082621,159647
4760,65.0,0.327769004,159979
4770,66.0,0.328411339,160311
4780,65.0,0.329073774,160648
4790,65.0,0.329716964,160985
4800,65.0,0.330361864001,161320
4810,66.0,0.331001633001,161651
4820,66.0,0.331723511001,161991
4830,66.0,0.332371405001,162316
4840,66.0,0.333020155001,162646
4850,66.0,0.333694136001,162987
4860,66.0,0.334342885001,163326
4870,66.0,0.334983937001,163661
4880,66.0,0.335652359001,163994
4890,67.0,0.336286995001,164328
4900,66.0,0.336964397,164668
4910,66.0,0.337623837001,165010
4920,66.0,0.338259329001,165342
4930,66.0,0.338913638001,165673
4940,66.0,0.339559821001,166006
4950,66.0,0.340179491001,166338
4960,66.0,0.340881697001,166667
4970,66.0,0.341541138001,167004
4980,66.0,0.342174492001,167339
4990,67.0,0.342831794001,167666
