it,funval,time,funcount
0,35.0,0.000282678000019,579
10,33.0,0.000576903000024,1063
20,31.0,0.000904913000028,1537
30,33.0,0.00119614400003,2021
40,32.0,0.00154254300003,2503
50,32.0,0.00183463000005,2987
60,34.0,0.00211944700004,3473
70,32.0,0.00240298100002,3949
80,32.0,0.002713884,4427
90,34.0,0.00302222100001,4904
100,33.0,0.00331217000002,5386
110,33.0,0.00360896100003,5867
120,34.0,0.00389677100003,6349
130,34.0,0.00420596400002,6838
140,35.0,0.00450061700002,7318
150,35.0,0.00479227600002,7798
160,35.0,0.00509334300003,8287
170,35.0,0.00540039700002,8769
180,35.0,0.00572498600002,9244
190,35.0,0.00603332400001,9725
200,35.0,0.00632156200001,10206
210,35.0,0.00660424,10698
220,35.0,0.00688991199999,11166
230,35.0,0.00719183499999,11645
240,35.0,0.00748263899999,12127
250,35.0,0.007764463,12622
260,35.0,0.008052701,13099
270,35.0,0.00838199399999,13586
280,35.0,0.008682634,14070
290,35.0,0.00897172699999,14536
300,35.0,0.009278354,15014
310,35.0,0.00969232200001,15487
320,35.0,0.010031878,15983
330,35.0,0.010319261,16464
340,35.0,0.010630164,16952
350,35.0,0.010934653,17444
360,35.0,0.011239997,17938
370,35.0,0.011539781,18430
380,35.0,0.011844697,18918
390,35.0,0.012158166,19392
400,35.0,0.012475485,19868
410,35.0,0.012827871,20348
420,35.0,0.013264077,20846
430,35.0,0.013562579,21330
440,35.0,0.013857232,21833
450,35.0,0.014148892,22324
460,35.0,0.0144845999999,22813
470,35.0,0.01478524,23292
480,35.0,0.015097854,23771
490,35.0,0.015418166,24253
500,35.0,0.015711536,24749
510,33.0,0.016017308,25236
520,33.0,0.0163076839999,25727
530,35.0,0.0166100339999,26220
540,35.0,0.0169872239999,26695
550,35.0,0.0178211469999,27178
560,35.0,0.0181264909999,27657
570,35.0,0.0184224269999,28142
580,35.0,0.0187149419999,28627
590,35.0,0.0190134439999,29108
600,35.0,0.0193076689999,29588
610,35.0,0.0195984729999,30062
620,35.0,0.0198969739999,30540
630,35.0,0.0202296879999,31021
640,35.0,0.0205217749999,31503
650,35.0,0.0208074479999,31983
660,35.0,0.0210973969999,32460
670,35.0,0.0213967539999,32935
680,35.0,0.0216811429999,33411
690,35.0,0.0219479979999,33887
700,35.0,0.0222550529999,34367
710,35.0,0.0225296059999,34860
720,35.0,0.0227917569999,35344
730,35.0,0.0230688759999,35823
740,35.0,0.0233528369999,36317
750,35.0,0.0236551869999,36799
760,35.0,0.0239802029999,37280
770,35.0,0.0242859749999,37757
780,35.0,0.0245866149999,38234
790,35.0,0.0248791299999,38710
800,35.0,0.0251883229999,39192
810,35.0,0.0254902459999,39673
820,35.0,0.0257669369999,40166
830,35.0,0.0260290879999,40641
840,35.0,0.0262933769999,41116
850,35.0,0.0265546729999,41589
860,35.0,0.0268283709999,42084
870,35.0,0.0271076289999,42558
880,35.0,0.0273714909999,43041
890,35.0,0.0276404849999,43527
900,35.0,0.0278936549999,44020
910,35.0,0.0281759059999,44493
920,35.0,0.0284803949999,44964
930,35.0,0.0287404079999,45447
940,35.0,0.0290034149999,45937
950,35.0,0.0292677039999,46413
960,35.0,0.0295525209999,46884
970,35.0,0.0298351999999,47354
980,35.0,0.0300926469999,47834
990,35.0,0.0303577919999,48321
1000,35.0,0.0306169489999,48817
1010,35.0,0.0308863699999,49296
1020,35.0,0.0311476659999,49771
1030,35.0,0.0314102449999,50274
1040,35.0,0.0316664089999,50763
1050,35.0,0.0319242829999,51250
1060,35.0,0.0321778809999,51737
1070,35.0,0.0324661189999,52217
1080,35.0,0.0327410999999,52710
1090,35.0,0.0330041069999,53195
1100,35.0,0.0332636919999,53686
1110,35.0,0.0335284089999,54159
1120,35.0,0.0338149359999,54631
1130,35.0,0.034073666,55120
1140,35.0,0.034347791,55600
1150,35.0,0.034615074,56081
1160,35.0,0.034885351,56566
1170,35.0,0.035151351,57058
1180,35.0,0.035428898,57538
1190,35.0,0.035697464,58037
1200,35.0,0.035954484,58540
1210,35.0,0.036234597,59026
1220,35.0,0.036644288,59511
1230,35.0,0.036923117,60004
1240,35.0,0.037335802,60485
1250,35.0,0.037647989,60972
1260,35.0,0.037924253,61439
1270,35.0,0.038215485,61921
1280,35.0,0.038513986,62385
1290,35.0,0.038794098,62874
1300,35.0,0.03908148,63346
1310,35.0,0.039693023,63820
1320,35.0,0.0399650109999,64297
1330,35.0,0.0402630849999,64779
1340,35.0,0.0405521779999,65264
1350,35.0,0.0408900239999,65750
1360,35.0,0.0411987899999,66230
1370,35.0,0.0414686389999,66721
1380,35.0,0.0417543109999,67196
1390,35.0,0.0420297189999,67675
1400,35.0,0.0423021339999,68150
1410,35.0,0.0426639289999,68633
1420,35.0,0.0429697009999,69116
1430,35.0,0.0432566569999,69604
1440,35.0,0.0435397629999,70083
1450,35.0,0.0438271459999,70570
1460,35.0,0.0441252199999,71049
1470,35.0,0.0444232939999,71538
1480,35.0,0.0447098219999,72036
1490,35.0,0.0450297059999,72518
1500,35.0,0.0453671239999,73005
1510,35.0,0.0456301299999,73488
1520,35.0,0.0459063939999,73974
1530,35.0,0.0461895009999,74458
1540,35.0,0.0465106679999,74945
1550,35.0,0.046788643,75423
1560,35.0,0.047059775,75902
1570,35.0,0.0473279139999,76395
1580,35.0,0.0476093099999,76873
1590,35.0,0.0478817249999,77351
1600,35.0,0.048144731,77823
1610,35.0,0.048409876,78313
1620,35.0,0.048670744,78793
1630,35.0,0.048940166,79278
1640,35.0,0.0492036,79758
1650,35.0,0.0494696,80235
1660,35.0,0.04975014,80724
1670,35.0,0.0500251209999,81198
1680,35.0,0.0503065159999,81670
1690,35.0,0.0506208409999,82157
1700,35.0,0.0508923999999,82632
1710,35.0,0.0511648149999,83122
1720,35.0,0.0514179849999,83611
1730,35.0,0.0516750039999,84091
1740,35.0,0.051948274,84583
1750,35.0,0.052212136,85077
1760,35.0,0.0524683,85565
1770,35.0,0.052733444,86051
1780,35.0,0.053002438,86540
1790,35.0,0.053271004,87015
1800,35.0,0.053550689,87501
1810,35.0,0.053836361,87977
1820,35.0,0.05410621,88464
1830,35.0,0.054377342,88949
1840,35.0,0.054641631,89432
1850,35.0,0.054908059,89906
1860,35.0,0.055197152,90398
1870,35.0,0.05549266,90882
1880,35.0,0.055775338,91358
1890,35.0,0.056046898,91839
1900,35.0,0.056310333,92318
1910,35.0,0.056596005,92796
1920,35.0,0.05686115,93280
1930,35.0,0.057158369,93766
1940,35.0,0.05744233,94248
1950,35.0,0.0577275750001,94728
1960,35.0,0.058065848,95213
1970,35.0,0.058334414,95700
1980,35.0,0.058614099,96189
1990,35.0,0.058885231,96669
2000,35.0,0.059157646,97150
2010,35.0,0.059439042,97631
2020,35.0,0.05970547,98118
2030,35.0,0.059988149,98601
2040,35.0,0.060255005,99088
2050,35.0,0.060536828,99579
2060,35.0,0.060808815,100067
2070,35.0,0.061072249,100544
2080,35.0,0.061336966,101028
2090,35.0,0.061590564,101514
2100,35.0,0.061861268,101996
2110,35.0,0.062122992,102478
2120,35.0,0.062410375,102958
2130,35.0,0.062678941,103444
2140,35.0,0.06294323,103923
2150,35.0,0.063213079,104410
2160,35.0,0.063480362,104897
2170,35.0,0.070716249,105380
2180,35.0,0.070996789,105860
2190,35.0,0.071281178,106333
2200,35.0,0.071601063,106816
2210,35.0,0.07188759,107309
2220,35.0,0.072455513,107799
2230,35.0,0.072732632,108276
2240,35.0,0.07300077,108759
2250,35.0,0.073260356,109236
2260,35.0,0.073520369,109729
2270,35.0,0.073774822,110223
2280,35.0,0.074173394,110705
2290,35.0,0.074460349,111181
2300,35.0,0.074731908,111675
2310,35.0,0.07499577,112157
2320,35.0,0.075265619,112638
2330,35.0,0.07552221,113128
2340,35.0,0.075811303,113613
2350,35.0,0.076099541,114093
2360,35.0,0.076377088,114575
2370,35.0,0.076637101,115060
2380,35.0,0.07691593,115528
2390,35.0,0.077208872,116011
2400,35.0,0.077466319,116500
2410,35.0,0.077725477,116973
2420,35.0,0.078009438,117460
2430,35.0,0.078283563,117943
2440,35.0,0.078598316,118436
2450,35.0,0.0788848429999,118923
2460,35.0,0.0791602509999,119400
2470,35.0,0.0794211189999,119883
2480,35.0,0.0797114959999,120360
2490,35.0,0.0799984519999,120823
2500,35.0,0.0802798469999,121308
2510,35.0,0.0806181209999,121798
2520,35.0,0.0809016549999,122290
2530,35.0,0.0811796289999,122769
2540,35.0,0.0818997969999,123250
2550,35.0,0.0821803369999,123728
2560,35.0,0.0824416329999,124206
2570,35.0,0.082710627,124682
2580,35.0,0.0829753439999,125172
2590,35.0,0.0832464759999,125655
2600,35.0,0.0835184629999,126149
2610,35.0,0.0838272279999,126628
2620,35.0,0.0841009259999,127111
2630,35.0,0.0843806109999,127588
2640,35.0,0.084650032,128070
2650,35.0,0.084923302,128546
2660,35.0,0.085202987,129026
2670,35.0,0.085472836,129505
2680,35.0,0.085737126,129983
2690,35.0,0.086023654,130459
2700,35.0,0.086321728,130945
2710,35.0,0.08658559,131419
2720,35.0,0.086860999,131896
2730,35.0,0.087124861,132371
2740,35.0,0.087410961,132859
2750,35.0,0.087706042,133346
2760,35.0,0.087976319,133817
2770,35.0,0.088247451,134296
2780,35.0,0.088516872,134770
2790,35.0,0.0887833,135251
2800,35.0,0.0890625579999,135731
2810,35.0,0.0893285579999,136214
2820,35.0,0.089591137,136699
2830,35.0,0.089872533,137191
2840,35.0,0.09017745,137680
2850,35.0,0.090486643,138165
2860,35.0,0.090800968,138648
2870,35.0,0.091080225,139122
2880,35.0,0.091352212,139601
2890,35.0,0.091614791,140084
2900,35.0,0.091885495,140575
2910,35.0,0.092158765,141044
2920,35.0,0.092420917,141530
2930,35.0,0.092689055,142017
2940,35.0,0.092952489,142489
2950,35.0,0.093237733,142964
2960,35.0,0.093509292,143430
2970,35.0,0.093778713,143900
2980,35.0,0.094064385,144381
2990,35.0,0.094357327,144878
3000,35.0,0.094638295,145361
3010,35.0,0.094922257,145848
3020,35.0,0.095197666,146337
3030,35.0,0.095508142,146818
3040,35.0,0.095779701,147302
3050,35.0,0.09631384,147798
3060,35.0,0.096826168,148271
3070,35.0,0.097105425,148761
3080,35.0,0.097670354,149238
3090,35.0,0.097947901,149736
3100,35.0,0.098241698,150220
3110,35.0,0.098519245,150689
3120,35.0,0.09882801,151170
3130,35.0,0.099109406,151647
3140,35.0,0.099383959,152130
3150,35.0,0.0996559469999,152608
3160,35.0,0.0999506,153094
3170,35.0,0.100227292,153573
3180,35.0,0.100501417,154044
3190,35.0,0.100783668,154531
3200,35.0,0.101070624,155021
3210,35.0,0.101363993,155504
3220,35.0,0.101644534,155996
3230,35.0,0.101925074,156471
3240,35.0,0.102199199,156958
3250,35.0,0.102484443,157451
3260,35.0,0.102768833,157945
3270,35.0,0.103047662,158418
3280,35.0,0.103335472,158907
3290,35.0,0.103607887,159394
3300,35.0,0.10391537,159880
3310,35.0,0.104185219,160369
3320,35.0,0.104539743,160859
3330,35.0,0.104815152,161354
3340,35.0,0.105167538,161836
3350,34.0,0.105434821,162316
3360,35.0,0.105720493,162794
3370,35.0,0.105996329,163267
3380,35.0,0.106281573,163752
3390,35.0,0.106556981,164234
3400,35.0,0.106827685,164710
3410,35.0,0.107098817,165200
3420,35.0,0.107368666,165675
3430,35.0,0.107638942,166159
3440,35.0,0.107906225,166644
3450,35.0,0.108184627,167123
3460,35.0,0.108457897,167593
3470,35.0,0.108728601,168070
3480,35.0,0.10900572,168545
3490,35.0,0.109264022,169031
3500,35.0,0.10953601,169513
3510,35.0,0.109808853,169996
3520,35.0,0.11008084,170463
3530,35.0,0.11035967,170940
3540,35.0,0.110632941,171421
3550,35.0,0.110922035,171898
3560,35.0,0.111194449,172384
3570,35.0,0.111477982,172854
3580,35.0,0.111754673,173348
3590,35.0,0.11203393,173829
3600,35.0,0.112304634,174314
3610,35.0,0.112580043,174802
3620,35.0,0.112845188,175279
3630,35.0,0.113126584,175762
3640,35.0,0.113398143,176240
3650,35.0,0.11367013,176716
3660,35.0,0.113928005,177202
3670,35.0,0.114203841,177679
3680,35.0,0.114475401,178161
3690,35.0,0.114741828,178630
3700,35.0,0.115013388,179108
3710,35.0,0.115277677,179589
3720,35.0,0.115546671,180075
3730,35.0,0.115861852,180539
3740,35.0,0.116189007,181022
3750,35.0,0.116462278,181499
3760,35.0,0.116734265,181992
3770,35.0,0.116996844,182466
3780,35.0,0.117316301,182962
3790,35.0,0.117587005,183459
3800,35.0,0.117865835,183945
3810,35.0,0.11813825,184429
3820,35.0,0.118411093,184926
3830,35.0,0.118689067,185400
3840,35.0,0.118964903,185893
3850,35.0,0.119228765,186372
3860,35.0,0.119493054,186858
3870,35.0,0.119776588,187336
3880,35.0,0.120076373,187818
3890,35.0,0.120367604,188303
3900,35.0,0.120652848,188790
3910,35.0,0.120924408,189274
3920,35.0,0.121187842,189755
3930,35.0,0.121486344,190240
3940,35.0,0.121759614,190723
3950,35.0,0.122055977,191197
3960,35.0,0.122328819,191665
3970,35.0,0.122598668,192155
3980,35.0,0.122891183,192630
3990,35.0,0.123228601,193114
4000,35.0,0.123497595,193601
4010,35.0,0.123763168,194082
4020,35.0,0.124034727,194559
4030,35.0,0.124311846,195040
4040,35.0,0.124583406,195522
4050,35.0,0.124864374,196010
4060,35.0,0.125135934,196490
4070,35.0,0.125395519,196973
4080,35.0,0.125669644,197449
4090,35.0,0.125933505,197930
4100,35.0,0.126203782,198401
4110,35.0,0.126465505,198892
4120,35.0,0.126736637,199382
4130,35.0,0.127020171,199863
4140,35.0,0.127316962,200340
4150,35.0,0.127589804,200834
4160,35.0,0.127852383,201325
4170,35.0,0.128145753,201813
4180,35.0,0.128439123,202291
4190,35.0,0.128709399,202773
4200,35.0,0.128975827,203258
4210,35.0,0.129252091,203745
4220,35.0,0.129526217,204220
4230,35.0,0.129802053,204705
4240,35.0,0.130073185,205180
4250,35.0,0.130337475,205657
4260,35.0,0.130605186,206150
4270,35.0,0.130887009,206637
4280,35.0,0.131152582,207118
4290,35.0,0.131413023,207593
4300,35.0,0.131688431,208081
4310,35.0,0.13196384,208554
4320,35.0,0.132452647,209041
4330,35.0,0.132734042,209535
4340,35.0,0.133014583,210021
4350,35.0,0.133302821,210499
4360,35.0,0.133580795,210981
4370,35.0,0.133872027,211461
4380,35.0,0.134147008,211950
4390,35.0,0.134421989,212440
4400,35.0,0.134703385,212942
4410,35.0,0.134970668,213437
4420,35.0,0.135239662,213918
4430,35.0,0.135516353,214396
4440,35.0,0.135777649,214874
4450,35.0,0.136056051,215345
4460,35.0,0.136334453,215831
4470,35.0,0.136604302,216323
4480,35.0,0.136878856,216806
4490,35.0,0.137145284,217281
4500,35.0,0.137415133,217756
4510,35.0,0.137694818,218232
4520,35.0,0.137961673,218707
4530,35.0,0.138236227,219202
4540,35.0,0.13850522,219689
4550,35.0,0.138774642,220183
4560,35.0,0.139040215,220660
4570,35.0,0.139314768,221147
4580,35.0,0.139588894,221633
4590,35.0,0.139883119,222104
4600,35.0,0.140154678,222590
4610,35.0,0.140475845,223079
4620,35.0,0.140796157,223580
4630,35.0,0.141064295,224074
4640,35.0,0.14133671,224563
4650,35.0,0.141603993,225031
4660,35.0,0.141866144,225519
4670,35.0,0.14212915,226003
4680,35.0,0.142397716,226484
4690,35.0,0.142694934,226962
4700,35.0,0.143036201,227433
4710,35.0,0.14330776,227912
4720,35.0,0.14358274,228390
4730,35.0,0.143844891,228867
4740,35.0,0.144110464,229356
4750,35.0,0.144380313,229855
4760,35.0,0.144651017,230344
4770,35.0,0.144941393,230823
4780,35.0,0.145216801,231314
4790,35.0,0.145488788,231812
4800,35.0,0.145762486,232301
4810,35.0,0.146032763,232766
4820,35.0,0.146303468,233245
4830,35.0,0.146782867,233720
4840,35.0,0.147054855,234203
4850,35.0,0.147320428,234678
4860,35.0,0.147599257,235167
4870,35.0,0.147874238,235627
4880,35.0,0.148159055,236112
4890,35.0,0.148429332,236595
4900,35.0,0.148761618,237080
4910,35.0,0.149040448,237565
4920,35.0,0.149307304,238052
4930,35.0,0.149615214,238533
4940,35.0,0.149915854,239022
4950,35.0,0.150351633,239510
4960,35.0,0.150625758,239993
4970,35.0,0.150917845,240470
4980,35.0,0.151208649,240940
4990,35.0,0.151480209,241417
