it,funval,time,funcount
0,10.0,0.00155879400018,645
10,18.0,0.00317617700011,1198
20,20.0,0.00523703599993,1744
30,19.0,0.00724999800013,2294
40,19.0,0.00936816300054,2854
50,19.0,0.0113131280004,3400
60,19.0,0.0129467620004,3946
70,19.0,0.0145936530007,4495
80,19.0,0.0165232230006,5042
90,19.0,0.0183334770004,5593
100,19.0,0.0204700300005,6143
110,19.0,0.0224051590003,6705
120,19.0,0.0240755720006,7253
130,20.0,0.0258819780006,7800
140,19.0,0.0274997890006,8342
150,19.0,0.0290791110006,8883
160,19.0,0.0310031210006,9437
170,19.0,0.0329070320008,9985
180,20.0,0.0345864250007,10537
190,20.0,0.0361995320009,11091
200,20.0,0.0386743590011,11644
210,20.0,0.0402814780009,12195
220,20.0,0.041901427001,12741
230,20.0,0.043614604001,13284
240,20.0,0.045256363001,13833
250,20.0,0.0468639110009,14383
260,20.0,0.048814009001,14936
270,20.0,0.050408727001,15487
280,20.0,0.051995746001,16036
290,20.0,0.0536229650011,16586
300,20.0,0.0555645090012,17134
310,20.0,0.057148535001,17683
320,21.0,0.0588082550012,18234
330,21.0,0.0607985510014,18785
340,21.0,0.0624856420013,19334
350,21.0,0.0641321050011,19889
360,21.0,0.066045851001,20433
370,21.0,0.0676208970008,20982
380,21.0,0.0692100550004,21527
390,21.0,0.0707966470004,22069
400,21.0,0.0723840950004,22612
410,21.0,0.0739681220002,23163
420,21.0,0.0755418850003,23711
430,27.0,0.0774333940003,24262
440,27.0,0.079023835,24809
450,27.0,0.0806202640001,25366
460,27.0,0.0822376470005,25911
470,27.0,0.0838494710006,26458
480,27.0,0.0857756200003,27003
490,27.0,0.0875516630003,27546
500,27.0,0.0891408210005,28082
510,27.0,0.0907393870002,28628
520,27.0,0.0923041690003,29176
530,27.0,0.0938907610002,29720
540,27.0,0.0954683730006,30265
550,27.0,0.0970408520006,30816
560,29.0,0.0986210290007,31365
570,29.0,0.100198640001,31913
580,32.0,0.101775824,32459
590,32.0,0.103356857,33014
600,32.0,0.104970819,33564
610,32.0,0.106631823,34112
620,32.0,0.10851649,34658
630,32.0,0.110130879,35206
640,32.0,0.11172688,35756
650,32.0,0.113336565,36306
660,34.0,0.114930855,36846
670,34.0,0.116558502,37389
680,34.0,0.118160918,37938
690,34.0,0.119749221,38482
700,34.0,0.123599808,39037
710,34.0,0.125210349,39586
720,34.0,0.126836285,40137
730,34.0,0.128458372999,40686
740,34.0,0.130117666999,41235
750,34.0,0.131760281999,41783
760,34.0,0.133346445999,42330
770,34.0,0.134974520999,42882
780,34.0,0.136644933999,43431
790,34.0,0.138344427,43974
800,34.0,0.140055893999,44524
810,34.0,0.141775058,45063
820,34.0,0.143532712,45617
830,35.0,0.145189011,46167
840,35.0,0.146948803,46705
850,35.0,0.148602965,47254
860,34.0,0.150235744,47802
870,34.0,0.151842436,48345
880,34.0,0.153423469,48888
890,35.0,0.155048122,49445
900,35.0,0.156624878,49987
910,35.0,0.158201634,50537
920,35.0,0.159786516001,51090
930,35.0,0.161372253001,51636
940,35.0,0.163051646001,52188
950,35.0,0.164773804001,52738
960,35.0,0.166484844001,53286
970,35.0,0.168089825001,53841
980,35.0,0.169670003001,54390
990,38.0,0.171259161001,54935
1000,36.0,0.172844470001,55483
1010,35.0,0.174423364001,56026
1020,35.0,0.176048017001,56574
1030,35.0,0.177624346001,57123
1040,35.0,0.179287489001,57664
1050,35.0,0.180925828,58209
1060,35.0,0.182540645,58761
1070,35.0,0.184159311,59311
1080,35.0,0.185782681,59864
1090,36.0,0.187362858,60419
1100,36.0,0.188951161,60966
1110,36.0,0.190570255,61523
1120,36.0,0.192179513,62070
1130,36.0,0.193812719,62618
1140,36.0,0.195498954,63168
1150,36.0,0.197105218,63722
1160,36.0,0.200036779,64271
1170,36.0,0.201628503,64826
1180,36.0,0.203291645,65374
1190,36.0,0.204904752,65929
1200,36.0,0.206537103,66483
1210,36.0,0.208166461,67027
1220,36.0,0.209794108,67568
1230,36.0,0.211378133999,68121
1240,36.0,0.212951042,68668
1250,36.0,0.214794652999,69225
1260,38.0,0.216397923999,69780
1270,38.0,0.218196631999,70333
1280,38.0,0.219834115,70874
1290,38.0,0.221453637,71427
1300,38.0,0.223355837,71979
1310,38.0,0.224969799,72523
1320,38.0,0.226586755,73074
1330,38.0,0.228180616999,73627
1340,38.0,0.229842475999,74181
1350,38.0,0.231457292999,74723
1360,38.0,0.233058424999,75271
1370,39.0,0.234631331999,75820
1380,38.0,0.236248286999,76374
1390,38.0,0.237861821,76918
1400,38.0,0.239483053,77469
1410,38.0,0.241098726,78015
1420,38.0,0.242797363,78562
1430,38.0,0.244397212,79114
1440,38.0,0.245999199999,79657
1450,38.0,0.247605892,80203
1460,38.0,0.249234393999,80761
1470,38.0,0.250831676999,81309
1480,39.0,0.252462317,81852
1490,38.0,0.254045915,82404
1500,38.0,0.255644481999,82951
1510,38.0,0.257216105999,83492
1520,38.0,0.258852305999,84037
1530,38.0,0.260464557,84591
1540,38.0,0.262179873,85139
1550,38.0,0.263788703,85683
1560,38.0,0.265420198999,86236
1570,38.0,0.267029455999,86793
1580,38.0,0.268624600999,87333
1590,38.0,0.270224450999,87881
1600,38.0,0.271831997999,88436
1610,38.0,0.273490008999,88982
1620,38.0,0.275437112999,89531
1630,38.0,0.277077589999,90081
1640,38.0,0.278927188999,90627
1650,38.0,0.280512497999,91170
1660,38.0,0.282102083999,91714
1670,38.0,0.283672852999,92267
1680,38.0,0.285262866999,92818
1690,38.0,0.286881960999,93374
1700,38.0,0.288603691999,93929
1710,38.0,0.290280946999,94476
1720,38.0,0.291929120999,95017
1730,38.0,0.293553345999,95565
1740,38.0,0.295203230999,96119
1750,38.0,0.296798803999,96667
1760,38.0,0.298426022999,97213
1770,38.0,0.300051959999,97757
1780,38.0,0.301697139999,98310
1790,38.0,0.303379098999,98871
1800,38.0,0.304982369999,99427
1810,38.0,0.306613437999,99986
1820,38.0,0.308206445,100527
1830,38.0,0.309799451999,101071
1840,38.0,0.311380913,101630
1850,39.0,0.312959379999,102181
1860,39.0,0.314624659999,102727
1870,39.0,0.316306191,103270
1880,39.0,0.317970187999,103825
1890,38.0,0.319617506999,104378
1900,38.0,0.321284070999,104925
1910,38.0,0.322939515999,105479
1920,38.0,0.324564596999,106027
1930,38.0,0.326143918999,106578
1940,38.0,0.327789954999,107124
1950,38.0,0.329413325999,107672
1960,38.0,0.331117522999,108226
1970,38.0,0.332831983999,108777
1980,38.0,0.334540884999,109320
1990,38.0,0.336163826999,109869
2000,38.0,0.340345845,110415
2010,38.0,0.341914476,110966
2020,38.0,0.343518601999,111521
2030,38.0,0.345119733999,112064
2040,38.0,0.346869689999,112614
2050,38.0,0.348552931999,113157
2060,38.0,0.350197684998,113704
2070,38.0,0.351791547998,114253
2080,38.0,0.353393963998,114806
2090,38.0,0.354998517998,115357
2100,38.0,0.356593235998,115906
2110,38.0,0.358321380998,116461
2120,38.0,0.360027716998,117015
2130,38.0,0.361660922998,117564
2140,38.0,0.363337321997,118121
2150,38.0,0.365004312997,118671
2160,38.0,0.366624689997,119218
2170,38.0,0.368450766997,119766
2180,38.0,0.370151969997,120314
2190,39.0,0.371744548997,120864
2200,38.0,0.373671979997,121415
2210,38.0,0.375309034997,121964
2220,38.0,0.377376736997,122511
2230,38.0,0.379276370997,123063
2240,38.0,0.381320551996,123620
2250,38.0,0.383272786996,124171
2260,38.0,0.385041986996,124720
2270,38.0,0.386800494996,125273
2280,38.0,0.388588083996,125821
2290,38.0,0.390289286996,126369
2300,38.0,0.392263759996,126912
2310,38.0,0.393927757996,127454
2320,38.0,0.395583202996,127999
2330,38.0,0.397183907996,128547
2340,38.0,0.398794875996,129104
2350,38.0,0.400396435997,129650
2360,38.0,0.401997567997,130205
2370,38.0,0.403675677997,130749
2380,38.0,0.405321713997,131294
2390,38.0,0.406948505997,131845
2400,38.0,0.408585560997,132384
2410,38.0,0.410268374997,132941
2420,38.0,0.411946056997,133496
2430,38.0,0.413768285997,134048
2440,38.0,0.415396787997,134589
2450,38.0,0.417152302997,135148
2460,38.0,0.418849229997,135695
2470,38.0,0.420446512997,136250
2480,39.0,0.422187487997,136798
2490,38.0,0.423837800997,137343
2500,38.0,0.425614697997,137892
2510,38.0,0.427367646997,138440
2520,38.0,0.429503773997,138984
2530,38.0,0.432426780998,139542
2540,38.0,0.434488922997,140087
2550,38.0,0.436371450997,140638
2560,38.0,0.438351910997,141186
2570,38.0,0.440003078998,141733
2580,38.0,0.441620889997,142279
2590,38.0,0.443238700997,142833
2600,38.0,0.444840688997,143397
2610,38.0,0.446470901998,143943
2620,38.0,0.448108811997,144495
2630,38.0,0.449688133997,145045
2640,39.0,0.451314070997,145586
2650,39.0,0.452924611997,146134
2660,39.0,0.454654467997,146674
2670,38.0,0.456364223998,147221
2680,38.0,0.458159082998,147775
2690,38.0,0.459865417998,148319
2700,38.0,0.461722286998,148867
2710,38.0,0.463367466998,149419
2720,38.0,0.464991692998,149968
2730,38.0,0.466591969998,150514
2740,41.0,0.468230735998,151060
2750,41.0,0.469938781998,151607
2760,41.0,0.471637419998,152165
2770,41.0,0.473351024998,152718
2780,41.0,0.475171115998,153273
2790,41.0,0.476977521998,153813
2800,41.0,0.478857483999,154353
2810,41.0,0.480752413998,154905
2820,41.0,0.482687542998,155462
2830,42.0,0.484524311998,156011
2840,41.0,0.486147253998,156555
2850,41.0,0.487896781998,157103
2860,41.0,0.489934119998,157656
2870,41.0,0.491919284998,158210
2880,41.0,0.493939516998,158762
2890,41.0,0.495847703998,159306
2900,41.0,0.497776418998,159843
2910,41.0,0.499431862998,160391
2920,41.0,0.501458082998,160947
2930,41.0,0.503415021998,161496
2940,41.0,0.505388639998,162046
2950,41.0,0.507414859998,162600
2960,41.0,0.509302518998,163148
2970,41.0,0.510986615998,163701
2980,42.0,0.512695089998,164243
2990,41.0,0.514643475998,164797
3000,41.0,0.516354941998,165351
3010,41.0,0.518083086998,165903
3020,41.0,0.520024202998,166451
3030,41.0,0.521805376998,166998
3040,41.0,0.523796956998,167553
3050,41.0,0.525428879998,168111
3060,41.0,0.527076198998,168662
3070,41.0,0.529088733998,169221
3080,42.0,0.531073471998,169768
3090,42.0,0.533021430998,170326
3100,42.0,0.534921491998,170872
3110,42.0,0.536828823998,171419
3120,42.0,0.538854187998,171964
3130,42.0,0.540873137998,172514
3140,42.0,0.542845045998,173063
3150,42.0,0.544859718998,173607
3160,42.0,0.546554506998,174149
3170,44.0,0.548349365998,174695
3180,42.0,0.550012935998,175240
3190,42.0,0.551784701998,175792
3200,42.0,0.553544492998,176338
3210,42.0,0.555567718998,176889
3220,42.0,0.557185957998,177443
3230,42.0,0.558959006998,177995
3240,42.0,0.560800479998,178537
3250,42.0,0.562665901998,179094
3260,42.0,0.566888973998,179639
3270,42.0,0.568770218998,180185
3280,42.0,0.570466290998,180733
3290,42.0,0.572228648998,181282
3300,44.0,0.574134697998,181833
3310,42.0,0.576202399998,182391
3320,42.0,0.577852284998,182939
3330,42.0,0.579962751998,183480
3340,42.0,0.581775999998,184036
3350,42.0,0.583478485998,184577
3360,42.0,0.585382396997,185126
3370,44.0,0.587405622998,185682
3380,47.0,0.589211172998,186224
3390,44.0,0.590961983998,186779
3400,44.0,0.592654206998,187331
3410,44.0,0.594594040998,187879
3420,44.0,0.596360247998,188427
3430,47.0,0.598018257998,188975
3440,47.0,0.599726303998,189529
3450,47.0,0.601425796998,190071
3460,47.0,0.603152659998,190611
3470,47.0,0.604832908998,191169
3480,47.0,0.606454568998,191714
3490,47.0,0.608105308998,192264
3500,47.0,0.610046424998,192814
3510,47.0,0.611723251998,193369
3520,47.0,0.613369287998,193913
3530,47.0,0.615049536998,194479
3540,47.0,0.616659649998,195039
3550,47.0,0.618241965998,195601
3560,47.0,0.619842242998,196155
3570,47.0,0.621485712998,196700
3580,51.0,0.623082995998,197255
3590,51.0,0.624669160998,197803
3600,51.0,0.626277990998,198358
3610,51.0,0.627898366998,198902
3620,51.0,0.629594437998,199449
3630,51.0,0.631250737998,199997
3640,51.0,0.632912169998,200543
3650,51.0,0.634534256998,201094
3660,51.0,0.636191839998,201641
3670,51.0,0.638067525997,202193
3680,51.0,0.639835015998,202745
3690,51.0,0.641472926997,203300
3700,52.0,0.643095014997,203847
3710,52.0,0.644724799997,204395
3720,52.0,0.646349025997,204945
3730,52.0,0.648048518997,205487
3740,53.0,0.649673599997,206033
3750,52.0,0.651306806997,206581
3760,52.0,0.652922051997,207129
3770,53.0,0.654542428998,207679
3780,52.0,0.656169219998,208227
3790,52.0,0.657844763998,208777
3800,52.0,0.659484812998,209327
3810,52.0,0.661116736998,209879
3820,52.0,0.662825210998,210426
3830,52.0,0.664439172998,210974
3840,52.0,0.666062115998,211524
3850,52.0,0.667699171998,212074
3860,52.0,0.669313561998,212617
3870,52.0,0.670987394998,213172
3880,52.0,0.672658662997,213712
3890,52.0,0.674323942997,214262
3900,53.0,0.675978104997,214810
3910,52.0,0.677586935997,215351
3920,52.0,0.679266756997,215906
3930,52.0,0.681019278997,216451
3940,52.0,0.682707652997,216994
3950,52.0,0.684414843997,217536
3960,53.0,0.686119468997,218092
3970,52.0,0.687850180997,218647
3980,52.0,0.689622802997,219199
3990,52.0,0.691323577997,219749
4000,52.0,0.693021787997,220299
4010,52.0,0.694772170997,220848
4020,52.0,0.696478077997,221399
4030,52.0,0.698110856998,221946
4040,52.0,0.699775709998,222499
4050,52.0,0.701716825998,223043
4060,52.0,0.703388092998,223584
4070,52.0,0.705041398997,224132
4080,52.0,0.706644241997,224683
4090,52.0,0.708301396997,225236
4100,52.0,0.710079149997,225785
4110,52.0,0.711712783997,226335
4120,52.0,0.713366944998,226885
4130,52.0,0.715047620998,227431
4140,52.0,0.716712473998,227975
4150,52.0,0.718498779997,228530
4160,52.0,0.720163631997,229076
4170,52.0,0.721769896997,229621
4180,53.0,0.723486922997,230161
4190,53.0,0.725274083997,230701
4200,53.0,0.726913276997,231247
4210,53.0,0.728528521998,231790
4220,52.0,0.730234001998,232345
4230,52.0,0.731951883998,232895
4240,52.0,0.733622295998,233438
4250,52.0,0.735219578998,233987
4260,52.0,0.736840810998,234537
4270,52.0,0.738450068998,235082
4280,52.0,0.740157686998,235630
4290,52.0,0.742273712999,236180
4300,52.0,0.743916327999,236720
4310,52.0,0.745559369998,237276
4320,52.0,0.747174186998,237829
4330,52.0,0.748764199998,238374
4340,52.0,0.750455993998,238929
4350,52.0,0.752114430998,239480
4360,52.0,0.753760038998,240030
4370,53.0,0.755385119998,240575
4380,53.0,0.757040135998,241127
4390,52.0,0.758637846998,241670
4400,52.0,0.760232136998,242214
4410,52.0,0.762028706998,242765
4420,52.0,0.763674315998,243312
4430,52.0,0.765269460998,243860
4440,52.0,0.766873586998,244405
4450,52.0,0.768553406998,244960
4460,52.0,0.770407281998,245508
4470,53.0,0.772021671998,246068
4480,53.0,0.776508177998,246618
4490,53.0,0.778193557998,247164
4500,52.0,0.779833178998,247717
4510,52.0,0.781563033998,248264
4520,52.0,0.783215057998,248814
4530,52.0,0.784922247998,249366
4540,53.0,0.786551605998,249915
4550,52.0,0.788155303998,250460
4560,52.0,0.789757291998,251008
4570,52.0,0.791384510998,251549
4580,52.0,0.793042093998,252103
4590,52.0,0.794727045998,252656
4600,52.0,0.796409859998,253201
4610,52.0,0.798140998998,253749
4620,52.0,0.800130439998,254302
4630,52.0,0.801768777998,254859
4640,52.0,0.803351948998,255407
4650,52.0,0.804981734998,255963
4660,52.0,0.806597834999,256518
4670,53.0,0.808206664999,257061
4680,52.0,0.809810362999,257616
4690,52.0,0.811464951998,258165
4700,52.0,0.813093881998,258708
4710,52.0,0.814685605998,259259
4720,52.0,0.816321805998,259804
4730,52.0,0.817942181998,260356
4740,52.0,0.819785793998,260907
4750,52.0,0.821381366998,261456
4760,52.0,0.823025691998,262001
4770,53.0,0.824649489998,262545
4780,52.0,0.826694525998,263096
4790,52.0,0.828269998998,263648
4800,52.0,0.829859156998,264188
4810,52.0,0.831482527998,264739
4820,53.0,0.833060566998,265283
4830,52.0,0.834751934998,265826
4840,52.0,0.836416786998,266371
4850,52.0,0.838074369998,266923
4860,52.0,0.839659251998,267466
4870,52.0,0.841275352997,268021
4880,52.0,0.842914118997,268569
4890,53.0,0.844689733997,269110
4900,53.0,0.846494428997,269663
4910,52.0,0.848114377996,270213
4920,52.0,0.849691988996,270767
4930,52.0,0.851303812996,271314
4940,52.0,0.852943861996,271868
4950,53.0,0.854633945996,272415
4960,52.0,0.856209418997,272964
4970,52.0,0.857824663996,273518
4980,52.0,0.859492509996,274070
4990,52.0,0.861124005996,274617
