it,funval,time,funcount
0,8.0,0.000646183999834,571
10,9.0,0.00131674299973,1029
20,12.0,0.0019928619995,1483
30,12.0,0.00266983699976,1938
40,12.0,0.0033395409996,2407
50,12.0,0.00400539599923,2864
60,12.0,0.00464730299927,3328
70,12.0,0.00527894599963,3789
80,12.0,0.0059289779997,4238
90,12.0,0.00655121299951,4694
100,13.0,0.0072251939996,5158
110,13.0,0.00789361499983,5592
120,13.0,0.00851969899986,6039
130,13.0,0.00915989499981,6503
140,13.0,0.00993223599971,6952
150,18.0,0.0105929589995,7393
160,18.0,0.0112280229996,7861
170,18.0,0.0118848969996,8333
180,18.0,0.0126499679996,8799
190,18.0,0.0133307909996,9253
200,21.0,0.0140180289995,9714
210,21.0,0.0146560879994,10171
220,24.0,0.0152954289993,10631
230,24.0,0.0160010569994,11098
240,25.0,0.0166173049993,11565
250,24.0,0.0172480929991,12013
260,24.0,0.017949015999,12468
270,24.0,0.0185725339988,12922
280,25.0,0.0192178619991,13383
290,25.0,0.0198507889995,13841
300,25.0,0.0205021039997,14299
310,24.0,0.0211517089997,14760
320,24.0,0.0217854909997,15211
330,24.0,0.0224192729997,15680
340,24.0,0.0230517709997,16137
350,24.0,0.023705652,16598
360,24.0,0.024613559,17056
370,24.0,0.0252653020002,17521
380,25.0,0.0259285920001,17986
390,25.0,0.0265687880001,18440
400,25.0,0.0272624409999,18894
410,25.0,0.02788938,19352
420,24.0,0.0285950069997,19807
430,24.0,0.0293369839997,20274
440,24.0,0.0300028389997,20719
450,25.0,0.0306503060001,21189
460,33.0,0.0313469530001,21653
470,33.0,0.0319820179998,22102
480,33.0,0.0327038959995,22563
490,34.0,0.0333513619994,23032
500,34.0,0.0339872819995,23481
510,34.0,0.0346582689999,23942
520,33.0,0.0354160689999,24400
530,33.0,0.0360844899997,24842
540,33.0,0.0368713709995,25280
550,33.0,0.0376377249995,25747
560,33.0,0.0384186189995,26200
570,33.0,0.0393641599994,26655
580,33.0,0.0400428449993,27113
590,33.0,0.0407146879993,27559
600,34.0,0.0413668589995,28020
610,33.0,0.0419869559992,28486
620,34.0,0.0426344219991,28935
630,34.0,0.0459260659991,29390
640,34.0,0.0466706099992,29848
650,36.0,0.0473565649991,30311
660,35.0,0.0480425199989,30762
670,35.0,0.048731896999,31210
680,35.0,0.0494152859992,31672
690,34.0,0.050037520999,32127
700,34.0,0.050725613999,32586
710,34.0,0.0514658809989,33039
720,36.0,0.0522087139989,33494
730,34.0,0.0529092099991,33948
740,36.0,0.0535896049992,34414
750,34.0,0.0542481909993,34869
760,36.0,0.0549418439991,35321
770,36.0,0.055690663999,35777
780,36.0,0.0563881659991,36248
790,36.0,0.0570514559995,36706
800,36.0,0.0577126079997,37170
810,36.0,0.058372904,37618
820,36.0,0.059031062,38062
830,36.0,0.0597063260002,38529
840,36.0,0.0603632000002,38991
850,36.0,0.0610602739998,39443
860,36.0,0.0617389589997,39906
870,36.0,0.0624740949997,40350
880,37.0,0.0631634719998,40807
890,37.0,0.0638357419998,41265
900,37.0,0.0645144269997,41722
910,37.0,0.0652264689998,42180
920,37.0,0.0658936079999,42633
930,37.0,0.0665645949998,43090
940,37.0,0.0672505509997,43553
950,37.0,0.0679236769997,44027
960,37.0,0.0686070659999,44470
970,37.0,0.0692853239998,44927
980,37.0,0.0700268739997,45382
990,37.0,0.0707778329997,45845
1000,37.0,0.0714761899999,46317
1010,37.0,0.0721283609996,46780
1020,37.0,0.0728147439995,47223
1030,37.0,0.0735212259997,47682
1040,37.0,0.0741926419996,48136
1050,37.0,0.0748687609994,48589
1060,37.0,0.0755393209993,49047
1070,37.0,0.0762509359993,49505
1080,37.0,0.0769497209994,49960
1090,37.0,0.0776416629992,50423
1100,37.0,0.078333177999,50883
1110,37.0,0.0790088689987,51331
1120,37.0,0.0797170619985,51784
1130,37.0,0.0803777849987,52257
1140,37.0,0.0810338039987,52718
1150,37.0,0.0816979489987,53173
1160,38.0,0.0823928849986,53635
1170,38.0,0.0830997949988,54092
1180,37.0,0.083775057999,54558
1190,37.0,0.0844986469988,55021
1200,37.0,0.085198714999,55483
1210,37.0,0.0858825309992,55938
1220,38.0,0.0865312799992,56401
1230,42.0,0.0872129579989,56851
1240,38.0,0.0878826619987,57300
1250,38.0,0.0887071759989,57759
1260,38.0,0.0893700379988,58206
1270,38.0,0.0900337549988,58661
1280,38.0,0.090803957999,59121
1290,38.0,0.0915292569989,59579
1300,38.0,0.0921891249991,60043
1310,38.0,0.0928383019991,60490
1320,38.0,0.0935674499992,60949
1330,38.0,0.0942298839996,61405
1340,38.0,0.0948931739999,61856
1350,42.0,0.0955915309996,62307
1360,38.0,0.0962505449997,62767
1370,38.0,0.0970151879997,63234
1380,42.0,0.0977058479998,63690
1390,38.0,0.0984465430001,64135
1400,44.0,0.0991059829998,64587
1410,45.0,0.0997778259998,65047
1420,44.0,0.100435128,65516
1430,44.0,0.101082166,65974
1440,44.0,0.101776247,66433
1450,44.0,0.102446807,66888
1460,44.0,0.103114373,67340
1470,45.0,0.103763977,67791
1480,45.0,0.104444373,68225
1490,45.0,0.105141875,68678
1500,54.0,0.105816284,69139
1510,54.0,0.106607014,69595
1520,45.0,0.107257474,70054
1530,45.0,0.107906223,70519
1540,45.0,0.108566519,70980
1550,48.0,0.109281555,71427
1560,45.0,0.109971787,71872
1570,45.0,0.110624385,72333
1580,45.0,0.111276128,72790
1590,45.0,0.111969354,73253
1600,45.0,0.112621097,73709
1610,48.0,0.113318171,74155
1620,48.0,0.113981889,74611
1630,48.0,0.114728142999,75051
1640,49.0,0.115426501,75510
1650,48.0,0.116092355999,75975
1660,48.0,0.116721433999,76419
1670,48.0,0.117365478999,76868
1680,48.0,0.119673521999,77325
1690,48.0,0.120332106999,77784
1700,48.0,0.120989837999,78232
1710,48.0,0.121694608999,78696
1720,48.0,0.122379280999,79153
1730,48.0,0.123065235999,79614
1740,48.0,0.123747769999,80065
1750,48.0,0.124597943999,80520
1760,48.0,0.125369429998,80982
1770,52.0,0.126066931999,81440
1780,50.0,0.126733214999,81892
1790,52.0,0.127426011999,82349
1800,54.0,0.128106834999,82806
1810,49.0,0.128804764999,83264
1820,54.0,0.129456935999,83724
1830,54.0,0.130165556999,84187
1840,54.0,0.130837826999,84643
1850,54.0,0.131519078999,85092
1860,54.0,0.134838948999,85540
1870,54.0,0.135694682999,86001
1880,54.0,0.136369518998,86466
1890,54.0,0.137029386999,86932
1900,54.0,0.137690110998,87381
1910,58.0,0.139065869998,87846
1920,54.0,0.139737711998,88305
1930,54.0,0.140422811998,88759
1940,58.0,0.141099358998,89217
1950,58.0,0.141779326998,89676
1960,58.0,0.142442616998,90128
1970,58.0,0.143111037998,90570
1980,62.0,0.143773043998,91053
1990,58.0,0.144492355998,91513
2000,58.0,0.145201831998,91971
2010,59.0,0.145907030997,92424
2020,58.0,0.146563050997,92892
2030,58.0,0.147220781997,93347
2040,58.0,0.147872524998,93815
2050,58.0,0.148564894997,94269
2060,58.0,0.149272232998,94726
2070,58.0,0.149906869998,95184
2080,62.0,0.150561178998,95628
2090,58.0,0.151262529998,96090
2100,62.0,0.151969867998,96541
2110,62.0,0.152663092997,97003
2120,62.0,0.153362732998,97464
2130,66.0,0.154091025998,97919
2140,62.0,0.154852674998,98373
2150,62.0,0.155540339998,98825
2160,66.0,0.156200635998,99279
2170,62.0,0.156881458998,99731
2180,62.0,0.157605474998,100194
2190,62.0,0.158315378998,100641
2200,62.0,0.159006893998,101095
2210,62.0,0.159704395998,101551
2220,67.0,0.160362553998,102012
2230,62.0,0.161040383998,102445
2240,62.0,0.161726766998,102906
2250,62.0,0.162377226998,103351
2260,62.0,0.163118349998,103814
2270,62.0,0.163812857998,104269
2280,67.0,0.164504799998,104712
2290,62.0,0.165209571998,105157
2300,64.0,0.165877137998,105628
2310,62.0,0.166555823998,106078
2320,62.0,0.167215691998,106530
2330,62.0,0.167884113997,106974
2340,62.0,0.168529013998,107435
2350,64.0,0.169190592997,107907
2360,62.0,0.169879968998,108361
2370,62.0,0.170622373998,108812
2380,62.0,0.171301486998,109265
2390,62.0,0.171970335998,109728
2400,62.0,0.172662277998,110183
2410,62.0,0.173359352998,110653
2420,63.0,0.174016227998,111104
2430,63.0,0.174683793999,111563
2440,63.0,0.175318857999,112026
2450,63.0,0.175999252999,112485
2460,63.0,0.176656554999,112948
2470,63.0,0.177428895999,113402
2480,63.0,0.178158470999,113851
2490,64.0,0.178839721999,114319
2500,64.0,0.179499590999,114781
2510,64.0,0.180143207999,115258
2520,64.0,0.180833439999,115704
2530,63.0,0.181533079999,116156
2540,66.0,0.182210481999,116606
2550,64.0,0.182873771999,117053
2560,64.0,0.183532356999,117502
2570,66.0,0.184208475999,117959
2580,64.0,0.185703977999,118404
2590,64.0,0.186369405999,118856
2600,63.0,0.187211881999,119329
2610,63.0,0.187841814999,119777
2620,63.0,0.188481583999,120217
2630,63.0,0.189122635999,120674
2640,63.0,0.189800037999,121120
2650,63.0,0.190486848999,121577
2660,63.0,0.191162112999,122036
2670,63.0,0.191788623998,122491
2680,63.0,0.192416845998,122958
2690,63.0,0.193147704998,123410
2700,63.0,0.193834514998,123861
2710,63.0,0.194463592998,124318
2720,63.0,0.195105499998,124770
2730,63.0,0.195762374998,125240
2740,63.0,0.196438066998,125690
2750,63.0,0.197076979998,126136
2760,63.0,0.197815963998,126582
2770,63.0,0.198483101998,127044
2780,64.0,0.199152805998,127500
2790,63.0,0.199890506998,127943
2800,64.0,0.200635905998,128410
2810,66.0,0.201324426998,128863
2820,66.0,0.202029198998,129313
2830,64.0,0.202736536998,129763
2840,64.0,0.203559340998,130231
2850,64.0,0.204628473998,130692
2860,64.0,0.205468811998,131156
2870,64.0,0.206107724998,131617
2880,65.0,0.206758612998,132072
2890,63.0,0.207429599998,132540
2900,63.0,0.208128384998,132984
2910,64.0,0.208857960998,133443
2920,64.0,0.209537500998,133908
2930,63.0,0.210214475998,134356
2940,64.0,0.210969710998,134818
2950,63.0,0.211680897998,135283
2960,63.0,0.212371984997,135741
2970,63.0,0.213074618997,136211
2980,64.0,0.213790509997,136671
2990,63.0,0.214565416997,137136
3000,63.0,0.215299696997,137587
3010,63.0,0.216013877997,138059
3020,66.0,0.216752006997,138515
3030,66.0,0.217456778998,138989
3040,66.0,0.222252905998,139443
3050,66.0,0.223310063998,139893
3060,70.0,0.223957957998,140353
3070,66.0,0.224638781998,140820
3080,66.0,0.225354672998,141290
3090,64.0,0.226146257998,141759
3100,66.0,0.226856161998,142219
3110,66.0,0.227561788998,142665
3120,66.0,0.228266560998,143112
3130,66.0,0.229013242998,143564
3140,66.0,0.229799696998,144024
3150,66.0,0.230690925998,144481
3160,66.0,0.231373886998,144931
3170,66.0,0.232107738998,145377
3180,66.0,0.232845012998,145825
3190,66.0,0.233539521998,146282
3200,66.0,0.234236168998,146748
3210,66.0,0.234917419998,147222
3220,66.0,0.235609790998,147692
3230,66.0,0.236311996998,148144
3240,66.0,0.237041999998,148610
3250,66.0,0.237948623998,149069
3260,70.0,0.238676916998,149515
3270,67.0,0.239391524998,149961
3280,66.0,0.240194656998,150419
3290,66.0,0.240885743998,150866
3300,66.0,0.241703843998,151335
3310,68.0,0.242388515998,151800
3320,66.0,0.243083878998,152245
3330,66.0,0.243780097998,152688
3340,66.0,0.244474605998,153137
3350,67.0,0.245215728998,153588
3360,67.0,0.245942738998,154038
3370,66.0,0.246622706998,154501
3380,67.0,0.247315076998,154968
3390,66.0,0.248274729998,155423
3400,66.0,0.248994469998,155890
3410,66.0,0.249699668998,156344
3420,66.0,0.250415986998,156787
3430,66.0,0.251118192998,157240
3440,67.0,0.251893099998,157703
3450,66.0,0.252623530998,158169
3460,66.0,0.253325736998,158627
3470,66.0,0.254048469998,159072
3480,66.0,0.254748964998,159526
3490,67.0,0.255667563998,160015
3500,66.0,0.256393290997,160471
3510,67.0,0.257071975997,160926
3520,67.0,0.258906606997,161398
3530,67.0,0.259628057997,161852
3540,67.0,0.260334967997,162314
3550,68.0,0.261061121997,162760
3560,67.0,0.261741517997,163220
3570,68.0,0.262530536997,163685
3580,68.0,0.263251559997,164133
3590,68.0,0.264050843997,164580
3600,68.0,0.264781274997,165041
3610,68.0,0.265470223997,165481
3620,68.0,0.266189535997,165925
3630,68.0,0.266896017998,166380
3640,68.0,0.267593518998,166829
3650,68.0,0.268316251997,167280
3660,68.0,0.269028293998,167739
3670,70.0,0.269737769997,168197
3680,70.0,0.270483168998,168654
3690,70.0,0.271212744997,169112
3700,70.0,0.272018869997,169568
3710,70.0,0.272726207997,170029
3720,70.0,0.273398905997,170486
3730,70.0,0.274158417997,170944
3740,69.0,0.274853780997,171396
3750,69.0,0.275555131997,171852
3760,68.0,0.276247501997,172306
3770,68.0,0.276917633998,172757
3780,68.0,0.277656617998,173213
3790,68.0,0.278391753998,173658
3800,69.0,0.279113632998,174111
3810,68.0,0.279831662998,174570
3820,68.0,0.280525315998,175029
3830,68.0,0.281215974997,175488
3840,68.0,0.281892521997,175937
3850,68.0,0.282600715997,176403
3860,68.0,0.283294368997,176871
3870,68.0,0.283965355997,177322
3880,66.0,0.284663284997,177782
3890,66.0,0.285349240997,178229
3900,66.0,0.286048025997,178689
3910,69.0,0.286737401997,179141
3920,66.0,0.287498623997,179599
3930,66.0,0.288196124996,180056
3940,69.0,0.288896619996,180503
3950,68.0,0.289596687996,180958
3960,69.0,0.290372022996,181425
3970,69.0,0.291062254996,181863
3980,69.0,0.291759756996,182308
3990,69.0,0.292494892996,182761
4000,69.0,0.293206079996,183207
4010,69.0,0.293952333996,183670
4020,69.0,0.294644704996,184132
4030,69.0,0.295329376996,184578
4040,69.0,0.296041418996,185023
4050,69.0,0.296835569995,185471
4060,69.0,0.297530505995,185932
4070,69.0,0.298200637995,186387
4080,69.0,0.298949457995,186834
4090,69.0,0.299614458995,187279
4100,69.0,0.300330776995,187741
4110,69.0,0.301021863995,188183
4120,71.0,0.301703969995,188642
4130,71.0,0.302423281995,189087
4140,69.0,0.303099400996,189536
4150,68.0,0.303850786996,189999
4160,68.0,0.304583783995,190463
4170,68.0,0.305501954996,190915
4180,68.0,0.306172086996,191381
4190,68.0,0.306854620995,191848
4200,68.0,0.307677424995,192306
4210,68.0,0.308393743995,192773
4220,68.0,0.309259740995,193227
4230,68.0,0.309958953996,193686
4240,69.0,0.310694516996,194154
4250,68.0,0.311510478996,194607
4260,68.0,0.312368778996,195068
4270,69.0,0.313190299995,195535
4280,69.0,0.314010965995,195991
4290,69.0,0.314781168996,196451
4300,69.0,0.315566766996,196902
4310,69.0,0.319002102996,197347
4320,71.0,0.319721414996,197809
4330,69.0,0.320428752996,198258
4340,69.0,0.321139083996,198716
4350,68.0,0.321806649996,199169
4360,68.0,0.322511848996,199628
4370,69.0,0.323199514996,200080
4380,69.0,0.323888035995,200529
4390,68.0,0.324620177996,200995
4400,68.0,0.325333930996,201445
4410,68.0,0.326011332996,201888
4420,68.0,0.326722519996,202330
4430,68.0,0.327475616996,202784
4440,68.0,0.328149169996,203237
4450,69.0,0.328813742996,203696
4460,68.0,0.329690858996,204163
4470,69.0,0.330397340996,204614
4480,68.0,0.331092704996,205081
4490,68.0,0.331795766996,205536
4500,68.0,0.332524487996,206000
4510,68.0,0.333241234996,206450
4520,68.0,0.333960974996,206910
4530,69.0,0.334743579996,207370
4540,69.0,0.335415850996,207829
4550,68.0,0.336060323995,208285
4560,68.0,0.336749272995,208734
4570,68.0,0.337431806995,209185
4580,68.0,0.338115623995,209637
4590,69.0,0.338799868995,210093
4600,68.0,0.341108766995,210536
4610,69.0,0.341775049995,210994
4620,69.0,0.342446036995,211444
4630,69.0,0.343131564995,211894
4640,68.0,0.343788439995,212360
4650,68.0,0.344506041994,212824
4660,69.0,0.345206109994,213274
4670,69.0,0.345865550994,213735
4680,68.0,0.346540386994,214203
4690,68.0,0.347368322994,214642
4700,68.0,0.348020920995,215104
4710,68.0,0.348676940995,215553
4720,69.0,0.349353059995,216000
4730,69.0,0.350062963995,216468
4740,68.0,0.350730101995,216925
4750,69.0,0.351387403995,217388
4760,68.0,0.352053687995,217836
4770,68.0,0.352721254994,218306
4780,68.0,0.353490174994,218761
4790,69.0,0.354170997994,219213
4800,68.0,0.354837280994,219671
4810,69.0,0.355559586994,220122
4820,68.0,0.356387522994,220580
4830,68.0,0.357094005994,221030
4840,68.0,0.357803481994,221490
4850,69.0,0.358616022994,221949
4860,69.0,0.359313951994,222414
4870,69.0,0.360083727994,222877
4880,69.0,0.360750010994,223335
4890,69.0,0.361458631994,223783
4900,69.0,0.362156133994,224240
4910,68.0,0.362841233994,224702
4920,68.0,0.363546860994,225150
4930,68.0,0.364225973994,225618
4940,73.0,0.364944857994,226092
4950,73.0,0.365679992995,226554
4960,68.0,0.366423681994,227021
4970,68.0,0.367148125994,227479
4980,69.0,0.367853325994,227930
4990,68.0,0.368535004995,228391
