it,funval,time,funcount
0,14.0,0.00108239000019,576
10,14.0,0.00220968300027,1064
20,14.0,0.00336263600047,1555
30,14.0,0.0044655530005,2041
40,14.0,0.00555478500064,2520
50,14.0,0.00664358900076,3015
60,23.0,0.00774351200062,3489
70,23.0,0.00885027800086,3979
80,23.0,0.00999125600083,4456
90,23.0,0.0111412150009,4938
100,23.0,0.012246270001,5425
110,29.0,0.0133667210007,5904
120,29.0,0.0144807560005,6378
130,29.0,0.0158287180006,6864
140,29.0,0.0169470310007,7345
150,29.0,0.0180674810008,7837
160,29.0,0.0192058930006,8312
170,29.0,0.0203904920004,8788
180,35.0,0.0215755180002,9270
190,35.0,0.0227284699999,9754
200,35.0,0.023886982,10227
210,35.0,0.0250395070002,10713
220,35.0,0.0262040060002,11195
230,35.0,0.0273513990001,11674
240,35.0,0.0285137589999,12168
250,35.0,0.0296868109999,12660
260,37.0,0.0308072620001,13134
270,37.0,0.0319431090002,13629
280,37.0,0.0330635600003,14109
290,37.0,0.0341861490001,14593
300,37.0,0.035279657,15073
310,37.0,0.0364488600003,15566
320,37.0,0.0376219120003,16052
330,37.0,0.0387847010002,16543
340,37.0,0.0399504830002,17022
350,37.0,0.0411684390001,17501
360,37.0,0.042370571,17985
370,37.0,0.0435256619999,18469
380,37.0,0.0449339229999,18943
390,37.0,0.0460599329999,19429
400,37.0,0.0475122419998,19905
410,37.0,0.0486600629997,20375
420,37.0,0.0498006129997,20851
430,38.0,0.0509133659998,21337
440,37.0,0.0520321059998,21830
450,37.0,0.0531961769998,22309
460,40.0,0.0544004479998,22783
470,40.0,0.0555619530001,23278
480,42.0,0.0566977990002,23758
490,40.0,0.0580838220003,24229
500,40.0,0.0592547360002,24718
510,40.0,0.0603696270005,25193
520,40.0,0.0615490930004,25681
530,40.0,0.0626537210005,26176
540,42.0,0.0637694670004,26671
550,42.0,0.0649262680004,27147
560,42.0,0.0660338890002,27638
570,42.0,0.0671876970005,28113
580,40.0,0.0683359450004,28594
590,40.0,0.0694906080003,29070
600,42.0,0.0706790550003,29550
610,42.0,0.071824737,30026
620,40.0,0.0729528849997,30496
630,40.0,0.0741071199996,30981
640,40.0,0.0752322749995,31469
650,40.0,0.0763706869998,31952
660,40.0,0.0774757419995,32430
670,42.0,0.0786034619996,32914
680,43.0,0.0797346039999,33397
690,43.0,0.0850858239996,33884
700,43.0,0.0862233809999,34371
710,43.0,0.0873459699997,34842
720,43.0,0.0884835259999,35319
730,43.0,0.089649735,35811
740,43.0,0.0908193659998,36302
750,43.0,0.092010807,36785
760,43.0,0.0933070229999,37277
770,45.0,0.09453738,37747
780,48.0,0.0957134250002,38237
790,48.0,0.0968394350002,38712
800,43.0,0.097977847,39186
810,43.0,0.0991166859999,39670
820,43.0,0.100439844,40161
830,43.0,0.101599211,40640
840,44.0,0.102725649,41121
850,43.0,0.10385508,41597
860,48.0,0.104950299,42088
870,44.0,0.106071605,42572
880,43.0,0.107298968,43062
890,43.0,0.108420273999,43549
900,49.0,0.109546283999,44013
910,49.0,0.110717197999,44517
920,48.0,0.111852188999,44997
930,49.0,0.112984185999,45483
940,49.0,0.114116610999,45973
950,51.0,0.115317031999,46460
960,51.0,0.116446890999,46945
970,51.0,0.117578032999,47416
980,51.0,0.118720721999,47907
990,49.0,0.119850580999,48384
1000,49.0,0.120997545999,48861
1010,49.0,0.122174873999,49327
1020,49.0,0.123316279999,49803
1030,49.0,0.124433736999,50284
1040,49.0,0.125580274999,50767
1050,51.0,0.126721680999,51263
1060,49.0,0.127832294999,51734
1070,49.0,0.129155452999,52210
1080,51.0,0.130279752999,52692
1090,49.0,0.131395072,53180
1100,49.0,0.132532200999,53666
1110,51.0,0.133666335999,54146
1120,51.0,0.134800898999,54627
1130,51.0,0.135996188999,55117
1140,51.0,0.137195756,55607
1150,53.0,0.138412855999,56098
1160,51.0,0.139558965999,56584
1170,51.0,0.140708496999,57060
1180,53.0,0.141919609999,57545
1190,51.0,0.143102925999,58015
1200,51.0,0.144239199999,58507
1210,53.0,0.145411823999,58979
1220,51.0,0.146563065,59460
1230,51.0,0.147901191,59964
1240,51.0,0.149079802999,60443
1250,51.0,0.150231899999,60938
1260,51.0,0.151381002999,61417
1270,53.0,0.152511289999,61907
1280,56.0,0.153647991,62401
1290,55.0,0.154781271,62875
1300,55.0,0.155947908,63371
1310,55.0,0.157155172,63848
1320,55.0,0.158333784,64334
1330,55.0,0.159480321,64811
1340,55.0,0.160696993,65295
1350,55.0,0.161849945,65782
1360,55.0,0.163017437999,66264
1370,55.0,0.164159698999,66743
1380,55.0,0.165290841,67218
1390,55.0,0.166500243,67701
1400,55.0,0.167615988999,68175
1410,55.0,0.168753117999,68664
1420,55.0,0.169876562999,69166
1430,55.0,0.171027805,69647
1440,55.0,0.172192732,70127
1450,55.0,0.17345944,70603
1460,55.0,0.174614529999,71084
1470,56.0,0.175709748999,71569
1480,56.0,0.176885367,72053
1490,56.0,0.177997264,72539
1500,56.0,0.179168606,73026
1510,56.0,0.180280076,73503
1520,55.0,0.181915421,73987
1530,56.0,0.183046135,74482
1540,56.0,0.184189251,74960
1550,56.0,0.185381119,75435
1560,56.0,0.186515255,75913
1570,56.0,0.187651957,76397
1580,56.0,0.188800205,76884
1590,56.0,0.189937335001,77375
1600,56.0,0.191085583001,77865
1610,55.0,0.192220146001,78335
1620,55.0,0.193396191,78823
1630,56.0,0.194565394,79315
1640,55.0,0.195810292,79796
1650,55.0,0.196952553,80277
1660,56.0,0.198087116,80765
1670,55.0,0.199306782,81248
1680,56.0,0.200466149,81750
1690,55.0,0.201590447999,82233
1700,55.0,0.202750669999,82706
1710,55.0,0.204191859999,83177
1720,56.0,0.205294348999,83655
1730,55.0,0.206408813,84131
1740,55.0,0.207557061,84598
1750,55.0,0.208808801,85078
1760,55.0,0.210165743999,85559
1770,55.0,0.211331952999,86030
1780,55.0,0.212658959999,86515
1790,55.0,0.213807208,87012
1800,55.0,0.214939633,87500
1810,56.0,0.21610071,87974
1820,55.0,0.217291296,88461
1830,55.0,0.218465203,88944
1840,55.0,0.219666478999,89438
1850,55.0,0.220855353999,89915
1860,55.0,0.222027121999,90388
1870,55.0,0.223254484999,90866
1880,56.0,0.224436089999,91359
1890,56.0,0.225633091,91845
1900,56.0,0.226814268,92323
1910,56.0,0.228227660999,92791
1920,56.0,0.229360940999,93287
1930,56.0,0.230497214999,93766
1940,56.0,0.231633915999,94244
1950,55.0,0.232785156999,94720
1960,55.0,0.233912878,95220
1970,56.0,0.235014938999,95708
1980,56.0,0.236136244999,96180
1990,55.0,0.237265675999,96680
2000,55.0,0.238422476999,97165
2010,55.0,0.239551052999,97646
2020,56.0,0.240691174999,98121
2030,56.0,0.241844981999,98603
2040,57.0,0.242990664,99080
2050,55.0,0.244125654999,99568
2060,55.0,0.245239689999,100046
2070,55.0,0.246372970999,100526
2080,56.0,0.247533192999,101002
2090,56.0,0.248670321999,101493
2100,55.0,0.249783074999,101994
2110,56.0,0.250879149999,102479
2120,57.0,0.252026969999,102960
2130,56.0,0.253170514,103433
2140,55.0,0.254278562,103905
2150,55.0,0.255508491,104385
2160,55.0,0.256612691,104867
2170,55.0,0.257777618001,105360
2180,56.0,0.258914747,105843
2190,56.0,0.260074113,106328
2200,55.0,0.261218940001,106814
2210,55.0,0.262366333001,107305
2220,55.0,0.263512016001,107783
2230,55.0,0.264625196001,108249
2240,56.0,0.265779431002,108730
2250,56.0,0.266954193001,109207
2260,55.0,0.268157181002,109693
2270,55.0,0.269317831001,110162
2280,55.0,0.270494304002,110650
2290,55.0,0.271656665002,111137
2300,55.0,0.272789945002,111608
2310,55.0,0.273971977002,112090
2320,56.0,0.275227139002,112569
2330,56.0,0.276385651002,113067
2340,55.0,0.277607456002,113554
2350,55.0,0.278729617002,114054
2360,56.0,0.279913360002,114546
2370,56.0,0.281103090002,115037
2380,55.0,0.282299235002,115526
2390,55.0,0.283406856002,116010
2400,55.0,0.284499936002,116490
2410,55.0,0.285644763002,116972
2420,55.0,0.286808407002,117461
2430,55.0,0.287953234002,117950
2440,55.0,0.289175466002,118433
2450,55.0,0.290354505002,118908
2460,55.0,0.291509595002,119392
2470,55.0,0.292633467001,119879
2480,55.0,0.293875799001,120367
2490,55.0,0.294957333002,120863
2500,55.0,0.296304012002,121348
2510,55.0,0.297444990002,121842
2520,55.0,0.298751898002,122308
2530,55.0,0.300044265001,122793
2540,55.0,0.301200211001,123296
2550,55.0,0.302511823002,123766
2560,55.0,0.303653229002,124250
2570,55.0,0.304855789002,124727
2580,55.0,0.306010451001,125204
2590,55.0,0.307196332001,125690
2600,55.0,0.308345008001,126185
2610,56.0,0.309506086001,126665
2620,55.0,0.310657755002,127143
2630,55.0,0.311791463002,127627
2640,55.0,0.312901650002,128112
2650,55.0,0.314002429002,128600
2660,55.0,0.315143835002,129070
2670,57.0,0.316289089002,129565
2680,57.0,0.317421086002,130050
2690,57.0,0.318729704002,130535
2700,57.0,0.319961344002,131032
2710,57.0,0.321126271002,131507
2720,60.0,0.322348075002,131999
2730,57.0,0.323521555002,132477
2740,60.0,0.324700594002,132978
2750,57.0,0.325821472002,133464
2760,60.0,0.327127096002,133944
2770,60.0,0.328345479002,134426
2780,60.0,0.329489023002,134904
2790,60.0,0.331778249003,135372
2800,60.0,0.332883304003,135856
2810,60.0,0.334030269003,136339
2820,60.0,0.335175951002,136824
2830,60.0,0.336354990002,137302
2840,60.0,0.337878718002,137793
2850,60.0,0.339067165002,138278
2860,60.0,0.340234657002,138754
2870,60.0,0.341376062002,139237
2880,60.0,0.342526876002,139726
2890,60.0,0.343723876002,140202
2900,60.0,0.344952095002,140691
2910,60.0,0.346209395002,141170
2920,60.0,0.347397843002,141656
2930,60.0,0.348584580002,142145
2940,60.0,0.349790134002,142634
2950,61.0,0.350954632002,143116
2960,61.0,0.358054525002,143589
2970,61.0,0.359182245003,144076
2980,61.0,0.360342040002,144565
2990,61.0,0.361479596002,145051
3000,64.0,0.362633403002,145540
3010,64.0,0.363924915002,146032
3020,61.0,0.365103098002,146519
3030,61.0,0.366241082002,146993
3040,64.0,0.367374363002,147476
3050,61.0,0.368525604002,147955
3060,61.0,0.369644344002,148432
3070,61.0,0.370794730002,148908
3080,60.0,0.372183319002,149385
3090,60.0,0.373369200002,149874
3100,60.0,0.374520014002,150338
3110,60.0,0.375676815002,150824
3120,60.0,0.376854143002,151309
3130,61.0,0.378015220002,151779
3140,60.0,0.379166889002,152259
3150,60.0,0.380283918003,152734
3160,60.0,0.381364596002,153214
3170,61.0,0.382474355002,153700
3180,61.0,0.383577699002,154172
3190,64.0,0.384719532002,154655
3200,61.0,0.385950317002,155140
3210,61.0,0.387081887003,155622
3220,61.0,0.388227997003,156097
3230,61.0,0.389350586003,156581
3240,61.0,0.390485576003,157060
3250,64.0,0.391676589003,157547
3260,61.0,0.392845792003,158033
3270,61.0,0.394060754003,158521
3280,64.0,0.395257326003,159000
3290,61.0,0.396418403003,159484
3300,61.0,0.397564085004,159982
3310,61.0,0.398732432004,160467
3320,63.0,0.399963218003,160951
3330,61.0,0.401078537003,161426
3340,64.0,0.402250734003,161919
3350,61.0,0.403414806003,162402
3360,61.0,0.404577594003,162893
3370,64.0,0.405725415003,163380
3380,61.0,0.406977582003,163859
3390,61.0,0.408121554003,164352
3400,61.0,0.409269802003,164837
3410,61.0,0.410706288003,165319
3420,61.0,0.411869504003,165802
3430,61.0,0.413048543003,166288
3440,61.0,0.414192514003,166778
3450,61.0,0.415298852004,167263
3460,64.0,0.416473187003,167738
3470,64.0,0.417640679003,168227
3480,64.0,0.418797907003,168709
3490,64.0,0.419961123004,169194
3500,67.0,0.421139306004,169677
3510,64.0,0.422291403003,170157
3520,64.0,0.423416130003,170628
3530,64.0,0.424670864003,171116
3540,64.0,0.425828948004,171593
3550,64.0,0.427030225003,172077
3560,64.0,0.428244760003,172550
3570,61.0,0.429404127003,173040
3580,64.0,0.430527572003,173529
3590,64.0,0.431664701003,174006
3600,61.0,0.432815087003,174500
3610,61.0,0.433923563003,174992
3620,61.0,0.435054705003,175470
3630,61.0,0.436182426003,175944
3640,64.0,0.437443147003,176428
3650,61.0,0.438577710003,176889
3660,61.0,0.439707569004,177359
3670,61.0,0.440825453004,177847
3680,61.0,0.441966859004,178328
3690,61.0,0.443107837003,178825
3700,61.0,0.444256513003,179309
3710,61.0,0.445419729003,179800
3720,61.0,0.446568405004,180285
3730,64.0,0.447703824003,180781
3740,61.0,0.448953854003,181259
3750,61.0,0.450120919003,181743
3760,69.0,0.451256337003,182229
3770,61.0,0.452392183003,182726
3780,61.0,0.453520759003,183207
3790,64.0,0.454622821003,183685
3800,64.0,0.455748404003,184175
3810,69.0,0.456936851003,184657
3820,69.0,0.458055591003,185143
3830,69.0,0.459197424003,185621
3840,70.0,0.460333270003,186110
3850,69.0,0.461481090003,186617
3860,70.0,0.462596409003,187098
3870,70.0,0.463718570003,187583
3880,69.0,0.464861258004,188062
3890,69.0,0.465963747004,188546
3900,67.0,0.467285194004,189027
3910,69.0,0.468439857004,189500
3920,69.0,0.469601362004,189976
3930,69.0,0.470824022004,190467
3940,69.0,0.471951743004,190953
3950,69.0,0.473052094004,191444
3960,70.0,0.474204191004,191930
3970,69.0,0.475350728004,192404
3980,69.0,0.476525063004,192880
3990,69.0,0.477689562004,193363
4000,69.0,0.478831822004,193844
4010,69.0,0.479955266004,194324
4020,70.0,0.481171083004,194801
4030,72.0,0.482315482005,195287
4040,70.0,0.483457316005,195766
4050,69.0,0.484677837005,196251
4060,69.0,0.485829934004,196744
4070,70.0,0.486956372004,197233
4080,69.0,0.488152089005,197720
4090,69.0,0.491672955005,198194
4100,69.0,0.492845579005,198680
4110,69.0,0.493995966005,199155
4120,69.0,0.495156188005,199633
4130,69.0,0.496416909005,200126
4140,69.0,0.497534366006,200603
4150,69.0,0.498996511006,201089
4160,69.0,0.500163575006,201569
4170,69.0,0.501309257006,202055
4180,69.0,0.502469051006,202544
4190,69.0,0.503616443006,203029
4200,69.0,0.504778804006,203512
4210,69.0,0.505919782006,203986
4220,69.0,0.507069741006,204477
4230,69.0,0.508239799006,204957
4240,69.0,0.509356828006,205441
4250,70.0,0.510520044006,205931
4260,69.0,0.511641350006,206414
4270,70.0,0.512792592006,206902
4280,70.0,0.513916464006,207373
4290,69.0,0.515044612006,207864
4300,69.0,0.516177893006,208349
4310,69.0,0.517317160006,208823
4320,69.0,0.518425636006,209312
4330,69.0,0.519570890006,209810
4340,70.0,0.520713150006,210305
4350,70.0,0.521851562006,210776
4360,69.0,0.523002376006,211264
4370,70.0,0.524164308006,211748
4380,70.0,0.525311701007,212226
4390,70.0,0.526447119007,212720
4400,70.0,0.527564148007,213197
4410,72.0,0.528743187007,213683
4420,70.0,0.529906403007,214175
4430,70.0,0.531073467007,214661
4440,70.0,0.532562554007,215152
4450,70.0,0.533892982007,215625
4460,70.0,0.535106233007,216119
4470,70.0,0.536272870007,216613
4480,70.0,0.537429672007,217102
4490,70.0,0.538600158007,217581
4500,70.0,0.539752255007,218069
4510,70.0,0.540903924008,218559
4520,70.0,0.542126156008,219049
4530,69.0,0.543356085007,219534
4540,70.0,0.544587298007,220026
4550,69.0,0.545790286007,220513
4560,70.0,0.546953930007,220998
4570,70.0,0.548135108007,221492
4580,70.0,0.549300462007,221974
4590,70.0,0.550460684007,222459
4600,70.0,0.551682060007,222938
4610,70.0,0.552846559007,223414
4620,70.0,0.553992241007,223897
4630,70.0,0.555104139007,224389
4640,70.0,0.556226728007,224874
4650,70.0,0.557425011008,225360
4660,70.0,0.558673330007,225845
4670,70.0,0.559826282008,226317
4680,70.0,0.561029269008,226807
4690,70.0,0.562138173007,227300
4700,70.0,0.563250926007,227780
4710,70.0,0.564370093007,228256
4720,70.0,0.565510644007,228727
4730,70.0,0.566652050007,229211
4740,70.0,0.567816122007,229696
4750,70.0,0.568997727007,230171
4760,70.0,0.570130579007,230644
4770,70.0,0.571293794007,231134
4780,70.0,0.572439049007,231611
4790,70.0,0.573631773007,232084
4800,70.0,0.574768047007,232558
4810,70.0,0.575892774007,233033
4820,70.0,0.577026481007,233526
4830,70.0,0.578128115007,234015
4840,72.0,0.579266527006,234494
4850,72.0,0.580395530006,234986
4860,70.0,0.581534797006,235459
4870,70.0,0.582683901006,235940
4880,70.0,0.583824879006,236414
4890,72.0,0.584971844006,236897
4900,72.0,0.586117526007,237374
4910,72.0,0.587284591007,237856
4920,72.0,0.588420010006,238344
4930,72.0,0.589548586006,238828
4940,70.0,0.590691702006,239319
4950,72.0,0.591817285006,239804
4960,72.0,0.593000173006,240285
4970,75.0,0.594135163006,240773
4980,72.0,0.595238507006,241257
4990,72.0,0.596398301006,241729
