it,funval,time,funcount
0,9.0,0.000382749999972,433
10,10.0,0.000791157999856,755
20,12.0,0.00118160499983,1098
30,12.0,0.0016327779997,1431
40,12.0,0.00203819299963,1762
50,12.0,0.00245087799976,2110
60,12.0,0.00281737599994,2453
70,13.0,0.00318045299991,2785
80,12.0,0.00355293899997,3111
90,14.0,0.00394937299984,3441
100,14.0,0.00439926399986,3780
110,14.0,0.00478628999986,4118
120,14.0,0.00515364299986,4450
130,14.0,0.00552954999989,4788
140,14.0,0.00592085199992,5120
150,14.0,0.00634978799985,5464
160,14.0,0.00678984299975,5795
170,15.0,0.0072016729996,6132
180,14.0,0.00762590399972,6463
190,14.0,0.00802875299973,6806
200,15.0,0.0084345949997,7155
210,14.0,0.00881435099973,7495
220,16.0,0.0092360159997,7827
230,16.0,0.00961363399983,8159
240,15.0,0.00998697499995,8500
250,16.0,0.0103851199999,8836
260,16.0,0.01079695,9172
270,18.0,0.0111938119999,9505
280,18.0,0.0116283069999,9849
290,21.0,0.0120337220001,10174
300,21.0,0.0124977260002,10509
310,23.0,0.012885607,10845
320,23.0,0.0132662180001,11180
330,26.0,0.0136699220002,11519
340,26.0,0.0140727710002,11855
350,27.0,0.0144803240003,12197
360,26.0,0.0148801790001,12528
370,26.0,0.0152629280001,12857
380,26.0,0.0156499530001,13200
390,26.0,0.0160292810001,13537
400,27.0,0.0164470970001,13870
410,26.0,0.0168503740001,14209
420,27.0,0.0172267089999,14549
430,27.0,0.017599623,14882
440,27.0,0.017970825,15223
450,26.0,0.0183450210002,15549
460,26.0,0.0187192180001,15890
470,26.0,0.0190917039999,16227
480,26.0,0.0194783019999,16554
490,27.0,0.0198751639998,16887
500,27.0,0.0202527819997,17224
510,27.0,0.0206402359997,17557
520,27.0,0.0210174249996,17887
530,27.0,0.0213899099995,18216
540,27.0,0.0217799289996,18555
550,27.0,0.0221776459996,18887
560,27.0,0.0225911869995,19213
570,29.0,0.0229974579997,19545
580,29.0,0.0235375839998,19877
590,29.0,0.0239190499997,20205
600,29.0,0.0243086409996,20540
610,29.0,0.0247012269997,20863
620,30.0,0.0251164779997,21190
630,30.0,0.0255847569997,21529
640,30.0,0.0259948759997,21862
650,30.0,0.0263827569997,22199
660,30.0,0.0268343579999,22546
670,30.0,0.0272158249998,22884
680,30.0,0.0276571629997,23222
690,30.0,0.0280407679998,23559
700,31.0,0.0284145369997,23898
710,31.0,0.0288285049996,24247
720,31.0,0.0292044119997,24573
730,31.0,0.0295875889997,24908
740,31.0,0.0299549429997,25249
750,31.0,0.0303402579998,25589
760,30.0,0.0307135989997,25920
770,30.0,0.0310942099995,26253
780,31.0,0.0315004799995,26590
790,31.0,0.0318828019997,26926
800,31.0,0.0322745319997,27260
810,31.0,0.0327526479998,27587
820,31.0,0.0331944129998,27920
830,31.0,0.0337879949998,28257
840,35.0,0.0342716709997,28585
850,35.0,0.0346886329996,28917
860,35.0,0.0350944759996,29248
870,35.0,0.0354733759998,29587
880,38.0,0.0358984629997,29928
890,38.0,0.0363222669998,30264
900,38.0,0.0367362349998,30604
910,38.0,0.0371318139996,30941
920,38.0,0.0375094309998,31274
930,38.0,0.0378904699996,31613
940,39.0,0.0382680879995,31941
950,38.0,0.0386692259995,32278
960,40.0,0.0392080689994,32617
970,44.0,0.0395878239992,32948
980,44.0,0.0399662959994,33273
990,44.0,0.0403503279992,33612
1000,44.0,0.040764722999,33951
1010,44.0,0.0411645789991,34281
1020,44.0,0.0416285829992,34622
1030,44.0,0.0420348529992,34969
1040,45.0,0.0424740529993,35302
1050,44.0,0.0428760459993,35634
1060,45.0,0.0432699139992,35973
1070,44.0,0.0436890139993,36309
1080,45.0,0.0441932169992,36637
1090,44.0,0.0446165929991,36973
1100,44.0,0.0450177309992,37306
1110,44.0,0.0455608499992,37648
1120,44.0,0.0459752459992,37980
1130,45.0,0.0463537189992,38314
1140,45.0,0.0467274879991,38657
1150,45.0,0.0471619839991,38991
1160,44.0,0.047583221999,39324
1170,45.0,0.0479681099991,39658
1180,44.0,0.0483457279993,39985
1190,44.0,0.0487421619994,40320
1200,44.0,0.0491206349993,40659
1210,44.0,0.0495008179992,40993
1220,49.0,0.0499109369991,41333
1230,52.0,0.0503056599991,41676
1240,49.0,0.0507153519991,42014
1250,49.0,0.0511126409992,42353
1260,49.0,0.0515214769991,42683
1270,49.0,0.0519055089992,43026
1280,50.0,0.0523643799993,43362
1290,53.0,0.0527834799993,43687
1300,50.0,0.0533856159993,44034
1310,49.0,0.0537747799992,44369
1320,49.0,0.0541630879993,44712
1330,49.0,0.0545629429994,45049
1340,53.0,0.0550697109993,45380
1350,49.0,0.0554913769993,45714
1360,49.0,0.0561290069993,46056
1370,49.0,0.0565361329993,46389
1380,49.0,0.0569552329994,46714
1390,49.0,0.0573700559994,47048
1400,53.0,0.0577532329994,47384
1410,49.0,0.0581672009996,47718
1420,53.0,0.0586034069995,48064
1430,53.0,0.0590036899994,48398
1440,53.0,0.0594001239992,48735
1450,53.0,0.0597931369994,49079
1460,53.0,0.0602015459992,49413
1470,53.0,0.0606492989994,49753
1480,55.0,0.0610406009994,50085
1490,55.0,0.0614280539994,50411
1500,55.0,0.0618163629995,50743
1510,55.0,0.0622072379995,51079
1520,57.0,0.0626015339994,51406
1530,55.0,0.0629770139994,51745
1540,57.0,0.0633751589994,52083
1550,55.0,0.0637656059994,52411
1560,57.0,0.0641509209995,52755
1570,55.0,0.0645494929995,53090
1580,55.0,0.0649596119995,53426
1590,55.0,0.0653701589995,53763
1600,55.0,0.0657520529996,54091
1610,55.0,0.0661557579997,54429
1620,57.0,0.0665406459996,54769
1630,56.0,0.0669212569994,55105
1640,56.0,0.0673168359995,55444
1650,57.0,0.0677004409995,55781
1660,57.0,0.0680857559994,56126
1670,55.0,0.0684685049994,56467
1680,56.0,0.0688495439995,56799
1690,55.0,0.0692250229995,57132
1700,55.0,0.0696398459995,57464
1710,55.0,0.0700580909995,57810
1720,56.0,0.0704532419995,58150
1730,55.0,0.0708689209996,58483
1740,56.0,0.0712473929998,58819
1750,57.0,0.0716297149997,59147
1760,57.0,0.0720278589997,59479
1770,55.0,0.0724221549997,59796
1780,55.0,0.0728138849997,60130
1790,55.0,0.0732423929996,60468
1800,55.0,0.0736294189996,60808
1810,55.0,0.0740096019997,61133
1820,56.0,0.0744496569998,61467
1830,55.0,0.0748794489998,61791
1840,55.0,0.075265192,62128
1850,56.0,0.075683864,62460
1860,56.0,0.076071317,62790
1870,55.0,0.076465185,63126
1880,55.0,0.076876587,63463
1890,55.0,0.0772623299999,63798
1900,55.0,0.0776638959999,64137
1910,59.0,0.0780650339998,64481
1920,59.0,0.0784417959997,64803
1930,59.0,0.0788172759997,65133
1940,58.0,0.0792072959996,65466
1950,59.0,0.0795943209996,65804
1960,59.0,0.0800390799996,66137
1970,59.0,0.0804496269996,66478
1980,59.0,0.0808580349994,66802
1990,61.0,0.0812677259994,67143
2000,61.0,0.0816684359993,67482
2010,61.0,0.0820640149993,67815
2020,60.0,0.0824873909994,68152
2030,59.0,0.0828898129996,68491
2040,59.0,0.0834577359997,68834
2050,60.0,0.0838524589997,69172
2060,60.0,0.0842535969996,69509
2070,60.0,0.0846538809994,69844
2080,61.0,0.0850379129995,70189
2090,62.0,0.0854411899993,70528
2100,61.0,0.0858324919991,70871
2110,61.0,0.0862165239992,71204
2120,61.0,0.0918012429991,71547
2130,61.0,0.0922862019991,71881
2140,61.0,0.092688623999,72217
2150,61.0,0.0930777889989,72551
2160,61.0,0.093466097999,72885
2170,61.0,0.0938907569989,73222
2180,62.0,0.094286334999,73570
2190,62.0,0.094685334999,73915
2200,62.0,0.0950608139988,74264
2210,62.0,0.0954512609987,74601
2220,62.0,0.0958592419986,74939
2230,62.0,0.0962479789987,75276
2240,62.0,0.0966384259987,75614
2250,62.0,0.0970207469986,75953
2260,62.0,0.0974056349985,76289
2270,62.0,0.0977965099985,76617
2280,62.0,0.0981779759986,76948
2290,62.0,0.0986385579986,77281
2300,62.0,0.0990627899987,77605
2310,62.0,0.0994613629987,77932
2320,62.0,0.0998885879987,78257
2330,62.0,0.100283738999,78603
2340,63.0,0.100688726999,78938
2350,63.0,0.101083877999,79273
2360,63.0,0.101588080999,79605
2370,62.0,0.102022575998,79932
2380,64.0,0.102421575999,80269
2390,63.0,0.102812450998,80607
2400,63.0,0.103197338998,80948
2410,62.0,0.103610451998,81279
2420,63.0,0.104008168998,81617
2430,63.0,0.104384502998,81952
2440,62.0,0.104770245998,82282
2450,62.0,0.105153850998,82619
2460,63.0,0.105572522998,82949
2470,63.0,0.105962969998,83280
2480,63.0,0.106351705998,83616
2490,63.0,0.106768239998,83956
2500,63.0,0.107172371998,84290
2510,69.0,0.107599596998,84630
2520,69.0,0.107986622998,84975
2530,69.0,0.108373220998,85312
2540,69.0,0.108766233998,85649
2550,69.0,0.109168654998,85993
2560,68.0,0.109668153998,86335
2570,67.0,0.110076133998,86670
2580,68.0,0.110494377998,87007
2590,68.0,0.110930155998,87350
2600,67.0,0.111313332998,87680
2610,67.0,0.111699931998,88009
2620,69.0,0.112096365998,88341
2630,67.0,0.112489378998,88670
2640,67.0,0.112914465998,88999
2650,68.0,0.113286095998,89336
2660,70.0,0.113664140998,89663
2670,70.0,0.114055443998,90010
2680,69.0,0.114469411998,90345
2690,69.0,0.114856865998,90691
2700,69.0,0.115237048998,91029
2710,69.0,0.115618087998,91370
2720,69.0,0.115999554998,91695
2730,69.0,0.116407963998,92029
2740,69.0,0.116842458998,92365
2750,69.0,0.117229484998,92695
2760,67.0,0.117610095998,93033
2770,67.0,0.118027912998,93369
2780,69.0,0.118400826998,93696
2790,74.0,0.118824202998,94033
2800,69.0,0.119222775998,94371
2810,69.0,0.119625624998,94710
2820,67.0,0.120010512998,95037
2830,67.0,0.120428756998,95367
2840,67.0,0.120837165998,95696
2850,69.0,0.121217348998,96028
2860,69.0,0.121593255998,96366
2870,69.0,0.122012782998,96695
2880,69.0,0.122516557998,97033
2890,69.0,0.122924538998,97372
2900,69.0,0.123322256998,97699
2910,69.0,0.123715697998,98035
2920,69.0,0.124122395998,98375
2930,69.0,0.124522250998,98701
2940,69.0,0.124942632998,99024
2950,68.0,0.125324098998,99353
2960,68.0,0.125702998998,99683
2970,69.0,0.126098150998,100016
2980,69.0,0.126526230998,100358
2990,69.0,0.126906841999,100696
3000,69.0,0.127386668998,101028
3010,69.0,0.127812611998,101369
3020,69.0,0.128196215999,101709
3030,69.0,0.128585379998,102041
3040,73.0,0.129014742999,102372
3050,69.0,0.129493286999,102702
3060,75.0,0.129962849999,103043
3070,77.0,0.130425142999,103374
3080,75.0,0.130911811998,103701
3090,75.0,0.131380947998,104033
3100,75.0,0.131823140998,104369
3110,75.0,0.132330764998,104706
3120,75.0,0.132799899998,105042
3130,75.0,0.133321635999,105382
3140,77.0,0.133808732998,105711
3150,77.0,0.134261617998,106039
3160,77.0,0.134751707998,106368
3170,77.0,0.135200742998,106700
3180,77.0,0.135663462998,107030
3190,77.0,0.136112497998,107374
3200,77.0,0.136558539998,107714
3210,78.0,0.137012707998,108050
3220,77.0,0.137475427998,108383
3230,78.0,0.137929167998,108717
3240,78.0,0.138384617998,109054
3250,78.0,0.138843488998,109396
3260,77.0,0.139295945998,109727
3270,77.0,0.139741559998,110057
3280,78.0,0.140232932998,110394
3290,77.0,0.140730292998,110733
3300,77.0,0.141193440998,111063
3310,77.0,0.141642475998,111403
3320,77.0,0.142091511998,111732
3330,77.0,0.142682100998,112065
3340,77.0,0.143140116998,112396
3350,77.0,0.143604975998,112728
3360,77.0,0.144063846998,113060
3370,78.0,0.144531270998,113390
3380,78.0,0.145007676998,113726
3390,78.0,0.145452007998,114061
3400,78.0,0.145916010998,114396
3410,77.0,0.146377875998,114727
3420,77.0,0.146833325998,115066
3430,77.0,0.147276373998,115393
3440,77.0,0.147765180998,115727
3450,78.0,0.148162897998,116062
3460,77.0,0.148634171998,116397
3470,78.0,0.149116991998,116727
3480,77.0,0.149580995998,117056
3490,77.0,0.150091185998,117404
3500,77.0,0.150575716998,117746
3510,78.0,0.151036726998,118064
3520,77.0,0.151532376998,118399
3530,77.0,0.151985688998,118727
3540,78.0,0.152438572998,119074
3550,78.0,0.152891029998,119406
3560,78.0,0.153278483998,119747
3570,78.0,0.153659949998,120100
3580,78.0,0.154035856998,120432
3590,78.0,0.154429297998,120771
3600,77.0,0.154841127998,121100
3610,78.0,0.155229436998,121435
3620,77.0,0.155637417998,121768
3630,78.0,0.156027437998,122100
3640,77.0,0.156420022998,122435
3650,77.0,0.156814318998,122770
3660,77.0,0.157202199998,123095
3670,77.0,0.157607186998,123431
3680,77.0,0.158042109998,123755
3690,77.0,0.158677601998,124090
3700,77.0,0.159048804998,124425
3710,77.0,0.159424711998,124760
3720,77.0,0.159797624998,125092
3730,77.0,0.160173531998,125428
3740,77.0,0.160545162998,125765
3750,77.0,0.160924490998,126108
3760,77.0,0.161326911998,126445
3770,77.0,0.161725484998,126779
3780,77.0,0.162120636998,127115
3790,77.0,0.162523913998,127448
3800,77.0,0.162914360998,127782
3810,78.0,0.163321058998,128120
3820,78.0,0.163769665998,128462
3830,78.0,0.164163533998,128789
3840,78.0,0.164546710998,129122
3850,79.0,0.164926893998,129458
3860,78.0,0.165321189998,129782
3870,78.0,0.165702227998,130126
3880,79.0,0.166094812998,130471
3890,78.0,0.166477989998,130809
3900,79.0,0.166879983998,131135
3910,79.0,0.167261021998,131469
3920,79.0,0.167647619998,131804
3930,78.0,0.168082970998,132149
3940,78.0,0.168477694998,132483
3950,84.0,0.168863865998,132817
3960,84.0,0.169276978999,133155
3970,84.0,0.169670419999,133495
3980,78.0,0.170135278999,133840
3990,78.0,0.170571484999,134184
4000,77.0,0.170986735998,134534
4010,79.0,0.171375044999,134873
4020,82.0,0.171769767999,135209
4030,82.0,0.172190150998,135544
4040,84.0,0.172593854998,135881
4050,82.0,0.172989433999,136208
4060,84.0,0.173392282999,136547
4070,84.0,0.173794704998,136886
4080,84.0,0.174191994998,137225
4090,84.0,0.174629056998,137565
4100,84.0,0.175148226998,137894
4110,84.0,0.175642165998,138234
4120,84.0,0.176041592998,138568
4130,84.0,0.176446579998,138901
4140,84.0,0.176849000998,139239
4150,84.0,0.177253559998,139580
4160,84.0,0.177684633998,139916
4170,84.0,0.178083633998,140244
4180,84.0,0.178481778998,140571
4190,84.0,0.178919267998,140908
4200,84.0,0.179476499998,141252
4210,84.0,0.179921258999,141594
4220,84.0,0.180414342999,141928
4230,85.0,0.180819757999,142250
4240,84.0,0.181213197998,142574
4250,84.0,0.181600651998,142916
4260,84.0,0.182030014999,143241
4270,84.0,0.182423454999,143577
4280,85.0,0.182810480999,143914
4290,84.0,0.183227442999,144252
4300,86.0,0.183626870999,144583
4310,86.0,0.184006626999,144922
4320,86.0,0.184399639999,145264
4330,86.0,0.184777256999,145607
4340,86.0,0.185169414999,145946
4350,86.0,0.185561572999,146286
4360,87.0,0.185948170999,146608
4370,87.0,0.186336479999,146944
4380,87.0,0.18672821,147287
4390,87.0,0.187118228999,147625
4400,87.0,0.187524926999,147955
4410,87.0,0.187923071999,148287
4420,87.0,0.188329341999,148625
4430,87.0,0.188745020999,148965
4440,87.0,0.189140171999,149304
4450,87.0,0.189522921999,149646
4460,90.0,0.189918501,149976
4470,87.0,0.190318356,150317
4480,87.0,0.191120204999,150662
4490,87.0,0.191542297999,150998
4500,87.0,0.191943864,151333
4510,87.0,0.192348422999,151682
4520,90.0,0.192757687,152020
4530,90.0,0.193142575,152351
4540,87.0,0.193521047,152690
4550,87.0,0.194015414,153020
4560,87.0,0.194431947,153358
4570,87.0,0.194844204,153694
4580,87.0,0.195257744999,154027
4590,90.0,0.195671713,154377
4600,93.0,0.196080549,154718
4610,90.0,0.196462016,155051
4620,93.0,0.196848186,155389
4630,93.0,0.197260016,155724
4640,86.0,0.197728295999,156057
4650,86.0,0.198156803999,156395
4660,86.0,0.198561363999,156726
4670,88.0,0.198988588999,157066
4680,88.0,0.199369199999,157394
4690,90.0,0.199781029999,157721
4700,93.0,0.200157791999,158050
4710,99.0,0.200550377999,158379
4720,93.0,0.201017802999,158723
4730,99.0,0.201562204999,159061
4740,99.0,0.202034334,159404
4750,93.0,0.202552648999,159738
4760,93.0,0.203141099999,160068
4770,93.0,0.203607241999,160392
4780,93.0,0.204077659999,160717
4790,100.0,0.204566895,161045
4800,99.0,0.205060834,161383
4810,93.0,0.205572307,161721
4820,93.0,0.206063680999,162053
4830,93.0,0.206557621,162392
4840,100.0,0.207019914,162726
4850,100.0,0.207463817999,163052
4860,100.0,0.207861962999,163402
4870,100.0,0.208323399999,163730
4880,100.0,0.208746776,164066
4890,100.0,0.209176995,164393
4900,100.0,0.209662809,164723
4910,100.0,0.210077632,165061
4920,100.0,0.210477916,165392
4930,100.0,0.211007778,165727
4940,100.0,0.211499579,166058
4950,100.0,0.211893875,166401
4960,100.0,0.212288171,166738
4970,100.0,0.212739345,167072
4980,100.0,0.213149037,167402
4990,100.0,0.213569847,167738
