it,funval,time,funcount
0,1.0,9.83600000382e-06,10
10,1.0,2.18099999074e-05,21
20,1.0,3.25009998505e-05,32
30,1.0,4.27649998755e-05,43
40,1.0,5.30289999006e-05,54
50,1.0,6.54309999391e-05,65
60,1.0,7.61229998716e-05,76
70,1.0,8.63869998966e-05,87
80,1.0,9.66509999216e-05,98
90,1.0,0.000106059000018,109
100,1.0,0.000116323000043,120
110,1.0,0.0001270140001,131
120,1.0,0.000137705000157,142
130,1.0,0.000148824000235,153
140,1.0,0.000159515000178,164
150,4.0,0.000167641000189,175
160,4.0,0.00017533900018,186
170,4.0,0.000187741000218,197
180,4.0,0.000198432000275,208
190,4.0,0.00020955000025,219
200,4.0,0.000220669000328,230
210,4.0,0.000235209000266,241
220,5.0,0.000253170000292,252
230,5.0,0.000269848000244,263
240,5.0,0.000282678000303,274
250,5.0,0.000294225000403,285
260,5.0,0.000305344000367,296
270,5.0,0.000319457000387,307
280,5.0,0.000336991000495,318
290,5.0,0.000356235000595,329
300,5.0,0.000371631000689,340
310,5.0,0.000384460000646,351
320,5.0,0.000399856000627,362
330,7.0,0.000419100000613,373
340,7.0,0.000436633000618,384
350,10.0,0.000452028000609,395
360,10.0,0.000472127000648,406
370,10.0,0.00059657400061,417
380,10.0,0.000616674000526,428
390,10.0,0.000632070000506,439
400,10.0,0.000656019000417,450
410,10.0,0.00067227000045,461
420,10.0,0.000685955000449,472
430,10.0,0.000697929000353,483
440,10.0,0.000710758000423,494
450,10.0,0.000723160000462,505
460,10.0,0.000733851000405,516
470,10.0,0.000747963000322,527
480,10.0,0.000760365000247,538
490,10.0,0.000772339000264,549
500,10.0,0.000784741000302,560
510,10.0,0.00079586000038,571
520,10.0,0.00080869000044,582
530,10.0,0.000819381000383,593
540,10.0,0.000836060000438,604
550,10.0,0.000849317000416,615
560,10.0,0.000865140000428,626
570,13.0,0.000879681000356,637
580,13.0,0.000895504000255,648
590,13.0,0.000909617000275,659
600,13.0,0.000922874000253,670
610,13.0,0.000952810000285,681
620,13.0,0.000977186000341,692
630,13.0,0.000990444000308,703
640,13.0,0.00100284600023,714
650,13.0,0.00101396500031,725
660,13.0,0.00102508400028,736
670,13.0,0.00103748600031,747
680,14.0,0.00104860500039,758
690,14.0,0.0010584410004,769
700,14.0,0.00107084300043,780
710,14.0,0.00108410100052,791
720,14.0,0.00109992400053,802
730,14.0,0.00111360900053,813
740,14.0,0.00112558300054,824
750,14.0,0.00113755700056,835
760,14.0,0.00114824900049,846
770,14.0,0.00115894000044,857
780,14.0,0.00116834800042,868
790,14.0,0.00117861200044,879
800,14.0,0.00118844800045,890
810,14.0,0.00120170600042,901
820,14.0,0.00121239700036,912
830,14.0,0.00122565500044,923
840,14.0,0.00123848400051,934
850,14.0,0.00125131400057,945
860,14.0,0.00126157700049,956
870,14.0,0.00127569000051,967
880,14.0,0.00128980300053,978
890,14.0,0.00130134900053,989
900,14.0,0.00131332300055,1000
910,14.0,0.00132358700057,1011
920,14.0,0.00133727200057,1022
930,14.0,0.00135010200063,1033
940,14.0,0.00136507000059,1044
950,14.0,0.00137790000065,1055
960,14.0,0.00139073000071,1066
970,14.0,0.00140184900079,1077
980,14.0,0.00141339600077,1088
990,14.0,0.00143264000076,1099
1000,14.0,0.00144760700073,1110
1010,14.0,0.00146000900065,1121
1020,14.0,0.00147155500065,1132
1030,14.0,0.00148395700069,1143
1040,14.0,0.00150063500064,1154
1050,14.0,0.00151389200073,1165
1060,14.0,0.00152458400066,1176
1070,14.0,0.00153869700068,1187
1080,14.0,0.00155152600075,1198
1090,14.0,0.00156179000078,1209
1100,14.0,0.00157333700076,1220
1110,14.0,0.00158445600073,1231
1120,14.0,0.00159557500069,1242
1130,14.0,0.00160626600075,1253
1140,14.0,0.00161695800068,1264
1150,14.0,0.00162807700065,1275
1160,14.0,0.00163834100067,1286
1170,14.0,0.00165117000074,1297
1180,14.0,0.00166399900081,1308
1190,14.0,0.00167725700089,1319
1200,14.0,0.00168880400088,1330
1210,14.0,0.00170077900088,1341
1220,14.0,0.00171446400088,1352
1230,14.0,0.00172601100087,1363
1240,14.0,0.0017401230009,1374
1250,14.0,0.00175851200083,1385
1260,14.0,0.00177476300075,1396
1270,14.0,0.00179058600077,1407
1280,14.0,0.00180854800078,1418
1290,14.0,0.00182308800083,1429
1300,14.0,0.00183634500081,1440
1310,14.0,0.00185174100079,1451
1320,14.0,0.00186457100085,1462
1330,14.0,0.00187911100079,1473
1340,14.0,0.00189578900074,1484
1350,14.0,0.00190904600072,1495
1360,14.0,0.00192529600065,1506
1370,14.0,0.00194496800054,1517
1380,16.0,0.00196121800059,1528
1390,16.0,0.00197661300069,1539
1400,16.0,0.00199371900078,1550
1410,16.0,0.00200911400077,1561
1420,16.0,0.00202194400083,1572
1430,16.0,0.00203477400089,1583
1440,16.0,0.00204931400083,1594
1450,16.0,0.00206257200091,1605
1460,16.0,0.00207454600093,1616
1470,16.0,0.00208609300091,1627
1480,16.0,0.00210106000088,1638
1490,16.0,0.00211645600086,1649
1500,16.0,0.00212971300095,1660
1510,16.0,0.00214211500099,1671
1520,18.0,0.00215836600103,1682
1530,18.0,0.00217247800106,1693
1540,18.0,0.002185308001,1704
1550,18.0,0.00219813700107,1715
1560,18.0,0.002210539001,1726
1570,18.0,0.00222294100092,1737
1580,18.0,0.00223876400094,1748
1590,20.0,0.0022537320009,1759
1600,20.0,0.0022657070009,1770
1610,20.0,0.0022793920009,1781
1620,20.0,0.00229863600089,1792
1630,20.0,0.00231616900089,1803
1640,20.0,0.00233156500087,1814
1650,20.0,0.00234610500092,1825
1660,20.0,0.00235936200102,1836
1670,20.0,0.00237561300094,1847
1680,20.0,0.00238715900093,1858
1690,20.0,0.00240041600091,1869
1700,20.0,0.00241324600086,1880
1710,20.0,0.00242693100085,1891
1720,24.0,0.00243847800084,1902
1730,24.0,0.00245558400093,1913
1740,24.0,0.00246969700095,1924
1750,24.0,0.00248252700089,1935
1760,24.0,0.00249963300087,1946
1770,24.0,0.00251160700088,1957
1780,24.0,0.00252272600085,1968
1790,24.0,0.00253427200084,1979
1800,25.0,0.00254752900094,1990
1810,25.0,0.00255822000099,2001
1820,25.0,0.00256891100094,2012
1830,25.0,0.00258516200097,2023
1840,25.0,0.00259756400101,2034
1850,25.0,0.002612959001,2045
1860,25.0,0.00262621600098,2056
1870,25.0,0.00263776300108,2067
1880,25.0,0.00265486900105,2078
1890,25.0,0.00266812600103,2089
1900,25.0,0.002681383001,2100
1910,25.0,0.00269421300095,2111
1920,25.0,0.00270875300089,2122
1930,25.0,0.00272072700091,2133
1940,25.0,0.00273569500098,2144
1950,27.0,0.00274852500104,2155
1960,27.0,0.002759644001,2166
1970,27.0,0.00277418400105,2177
1980,27.0,0.00278829600097,2188
1990,31.0,0.00280198100097,2199
2000,31.0,0.00281865900092,2210
2010,31.0,0.00283533700099,2221
2020,31.0,0.00285244300096,2232
2030,31.0,0.00286912200102,2243
2040,31.0,0.00288366200095,2254
2050,31.0,0.00289905800093,2265
2060,31.0,0.00291488100095,2276
2070,31.0,0.00292984900102,2287
2080,31.0,0.00294695500099,2298
2090,31.0,0.00296149600103,2309
2100,32.0,0.00297475300101,2320
2110,32.0,0.00299057600103,2331
2120,32.0,0.0030055440011,2342
2130,32.0,0.00301751900111,2353
2140,32.0,0.0030312040011,2364
2150,32.0,0.00304360600114,2375
2160,32.0,0.00305771800117,2386
2170,32.0,0.00306926500116,2397
2180,32.0,0.00308295000116,2408
2190,32.0,0.00310262200117,2419
2200,32.0,0.00311588000113,2430
2210,32.0,0.00313042000107,2441
2220,32.0,0.00314752700103,2452
2230,32.0,0.00316805400109,2463
2240,32.0,0.00318387700111,2474
2250,32.0,0.00320055500106,2485
2260,32.0,0.00321424000106,2496
2270,32.0,0.00323177400105,2507
2280,32.0,0.00324802500108,2518
2290,32.0,0.00326384900109,2529
2300,32.0,0.00327839000101,2540
2310,32.0,0.00329421300103,2551
2320,32.0,0.00331260300106,2562
2330,32.0,0.00333313000101,2573
2340,32.0,0.00334938100104,2584
2350,32.0,0.00345372800098,2595
2360,32.0,0.00347468300095,2606
2370,32.0,0.00349093400098,2617
2380,32.0,0.00350333600102,2628
2390,32.0,0.00351787600107,2639
2400,32.0,0.00353455500101,2650
2410,32.0,0.00354866800103,2661
2420,32.0,0.003569623001,2672
2430,32.0,0.00358587400103,2683
2440,32.0,0.00359955900103,2694
2450,32.0,0.00361409900097,2705
2460,32.0,0.00362821200099,2716
2470,32.0,0.00364104200094,2727
2480,33.0,0.0036560100009,2738
2490,33.0,0.00366798400091,2749
2500,33.0,0.00368166800092,2760
2510,33.0,0.00369706300091,2771
2520,33.0,0.00371673500092,2782
2530,33.0,0.00373127600096,2793
2540,33.0,0.00374795400091,2804
2550,33.0,0.00376334900091,2815
2560,33.0,0.00378002800096,2826
2570,33.0,0.00379371300096,2837
2580,36.0,0.00380568800097,2848
2590,36.0,0.00382364900088,2859
2600,36.0,0.00384161000079,2870
2610,36.0,0.00386171000071,2881
2620,36.0,0.00388009900075,2892
2630,36.0,0.00389592300075,2903
2640,36.0,0.00391217400067,2914
2650,36.0,0.00392842500071,2925
2660,36.0,0.0039438200007,2936
2670,36.0,0.00395921600068,2947
2680,36.0,0.00397675000067,2958
2690,36.0,0.00399043400057,2969
2700,36.0,0.00400839600047,2980
2710,36.0,0.00402592900048,2991
2720,36.0,0.00404346200048,3002
2730,37.0,0.00406441700056,3013
2740,37.0,0.00408237800048,3024
2750,37.0,0.00409691800053,3035
2760,37.0,0.00411445200052,3046
2770,37.0,0.00412813700052,3057
2780,37.0,0.00414310500059,3068
2790,37.0,0.00415807300055,3079
2800,37.0,0.00417304100063,3090
2810,37.0,0.00419271300063,3101
2820,37.0,0.00420768100059,3112
2830,37.0,0.0042213650006,3123
2840,37.0,0.00423590500054,3134
2850,37.0,0.00425044500048,3145
2860,37.0,0.00426498500053,3156
2870,37.0,0.00428038100051,3167
2880,37.0,0.00429321100046,3178
2890,37.0,0.00431031700043,3189
2900,37.0,0.00432485700037,3200
2910,37.0,0.00433725900041,3211
2920,37.0,0.00435650400038,3222
2930,37.0,0.0043723270004,3233
2940,37.0,0.00438515700034,3244
2950,37.0,0.0044018360004,3255
2960,37.0,0.00441509300038,3266
2970,37.0,0.00442877800037,3277
2980,37.0,0.00444588500034,3288
2990,37.0,0.00445914200043,3299
3000,37.0,0.00447325500045,3310
3010,41.0,0.00448736800047,3321
3020,41.0,0.00450917800049,3332
3030,41.0,0.00452628400046,3343
3040,41.0,0.00454339000044,3354
3050,41.0,0.00456006900038,3365
3060,41.0,0.00457589200028,3376
3070,41.0,0.0045882940002,3387
3080,41.0,0.00460069600024,3398
3090,41.0,0.00461395300022,3409
3100,41.0,0.00462678300016,3420
3110,41.0,0.0046391850002,3431
3120,41.0,0.0046567190002,3442
3130,41.0,0.0046763910002,3453
3140,41.0,0.00469392400021,3464
3150,41.0,0.00470718100019,3475
3160,41.0,0.00472428700016,3486
3170,41.0,0.00474011100016,3497
3180,41.0,0.00475764500015,3508
3190,41.0,0.00477090200013,3519
3200,43.0,0.00478330300007,3530
3210,43.0,0.00479784300001,3541
3220,43.0,0.00481665899997,3552
3230,43.0,0.00483590299996,3563
3240,43.0,0.00484958800007,3574
3250,43.0,0.00486199000011,3585
3260,43.0,0.00487610300013,3596
3270,43.0,0.00488850500005,3607
3280,43.0,0.004901335,3618
3290,43.0,0.00491630299996,3629
3300,43.0,0.00493041599998,3640
3310,43.0,0.00494709499992,3651
3320,43.0,0.00496077999992,3662
3330,43.0,0.0049761759999,3673
3340,43.0,0.0049937089999,3684
3350,43.0,0.00500824899996,3695
3360,43.0,0.0050227889999,3706
3370,43.0,0.00503690099993,3717
3380,43.0,0.00505144199985,3728
3390,43.0,0.00506854799983,3739
3400,44.0,0.00508821999972,3750
3410,44.0,0.00510447099975,3761
3420,44.0,0.00511943899971,3772
3430,44.0,0.00513911099972,3783
3440,44.0,0.0051545069997,3794
3450,44.0,0.00516904699975,3805
3460,44.0,0.00518444199975,3816
3470,44.0,0.00520069299978,3827
3480,44.0,0.00523276699971,3838
3490,44.0,0.00525500499975,3849
3500,44.0,0.00527168299971,3860
3510,44.0,0.00528665099966,3871
3520,44.0,0.00530247399956,3882
3530,44.0,0.00531615899956,3893
3540,44.0,0.00533027099959,3904
3550,44.0,0.00534395599959,3915
3560,44.0,0.00535721299968,3926
3570,44.0,0.00536833199976,3937
3580,44.0,0.00539185299976,3948
3590,44.0,0.00541537399977,3959
3600,44.0,0.0055175829998,3970
3610,44.0,0.00553810999975,3981
3620,44.0,0.00555820999978,3992
3630,44.0,0.00557488799973,4003
3640,44.0,0.0055898559998,4014
3650,44.0,0.0056035409998,4025
3660,44.0,0.00561893699978,4036
3670,44.0,0.00563048399977,4047
3680,44.0,0.00564331299972,4058
3690,44.0,0.00565870799971,4069
3700,44.0,0.00567752499978,4080
3710,44.0,0.00570275599978,4091
3720,44.0,0.0057365399997,4102
3730,44.0,0.00575749499967,4113
3740,45.0,0.0057758839996,4124
3750,45.0,0.00579470099956,4135
3760,45.0,0.00581223499955,4146
3770,45.0,0.00582976899955,4157
3780,45.0,0.00584687499952,4168
3790,45.0,0.00586055999952,4179
3800,45.0,0.00587509999957,4190
3810,45.0,0.00589733699951,4201
3820,45.0,0.00591829199948,4212
3830,45.0,0.00593497099942,4223
3840,45.0,0.00596533499936,4234
3850,45.0,0.00598543499939,4245
3860,45.0,0.00601023899935,4256
3870,45.0,0.00602734499944,4267
3880,50.0,0.00604530599946,4278
3890,50.0,0.00605899099946,4289
3900,50.0,0.00607438599945,4300
3910,50.0,0.00608678799949,4311
3920,50.0,0.00609961799944,4322
3930,50.0,0.0061244219994,4333
3940,50.0,0.00614452099944,4344
3950,50.0,0.00615906099949,4355
3960,50.0,0.00617744999954,4366
3970,50.0,0.00619412799949,4377
3980,50.0,0.00621422799952,4388
3990,50.0,0.00623005099953,4399
4000,50.0,0.00631387099952,4410
4010,50.0,0.0063331159995,4421
4020,50.0,0.00634765599943,4432
4030,50.0,0.00637203199938,4443
4040,50.0,0.00639469799933,4454
4050,50.0,0.00641094799926,4465
4060,50.0,0.00642591599922,4476
4070,50.0,0.00644216699925,4487
4080,50.0,0.0064588459993,4498
4090,50.0,0.00648108399935,4509
4100,50.0,0.00649861699935,4520
4110,51.0,0.00651529599941,4531
4120,51.0,0.00653924499932,4542
4130,51.0,0.00656019999929,4553
4140,51.0,0.00657987199918,4564
4150,51.0,0.00659826099911,4575
4160,51.0,0.00661493899906,4586
4170,51.0,0.00663204599903,4597
4180,51.0,0.00665086299898,4608
4190,51.0,0.00666625799897,4619
4200,51.0,0.00667951499906,4630
4210,51.0,0.00670645699904,4641
4220,51.0,0.00672954999902,4652
4230,51.0,0.00676034099899,4663
4240,51.0,0.00677872999904,4674
4250,51.0,0.00680053999906,4685
4260,51.0,0.006818928999,4696
4270,51.0,0.00683389699896,4707
4280,51.0,0.00684843799888,4718
4290,51.0,0.0068625509989,4729
4300,52.0,0.00687538099885,4740
4310,52.0,0.00689163199888,4751
4320,52.0,0.00690873799886,4762
4330,52.0,0.00693567999883,4773
4340,52.0,0.00695748999885,4784
4350,52.0,0.00697374099889,4795
4360,52.0,0.00698999199892,4806
4370,52.0,0.00700538699891,4817
4380,52.0,0.00701949899883,4828
4390,52.0,0.00703745999886,4839
4400,52.0,0.00705755999888,4850
4410,52.0,0.00707423899883,4861
4420,52.0,0.00708835199885,4872
4430,52.0,0.0071028919989,4883
4440,52.0,0.0071165769989,4894
4450,52.0,0.0071323999988,4905
4460,52.0,0.00714865099883,4916
4470,52.0,0.00716276399874,4927
4480,52.0,0.00718115299867,4938
4490,52.0,0.00719697599868,4949
4500,52.0,0.00720852299867,4960
4510,52.0,0.00722862199871,4971
4520,54.0,0.0072461559987,4982
4530,54.0,0.00726112399866,4993
4540,54.0,0.00727480899866,5004
4550,55.0,0.00728977699862,5015
4560,55.0,0.00730773799864,5026
4570,55.0,0.00732142299864,5037
4580,55.0,0.00733553499867,5048
4590,55.0,0.00735050299863,5059
4600,55.0,0.00736675399867,5070
4610,55.0,0.00738514299871,5081
4620,55.0,0.0074005389987,5092
4630,55.0,0.00741978399867,5103
4640,55.0,0.00743560699868,5114
4650,55.0,0.00745271299877,5125
4660,55.0,0.00746810799887,5136
4670,55.0,0.00748350299887,5147
4680,55.0,0.00749846999884,5158
4690,55.0,0.00751215399885,5169
4700,55.0,0.00752754999883,5180
4710,55.0,0.00754294499882,5191
4720,55.0,0.00756518299886,5202
4730,55.0,0.00758613799883,5213
4740,55.0,0.00760110599879,5224
4750,55.0,0.00761564599884,5235
4760,55.0,0.00762975799887,5246
4770,55.0,0.0076460089989,5257
4780,55.0,0.00766867499885,5268
4790,55.0,0.00769091299878,5279
4800,55.0,0.00770887499868,5290
4810,55.0,0.00772598199865,5301
4820,55.0,0.00774693699861,5312
4830,55.0,0.00776318799865,5323
4840,55.0,0.00777986699859,5334
4850,55.0,0.00779483499866,5345
4860,55.0,0.00780766499861,5356
4870,55.0,0.00782134899862,5367
4880,55.0,0.0078367449986,5378
4890,55.0,0.00785299599863,5389
4900,55.0,0.00786668099863,5400
4910,55.0,0.00788207599862,5411
4920,55.0,0.0078970439987,5422
4930,55.0,0.00791457799869,5433
4940,55.0,0.00792697999862,5444
4950,55.0,0.00794066499861,5455
4960,55.0,0.00795605999861,5466
4970,55.0,0.00797017199864,5477
4980,55.0,0.00798770599863,5488
4990,55.0,0.00800523999862,5499
