it,funval,time,funcount
0,16.0,0.000606839999932,571
10,16.0,0.0012218039999,1050
20,15.0,0.00184061799985,1537
30,15.0,0.00253512599988,2012
40,15.0,0.00315949899982,2498
50,19.0,0.00378301699982,2985
60,19.0,0.00440011999979,3469
70,19.0,0.00503047999973,3948
80,20.0,0.00565570899983,4424
90,20.0,0.00633182799982,4911
100,20.0,0.00696347099984,5393
110,23.0,0.00761008199981,5880
120,23.0,0.00822804099982,6355
130,23.0,0.00885669099989,6836
140,23.0,0.00948191999987,7316
150,26.0,0.0101529079999,7798
160,27.0,0.0107695839999,8290
170,28.0,0.0114418539999,8773
180,28.0,0.012064089,9254
190,28.0,0.012697871,9730
200,29.0,0.013332508,10220
210,28.0,0.013970138,10695
220,29.0,0.014608623,11174
230,29.0,0.015260366,11660
240,29.0,0.015897142,12145
250,28.0,0.0165240809999,12616
260,29.0,0.0171488819999,13092
270,29.0,0.0177826639998,13572
280,29.0,0.0184468089998,14064
290,29.0,0.0190848669998,14539
300,29.0,0.0197216419998,15023
310,30.0,0.0204302629998,15496
320,32.0,0.0210623339998,15989
330,30.0,0.0216867069998,16473
340,30.0,0.0223115079999,16969
350,30.0,0.022955553,17452
360,30.0,0.0236196980001,17929
370,30.0,0.024252624,18407
380,30.0,0.024911209,18891
390,30.0,0.02566174,19376
400,30.0,0.026284402,19863
410,30.0,0.0269087749999,20363
420,31.0,0.0277375669999,20839
430,32.0,0.028388027,21319
440,32.0,0.029043619,21799
450,32.0,0.029676117,22280
460,32.0,0.0303009180001,22765
470,32.0,0.0309312790001,23252
480,32.0,0.0315530860001,23727
490,32.0,0.0321783150001,24208
500,35.0,0.0328437430002,24677
510,35.0,0.0334664060002,25158
520,35.0,0.0341040370002,25634
530,35.0,0.0347339690003,26115
540,35.0,0.0354306150003,26597
550,35.0,0.0360968980003,27076
560,35.0,0.0367584770004,27552
570,38.0,0.0375141390005,28029
580,39.0,0.0382343070005,28525
590,39.0,0.0388869060005,29014
600,39.0,0.0395339440005,29495
610,39.0,0.0401754240005,29976
620,39.0,0.0408032180005,30458
630,44.0,0.0414335780006,30946
640,43.0,0.0420793340006,31433
650,43.0,0.0427434790006,31911
660,43.0,0.0435158200006,32391
670,43.0,0.0441688460006,32866
680,43.0,0.0448188780007,33347
690,43.0,0.0454894380007,33844
700,43.0,0.0461364770007,34318
710,43.0,0.0468202940007,34816
720,43.0,0.0474515100007,35300
730,43.0,0.0480951280007,35789
740,44.0,0.0487378900007,36273
750,43.0,0.0493763760007,36761
760,43.0,0.0500084470008,37241
770,43.0,0.0506589070008,37727
780,43.0,0.0513320320007,38196
790,48.0,0.0519794980006,38690
800,44.0,0.0526303850006,39174
810,43.0,0.0532671600006,39658
820,43.0,0.0539120610006,40135
830,44.0,0.0545706460006,40616
840,44.0,0.0552608780005,41102
850,44.0,0.0559049230005,41588
860,44.0,0.0565528170005,42070
870,44.0,0.0572131130004,42553
880,44.0,0.0578755470004,43026
890,45.0,0.0585230130005,43523
900,44.0,0.0591957110005,43992
910,45.0,0.0599372610005,44465
920,45.0,0.0606304860005,44952
930,45.0,0.0612882160005,45433
940,45.0,0.0619994030005,45916
950,45.0,0.0626357510005,46391
960,45.0,0.0632862110004,46880
970,45.0,0.0639268350004,47367
980,45.0,0.0645683150004,47846
990,46.0,0.0652029520004,48333
1000,46.0,0.0658499900004,48821
1010,46.0,0.0665406500004,49301
1020,46.0,0.0671804190005,49779
1030,49.0,0.0678146280004,50262
1040,47.0,0.0684680820004,50750
1050,49.0,0.0691099890005,51228
1060,50.0,0.0697634430005,51717
1070,49.0,0.0704391350005,52200
1080,49.0,0.0711721320005,52693
1090,49.0,0.0718311450005,53177
1100,54.0,0.0724585120005,53650
1110,54.0,0.0730828850005,54129
1120,52.0,0.0737072590005,54607
1130,55.0,0.0743825230005,55088
1140,50.0,0.0750210090005,55580
1150,50.0,0.0756620610005,56063
1160,52.0,0.0762941320004,56545
1170,56.0,0.0769326180005,57030
1180,56.0,0.0775591300005,57511
1190,56.0,0.0782104460005,58007
1200,55.0,0.0788626160005,58472
1210,56.0,0.0798466450005,58963
1220,55.0,0.0805522730005,59440
1230,55.0,0.0811890480005,59918
1240,56.0,0.0818271060006,60410
1250,55.0,0.0825250360006,60900
1260,56.0,0.0831951680005,61385
1270,56.0,0.0838340820005,61859
1280,56.0,0.0844725680005,62338
1290,56.0,0.0851072050006,62818
1300,56.0,0.0857439810005,63306
1310,56.0,0.0863760520006,63787
1320,56.0,0.0870277950006,64269
1330,56.0,0.0876992100006,64747
1340,58.0,0.0883193060006,65241
1350,58.0,0.0889834510006,65727
1360,58.0,0.0896570040005,66199
1370,56.0,0.0902989110004,66694
1380,56.0,0.0909378250004,67184
1390,56.0,0.0915703240005,67662
1400,58.0,0.0921981180005,68139
1410,57.0,0.0928575590005,68625
1420,57.0,0.0935058810005,69108
1430,56.0,0.0941811450006,69582
1440,58.0,0.0948666730005,70058
1450,57.0,0.0955402260006,70531
1460,56.0,0.0962300300006,71000
1470,56.0,0.0968689440006,71489
1480,56.0,0.0975412140006,71978
1490,56.0,0.0981805550006,72470
1500,58.0,0.0988275940006,72962
1510,56.0,0.0994673620006,73445
1520,56.0,0.100104137001,73933
1530,56.0,0.100755025001,74405
1540,57.0,0.101385813001,74885
1550,57.0,0.102034563001,75365
1560,56.0,0.102679891001,75847
1570,56.0,0.103317522001,76329
1580,56.0,0.103941039001,76809
1590,56.0,0.104616731001,77296
1600,56.0,0.105287290001,77772
1610,56.0,0.105971107001,78259
1620,56.0,0.106630976001,78744
1630,62.0,0.107271600001,79218
1640,58.0,0.107905809001,79689
1650,60.0,0.108552420001,80176
1660,62.0,0.109179786001,80646
1670,62.0,0.109832385001,81127
1680,60.0,0.110473009001,81608
1690,58.0,0.111133305001,82104
1700,58.0,0.111811135001,82592
1710,60.0,0.112453470001,83067
1720,61.0,0.113120609001,83549
1730,58.0,0.113795873001,84041
1740,60.0,0.114442056001,84516
1750,58.0,0.115063008001,85009
1760,58.0,0.115698928001,85491
1770,58.0,0.116326295001,85974
1780,63.0,0.116961787001,86450
1790,63.0,0.117609253001,86934
1800,64.0,0.118260140001,87409
1810,63.0,0.118909745001,87878
1820,63.0,0.119586719001,88367
1830,63.0,0.120240600001,88852
1840,63.0,0.120901751001,89341
1850,63.0,0.121556915001,89822
1860,63.0,0.122206948001,90300
1870,63.0,0.122853559001,90775
1880,63.0,0.123533528001,91249
1890,63.0,0.124225470001,91738
1900,64.0,0.124897741001,92212
1910,64.0,0.125542214001,92691
1920,69.0,0.126179845001,93164
1930,69.0,0.126852115001,93644
1940,65.0,0.127528662001,94134
1950,64.0,0.128188530001,94619
1960,64.0,0.128830437001,95104
1970,64.0,0.129468067001,95580
1980,66.0,0.130105697001,96074
1990,66.0,0.130792935001,96556
2000,66.0,0.131427572001,97047
2010,67.0,0.132421864001,97541
2020,66.0,0.133086864001,98037
2030,66.0,0.133733048001,98522
2040,67.0,0.134382225001,99021
2050,72.0,0.135043805001,99502
2060,72.0,0.135690843001,99979
2070,71.0,0.136691551001,100460
2080,72.0,0.137333459001,100953
2090,72.0,0.137982636001,101429
2100,72.0,0.138654051001,101899
2110,68.0,0.139315202001,102383
2120,70.0,0.139967373001,102870
2130,68.0,0.140633228001,103373
2140,68.0,0.141284971001,103858
2150,68.0,0.141931154001,104356
2160,68.0,0.142780900001,104833
2170,68.0,0.143422379001,105314
2180,68.0,0.144089518001,105807
2190,70.0,0.144986306001,106285
2200,69.0,0.145648740001,106767
2210,70.0,0.146321439001,107254
2220,70.0,0.146977459001,107725
2230,70.0,0.147637755001,108195
2240,69.0,0.148272820001,108685
2250,72.0,0.148936110001,109165
2260,73.0,0.149589991001,109632
2270,70.0,0.150222062001,110103
2280,68.0,0.150961474001,110585
2290,68.0,0.151628612001,111070
2300,72.0,0.152284204001,111541
2310,72.0,0.152937657001,112016
2320,70.0,0.153594104001,112491
2330,70.0,0.154237722001,112964
2340,70.0,0.154878774001,113447
2350,68.0,0.155528379001,113922
2360,70.0,0.156157456001,114411
2370,70.0,0.156836997001,114898
2380,70.0,0.157492588001,115384
2390,70.0,0.158259370001,115882
2400,70.0,0.158907264001,116363
2410,70.0,0.159545322001,116850
2420,70.0,0.160183380001,117344
2430,72.0,0.160856933001,117823
2440,70.0,0.161489859001,118289
2450,70.0,0.162170682001,118781
2460,70.0,0.162817293001,119255
2470,71.0,0.163454496001,119731
2480,70.0,0.164971381001,120219
2490,70.0,0.165646645001,120693
2500,70.0,0.171597007001,121178
2510,71.0,0.172255593001,121658
2520,71.0,0.172898783001,122137
2530,71.0,0.173617240001,122626
2540,71.0,0.174270693001,123102
2550,71.0,0.174926712001,123584
2560,70.0,0.175575889001,124064
2570,71.0,0.176220790001,124559
2580,71.0,0.176888784001,125031
2590,71.0,0.177546086001,125514
2600,71.0,0.178196973001,125997
2610,71.0,0.178836314001,126489
2620,72.0,0.179529539001,126983
2630,72.0,0.180199243001,127464
2640,72.0,0.180888192001,127965
2650,72.0,0.181526678002,128450
2660,71.0,0.182184409002,128940
2670,71.0,0.182845133002,129428
2680,71.0,0.183515265002,129907
2690,71.0,0.185100147002,130395
2700,71.0,0.185772418002,130886
2710,72.0,0.186414753001,131376
2720,71.0,0.187051529001,131853
2730,72.0,0.187723372002,132340
2740,72.0,0.188367845001,132814
2750,72.0,0.189012318001,133295
2760,72.0,0.189665344001,133786
2770,72.0,0.190332483001,134270
2780,72.0,0.190981232001,134752
2790,71.0,0.191635541001,135237
2800,72.0,0.192286429001,135714
2810,72.0,0.192948436001,136196
2820,75.0,0.193612153001,136673
2830,74.0,0.194331893001,137162
2840,75.0,0.195005446001,137648
2850,75.0,0.195660183001,138128
2860,75.0,0.196307649001,138604
2870,76.0,0.196946990001,139082
2880,78.0,0.197605148001,139569
2890,75.0,0.198258174001,140053
2900,75.0,0.198898370001,140533
2910,75.0,0.199579194001,141013
2920,76.0,0.200214686001,141493
2930,75.0,0.200892516001,141971
2940,78.0,0.201590873001,142446
2950,78.0,0.202221661001,142932
2960,75.0,0.202872121001,143420
2970,78.0,0.203506330001,143885
2980,78.0,0.204224359001,144381
2990,78.0,0.204859851001,144867
3000,75.0,0.205508601001,145350
3010,75.0,0.206154357001,145858
3020,75.0,0.206796692001,146343
3030,75.0,0.207449718001,146824
3040,75.0,0.208090342001,147310
3050,75.0,0.208746789001,147799
3060,75.0,0.209409651001,148287
3070,77.0,0.210069092001,148780
3080,78.0,0.210705440001,149256
3090,78.0,0.211351195001,149744
3100,79.0,0.211986259001,150233
3110,79.0,0.212664944002,150715
3120,79.0,0.213319681002,151202
3130,79.0,0.213986392002,151680
3140,79.0,0.214625305002,152158
3150,79.0,0.215305273001,152643
3160,79.0,0.215957016001,153122
3170,79.0,0.216612180001,153606
3180,80.0,0.217450380001,154098
3190,79.0,0.218090149001,154577
3200,79.0,0.218732912001,155062
3210,79.0,0.219402188001,155543
3220,79.0,0.220033831001,156028
3230,79.0,0.220687713001,156497
3240,79.0,0.221346726001,156979
3250,79.0,0.221995476001,157468
3260,80.0,0.222642087001,157956
3270,80.0,0.223323338001,158447
3280,79.0,0.223980212001,158926
3290,79.0,0.224661463001,159413
3300,80.0,0.225304653001,159900
3310,80.0,0.226001727001,160384
3320,79.0,0.226843348001,160865
3330,79.0,0.227504927001,161348
3340,79.0,0.228163084001,161818
3350,79.0,0.228797720001,162303
3360,79.0,0.229424231001,162785
3370,79.0,0.230085382001,163277
3380,79.0,0.230732421001,163765
3390,79.0,0.231377321001,164247
3400,79.0,0.232023504001,164721
3410,79.0,0.232686793001,165193
3420,79.0,0.233321858001,165678
3430,82.0,0.233955640001,166175
3440,79.0,0.234594126001,166657
3450,82.0,0.235230474001,167148
3460,79.0,0.235863400001,167629
3470,79.0,0.236509156001,168113
3480,79.0,0.237207085001,168607
3490,82.0,0.237852841001,169080
3500,79.0,0.238498597001,169567
3510,79.0,0.239131951001,170050
3520,82.0,0.239789682001,170541
3530,83.0,0.240435438001,171021
3540,79.0,0.241154322001,171499
3550,89.0,0.241794519001,171983
3560,89.0,0.242445835001,172471
3570,91.0,0.243084748001,172961
3580,91.0,0.243734781001,173446
3590,91.0,0.244412611001,173933
3600,94.0,0.245058794001,174417
3610,95.0,0.245776823001,174893
3620,94.0,0.246425144001,175374
3630,91.0,0.247090144001,175847
3640,91.0,0.247750868001,176329
3650,91.0,0.248391064001,176826
3660,91.0,0.249047083001,177307
3670,91.0,0.249747578001,177790
3680,87.0,0.250398466001,178268
3690,91.0,0.251082710001,178761
3700,91.0,0.251759684001,179243
3710,96.0,0.252415704001,179717
3720,91.0,0.253090540001,180193
3730,91.0,0.253735013001,180668
3740,91.0,0.254400869001,181154
3750,91.0,0.255042776001,181648
3760,91.0,0.255679979001,182139
3770,91.0,0.256356954001,182628
3780,91.0,0.257007414001,183111
3790,91.0,0.257687382001,183606
3800,91.0,0.258359225001,184094
3810,91.0,0.259023370001,184580
3820,91.0,0.259672974001,185062
3830,91.0,0.260322579001,185540
3840,91.0,0.260986296001,186023
3850,91.0,0.261614518001,186506
3860,91.0,0.262250438001,186970
3870,91.0,0.262904747001,187452
3880,91.0,0.263562477001,187926
3890,91.0,0.264230898001,188403
3900,91.0,0.264922413001,188892
3910,91.0,0.265631889001,189372
3920,91.0,0.266395677001,189856
3930,91.0,0.267127391001,190342
3940,91.0,0.267842426001,190830
3950,92.0,0.268563448001,191309
3960,91.0,0.269289602001,191786
3970,92.0,0.269999506001,192269
3980,92.0,0.270705133001,192747
3990,92.0,0.271506982001,193224
4000,92.0,0.272228005001,193712
4010,92.0,0.273021728001,194184
4020,92.0,0.273739757001,194664
4030,92.0,0.274456075001,195160
4040,91.0,0.275188217002,195645
4050,91.0,0.276087144002,196126
4060,92.0,0.276749578002,196613
4070,92.0,0.277397044002,197110
4080,92.0,0.278044083002,197602
4090,92.0,0.278727900002,198082
4100,92.0,0.279385630002,198571
4110,92.0,0.280028392002,199048
4120,94.0,0.280724611002,199549
4130,92.0,0.281378065001,200023
4140,95.0,0.282022110002,200501
4150,95.0,0.282675136002,200988
4160,92.0,0.283353821002,201461
4170,92.0,0.284023098002,201937
4180,92.0,0.284695368002,202420
4190,93.0,0.285377902002,202905
4200,93.0,0.286016816002,203392
4210,93.0,0.286693791002,203875
4220,93.0,0.287341685002,204359
4230,92.0,0.288002837001,204843
4240,92.0,0.288672969001,205336
4250,92.0,0.289334548002,205828
4260,93.0,0.289983725002,206307
4270,95.0,0.290654712001,206789
4280,93.0,0.291323561001,207284
4290,92.0,0.291996259002,207756
4300,92.0,0.292724980002,208243
4310,92.0,0.293517421002,208718
4320,92.0,0.294208080002,209197
4330,92.0,0.294861106002,209684
4340,92.0,0.296184264002,210167
4350,92.0,0.296844560002,210644
4360,92.0,0.297506139002,211131
4370,92.0,0.298156599002,211612
4380,92.0,0.298971706002,212080
4390,92.0,0.299625159002,212556
4400,92.0,0.300290160002,213040
4410,92.0,0.300941475002,213521
4420,92.0,0.301611607002,213991
4430,93.0,0.302328781002,214471
4440,92.0,0.303289717002,214947
4450,92.0,0.303980377002,215425
4460,92.0,0.304768541002,215907
4470,92.0,0.305445088002,216393
4480,92.0,0.306102391002,216864
4490,92.0,0.306954276002,217357
4500,92.0,0.307612434002,217833
4510,93.0,0.308417705002,218326
4520,92.0,0.309088265002,218818
4530,92.0,0.309775931002,219300
4540,92.0,0.310456755002,219784
4550,93.0,0.311109781002,220265
4560,92.0,0.311777775002,220758
4570,92.0,0.312672852002,221243
4580,92.0,0.313350682002,221738
4590,92.0,0.314035782002,222204
4600,92.0,0.314908622002,222689
4610,91.0,0.315579609002,223167
4620,91.0,0.316254445002,223649
4630,91.0,0.316920301002,224114
4640,91.0,0.317602835002,224590
4650,91.0,0.318276388002,225091
4660,91.0,0.318958494002,225566
4670,91.0,0.319623494002,226057
4680,91.0,0.320277803002,226531
4690,91.0,0.320956488002,227010
4700,93.0,0.321608231002,227497
4710,92.0,0.322256981002,227970
4720,91.0,0.322947640002,228459
4730,91.0,0.323607509002,228952
4740,93.0,0.324250272002,229443
4750,91.0,0.324910141002,229931
4760,93.0,0.325558891002,230418
4770,91.0,0.326805927002,230897
4780,91.0,0.327478625002,231398
4790,93.0,0.328148757002,231874
4800,93.0,0.328840272002,232360
4810,93.0,0.329509121002,232852
4820,93.0,0.330159581002,233342
4830,93.0,0.330818594002,233826
4840,96.0,0.331547315002,234299
4850,93.0,0.332328637002,234770
4860,93.0,0.332973965002,235264
4870,96.0,0.333609457002,235748
4880,96.0,0.334313374002,236237
4890,96.0,0.334977519002,236721
4900,96.0,0.335631828002,237204
4910,96.0,0.336268604002,237693
4920,96.0,0.336907090002,238177
4930,96.0,0.337548569002,238660
4940,96.0,0.338188765002,239137
4950,96.0,0.338846923002,239610
4960,96.0,0.339523897002,240107
4970,96.0,0.340187187002,240604
4980,96.0,0.340847911002,241090
4990,96.0,0.341507352002,241580
