it,funval,time,funcount
0,28.0,0.000190732999982,425
10,30.0,0.000392584999986,751
20,35.0,0.000593581999993,1087
30,31.0,0.000816388999993,1426
40,29.0,0.00102465599997,1766
50,28.0,0.00122351399997,2108
60,31.0,0.00141638499997,2439
70,34.0,0.00161096699998,2772
80,35.0,0.00180469299997,3102
90,35.0,0.00203434299996,3431
100,35.0,0.00223576799996,3763
110,35.0,0.00243120599995,4098
120,35.0,0.00263134699995,4433
130,35.0,0.00283661999995,4772
140,35.0,0.00304061099993,5108
150,35.0,0.00325016099993,5452
160,35.0,0.00344901899993,5789
170,35.0,0.00367866799994,6123
180,35.0,0.00398315599992,6459
190,35.0,0.0041918499999,6791
200,35.0,0.00442149999989,7121
210,35.0,0.00462634499991,7450
220,35.0,0.00482862499993,7788
230,35.0,0.00505442599993,8123
240,35.0,0.00525627899995,8460
250,35.0,0.00545855899998,8798
260,35.0,0.00567323999999,9127
270,35.0,0.005894764,9457
280,35.0,0.00610859100001,9792
290,35.0,0.00632113400002,10133
300,35.0,0.00652598000002,10462
310,35.0,0.006734674,10798
320,35.0,0.006943796,11141
330,35.0,0.00715633999999,11475
340,35.0,0.00737486999998,11804
350,35.0,0.00757672199998,12129
360,35.0,0.00778071299996,12474
370,35.0,0.00797999899996,12818
380,35.0,0.00819596399995,13147
390,35.0,0.00839824399995,13486
400,35.0,0.00860137899994,13813
410,35.0,0.00879424999994,14143
420,35.0,0.00901320799994,14466
430,35.0,0.00922660699993,14818
440,35.0,0.00942546499991,15153
450,35.0,0.00963373199991,15498
460,35.0,0.00984114399992,15823
470,35.0,0.0100421409999,16163
480,35.0,0.0102388609999,16499
490,35.0,0.0104437069999,16840
500,35.0,0.0106575329999,17169
510,35.0,0.0108657999999,17513
520,35.0,0.0110886069999,17850
530,35.0,0.0113062819999,18189
540,35.0,0.0115034299999,18518
550,35.0,0.011723671,18858
560,35.0,0.011925523,19194
570,35.0,0.012136356,19520
580,35.0,0.01471553,19852
590,35.0,0.0149263629999,20196
600,35.0,0.015142328,20530
610,35.0,0.015351878,20867
620,35.0,0.015549454,21200
630,35.0,0.015761142,21534
640,35.0,0.0159565789999,21860
650,35.0,0.016178531,22195
660,35.0,0.0163893639999,22537
670,35.0,0.0165929259999,22866
680,35.0,0.0167896459999,23191
690,35.0,0.0169902159999,23528
700,35.0,0.0171933509999,23853
710,35.0,0.0174234279999,24178
720,35.0,0.0176291289999,24513
730,35.0,0.0178194349999,24848
740,35.0,0.0180165829999,25183
750,35.0,0.0182068889999,25507
760,35.0,0.0183984769999,25835
770,35.0,0.0185960519999,26162
780,35.0,0.0188107339999,26496
790,35.0,0.0190087369999,26834
800,35.0,0.0192319709999,27172
810,35.0,0.0194509289999,27523
820,35.0,0.0196981129999,27861
830,35.0,0.0198973989999,28199
840,35.0,0.020088132,28533
850,35.0,0.0202895559999,28868
860,35.0,0.0205192059999,29192
870,35.0,0.0207394469999,29536
880,35.0,0.0209549839999,29867
890,35.0,0.0211482829999,30214
900,35.0,0.021341582,30550
910,35.0,0.021553698,30901
920,35.0,0.021750418,31240
930,35.0,0.021951843,31580
940,35.0,0.0221857689999,31913
950,35.0,0.022386766,32259
960,35.0,0.022643358,32587
970,35.0,0.022873436,32918
980,35.0,0.02310052,33245
990,35.0,0.023303227,33577
1000,35.0,0.0235782079999,33915
1010,35.0,0.0238531889999,34251
1020,35.0,0.0240734309999,34590
1030,35.0,0.0243287399999,34917
1040,35.0,0.0245926009999,35243
1050,35.0,0.0248423509999,35579
1060,35.0,0.0250621639999,35907
1070,35.0,0.0252721409999,36255
1080,35.0,0.0255176139999,36593
1090,35.0,0.0257139069999,36930
1100,35.0,0.0259200359999,37250
1110,35.0,0.0261385669999,37597
1120,35.0,0.0263605189999,37931
1130,35.0,0.0265700689999,38271
1140,35.0,0.0267933039999,38606
1150,35.0,0.027009697,38943
1160,35.0,0.02723678,39288
1170,35.0,0.0274309339999,39621
1180,35.0,0.0276417669999,39961
1190,35.0,0.0278449019999,40300
1200,35.0,0.0280514589999,40641
1210,35.0,0.0282665679999,40970
1220,35.0,0.0285039149999,41303
1230,35.0,0.0287061939999,41645
1240,35.0,0.0289037699999,41983
1250,35.0,0.0291637829999,42310
1260,35.0,0.0293609309999,42642
1270,35.0,0.0295850219999,42961
1280,35.0,0.0298198039999,43292
1290,35.0,0.0300430389999,43618
1300,35.0,0.0302500229999,43964
1310,35.0,0.0304570069999,44296
1320,35.0,0.0306639909999,44627
1330,35.0,0.0308778179999,44956
1340,35.0,0.0310882239999,45295
1350,35.0,0.0312862279999,45633
1360,35.0,0.0315402539999,45962
1370,35.0,0.0317425339999,46310
1380,35.0,0.0319469519999,46651
1390,35.0,0.0321453829999,46988
1400,35.0,0.0323480909999,47327
1410,35.0,0.0325469489999,47661
1420,35.0,0.0327492289999,47999
1430,35.0,0.0329643389999,48332
1440,35.0,0.0332004029999,48671
1450,35.0,0.0334061039999,49004
1460,35.0,0.0336105229999,49336
1470,35.0,0.0338273429998,49677
1480,35.0,0.0340454459998,50007
1490,35.0,0.0342656869998,50343
1500,35.0,0.0344872109999,50668
1510,35.0,0.0347036029999,51001
1520,35.0,0.0349135809998,51328
1530,35.0,0.0351517839998,51668
1540,35.0,0.0353562019998,52009
1550,35.0,0.0355597649998,52349
1560,35.0,0.0357624719998,52679
1570,35.0,0.0359668899998,53013
1580,35.0,0.0362375939998,53347
1590,34.0,0.0364492819998,53678
1600,35.0,0.0366532719999,54012
1610,35.0,0.0368683809999,54348
1620,35.0,0.0370706609999,54677
1630,35.0,0.0372695199999,55007
1640,35.0,0.0374786419999,55329
1650,35.0,0.0376851979999,55667
1660,35.0,0.0378981689999,56009
1670,35.0,0.0381055809999,56344
1680,35.0,0.0383091429999,56681
1690,35.0,0.0385195479998,57002
1700,35.0,0.0387530469998,57341
1710,35.0,0.0389596029999,57684
1720,35.0,0.0391768509998,58025
1730,35.0,0.0394159089998,58349
1740,35.0,0.0396151949999,58676
1750,35.0,0.0398221789999,59005
1760,35.0,0.0400304459999,59341
1770,35.0,0.0402301599999,59675
1780,35.0,0.0404602369999,60009
1790,35.0,0.0406809059999,60345
1800,35.0,0.0408827579999,60682
1810,35.0,0.0410893139999,61009
1820,35.0,0.0412894549999,61349
1830,35.0,0.0414964389998,61673
1840,35.0,0.0417008569999,62011
1850,35.0,0.0419014259998,62339
1860,35.0,0.0421114029998,62668
1870,35.0,0.0423252289998,63005
1880,35.0,0.0425377729999,63331
1890,35.0,0.0427366309999,63668
1900,35.0,0.0429367719999,64000
1910,35.0,0.0431352029999,64343
1920,35.0,0.0433691289999,64679
1930,35.0,0.0435748299999,65009
1940,35.0,0.0437749709999,65350
1950,35.0,0.0439883699999,65691
1960,35.0,0.0442077559998,66029
1970,35.0,0.0444250029999,66370
1980,35.0,0.0446336969999,66712
1990,35.0,0.0448351209998,67045
2000,35.0,0.0450450989999,67385
2010,35.0,0.0452482339998,67718
2020,35.0,0.0454453819999,68051
2030,35.0,0.0456493719998,68393
2040,35.0,0.0458426709998,68717
2050,35.0,0.0460359699998,69048
2060,35.0,0.0462399609998,69384
2070,35.0,0.0464448059998,69713
2080,35.0,0.0466616259998,70035
2090,35.0,0.0468763079998,70368
2100,35.0,0.0470747389998,70703
2110,35.0,0.0472774469998,71038
2120,35.0,0.0475036759998,71362
2130,35.0,0.0477192129998,71700
2140,35.0,0.0479338939998,72031
2150,35.0,0.0481477209998,72369
2160,35.0,0.0483457239998,72705
2170,35.0,0.0485432999998,73045
2180,35.0,0.0487558429998,73376
2190,35.0,0.0489688139998,73716
2200,35.0,0.0491582649998,74050
2210,35.0,0.0493460039998,74374
2220,35.0,0.0495559809998,74693
2230,35.0,0.0497642479998,75038
2240,35.0,0.0499703769998,75375
2250,35.0,0.0501867689998,75701
2260,35.0,0.0503911869998,76036
2270,35.0,0.0505930389998,76375
2280,35.0,0.0508034439998,76709
2290,35.0,0.0510005919998,77037
2300,35.0,0.0512191229998,77380
2310,35.0,0.0514239679999,77724
2320,35.0,0.0516313799999,78065
2330,35.0,0.0518366539999,78393
2340,35.0,0.0520367959998,78729
2350,35.0,0.0522424969999,79074
2360,35.0,0.0524593169999,79418
2370,35.0,0.0526641629998,79742
2380,35.0,0.0528809829998,80080
2390,35.0,0.0530999419998,80418
2400,35.0,0.0533154789998,80755
2410,35.0,0.0535254559998,81086
2420,35.0,0.0537756329998,81430
2430,35.0,0.0540035719998,81760
2440,35.0,0.0542670059998,82099
2450,35.0,0.0544915239998,82443
2460,35.0,0.0546980799998,82777
2470,35.0,0.0549328619998,83106
2480,35.0,0.0551629389998,83445
2490,35.0,0.0553836079997,83768
2500,35.0,0.0556111199998,84097
2510,35.0,0.0558446179998,84437
2520,35.0,0.0560554509998,84777
2530,34.0,0.0563654999998,85114
2540,35.0,0.0565716289998,85439
2550,35.0,0.0567816069998,85769
2560,35.0,0.0570091179998,86097
2570,35.0,0.0572212339998,86431
2580,35.0,0.0574414749998,86774
2590,35.0,0.0576595779998,87114
2600,35.0,0.0578994909997,87448
2610,35.0,0.0581171659997,87780
2620,35.0,0.0583391179997,88103
2630,35.0,0.0585542269997,88430
2640,35.0,0.0587547969998,88757
2650,35.0,0.0589805979997,89092
2660,35.0,0.0592145239997,89432
2670,35.0,0.0594364749997,89749
2680,35.0,0.0596396109997,90084
2690,35.0,0.0598688329997,90423
2700,35.0,0.0601463799997,90763
2710,35.0,0.0604085309997,91104
2720,35.0,0.0606035409997,91434
2730,35.0,0.0607981229996,91773
2740,35.0,0.0609944159996,92110
2750,35.0,0.0612146569996,92458
2760,35.0,0.0614306219996,92795
2770,35.0,0.0616512909996,93124
2780,35.0,0.0618693939996,93458
2790,35.0,0.0620776609996,93793
2800,35.0,0.0622812239996,94124
2810,35.0,0.0624852149996,94463
2820,35.0,0.0626994689996,94800
2830,35.0,0.0629162889996,95145
2840,35.0,0.0631519259996,95482
2850,35.0,0.0633678909996,95813
2860,35.0,0.0636013899996,96148
2870,35.0,0.0638070909996,96487
2880,35.0,0.0640234829996,96812
2890,35.0,0.0642326049996,97159
2900,35.0,0.0644596889996,97501
2910,35.0,0.0646658169996,97837
2920,35.0,0.0648822089996,98173
2930,35.0,0.0651272549997,98509
2940,35.0,0.0653410819997,98831
2950,35.0,0.0655442169997,99168
2960,35.0,0.0657785709996,99509
2970,35.0,0.0659864099996,99845
2980,35.0,0.0661771439996,100182
2990,35.0,0.0663819899997,100523
3000,35.0,0.0665740059997,100859
3010,35.0,0.0667998069997,101212
3020,35.0,0.0670183379997,101529
3030,35.0,0.0672244669996,101863
3040,35.0,0.0674442809997,102186
3050,35.0,0.0676486989997,102521
3060,35.0,0.0678488409997,102863
3070,34.0,0.0680622399997,103206
3080,35.0,0.0682602429997,103533
3090,35.0,0.0684565359997,103859
3100,35.0,0.0686733559997,104188
3110,35.0,0.0688786289997,104519
3120,35.0,0.0691339379997,104850
3130,35.0,0.0693340799997,105180
3140,35.0,0.0695504719997,105512
3150,35.0,0.0697672919997,105847
3160,35.0,0.0699939479997,106178
3170,35.0,0.0702201769997,106516
3180,35.0,0.0704579519997,106846
3190,35.0,0.0706525339997,107185
3200,35.0,0.0708496819997,107514
3210,35.0,0.0710468299997,107854
3220,35.0,0.0712435499998,108184
3230,35.0,0.0714565209998,108528
3240,35.0,0.0716720579998,108853
3250,35.0,0.0718974319998,109187
3260,35.0,0.0721018499998,109526
3270,35.0,0.0723302169999,109873
3280,35.0,0.0725333519999,110203
3290,35.0,0.0727386249999,110534
3300,35.0,0.0729456089999,110858
3310,35.0,0.0731440399999,111189
3320,35.0,0.0733360569999,111535
3330,35.0,0.0735533039999,111873
3340,35.0,0.075904539,112215
3350,35.0,0.076247517,112553
3360,35.0,0.076461344,112896
3370,35.0,0.076673032,113241
3380,35.0,0.076868042,113580
3390,35.0,0.077076309,113906
3400,35.0,0.077277306,114242
3410,35.0,0.077483007,114570
3420,35.0,0.07769384,114896
3430,35.0,0.077911943,115229
3440,35.0,0.078124487,115559
3450,35.0,0.078350288,115880
3460,35.0,0.078547863,116225
3470,35.0,0.078748859,116550
3480,35.0,0.078970811,116888
3490,35.0,0.079182071,117223
3500,35.0,0.0793954689999,117555
3510,35.0,0.0795998869999,117890
3520,35.0,0.0797970349999,118226
3530,35.0,0.0800061569999,118567
3540,35.0,0.0802246879999,118910
3550,35.0,0.0804492049999,119248
3560,35.0,0.0806523399999,119592
3570,35.0,0.0808452109999,119919
3580,35.0,0.0810526229999,120253
3590,35.0,0.0812591789999,120585
3600,35.0,0.0814798479999,120917
3610,35.0,0.0816906809999,121249
3620,35.0,0.0819053629999,121576
3630,35.0,0.0821080709999,121913
3640,35.0,0.0823338709999,122247
3650,35.0,0.0825421379999,122575
3660,35.0,0.0827461279999,122922
3670,35.0,0.0829809089999,123263
3680,35.0,0.0831853269999,123603
3690,35.0,0.0833931669999,123939
3700,35.0,0.0835881759999,124284
3710,35.0,0.0837870349999,124624
3720,35.0,0.0840000059999,124970
3730,35.0,0.0842005759999,125308
3740,35.0,0.0844131189999,125638
3750,35.0,0.0846290829999,125973
3760,35.0,0.0848403439999,126307
3770,35.0,0.0850567359999,126648
3780,35.0,0.0852628649999,126979
3790,35.0,0.0854604409999,127316
3800,35.0,0.0856657149999,127653
3810,35.0,0.0858718439999,127984
3820,35.0,0.0861318569999,128327
3830,35.0,0.0863418349998,128660
3840,35.0,0.0866133949998,128997
3850,35.0,0.0868396229999,129341
3860,35.0,0.0870560159998,129679
3870,35.0,0.0872548739999,130015
3880,35.0,0.0874648509999,130349
3890,35.0,0.0876949289999,130685
3900,35.0,0.0879352699999,131019
3910,35.0,0.0881443919999,131353
3920,35.0,0.0883723309999,131695
3930,35.0,0.0886054019999,132034
3940,35.0,0.0888299189999,132360
3950,35.0,0.0890651279999,132696
3960,35.0,0.089282803,133047
3970,35.0,0.089568048,133384
3980,35.0,0.08979,133709
3990,35.0,0.089996129,134049
4000,35.0,0.090223213,134386
4010,35.0,0.090422499,134720
4020,35.0,0.090630338,135053
4030,35.0,0.090836039,135385
4040,35.0,0.091085361,135723
4050,35.0,0.091314583,136050
4060,35.0,0.091563905,136385
4070,35.0,0.091790133,136720
4080,35.0,0.092051857,137047
4090,35.0,0.09227723,137372
4100,35.0,0.092492339,137710
4110,35.0,0.092687349,138039
4120,35.0,0.092895616,138368
4130,35.0,0.093120134,138703
4140,35.0,0.093353632,139038
4150,35.0,0.093593118,139373
4160,35.0,0.093821057,139711
4170,35.0,0.0940558380001,140042
4180,35.0,0.0942833490001,140361
4190,35.0,0.094481353,140696
4200,35.0,0.094707154,141020
4210,35.0,0.094904729,141343
4220,35.0,0.0951211210001,141669
4230,35.0,0.095328961,141993
4240,35.0,0.095582559,142329
4250,35.0,0.095788688,142663
4260,35.0,0.09599781,142992
4270,35.0,0.09622917,143319
4280,35.0,0.096452405,143650
4290,35.0,0.096682055,143988
4300,35.0,0.096911704,144324
4310,35.0,0.097249122,144666
4320,35.0,0.09745525,144998
4330,35.0,0.097656674,145334
4340,35.0,0.097871356,145672
4350,35.0,0.098108703,146023
4360,35.0,0.0983520379999,146353
4370,35.0,0.0985885299999,146694
4380,35.0,0.0988241669999,147017
4390,35.0,0.099053816,147350
4400,35.0,0.099267215,147673
4410,35.0,0.099503707,148009
4420,35.0,0.0997346399999,148343
4430,35.0,0.099969849,148678
4440,35.0,0.100170418,149018
4450,35.0,0.10039793,149345
4460,35.0,0.100657943,149685
4470,35.0,0.100884171,150019
4480,35.0,0.101095004,150358
4490,35.0,0.101329785,150691
4500,35.0,0.101544039,151034
4510,35.0,0.101754017,151368
4520,35.0,0.101965277,151694
4530,35.0,0.102172688,152030
4540,35.0,0.102401054,152371
4550,35.0,0.102637118,152703
4560,35.0,0.102864202,153034
4570,35.0,0.103082733,153371
4580,35.0,0.103296132,153705
4590,35.0,0.103518084,154037
4600,35.0,0.10374474,154373
4610,35.0,0.103963698,154715
4620,35.0,0.104180945,155039
4630,35.0,0.104377666,155369
4640,35.0,0.104588499,155699
4650,35.0,0.104819003,156031
4660,35.0,0.105034112,156363
4670,35.0,0.105260768,156699
4680,35.0,0.107979358,157044
4690,35.0,0.108205586,157371
4700,35.0,0.108420268,157699
4710,35.0,0.108623403,158029
4720,35.0,0.108833808,158358
4730,35.0,0.109048062,158681
4740,35.0,0.10925077,159024
4750,35.0,0.109461175,159361
4760,35.0,0.109666876,159693
4770,35.0,0.109870438,160027
4780,35.0,0.110105219,160366
4790,35.0,0.110307071,160709
4800,35.0,0.110531589,161044
4810,35.0,0.110752686,161377
4820,35.0,0.110962664,161715
4830,35.0,0.111174352,162045
4840,35.0,0.111373639,162394
4850,35.0,0.111562662,162729
4860,35.0,0.111759382,163056
4870,35.0,0.111961662,163396
4880,35.0,0.112203286,163745
4890,35.0,0.112411553,164083
4900,35.0,0.112636499,164420
4910,35.0,0.112861444,164761
4920,35.0,0.113096225,165094
4930,35.0,0.113324164,165436
4940,35.0,0.113521312,165771
4950,35.0,0.113721025,166113
4960,35.0,0.113925016,166448
4970,35.0,0.1141521,166774
4980,35.0,0.114379184,167101
4990,35.0,0.114593866,167430
