it,funval,time,funcount
0,8.0,0.00115124099966,664
10,8.0,0.00232129899996,1247
20,10.0,0.0034601389998,1829
30,8.0,0.00456006299964,2420
40,8.0,0.00566896699956,3005
50,8.0,0.00685484799942,3590
60,8.0,0.00808862599933,4169
70,8.0,0.00927579099925,4759
80,11.0,0.0104719359992,5337
90,11.0,0.011609920999,5909
100,11.0,0.0127863949992,6487
110,11.0,0.0139727039996,7073
120,11.0,0.0151145369996,7663
130,11.0,0.0162811739997,8249
140,12.0,0.0174828789995,8828
150,11.0,0.0186157319995,9395
160,11.0,0.0198020409994,9988
170,12.0,0.0209789419996,10563
180,12.0,0.0221511389996,11145
190,15.0,0.0233203419994,11708
200,18.0,0.0245331649994,12273
210,18.0,0.0257802009992,12846
220,18.0,0.0269331539994,13413
230,18.0,0.0280873889997,13989
240,18.0,0.0292151099998,14569
250,18.0,0.0303526659995,15132
260,19.0,0.0315257179996,15714
270,19.0,0.0326666959995,16280
280,20.0,0.0339162979994,16865
290,21.0,0.0351120159994,17439
300,21.0,0.0363603349992,18020
310,20.0,0.0375581909993,18600
320,21.0,0.0386581139992,19180
330,20.0,0.0397798479994,19758
340,20.0,0.0409139829994,20334
350,20.0,0.0420147619993,20909
360,21.0,0.043151035999,21494
370,22.0,0.0442727699988,22065
380,23.0,0.0454616449988,22632
390,22.0,0.0466094649987,23215
400,23.0,0.0477833719988,23790
410,23.0,0.0489299099986,24362
420,23.0,0.0500653289987,24947
430,23.0,0.0512003199988,25517
440,23.0,0.0523032369988,26096
450,23.0,0.0535528389987,26689
460,23.0,0.0546822699989,27273
470,24.0,0.0559023629985,27860
480,23.0,0.0571588069984,28443
490,23.0,0.0583990009982,29024
500,24.0,0.0596481749981,29601
510,26.0,0.063407243998,30179
520,26.0,0.064572597998,30765
530,26.0,0.0657721639982,31344
540,27.0,0.0669379459982,31914
550,26.0,0.0680759309985,32491
560,26.0,0.0692130599987,33068
570,26.0,0.0703219639986,33638
580,26.0,0.0714877459986,34222
590,26.0,0.0726047749986,34797
600,26.0,0.0737209489985,35379
610,27.0,0.0749919329983,35962
620,27.0,0.0761252129982,36537
630,27.0,0.0773307669983,37111
640,26.0,0.0784892789984,37682
650,27.0,0.0795990379988,38250
660,27.0,0.080782352999,38828
670,30.0,0.0819951759991,39409
680,27.0,0.0832238229991,39985
690,27.0,0.0843887499991,40575
700,27.0,0.0855925929991,41143
710,27.0,0.0869033499989,41726
720,27.0,0.0881508139992,42308
730,30.0,0.0892789629993,42872
740,30.0,0.0904178029991,43452
750,30.0,0.0917157289991,44035
760,30.0,0.0928648329991,44605
770,30.0,0.094559193999,45192
780,32.0,0.0960970339988,45758
790,30.0,0.0973025879985,46342
800,32.0,0.0984345849988,46932
810,33.0,0.0999074209985,47516
820,32.0,0.101071064999,48092
830,33.0,0.102288164999,48656
840,33.0,0.103593788999,49219
850,34.0,0.105020866999,49784
860,33.0,0.106253361999,50351
870,33.0,0.107410590999,50922
880,33.0,0.108567391999,51497
890,33.0,0.109717350999,52082
900,36.0,0.110884842999,52668
910,34.0,0.112075855999,53244
920,33.0,0.113219399999,53831
930,36.0,0.114390741999,54413
940,37.0,0.115569353999,54972
950,37.0,0.11681639,55540
960,37.0,0.117980889,56117
970,37.0,0.119221083,56716
980,37.0,0.120425354,57302
990,37.0,0.121612946,57888
1000,37.0,0.122791985,58456
1010,36.0,0.123909442,59048
1020,36.0,0.125108580999,59634
1030,36.0,0.126273079999,60217
1040,36.0,0.127398234999,60798
1050,36.0,0.128519967999,61371
1060,36.0,0.129752462999,61951
1070,37.0,0.130959298999,62521
1080,37.0,0.132103697999,63095
1090,37.0,0.133275893999,63668
1100,37.0,0.134487861999,64239
1110,37.0,0.135728910999,64812
1120,37.0,0.136931897999,65387
1130,38.0,0.138113930999,65978
1140,38.0,0.139361394999,66566
1150,38.0,0.140556684999,67137
1160,38.0,0.141782765998,67711
1170,38.0,0.142906209998,68288
1180,38.0,0.144039917998,68874
1190,38.0,0.145206554998,69434
1200,38.0,0.146552805998,70016
1210,38.0,0.147725429998,70597
1220,38.0,0.148922857999,71171
1230,40.0,0.150147655998,71750
1240,40.0,0.151648289998,72324
1250,40.0,0.153219913998,72899
1260,42.0,0.154423328998,73467
1270,38.0,0.155611776998,74050
1280,38.0,0.156912696998,74620
1290,40.0,0.158069497998,75188
1300,39.0,0.159269491998,75766
1310,38.0,0.160486591999,76334
1320,40.0,0.161876463998,76906
1330,40.0,0.163050370998,77480
1340,40.0,0.164260200998,78050
1350,40.0,0.165594049999,78627
1360,42.0,0.166836380999,79201
1370,40.0,0.168041079999,79794
1380,41.0,0.169241501998,80357
1390,40.0,0.172950535999,80945
1400,40.0,0.174144114998,81517
1410,42.0,0.175308613998,82088
1420,40.0,0.176448308998,82666
1430,46.0,0.177616228998,83254
1440,42.0,0.179029621999,83825
1450,42.0,0.180257413999,84408
1460,42.0,0.181495468999,84977
1470,42.0,0.182674080999,85556
1480,42.0,0.183805650999,86130
1490,42.0,0.185029165999,86703
1500,42.0,0.186218895999,87271
1510,42.0,0.187433002999,87863
1520,42.0,0.188747180999,88435
1530,42.0,0.189933062999,89004
1540,42.0,0.191160426999,89589
1550,42.0,0.192488716999,90167
1560,46.0,0.193712659,90745
1570,46.0,0.194916075,91341
1580,46.0,0.196115214,91906
1590,47.0,0.19727287,92477
1600,47.0,0.198385622,93060
1610,47.0,0.19951206,93633
1620,46.0,0.200627379,94213
1630,46.0,0.201796154,94787
1640,47.0,0.202956376,95357
1650,46.0,0.204346247,95945
1660,47.0,0.205521864999,96528
1670,47.0,0.206669257999,97095
1680,47.0,0.207826058999,97678
1690,46.0,0.209023486999,98266
1700,46.0,0.210188413999,98847
1710,46.0,0.211328963999,99424
1720,47.0,0.212480205999,100006
1730,47.0,0.213620755999,100570
1740,47.0,0.215257382999,101151
1750,47.0,0.216687881999,101739
1760,50.0,0.217853235999,102294
1770,48.0,0.219010037999,102870
1780,47.0,0.220149732999,103439
1790,47.0,0.221298408999,104020
1800,47.0,0.222651930999,104594
1810,47.0,0.223842088999,105167
1820,47.0,0.225020272,105730
1830,47.0,0.22630879,106305
1840,47.0,0.227471578,106882
1850,47.0,0.228583047,107449
1860,48.0,0.229741558,108030
1870,48.0,0.230903064,108604
1880,47.0,0.232072267,109190
1890,47.0,0.233286373,109763
1900,48.0,0.234449589,110339
1910,48.0,0.235605963,110913
1920,47.0,0.236776877,111488
1930,48.0,0.23795891,112068
1940,48.0,0.239131962,112656
1950,50.0,0.240275078,113240
1960,50.0,0.241441715,113800
1970,50.0,0.242569863,114373
1980,49.0,0.243698867,114946
1990,48.0,0.244902709,115523
2000,49.0,0.246126652,116102
2010,50.0,0.247347173,116675
2020,51.0,0.248545029,117252
2030,50.0,0.249676170999,117832
2040,50.0,0.250847939999,118413
2050,48.0,0.251988917999,118976
2060,48.0,0.253164107999,119552
2070,50.0,0.254293966999,120140
2080,48.0,0.255445635999,120730
2090,48.0,0.256610134999,121328
2100,48.0,0.257769501999,121902
2110,48.0,0.258925020999,122473
2120,48.0,0.260059583999,123050
2130,51.0,0.261217239999,123634
2140,51.0,0.262366343999,124198
2150,53.0,0.263476102999,124781
2160,53.0,0.264623922999,125356
2170,54.0,0.265815791999,125930
2180,53.0,0.266953776999,126513
2190,51.0,0.268101169999,127095
2200,51.0,0.269322118999,127672
2210,51.0,0.270638861999,128247
2220,51.0,0.271885897999,128819
2230,51.0,0.273066647999,129381
2240,51.0,0.274344901999,129956
2250,53.0,0.275523084999,130550
2260,53.0,0.276965129999,131135
2270,53.0,0.278186506999,131721
2280,53.0,0.279362551998,132310
2290,51.0,0.280525766998,132866
2300,53.0,0.281732175999,133442
2310,53.0,0.282900095999,134025
2320,53.0,0.286674987999,134602
2330,53.0,0.287818104999,135191
2340,53.0,0.288943686999,135753
2350,53.0,0.290097921998,136330
2360,53.0,0.291251301999,136903
2370,53.0,0.292401259999,137474
2380,53.0,0.293560626999,138050
2390,53.0,0.294700749999,138627
2400,53.0,0.295851991999,139215
2410,51.0,0.296992969999,139798
2420,51.0,0.298145494,140375
2430,51.0,0.299322823,140956
2440,53.0,0.300476203,141548
2450,53.0,0.301629155,142143
2460,53.0,0.302820168,142723
2470,53.0,0.304026149,143302
2480,53.0,0.305214169,143900
2490,53.0,0.306396629,144475
2500,53.0,0.307604748,145057
2510,53.0,0.308731186,145637
2520,51.0,0.309887987,146220
2530,51.0,0.311061894,146793
2540,51.0,0.312261033001,147362
2550,53.0,0.313541426,147940
2560,51.0,0.314724742001,148515
2570,51.0,0.315887103,149098
2580,51.0,0.317049892,149687
2590,51.0,0.318159651,150267
2600,51.0,0.319351092,150837
2610,50.0,0.320519012001,151401
2620,53.0,0.321683510001,151990
2630,50.0,0.322857417,152575
2640,55.0,0.32409761,153165
2650,53.0,0.325352344,153734
2660,55.0,0.326929527,154298
2670,54.0,0.32813337,154862
2680,54.0,0.329307704999,155441
2690,54.0,0.330446972999,156020
2700,53.0,0.331637985999,156590
2710,53.0,0.332764851999,157178
2720,54.0,0.334027710999,157754
2730,54.0,0.335181945999,158356
2740,53.0,0.336707811999,158944
2750,54.0,0.337884712999,159526
2760,54.0,0.339044079999,160101
2770,54.0,0.340213282999,160671
2780,54.0,0.341356398999,161241
2790,54.0,0.342514482999,161825
2800,54.0,0.343680264999,162404
2810,54.0,0.344839205,162981
2820,54.0,0.346001137999,163558
2830,54.0,0.347157511,164136
2840,54.0,0.34828908,164718
2850,56.0,0.349466407999,165293
2860,54.0,0.350633901,165875
2870,54.0,0.351763332999,166439
2880,54.0,0.352917996,167018
2890,54.0,0.354097891,167602
2900,54.0,0.355253409,168176
2910,54.0,0.35698412,168745
2920,57.0,0.358113550999,169312
2930,54.0,0.35936914,169878
2940,54.0,0.360525514,170460
2950,57.0,0.361737482,171037
2960,54.0,0.362862209,171606
2970,54.0,0.364021576,172188
2980,54.0,0.365175811,172770
2990,57.0,0.366325342,173362
3000,54.0,0.367516355,173929
3010,54.0,0.368713355,174502
3020,53.0,0.369893249,175082
3030,54.0,0.371072716,175637
3040,57.0,0.372288533,176213
3050,58.0,0.373472703,176800
3060,57.0,0.374585882999,177362
3070,57.0,0.375729854999,177944
3080,57.0,0.376897774999,178516
3090,57.0,0.378090070999,179093
3100,57.0,0.379222495999,179686
3110,57.0,0.380402817999,180253
3120,57.0,0.381554486999,180820
3130,57.0,0.382695892999,181402
3140,57.0,0.383845423999,181978
3150,57.0,0.385020613999,182535
3160,57.0,0.386168006999,183119
3170,57.0,0.387498434999,183711
3180,57.0,0.388897287999,184291
3190,57.0,0.390196497999,184859
3200,57.0,0.391517517999,185435
3210,58.0,0.392756000999,186006
3220,58.0,0.393912801999,186583
3230,58.0,0.395191055999,187170
3240,58.0,0.396347856999,187745
3250,58.0,0.397508079999,188328
3260,58.0,0.398698664999,188907
3270,58.0,0.399987182999,189477
3280,58.0,0.401155529999,190049
3290,65.0,0.402327298999,190620
3300,58.0,0.403506765999,191200
3310,58.0,0.404666987999,191763
3320,58.0,0.405824644999,192328
3330,58.0,0.411987550998,192915
3340,58.0,0.413239290998,193507
3350,58.0,0.414494451999,194089
3360,61.0,0.415803924998,194671
3370,60.0,0.417004346999,195246
3380,61.0,0.418160291998,195825
3390,65.0,0.419302980999,196400
3400,65.0,0.420979379998,196964
3410,65.0,0.422454354999,197559
3420,65.0,0.423634248998,198130
3430,66.0,0.424819274998,198695
3440,65.0,0.426024400998,199286
3450,65.0,0.427310352998,199859
3460,65.0,0.429026523998,200429
3470,65.0,0.430508768999,201003
3480,65.0,0.431671129999,201583
3490,66.0,0.432819805999,202163
3500,67.0,0.434000127999,202742
3510,66.0,0.435186008999,203325
3520,66.0,0.436348368999,203898
3530,67.0,0.437524414999,204486
3540,67.0,0.440362746999,205062
3550,69.0,0.441574286999,205636
3560,70.0,0.442753752999,206210
3570,70.0,0.443922527999,206785
3580,69.0,0.445080184999,207357
3590,69.0,0.446236557999,207937
3600,69.0,0.447339474999,208514
3610,69.0,0.448537329999,209088
3620,69.0,0.449706104998,209680
3630,69.0,0.450870175998,210262
3640,69.0,0.452035956998,210846
3650,69.0,0.453205586999,211427
3660,69.0,0.454473577999,212015
3670,69.0,0.455675710999,212597
3680,69.0,0.456831656998,213179
3690,69.0,0.457964936999,213761
3700,70.0,0.459146541999,214352
3710,70.0,0.460399137999,214930
3720,71.0,0.461594427999,215487
3730,69.0,0.462847450999,216065
3740,69.0,0.463985434999,216629
3750,69.0,0.465136248999,217207
3760,69.0,0.466318282,217778
3770,69.0,0.467761181999,218359
3780,69.0,0.468946635999,218914
3790,71.0,0.470099159999,219508
3800,69.0,0.471263230999,220073
3810,70.0,0.472432861999,220647
3820,69.0,0.473611901999,221212
3830,71.0,0.475181387999,221785
3840,69.0,0.477469330999,222371
3850,69.0,0.478611164999,222940
3860,69.0,0.479774380999,223526
3870,69.0,0.480954702999,224093
3880,69.0,0.482127754999,224680
3890,69.0,0.483272153999,225260
3900,70.0,0.484420401999,225841
3910,70.0,0.485587466999,226434
3920,70.0,0.486764367999,227003
3930,71.0,0.487938274999,227600
3940,70.0,0.489094648999,228179
3950,70.0,0.490265989999,228749
3960,69.0,0.491404401999,229333
3970,69.0,0.492559492999,229906
3980,69.0,0.493715438999,230469
3990,69.0,0.494856416999,231039
4000,69.0,0.496035882999,231617
4010,71.0,0.497196105999,232191
4020,69.0,0.498335372999,232772
4030,69.0,0.499515266999,233357
4040,71.0,0.500678910999,233940
4050,69.0,0.501836994999,234518
4060,71.0,0.503001066999,235110
4070,71.0,0.504121516999,235677
4080,71.0,0.505354013,236258
4090,71.0,0.506532625,236825
4100,71.0,0.507667615,237386
4110,71.0,0.508834251999,237963
4120,71.0,0.509983354999,238542
4130,71.0,0.511165387999,239118
4140,71.0,0.512314490999,239689
4150,71.0,0.513445204999,240266
4160,71.0,0.514601150999,240843
4170,71.0,0.515719890999,241425
4180,71.0,0.516842051999,241995
4190,71.0,0.517971054999,242573
4200,71.0,0.519154370999,243155
4210,71.0,0.520358641999,243731
4220,71.0,0.521608671999,244309
4230,72.0,0.522901466999,244888
4240,73.0,0.524153206999,245479
4250,71.0,0.525357048999,246053
4260,71.0,0.526543785999,246623
4270,71.0,0.527775854,247190
4280,71.0,0.528950617,247769
4290,71.0,0.530121103,248347
4300,76.0,0.531281324999,248917
4310,72.0,0.532512538,249478
4320,75.0,0.533658219999,250058
4330,75.0,0.534826139999,250633
4340,75.0,0.536006461999,251213
4350,72.0,0.537207310999,251779
4360,72.0,0.538412863999,252363
4370,71.0,0.539592330999,252928
4380,71.0,0.540763244999,253499
4390,71.0,0.541965378,254069
4400,71.0,0.543107210999,254652
4410,71.0,0.546629787999,255215
4420,75.0,0.547761357999,255787
4430,75.0,0.548958357999,256360
4440,75.0,0.550079663999,256938
4450,76.0,0.551251005999,257512
4460,76.0,0.552415932999,258096
4470,76.0,0.553574016999,258677
4480,76.0,0.554703875999,259244
4490,76.0,0.555844425999,259823
4500,76.0,0.557055965999,260402
4510,76.0,0.558223030998,260970
4520,76.0,0.559412760998,261537
4530,76.0,0.560557160999,262118
4540,75.0,0.561790511999,262694
4550,75.0,0.562944746999,263270
4560,75.0,0.564104969999,263851
4570,76.0,0.565263053999,264409
4580,76.0,0.566493411,264974
4590,76.0,0.567658765,265553
4600,77.0,0.568910505,266135
4610,77.0,0.570111354,266724
4620,77.0,0.571331875,267300
4630,77.0,0.572537001,267888
4640,76.0,0.573753673,268457
4650,76.0,0.574952812,269028
4660,76.0,0.576134845,269609
4670,75.0,0.577305758,270188
4680,75.0,0.578467691,270766
4690,75.0,0.579621926001,271339
4700,75.0,0.580778299,271926
4710,75.0,0.581936810001,272500
4720,75.0,0.583098743,273077
4730,76.0,0.584264098,273646
4740,76.0,0.585412346,274222
4750,76.0,0.586578556,274802
4760,75.0,0.587726804,275372
4770,75.0,0.588908837,275948
4780,75.0,0.590076757,276519
4790,75.0,0.591250236,277097
4800,75.0,0.592419439,277667
4810,75.0,0.593550581001,278244
4820,75.0,0.594716363001,278837
4830,76.0,0.595886849001,279409
4840,76.0,0.597030393,279986
4850,76.0,0.598244927,280557
4860,76.0,0.599424822,281161
4870,75.0,0.600611987,281738
4880,75.0,0.601801718,282322
4890,76.0,0.602971349001,282898
4900,76.0,0.604140979,283474
4910,75.0,0.605303767,284051
4920,76.0,0.606479384,284636
4930,76.0,0.607660989,285211
4940,76.0,0.608862693,285780
4950,76.0,0.609986564001,286365
4960,78.0,0.611166458001,286943
4970,78.0,0.612369018001,287528
4980,78.0,0.613509141001,288127
4990,78.0,0.614680483,288710
