it,funval,time,funcount
0,8.0,0.000261296000019,539
10,10.0,0.00053499400002,995
20,11.0,0.000832641000045,1465
30,12.0,0.00110249000005,1922
40,12.0,0.00136806200004,2381
50,12.0,0.00163620100005,2829
60,13.0,0.00191118200007,3285
70,13.0,0.00218573500007,3748
80,13.0,0.00245173500008,4208
90,14.0,0.00272115600012,4639
100,15.0,0.00302479000015,5096
110,17.0,0.00328907900013,5546
120,20.0,0.00355593400013,6013
130,20.0,0.00382963200013,6477
140,20.0,0.00409819800012,6922
150,21.0,0.00436932900016,7368
160,24.0,0.00463361900017,7826
170,24.0,0.00490988300015,8292
180,24.0,0.00518400900017,8767
190,71.0,0.00544744300021,9224
200,72.0,0.0057121600002,9686
210,72.0,0.00599526600024,10124
220,71.0,0.00626254900027,10573
230,72.0,0.00652983200024,11026
240,73.0,0.00680395800026,11471
250,73.0,0.0070763730003,11907
260,73.0,0.00734664900028,12365
270,71.0,0.00761692600025,12824
280,71.0,0.00789404500023,13275
290,74.0,0.00816346600021,13727
300,72.0,0.00847437000022,14192
310,72.0,0.00874635800017,14649
320,73.0,0.00902304900018,15108
330,73.0,0.0092941810002,15575
340,73.0,0.00957044500018,16034
350,74.0,0.00986296000013,16489
360,73.0,0.0101340920001,16944
370,73.0,0.0104039410001,17410
380,72.0,0.0106763560001,17865
390,71.0,0.0109539020001,18318
400,70.0,0.0112258890001,18778
410,70.0,0.0115000150001,19231
420,70.0,0.0117664420001,19689
430,73.0,0.0120491200001,20152
440,73.0,0.0123151200001,20605
450,75.0,0.0125836860001,21048
460,72.0,0.0128851810001,21502
470,73.0,0.0131627280001,21955
480,79.0,0.0134330050001,22409
490,73.0,0.0137024260001,22857
500,73.0,0.0139910910002,23299
510,71.0,0.0142776180001,23763
520,72.0,0.0145564470001,24221
530,71.0,0.0148327110001,24681
540,72.0,0.0151051260001,25129
550,71.0,0.0153856660001,25584
560,71.0,0.0156828840001,26042
570,72.0,0.0159685570001,26503
580,71.0,0.0162426830001,26962
590,72.0,0.0165129600001,27418
600,71.0,0.016790506,27874
610,73.0,0.017065487,28330
620,72.0,0.0173417509999,28776
630,77.0,0.0176205809999,29231
640,77.0,0.0179263529999,29691
650,77.0,0.0206834309999,30147
660,79.0,0.0210169999999,30607
670,73.0,0.0213394499999,31073
680,79.0,0.0216516369999,31536
690,73.0,0.0219719489999,32001
700,72.0,0.0222854179999,32450
710,73.0,0.0225633919999,32909
720,77.0,0.0228336679999,33365
730,72.0,0.0231629609999,33812
740,72.0,0.0234884049999,34265
750,72.0,0.0237792089999,34709
760,73.0,0.0241059349999,35159
770,73.0,0.0243830539999,35613
780,72.0,0.0246550409998,36064
790,72.0,0.0249766359998,36517
800,71.0,0.0252627359999,36976
810,75.0,0.0255295909999,37427
820,75.0,0.0258447709999,37890
830,72.0,0.0261338639999,38342
840,71.0,0.0264776969999,38801
850,72.0,0.0267838969999,39263
860,72.0,0.0270747009999,39736
870,73.0,0.0273706359999,40202
880,74.0,0.0276755529999,40668
890,74.0,0.0279770479999,41132
900,74.0,0.0282490359999,41590
910,74.0,0.0285543799998,42040
920,76.0,0.0288819619998,42506
930,76.0,0.0291830299998,42943
940,76.0,0.0294858079999,43394
950,76.0,0.0297838829999,43856
960,76.0,0.0300627129999,44326
970,83.0,0.030363353,44785
980,85.0,0.030661855,45246
990,80.0,0.030946672,45700
1000,82.0,0.031520582,46147
1010,80.0,0.0318216490001,46596
1020,80.0,0.032117157,47059
1030,82.0,0.03241352,47509
1040,80.0,0.0327171540001,47962
1050,87.0,0.0330032540001,48427
1060,82.0,0.0335690390001,48871
1070,82.0,0.0338765210001,49324
1080,82.0,0.0341694630001,49774
1090,83.0,0.034477801,50226
1100,84.0,0.0348036720001,50678
1110,84.0,0.0351611900001,51143
1120,87.0,0.0354853510001,51600
1130,83.0,0.0362328880001,52068
1140,83.0,0.0365296790001,52526
1150,83.0,0.0368256140001,52986
1160,82.0,0.0371215500001,53467
1170,81.0,0.0374097880001,53925
1180,81.0,0.0376886180001,54376
1190,81.0,0.0380234700001,54832
1200,81.0,0.0383040100001,55302
1210,81.0,0.0385948140001,55759
1220,81.0,0.0388817690001,56208
1230,83.0,0.039158888,56662
1240,83.0,0.039453113,57112
1250,83.0,0.039744344,57582
1260,81.0,0.040031299,58016
1270,81.0,0.040304996,58476
1280,81.0,0.0405958,58929
1290,84.0,0.040873775,59397
1300,81.0,0.0411479,59864
1310,82.0,0.041428868,60328
1320,78.0,0.041926228,60778
1330,78.0,0.042347893,61232
1340,78.0,0.042622019,61683
1350,78.0,0.042892723,62139
1360,80.0,0.043171125,62595
1370,79.0,0.043469199,63051
1380,80.0,0.043759147,63512
1390,80.0,0.044042253,63974
1400,80.0,0.044313813,64434
1410,81.0,0.044588794,64889
1420,80.0,0.0448719000001,65354
1430,81.0,0.0451562890001,65806
1440,81.0,0.0454321250001,66245
1450,81.0,0.0456998360001,66705
1460,81.0,0.0459872190001,67153
1470,82.0,0.0462724630001,67594
1480,82.0,0.0465508650001,68056
1490,80.0,0.0468442350001,68523
1500,81.0,0.0471371770001,68985
1510,80.0,0.0474609100001,69449
1520,79.0,0.0477722410001,69921
1530,77.0,0.0480784410001,70375
1540,80.0,0.0484034570001,70845
1550,76.0,0.0486934060001,71314
1560,75.0,0.0490513520001,71777
1570,75.0,0.0493374520001,72233
1580,71.0,0.0496372370001,72698
1590,73.0,0.0499271850001,73179
1600,71.0,0.0502145680001,73649
1610,75.0,0.0505246170001,74113
1620,76.0,0.0508068680001,74560
1630,74.0,0.05108698,75020
1640,75.0,0.051360677,75488
1650,74.0,0.0516377960001,75952
1660,73.0,0.0519127760001,76399
1670,73.0,0.052199731,76861
1680,74.0,0.0524926730001,77312
1690,74.0,0.0527971620001,77771
1700,74.0,0.0530866830001,78224
1710,73.0,0.0533736380001,78684
1720,75.0,0.0536892460001,79143
1730,73.0,0.0539736350001,79605
1740,73.0,0.0542627280001,80062
1750,70.0,0.0545415580001,80522
1760,70.0,0.0548186770001,80975
1770,70.0,0.0551146130001,81430
1780,70.0,0.0553930150001,81883
1790,72.0,0.0556756940001,82331
1800,75.0,0.0559801830001,82792
1810,74.0,0.0562709870001,83236
1820,74.0,0.0565857400001,83694
1830,73.0,0.0568748330001,84135
1840,73.0,0.057178466,84596
1850,75.0,0.057459862,85046
1860,75.0,0.057738264,85514
1870,75.0,0.058052161,85978
1880,81.0,0.058382737,86414
1890,75.0,0.058673969,86865
1900,76.0,0.059164487,87331
1910,75.0,0.059486082,87790
1920,76.0,0.0598012620001,88242
1930,77.0,0.0600989090001,88697
1940,76.0,0.0603858640001,89146
1950,75.0,0.0606886420001,89605
1960,76.0,0.0609755970001,90060
1970,75.0,0.0613207130001,90516
1980,75.0,0.0616157930001,90990
1990,74.0,0.0619036030001,91443
2000,74.0,0.0622012500001,91906
2010,74.0,0.0624907710001,92357
2020,74.0,0.0627790090001,92808
2030,76.0,0.0630740900001,93270
2040,77.0,0.0633546310001,93720
2050,76.0,0.0636548430001,94187
2060,74.0,0.0639315340001,94660
2070,74.0,0.064211646,95117
2080,75.0,0.0644896210001,95580
2090,74.0,0.064761608,96035
2100,75.0,0.065040865,96485
2110,75.0,0.065304726,96933
2120,78.0,0.065587832,97387
2130,78.0,0.065871366,97841
2140,77.0,0.066169868,98305
2150,76.0,0.066452119,98767
2160,76.0,0.066753186,99224
2170,76.0,0.067082479,99695
2180,75.0,0.067399798,100154
2190,76.0,0.067696162,100587
2200,76.0,0.067990814,101046
2210,74.0,0.068278197,101497
2220,75.0,0.068554461,101959
2230,75.0,0.068823027,102416
2240,70.0,0.0690941589999,102877
2250,71.0,0.0693819699999,103349
2260,77.0,0.0699054169999,103797
2270,77.0,0.0702278669999,104260
2280,75.0,0.070507979,104709
2290,75.0,0.0707850979999,105172
2300,76.0,0.0711075479999,105639
2310,76.0,0.0713808179999,106101
2320,76.0,0.0716583639999,106557
2330,76.0,0.0719478849999,107019
2340,76.0,0.0722305639999,107471
2350,76.0,0.0724957079999,107917
2360,76.0,0.0728207249999,108370
2370,77.0,0.0731187999999,108836
2380,77.0,0.0734190119999,109296
2390,77.0,0.0737085329999,109749
2400,77.0,0.074013022,110215
2410,73.0,0.074287148,110671
2420,72.0,0.074556997,111133
2430,71.0,0.0748679,111590
2440,72.0,0.075169823,112030
2450,71.0,0.075462765,112491
2460,73.0,0.075783077,112933
2470,73.0,0.076093553,113399
2480,75.0,0.076395476,113869
2490,70.0,0.076675161,114316
2500,70.0,0.0769552739999,114782
2510,70.0,0.082235077,115225
2520,72.0,0.082518611,115693
2530,75.0,0.0828231,116152
2540,77.0,0.083110055,116609
2550,78.0,0.083426946,117060
2560,77.0,0.083760088,117518
2570,77.0,0.084113329,117972
2580,77.0,0.084429792,118429
2590,76.0,0.084760368,118872
2600,76.0,0.085073838,119324
2610,77.0,0.08542708,119772
2620,77.0,0.08573499,120244
2630,77.0,0.086021089,120696
2640,77.0,0.086339263,121146
2650,77.0,0.0866313499999,121590
2660,81.0,0.0870239349999,122048
2670,77.0,0.087369478,122501
2680,78.0,0.087669263,122945
2690,78.0,0.087957929,123403
2700,78.0,0.08823847,123866
2710,78.0,0.088508747,124327
2720,78.0,0.088792281,124789
2730,79.0,0.089063413,125245
2740,77.0,0.0893640529999,125708
2750,76.0,0.089635613,126164
2760,76.0,0.0899123039999,126628
2770,76.0,0.0902232079999,127090
2780,76.0,0.0905324009999,127539
2790,78.0,0.0908035329999,127990
2800,78.0,0.0911114429999,128442
2810,78.0,0.0914035299999,128900
2820,78.0,0.0916900569999,129353
2830,78.0,0.0919954009999,129803
2840,78.0,0.092382427,130254
2850,78.0,0.092674514,130724
2860,78.0,0.092957621,131179
2870,77.0,0.093252274,131639
2880,78.0,0.093571303,132097
2890,78.0,0.093850561,132559
2900,78.0,0.094137944,133013
2910,80.0,0.094419339,133464
2920,80.0,0.094720407,133916
2930,82.0,0.0950030849999,134365
2940,77.0,0.0952806319999,134831
2950,78.0,0.0955539019999,135275
2960,77.0,0.0958293109999,135725
2970,78.0,0.0962719309999,136167
2980,78.0,0.0965734259999,136616
2990,78.0,0.0969112719999,137085
3000,80.0,0.097210629,137542
3010,82.0,0.097943626,138000
3020,78.0,0.098258379,138449
3030,78.0,0.0985444789999,138916
3040,78.0,0.098826302,139372
3050,78.0,0.099120527,139814
3060,78.0,0.099403633,140282
3070,78.0,0.099691871,140742
3080,78.0,0.100025868,141201
3090,78.0,0.10031154,141657
3100,78.0,0.100593363,142109
3110,77.0,0.100873903,142570
3120,81.0,0.101150167,143020
3130,76.0,0.101464491,143479
3140,77.0,0.101742038,143947
3150,76.0,0.102030276,144402
3160,77.0,0.102316376,144843
3170,74.0,0.102639254,145298
3180,71.0,0.102973251,145757
3190,71.0,0.103291853,146205
3200,71.0,0.103580947,146664
3210,71.0,0.103861059,147123
3220,71.0,0.104157851,147573
3230,72.0,0.104433687,148049
3240,71.0,0.104753999,148498
3250,72.0,0.105031973,148966
3260,74.0,0.105308237,149426
3270,71.0,0.105586639,149875
3280,71.0,0.105944156,150343
3290,71.0,0.106279008,150795
3300,71.0,0.106573233,151248
3310,72.0,0.106862754,151710
3320,72.0,0.107153558,152178
3330,72.0,0.107421696,152639
3340,72.0,0.107715493,153099
3350,72.0,0.108039226,153559
3360,76.0,0.108333024,154014
3370,76.0,0.108603301,154459
3380,74.0,0.108890684,154918
3390,74.0,0.109171652,155371
3400,74.0,0.109451765,155822
3410,74.0,0.109731022,156281
3420,75.0,0.11001926,156744
3430,74.0,0.110307925,157201
3440,74.0,0.110594024,157658
3450,74.0,0.110873709,158108
3460,72.0,0.111158526,158573
3470,72.0,0.111457455,159028
3480,77.0,0.111734146,159478
3490,71.0,0.112012121,159937
3500,71.0,0.112461584,160409
3510,75.0,0.112752816,160872
3520,75.0,0.113029507,161313
3530,75.0,0.113305771,161778
3540,71.0,0.113587594,162238
3550,73.0,0.113875404,162691
3560,72.0,0.114162787,163148
3570,73.0,0.114433491,163601
3580,72.0,0.114698208,164062
3590,73.0,0.114989012,164515
3600,72.0,0.115270408,164962
3610,72.0,0.115553087,165411
3620,72.0,0.11582764,165864
3630,72.0,0.116112884,166315
3640,73.0,0.116390003,166777
3650,73.0,0.11671673,167223
3660,75.0,0.117022929,167688
3670,73.0,0.117319293,168139
3680,74.0,0.117600689,168594
3690,73.0,0.117864979,169049
3700,75.0,0.118151934,169499
3710,74.0,0.118436751,169954
3720,76.0,0.118720285,170402
3730,74.0,0.118991417,170870
3740,76.0,0.119281793,171318
3750,74.0,0.119547793,171772
3760,74.0,0.1198108,172218
3770,75.0,0.120103314,172690
3780,79.0,0.12040096,173146
3790,74.0,0.120705022,173608
3800,74.0,0.120987273,174075
3810,78.0,0.121265675,174526
3820,78.0,0.121562038,174980
3830,79.0,0.121846855,175422
3840,78.0,0.122130389,175888
3850,76.0,0.122420765,176348
3860,76.0,0.122704726,176801
3870,74.0,0.122982701,177249
3880,78.0,0.123287618,177710
3890,74.0,0.123589968,178169
3900,74.0,0.123862383,178618
3910,74.0,0.124142496,179055
3920,77.0,0.124423464,179497
3930,69.0,0.12472667,179955
3940,74.0,0.12500721,180410
3950,74.0,0.125276204,180882
3960,74.0,0.125561448,181332
3970,75.0,0.125859522,181788
3980,74.0,0.126159307,182241
3990,75.0,0.126428301,182692
4000,75.0,0.126702854,183167
4010,77.0,0.127163436,183626
4020,75.0,0.127449108,184070
4030,75.0,0.127721951,184527
4040,74.0,0.128017887,185002
4050,77.0,0.128295433,185451
4060,77.0,0.128582815,185898
4070,77.0,0.128856513,186363
4080,71.0,0.129140474,186821
4090,76.0,0.129450094,187266
4100,70.0,0.129743036,187731
4110,71.0,0.130045387,188186
4120,69.0,0.130317802,188655
4130,70.0,0.13062058,189095
4140,74.0,0.130931056,189555
4150,70.0,0.13124196,190013
4160,70.0,0.131546021,190476
4170,70.0,0.131848372,190933
4180,70.0,0.132141314,191386
4190,70.0,0.132424847,191833
4200,70.0,0.132760983,192304
4210,70.0,0.1330458,192758
4220,71.0,0.133332328,193230
4230,71.0,0.133627836,193690
4240,70.0,0.133925483,194143
4250,71.0,0.134203885,194601
4260,72.0,0.134494689,195037
4270,71.0,0.134772235,195505
4280,71.0,0.135053203,195969
4290,73.0,0.135323907,196436
4300,73.0,0.135611717,196886
4310,73.0,0.135883704,197354
4320,72.0,0.136555547,197818
4330,72.0,0.136837798,198282
4340,71.0,0.13710722,198743
4350,71.0,0.13738776,199216
4360,71.0,0.137673005,199671
4370,71.0,0.137961244,200117
4380,72.0,0.138263167,200570
4390,72.0,0.138545418,201020
4400,71.0,0.138834084,201490
4410,72.0,0.139161239,201946
4420,73.0,0.139477703,202404
4430,71.0,0.142614537,202865
4440,71.0,0.142904486,203312
4450,67.0,0.14320427,203772
4460,70.0,0.143534418,204227
4470,72.0,0.14384019,204703
4480,70.0,0.144121585,205164
4490,70.0,0.144407257,205629
4500,72.0,0.144684804,206094
4510,70.0,0.144967911,206539
4520,71.0,0.145257432,206992
4530,70.0,0.145544815,207450
4540,70.0,0.14583006,207908
4550,71.0,0.146146095,208379
4560,73.0,0.146459565,208849
4570,72.0,0.146800404,209311
4580,72.0,0.147219503,209760
4590,72.0,0.147590278,210217
4600,70.0,0.147891774,210683
4610,71.0,0.148162906,211137
4620,71.0,0.148434466,211604
4630,69.0,0.14871244,212056
4640,70.0,0.149034035,212522
4650,71.0,0.149314148,212985
4660,70.0,0.149598965,213450
4670,70.0,0.149905164,213915
4680,70.0,0.150189553,214374
4690,73.0,0.150485061,214821
4700,69.0,0.150816065,215280
4710,69.0,0.151111573,215733
4720,68.0,0.151448563,216196
4730,68.0,0.151725682,216651
4740,70.0,0.15201392,217111
4750,66.0,0.152307717,217580
4760,68.0,0.152599804,218046
4770,68.0,0.15289018,218500
4780,68.0,0.153187826,218958
4790,64.0,0.153462807,219411
4800,68.0,0.153734366,219864
4810,67.0,0.154003788,220315
4820,67.0,0.154280908,220777
4830,67.0,0.154549902,221228
4840,68.0,0.154824883,221663
4850,69.0,0.155096442,222118
4860,69.0,0.155397509,222578
4870,70.0,0.155675483,223041
4880,69.0,0.155968425,223492
4890,69.0,0.156272487,223942
4900,69.0,0.156588095,224393
4910,69.0,0.156857089,224847
4920,69.0,0.157165855,225312
4930,71.0,0.157469061,225779
4940,71.0,0.157772267,226246
4950,71.0,0.158064354,226700
4960,72.0,0.158335486,227153
4970,72.0,0.158616027,227615
4980,72.0,0.158906831,228071
4990,72.0,0.159180529,228530
