it,funval,time,funcount
0,29.0,0.000200140999993,562
10,30.0,0.000434921999982,1026
20,30.0,0.00068338799997,1483
30,30.0,0.000894648999974,1934
40,32.0,0.00113028599998,2397
50,33.0,0.00133940799998,2855
60,33.0,0.00155024099999,3308
70,35.0,0.001761074,3764
80,35.0,0.00196763000002,4209
90,35.0,0.00221395800003,4668
100,33.0,0.00241794900003,5113
110,33.0,0.00263776200003,5568
120,32.0,0.00285158900002,6020
130,33.0,0.00308936400003,6456
140,35.0,0.00332371800005,6913
150,35.0,0.00353968300007,7369
160,35.0,0.00377360900009,7822
170,35.0,0.00400325900009,8283
180,35.0,0.00427096900006,8741
190,35.0,0.00450746100006,9193
200,35.0,0.00474095900006,9637
210,35.0,0.00497403000006,10109
220,35.0,0.00519427100008,10564
230,35.0,0.00542948000006,11028
240,35.0,0.00564458900007,11474
250,35.0,0.00585756000007,11936
260,35.0,0.00606540000007,12389
270,35.0,0.00628136500009,12854
280,35.0,0.00649262500008,13305
290,35.0,0.00670089200008,13759
300,35.0,0.00691557300007,14224
310,35.0,0.00712597800006,14668
320,35.0,0.00733766600007,15126
330,35.0,0.00754807100006,15589
340,35.0,0.00775633800006,16044
350,35.0,0.00799197500007,16494
360,35.0,0.00821307100006,16964
370,35.0,0.00842604200005,17448
380,35.0,0.00863815800005,17899
390,35.0,0.00884813500005,18367
400,35.0,0.00906153400007,18824
410,35.0,0.00927065700006,19295
420,35.0,0.00947849700006,19748
430,35.0,0.00970900200005,20202
440,35.0,0.00993180900005,20664
450,35.0,0.0101469180001,21120
460,35.0,0.0103628830001,21571
470,35.0,0.010583124,22026
480,35.0,0.010790963,22478
490,35.0,0.01100094,22926
500,35.0,0.011234011,23379
510,35.0,0.011468365,23845
520,35.0,0.011741207,24306
530,35.0,0.011953323,24758
540,35.0,0.012167577,25222
550,35.0,0.012382258,25679
560,35.0,0.012603355,26115
570,35.0,0.012818037,26569
580,35.0,0.013025877,27024
590,35.0,0.013255527,27475
600,35.0,0.013485604,27918
610,35.0,0.013721241,28372
620,35.0,0.0139380609999,28820
630,35.0,0.0141621509999,29287
640,35.0,0.0143879519999,29737
650,35.0,0.0146077649999,30194
660,35.0,0.0148348479999,30653
670,35.0,0.015051668,31115
680,35.0,0.0152757579999,31582
690,33.0,0.0154964269999,32036
700,32.0,0.0157367679999,32497
710,33.0,0.0159843789999,32964
720,34.0,0.0162114629999,33419
730,35.0,0.0164364089999,33874
740,35.0,0.0167054019999,34337
750,35.0,0.0169354789999,34790
760,35.0,0.0171877939999,35244
770,35.0,0.0174071799999,35710
780,35.0,0.0176227169999,36162
790,35.0,0.0178395369999,36619
800,35.0,0.0180507969999,37074
810,35.0,0.0182624849999,37535
820,35.0,0.0184887129999,37997
830,35.0,0.0187063879999,38465
840,35.0,0.0189133719999,38924
850,35.0,0.0191434489999,39383
860,35.0,0.0193683939999,39843
870,35.0,0.0195822199999,40303
880,35.0,0.0198020329999,40753
890,35.0,0.0200128659999,41214
900,35.0,0.0202318239999,41672
910,35.0,0.0204465059999,42136
920,35.0,0.0206693129999,42596
930,35.0,0.0209566959999,43048
940,35.0,0.0211880559999,43518
950,35.0,0.0214215549999,43976
960,35.0,0.0216909759999,44433
970,35.0,0.0219193429999,44887
980,35.0,0.0221293199999,45356
990,35.0,0.0223354489999,45808
1000,35.0,0.0225556899999,46252
1010,35.0,0.0227656669999,46702
1020,35.0,0.0229739339999,47170
1030,35.0,0.0231886159999,47620
1040,35.0,0.0234011589999,48070
1050,35.0,0.023616268,48524
1060,35.0,0.0238377919999,48968
1070,35.0,0.0240751389999,49426
1080,35.0,0.0243052159999,49887
1090,35.0,0.0245237469999,50361
1100,35.0,0.0247397109999,50828
1110,35.0,0.0249501159999,51287
1120,35.0,0.0251596659999,51729
1130,35.0,0.0253734929999,52186
1140,35.0,0.0255856089999,52646
1150,35.0,0.0257955859999,53093
1160,35.0,0.0260072739999,53547
1170,35.0,0.0262215279999,54017
1180,35.0,0.0264315059999,54484
1190,35.0,0.0266363509999,54933
1200,35.0,0.0268972189999,55384
1210,35.0,0.0271320009999,55850
1220,35.0,0.0273458279999,56314
1230,35.0,0.0275587999999,56767
1240,35.0,0.0277751919999,57230
1250,35.0,0.0280484619999,57683
1260,35.0,0.0282639989999,58140
1270,35.0,0.0285077609999,58596
1280,35.0,0.0287241529999,59045
1290,35.0,0.0289572239999,59511
1300,34.0,0.0292022689999,59962
1310,35.0,0.0294460309999,60427
1320,35.0,0.0296654169999,60878
1330,34.0,0.0298792429999,61326
1340,35.0,0.0301033329999,61785
1350,35.0,0.0303115999999,62246
1360,35.0,0.0305173009999,62719
1370,35.0,0.0307345489999,63172
1380,35.0,0.0309423879999,63633
1390,35.0,0.0311540769999,64099
1400,35.0,0.0313730349999,64564
1410,35.0,0.0315924209999,65019
1420,35.0,0.0318028259999,65474
1430,35.0,0.0320423119999,65919
1440,35.0,0.0322826519999,66380
1450,35.0,0.0325439479999,66844
1460,35.0,0.0327560639999,67303
1470,35.0,0.0329711739999,67748
1480,35.0,0.0331807239999,68210
1490,35.0,0.0333859969999,68660
1500,35.0,0.0336306149999,69122
1510,35.0,0.0338730949998,69574
1520,35.0,0.0341177119998,70031
1530,35.0,0.0343601909998,70498
1540,35.0,0.0346633959999,70954
1550,35.0,0.0349075849999,71401
1560,35.0,0.0351423659999,71854
1570,35.0,0.0353784309999,72302
1580,35.0,0.0355999549998,72745
1590,35.0,0.0358296049998,73203
1600,35.0,0.0360579719998,73664
1610,35.0,0.0362769299998,74118
1620,35.0,0.0364916119998,74563
1630,35.0,0.0367050109999,75029
1640,35.0,0.0369444969999,75490
1650,35.0,0.0371596069999,75947
1660,35.0,0.0373819869999,76399
1670,35.0,0.0376073599999,76848
1680,35.0,0.0378429969999,77298
1690,35.0,0.0380581059999,77759
1700,35.0,0.0382984469999,78202
1710,35.0,0.0385601709999,78666
1720,35.0,0.0387876829999,79124
1730,35.0,0.0390399979999,79574
1740,35.0,0.0392615219999,80024
1750,35.0,0.0394783419999,80486
1760,35.0,0.0396938789999,80946
1770,35.0,0.0399419179999,81411
1780,35.0,0.0401638699999,81869
1790,35.0,0.0403862489999,82330
1800,35.0,0.0406009309999,82791
1810,35.0,0.0408104809999,83259
1820,35.0,0.0410260179999,83727
1830,35.0,0.0412398449999,84186
1840,35.0,0.0414519599999,84627
1850,35.0,0.0416653589999,85074
1860,35.0,0.0419104049999,85535
1870,35.0,0.0421460419999,85987
1880,35.0,0.0423645729999,86436
1890,35.0,0.0426010649999,86903
1900,35.0,0.0428140359999,87367
1910,35.0,0.0430573699999,87814
1920,35.0,0.0432835979999,88264
1930,35.0,0.0435423279999,88714
1940,35.0,0.0437822409999,89160
1950,35.0,0.0440225819999,89620
1960,35.0,0.0442552249999,90060
1970,35.0,0.0444652019999,90523
1980,35.0,0.0447042599999,90973
1990,35.0,0.0449240729999,91441
2000,35.0,0.0451370439999,91887
2010,35.0,0.0453555749999,92337
2020,35.0,0.045570684,92805
2030,35.0,0.045774675,93271
2040,34.0,0.046044952,93740
2050,34.0,0.0463348999999,94197
2060,34.0,0.0465808,94649
2070,35.0,0.046806173,95110
2080,35.0,0.047094411,95565
2090,35.0,0.047311659,96040
2100,35.0,0.047527196,96503
2110,35.0,0.047739312,96958
2120,35.0,0.047957842,97414
2130,35.0,0.048205026,97872
2140,35.0,0.048432538,98318
2150,35.0,0.04864551,98774
2160,35.0,0.04887516,99230
2170,35.0,0.049107375,99684
2180,34.0,0.049344295,100131
2190,34.0,0.04957309,100603
2200,33.0,0.049796325,101055
2210,35.0,0.050022981,101496
2220,35.0,0.050256052,101968
2230,35.0,0.050486129,102421
2240,35.0,0.050704659,102869
2250,35.0,0.050924472,103322
2260,35.0,0.051141292,103774
2270,34.0,0.051359822,104229
2280,34.0,0.051638652,104687
2290,34.0,0.051858893,105145
2300,34.0,0.052094957,105597
2310,35.0,0.052317764,106040
2320,35.0,0.052530308,106496
2330,35.0,0.052760813,106954
2340,35.0,0.052974639,107414
2350,35.0,0.0531927419999,107873
2360,35.0,0.053439926,108341
2370,35.0,0.0536836879999,108809
2380,35.0,0.0539509709999,109253
2390,35.0,0.054168219,109707
2400,35.0,0.05438846,110151
2410,35.0,0.054612978,110608
2420,35.0,0.054828942,111076
2430,35.0,0.055081257,111523
2440,35.0,0.055295083,111985
2450,35.0,0.055511903,112449
2460,35.0,0.055731716,112907
2470,35.0,0.055959655,113358
2480,35.0,0.056179041,113810
2490,35.0,0.056393296,114267
2500,35.0,0.05661482,114719
2510,35.0,0.056839338,115182
2520,35.0,0.05707412,115635
2530,35.0,0.057296072,116094
2540,35.0,0.05760612,116560
2550,35.0,0.057825506,117005
2560,35.0,0.058038905,117464
2570,35.0,0.058284805,117919
2580,35.0,0.058496065,118379
2590,35.0,0.058729564,118843
2600,35.0,0.058959214,119286
2610,35.0,0.059175178,119741
2620,35.0,0.059408249,120195
2630,35.0,0.059645169,120649
2640,35.0,0.059895774,121108
2650,35.0,0.060133549,121558
2660,35.0,0.060425636,122005
2670,35.0,0.060655714,122454
2680,35.0,0.060865264,122902
2690,35.0,0.061086361,123360
2700,35.0,0.061312589,123817
2710,35.0,0.061536679,124265
2720,35.0,0.061772743,124736
2730,35.0,0.062017361,125201
2740,35.0,0.062250004,125677
2750,35.0,0.062475805,126135
2760,35.0,0.062697329,126593
2770,35.0,0.06292484,127048
2780,35.0,0.06314722,127507
2790,35.0,0.063366606,127973
2800,35.0,0.063614217,128428
2810,35.0,0.063835741,128887
2820,35.0,0.064583278,129336
2830,35.0,0.064808223,129795
2840,35.0,0.065027181,130239
2850,35.0,0.06523502,130685
2860,34.0,0.065465525,131133
2870,35.0,0.065673364,131594
2880,35.0,0.065879065,132054
2890,33.0,0.066115129,132510
2900,33.0,0.066423467,132973
2910,31.0,0.066649267,133433
2920,32.0,0.066971289,133885
2930,31.0,0.067211203,134344
2940,32.0,0.067431017,134811
2950,32.0,0.067669648,135259
2960,32.0,0.067973281,135723
2970,32.0,0.068219182,136175
2980,33.0,0.068451397,136643
2990,33.0,0.068703285,137112
3000,34.0,0.068925665,137578
3010,35.0,0.069155314,138024
3020,35.0,0.069395227,138475
3030,35.0,0.069849822,138927
3040,35.0,0.070085886,139398
3050,35.0,0.070314681,139856
3060,35.0,0.070537488,140321
3070,35.0,0.070754308,140785
3080,35.0,0.071031855,141242
3090,35.0,0.071251668,141701
3100,35.0,0.071481317,142150
3110,35.0,0.071713105,142621
3120,35.0,0.071939334,143085
3130,35.0,0.072159147,143546
3140,35.0,0.072397777,144019
3150,35.0,0.072621439,144478
3160,35.0,0.072830989,144939
3170,35.0,0.07305123,145389
3180,35.0,0.073274037,145831
3190,35.0,0.073489574,146283
3200,35.0,0.0737615610001,146753
3210,35.0,0.0739903550001,147216
3220,35.0,0.0742174390001,147677
3230,35.0,0.074442812,148133
3240,35.0,0.074655784,148584
3250,35.0,0.074871748,149033
3260,35.0,0.075101825,149484
3270,32.0,0.0753254870001,149938
3280,32.0,0.0755418790001,150401
3290,32.0,0.0757963320001,150857
3300,33.0,0.076042232,151301
3310,33.0,0.076266322,151754
3320,33.0,0.076488701,152206
3330,33.0,0.076761116,152648
3340,32.0,0.077075869,153091
3350,32.0,0.077347856,153546
3360,32.0,0.077696821,153993
3370,32.0,0.077938872,154445
3380,31.0,0.078183917,154902
3390,31.0,0.07841485,155355
3400,32.0,0.079129886,155815
3410,32.0,0.07936595,156273
3420,35.0,0.079617838,156743
3430,35.0,0.080480842,157193
3440,35.0,0.080744704,157673
3450,35.0,0.081025244,158128
3460,35.0,0.081257887,158588
3470,35.0,0.081516617,159042
3480,35.0,0.081754819,159492
3490,35.0,0.082019109,159945
3500,35.0,0.082258595,160403
3510,35.0,0.082497653,160861
3520,35.0,0.082731151,161325
3530,35.0,0.082975341,161780
3540,35.0,0.083253743,162233
3550,35.0,0.083492801,162683
3560,35.0,0.083735707,163140
3570,35.0,0.083948251,163587
3580,35.0,0.084180466,164047
3590,35.0,0.084398996,164504
3600,35.0,0.084626079,164944
3610,35.0,0.084837339,165402
3620,35.0,0.085073403,165852
3630,35.0,0.085286374,166317
3640,35.0,0.085537834,166775
3650,35.0,0.085755937,167229
3660,35.0,0.085978317,167696
3670,35.0,0.086234053,168160
3680,35.0,0.086532555,168601
3690,35.0,0.086801977,169060
3700,35.0,0.087019224,169527
3710,35.0,0.087233478,169986
3720,35.0,0.087605536,170441
3730,35.0,0.087824494,170910
3740,35.0,0.088043452,171346
3750,35.0,0.088274812,171797
3760,35.0,0.088522423,172261
3770,35.0,0.088747369,172721
3780,35.0,0.088956064,173179
3790,35.0,0.089183575,173624
3800,35.0,0.089397402,174091
3810,35.0,0.089611228,174556
3820,35.0,0.089861405,174999
3830,35.0,0.090085068,175457
3840,35.0,0.090306164,175896
3850,35.0,0.090533248,176349
3860,35.0,0.090752634,176808
3870,35.0,0.091003239,177269
3880,35.0,0.09122904,177737
3890,35.0,0.091474085,178181
3900,35.0,0.091720841,178629
3910,35.0,0.091960754,179078
3920,35.0,0.092240867,179542
3930,35.0,0.0924794969999,179994
3940,35.0,0.092741648,180447
3950,35.0,0.092995674,180914
3960,35.0,0.0933318089999,181352
3970,35.0,0.093580275,181811
3980,35.0,0.093835156,182273
3990,35.0,0.094099018,182736
4000,35.0,0.094360314,183195
4010,35.0,0.09460707,183656
4020,35.0,0.094846983,184093
4030,35.0,0.0952447,184566
4040,35.0,0.095512411,185020
4050,35.0,0.09578397,185479
4060,35.0,0.096209484,185936
4070,35.0,0.0965054200001,186383
4080,35.0,0.096774841,186838
4090,35.0,0.0970237350001,187295
4100,35.0,0.0972897350001,187762
4110,35.0,0.0975172460001,188203
4120,35.0,0.0977439020001,188669
4130,35.0,0.0979551620001,189127
4140,35.0,0.0981835290001,189588
4150,35.0,0.0983965000001,190022
4160,35.0,0.0986710530001,190476
4170,35.0,0.0988912940001,190949
4180,35.0,0.0991029830001,191418
4190,35.0,0.0994746140001,191870
4200,35.0,0.0997072570001,192342
4210,35.0,0.0999369070001,192799
4220,35.0,0.100166129,193260
4230,35.0,0.100392358,193716
4240,35.0,0.100614738,194175
4250,35.0,0.100835834,194637
4260,35.0,0.101058641,195087
4270,35.0,0.101280593,195554
4280,35.0,0.101562844,196024
4290,35.0,0.101776671,196495
4300,35.0,0.101999905,196952
4310,35.0,0.10221587,197421
4320,35.0,0.102450224,197874
4330,35.0,0.102672604,198348
4340,33.0,0.102901826,198809
4350,35.0,0.107489686,199270
4360,35.0,0.107718053,199727
4370,35.0,0.107951552,200189
4380,35.0,0.108196597,200657
4390,35.0,0.108417693,201119
4400,35.0,0.108670864,201571
4410,34.0,0.108889823,202029
4420,34.0,0.109110491,202487
4430,34.0,0.109334154,202946
4440,35.0,0.109548836,203409
4450,34.0,0.109772926,203874
4460,33.0,0.109994878,204338
4470,33.0,0.110225383,204808
4480,31.0,0.110441348,205258
4490,31.0,0.110659451,205710
4500,32.0,0.11091476,206166
4510,31.0,0.111136284,206629
4520,33.0,0.111367644,207092
4530,32.0,0.111604991,207553
4540,33.0,0.111842766,207998
4550,33.0,0.112086528,208450
4560,34.0,0.112429933,208904
4570,34.0,0.11265274,209384
4580,34.0,0.112893936,209841
4590,34.0,0.113119309,210294
4600,34.0,0.113350669,210746
4610,34.0,0.113570055,211194
4620,34.0,0.113810395,211656
4630,35.0,0.114032346,212115
4640,34.0,0.114246173,212569
4650,35.0,0.114468981,213011
4660,35.0,0.114702479,213472
4670,35.0,0.114951373,213916
4680,35.0,0.115187009,214366
4690,35.0,0.115417514,214817
4700,35.0,0.115657427,215262
4710,34.0,0.115965337,215728
4720,35.0,0.116187289,216197
4730,35.0,0.116430623,216661
4740,34.0,0.116669254,217130
4750,35.0,0.116899759,217583
4760,35.0,0.117132829,218030
4770,35.0,0.117365045,218476
4780,35.0,0.117624202,218922
4790,35.0,0.11785599,219389
4800,35.0,0.118125839,219859
4810,35.0,0.11836447,220321
4820,35.0,0.118605667,220788
4830,35.0,0.11884558,221248
4840,35.0,0.119108158,221699
4850,35.0,0.119389554,222172
4860,35.0,0.120059259,222617
4870,35.0,0.120287198,223078
4880,35.0,0.12050188,223535
4890,35.0,0.120724687,223990
4900,35.0,0.120975292,224444
4910,35.0,0.121198954,224905
4920,35.0,0.121521404,225382
4930,35.0,0.121763028,225842
4940,35.0,0.122001231,226279
4950,35.0,0.122239006,226730
4960,33.0,0.122486189,227188
4970,33.0,0.122720115,227651
4980,35.0,0.122962166,228107
4990,35.0,0.123280767,228554
