it,funval,time,funcount
0,16.0,0.00111574699986,461
10,16.0,0.00227297499987,833
20,16.0,0.00337503699984,1203
30,16.0,0.00447282200003,1568
40,19.0,0.00554494800008,1937
50,16.0,0.00664230500024,2317
60,16.0,0.00774393900019,2686
70,16.0,0.00886610100042,3058
80,16.0,0.00998227500031,3424
90,16.0,0.0111514780001,3785
100,16.0,0.0122736389999,4157
110,16.0,0.013402215,4518
120,16.0,0.0145183889999,4885
130,16.0,0.0156486760002,5248
140,16.0,0.0200423820002,5621
150,16.0,0.0211418770004,5990
160,16.0,0.0222490700003,6357
170,16.0,0.023386627,6730
180,16.0,0.0245237559998,7094
190,16.0,0.0256155540001,7467
200,17.0,0.0267295900003,7839
210,16.0,0.0278102690004,8208
220,16.0,0.0288973630004,8574
230,16.0,0.0300045560007,8941
240,16.0,0.0311130320006,9314
250,16.0,0.0322916440005,9687
260,16.0,0.0334249240004,10052
270,16.0,0.0345107340004,10422
280,16.0,0.0357564870005,10792
290,16.0,0.0368709500003,11150
300,16.0,0.0381675930003,11517
310,18.0,0.0393094260003,11887
320,18.0,0.0404345800002,12255
330,18.0,0.0415892420001,12626
340,18.0,0.0426955799999,12989
350,18.0,0.0438087599996,13358
360,18.0,0.0449168089995,13722
370,19.0,0.0459940659994,14090
380,19.0,0.0471140889995,14467
390,18.0,0.0482161509995,14834
400,18.0,0.0493062379996,15195
410,18.0,0.0507683839996,15557
420,18.0,0.0518760049995,15925
430,19.0,0.0530683009993,16296
440,18.0,0.0542238189996,16667
450,18.0,0.0553023599996,17033
460,18.0,0.0565053469995,17396
470,18.0,0.0579114689995,17763
480,18.0,0.0590092539992,18123
490,18.0,0.0601891479992,18487
500,18.0,0.0613976949994,18857
510,18.0,0.0625369629993,19223
520,19.0,0.0636916259991,19597
530,18.0,0.0649074429989,19962
540,19.0,0.0660313149988,20327
550,18.0,0.0671124219989,20698
560,18.0,0.0682290239988,21058
570,18.0,0.0693494749985,21422
580,18.0,0.0704455489986,21784
590,19.0,0.0716686359983,22148
600,19.0,0.0727805329984,22520
610,19.0,0.0739103919982,22886
620,19.0,0.0750842989978,23252
630,19.0,0.0762004729977,23625
640,19.0,0.0773213519979,23999
650,19.0,0.0785222009977,24361
660,19.0,0.0796242619977,24728
670,19.0,0.0807742209977,25093
680,19.0,0.0818826969976,25468
690,19.0,0.0836929519978,25835
700,19.0,0.0848719909977,26211
710,19.0,0.086221235998,26580
720,19.0,0.087395142998,26947
730,19.0,0.0884980599981,27310
740,19.0,0.0896356169978,27674
750,19.0,0.0907577779976,28044
760,19.0,0.0918718139978,28411
770,19.0,0.0930029559977,28779
780,19.0,0.0941041619976,29145
790,19.0,0.095181846998,29521
800,20.0,0.0962727899978,29889
810,20.0,0.0973958069981,30255
820,20.0,0.0986800479982,30620
830,19.0,0.0998642189979,30992
840,19.0,0.101235701998,31357
850,19.0,0.102345033998,31734
860,19.0,0.103453937998,32102
870,19.0,0.104570539998,32476
880,19.0,0.105696121998,32845
890,20.0,0.106810156998,33215
900,19.0,0.107933600998,33587
910,19.0,0.109043786998,33958
920,19.0,0.110231806997,34325
930,19.0,0.111318044997,34693
940,19.0,0.112470569998,35062
950,19.0,0.113567926997,35425
960,19.0,0.114705055997,35796
970,20.0,0.115827644997,36157
980,19.0,0.116941252997,36527
990,19.0,0.118166478997,36890
1000,19.0,0.119288639997,37260
1010,19.0,0.120400536997,37624
1020,19.0,0.121552633997,37996
1030,19.0,0.122700881997,38361
1040,19.0,0.123848274997,38729
1050,19.0,0.124993101997,39094
1060,19.0,0.126152041997,39457
1070,19.0,0.127342627997,39826
1080,19.0,0.128418601997,40197
1090,19.0,0.129521090997,40568
1100,19.0,0.130640257997,40940
1110,19.0,0.131779524997,41308
1120,19.0,0.132989782997,41682
1130,19.0,0.134162834997,42049
1140,19.0,0.135274731997,42425
1150,19.0,0.136396464997,42793
1160,20.0,0.137522902997,43163
1170,20.0,0.138637793997,43536
1180,19.0,0.139705215997,43908
1190,19.0,0.140820106997,44285
1200,19.0,0.141950820997,44648
1210,20.0,0.143048605997,45019
1220,20.0,0.144350808996,45380
1230,21.0,0.145456718997,45744
1240,21.0,0.146586577996,46112
1250,21.0,0.147706172997,46482
1260,21.0,0.148809944997,46850
1270,21.0,0.149959048997,47226
1280,21.0,0.151065386997,47592
1290,21.0,0.152181988997,47958
1300,21.0,0.153279345997,48327
1310,21.0,0.154384828997,48702
1320,21.0,0.155500574996,49069
1330,23.0,0.156626156996,49441
1340,21.0,0.157744896997,49809
1350,21.0,0.158850806997,50181
1360,21.0,0.159966124997,50556
1370,21.0,0.161108385996,50920
1380,21.0,0.162243376996,51291
1390,21.0,0.163356556996,51662
1400,21.0,0.164477007996,52028
1410,21.0,0.165604300996,52400
1420,21.0,0.166698236996,52769
1430,21.0,0.167819542995,53138
1440,21.0,0.168897655996,53507
1450,23.0,0.169983893996,53871
1460,23.0,0.171092369996,54246
1470,23.0,0.172232063996,54612
1480,24.0,0.173368337995,54978
1490,23.0,0.174492209996,55347
1500,23.0,0.175612232995,55716
1510,23.0,0.176733538995,56089
1520,23.0,0.177831323996,56463
1530,23.0,0.179005658995,56824
1540,24.0,0.180111996995,57187
1550,23.0,0.181274357996,57554
1560,23.0,0.182748904996,57918
1570,23.0,0.183892448996,58289
1580,23.0,0.185001352996,58655
1590,23.0,0.186105125996,59023
1600,23.0,0.187259788996,59384
1610,23.0,0.188397345996,59752
1620,23.0,0.189516085996,60115
1630,23.0,0.191084716996,60486
1640,23.0,0.192253491996,60849
1650,24.0,0.193375224996,61224
1660,23.0,0.194496102996,61587
1670,23.0,0.195600729995,61957
1680,23.0,0.196692527996,62329
1690,23.0,0.197818964996,62697
1700,23.0,0.198940270996,63060
1710,23.0,0.200077827996,63427
1720,23.0,0.201234628996,63791
1730,23.0,0.202401693996,64157
1740,23.0,0.203538822996,64517
1750,23.0,0.204657562996,64888
1760,23.0,0.205777585996,65252
1770,24.0,0.206950209996,65626
1780,24.0,0.208065100996,65996
1790,24.0,0.209222756996,66360
1800,24.0,0.210350049997,66728
1810,24.0,0.211424741997,67101
1820,24.0,0.212527657997,67473
1830,23.0,0.213627580997,67847
1840,23.0,0.214752307997,68214
1850,23.0,0.215868054996,68583
1860,24.0,0.217053936996,68947
1870,23.0,0.218219290996,69315
1880,23.0,0.219376518996,69696
1890,23.0,0.220491409997,70058
1900,23.0,0.221645217997,70431
1910,23.0,0.222765240997,70798
1920,23.0,0.224014841997,71157
1930,23.0,0.225104073997,71522
1940,23.0,0.226226234997,71897
1950,23.0,0.227333000997,72260
1960,23.0,0.228465853997,72627
1970,23.0,0.229569625997,72992
1980,23.0,0.230677673997,73357
1990,23.0,0.231809243997,73726
2000,24.0,0.232895053997,74093
2010,23.0,0.233993693997,74461
2020,24.0,0.235121841996,74826
2030,23.0,0.236211500996,75187
2040,23.0,0.237346064996,75554
2050,23.0,0.238515267997,75916
2060,24.0,0.239674207997,76278
2070,24.0,0.240965719996,76644
2080,24.0,0.242097289996,77009
2090,24.0,0.243623582996,77381
2100,24.0,0.244702550996,77752
2110,24.0,0.245823856997,78118
2120,24.0,0.247074313997,78477
2130,24.0,0.248205883996,78843
2140,24.0,0.249397324997,79211
2150,24.0,0.250537875997,79582
2160,24.0,0.251664740997,79947
2170,26.0,0.252825390997,80313
2180,24.0,0.253959098997,80689
2190,24.0,0.255075699997,81062
2200,26.0,0.256206413997,81431
2210,26.0,0.257315316996,81801
2220,26.0,0.258441753997,82177
2230,26.0,0.259554933997,82542
2240,26.0,0.265803797997,82916
2250,26.0,0.267220184997,83285
2260,26.0,0.268333364997,83660
2270,26.0,0.269487171997,84029
2280,26.0,0.270743188997,84401
2290,26.0,0.271906404997,84784
2300,26.0,0.273040967997,85151
2310,27.0,0.274152009997,85520
2320,26.0,0.275254070997,85890
2330,26.0,0.276342875997,86256
2340,26.0,0.277482570997,86618
2350,26.0,0.278571801997,86984
2360,26.0,0.279688403997,87349
2370,26.0,0.280790464997,87719
2380,26.0,0.281914336997,88093
2390,26.0,0.283133147997,88467
2400,26.0,0.284258729997,88837
2410,26.0,0.285372764997,89211
2420,26.0,0.286508182997,89576
2430,26.0,0.287620080997,89950
2440,26.0,0.288740103997,90315
2450,26.0,0.289875949997,90679
2460,26.0,0.290983570997,91046
2470,26.0,0.292126259997,91416
2480,26.0,0.293274507997,91783
2490,26.0,0.294372720997,92150
2500,26.0,0.295458103997,92522
2510,27.0,0.296565297997,92889
2520,26.0,0.297691735997,93259
2530,26.0,0.298822022997,93625
2540,26.0,0.299971553997,93987
2550,27.0,0.301088583997,94363
2560,27.0,0.302279597997,94735
2570,27.0,0.303387646997,95108
2580,27.0,0.304543592997,95478
2590,27.0,0.305717071997,95851
2600,27.0,0.306886274997,96222
2610,27.0,0.308037943997,96582
2620,27.0,0.309179776997,96953
2630,28.0,0.310286114997,97323
2640,28.0,0.311389459997,97690
2650,27.0,0.312533003997,98058
2660,27.0,0.313667566997,98427
2670,27.0,0.314772194997,98800
2680,28.0,0.315883236997,99162
2690,28.0,0.317007963997,99530
2700,27.0,0.318131407997,99897
2710,27.0,0.319244160997,100271
2720,28.0,0.320384710997,100636
2730,28.0,0.321543221997,100993
2740,28.0,0.322673935997,101362
2750,28.0,0.323828170996,101726
2760,28.0,0.324944344997,102090
2770,28.0,0.326058380997,102457
2780,30.0,0.327195510997,102827
2790,28.0,0.328318955997,103194
2800,28.0,0.329426576998,103555
2810,28.0,0.330609892998,103930
2820,28.0,0.332011311998,104294
2830,28.0,0.333163408998,104671
2840,28.0,0.334327479998,105034
2850,28.0,0.335459477998,105393
2860,28.0,0.336560683998,105758
2870,28.0,0.337715346998,106121
2880,28.0,0.338854614998,106493
2890,28.0,0.340166226998,106861
2900,30.0,0.341326449998,107225
2910,28.0,0.342782179998,107591
2920,28.0,0.343902630998,107958
2930,28.0,0.345061142998,108334
2940,28.0,0.346218371998,108703
2950,28.0,0.347324281998,109070
2960,30.0,0.348425487998,109445
2970,28.0,0.349521562998,109813
2980,28.0,0.350628756998,110176
2990,28.0,0.351710290998,110544
3000,28.0,0.352857683998,110909
3010,28.0,0.354004648998,111275
3020,28.0,0.355129802998,111642
3030,28.0,0.356277194998,112012
3040,28.0,0.357469490998,112384
3050,28.0,0.358585236998,112752
3060,28.0,0.359728780998,113126
3070,28.0,0.360884298998,113488
3080,28.0,0.362041955998,113852
3090,28.0,0.363164972999,114214
3100,28.0,0.364283712999,114581
3110,28.0,0.365376793999,114947
3120,28.0,0.366458327999,115307
3130,28.0,0.367640787999,115675
3140,28.0,0.368764659999,116048
3150,28.0,0.369901788999,116411
3160,28.0,0.371025232999,116774
3170,28.0,0.372217957,117149
3180,28.0,0.373336697,117521
3190,28.0,0.37453327,117893
3200,28.0,0.375709315,118257
3210,28.0,0.376880656,118619
3220,28.0,0.378022916999,118994
3230,28.0,0.379150637999,119364
3240,28.0,0.380230033999,119732
3250,28.0,0.381350057,120095
3260,30.0,0.382582125,120463
3270,30.0,0.383704286,120831
3280,30.0,0.384910695,121192
3290,32.0,0.386028152,121564
3300,30.0,0.38714176,121929
3310,30.0,0.388334911,122289
3320,30.0,0.389449801999,122654
3330,30.0,0.390579661,123022
3340,30.0,0.391839098,123384
3350,30.0,0.392953134,123752
3360,30.0,0.394032102,124120
3370,30.0,0.395119623,124479
3380,30.0,0.396269582,124846
3390,30.0,0.397399869,125210
3400,32.0,0.398506207,125579
3410,30.0,0.399644619,125951
3420,30.0,0.40076678,126317
3430,30.0,0.401897494,126683
3440,30.0,0.404104611,127048
3450,30.0,0.405249437999,127422
3460,30.0,0.406399824999,127787
3470,30.0,0.407544652,128149
3480,30.0,0.408657832999,128516
3490,30.0,0.409782131999,128876
3500,30.0,0.410928241999,129240
3510,30.0,0.412106852999,129611
3520,30.0,0.413261515999,129977
3530,30.0,0.414396078999,130342
3540,32.0,0.415478895999,130718
3550,30.0,0.416616024999,131081
3560,30.0,0.417769404999,131453
3570,30.0,0.418919790999,131817
3580,30.0,0.420058202999,132181
3590,30.0,0.421150855999,132549
3600,30.0,0.422261042999,132918
3610,30.0,0.423394322999,133287
3620,30.0,0.424505792999,133644
3630,30.0,0.425610420999,134017
3640,30.0,0.426718896999,134386
3650,33.0,0.427864150999,134752
3660,30.0,0.428977758999,135119
3670,30.0,0.430087518999,135478
3680,30.0,0.431166486999,135837
3690,30.0,0.432316445999,136205
3700,33.0,0.433468541999,136577
3710,30.0,0.434553497999,136937
3720,30.0,0.435626478999,137306
3730,30.0,0.436776436999,137674
3740,30.0,0.437918697999,138045
3750,32.0,0.439034444999,138413
3760,30.0,0.440228878999,138774
3770,30.0,0.441400220999,139142
3780,30.0,0.442562153999,139501
3790,30.0,0.443780536998,139860
3800,30.0,0.444938620999,140231
3810,30.0,0.446200624999,140601
3820,30.0,0.447345878998,140981
3830,30.0,0.448479158998,141341
3840,30.0,0.449609872999,141713
3850,30.0,0.450805162999,142089
3860,30.0,0.451944001999,142451
3870,30.0,0.453097808999,142819
3880,30.0,0.454334152999,143189
3890,30.0,0.455441345999,143564
3900,30.0,0.456599429999,143932
3910,30.0,0.457726295999,144296
3920,30.0,0.458921585999,144656
3930,30.0,0.460055292999,145022
3940,30.0,0.461139820999,145395
3950,30.0,0.462262837999,145756
3960,30.0,0.463361050999,146122
3970,30.0,0.464488771999,146493
3980,30.0,0.465607511999,146857
3990,30.0,0.466777998,147221
4000,30.0,0.467905291,147586
4010,30.0,0.469001364999,147957
4020,30.0,0.470136782999,148329
4030,32.0,0.471261937999,148694
4040,32.0,0.472376829,149055
4050,31.0,0.473485733,149418
4060,31.0,0.474608322,149783
4070,31.0,0.475736898,150154
4080,31.0,0.476834256,150523
4090,31.0,0.477939312,150890
4100,31.0,0.479084994,151252
4110,31.0,0.480278146,151618
4120,31.0,0.481388333,151977
4130,31.0,0.48254941,152336
4140,31.0,0.483679268999,152703
4150,31.0,0.484802285999,153072
4160,31.0,0.485920597999,153438
4170,32.0,0.487065424999,153809
4180,31.0,0.488414241999,154175
4190,31.0,0.489521007999,154537
4200,31.0,0.490625635,154904
4210,31.0,0.491728124,155277
4220,31.0,0.492948645,155642
4230,31.0,0.494050279,156016
4240,32.0,0.495197244,156390
4250,32.0,0.49669189,156753
4260,31.0,0.502643962,157125
4270,32.0,0.504048801,157497
4280,31.0,0.505151717,157859
4290,31.0,0.506249502,158219
4300,31.0,0.50733574,158588
4310,31.0,0.508418128999,158959
4320,31.0,0.509501374,159325
4330,31.0,0.510616265,159696
4340,31.0,0.511787178,160063
4350,31.0,0.512909767,160433
4360,31.0,0.514214964,160800
4370,31.0,0.515454303,161170
4380,31.0,0.516605116999,161542
4390,31.0,0.517780735,161919
4400,32.0,0.518924705999,162285
4410,32.0,0.520080223999,162648
4420,32.0,0.521233175999,163019
4430,32.0,0.52236945,163386
4440,31.0,0.523480492,163756
4450,31.0,0.524594528,164123
4460,32.0,0.525739355,164488
4470,31.0,0.526874773999,164859
4480,31.0,0.527980256999,165225
4490,31.0,0.529072055,165596
4500,31.0,0.53024639,165965
4510,32.0,0.531385657,166332
4520,31.0,0.532500548,166700
4530,31.0,0.533665474,167064
4540,31.0,0.534823558,167431
4550,31.0,0.535971806,167797
4560,31.0,0.537105086,168164
4570,31.0,0.538230668,168542
4580,31.0,0.539663733,168909
4590,31.0,0.541210981,169275
4600,31.0,0.542372913,169647
4610,31.0,0.543521589,170015
4620,31.0,0.544674113999,170382
4630,31.0,0.545800979,170740
4640,31.0,0.546947088999,171107
4650,31.0,0.548039315,171470
4660,31.0,0.549159766,171836
4670,31.0,0.550550493,172194
4680,33.0,0.551738085,172557
4690,33.0,0.554379697,172928
4700,33.0,0.555494160999,173299
4710,32.0,0.556613755999,173661
4720,33.0,0.557753450999,174030
4730,33.0,0.558935911999,174393
4740,33.0,0.560103832,174761
4750,33.0,0.561189215,175132
4760,33.0,0.562753997,175505
4770,33.0,0.563892836999,175873
4780,33.0,0.565363535,176246
4790,33.0,0.56655968,176616
4800,33.0,0.567721185,176978
4810,33.0,0.568909205,177344
4820,34.0,0.570069427,177709
4830,34.0,0.571251032,178076
4840,33.0,0.572410399,178447
4850,33.0,0.573561213,178803
4860,33.0,0.574721008,179175
4870,33.0,0.57583761,179541
4880,33.0,0.577066685,179902
4890,33.0,0.578211939,180268
4900,33.0,0.579365319,180629
4910,33.0,0.580572583001,180995
4920,33.0,0.581745207,181359
4930,33.0,0.582859243,181729
4940,33.0,0.583961305,182104
4950,34.0,0.585064222,182475
4960,33.0,0.586171843,182848
4970,33.0,0.587292293,183209
4980,33.0,0.58840248,183585
4990,34.0,0.589520365,183952
