it,funval,time,funcount
0,13.0,0.000204845999974,557
10,32.0,0.000449463999985,1003
20,33.0,0.000674409999988,1460
30,35.0,0.000903203999968,1925
40,35.0,0.00113969599997,2382
50,35.0,0.00134625199996,2832
60,35.0,0.00156264399996,3288
70,35.0,0.00179443199997,3743
80,35.0,0.00202194299996,4198
90,35.0,0.00225202099995,4662
100,35.0,0.00247696699995,5116
110,35.0,0.00270533299994,5563
120,35.0,0.00291274499995,6023
130,35.0,0.00312999299996,6491
140,35.0,0.00335108999997,6947
150,35.0,0.00359613599997,7402
160,35.0,0.00380953499996,7856
170,35.0,0.00401865699993,8316
180,35.0,0.00424274699992,8773
190,35.0,0.00447239699992,9227
200,35.0,0.00468151899992,9694
210,35.0,0.00490518199993,10166
220,35.0,0.00514552299992,10630
230,35.0,0.00536319799994,11084
240,35.0,0.00557531399994,11546
250,34.0,0.00578614699992,11994
260,35.0,0.00602477699991,12444
270,35.0,0.0062587029999,12893
280,35.0,0.00648065399989,13342
290,35.0,0.00670859299987,13798
300,35.0,0.00693439299985,14267
310,35.0,0.00717644499983,14715
320,35.0,0.00740951599983,15179
330,35.0,0.00762804599984,15642
340,35.0,0.00784058899984,16098
350,35.0,0.00804928299985,16539
360,35.0,0.00826139899985,16997
370,35.0,0.00848078499985,17459
380,35.0,0.00870786899984,17913
390,35.0,0.00892468899983,18370
400,35.0,0.00913765999982,18821
410,33.0,0.00935747299982,19272
420,34.0,0.00957814199981,19731
430,35.0,0.00979923899982,20190
440,32.0,0.0100104989998,20642
450,35.0,0.0102315959998,21086
460,35.0,0.0104616729998,21534
470,35.0,0.0107041519998,21997
480,35.0,0.0109303809998,22455
490,35.0,0.0111749979998,22905
500,35.0,0.0113892519998,23359
510,35.0,0.0115979459998,23826
520,35.0,0.0118113449998,24270
530,35.0,0.0120320139998,24718
540,35.0,0.0122462679998,25174
550,35.0,0.0124737789998,25639
560,35.0,0.0126833289998,26095
570,35.0,0.0129035709998,26547
580,35.0,0.0131178249998,27003
590,35.0,0.0133299399997,27454
600,35.0,0.0135407729998,27902
610,35.0,0.0137871009998,28359
620,35.0,0.0140235929998,28812
630,35.0,0.0142412679998,29272
640,35.0,0.0144888789997,29733
650,35.0,0.0147022769997,30188
660,35.0,0.0149498889998,30644
670,35.0,0.0151671369998,31103
680,35.0,0.0153796809998,31552
690,35.0,0.0156166009997,32013
700,35.0,0.0158424009997,32472
710,35.0,0.0160840249997,32915
720,35.0,0.0163602889997,33373
730,35.0,0.0166027679997,33835
740,35.0,0.0168093239997,34293
750,35.0,0.0170214389997,34755
760,35.0,0.0172271409997,35210
770,35.0,0.0174619229997,35658
780,35.0,0.0176979869997,36113
790,35.0,0.0179212219997,36564
800,35.0,0.0181619909997,37029
810,35.0,0.0184014769997,37482
820,35.0,0.0186208629997,37935
830,35.0,0.0188338349997,38388
840,35.0,0.0190532209997,38833
850,35.0,0.0193876459997,39283
860,35.0,0.0196232829997,39736
870,35.0,0.0198507939997,40201
880,35.0,0.0201022539997,40667
890,35.0,0.0203263439997,41124
900,35.0,0.0205474409997,41573
910,35.0,0.0207655439997,42025
920,35.0,0.0209909169997,42492
930,35.0,0.0212457979997,42940
940,34.0,0.0214916979997,43395
950,35.0,0.0217418749997,43852
960,35.0,0.0219856369997,44311
970,35.0,0.0223320349997,44768
980,35.0,0.0225903369997,45244
990,35.0,0.0228276839997,45699
1000,35.0,0.0230757229997,46155
1010,35.0,0.0233417229997,46617
1020,35.0,0.0235923269997,47079
1030,35.0,0.0238399379997,47539
1040,35.0,0.0240789959997,48003
1050,35.0,0.0243317379997,48461
1060,35.0,0.0245699399997,48910
1070,35.0,0.0248295249997,49365
1080,35.0,0.0250690109997,49826
1090,35.0,0.0253020819997,50287
1100,34.0,0.0255638059997,50753
1110,33.0,0.0258020079997,51207
1120,33.0,0.0260342229998,51672
1130,33.0,0.0263322969998,52121
1140,33.0,0.0265841849998,52577
1150,34.0,0.0268283749998,53026
1160,34.0,0.0270682889997,53484
1170,35.0,0.0273069189997,53945
1180,34.0,0.0275438389997,54403
1190,34.0,0.0277850349997,54841
1200,34.0,0.0280386329997,55303
1210,34.0,0.0282883819997,55760
1220,33.0,0.0285218799997,56220
1230,33.0,0.0287549509997,56699
1240,34.0,0.0290256559997,57170
1250,33.0,0.0292835309997,57624
1260,33.0,0.0294969299997,58077
1270,34.0,0.0297214479997,58539
1280,35.0,0.0299404069997,58991
1290,34.0,0.0301816029997,59443
1300,34.0,0.0303992779997,59889
1310,35.0,0.0306118209997,60334
1320,34.0,0.0308568659997,60791
1330,35.0,0.0311173059997,61253
1340,35.0,0.0313567919997,61700
1350,35.0,0.0315911449997,62149
1360,35.0,0.0318019779997,62610
1370,34.0,0.0320140939997,63068
1380,34.0,0.0322236439997,63528
1390,33.0,0.0324417469997,63977
1400,33.0,0.0326705419997,64424
1410,34.0,0.0328933489997,64880
1420,35.0,0.0331007609997,65336
1430,35.0,0.0333154429997,65793
1440,34.0,0.0335258479997,66254
1450,33.0,0.0337392469997,66722
1460,35.0,0.0339509349997,67173
1470,34.0,0.0341887099997,67641
1480,35.0,0.0344196429997,68107
1490,34.0,0.0346317579997,68571
1500,34.0,0.0348558479997,69016
1510,34.0,0.0350683919997,69480
1520,34.0,0.0352971859997,69935
1530,35.0,0.0355246969997,70382
1540,35.0,0.0357406619997,70835
1550,35.0,0.0359544889997,71291
1560,35.0,0.0361670319997,71758
1570,35.0,0.0363915499997,72221
1580,35.0,0.0366182059997,72693
1590,35.0,0.0368371639997,73151
1600,35.0,0.0370535569997,73610
1610,35.0,0.0372703769997,74077
1620,35.0,0.0374803549997,74541
1630,35.0,0.0377172749997,74991
1640,35.0,0.0379576159997,75450
1650,35.0,0.0381911149997,75915
1660,35.0,0.0384152049997,76377
1670,35.0,0.0386653819997,76839
1680,35.0,0.0388954599997,77294
1690,35.0,0.0391238269997,77749
1700,35.0,0.0393462069997,78196
1710,35.0,0.0395754289997,78655
1720,35.0,0.0398097829997,79103
1730,35.0,0.0400240369997,79556
1740,35.0,0.0402447059997,80006
1750,35.0,0.0404696519997,80467
1760,35.0,0.0407553239997,80915
1770,35.0,0.0409875399997,81373
1780,35.0,0.0412244599997,81818
1790,35.0,0.0414489779997,82274
1800,35.0,0.0416670809997,82720
1810,35.0,0.0418834729997,83168
1820,35.0,0.0421451959997,83625
1830,35.0,0.0423680039997,84081
1840,35.0,0.0425959429997,84529
1850,35.0,0.0428204609997,84984
1860,35.0,0.0430531039997,85443
1870,35.0,0.0432908789996,85911
1880,35.0,0.0435192449996,86361
1890,35.0,0.0437390579996,86820
1900,35.0,0.0439657139997,87269
1910,35.0,0.0442034889996,87723
1920,35.0,0.0444451119996,88165
1930,35.0,0.0447141059996,88617
1940,35.0,0.0450108969996,89080
1950,35.0,0.0452337039996,89529
1960,35.0,0.0454449649996,89979
1970,35.0,0.0456763249996,90424
1980,35.0,0.0459076849996,90891
1990,35.0,0.0461249329996,91338
2000,35.0,0.0463408979996,91804
2010,35.0,0.0465880819996,92259
2020,35.0,0.0468078959996,92711
2030,35.0,0.0470302759996,93172
2040,35.0,0.0472633469996,93629
2050,35.0,0.0474865819996,94086
2060,35.0,0.0476948489996,94540
2070,35.0,0.0479215049996,94982
2080,35.0,0.0482354019996,95432
2090,35.0,0.0485599899996,95890
2100,35.0,0.0487750989996,96337
2110,35.0,0.0490654749997,96779
2120,35.0,0.0493327589996,97225
2130,35.0,0.0495521449996,97686
2140,35.0,0.0497681089996,98139
2150,33.0,0.0500080229996,98601
2160,33.0,0.0502457979996,99058
2170,33.0,0.0504767309996,99530
2180,35.0,0.0507012489996,99982
2190,35.0,0.0509326089996,100448
2200,35.0,0.0511815029996,100901
2210,35.0,0.0514197059996,101357
2220,33.0,0.0516604739996,101818
2230,33.0,0.0519063749996,102272
2240,33.0,0.0521249059996,102728
2250,34.0,0.0523361659996,103171
2260,35.0,0.0525752239996,103631
2270,35.0,0.0528014519996,104090
2280,35.0,0.0530443589996,104550
2290,35.0,0.0532569029996,105012
2300,35.0,0.0534788549996,105465
2310,35.0,0.0536926819996,105931
2320,35.0,0.0539060809996,106388
2330,35.0,0.0541297439996,106847
2340,35.0,0.0543679469995,107288
2350,35.0,0.0545950309995,107745
2360,35.0,0.0548080019995,108202
2370,35.0,0.0550359409995,108650
2380,35.0,0.0552578929995,109104
2390,35.0,0.0554768519996,109568
2400,35.0,0.0556945269996,110014
2410,35.0,0.0559451309996,110466
2420,35.0,0.0561585299996,110924
2430,34.0,0.0563667969996,111367
2440,35.0,0.0565861829996,111817
2450,33.0,0.0568017199996,112278
2460,32.0,0.0570223889996,112738
2470,35.0,0.0572687169996,113183
2480,35.0,0.0574842539996,113627
2490,35.0,0.0576972249996,114082
2500,35.0,0.0579093409996,114532
2510,35.0,0.0581321479996,114991
2520,35.0,0.0583511059996,115439
2530,35.0,0.0585623669996,115891
2540,35.0,0.0587706339996,116353
2550,35.0,0.0589934409996,116809
2560,35.0,0.0592196689996,117270
2570,35.0,0.0594305019996,117726
2580,35.0,0.0596580139996,118196
2590,35.0,0.0598846699995,118659
2600,35.0,0.0600997789996,119108
2610,35.0,0.0603247239996,119560
2620,35.0,0.0605419709996,120008
2630,35.0,0.0607579349996,120458
2640,35.0,0.0609935709996,120903
2650,35.0,0.0612296359996,121349
2660,35.0,0.0614490209996,121792
2670,35.0,0.0616914999996,122251
2680,35.0,0.0619681919996,122703
2690,35.0,0.0622200799996,123150
2700,35.0,0.0624501579996,123609
2710,35.0,0.0626746759996,124065
2720,35.0,0.0628902129996,124527
2730,35.0,0.0631048949996,124974
2740,35.0,0.0633144449996,125432
2750,35.0,0.0635911359996,125896
2760,35.0,0.0638310489996,126356
2770,35.0,0.0640418819996,126813
2780,35.0,0.0642646889996,127270
2790,35.0,0.0644913449996,127721
2800,35.0,0.0647068819996,128174
2810,35.0,0.0649497889996,128635
2820,35.0,0.0651717409996,129093
2830,35.0,0.0653889889996,129546
2840,35.0,0.0656177829996,130001
2850,35.0,0.0658316089996,130456
2860,35.0,0.0660467179997,130905
2870,35.0,0.0662926179997,131374
2880,35.0,0.0665004579997,131833
2890,35.0,0.0667078699997,132310
2900,35.0,0.0669178479997,132763
2910,35.0,0.0671278249997,133229
2920,35.0,0.0673429339997,133688
2930,35.0,0.0675772879997,134157
2940,35.0,0.0678013779997,134617
2950,35.0,0.0680246119997,135061
2960,35.0,0.0682384379997,135513
2970,35.0,0.0684595349997,135973
2980,35.0,0.0686746439997,136442
2990,35.0,0.0688876149997,136919
3000,35.0,0.0690980199997,137370
3010,35.0,0.0693131289997,137823
3020,35.0,0.0695329429997,138284
3030,35.0,0.0697493359997,138737
3040,35.0,0.0699725709997,139180
3050,35.0,0.0701906739997,139628
3060,35.0,0.0704049279996,140097
3070,35.0,0.0706303009997,140572
3080,35.0,0.0708646549996,141017
3090,35.0,0.0711015749996,141481
3100,35.0,0.0713286589996,141931
3110,35.0,0.0715638679996,142383
3120,35.0,0.0717871019996,142829
3130,35.0,0.0720039219997,143286
3140,35.0,0.0722250189996,143746
3150,35.0,0.0724503919996,144209
3160,35.0,0.0726646459996,144663
3170,35.0,0.0728827489996,145113
3180,35.0,0.0731521709996,145580
3190,35.0,0.0733719839996,146034
3200,35.0,0.0735909419996,146489
3210,35.0,0.0738270069996,146942
3220,35.0,0.0740442549996,147396
3230,34.0,0.0742773259996,147857
3240,35.0,0.0744950009996,148315
3250,35.0,0.0747165249996,148773
3260,35.0,0.0749354829996,149228
3270,35.0,0.0751505919996,149691
3280,35.0,0.0753763929996,150136
3290,35.0,0.0795921949996,150591
3300,35.0,0.0798487869996,151053
3310,35.0,0.0800754429996,151516
3320,35.0,0.0803029549996,151963
3330,35.0,0.0805193469996,152421
3340,35.0,0.0807387329996,152885
3350,35.0,0.0809632509996,153335
3360,35.0,0.0811834919996,153791
3370,35.0,0.0814281089996,154236
3380,35.0,0.0816547649996,154693
3390,35.0,0.0818681639996,155140
3400,35.0,0.0820858389995,155594
3410,35.0,0.0823005209996,156039
3420,35.0,0.0825258949995,156497
3430,35.0,0.0827435709996,156951
3440,34.0,0.0829642399995,157413
3450,35.0,0.0831870469995,157881
3460,35.0,0.0834303819995,158331
3470,35.0,0.0836536169996,158794
3480,35.0,0.0838866879996,159257
3490,35.0,0.0841043629995,159728
3500,35.0,0.0843169059995,160185
3510,35.0,0.0845294489995,160629
3520,35.0,0.0847522559995,161085
3530,35.0,0.0849690759996,161530
3540,35.0,0.0852025739996,161974
3550,35.0,0.0854168279996,162435
3560,35.0,0.0856250949996,162903
3570,35.0,0.0858410599996,163368
3580,35.0,0.0860621559995,163836
3590,35.0,0.0862960819995,164310
3600,35.0,0.0865069149995,164761
3610,35.0,0.0867335709995,165209
3620,35.0,0.0869640759995,165666
3630,35.0,0.0871770469995,166136
3640,35.0,0.0873874519995,166601
3650,35.0,0.0876046989995,167059
3660,35.0,0.0878283609995,167525
3670,35.0,0.0880456089995,167981
3680,35.0,0.0882902269995,168445
3690,35.0,0.0885117509995,168895
3700,35.0,0.0887512369995,169354
3710,35.0,0.0889710509995,169825
3720,35.0,0.0891818839995,170287
3730,35.0,0.0894538709995,170728
3740,35.0,0.0896706909995,171180
3750,35.0,0.0898977749995,171635
3760,35.0,0.0901175889995,172090
3770,35.0,0.0903305599995,172554
3780,35.0,0.0905790259995,173012
3790,35.0,0.0908313419995,173468
3800,35.0,0.0910631299995,173919
3810,35.0,0.0912705409995,174379
3820,34.0,0.0914835119995,174825
3830,34.0,0.0917011869995,175283
3840,35.0,0.0919180069995,175749
3850,35.0,0.0921412419995,176206
3860,35.0,0.0923837209995,176653
3870,35.0,0.0926086659995,177101
3880,33.0,0.0928267689995,177570
3890,35.0,0.0930619779996,178038
3900,34.0,0.0933904149996,178498
3910,35.0,0.0936102289996,178959
3920,35.0,0.0938279039996,179414
3930,35.0,0.0940434409995,179860
3940,34.0,0.0942752289995,180314
3950,32.0,0.0945288269996,180772
3960,32.0,0.0947482119996,181238
3970,32.0,0.0949680249996,181690
3980,33.0,0.0952015239995,182131
3990,35.0,0.0954277529996,182590
4000,32.0,0.0956599689996,183048
4010,33.0,0.0959054419995,183501
4020,33.0,0.0961393679996,183967
4030,32.0,0.0963553329996,184435
4040,32.0,0.0965618899996,184901
4050,32.0,0.0967966709996,185344
4060,32.0,0.0970395779996,185805
4070,35.0,0.0972995909996,186267
4080,35.0,0.0975061469996,186719
4090,33.0,0.0977208289996,187164
4100,35.0,0.0979265299996,187624
4110,33.0,0.0981660159996,188089
4120,33.0,0.0984072129996,188544
4130,35.0,0.0986330139996,188985
4140,35.0,0.0988639469996,189440
4150,35.0,0.0990863259996,189898
4160,35.0,0.0993057119996,190355
4170,35.0,0.0995229589996,190821
4180,35.0,0.0997359299996,191277
4190,35.0,0.0999527499996,191728
4200,35.0,0.10017128,192183
4210,35.0,0.100424878,192638
4220,35.0,0.100665219,193088
4230,35.0,0.100964576,193539
4240,35.0,0.101189094,193985
4250,35.0,0.101431146,194437
4260,35.0,0.101661223,194895
4270,34.0,0.101892583,195345
4280,34.0,0.102110259,195821
4290,35.0,0.102326652,196274
4300,35.0,0.102549887,196731
4310,34.0,0.102769273,197198
4320,31.0,0.103003199,197647
4330,33.0,0.103276896,198109
4340,35.0,0.103495854,198582
4350,33.0,0.103713101,199039
4360,35.0,0.10401759,199509
4370,35.0,0.104232272,199980
4380,35.0,0.104449092,200433
4390,35.0,0.104654793,200881
4400,35.0,0.104867765,201343
4410,35.0,0.105091427,201787
4420,35.0,0.105362131,202243
4430,35.0,0.105585365,202690
4440,35.0,0.105809027,203147
4450,34.0,0.10602713,203605
4460,34.0,0.10625849,204058
4470,34.0,0.106480869,204504
4480,35.0,0.106697689,204967
4490,35.0,0.106913654,205422
4500,35.0,0.107145869,205883
4510,35.0,0.107364399,206328
4520,35.0,0.107603885,206783
4530,35.0,0.107844653,207244
4540,35.0,0.10811493,207700
4550,35.0,0.108386489,208170
4560,35.0,0.108653772,208638
4570,35.0,0.108877435,209104
4580,35.0,0.109094683,209549
4590,35.0,0.109327754,210009
4600,35.0,0.109542008,210464
4610,35.0,0.109781494,210936
4620,35.0,0.110013709,211382
4630,35.0,0.110271584,211833
4640,35.0,0.110507648,212287
4650,35.0,0.110720192,212752
4660,35.0,0.110948559,213209
4670,35.0,0.111167518,213659
4680,35.0,0.111386049,214101
4690,35.0,0.111631094,214559
4700,35.0,0.111871007,215011
4710,35.0,0.112093814,215474
4720,35.0,0.11233501,215925
4730,35.0,0.112559528,216389
4740,35.0,0.112772499,216848
4750,35.0,0.112998299,217304
4760,35.0,0.113207849,217753
4770,35.0,0.113445624,218211
4780,35.0,0.113657313,218663
4790,35.0,0.11388568,219111
4800,35.0,0.11410079,219568
4810,35.0,0.114421529,220026
4820,35.0,0.114643054,220472
4830,35.0,0.115168639,220938
4840,35.0,0.115397006,221399
4850,35.0,0.115658302,221854
4860,35.0,0.115978187,222325
4870,35.0,0.116228791,222783
4880,35.0,0.116461007,223236
4890,35.0,0.116698354,223688
4900,35.0,0.116944255,224138
4910,35.0,0.117175187,224597
4920,35.0,0.11742622,225065
4930,35.0,0.117656725,225520
4940,35.0,0.117921015,225968
4950,35.0,0.118155797,226432
4960,35.0,0.11838673,226886
4970,35.0,0.118617662,227352
4980,35.0,0.118846028,227806
4990,35.0,0.119091928,228260
