it,funval,time,funcount
0,12.0,0.000437488999978,282
10,12.0,0.000823660000151,468
20,12.0,0.00118716500015,656
30,12.0,0.00158060600006,843
40,11.0,0.00198131699995,1030
50,12.0,0.00239956099995,1221
60,11.0,0.00276990899988,1409
70,11.0,0.00315137499979,1594
80,12.0,0.0035307029998,1782
90,12.0,0.00390703699986,1970
100,12.0,0.00429620099999,2162
110,12.0,0.00468707599998,2348
120,12.0,0.00508735899984,2535
130,13.0,0.00547780599982,2720
140,13.0,0.00588706999997,2908
150,13.0,0.00632070999995,3094
160,13.0,0.00672911900006,3283
170,13.0,0.0070857820001,3466
180,13.0,0.00747109800022,3653
190,13.0,0.00788720400033,3838
200,13.0,0.00826995300031,4022
210,13.0,0.00872625900047,4212
220,13.0,0.00944386100036,4398
230,13.0,0.00981335300048,4584
240,13.0,0.0101858380006,4775
250,13.0,0.0105450660005,4955
260,13.0,0.0110052200005,5143
270,13.0,0.0113747120006,5331
280,13.0,0.0118387150005,5521
290,13.0,0.0122163320007,5712
300,13.0,0.0127081330006,5901
310,13.0,0.0130814740005,6093
320,14.0,0.0134377090003,6283
330,14.0,0.0137918060002,6474
340,13.0,0.014171561,6666
350,13.0,0.0155584390002,6851
360,13.0,0.0159625710003,7036
370,14.0,0.0163590060001,7227
380,14.0,0.0167096810001,7416
390,14.0,0.0170774619999,7600
400,14.0,0.0174533689999,7781
410,14.0,0.0178331249999,7962
420,14.0,0.0182009059999,8151
430,14.0,0.018562273,8337
440,15.0,0.0189274890001,8527
450,15.0,0.0192905660001,8708
460,14.0,0.0196446630002,8901
470,14.0,0.0200051740003,9086
480,14.0,0.0204182870004,9270
490,14.0,0.0209160750005,9452
500,14.0,0.0213167860004,9647
510,14.0,0.0216790080005,9836
520,14.0,0.0220365260006,10023
530,14.0,0.0223970370007,10202
540,14.0,0.0227639630009,10395
550,14.0,0.0231223360008,10582
560,14.0,0.023476860001,10765
570,15.0,0.023836944001,10953
580,14.0,0.024238938001,11135
590,14.0,0.0246007320009,11321
600,15.0,0.0249890410007,11507
610,14.0,0.0253790600007,11689
620,14.0,0.0257789150007,11874
630,15.0,0.0262198250007,12069
640,18.0,0.0265841850007,12258
650,18.0,0.0269699280009,12448
660,18.0,0.0273484000011,12640
670,18.0,0.027705917001,12829
680,18.0,0.028093370001,13019
690,18.0,0.0284466110008,13211
700,18.0,0.0288058390008,13403
710,18.0,0.0292878040009,13591
720,18.0,0.0296585790009,13781
730,19.0,0.030317164001,13972
740,18.0,0.030688366001,14159
750,18.0,0.0310655560008,14349
760,18.0,0.0314252120008,14537
770,19.0,0.0318250670009,14718
780,18.0,0.0322270610009,14908
790,18.0,0.0326726750009,15096
800,18.0,0.0330840770009,15285
810,18.0,0.0334672540009,15481
820,18.0,0.0338996110008,15666
830,18.0,0.0343264090009,15855
840,19.0,0.0347053090009,16041
850,18.0,0.0350726630008,16230
860,18.0,0.0354468590008,16419
870,18.0,0.0358193450008,16602
880,19.0,0.036228181001,16789
890,18.0,0.0366400110011,16977
900,18.0,0.0370065100012,17170
910,18.0,0.0373768580012,17353
920,18.0,0.0377288170012,17543
930,18.0,0.0381162700012,17730
940,19.0,0.0385165530013,17923
950,18.0,0.0389027240012,18107
960,19.0,0.0392683670011,18296
970,19.0,0.0396365760012,18484
980,19.0,0.0400223190011,18667
990,19.0,0.0404341490009,18848
1000,24.0,0.040813905001,19034
1010,24.0,0.0411966550009,19219
1020,24.0,0.0415717060009,19411
1030,24.0,0.0419326450008,19601
1040,24.0,0.0422991440009,19789
1050,24.0,0.0426686360011,19974
1060,24.0,0.043050530001,20160
1070,24.0,0.0434602220009,20348
1080,25.0,0.0438972830009,20533
1090,25.0,0.0442796040008,20720
1100,24.0,0.0446358380009,20909
1110,24.0,0.0450066130009,21096
1120,25.0,0.0453731110008,21283
1130,24.0,0.0457400380008,21477
1140,25.0,0.0461001220008,21665
1150,24.0,0.0465021160007,21852
1160,24.0,0.0468746020008,22040
1170,24.0,0.0472458050008,22222
1180,24.0,0.0476041780007,22408
1190,24.0,0.0479809400006,22598
1200,24.0,0.0483799400006,22782
1210,24.0,0.0488058820006,22972
1220,24.0,0.0492031720007,23162
1230,24.0,0.0495658220007,23348
1240,24.0,0.0499968960007,23534
1250,24.0,0.0503822110006,23725
1260,24.0,0.0507683820006,23915
1270,24.0,0.0511250440006,24102
1280,24.0,0.0515676650007,24285
1290,24.0,0.0519598220008,24477
1300,25.0,0.0523451380006,24662
1310,24.0,0.0527133470007,24849
1320,24.0,0.0530862600008,25035
1330,24.0,0.0534587460008,25221
1340,24.0,0.0538209680008,25410
1350,24.0,0.0541750650007,25598
1360,24.0,0.0545625190007,25785
1370,24.0,0.0549452690007,25977
1380,24.0,0.0553151890006,26166
1390,24.0,0.0556949450006,26354
1400,25.0,0.0560734170006,26544
1410,25.0,0.0564741280007,26724
1420,25.0,0.0568581600005,26912
1430,25.0,0.0572216650005,27097
1440,25.0,0.0575898740005,27279
1450,25.0,0.0579491030005,27464
1460,26.0,0.0583096150006,27645
1470,26.0,0.0586829560004,27831
1480,26.0,0.0590811010004,28020
1490,26.0,0.0594912200004,28213
1500,26.0,0.0599227210002,28402
1510,27.0,0.0602905030003,28585
1520,27.0,0.0606565740002,28778
1530,26.0,0.0610226450003,28967
1540,26.0,0.0613968410003,29155
1550,26.0,0.0617817290004,29338
1560,26.0,0.0621619120004,29529
1570,26.0,0.0625485100004,29715
1580,26.0,0.0629085930004,29904
1590,26.0,0.0632750910004,30091
1600,26.0,0.0636492870003,30267
1610,26.0,0.0640183510004,30453
1620,26.0,0.0643904090005,30633
1630,26.0,0.0647513480003,30821
1640,27.0,0.0651075830003,31009
1650,26.0,0.0654651010004,31199
1660,26.0,0.0658405800004,31386
1670,27.0,0.0662181970006,31576
1680,27.0,0.0666065050007,31765
1690,27.0,0.0669794180008,31951
1700,27.0,0.0673399290008,32133
1710,27.0,0.0676957360008,32320
1720,27.0,0.0680489770009,32507
1730,27.0,0.069230582001,32697
1740,27.0,0.0696163250011,32884
1750,27.0,0.0699900940012,33075
1760,27.0,0.0703873840014,33264
1770,27.0,0.0707671400014,33447
1780,27.0,0.0711571600016,33638
1790,27.0,0.0715548780015,33826
1800,32.0,0.0719316400014,34004
1810,27.0,0.0723477460015,34191
1820,27.0,0.0728087560017,34376
1830,27.0,0.0731953540017,34568
1840,27.0,0.0735828070017,34757
1850,27.0,0.0740737520018,34939
1860,27.0,0.0745052540017,35129
1870,27.0,0.0749264930018,35316
1880,27.0,0.075304111002,35509
1890,32.0,0.0756971240019,35696
1900,27.0,0.0760884270019,35878
1910,30.0,0.0765058170018,36066
1920,32.0,0.0769403120019,36258
1930,32.0,0.0773269100018,36446
1940,32.0,0.0777143640018,36636
1950,33.0,0.0781236280018,36826
1960,33.0,0.0785624000016,37018
1970,33.0,0.0790747280016,37201
1980,33.0,0.0794921180018,37385
1990,33.0,0.0799274680019,37576
2000,32.0,0.0803649570018,37761
2010,32.0,0.080766095002,37948
2020,32.0,0.081145851002,38140
2030,34.0,0.081524751002,38326
2040,34.0,0.0818822690021,38516
2050,32.0,0.0822761370021,38708
2060,32.0,0.082678131002,38901
2070,32.0,0.0830950930019,39082
2080,32.0,0.0834688620018,39271
2090,32.0,0.083862303002,39458
2100,32.0,0.0842518940019,39649
2110,32.0,0.0846389200019,39832
2120,32.0,0.0850015700019,40015
2130,34.0,0.0853578050019,40204
2140,32.0,0.0857422650017,40389
2150,32.0,0.0861087640017,40574
2160,32.0,0.0864791110018,40763
2170,32.0,0.0868751180019,40954
2180,32.0,0.0872377680018,41143
2190,36.0,0.0876059770019,41331
2200,36.0,0.0880079700021,41520
2210,36.0,0.0884180890021,41701
2220,36.0,0.088803404002,41890
2230,36.0,0.0891882920018,42082
2240,36.0,0.0896578550019,42270
2250,36.0,0.0900260640019,42452
2260,36.0,0.090394701002,42636
2270,36.0,0.0907629100018,42824
2280,36.0,0.0912072410017,43017
2290,36.0,0.0915814380016,43203
2300,36.0,0.0920052420015,43390
2310,36.0,0.0924153610015,43572
2320,36.0,0.0927835700015,43762
2330,36.0,0.0931504960015,43953
2340,38.0,0.0935332450015,44139
2350,36.0,0.0939262580014,44323
2360,37.0,0.0942983160014,44511
2370,36.0,0.0946652420016,44699
2380,38.0,0.0950454250017,44886
2390,38.0,0.0954264640018,45067
2400,36.0,0.0957903970018,45253
2410,36.0,0.0961667320018,45434
2420,36.0,0.0965452050018,45622
2430,36.0,0.0969057160016,45807
2440,36.0,0.0972846170016,45992
2450,38.0,0.0976665110015,46180
2460,38.0,0.0980492600015,46362
2470,38.0,0.0984093440015,46549
2480,38.0,0.0987724210015,46739
2490,38.0,0.0991342150014,46929
2500,40.0,0.0995002860013,47105
2510,40.0,0.0998633640013,47291
2520,40.0,0.100233711001,47473
2530,40.0,0.100635704001,47665
2540,40.0,0.101214746001,47854
2550,38.0,0.101716383002,48037
2560,38.0,0.102071762002,48223
2570,38.0,0.102439544002,48412
2580,38.0,0.102804760002,48594
2590,38.0,0.103181522001,48775
2600,38.0,0.103614734001,48957
2610,38.0,0.104019721001,49144
2620,38.0,0.104382799001,49330
2630,39.0,0.104878876001,49518
2640,40.0,0.105258204001,49707
2650,40.0,0.105651217001,49895
2660,40.0,0.106057915001,50086
2670,40.0,0.106422703001,50271
2680,40.0,0.106788346001,50450
2690,43.0,0.107147147001,50636
2700,40.0,0.107519205001,50828
2710,40.0,0.107890408001,51016
2720,40.0,0.108257761001,51208
2730,40.0,0.108621266001,51390
2740,40.0,0.108983060001,51581
2750,41.0,0.109399166001,51768
2760,40.0,0.109769941001,51959
2770,41.0,0.110254044001,52145
2780,40.0,0.110664591001,52336
2790,40.0,0.111032372001,52521
2800,41.0,0.111401864001,52704
2810,41.0,0.111801720001,52888
2820,41.0,0.112190028002,53071
2830,41.0,0.112565935002,53253
2840,41.0,0.112954244001,53441
2850,41.0,0.113319887002,53629
2860,43.0,0.113688096001,53818
2870,43.0,0.114060581001,54008
2880,43.0,0.114448462002,54190
2890,43.0,0.114824369002,54374
2900,43.0,0.115206263001,54562
2910,43.0,0.115636910002,54759
2920,43.0,0.116050878001,54949
2930,43.0,0.116421653001,55135
2940,44.0,0.116813383001,55325
2950,43.0,0.117188435001,55514
2960,43.0,0.117559638001,55701
2970,44.0,0.118017226001,55891
2980,43.0,0.118393133002,56076
2990,44.0,0.118771606001,56264
3000,43.0,0.119139388001,56452
3010,43.0,0.119547797002,56640
3020,43.0,0.119928408001,56825
3030,43.0,0.120292341001,57012
3040,43.0,0.120681505001,57194
3050,43.0,0.121094617001,57376
3060,43.0,0.121493617001,57565
3070,43.0,0.121860971001,57756
3080,43.0,0.122252274001,57940
3090,43.0,0.122642293001,58131
3100,43.0,0.123040438001,58320
3110,44.0,0.123405653001,58515
3120,43.0,0.123772152001,58706
3130,44.0,0.124146776001,58896
3140,43.0,0.124518406001,59085
3150,44.0,0.124881911001,59273
3160,43.0,0.125252258001,59465
3170,43.0,0.125641422001,59644
3180,43.0,0.126001933001,59826
3190,43.0,0.126359451001,60015
3200,51.0,0.126730653001,60203
3210,43.0,0.127110409001,60392
3220,43.0,0.127473487001,60582
3230,43.0,0.127844262001,60766
3240,43.0,0.128228722001,60950
3250,43.0,0.128637986001,61140
3260,51.0,0.129005339001,61328
3270,51.0,0.129404339001,61512
3280,51.0,0.129832419001,61696
3290,51.0,0.130201055001,61880
3300,51.0,0.130567126001,62071
3310,51.0,0.130949876001,62259
3320,51.0,0.131334764001,62444
3330,51.0,0.131700407001,62629
3340,51.0,0.132110099001,62821
3350,51.0,0.132506533001,63010
3360,51.0,0.132887144001,63198
3370,51.0,0.133408881002,63384
3380,54.0,0.133777090002,63574
3390,54.0,0.134159412002,63763
3400,51.0,0.134634962001,63953
3410,51.0,0.135022415001,64139
3420,51.0,0.135403026001,64327
3430,51.0,0.135788342001,64514
3440,54.0,0.136150136001,64703
3450,54.0,0.136533741001,64891
3460,53.0,0.136896390001,65088
3470,51.0,0.137256046001,65275
3480,51.0,0.137619979001,65462
3490,51.0,0.138008288001,65655
3500,51.0,0.138403867001,65840
3510,51.0,0.138775925001,66029
3520,54.0,0.139160385001,66215
3530,54.0,0.139532443001,66403
3540,54.0,0.139901079001,66589
3550,53.0,0.140259880001,66773
3560,53.0,0.140622530001,66954
3570,53.0,0.140981759001,67142
3580,53.0,0.141351251001,67331
3590,53.0,0.141709197001,67520
3600,53.0,0.142096223001,67707
3610,53.0,0.142495651001,67890
3620,54.0,0.142847609001,68082
3630,54.0,0.143205982001,68271
3640,54.0,0.143587449001,68457
3650,54.0,0.143979179001,68646
3660,54.0,0.144352521001,68832
3670,54.0,0.144714316001,69018
3680,54.0,0.145072689001,69209
3690,54.0,0.145436622001,69395
3700,57.0,0.145794140001,69583
3710,57.0,0.146150374001,69765
3720,57.0,0.146524570001,69950
3730,57.0,0.146885937001,70139
3740,58.0,0.147246449001,70328
3750,57.0,0.147611236001,70514
3760,57.0,0.147977735001,70699
3770,58.0,0.148334825001,70884
3780,58.0,0.148706455001,71071
3790,57.0,0.149073381001,71261
3800,57.0,0.149439451001,71446
3810,57.0,0.149805095001,71626
3820,57.0,0.150181857001,71807
3830,57.0,0.150556054001,71989
3840,57.0,0.150923407001,72172
3850,58.0,0.151344645001,72363
3860,57.0,0.151749204001,72548
3870,57.0,0.152127249002,72730
3880,57.0,0.152507861001,72918
3890,57.0,0.152887189001,73107
3900,57.0,0.153281912001,73291
3910,57.0,0.153640713002,73477
3920,57.0,0.154096591001,73664
3930,57.0,0.159081741001,73845
3940,57.0,0.159447384001,74032
3950,57.0,0.159838686001,74219
3960,57.0,0.160200053001,74407
3970,58.0,0.160586223001,74594
3980,57.0,0.160956571001,74780
3990,57.0,0.161370111001,74972
4000,57.0,0.161751150001,75164
4010,57.0,0.162125346001,75352
4020,57.0,0.162493983001,75536
4030,57.0,0.162928478001,75722
4040,57.0,0.163301819001,75909
4050,57.0,0.163667034001,76101
4060,57.0,0.164035670002,76284
4070,58.0,0.164412432002,76463
4080,57.0,0.164775937002,76643
4090,57.0,0.165168095001,76838
4100,57.0,0.165552983002,77026
4110,57.0,0.165919909002,77208
4120,57.0,0.166279138002,77392
4130,57.0,0.166643070002,77582
4140,57.0,0.167007431002,77770
4150,57.0,0.167408997002,77956
4160,58.0,0.167772074002,78142
4170,58.0,0.168139427002,78333
4180,58.0,0.168516189002,78522
4190,58.0,0.168888675001,78710
4200,62.0,0.169247903001,78897
4210,58.0,0.169616967001,79088
4220,58.0,0.169983466001,79283
4230,58.0,0.170354241001,79469
4240,58.0,0.170724589001,79655
4250,58.0,0.171113754001,79836
4260,62.0,0.171489661001,80022
4270,58.0,0.171943400001,80207
4280,58.0,0.172301345001,80397
4290,58.0,0.172675968001,80588
4300,58.0,0.173049309001,80772
4310,58.0,0.173420511001,80961
4320,58.0,0.173790003001,81148
4330,58.0,0.174150514001,81337
4340,60.0,0.174544810001,81524
4350,58.0,0.174924565001,81713
4360,58.0,0.175347086001,81901
4370,58.0,0.175745659001,82086
4380,58.0,0.176136961001,82270
4390,62.0,0.176563759001,82456
4400,60.0,0.176984569001,82645
4410,58.0,0.177371168001,82835
4420,58.0,0.177752634002,83016
4430,58.0,0.178137950001,83207
4440,58.0,0.178506159001,83394
4450,58.0,0.178876079001,83582
4460,58.0,0.179272513001,83774
4470,58.0,0.179662105001,83965
4480,58.0,0.180058111001,84143
4490,58.0,0.180447703001,84332
4500,58.0,0.180818906001,84515
4510,58.0,0.181223893001,84700
4520,58.0,0.181607070001,84888
4530,58.0,0.181982549001,85074
4540,58.0,0.182354607001,85265
4550,58.0,0.182733507001,85459
4560,58.0,0.183103854001,85650
4570,58.0,0.183473347001,85840
4580,58.0,0.183844550001,86025
4590,58.0,0.184242695001,86216
4600,58.0,0.184659229001,86404
4610,58.0,0.185124943001,86594
4620,58.0,0.185517101001,86782
4630,62.0,0.186342899001,86963
4640,58.0,0.186713674001,87150
4650,58.0,0.187108825001,87335
4660,58.0,0.187500127001,87525
4670,62.0,0.187919226001,87709
4680,58.0,0.188337042001,87895
4690,58.0,0.188723212001,88085
4700,62.0,0.189114087001,88280
4710,62.0,0.189482296001,88462
4720,62.0,0.189872743001,88651
4730,62.0,0.190273454001,88841
4740,62.0,0.190657059001,89033
4750,62.0,0.191047506001,89208
4760,62.0,0.191431111001,89388
4770,62.0,0.191813432001,89571
4780,62.0,0.192206017001,89766
4790,62.0,0.192573371001,89953
4800,62.0,0.192947995001,90144
4810,65.0,0.193312356,90337
4820,65.0,0.193720765001,90526
4830,62.0,0.194108219001,90707
4840,62.0,0.194493534,90896
4850,62.0,0.194948129001,91084
4860,65.0,0.195348412,91272
4870,62.0,0.195731589,91460
4880,62.0,0.196101081,91650
4890,62.0,0.19651676,91837
4900,62.0,0.196939281,92025
4910,62.0,0.197404995,92213
4920,62.0,0.197774487,92398
4930,62.0,0.198128583,92582
4940,62.0,0.198504918,92771
4950,62.0,0.198876976,92961
4960,62.0,0.199234494,93148
4970,62.0,0.199602276,93341
4980,65.0,0.199956373001,93535
4990,62.0,0.200345965001,93727
