it,funval,time,funcount
0,12.0,0.000182180000024,289
10,14.0,0.000367354000048,478
20,14.0,0.000546540000073,664
30,14.0,0.00072743700008,848
40,34.0,0.000915177000081,1036
50,35.0,0.00109693000007,1222
60,35.0,0.00128039300012,1409
70,34.0,0.00146214500012,1595
80,34.0,0.00164432500009,1789
90,35.0,0.00183976300008,1976
100,35.0,0.00202493700004,2167
110,35.0,0.00220497900006,2359
120,34.0,0.00239528500009,2544
130,35.0,0.00258045900006,2731
140,34.0,0.0027746130001,2920
150,35.0,0.0029653470001,3113
160,35.0,0.0031530870001,3302
170,35.0,0.00335836000011,3488
180,35.0,0.00355593500012,3678
190,35.0,0.0037432470001,3865
200,35.0,0.00392499900011,4059
210,35.0,0.00410974500011,4248
220,35.0,0.00429021400009,4440
230,35.0,0.00447068400013,4624
240,35.0,0.00466013400012,4811
250,35.0,0.00484872900012,5000
260,35.0,0.00502962600012,5191
270,35.0,0.00520924000011,5376
280,35.0,0.00539698000011,5565
290,35.0,0.00560567400009,5748
300,35.0,0.00582078400009,5936
310,35.0,0.00608507300007,6124
320,35.0,0.00627195800007,6311
330,35.0,0.00646269100008,6500
340,35.0,0.00664914700008,6693
350,35.0,0.00686425700007,6880
360,35.0,0.00707423400007,7064
370,35.0,0.00727565900007,7256
380,35.0,0.00749034100005,7439
390,35.0,0.00767423100001,7628
400,35.0,0.00788549200001,7820
410,35.0,0.00808092900002,8010
420,35.0,0.00869846000001,8199
430,35.0,0.00889518000002,8381
440,35.0,0.00907650500005,8570
450,35.0,0.00926039600006,8757
460,35.0,0.00946738000005,8941
470,35.0,0.00972910300004,9128
480,35.0,0.00994677800003,9315
490,35.0,0.010431736,9501
500,35.0,0.010618621,9693
510,35.0,0.010817907,9879
520,35.0,0.011013773,10065
530,35.0,0.011206217,10251
540,35.0,0.011394811,10439
550,35.0,0.0115902490001,10627
560,35.0,0.0117831210001,10811
570,35.0,0.0119747100001,10992
580,35.0,0.0121654440001,11181
590,35.0,0.0123570320001,11366
600,35.0,0.012548193,11555
610,35.0,0.0127560330001,11745
620,35.0,0.0129347920001,11934
630,35.0,0.0131225320001,12125
640,35.0,0.0133286610001,12313
650,35.0,0.013520677,12505
660,35.0,0.0137216740001,12695
670,35.0,0.0139141180001,12883
680,35.0,0.0142972950001,13068
690,35.0,0.014497437,13247
700,35.0,0.0147335010001,13431
710,35.0,0.0149268000001,13618
720,35.0,0.0151192440001,13801
730,35.0,0.0153001410001,13986
740,35.0,0.0154942950001,14171
750,35.0,0.0156846,14361
760,35.0,0.015895861,14541
770,35.0,0.016102845,14732
780,35.0,0.0162871630001,14919
790,35.0,0.0164633560001,15106
800,35.0,0.0166763270001,15294
810,35.0,0.0168991340001,15477
820,35.0,0.017101842,15658
830,35.0,0.0172857330001,15839
840,35.0,0.017476038,16033
850,35.0,0.017689437,16217
860,35.0,0.017906685,16399
870,35.0,0.018106399,16581
880,35.0,0.018293283,16766
890,35.0,0.0185340510001,16951
900,35.0,0.0187542930001,17136
910,35.0,0.0189634150001,17320
920,35.0,0.0191524380001,17510
930,35.0,0.0193427440001,17697
940,35.0,0.0195360430001,17890
950,35.0,0.0197622710001,18074
960,35.0,0.0199705380001,18264
970,35.0,0.02015956,18451
980,35.0,0.0225330330001,18635
990,35.0,0.0227327470001,18824
1000,35.0,0.0229311780001,19015
1010,35.0,0.0231219110001,19205
1020,35.0,0.0233259010001,19396
1030,35.0,0.0235435760001,19577
1040,35.0,0.0237616790001,19762
1050,35.0,0.0239810650001,19950
1060,35.0,0.0241897590001,20140
1070,35.0,0.0244035860001,20323
1080,35.0,0.0246234000001,20508
1090,35.0,0.0248107110001,20699
1100,35.0,0.0249950290001,20887
1110,35.0,0.0252289550002,21082
1120,35.0,0.0254380780001,21272
1130,35.0,0.0256300940002,21458
1140,35.0,0.0258122740002,21644
1150,35.0,0.0259991580002,21825
1160,35.0,0.0262172610002,22011
1170,35.0,0.0264289490002,22197
1180,35.0,0.0266453410002,22386
1190,35.0,0.0268591670002,22569
1200,35.0,0.0270409200003,22760
1210,35.0,0.0272282320003,22949
1220,35.0,0.0274489010004,23136
1230,35.0,0.0276601620004,23324
1240,35.0,0.0278551720003,23510
1250,35.0,0.0280463330003,23698
1260,35.0,0.0282362110003,23887
1270,35.0,0.0284804010003,24073
1280,35.0,0.0286668580003,24259
1290,35.0,0.0288759800003,24448
1300,35.0,0.0290722720003,24634
1310,35.0,0.0292745510003,24819
1320,35.0,0.0294687050003,25004
1330,35.0,0.0296675640004,25197
1340,35.0,0.0298655680004,25385
1350,35.0,0.0300669930004,25572
1360,35.0,0.0302718390004,25756
1370,35.0,0.0304582950004,25947
1380,35.0,0.0306490280004,26132
1390,35.0,0.0308483140004,26318
1400,35.0,0.0310360540004,26502
1410,35.0,0.0312233650004,26693
1420,35.0,0.0314200860004,26884
1430,35.0,0.0316056870004,27074
1440,35.0,0.0318143810004,27261
1450,35.0,0.0320350500004,27449
1460,35.0,0.0322168030004,27632
1470,35.0,0.0324186560005,27815
1480,35.0,0.0326222190005,28000
1490,35.0,0.0328168010005,28182
1500,35.0,0.0330113830005,28372
1510,35.0,0.0332046820005,28557
1520,35.0,0.0334133770004,28742
1530,35.0,0.0336006890004,28923
1540,35.0,0.0337901400004,29107
1550,35.0,0.0339710370004,29293
1560,35.0,0.0341724610004,29477
1570,35.0,0.0343922750004,29665
1580,35.0,0.0345860010004,29853
1590,35.0,0.0347968340004,30041
1600,35.0,0.0350247730004,30230
1610,35.0,0.0352394550004,30418
1620,35.0,0.0354301890004,30612
1630,35.0,0.0356183560004,30802
1640,35.0,0.0358304720004,30988
1650,35.0,0.0360515680004,31178
1660,35.0,0.0362987510004,31366
1670,35.0,0.0364984650004,31552
1680,35.0,0.0366862050004,31738
1690,35.0,0.0368949000004,31930
1700,35.0,0.0371309650004,32118
1710,35.0,0.0373242640004,32300
1720,35.0,0.0375111480004,32489
1730,35.0,0.0377035920004,32671
1740,35.0,0.0378883380004,32860
1750,35.0,0.0381081520004,33049
1760,35.0,0.0382920420004,33245
1770,35.0,0.0384733670004,33430
1780,35.0,0.0386679490005,33615
1790,35.0,0.0388556890005,33802
1800,35.0,0.0390528370004,33992
1810,35.0,0.0392341620005,34180
1820,35.0,0.0394176250005,34368
1830,35.0,0.0396062200005,34563
1840,35.0,0.0398089270005,34746
1850,35.0,0.0399979500004,34930
1860,35.0,0.0401732880005,35117
1870,35.0,0.0403785610005,35296
1880,35.0,0.0405791310005,35480
1890,35.0,0.0407664430005,35669
1900,35.0,0.0409584600005,35856
1910,35.0,0.0411414960005,36038
1920,35.0,0.0413852580005,36228
1930,35.0,0.0415729980005,36414
1940,35.0,0.0417752780005,36599
1950,35.0,0.0420198950005,36785
1960,35.0,0.0422208920004,36971
1970,35.0,0.0424137640005,37156
1980,35.0,0.0426211760005,37345
1990,35.0,0.0428170410004,37533
2000,35.0,0.0430060630004,37719
2010,35.0,0.0431989340004,37906
2020,35.0,0.0433905220004,38093
2030,35.0,0.0435880980004,38286
2040,35.0,0.0437728440004,38474
2050,35.0,0.0439575900004,38665
2060,35.0,0.0441722720004,38856
2070,35.0,0.0443557350004,39042
2080,35.0,0.0445439020004,39230
2090,35.0,0.0447359180005,39422
2100,35.0,0.0449155320005,39607
2110,35.0,0.0451109690005,39790
2120,35.0,0.0452991360005,39974
2130,35.0,0.0454847370005,40158
2140,35.0,0.0456720490005,40345
2150,35.0,0.0458520910004,40536
2160,35.0,0.0460355540004,40726
2170,35.0,0.0462284250004,40913
2180,35.0,0.0464208690004,41102
2190,35.0,0.0466068980004,41288
2200,35.0,0.0468053290004,41477
2210,35.0,0.0469956350005,41663
2220,35.0,0.0471820920005,41845
2230,35.0,0.0473706870005,42037
2240,35.0,0.0475665520004,42220
2250,35.0,0.0477547190005,42409
2260,35.0,0.0479347610004,42596
2270,35.0,0.0499964750004,42780
2280,35.0,0.0501863530004,42965
2290,35.0,0.0504536360004,43155
2300,35.0,0.0506542060004,43345
2310,35.0,0.0508646110005,43534
2320,35.0,0.0510626140004,43725
2330,35.0,0.0512439380005,43914
2340,35.0,0.0514419410005,44104
2350,35.0,0.0516309640005,44295
2360,35.0,0.0518251180005,44484
2370,35.0,0.0520522020005,44671
2380,35.0,0.0522395140005,44859
2390,35.0,0.0524315310005,45046
2400,35.0,0.0526462130006,45230
2410,35.0,0.0528382290005,45413
2420,35.0,0.0530306720005,45600
2430,35.0,0.0532432160006,45790
2440,35.0,0.0534305280005,45976
2450,35.0,0.0536191230005,46162
2460,35.0,0.0538025860005,46342
2470,35.0,0.0539941750005,46530
2480,35.0,0.0541968820006,46717
2490,35.0,0.0543880430005,46902
2500,35.0,0.0545817690005,47085
2510,35.0,0.0547742120005,47270
2520,35.0,0.0549777750005,47457
2530,35.0,0.0552014370005,47642
2540,35.0,0.0553806240005,47832
2550,35.0,0.0555717850005,48021
2560,35.0,0.0557770590005,48208
2570,35.0,0.0559686480005,48398
2580,35.0,0.0561555320004,48582
2590,35.0,0.0563608050005,48767
2600,35.0,0.0565930210005,48953
2610,35.0,0.0567828990004,49143
2620,35.0,0.0569736320004,49326
2630,35.0,0.0571562400004,49513
2640,35.0,0.0573422690005,49698
2650,35.0,0.0575569510005,49887
2660,35.0,0.0577468290005,50078
2670,35.0,0.0579529580005,50264
2680,35.0,0.0581518170005,50443
2690,35.0,0.0583382730005,50634
2700,35.0,0.0585396970005,50817
2710,35.0,0.0587270090005,51007
2720,35.0,0.0589138930005,51193
2730,35.0,0.0591101850005,51383
2740,35.0,0.0592974970005,51565
2750,35.0,0.0594869470005,51753
2760,35.0,0.0596828120005,51932
2770,35.0,0.0598940720005,52124
2780,35.0,0.0600792450006,52310
2790,35.0,0.0602759650006,52497
2800,35.0,0.0604645600006,52687
2810,35.0,0.0606484510006,52873
2820,35.0,0.0608370460006,53061
2830,35.0,0.0610252130006,53244
2840,35.0,0.0612150910006,53434
2850,35.0,0.0614152330006,53622
2860,35.0,0.0616055380007,53805
2870,35.0,0.0617885740007,53990
2880,35.0,0.0619878600007,54178
2890,35.0,0.0621909950007,54365
2900,35.0,0.0623864320007,54549
2910,35.0,0.0625844360007,54734
2920,35.0,0.0627982620007,54925
2930,35.0,0.0629954100007,55108
2940,35.0,0.0631810120007,55297
2950,35.0,0.0633743110007,55481
2960,35.0,0.0635663270007,55671
2970,35.0,0.0637737380006,55855
2980,35.0,0.0639743070006,56042
2990,35.0,0.0641658950006,56230
3000,35.0,0.0643861360006,56421
3010,35.0,0.0645935480006,56611
3020,35.0,0.0648172100006,56798
3030,35.0,0.0650314640006,56987
3040,35.0,0.0652431520006,57178
3050,35.0,0.0654710910006,57363
3060,35.0,0.0656849180006,57554
3070,35.0,0.0658910460006,57743
3080,35.0,0.0660924710006,57932
3090,35.0,0.0663033040006,58119
3100,35.0,0.0665064390006,58306
3110,35.0,0.0667052980006,58498
3120,35.0,0.0669366590006,58685
3130,35.0,0.0671444980006,58869
3140,35.0,0.0673266780006,59056
3150,35.0,0.0675152730006,59238
3160,35.0,0.0677329480006,59425
3170,35.0,0.0679356560006,59611
3180,35.0,0.0681529040006,59802
3190,35.0,0.0683568940007,59984
3200,35.0,0.0685403570007,60172
3210,35.0,0.0687387880007,60356
3220,35.0,0.0689414950007,60542
3230,35.0,0.0691570320008,60729
3240,35.0,0.0693588840007,60921
3250,35.0,0.0695769870007,61109
3260,35.0,0.0697912420007,61298
3270,35.0,0.0700444130007,61483
3280,35.0,0.0702633710007,61672
3290,35.0,0.0704643670007,61857
3300,35.0,0.0706747720007,62045
3310,35.0,0.0708877430007,62235
3320,35.0,0.0710883120007,62424
3330,35.0,0.0712910190007,62614
3340,35.0,0.0714915880006,62808
3350,35.0,0.0717002820007,62998
3360,35.0,0.0719076940006,63183
3370,35.0,0.0721300740006,63369
3380,35.0,0.0723203790006,63558
3390,35.0,0.0725324950006,63744
3400,35.0,0.0727433280006,63928
3410,35.0,0.0729858070006,64115
3420,35.0,0.0732552280006,64302
3430,35.0,0.0734579360005,64490
3440,35.0,0.0736709070005,64676
3450,35.0,0.0738684820005,64863
3460,35.0,0.0740716170005,65045
3470,35.0,0.0742704750005,65232
3480,35.0,0.0744924270005,65423
3490,35.0,0.0746972730005,65608
3500,35.0,0.0749004080005,65795
3510,35.0,0.0751283470005,65978
3520,35.0,0.0753207910005,66166
3530,35.0,0.0755158000006,66353
3540,35.0,0.0779072350006,66539
3550,35.0,0.0780992510006,66730
3560,35.0,0.0783062350006,66919
3570,35.0,0.0785097980006,67101
3580,35.0,0.0787125050006,67283
3590,35.0,0.0789177780006,67469
3600,35.0,0.0791213410006,67653
3610,35.0,0.0793287530006,67837
3620,35.0,0.0795575470006,68025
3630,35.0,0.0797568330007,68205
3640,35.0,0.0799633890007,68388
3650,35.0,0.0802054410007,68579
3660,35.0,0.0804107140007,68770
3670,35.0,0.0806040130007,68959
3680,35.0,0.0808015880007,69142
3690,35.0,0.0810184080007,69328
3700,35.0,0.0812172670007,69515
3710,35.0,0.0814289550008,69696
3720,35.0,0.0816346560008,69881
3730,35.0,0.0818382190008,70069
3740,35.0,0.0820789880008,70256
3750,35.0,0.0822863990008,70442
3760,35.0,0.0824916720008,70625
3770,35.0,0.0826973730008,70815
3780,35.0,0.0829047840008,71006
3790,35.0,0.0831173270008,71191
3800,35.0,0.0833298710008,71377
3810,35.0,0.0835411320008,71561
3820,35.0,0.0837455500007,71746
3830,35.0,0.0839585210007,71937
3840,35.0,0.0842061320008,72123
3850,35.0,0.0844182480008,72304
3860,35.0,0.0846115470007,72491
3870,35.0,0.0848202420007,72677
3880,35.0,0.0850148240007,72858
3890,35.0,0.0852307880007,73046
3900,35.0,0.0854356340007,73236
3910,35.0,0.0856464670007,73417
3920,35.0,0.0858342060008,73606
3930,35.0,0.0860553030008,73797
3940,35.0,0.0862674190008,73982
3950,35.0,0.0864915090008,74168
3960,35.0,0.0866886570008,74357
3970,35.0,0.0868815280007,74545
3980,35.0,0.0870765380008,74731
3990,35.0,0.0872818110008,74908
4000,35.0,0.0874772490008,75094
4010,35.0,0.0876752520007,75284
4020,35.0,0.0878950660007,75470
4030,35.0,0.0880866550007,75658
4040,35.0,0.0882872250007,75843
4050,35.0,0.0884835180007,76031
4060,35.0,0.0886866530007,76215
4070,35.0,0.0888812360007,76404
4080,35.0,0.0890792390007,76590
4090,35.0,0.0892840850008,76780
4100,35.0,0.0894910690008,76964
4110,35.0,0.0899341170008,77146
4120,35.0,0.0901612010008,77328
4130,35.0,0.0903870020008,77518
4140,35.0,0.0906260600008,77708
4150,35.0,0.0908394580008,77892
4160,35.0,0.0910396000008,78075
4170,35.0,0.0912376030008,78264
4180,35.0,0.0914595550008,78455
4190,35.0,0.0916823630008,78641
4200,35.0,0.0918773720009,78836
4210,35.0,0.0920732370008,79018
4220,35.0,0.0922678200008,79205
4230,35.0,0.0924829300008,79391
4240,35.0,0.0926959020008,79569
4250,35.0,0.0928857790008,79757
4260,35.0,0.0930739460008,79948
4270,35.0,0.0932800740008,80138
4280,35.0,0.0934716630008,80325
4290,35.0,0.0936692380008,80511
4300,35.0,0.0939082960008,80703
4310,35.0,0.0941075820008,80889
4320,35.0,0.0943393700008,81075
4330,35.0,0.0945330970008,81261
4340,35.0,0.0947319560008,81448
4350,35.0,0.0949214060008,81634
4360,35.0,0.0951147050008,81819
4370,35.0,0.0953358020008,82010
4380,35.0,0.0955278180008,82193
4390,35.0,0.0957189790008,82378
4400,35.0,0.0959015870008,82565
4410,35.0,0.0960987350008,82751
4420,35.0,0.0963305230008,82939
4430,35.0,0.0965216840008,83127
4440,35.0,0.0967149830008,83312
4450,35.0,0.0969138420008,83497
4460,35.0,0.0971062860008,83691
4470,35.0,0.0972944530008,83877
4480,35.0,0.0974860420008,84063
4490,35.0,0.0976776300008,84252
4500,35.0,0.0978709290008,84440
4510,35.0,0.0980590960008,84625
4520,35.0,0.0982558170008,84813
4530,35.0,0.0984580970008,84998
4540,35.0,0.0986582390008,85186
4550,35.0,0.0988729210009,85374
4560,35.0,0.0990606600009,85565
4570,35.0,0.0992732040008,85752
4580,35.0,0.0994647920008,85941
4590,35.0,0.0996670720008,86133
4600,34.0,0.0998556670008,86312
4610,35.0,0.100066927001,86500
4620,34.0,0.100282892001,86691
4630,35.0,0.100483034001,86879
4640,35.0,0.100718243001,87067
4650,35.0,0.100912398001,87256
4660,34.0,0.101106125001,87443
4670,34.0,0.101319524001,87632
4680,35.0,0.101573122001,87821
4690,35.0,0.101806192001,88001
4700,35.0,0.102002057001,88193
4710,34.0,0.102191079001,88375
4720,35.0,0.102389082001,88556
4730,34.0,0.102593072001,88746
4740,34.0,0.102793214001,88929
4750,35.0,0.102993356001,89113
4760,34.0,0.103183234001,89300
4770,34.0,0.103388935001,89484
4780,35.0,0.103582662001,89668
4790,34.0,0.105831261001,89853
4800,34.0,0.106033540001,90045
4810,35.0,0.106231116001,90229
4820,35.0,0.106432540001,90417
4830,35.0,0.106627977001,90605
4840,35.0,0.106839665001,90786
4850,35.0,0.107032536001,90978
4860,34.0,0.107237810001,91167
4870,34.0,0.107437951001,91357
4880,35.0,0.107712504001,91543
4890,35.0,0.107905803001,91733
4900,35.0,0.108102951001,91915
4910,35.0,0.108296250001,92104
4920,35.0,0.108498530001,92286
4930,35.0,0.108696106001,92477
4940,35.0,0.108906084001,92666
4950,35.0,0.109099811001,92856
4960,35.0,0.109284985001,93045
4970,35.0,0.109483844001,93230
4980,35.0,0.109667735001,93424
4990,35.0,0.109878995001,93611
