it,funval,time,funcount
0,10.0,0.000378899999987,558
10,11.0,0.000776188999907,1025
20,14.0,0.00122436899983,1488
30,17.0,0.00160754599983,1940
40,16.0,0.00199328899976,2386
50,17.0,0.00238758499972,2840
60,17.0,0.00284132499974,3304
70,17.0,0.00321466599985,3745
80,17.0,0.00360981799986,4197
90,17.0,0.00407339399976,4647
100,18.0,0.00445785399984,5105
110,18.0,0.00483247699981,5565
120,18.0,0.00520410699983,6027
130,18.0,0.00560952199999,6478
140,19.0,0.00598927700003,6940
150,19.0,0.00642248899999,7402
160,19.0,0.00681079799983,7857
170,19.0,0.00719654099976,8310
180,19.0,0.00759853499994,8759
190,19.0,0.00801421399979,9205
200,19.0,0.00845897299973,9673
210,19.0,0.0088626769998,10125
220,19.0,0.00926039399974,10593
230,23.0,0.00967906599976,11049
240,26.0,0.0101011589998,11509
250,23.0,0.0105249629996,11969
260,25.0,0.0109769919995,12434
270,30.0,0.0114504029996,12888
280,30.0,0.0119755599994,13345
290,33.0,0.0123707109994,13804
300,33.0,0.0127453349994,14254
310,33.0,0.0185661189994,14711
320,33.0,0.0189762379994,15171
330,33.0,0.0193619809995,15650
340,34.0,0.0197327559995,16115
350,34.0,0.0201133669996,16574
360,34.0,0.0205375989997,17023
370,33.0,0.0209378819995,17483
380,35.0,0.0213373099996,17938
390,35.0,0.0217358819996,18381
400,35.0,0.0221425799996,18824
410,38.0,0.0225441459995,19283
420,38.0,0.0229491339996,19747
430,41.0,0.0233387259996,20209
440,41.0,0.0237360149995,20663
450,43.0,0.0241812009995,21115
460,44.0,0.0245891819995,21569
470,43.0,0.0251566769996,22039
480,44.0,0.0255407089996,22482
490,44.0,0.0259166159997,22925
500,44.0,0.0263322949997,23392
510,44.0,0.0267548159998,23846
520,43.0,0.0271499679998,24297
530,44.0,0.0275823249997,24762
540,43.0,0.0279877399998,25213
550,43.0,0.02836493,25678
560,43.0,0.028819098,26139
570,44.0,0.029210828,26576
580,44.0,0.029623941,27040
590,44.0,0.030007546,27495
600,44.0,0.0304185199998,27938
610,43.0,0.0308196589999,28383
620,43.0,0.031243891,28847
630,45.0,0.0316604249999,29296
640,44.0,0.032044885,29756
650,47.0,0.0324289180001,30219
660,47.0,0.0328099560002,30671
670,47.0,0.0331982650002,31115
680,47.0,0.0335951270001,31577
690,47.0,0.0340069570002,32008
700,47.0,0.0343850020001,32474
710,48.0,0.0347677510003,32932
720,48.0,0.0351714560004,33395
730,47.0,0.0356166430004,33870
740,47.0,0.0360631130004,34332
750,48.0,0.0365437950004,34787
760,48.0,0.0369992460003,35241
770,48.0,0.0374440050002,35694
780,48.0,0.0378917570001,36155
790,48.0,0.0383600370003,36603
800,50.0,0.0388137770003,37049
810,48.0,0.0392653790004,37501
820,49.0,0.0397332310004,37944
830,51.0,0.0402074980004,38401
840,48.0,0.0406633760003,38862
850,51.0,0.0411513280005,39316
860,51.0,0.0416076340007,39761
870,51.0,0.0420819010008,40226
880,50.0,0.0425514640008,40687
890,49.0,0.0430218820009,41147
900,48.0,0.0434824640008,41624
910,49.0,0.0439605800009,42079
920,49.0,0.0444288600011,42539
930,52.0,0.0448834550011,42986
940,54.0,0.0453324900011,43449
950,57.0,0.045795638001,43910
960,58.0,0.0462758930009,44363
970,57.0,0.0467369020009,44833
980,57.0,0.0471974840011,45296
990,57.0,0.047688002001,45758
1000,57.0,0.0481567100012,46216
1010,57.0,0.0486181470012,46672
1020,57.0,0.0490898480014,47132
1030,57.0,0.0496410920014,47597
1040,57.0,0.0501222020014,48073
1050,57.0,0.0505934750013,48521
1060,57.0,0.0510728740014,48972
1070,57.0,0.0515411540014,49418
1080,57.0,0.0520710160013,49878
1090,57.0,0.0526256820012,50326
1100,57.0,0.0531166280014,50769
1110,57.0,0.0535985930012,51225
1120,57.0,0.0540655900013,51682
1130,57.0,0.0546091370013,52133
1140,57.0,0.0550787000013,52585
1150,57.0,0.0555414210014,53040
1160,60.0,0.0560182540014,53512
1170,60.0,0.0565027850014,53962
1180,61.0,0.0569791900014,54418
1190,61.0,0.0576116880013,54877
1200,62.0,0.0581163180011,55333
1210,62.0,0.058650029001,55793
1220,61.0,0.0591242960011,56254
1230,61.0,0.0595481000012,56699
1240,61.0,0.0599338420011,57139
1250,61.0,0.060330704001,57599
1260,61.0,0.060749376001,58039
1270,62.0,0.061151370001,58493
1280,62.0,0.0615529360011,58944
1290,59.0,0.0619442390011,59392
1300,59.0,0.0624048210011,59843
1310,61.0,0.062790564001,60302
1320,60.0,0.0632156510012,60755
1330,61.0,0.0636642590011,61200
1340,60.0,0.064067963001,61647
1350,59.0,0.0644614040009,62116
1360,61.0,0.0648723780007,62569
1370,59.0,0.0652795040007,63009
1380,59.0,0.0656844910006,63461
1390,59.0,0.0661356650007,63910
1400,62.0,0.0665406530006,64354
1410,59.0,0.0669627470006,64807
1420,59.0,0.0673519110005,65266
1430,59.0,0.0677402200006,65721
1440,59.0,0.0681272460006,66179
1450,62.0,0.0685313780007,66631
1460,62.0,0.0689132720008,67084
1470,62.0,0.0693024360007,67533
1480,64.0,0.0696984430006,67995
1490,64.0,0.0700948770004,68443
1500,64.0,0.0704797640003,68906
1510,59.0,0.0708697830005,69377
1520,59.0,0.0712739150003,69835
1530,62.0,0.0716848890002,70265
1540,62.0,0.0721176740001,70723
1550,59.0,0.0725132530001,71179
1560,59.0,0.0729186680001,71636
1570,64.0,0.073312964,72095
1580,64.0,0.073704266,72548
1590,64.0,0.0740994180001,73001
1600,64.0,0.0744885820002,73444
1610,64.0,0.0748734700001,73894
1620,64.0,0.075287438,74348
1630,64.0,0.075693708,74815
1640,64.0,0.076091853,75279
1650,64.0,0.0764728920001,75748
1660,64.0,0.0768569239999,76207
1670,66.0,0.0772627669999,76659
1680,66.0,0.0776442329998,77120
1690,66.0,0.0780359629998,77579
1700,66.0,0.0784268379998,78040
1710,66.0,0.0788202789997,78500
1720,66.0,0.0792479319998,78947
1730,66.0,0.0797072319999,79411
1740,68.0,0.0801019549999,79876
1750,66.0,0.080530035,80337
1760,66.0,0.080928608,80784
1770,68.0,0.0813417209999,81251
1780,66.0,0.08174457,81697
1790,66.0,0.0821529789998,82160
1800,66.0,0.0825575379999,82617
1810,66.0,0.0829599589999,83049
1820,66.0,0.083374782,83513
1830,68.0,0.0837985860001,83986
1840,68.0,0.0842886770001,84446
1850,69.0,0.0846910980001,84903
1860,68.0,0.0851200340001,85377
1870,71.0,0.085509626,85811
1880,69.0,0.0860236650001,86278
1890,69.0,0.0864277969999,86732
1900,69.0,0.086836206,87198
1910,69.0,0.087249319,87660
1920,69.0,0.0876983539999,88108
1930,69.0,0.088098637,88564
1940,69.0,0.088496354,89018
1950,67.0,0.088900058,89478
1960,69.0,0.0893431070001,89939
1970,69.0,0.0897553640002,90380
1980,69.0,0.0901616350002,90855
1990,69.0,0.0905614910002,91317
2000,69.0,0.0909579250003,91774
2010,69.0,0.0913573530004,92220
2020,69.0,0.0917764530004,92677
2030,69.0,0.0922524300004,93125
2040,69.0,0.0926552790004,93584
2050,69.0,0.0932227750002,94041
2060,69.0,0.0936277630001,94503
2070,69.0,0.0941542040002,94967
2080,69.0,0.0945810020003,95425
2090,69.0,0.0949800030003,95875
2100,70.0,0.0954221960001,96331
2110,71.0,0.0958836329999,96789
2120,69.0,0.0962924689998,97239
2130,69.0,0.0966987389997,97697
2140,69.0,0.0971165559997,98145
2150,71.0,0.0975138449996,98601
2160,70.0,0.0979128459996,99069
2170,71.0,0.0983169779995,99530
2180,71.0,0.0987805539996,99983
2190,69.0,0.0992154769997,100439
2200,70.0,0.0996379979997,100913
2210,69.0,0.100050683,101372
2220,69.0,0.100495442,101822
2230,69.0,0.100903849999,102281
2240,69.0,0.101328509,102745
2250,69.0,0.101739484,103211
2260,69.0,0.102450671,103662
2270,71.0,0.102869770999,104126
2280,71.0,0.103268343,104573
2290,69.0,0.103664776999,105037
2300,71.0,0.104058645999,105485
2310,69.0,0.104503833,105947
2320,69.0,0.104920794,106400
2330,69.0,0.105374962,106849
2340,69.0,0.105792779,107318
2350,71.0,0.106205464,107768
2360,69.0,0.106650651,108230
2370,69.0,0.107064619,108688
2380,69.0,0.10746704,109143
2390,69.0,0.107974236,109603
2400,69.0,0.108424982,110070
2410,69.0,0.108817139,110529
2420,72.0,0.109233673,110995
2430,72.0,0.109635666,111457
2440,72.0,0.110051772,111910
2450,71.0,0.110468306,112363
2460,72.0,0.110872865,112833
2470,69.0,0.111272721,113295
2480,69.0,0.111680274,113754
2490,71.0,0.11211819,114210
2500,73.0,0.112579627,114671
2510,73.0,0.112994878,115128
2520,73.0,0.113484541,115573
2530,73.0,0.11411148,116026
2540,73.0,0.11452502,116502
2550,73.0,0.114940271,116957
2560,73.0,0.11537049,117396
2570,69.0,0.115788307,117850
2580,72.0,0.116190728,118312
2590,73.0,0.116622657,118774
2600,73.0,0.117080673,119233
2610,72.0,0.117545531,119672
2620,72.0,0.118006968,120129
2630,72.0,0.118449161,120595
2640,70.0,0.118849871,121049
2650,70.0,0.119331408,121491
2660,72.0,0.119769752,121933
2670,72.0,0.120161054,122389
2680,70.0,0.120552356,122847
2690,70.0,0.12096718,123312
2700,70.0,0.121400392,123770
2710,70.0,0.121853276,124231
2720,71.0,0.122305305,124691
2730,71.0,0.12272355,125141
2740,71.0,0.123146499,125601
2750,70.0,0.123587837,126051
2760,70.0,0.124120264,126521
2770,70.0,0.124603084,126982
2780,70.0,0.125085477,127446
2790,70.0,0.125603364,127886
2800,70.0,0.126092599,128339
2810,71.0,0.126565583,128807
2820,70.0,0.127059522,129263
2830,70.0,0.127553889,129715
2840,69.0,0.128046973,130180
2850,69.0,0.12852851,130641
2860,70.0,0.129010902,131097
2870,70.0,0.129515532,131559
2880,70.0,0.12999878,132015
2890,70.0,0.130485876,132485
2900,71.0,0.130975538,132954
2910,70.0,0.131373255,133416
2920,70.0,0.131818013,133869
2930,70.0,0.132284582,134331
2940,70.0,0.132807601,134802
2950,69.0,0.133317791,135266
2960,69.0,0.13374074,135737
2970,69.0,0.134171386,136193
2980,71.0,0.134584071,136654
2990,69.0,0.134995045,137117
3000,70.0,0.135403026,137559
3010,69.0,0.135816993,138020
3020,70.0,0.136241225001,138473
3030,69.0,0.13666674,138928
3040,69.0,0.137177358,139384
3050,69.0,0.137599023,139841
3060,69.0,0.138013419,140301
3070,70.0,0.138440216,140762
3080,74.0,0.13885675,141225
3090,69.0,0.139295522,141682
3100,73.0,0.139719326,142153
3110,73.0,0.140132866,142602
3120,73.0,0.140576342,143051
3130,72.0,0.141045477,143499
3140,73.0,0.141474841,143948
3150,73.0,0.141949108001,144406
3160,72.0,0.142394722001,144870
3170,72.0,0.142842474001,145327
3180,72.0,0.143294503001,145778
3190,72.0,0.143721728001,146241
3200,73.0,0.144213101001,146710
3210,73.0,0.144674538001,147159
3220,73.0,0.145086796001,147608
3230,72.0,0.145539253001,148055
3240,72.0,0.146021645001,148512
3250,72.0,0.146421928001,148965
3260,73.0,0.146821356001,149434
3270,73.0,0.147237889001,149903
3280,72.0,0.147651429001,150359
3290,73.0,0.148115004001,150834
3300,73.0,0.148558908001,151293
3310,73.0,0.149013931001,151753
3320,73.0,0.149498462001,152208
3330,73.0,0.149967170001,152682
3340,73.0,0.150531672,153142
3350,73.0,0.150940081,153598
3360,74.0,0.15136474,154052
3370,74.0,0.151775715,154503
3380,73.0,0.152193104,154959
3390,73.0,0.152614342,155416
3400,73.0,0.153052686,155859
3410,73.0,0.153549619,156315
3420,73.0,0.153941777,156775
3430,73.0,0.154448546,157231
3440,73.0,0.154869784,157689
3450,74.0,0.15525681,158163
3460,73.0,0.155690877,158625
3470,73.0,0.156084745,159086
3480,72.0,0.156526938,159551
3490,72.0,0.156949459,160008
3500,72.0,0.157443398,160469
3510,72.0,0.15786763,160922
3520,72.0,0.158342325,161375
3530,72.0,0.158737049,161814
3540,73.0,0.159180952,162279
3550,73.0,0.159580807,162729
3560,73.0,0.160002473,163201
3570,72.0,0.160426704,163666
3580,73.0,0.160832547,164121
3590,72.0,0.161229837,164568
3600,72.0,0.161618146,165028
3610,73.0,0.162019713,165487
3620,72.0,0.162421707,165955
3630,73.0,0.163118354,166405
3640,73.0,0.163519493,166851
3650,73.0,0.163942869,167318
3660,72.0,0.164406873,167777
3670,72.0,0.164808439,168240
3680,72.0,0.165230533,168697
3690,72.0,0.165707793,169151
3700,72.0,0.166123044,169616
3710,72.0,0.166538295,170077
3720,72.0,0.166938578,170527
3730,71.0,0.167365804,170973
3740,72.0,0.167812274,171428
3750,72.0,0.168208708,171889
3760,72.0,0.168651756,172345
3770,72.0,0.169057171,172793
3780,71.0,0.16946002,173259
3790,72.0,0.169873133,173719
3800,71.0,0.170294371,174165
3810,69.0,0.170747256,174624
3820,71.0,0.171149677,175086
3830,72.0,0.171581179,175531
3840,72.0,0.172012253,175994
3850,71.0,0.172462144,176435
3860,71.0,0.172901771,176876
3870,71.0,0.173321726,177350
3880,69.0,0.173768623,177803
3890,69.0,0.174202263,178266
3900,69.0,0.17462906,178730
3910,69.0,0.175040462,179185
3920,69.0,0.175473674,179642
3930,71.0,0.175905176,180104
3940,69.0,0.17636362,180578
3950,69.0,0.176764758,181024
3960,71.0,0.177179153,181493
3970,71.0,0.177623057,181949
3980,71.0,0.178046433,182399
3990,71.0,0.178477934,182849
4000,71.0,0.178873513,183307
4010,71.0,0.179272513,183744
4020,71.0,0.17966852,184209
4030,73.0,0.180065382,184651
4040,73.0,0.180647418,185096
4050,73.0,0.181057964,185544
4060,72.0,0.181465517,185998
4070,72.0,0.18189317,186446
4080,72.0,0.182353752,186892
4090,72.0,0.182764727,187355
4100,73.0,0.183171425,187811
4110,72.0,0.183605493,188259
4120,72.0,0.184016467,188711
4130,72.0,0.184446258,189174
4140,72.0,0.184864075,189631
4150,72.0,0.185270772,190089
4160,73.0,0.185669344,190535
4170,75.0,0.186088444,191005
4180,73.0,0.186502412,191469
4190,73.0,0.186922795,191922
4200,75.0,0.187331204,192380
4210,73.0,0.187791359,192839
4220,75.0,0.188190359,193281
4230,73.0,0.188586794,193729
4240,76.0,0.188982373,194180
4250,76.0,0.189389499,194645
4260,78.0,0.189806033,195111
4270,76.0,0.190215297,195561
4280,79.0,0.190620712,196037
4290,79.0,0.191061194,196477
4300,79.0,0.191465754001,196933
4310,80.0,0.191872880001,197381
4320,79.0,0.19229369,197827
4330,76.0,0.192740159001,198286
4340,78.0,0.193185345001,198735
4350,79.0,0.193624545001,199183
4360,79.0,0.194039368,199638
4370,79.0,0.194438796,200091
4380,83.0,0.194918622,200542
4390,83.0,0.195327031,201003
4400,83.0,0.195731591001,201462
4410,86.0,0.196128453001,201915
4420,89.0,0.196530019001,202388
4430,89.0,0.196928591001,202836
4440,89.0,0.197375916001,203283
4450,87.0,0.197804852001,203754
4460,88.0,0.198225662001,204223
4470,90.0,0.198615681001,204697
4480,88.0,0.199030932,205145
4490,87.0,0.199440623,205608
4500,85.0,0.199854591001,206073
4510,85.0,0.200269414001,206519
4520,85.0,0.200682099,206990
4530,85.0,0.201167058,207452
4540,85.0,0.201580171,207912
4550,85.0,0.201990718,208373
4560,85.0,0.202411956,208846
4570,85.0,0.202825496,209307
4580,85.0,0.20324032,209772
4590,85.0,0.203695771,210214
4600,84.0,0.204138391,210687
4610,85.0,0.20456861,211154
4620,84.0,0.205001394,211605
4630,84.0,0.205423487,212074
4640,85.0,0.205850285,212540
4650,85.0,0.206264253,212983
4660,84.0,0.206670951,213426
4670,87.0,0.207079787,213882
4680,85.0,0.207477504,214337
4690,85.0,0.207885485,214798
4700,87.0,0.2082909,215264
4710,87.0,0.208695887,215723
4720,87.0,0.209099591,216174
4730,87.0,0.209513559,216634
4740,87.0,0.209919401,217096
4750,87.0,0.21035133,217549
4760,87.0,0.210759311,218013
4770,87.0,0.211154035,218476
4780,87.0,0.211556885,218933
4790,87.0,0.211950754,219390
4800,87.0,0.212367288,219852
4810,87.0,0.212794941,220316
4820,87.0,0.213192658,220771
4830,88.0,0.213587381,221215
4840,92.0,0.21402487,221673
4850,87.0,0.214432851,222131
4860,91.0,0.215623864,222600
4870,90.0,0.216038688,223046
4880,87.0,0.216477886999,223493
4890,87.0,0.216902974,223944
4900,87.0,0.217312665,224414
4910,87.0,0.217764695,224867
4920,87.0,0.218204323,225318
4930,92.0,0.218626417,225779
4940,87.0,0.219121639,226244
4950,87.0,0.219566826,226691
4960,87.0,0.219971386,227154
4970,87.0,0.220459338,227606
4980,84.0,0.220897682,228064
4990,84.0,0.221317636999,228516
