it,funval,time,funcount
0,13.0,0.00110676500026,574
10,13.0,0.00225330300054,1047
20,17.0,0.00336776700033,1520
30,17.0,0.00446982800031,2004
40,17.0,0.0055860020002,2480
50,17.0,0.00670944600006,2959
60,17.0,0.00782048800011,3446
70,20.0,0.00897173000021,3930
80,20.0,0.0100648100001,4396
90,20.0,0.0111908200001,4863
100,20.0,0.0122843280001,5350
110,20.0,0.0134838940003,5833
120,20.0,0.0149870940004,6308
130,20.0,0.0161062610005,6779
140,20.0,0.0172245730005,7261
150,22.0,0.0183711100003,7739
160,20.0,0.0194954090002,8220
170,20.0,0.0206128660002,8692
180,20.0,0.021750851,9180
190,20.0,0.0228730119998,9652
200,22.0,0.024058466,10128
210,22.0,0.0251746399999,10613
220,22.0,0.0263083469999,11111
230,22.0,0.0274279419996,11585
240,22.0,0.0285530959995,12062
250,22.0,0.0297056199997,12551
260,25.0,0.0308666979995,13024
270,25.0,0.0320025439996,13493
280,25.0,0.0333821519998,13975
290,25.0,0.0345453680002,14453
300,25.0,0.0356901949999,14952
310,30.0,0.036840581,15427
320,30.0,0.0382826269997,15914
330,30.0,0.0395839749999,16396
340,30.0,0.0408387079997,16882
350,30.0,0.0420609399998,17366
360,30.0,0.0431980689996,17837
370,30.0,0.0443557249991,18319
380,30.0,0.0455082499989,18807
390,31.0,0.0466372539991,19294
400,32.0,0.0477765219989,19781
410,31.0,0.0488948339989,20266
420,31.0,0.0503800729989,20745
430,30.0,0.0516497749986,21219
440,30.0,0.0527642389989,21704
450,30.0,0.0538992299989,22178
460,30.0,0.0550094169989,22663
470,30.0,0.0561409859993,23139
480,30.0,0.0572332109991,23611
490,30.0,0.0584024139994,24109
500,30.0,0.0595925719995,24596
510,31.0,0.0607267079995,25074
520,31.0,0.0619057469994,25567
530,30.0,0.0631172869994,26049
540,30.0,0.0642509949994,26535
550,30.0,0.0653432209997,27020
560,30.0,0.0687537519998,27496
570,30.0,0.0698836109996,27987
580,30.0,0.0710194569997,28475
590,31.0,0.0722010619993,28957
600,31.0,0.0733411849992,29446
610,31.0,0.0745018349994,29944
620,31.0,0.0756466619996,30431
630,31.0,0.0767790869995,30902
640,31.0,0.0779294729996,31380
650,30.0,0.0790559109996,31862
660,31.0,0.0801904739997,32336
670,30.0,0.0813297409995,32813
680,30.0,0.0824878249996,33296
690,30.0,0.0837177539997,33784
700,31.0,0.0848292239998,34266
710,31.0,0.0859813209995,34754
720,31.0,0.0871175949997,35234
730,31.0,0.0882401839999,35723
740,31.0,0.0893764580001,36212
750,31.0,0.0905272720001,36688
760,31.0,0.0916567040003,37176
770,31.0,0.0928554150005,37667
780,31.0,0.0940353090009,38149
790,31.0,0.0952002350009,38637
800,30.0,0.0963942420008,39119
810,30.0,0.0975181130007,39592
820,30.0,0.0986274440006,40089
830,31.0,0.100022875,40569
840,30.0,0.101154872,41057
850,30.0,0.102309535,41546
860,30.0,0.103463771,42038
870,30.0,0.104612447,42509
880,30.0,0.105748720001,42993
890,30.0,0.107027402,43467
900,30.0,0.10818121,43952
910,30.0,0.109309359,44441
920,30.0,0.110535867,44928
930,30.0,0.111723459,45415
940,30.0,0.112884109,45892
950,30.0,0.114007553,46372
960,31.0,0.115172052,46851
970,30.0,0.116347669,47328
980,31.0,0.117489929,47811
990,30.0,0.118647585,48295
1000,30.0,0.119975447,48782
1010,30.0,0.121134814,49277
1020,30.0,0.122270232,49759
1030,31.0,0.123422328999,50239
1040,31.0,0.124600084999,50733
1050,32.0,0.125735503999,51216
1060,31.0,0.126873060999,51696
1070,32.0,0.127996504999,52184
1080,31.0,0.129126362999,52675
1090,31.0,0.130374681999,53166
1100,31.0,0.131486151999,53643
1110,31.0,0.132611306999,54131
1120,31.0,0.133747152999,54621
1130,31.0,0.135131037999,55097
1140,31.0,0.136384059998,55584
1150,31.0,0.137479278998,56073
1160,31.0,0.138600584999,56549
1170,31.0,0.139712481999,57019
1180,31.0,0.140878691999,57500
1190,31.0,0.142021808999,57973
1200,31.0,0.143143114999,58454
1210,31.0,0.144287513998,58928
1220,31.0,0.145496060998,59420
1230,31.0,0.146666546998,59916
1240,32.0,0.147788707998,60415
1250,32.0,0.148959193998,60889
1260,32.0,0.150214782998,61371
1270,32.0,0.151360037998,61854
1280,32.0,0.152684478998,62347
1290,32.0,0.153839568998,62823
1300,32.0,0.154959591998,63313
1310,32.0,0.156335350998,63791
1320,32.0,0.157472479998,64274
1330,32.0,0.158818730999,64759
1340,34.0,0.159958853999,65257
1350,37.0,0.161079304999,65741
1360,37.0,0.162219854999,66227
1370,37.0,0.163464752999,66718
1380,37.0,0.164604019999,67202
1390,37.0,0.165742431999,67686
1400,37.0,0.166898377999,68183
1410,37.0,0.168267294999,68679
1420,37.0,0.16940699,69151
1430,37.0,0.170565074,69625
1440,37.0,0.171735987999,70112
1450,37.0,0.172884235999,70606
1460,37.0,0.174009817999,71095
1470,37.0,0.175134972999,71569
1480,37.0,0.176297333999,72059
1490,38.0,0.177628616999,72537
1500,38.0,0.178941510999,73017
1510,38.0,0.180071369999,73501
1520,37.0,0.181238006998,73984
1530,36.0,0.182388820998,74469
1540,37.0,0.183501145998,74952
1550,37.0,0.184665644998,75440
1560,37.0,0.185853236999,75933
1570,36.0,0.187066487998,76408
1580,36.0,0.188293851998,76885
1590,36.0,0.189437395998,77363
1600,37.0,0.190558701998,77838
1610,36.0,0.191698824998,78313
1620,36.0,0.192858191998,78806
1630,36.0,0.194065455998,79284
1640,36.0,0.195216697998,79774
1650,36.0,0.196342707998,80248
1660,36.0,0.197493093998,80741
1670,36.0,0.198658874998,81232
1680,36.0,0.199876402998,81711
1690,36.0,0.201019518998,82200
1700,37.0,0.202176319998,82687
1710,37.0,0.203301046999,83160
1720,37.0,0.204439885999,83644
1730,37.0,0.208214777999,84125
1740,38.0,0.209363880999,84620
1750,38.0,0.210493739999,85106
1760,38.0,0.211891736998,85583
1770,38.0,0.213023306998,86068
1780,38.0,0.214191226998,86560
1790,38.0,0.215320658998,87045
1800,38.0,0.216421864998,87531
1810,38.0,0.217546591998,88012
1820,38.0,0.218888566998,88502
1830,38.0,0.220035531998,88990
1840,38.0,0.221159831998,89478
1850,38.0,0.222379069998,89964
1860,38.0,0.223527317998,90455
1870,38.0,0.224708494998,90929
1880,38.0,0.225953820998,91417
1890,37.0,0.227111904998,91896
1900,37.0,0.228239625998,92368
1910,37.0,0.229395144998,92858
1920,38.0,0.230531846998,93335
1930,38.0,0.231641605998,93829
1940,38.0,0.232956210998,94310
1950,38.0,0.234083076998,94794
1960,38.0,0.235211652998,95274
1970,37.0,0.236309864998,95751
1980,37.0,0.237458967998,96235
1990,37.0,0.238599945998,96725
2000,37.0,0.239739640998,97199
2010,37.0,0.240842557998,97682
2020,38.0,0.242030577998,98169
2030,37.0,0.243132211998,98667
2040,37.0,0.244259931998,99136
2050,38.0,0.245414167998,99610
2060,38.0,0.246550013998,100096
2070,40.0,0.247693985998,100582
2080,40.0,0.248852924998,101060
2090,40.0,0.250208156998,101546
2100,40.0,0.251420124998,102027
2110,40.0,0.252617980998,102504
2120,42.0,0.253814981998,102992
2130,40.0,0.254942274998,103469
2140,40.0,0.256064008998,103946
2150,38.0,0.257221237998,104433
2160,38.0,0.258321161998,104918
2170,38.0,0.259480528997,105395
2180,40.0,0.260680522998,105887
2190,40.0,0.261867687997,106363
2200,40.0,0.262996690997,106839
2210,40.0,0.264271951997,107325
2220,41.0,0.265367597997,107810
2230,40.0,0.266525681997,108284
2240,40.0,0.267654257997,108764
2250,40.0,0.268768293998,109238
2260,41.0,0.269923383998,109713
2270,42.0,0.271107554997,110207
2280,40.0,0.272299422997,110688
2290,41.0,0.273445959997,111168
2300,40.0,0.274593780997,111639
2310,41.0,0.275731764997,112124
2320,40.0,0.276839385996,112625
2330,40.0,0.277966678996,113111
2340,40.0,0.279089695996,113594
2350,40.0,0.280221692996,114076
2360,40.0,0.281342998996,114554
2370,40.0,0.282788892996,115033
2380,40.0,0.283966221996,115512
2390,40.0,0.285099929996,116000
2400,46.0,0.286234492995,116493
2410,46.0,0.287380602995,116968
2420,40.0,0.288532699995,117448
2430,40.0,0.289652722995,117925
2440,40.0,0.290779588995,118412
2450,46.0,0.291931685995,118895
2460,46.0,0.293207373995,119374
2470,46.0,0.294352200995,119849
2480,47.0,0.295526107996,120330
2490,47.0,0.296633728995,120809
2500,47.0,0.297759738995,121284
2510,47.0,0.298929796995,121764
2520,47.0,0.300049391995,122239
2530,47.0,0.301178395996,122717
2540,47.0,0.302348026995,123191
2550,47.0,0.303480023996,123670
2560,48.0,0.304610737996,124169
2570,48.0,0.305748293995,124656
2580,48.0,0.306905522995,125137
2590,48.0,0.308064462995,125618
2600,48.0,0.309230244995,126111
2610,48.0,0.310329739995,126597
2620,48.0,0.311461309996,127091
2630,48.0,0.312559094995,127569
2640,47.0,0.313701355995,128050
2650,47.0,0.314914606995,128546
2660,47.0,0.316050024996,129037
2670,47.0,0.317290218996,129521
2680,47.0,0.318419222996,130008
2690,47.0,0.319819357996,130492
2700,48.0,0.321091624996,130968
2710,47.0,0.322340798996,131456
2720,47.0,0.323523686996,131943
2730,47.0,0.325091034996,132430
2740,47.0,0.326317543996,132915
2750,48.0,0.327449541996,133406
2760,48.0,0.328584960996,133888
2770,47.0,0.330237410996,134356
2780,47.0,0.331369835996,134833
2790,47.0,0.332473179996,135316
2800,47.0,0.333618433996,135810
2810,47.0,0.334817999997,136298
2820,48.0,0.335965392997,136790
2830,48.0,0.337081993996,137283
2840,48.0,0.338220833996,137765
2850,48.0,0.339635081997,138243
2860,48.0,0.340836358997,138715
2870,48.0,0.341976053996,139205
2880,48.0,0.343168777997,139692
2890,48.0,0.344333703997,140175
2900,48.0,0.350425191996,140667
2910,48.0,0.351547352996,141147
2920,48.0,0.352702870996,141633
2930,48.0,0.353843420996,142110
2940,48.0,0.354981404996,142589
2950,48.0,0.356137350996,143074
2960,48.0,0.357275334996,143554
2970,48.0,0.358402200996,144037
2980,48.0,0.359512815996,144521
2990,48.0,0.360644384996,145004
3000,48.0,0.361808455996,145470
3010,48.0,0.362941735996,145946
3020,48.0,0.364080575996,146429
3030,48.0,0.365244646996,146916
3040,48.0,0.366343286996,147389
3050,48.0,0.367530023996,147874
3060,50.0,0.368754821996,148368
3070,51.0,0.369947973996,148850
3080,51.0,0.371130005996,149329
3090,51.0,0.372277825996,149821
3100,51.0,0.373486799996,150302
3110,51.0,0.374626922996,150780
3120,51.0,0.375782868996,151246
3130,51.0,0.376929834997,151725
3140,54.0,0.378107590997,152206
3150,51.0,0.379262253997,152694
3160,51.0,0.380422047997,153177
3170,51.0,0.381563452997,153659
3180,54.0,0.382719825997,154152
3190,54.0,0.383855671997,154639
3200,51.0,0.384990235997,155124
3210,54.0,0.386122232997,155590
3220,55.0,0.387236268997,156051
3230,55.0,0.388399911997,156539
3240,54.0,0.389557140997,157012
3250,59.0,0.390665616997,157504
3260,54.0,0.391821990997,157988
3270,54.0,0.392975370997,158476
3280,54.0,0.394115492997,158964
3290,55.0,0.395247917997,159440
3300,55.0,0.396380342997,159916
3310,59.0,0.397519610996,160389
3320,55.0,0.398641772997,160884
3330,55.0,0.399776335996,161369
3340,55.0,0.400904911996,161837
3350,55.0,0.402014671996,162319
3360,55.0,0.403152656996,162803
3370,55.0,0.404283798996,163291
3380,55.0,0.405424776996,163777
3390,55.0,0.406569175996,164254
3400,55.0,0.407729397996,164728
3410,59.0,0.408822051996,165202
3420,59.0,0.409955759996,165674
3430,55.0,0.411095454996,166151
3440,55.0,0.412267650996,166635
3450,59.0,0.413439419996,167125
3460,55.0,0.414569705996,167600
3470,55.0,0.415675187996,168083
3480,55.0,0.416816165996,168567
3490,55.0,0.417949445996,169057
3500,55.0,0.419085291996,169547
3510,55.0,0.420195478996,170030
3520,57.0,0.421328330995,170523
3530,59.0,0.422550562996,171010
3540,59.0,0.423684270996,171498
3550,59.0,0.424820543995,171980
3560,59.0,0.425958955996,172457
3570,55.0,0.427104209996,172940
3580,55.0,0.428242194996,173428
3590,55.0,0.429366493996,173909
3600,55.0,0.430575895995,174398
3610,55.0,0.431725854995,174880
3620,55.0,0.432980160995,175370
3630,55.0,0.434445726995,175854
3640,55.0,0.435542228995,176345
3650,59.0,0.436709721995,176822
3660,59.0,0.437860107995,177286
3670,59.0,0.438958747995,177767
3680,59.0,0.440094593996,178245
3690,59.0,0.441289882996,178713
3700,59.0,0.442434281996,179207
3710,59.0,0.443562002995,179686
3720,58.0,0.444702980995,180171
3730,58.0,0.445846524995,180650
3740,59.0,0.446950723996,181131
3750,61.0,0.448069035996,181601
3760,61.0,0.449168958995,182079
3770,61.0,0.450279145995,182556
3780,59.0,0.451425683996,183046
3790,59.0,0.452588899996,183530
3800,59.0,0.453749549996,184019
3810,59.0,0.454887533996,184508
3820,59.0,0.456020813996,184987
3830,60.0,0.457183173996,185466
3840,59.0,0.458301485996,185948
3850,59.0,0.459438186996,186420
3860,59.0,0.460579592996,186921
3870,59.0,0.461707313996,187404
3880,61.0,0.462861121996,187880
3890,60.0,0.464116283996,188361
3900,62.0,0.465361608996,188853
3910,62.0,0.466618907996,189331
3920,66.0,0.467813769996,189815
3930,62.0,0.468980834996,190300
3940,62.0,0.470081185996,190781
3950,62.0,0.471219597996,191262
3960,62.0,0.472384523996,191749
3970,62.0,0.473529350996,192239
3980,62.0,0.474662202996,192722
3990,66.0,0.475800614996,193204
4000,66.0,0.476935604996,193683
4010,66.0,0.478085990997,194167
4020,66.0,0.479236804997,194648
4030,66.0,0.480385052997,195127
4040,66.0,0.481516622997,195631
4050,66.0,0.482658028997,196122
4060,66.0,0.483853745997,196607
4070,66.0,0.485035777997,197098
4080,67.0,0.486220803997,197583
4090,66.0,0.487437903997,198066
4100,66.0,0.489009100997,198546
4110,66.0,0.490557203997,199027
4120,70.0,0.492178863997,199504
4130,70.0,0.493886909997,199998
4140,66.0,0.495434585997,200470
4150,66.0,0.497022888997,200953
4160,70.0,0.498135641997,201428
4170,70.0,0.499286882997,201916
4180,70.0,0.500456512997,202407
4190,70.0,0.501622722997,202901
4200,71.0,0.502867192997,203375
4210,70.0,0.504011591997,203857
4220,71.0,0.505158128997,204339
4230,70.0,0.506315785997,204820
4240,71.0,0.507466171997,205302
4250,70.0,0.508673435997,205797
4260,71.0,0.509836223997,206285
4270,70.0,0.511079410997,206767
4280,70.0,0.512265720997,207246
4290,70.0,0.513407981997,207741
4300,70.0,0.514592152997,208217
4310,70.0,0.515737406997,208698
4320,70.0,0.516874535997,209188
4330,70.0,0.518032619997,209675
4340,70.0,0.519178301997,210169
4350,70.0,0.520342373997,210658
4360,71.0,0.521533814997,211128
4370,70.0,0.522685911997,211599
4380,71.0,0.523862384997,212063
4390,71.0,0.525008066997,212548
4400,70.0,0.526161874997,213028
4410,70.0,0.527350749997,213506
4420,70.0,0.528493010997,213988
4430,71.0,0.529642541997,214482
4440,70.0,0.530778387998,214973
4450,70.0,0.531932195998,215456
4460,70.0,0.533044521998,215935
4470,71.0,0.534189348998,216422
4480,70.0,0.535333319998,216907
4490,70.0,0.536574795998,217394
4500,70.0,0.537707648999,217883
4510,71.0,0.538871719998,218356
4520,71.0,0.540010131999,218845
4530,70.0,0.541178051998,219334
4540,70.0,0.542323305998,219834
4550,70.0,0.543477968998,220326
4560,70.0,0.544613814998,220807
4570,70.0,0.545740679998,221296
4580,70.0,0.546887644998,221781
4590,70.0,0.548070104998,222252
4600,70.0,0.549233320998,222737
4610,70.0,0.550373015998,223219
4620,70.0,0.551525540998,223699
4630,71.0,0.552678065998,224175
4640,70.0,0.553820753998,224655
4650,71.0,0.555085323998,225131
4660,70.0,0.556242552998,225616
4670,70.0,0.557381391998,226105
4680,70.0,0.558531349998,226609
4690,70.0,0.559667195998,227103
4700,70.0,0.560798337998,227581
4710,70.0,0.561915794998,228063
4720,70.0,0.563049074998,228543
4730,70.0,0.564191763998,229039
4740,70.0,0.565339583998,229525
4750,70.0,0.566469869998,230002
4760,70.0,0.567631802998,230494
4770,71.0,0.568763800998,230974
4780,71.0,0.569904778998,231457
4790,71.0,0.571037631998,231945
4800,71.0,0.572183741998,232428
4810,72.0,0.573594141998,232910
4820,71.0,0.574693637998,233381
4830,71.0,0.575820075998,233869
4840,71.0,0.576947368998,234364
4850,71.0,0.578105452998,234855
4860,71.0,0.579222909998,235360
4870,72.0,0.580356189998,235843
4880,72.0,0.581474073998,236337
4890,72.0,0.582613340998,236825
4900,72.0,0.583773134998,237314
4910,72.0,0.585328936998,237799
4920,71.0,0.586459222998,238283
4930,71.0,0.587637833999,238770
4940,71.0,0.588778811999,239265
4950,71.0,0.589969397999,239737
4960,71.0,0.591110375999,240215
4970,74.0,0.592440803999,240710
4980,79.0,0.593642080999,241197
4990,79.0,0.594890827998,241687
