it,funval,time,funcount
0,17.0,0.000239912999973,429
10,17.0,0.00049607699998,759
20,67.0,0.000752668000018,1090
30,68.0,0.00101695800004,1424
40,67.0,0.00128552400008,1768
50,67.0,0.00158231500006,2107
60,67.0,0.001844893,2443
70,68.0,0.00210832699997,2770
80,68.0,0.00237817599998,3107
90,68.0,0.002646314,3443
100,68.0,0.00292813700003,3769
110,69.0,0.00319670300007,4108
120,68.0,0.00348109200013,4450
130,69.0,0.00377574500021,4794
140,68.0,0.00406654900019,5131
150,68.0,0.00432442400017,5470
160,68.0,0.00460068700011,5806
170,68.0,0.00487866100002,6144
180,68.0,0.00516775400001,6489
190,68.0,0.00542220800003,6832
200,68.0,0.00567195800011,7159
210,68.0,0.00592555600008,7497
220,68.0,0.00621721500011,7830
230,69.0,0.00647209600015,8169
240,68.0,0.00672355600011,8505
250,68.0,0.00699297800008,8836
260,69.0,0.0072435830001,9177
270,68.0,0.00751599800014,9508
280,69.0,0.00777643900017,9841
290,68.0,0.00803260300017,10172
300,68.0,0.00830116900022,10508
310,69.0,0.00858684100012,10839
320,69.0,0.00888961900012,11168
330,69.0,0.00917315300012,11503
340,69.0,0.00946053600012,11836
350,73.0,0.00974407000012,12168
360,73.0,0.0100224720001,12509
370,73.0,0.0103235390001,12847
380,73.0,0.0105895400001,13178
390,72.0,0.0108709350001,13519
400,70.0,0.0111373630001,13848
410,69.0,0.0114127720001,14190
420,69.0,0.0117082800001,14523
430,69.0,0.0123283770001,14849
440,72.0,0.0126119110001,15177
450,72.0,0.0128753450001,15524
460,72.0,0.0131597340001,15861
470,70.0,0.013452676,16195
480,70.0,0.0137426250001,16531
490,70.0,0.014044548,16880
500,70.0,0.014327654,17216
510,70.0,0.014588094,17558
520,74.0,0.014865213,17899
530,70.0,0.015138483,18235
540,72.0,0.01541432,18573
550,72.0,0.015770127,18910
560,74.0,0.0160583649999,19251
570,70.0,0.016344465,19591
580,74.0,0.016619018,19925
590,79.0,0.016879886,20269
600,80.0,0.0171642749999,20602
610,75.0,0.0174379729999,20938
620,74.0,0.0177039729999,21273
630,74.0,0.0179716839999,21614
640,77.0,0.0182415329999,21941
650,74.0,0.018500263,22273
660,74.0,0.0187649799999,22606
670,74.0,0.0190626259999,22939
680,74.0,0.019319645,23270
690,76.0,0.019575381,23614
700,74.0,0.0198324009999,23957
710,74.0,0.0201172179999,24290
720,74.0,0.02039006,24623
730,77.0,0.020735176,24949
740,77.0,0.021015717,25293
750,77.0,0.021282144,25632
760,74.0,0.021540446,25959
770,74.0,0.021806446,26303
780,74.0,0.022071591,26646
790,77.0,0.022339302,26977
800,74.0,0.022602308,27307
810,74.0,0.0228725850001,27634
820,74.0,0.0231287490001,27966
830,74.0,0.023411427,28300
840,74.0,0.023701803,28628
850,74.0,0.023968231,28963
860,74.0,0.0242308099999,29296
870,73.0,0.0244976659999,29630
880,73.0,0.0247598169999,29960
890,77.0,0.0250694379999,30295
900,73.0,0.025338432,30625
910,75.0,0.0256176890001,30958
920,75.0,0.0258862550002,31297
930,74.0,0.0261890340001,31642
940,75.0,0.0264623040001,31972
950,75.0,0.0267372850001,32303
960,75.0,0.0270319380001,32634
970,75.0,0.0314966340001,32970
980,75.0,0.0317900040001,33300
990,75.0,0.032061136,33645
1000,75.0,0.0323275640001,33979
1010,75.0,0.0325982690001,34306
1020,75.0,0.0328865070002,34643
1030,75.0,0.0332252080002,34985
1040,75.0,0.0335091690001,35316
1050,75.0,0.0337726030001,35658
1060,75.0,0.0340527160001,36004
1070,74.0,0.0343268410002,36348
1080,75.0,0.0345907020002,36679
1090,74.0,0.0348524260002,37017
1100,74.0,0.0352013910001,37348
1110,74.0,0.0354934780001,37669
1120,77.0,0.0357607610001,37994
1130,79.0,0.0360229130001,38327
1140,77.0,0.0363055910002,38659
1150,77.0,0.0366451470002,39005
1160,79.0,0.0369693080002,39342
1170,79.0,0.0372442880002,39677
1180,82.0,0.0375128540003,39999
1190,80.0,0.0377831300003,40324
1200,82.0,0.0380568280003,40656
1210,77.0,0.0383501980003,40982
1220,77.0,0.0386268900003,41325
1230,77.0,0.0389078580002,41655
1240,77.0,0.0391751410003,41995
1250,81.0,0.0396053600003,42334
1260,77.0,0.0399064280003,42670
1270,77.0,0.0403032900003,43004
1280,76.0,0.0406107720004,43336
1290,74.0,0.0409058530004,43671
1300,77.0,0.0411829720003,44010
1310,77.0,0.0414545320003,44358
1320,75.0,0.0417402040003,44689
1330,77.0,0.0420173230004,45024
1340,75.0,0.0422987180004,45357
1350,75.0,0.0425660010005,45695
1360,75.0,0.0428414090005,46033
1370,76.0,0.0431061260005,46367
1380,76.0,0.0433699870005,46696
1390,76.0,0.0436607910005,47028
1400,74.0,0.0439900840006,47371
1410,76.0,0.0442672030006,47714
1420,76.0,0.0452020520005,48051
1430,76.0,0.0454800270005,48397
1440,76.0,0.0457532970005,48737
1450,77.0,0.0460184420006,49077
1460,77.0,0.0462904290006,49413
1470,77.0,0.0465564290006,49752
1480,79.0,0.0468254230005,50091
1490,76.0,0.0471072460006,50424
1500,76.0,0.0473993330005,50761
1510,77.0,0.0476948410005,51087
1520,76.0,0.0479749540006,51426
1530,76.0,0.0482550670006,51755
1540,76.0,0.0485150800006,52082
1550,77.0,0.0487776590006,52423
1560,79.0,0.0490620480007,52760
1570,80.0,0.0493532800007,53087
1580,80.0,0.0496231290007,53435
1590,79.0,0.0498852800007,53753
1600,82.0,0.0501465760007,54078
1610,81.0,0.0504369520007,54417
1620,82.0,0.0507427240007,54757
1630,81.0,0.0510737280007,55085
1640,83.0,0.0513919020007,55426
1650,83.0,0.0516959630006,55756
1660,83.0,0.0520175580006,56092
1670,83.0,0.0523973140006,56417
1680,83.0,0.0527112110005,56758
1690,83.0,0.0530131340005,57078
1700,84.0,0.0533206170005,57417
1710,85.0,0.0536242500006,57742
1720,81.0,0.0539351530006,58082
1730,82.0,0.0545573880006,58423
1740,81.0,0.0548901020006,58764
1750,81.0,0.0553686460006,59105
1760,81.0,0.0556906690007,59434
1770,81.0,0.0560071320007,59770
1780,83.0,0.0563265890007,60118
1790,81.0,0.0566469010008,60457
1800,81.0,0.0569518170008,60787
1810,81.0,0.0572832480008,61132
1820,81.0,0.0576856700008,61468
1830,81.0,0.0580012780008,61804
1840,81.0,0.0583399790007,62134
1850,83.0,0.0586423300007,62469
1860,84.0,0.0589006330007,62812
1870,83.0,0.0592059770007,63141
1880,83.0,0.0594984920008,63480
1890,86.0,0.0597679130008,63810
1900,83.0,0.0600270700007,64148
1910,81.0,0.0603157360008,64484
1920,88.0,0.0605996970008,64814
1930,85.0,0.0608785270008,65155
1940,84.0,0.0611932790008,65485
1950,83.0,0.0614793790008,65824
1960,85.0,0.0617470900008,66153
1970,85.0,0.0620310510008,66490
1980,86.0,0.0623085980008,66820
1990,86.0,0.0625797300008,67152
2000,86.0,0.0628611260008,67492
2010,86.0,0.0631288360008,67836
2020,84.0,0.0634025330007,68170
2030,84.0,0.0636646840006,68510
2040,84.0,0.0639345330006,68835
2050,84.0,0.0642013880006,69173
2060,84.0,0.0644725200007,69504
2070,84.0,0.0647449350006,69845
2080,86.0,0.0650199160007,70179
2090,86.0,0.0652919030006,70516
2100,84.0,0.0655694500006,70852
2110,84.0,0.0658388710006,71179
2120,84.0,0.0661134240006,71526
2130,84.0,0.0663828450006,71869
2140,85.0,0.0666531210006,72203
2150,84.0,0.0669443530007,72545
2160,84.0,0.0672056480007,72886
2170,84.0,0.0674767800007,73227
2180,86.0,0.0677333710007,73564
2190,84.0,0.0680053580007,73901
2200,86.0,0.0682730690007,74238
2210,84.0,0.0685352210007,74576
2220,86.0,0.0687948060007,74910
2230,86.0,0.0690513970007,75241
2240,86.0,0.0693345030007,75572
2250,86.0,0.0696193200007,75901
2260,86.0,0.0698883140008,76242
2270,89.0,0.0701568800008,76584
2280,87.0,0.0704421250008,76932
2290,89.0,0.0707243760008,77267
2300,89.0,0.0709886650008,77590
2310,89.0,0.0712529550007,77926
2320,89.0,0.0715223770006,78265
2330,89.0,0.0717858110006,78605
2340,89.0,0.0720719100005,78947
2350,89.0,0.0723438980006,79276
2360,89.0,0.0726073320005,79607
2370,89.0,0.0729447500006,79944
2380,89.0,0.0732321330006,80293
2390,89.0,0.0735002710006,80634
2400,89.0,0.0737927860006,80967
2410,89.0,0.0740587860005,81295
2420,89.0,0.0743333390004,81624
2430,89.0,0.0746202940005,81957
2440,89.0,0.0749034000005,82313
2450,89.0,0.0751728210006,82649
2460,89.0,0.0754319790005,82980
2470,89.0,0.0756932750006,83311
2480,89.0,0.0759729600006,83653
2490,89.0,0.0762556380006,83981
2500,89.0,0.0765271980006,84323
2510,89.0,0.0768145810006,84663
2520,89.0,0.0770946940006,84996
2530,89.0,0.0773705300006,85330
2540,89.0,0.0776493600007,85661
2550,89.0,0.0779076630007,86001
2560,89.0,0.0782857080007,86343
2570,89.0,0.0785782230008,86672
2580,89.0,0.0788403740008,87002
2590,89.0,0.0791482840009,87334
2600,89.0,0.0794125740008,87668
2610,89.0,0.0796683100009,88016
2620,89.0,0.0799249020009,88350
2630,89.0,0.080181922001,88689
2640,89.0,0.080469305001,89033
2650,89.0,0.0807246140009,89361
2660,89.0,0.0810021610009,89700
2670,89.0,0.081268589001,90040
2680,89.0,0.081591039001,90369
2690,89.0,0.081849769001,90714
2700,89.0,0.082122611001,91049
2710,89.0,0.082395454001,91392
2720,89.0,0.082661882001,91727
2730,88.0,0.0829270270011,92061
2740,86.0,0.083246056001,92395
2750,86.0,0.083536432001,92725
2760,86.0,0.083799011001,93068
2770,86.0,0.084060306001,93401
2780,86.0,0.0843284440009,93741
2790,86.0,0.0846047080008,94082
2800,86.0,0.0849036380008,94420
2810,86.0,0.0851764810009,94761
2820,87.0,0.0854912330009,95088
2830,87.0,0.0858012820009,95423
2840,87.0,0.0860749800009,95764
2850,88.0,0.0863341380009,96100
2860,88.0,0.0866253700009,96423
2870,87.0,0.0868952190009,96758
2880,88.0,0.0871992800008,97090
2890,88.0,0.0874798210008,97417
2900,88.0,0.0877479590007,97750
2910,88.0,0.0880126760006,98087
2920,86.0,0.0883462450006,98419
2930,86.0,0.0886400430006,98749
2940,86.0,0.0889205830007,99084
2950,87.0,0.0891912880006,99421
2960,86.0,0.0895034740007,99757
2970,87.0,0.0897754620007,100088
2980,87.0,0.0900431730007,100428
2990,87.0,0.0903057520006,100763
3000,87.0,0.0905918510007,101094
3010,87.0,0.0908822280007,101422
3020,87.0,0.0911452340007,101758
3030,87.0,0.0914249190007,102076
3040,87.0,0.0916930570006,102416
3050,87.0,0.0919936970006,102759
3060,87.0,0.0922763760005,103104
3070,87.0,0.0925676080005,103430
3080,87.0,0.0928708140005,103770
3090,89.0,0.0931744480005,104091
3100,87.0,0.0934464360005,104421
3110,87.0,0.0937209890005,104762
3120,89.0,0.0939805750005,105096
3130,89.0,0.0942431540004,105436
3140,89.0,0.0945177070004,105773
3150,89.0,0.0948102220003,106103
3160,89.0,0.0950749400002,106444
3170,87.0,0.0953473550003,106776
3180,89.0,0.0956206260003,107107
3190,88.0,0.0958951800003,107436
3200,87.0,0.0961774300002,107776
3210,87.0,0.0964434310002,108113
3220,88.0,0.0967124250002,108447
3230,88.0,0.0969758590002,108784
3240,88.0,0.0972431420001,109120
3250,88.0,0.0975253930001,109467
3260,87.0,0.097784978,109810
3270,87.0,0.0980394320001,110134
3280,87.0,0.0983007280001,110483
3290,87.0,0.0986073550001,110826
3300,86.0,0.0988990150001,111163
3310,87.0,0.0991829770002,111500
3320,88.0,0.0994622340002,111843
3330,89.0,0.0997295170001,112187
3340,88.0,0.099995517,112520
3350,89.0,0.100258096,112861
3360,89.0,0.100545906,113208
3370,88.0,0.100821314,113555
3380,88.0,0.101086459,113897
3390,89.0,0.101350321,114226
3400,88.0,0.101622309,114561
3410,88.0,0.101891303,114896
3420,88.0,0.102162862,115212
3430,88.0,0.10244383,115543
3440,89.0,0.102714535,115882
3450,88.0,0.103007905,116219
3460,89.0,0.103443683,116555
3470,89.0,0.103725079,116888
3480,89.0,0.10399279,117225
3490,88.0,0.104256224,117564
3500,89.0,0.104528212,117900
3510,88.0,0.10478908,118229
3520,88.0,0.105078173,118567
3530,88.0,0.105362562,118902
3540,88.0,0.105656787,119221
3550,88.0,0.105932195,119554
3560,88.0,0.106205893,119889
3570,89.0,0.106500973,120205
3580,89.0,0.106775526,120533
3590,88.0,0.107044092,120880
3600,88.0,0.10730667,121211
3610,87.0,0.107573098,121557
3620,88.0,0.107861336,121904
3630,87.0,0.108185925,122240
3640,87.0,0.108456629,122572
3650,87.0,0.108771809,122897
3660,88.0,0.109065607,123233
3670,88.0,0.109330751,123575
3680,86.0,0.109594185,123910
3690,87.0,0.109858475,124249
3700,87.0,0.110140726,124592
3710,87.0,0.110444359,124926
3720,86.0,0.110747138,125256
3730,86.0,0.111040507,125591
3740,87.0,0.11132789,125915
3750,89.0,0.111612279,126247
3760,88.0,0.111888115,126575
3770,89.0,0.112149411,126909
3780,88.0,0.112419688,127238
3790,89.0,0.112714341,127573
3800,89.0,0.113014981,127915
3810,89.0,0.113309634,128243
3820,89.0,0.113586325,128581
3830,87.0,0.113860023,128908
3840,89.0,0.114127734,129234
3850,89.0,0.114420248,129570
3860,89.0,0.114690524,129901
3870,89.0,0.114974486,130235
3880,89.0,0.115276837,130569
3890,89.0,0.115544121,130905
3900,89.0,0.115836636,131249
3910,89.0,0.116101781,131586
3920,89.0,0.116401994,131925
3930,89.0,0.116672271,132250
3940,89.0,0.116945541,132586
3950,87.0,0.117211113,132925
3960,87.0,0.11749422,133266
3970,87.0,0.117788873,133598
3980,89.0,0.118051025,133926
3990,87.0,0.118319163,134260
4000,89.0,0.118590723,134595
4010,89.0,0.118887514,134927
4020,87.0,0.119160784,135266
4030,87.0,0.119427212,135591
4040,87.0,0.119692357,135924
4050,87.0,0.119967765,136258
4060,87.0,0.12022735,136591
4070,87.0,0.120506608,136920
4080,87.0,0.120780734,137249
4090,87.0,0.121048017,137575
4100,87.0,0.121320432,137914
4110,89.0,0.121595412,138251
4120,89.0,0.12186355,138586
4130,89.0,0.122127412,138916
4140,89.0,0.12240838,139248
4150,89.0,0.122701322,139587
4160,87.0,0.122956631,139925
4170,87.0,0.12326283,140255
4180,86.0,0.12356518,140590
4190,86.0,0.123875229,140928
4200,86.0,0.124154059,141270
4210,89.0,0.12445256,141598
4220,86.0,0.124753628,141932
4230,86.0,0.125033741,142268
4240,86.0,0.125307011,142591
4250,87.0,0.125605513,142931
4260,86.0,0.125880066,143254
4270,86.0,0.12618541,143588
4280,86.0,0.126464667,143931
4290,87.0,0.126745207,144267
4300,87.0,0.127039432,144596
4310,89.0,0.127315268,144929
4320,89.0,0.12758084,145275
4330,87.0,0.127855393,145608
4340,87.0,0.128125242,145939
4350,89.0,0.128398084,146280
4360,87.0,0.128672638,146623
4370,87.0,0.12896558,146956
4380,87.0,0.129239706,147295
4390,87.0,0.129513832,147626
4400,89.0,0.12978924,147964
4410,89.0,0.13007534,148294
4420,89.0,0.130349038,148634
4430,89.0,0.130630006,148969
4440,89.0,0.130895151,149308
4450,89.0,0.131187666,149651
4460,89.0,0.131487879,149985
4470,89.0,0.131774406,150310
4480,89.0,0.132083171,150658
4490,89.0,0.132357724,150998
4500,89.0,0.132629711,151334
4510,87.0,0.132902554,151662
4520,87.0,0.133169837,151997
4530,89.0,0.133434126,152328
4540,88.0,0.133757859,152661
4550,87.0,0.134031129,152998
4560,89.0,0.134291569,153334
4570,89.0,0.134567405,153659
4580,88.0,0.134862486,153988
4590,89.0,0.135134045,154323
4600,89.0,0.135418006,154671
4610,89.0,0.135687,155009
4620,89.0,0.135965403,155348
4630,89.0,0.136230548,155687
4640,89.0,0.136495693,156019
4650,88.0,0.136807452,156354
4660,89.0,0.137093124,156684
4670,88.0,0.137360407,157017
4680,88.0,0.137637954,157355
4690,87.0,0.137907802,157690
4700,87.0,0.138180645,158028
4710,87.0,0.138571093,158355
4720,87.0,0.13885762,158698
4730,87.0,0.139157832,159038
4740,89.0,0.139442649,159365
4750,89.0,0.139721478,159697
4760,89.0,0.140002446,160036
4770,88.0,0.140283414,160379
4780,89.0,0.140548131,160712
4790,88.0,0.140820118,161044
4800,89.0,0.141088256,161380
4810,88.0,0.141400014,161713
4820,88.0,0.141677988,162050
4830,89.0,0.141966653,162378
4840,88.0,0.142245911,162708
4850,88.0,0.142511911,163048
4860,88.0,0.14278176,163373
4870,89.0,0.14306786,163707
4880,89.0,0.143386889,164043
4890,89.0,0.143671279,164393
4900,87.0,0.1439407,164723
4910,87.0,0.144239202,165057
4920,87.0,0.14454198,165398
4930,87.0,0.144826369,165735
4940,86.0,0.14511589,166075
4950,86.0,0.145383601,166417
4960,87.0,0.145656444,166756
4970,87.0,0.145925866,167082
4980,88.0,0.146199136,167415
4990,88.0,0.146468985,167743
