it,funval,time,funcount
0,13.0,0.000881820000131,795
10,21.0,0.00178587800019,1494
20,21.0,0.00267881800005,2204
30,22.0,0.00357560600014,2902
40,21.0,0.00447795300011,3603
50,21.0,0.00536875400007,4299
60,21.0,0.00625998200007,4998
70,24.0,0.00715591500011,5708
80,22.0,0.00807280300023,6400
90,24.0,0.00897429500014,7110
100,24.0,0.00987236600008,7804
110,22.0,0.0107695810002,8509
120,22.0,0.0116744950001,9217
130,22.0,0.0125896720001,9909
140,28.0,0.0134885990001,10595
150,31.0,0.0144435479999,11300
160,34.0,0.0153809629999,11993
170,33.0,0.0163153839999,12700
180,36.0,0.0172207249998,13403
190,36.0,0.0181243549998,14087
200,34.0,0.0190100239997,14789
210,35.0,0.0198922719997,15484
220,33.0,0.0208138639996,16188
230,34.0,0.0217247649996,16891
240,34.0,0.0226566209994,17584
250,35.0,0.0235662389994,18269
260,34.0,0.0245194769993,18954
270,35.0,0.0254196859994,19635
280,42.0,0.0263545349994,20340
290,42.0,0.0272517509995,21046
300,43.0,0.0281498219995,21745
310,43.0,0.0290795389994,22448
320,42.0,0.0299934329994,23141
330,44.0,0.0308897939994,23840
340,43.0,0.0318708289994,24545
350,43.0,0.0327855779994,25240
360,45.0,0.0337217099996,25935
370,44.0,0.0346197809995,26626
380,44.0,0.0355691699995,27330
390,48.0,0.0366139259995,28027
400,44.0,0.0375966719996,28734
410,44.0,0.0385280999997,29435
420,44.0,0.0394381449996,30144
430,44.0,0.0403789809998,30825
440,44.0,0.0412843219999,31531
450,44.0,0.0421793989999,32227
460,45.0,0.0430830289999,32929
470,45.0,0.0439883700001,33624
480,45.0,0.0448928560002,34326
490,45.0,0.0457973420002,35037
500,45.0,0.0466958410002,35735
510,45.0,0.0476631920003,36420
520,44.0,0.0485779410003,37128
530,45.0,0.0494944010002,37838
540,45.0,0.0504027360003,38536
550,44.0,0.0513132090002,39243
560,45.0,0.0522386500002,39947
570,44.0,0.0531606700001,40646
580,45.0,0.0540873929999,41344
590,45.0,0.0550183929997,42034
600,44.0,0.0559438329997,42726
610,46.0,0.0568577269996,43426
620,45.0,0.0577891549997,44136
630,44.0,0.0586932139997,44840
640,44.0,0.0595951339999,45536
650,44.0,0.0605984079998,46240
660,45.0,0.061562766,46939
670,48.0,0.062513011,47642
680,47.0,0.0634213459998,48342
690,48.0,0.0643181339999,49032
700,47.0,0.065233738,49717
710,48.0,0.0661467769999,50415
720,44.0,0.0670747839997,51108
730,44.0,0.0679754209998,51791
740,44.0,0.0690223149998,52477
750,48.0,0.0699652889998,53180
760,44.0,0.0709095469999,53864
770,44.0,0.0718315659999,54568
780,44.0,0.0727480259998,55278
790,46.0,0.0736576439997,55973
800,47.0,0.0745642679997,56673
810,47.0,0.0754687539995,57376
820,49.0,0.0763557059995,58072
830,49.0,0.0772593369995,58764
840,48.0,0.0782014559995,59461
850,48.0,0.0790956789995,60156
860,49.0,0.0800224029995,60852
870,49.0,0.0809457059995,61548
880,54.0,0.0818634499994,62249
890,54.0,0.0827918849993,62944
900,54.0,0.0837857499994,63641
910,54.0,0.0847137569995,64344
920,54.0,0.0856297899995,65040
930,55.0,0.0865535199994,65731
940,57.0,0.0874751119993,66423
950,57.0,0.0883851579993,67126
960,59.0,0.0896193649994,67831
970,54.0,0.0905443779993,68531
980,59.0,0.0914933389993,69237
990,59.0,0.0924003909993,69942
1000,57.0,0.0933326739992,70644
1010,59.0,0.0942730819991,71332
1020,60.0,0.095194245999,72038
1030,59.0,0.0961269569989,72731
1040,59.0,0.097114407999,73414
1050,59.0,0.098056099999,74114
1060,59.0,0.0989759809988,74812
1070,59.0,0.099892867999,75512
1080,60.0,0.100805905999,76209
1090,64.0,0.101754439999,76911
1100,59.0,0.102657215999,77604
1110,60.0,0.103591636999,78301
1120,63.0,0.104552144999,78985
1130,62.0,0.105484427999,79684
1140,60.0,0.106414999999,80379
1150,60.0,0.107355836999,81077
1160,66.0,0.108302660999,81791
1170,67.0,0.109231949999,82490
1180,64.0,0.110133869999,83175
1190,66.0,0.111019538999,83862
1200,64.0,0.111955242999,84559
1210,64.0,0.113099641999,85262
1220,64.0,0.114061860999,85968
1230,64.0,0.114953089999,86658
1240,64.0,0.115866556999,87359
1250,66.0,0.116783444999,88050
1260,66.0,0.117720859999,88762
1270,64.0,0.118636464999,89460
1280,64.0,0.119568320999,90149
1290,64.0,0.120486918999,90847
1300,64.0,0.121402950999,91554
1310,64.0,0.12351855,92255
1320,64.0,0.124488039,92970
1330,64.0,0.125446409,93672
1340,66.0,0.126395370999,94374
1350,66.0,0.127461509999,95071
1360,69.0,0.128426721999,95772
1370,69.0,0.129347459,96477
1380,69.0,0.130303690999,97194
1390,69.0,0.131218867999,97892
1400,69.0,0.132124636999,98610
1410,69.0,0.133055209999,99290
1420,69.0,0.133956274,99993
1430,69.0,0.134896682999,100711
1440,69.0,0.135811004999,101415
1450,69.0,0.136726181999,102113
1460,69.0,0.137679847999,102814
1470,68.0,0.138605715999,103525
1480,69.0,0.139523886999,104226
1490,69.0,0.140437781999,104919
1500,70.0,0.141364505999,105614
1510,70.0,0.142246753999,106313
1520,70.0,0.143163215,107010
1530,70.0,0.144099775,107715
1540,70.0,0.145037618,108410
1550,69.0,0.145927992,109099
1560,70.0,0.146862841,109790
1570,69.0,0.147792558,110499
1580,74.0,0.148705169,111202
1590,74.0,0.149628899,111893
1600,74.0,0.15058171,112581
1610,74.0,0.151504158,113299
1620,74.0,0.152417197,113994
1630,74.0,0.153519686,114690
1640,74.0,0.154479339,115385
1650,74.0,0.155433433,116083
1660,75.0,0.156378118,116766
1670,76.0,0.157302275,117465
1680,78.0,0.15824696,118163
1690,76.0,0.159199771,118849
1700,74.0,0.160102546,119553
1710,74.0,0.161013874,120251
1720,75.0,0.161941881,120949
1730,74.0,0.162850644,121655
1740,74.0,0.163764538,122360
1750,75.0,0.164675867,123067
1760,78.0,0.165564102,123779
1770,75.0,0.166477996,124480
1780,75.0,0.167388897,125189
1790,75.0,0.168310061,125892
1800,78.0,0.169213692,126591
1810,77.0,0.170104921,127293
1820,77.0,0.1710526,127987
1830,77.0,0.17226243,128696
1840,83.0,0.17319343,129398
1850,77.0,0.174110318,130113
1860,76.0,0.175013521,130815
1870,76.0,0.175925705,131505
1880,77.0,0.176837461,132215
1890,76.0,0.177751356,132934
1900,76.0,0.178674659001,133644
1910,79.0,0.179588553,134341
1920,79.0,0.180538797001,135039
1930,77.0,0.186117529001,135750
1940,76.0,0.187030995,136442
1950,76.0,0.187922651,137144
1960,76.0,0.188836545,137848
1970,75.0,0.189774388,138549
1980,75.0,0.190670748,139261
1990,76.0,0.191582504001,139979
2000,75.0,0.192487417001,140676
2010,76.0,0.193505231001,141375
2020,76.0,0.194424257,142073
2030,75.0,0.195330881,142772
2040,75.0,0.196224676001,143468
2050,76.0,0.197132155001,144169
2060,75.0,0.198053319001,144873
2070,75.0,0.198941982001,145577
2080,75.0,0.199826368001,146266
2090,79.0,0.200729143001,146959
2100,77.0,0.201650307001,147655
2110,78.0,0.202562918001,148349
2120,78.0,0.203464410001,149054
2130,78.0,0.204353928001,149757
2140,78.0,0.205261407001,150450
2150,79.0,0.206233889001,151152
2160,78.0,0.207146073001,151851
2170,78.0,0.208130530001,152537
2180,78.0,0.209052550001,153233
2190,78.0,0.209974997001,153949
2200,79.0,0.210920966001,154651
2210,78.0,0.211820748001,155350
2220,78.0,0.212740629001,156043
2230,78.0,0.213683176001,156745
2240,78.0,0.214633421001,157439
2250,78.0,0.215564421001,158145
2260,78.0,0.216497132001,158846
2270,78.0,0.217419580001,159545
2280,78.0,0.218334757001,160252
2290,79.0,0.219261053001,160939
2300,82.0,0.220226693001,161649
2310,78.0,0.221132034001,162346
2320,78.0,0.222039514001,163056
2330,78.0,0.222978212001,163765
2340,79.0,0.223893389001,164470
2350,78.0,0.224835936001,165167
2360,81.0,0.225765653001,165863
2370,78.0,0.226692377001,166552
2380,78.0,0.227628937001,167242
2390,78.0,0.228518027001,167937
2400,79.0,0.229434914001,168638
2410,79.0,0.230344532001,169329
2420,81.0,0.231288789001,170031
2430,81.0,0.232251008001,170744
2440,79.0,0.233215793001,171433
2450,79.0,0.234143800001,172126
2460,79.0,0.235113289001,172849
2470,79.0,0.236038303001,173546
2480,79.0,0.237036017001,174248
2490,79.0,0.237976853001,174942
2500,79.0,0.238922822001,175643
2510,79.0,0.239846552001,176344
2520,80.0,0.240766006001,177053
2530,81.0,0.241692303001,177743
2540,76.0,0.242653239001,178456
2550,76.0,0.243618879001,179147
2560,76.0,0.244570406001,179844
2570,81.0,0.245527921001,180531
2580,81.0,0.246463625001,181239
2590,81.0,0.247416436001,181948
2600,81.0,0.248373523001,182654
2610,81.0,0.249277154001,183349
2620,81.0,0.250197035001,184041
2630,81.0,0.251117344001,184728
2640,83.0,0.252147988001,185424
2650,81.0,0.253095667001,186111
2660,83.0,0.254030943001,186810
2670,83.0,0.254995728001,187511
2680,83.0,0.255951105001,188206
2690,82.0,0.257051883001,188910
2700,82.0,0.257974758001,189615
2710,82.0,0.258966058001,190318
2720,83.0,0.259900480001,191013
2730,83.0,0.260866121001,191710
2740,84.0,0.261794128001,192399
2750,84.0,0.263114293001,193096
2760,87.0,0.264045720001,193811
2770,88.0,0.264984418001,194502
2780,82.0,0.265910714001,195200
2790,82.0,0.267067515001,195911
2800,82.0,0.268010490001,196626
2810,81.0,0.268960735001,197309
2820,82.0,0.269902427,198004
2830,82.0,0.270827441,198725
2840,81.0,0.271754593,199434
2850,81.0,0.272693291,200120
2860,81.0,0.273605475,200819
2870,81.0,0.274512099,201507
2880,88.0,0.275427276,202227
2890,86.0,0.276379659,202910
2900,82.0,0.277281151001,203603
2910,82.0,0.278228402001,204308
2920,80.0,0.279184206001,205008
2930,80.0,0.280196460001,205722
2940,81.0,0.281099663001,206418
2950,82.0,0.282355680001,207119
2960,81.0,0.283331584001,207820
2970,82.0,0.284253604001,208529
2980,82.0,0.285188453001,209223
2990,82.0,0.286221663001,209940
3000,84.0,0.287192863001,210649
3010,82.0,0.288129850001,211352
3020,82.0,0.289051442001,212047
3030,83.0,0.289962770001,212725
3040,82.0,0.290885645001,213414
3050,82.0,0.291802105001,214116
3060,83.0,0.292718993001,214797
3070,81.0,0.293648283001,215507
3080,81.0,0.294570303001,216199
3090,81.0,0.295500021001,216904
3100,83.0,0.296413915001,217593
3110,82.0,0.297374851001,218305
3120,82.0,0.298420035001,218997
3130,84.0,0.299369852001,219698
3140,84.0,0.300412470001,220386
3150,81.0,0.301358438001,221083
3160,82.0,0.30226378,221792
3170,81.0,0.303230703001,222491
3180,81.0,0.304154433,223170
3190,81.0,0.305082012,223863
3200,81.0,0.306065186,224566
3210,84.0,0.306994903,225258
3220,83.0,0.307950707,225970
3230,83.0,0.308864174001,226682
3240,84.0,0.309802017,227379
3250,83.0,0.310762953,228083
3260,84.0,0.311715764001,228780
3270,83.0,0.312692524001,229484
3280,83.0,0.313605135001,230171
3290,83.0,0.314557518001,230875
3300,83.0,0.315513323001,231572
3310,83.0,0.316439191001,232257
3320,84.0,0.317384304001,232945
3330,81.0,0.318315732,233633
3340,81.0,0.319233903,234322
3350,81.0,0.320194411,235025
3360,86.0,0.321124556,235729
3370,85.0,0.322230038,236431
3380,84.0,0.323173013,237113
3390,83.0,0.32409546,237796
3400,80.0,0.325050409,238475
3410,80.0,0.325996805,239173
3420,80.0,0.326928233,239864
3430,80.0,0.327862227,240576
3440,81.0,0.328815038,241282
3450,81.0,0.329769987,241975
3460,81.0,0.330692862,242665
3470,81.0,0.331617448,243366
3480,80.0,0.332545027,244066
3490,80.0,0.333479876,244759
3500,80.0,0.334435251999,245452
3510,80.0,0.335353422999,246149
3520,80.0,0.336267317999,246838
3530,80.0,0.337256051999,247535
3540,81.0,0.338168234999,248237
3550,81.0,0.339112064999,248940
3560,81.0,0.340018260999,249645
3570,81.0,0.340937714999,250336
3580,81.0,0.341838778999,251029
3590,81.0,0.342756093999,251725
3600,81.0,0.343690087999,252438
3610,81.0,0.344635200999,253144
3620,81.0,0.345585872999,253851
3630,81.0,0.346519438999,254544
3640,81.0,0.347435470999,255257
3650,81.0,0.348348081999,255956
3660,83.0,0.349264541999,256659
3670,81.0,0.350208799999,257355
3680,79.0,0.351153484999,258058
3690,79.0,0.352060963999,258780
3700,79.0,0.352985121999,259483
3710,80.0,0.353934938999,260185
3720,79.0,0.354962588999,260902
3730,79.0,0.355944479999,261593
3740,79.0,0.356871203999,262299
3750,79.0,0.357790657999,262983
3760,79.0,0.358700702998,263672
3770,79.0,0.359629137998,264372
3780,79.0,0.360564842998,265063
3790,79.0,0.361562556998,265757
3800,79.0,0.362506814998,266460
3810,79.0,0.363435248998,267158
3820,81.0,0.364368386998,267853
3830,79.0,0.365670161998,268550
3840,81.0,0.366557114998,269262
3850,81.0,0.367550552998,269963
3860,81.0,0.368469151998,270654
3870,81.0,0.369423673998,271361
3880,81.0,0.370373062998,272067
3890,81.0,0.371325017998,272770
3900,83.0,0.372265853998,273476
3910,82.0,0.373227217998,274180
3920,83.0,0.374141966998,274873
3930,81.0,0.375099908998,275571
3940,84.0,0.376052291998,276281
3950,83.0,0.377086783998,276969
3960,83.0,0.378041732998,277672
3970,83.0,0.378992404998,278364
3980,81.0,0.379898600998,279072
3990,81.0,0.380823613998,279782
4000,81.0,0.381746060998,280489
4010,81.0,0.382652685998,281187
4020,81.0,0.383581974998,281883
4030,81.0,0.384535640998,282583
4040,81.0,0.385449534998,283287
4050,81.0,0.386384811998,283995
4060,83.0,0.387339332998,284686
4070,80.0,0.388272471998,285366
4080,81.0,0.389199195998,286073
4090,79.0,0.390125919998,286777
4100,83.0,0.391035537998,287464
4110,83.0,0.391969530998,288180
4120,81.0,0.392922341998,288885
4130,81.0,0.393843505998,289591
4140,78.0,0.394762103998,290281
4150,79.0,0.395743994998,290978
4160,79.0,0.396737859998,291666
4170,79.0,0.397649188998,292355
4180,77.0,0.398585320998,293057
4190,79.0,0.399550105998,293761
4200,76.0,0.400472124998,294458
4210,76.0,0.401451877998,295150
4220,76.0,0.402391003998,295845
4230,76.0,0.403377171998,296544
4240,76.0,0.404281229998,297255
4250,78.0,0.405181438998,297947
4260,78.0,0.406190272998,298652
4270,76.0,0.407105877998,299353
4280,78.0,0.408047141998,300048
4290,76.0,0.408956759998,300745
4300,78.0,0.409872792998,301453
4310,78.0,0.410768297998,302133
4320,78.0,0.411689889999,302838
4330,78.0,0.412619606999,303539
4340,79.0,0.413533928999,304234
4350,78.0,0.414452954999,304928
4360,78.0,0.415355729999,305617
4370,79.0,0.416364135998,306315
4380,78.0,0.417360138998,307017
4390,78.0,0.418276171998,307715
4400,78.0,0.419235824998,308406
4410,77.0,0.420165113998,309089
4420,77.0,0.421136312998,309775
4430,77.0,0.422054911998,310476
4440,77.0,0.422995747999,311156
4450,77.0,0.424099946998,311850
4460,78.0,0.425050191998,312551
4470,80.0,0.425976487998,313236
4480,80.0,0.426907059998,313953
4490,79.0,0.427862864999,314656
4500,81.0,0.428818669998,315375
4510,79.0,0.430155940998,316076
4520,80.0,0.431082664998,316763
4530,78.0,0.432213806998,317451
4540,78.0,0.433161057998,318141
4550,78.0,0.434095479998,318839
4560,78.0,0.435051283999,319531
4570,78.0,0.435983566999,320236
4580,79.0,0.436901737999,320933
4590,78.0,0.437833593999,321636
4600,78.0,0.438781699999,322330
4610,79.0,0.439710561998,323025
4620,78.0,0.440670214999,323723
4630,78.0,0.441608912999,324423
4640,78.0,0.442536918999,325111
4650,78.0,0.443546606999,325805
4660,78.0,0.444468198999,326491
4670,78.0,0.445405185999,327167
4680,78.0,0.446359278999,327864
4690,79.0,0.447299259999,328543
4700,78.0,0.448248221999,329248
4710,79.0,0.449302385999,329937
4720,81.0,0.450285559999,330628
4730,81.0,0.451267877998,331328
4740,79.0,0.452227103998,332034
4750,81.0,0.453191887998,332742
4760,78.0,0.454171640999,333447
4770,74.0,0.455104351998,334144
4780,74.0,0.456037062998,334828
4790,73.0,0.457053165998,335524
4800,74.0,0.458041043998,336227
4810,74.0,0.459009677998,336914
4820,73.0,0.459963343998,337598
4830,74.0,0.460902041998,338300
4840,73.0,0.461823633998,338991
4850,73.0,0.462743087998,339680
4860,72.0,0.463699319999,340383
4870,77.0,0.464665815999,341064
4880,77.0,0.465594677999,341772
4890,77.0,0.466529099999,342487
4900,75.0,0.467494311999,343183
4910,75.0,0.468474919999,343884
4920,78.0,0.469428158999,344581
4930,77.0,0.470536634999,345274
4940,75.0,0.471451811999,345958
4950,75.0,0.472369126999,346649
4960,75.0,0.473268908999,347343
4970,75.0,0.474200336999,348046
4980,78.0,0.475158706999,348744
4990,75.0,0.476141024999,349438
