it,funval,time,funcount
0,17.0,0.000537132000034,794
10,17.0,0.001078968,1493
20,17.0,0.00162935700001,2202
30,23.0,0.00219172100003,2891
40,23.0,0.00277675000001,3579
50,25.0,0.00331858600003,4269
60,27.0,0.00388266000004,4978
70,29.0,0.004436043,5678
80,31.0,0.00500139999997,6396
90,30.0,0.005556066,7084
100,31.0,0.00611586299999,7784
110,32.0,0.00667694399999,8483
120,32.0,0.00722647800001,9172
130,31.0,0.007762754,9863
140,32.0,0.00832725600003,10564
150,83.0,0.00889774500001,11271
160,83.0,0.00946224700004,11978
170,80.0,0.010045565,12662
180,83.0,0.010599375,13376
190,81.0,0.011145488,14064
200,83.0,0.011681337,14775
210,82.0,0.012274919,15476
220,84.0,0.0130921640001,16165
230,83.0,0.0136635080001,16872
240,83.0,0.0142177470001,17560
250,80.0,0.0147719850001,18254
260,81.0,0.0153133930001,18955
270,77.0,0.0159018430001,19661
280,81.0,0.0165788180001,20357
290,81.0,0.0171398980002,21049
300,81.0,0.0176932810002,21753
310,76.0,0.0182364000001,22452
320,76.0,0.0187914930002,23149
330,81.0,0.0193290520002,23837
340,76.0,0.0198802970002,24532
350,81.0,0.0204601950002,25235
360,77.0,0.0210460790002,25924
370,81.0,0.0215879150002,26610
380,83.0,0.0221579770002,27309
390,77.0,0.0227152090002,28009
400,77.0,0.0232626050002,28700
410,77.0,0.0238155600002,29404
420,77.0,0.0243706540002,30106
430,77.0,0.0249573940002,30802
440,77.0,0.0255317320002,31490
450,76.0,0.0260851150002,32195
460,79.0,0.0266556040002,32900
470,77.0,0.0272265210002,33592
480,79.0,0.0277867460002,34297
490,77.0,0.0286181030002,34995
500,75.0,0.0292121130002,35694
510,76.0,0.0297526670002,36380
520,79.0,0.0303171690002,37083
530,80.0,0.0308735450002,37772
540,80.0,0.0314354810002,38478
550,77.0,0.0319815940002,39166
560,79.0,0.0325204360002,39872
570,79.0,0.0330793790002,40576
580,79.0,0.0336224980002,41283
590,79.0,0.0342160800002,41988
600,79.0,0.0348284790003,42687
610,79.0,0.0353861390003,43372
620,78.0,0.0359600490003,44072
630,82.0,0.0365425120003,44768
640,81.0,0.0371100080002,45456
650,79.0,0.0376595420003,46164
660,83.0,0.0382142080003,46860
670,77.0,0.0388715100003,47549
680,77.0,0.0394351570002,48242
690,78.0,0.0400000860002,48951
700,81.0,0.0405427780003,49644
710,86.0,0.0412676500002,50340
720,86.0,0.0419805480002,51022
730,81.0,0.0425446220002,51721
740,79.0,0.0430980050002,52418
750,81.0,0.0436518160002,53099
760,78.0,0.0442205950002,53792
770,78.0,0.0448000650002,54498
780,76.0,0.0453491710002,55189
790,76.0,0.0459089690002,55887
800,76.0,0.0464696220002,56603
810,76.0,0.0470187280002,57295
820,78.0,0.0475729660001,57984
830,81.0,0.0481434550002,58681
840,81.0,0.0487019700002,59384
850,76.0,0.0492442340002,60084
860,76.0,0.0497847870001,60793
870,83.0,0.0503685330002,61497
880,77.0,0.0509356010002,62186
890,78.0,0.0515052350001,62884
900,74.0,0.0520680270002,63576
910,75.0,0.0526735830002,64259
920,79.0,0.0533407210002,64938
930,71.0,0.0538804190002,65639
940,74.0,0.0544333750002,66337
950,77.0,0.0549983050002,67037
960,74.0,0.0555495490002,67730
970,74.0,0.0561221760002,68425
980,74.0,0.0566665780002,69114
990,77.0,0.0572096970002,69805
1000,74.0,0.0577506770002,70510
1010,75.0,0.0583198830002,71207
1020,72.0,0.0589040570002,71902
1030,71.0,0.0594946460002,72595
1040,71.0,0.0600535890002,73293
1050,71.0,0.0606510200002,73979
1060,71.0,0.0612980590002,74679
1070,73.0,0.0618535800002,75380
1080,73.0,0.0624125230002,76072
1090,77.0,0.0629868610002,76764
1100,73.0,0.0635496520002,77458
1110,71.0,0.0640987580002,78155
1120,71.0,0.0646474360001,78850
1130,71.0,0.0652474330001,79552
1140,72.0,0.0657901250001,80255
1150,71.0,0.0663516330001,80956
1160,70.0,0.0669135690001,81663
1170,71.0,0.0674682350001,82368
1180,71.0,0.0680489880001,83070
1190,71.0,0.0685998050001,83776
1200,71.0,0.0691497670001,84464
1210,71.0,0.0697566060001,85160
1220,71.0,0.070321108,85851
1230,69.0,0.070880051,86541
1240,69.0,0.07144156,87255
1250,69.0,0.0719915210001,87960
1260,71.0,0.0725474700001,88653
1270,71.0,0.0731384860001,89364
1280,71.0,0.073698284,90057
1290,71.0,0.074264496,90763
1300,69.0,0.074824294,91461
1310,70.0,0.075385374,92147
1320,70.0,0.075946883,92831
1330,70.0,0.076495561,93531
1340,71.0,0.077057497,94238
1350,73.0,0.077616439,94938
1360,70.0,0.078163835,95648
1370,68.0,0.078712514,96346
1380,70.0,0.079259054,97053
1390,74.0,0.079797896,97754
1400,74.0,0.080369241,98445
1410,73.0,0.08092519,99155
1420,70.0,0.081532457,99852
1430,70.0,0.08208413,100550
1440,70.0,0.082643928,101237
1450,69.0,0.083202015,101922
1460,68.0,0.083754115,102609
1470,67.0,0.0842980899999,103309
1480,69.0,0.084829235,104007
1490,69.0,0.0853757749999,104691
1500,69.0,0.0885147469999,105390
1510,69.0,0.0890719789999,106089
1520,69.0,0.0896322039999,106794
1530,71.0,0.0901795999999,107498
1540,71.0,0.0907287059999,108197
1550,71.0,0.0912692589999,108907
1560,70.0,0.091828629,109621
1570,70.0,0.092367044,110303
1580,71.0,0.092943948,110995
1590,71.0,0.093480225,111691
1600,69.0,0.094045155,112367
1610,71.0,0.094583998,113076
1620,71.0,0.095121558,113774
1630,69.0,0.095694613,114471
1640,68.0,0.0962539830001,115175
1650,71.0,0.096792398,115886
1660,71.0,0.097350913,116584
1670,71.0,0.097898309,117284
1680,73.0,0.0984444220001,117982
1690,71.0,0.0989969500001,118668
1700,73.0,0.0995490500001,119377
1710,71.0,0.100099867,120065
1720,69.0,0.100637427,120760
1730,71.0,0.101223311,121446
1740,70.0,0.101796793,122146
1750,70.0,0.102353597,122841
1760,71.0,0.102930073,123556
1770,71.0,0.103498424,124264
1780,72.0,0.104058221,124961
1790,72.0,0.10463042,125673
1800,70.0,0.10521887,126386
1810,71.0,0.105809031,127082
1820,71.0,0.106379092,127775
1830,75.0,0.106936751,128462
1840,73.0,0.107671031,129156
1850,73.0,0.108243231,129852
1860,73.0,0.108805595,130543
1870,74.0,0.109402171,131239
1880,77.0,0.10995812,131938
1890,77.0,0.110515352,132638
1900,74.0,0.111068735,133333
1910,71.0,0.111619125,134048
1920,76.0,0.112207575,134755
1930,77.0,0.112797308,135441
1940,75.0,0.113340854,136142
1950,73.0,0.113939996,136829
1960,74.0,0.114526736,137528
1970,73.0,0.115083968,138216
1980,73.0,0.115636495,138899
1990,74.0,0.116208694,139602
2000,74.0,0.116789019,140290
2010,73.0,0.11738645,140978
2020,73.0,0.117966775,141674
2030,73.0,0.118550949,142375
2040,72.0,0.119164631,143073
2050,72.0,0.119743673,143776
2060,71.0,0.12032913,144477
2070,71.0,0.120878237,145170
2080,73.0,0.121442739,145869
2090,72.0,0.121996977,146558
2100,70.0,0.122567894,147263
2110,70.0,0.123125981,147960
2120,70.0,0.123692621,148658
2130,69.0,0.124254557,149360
2140,69.0,0.124806657,150051
2150,70.0,0.125380567,150738
2160,71.0,0.125961747,151453
2170,70.0,0.126507859,152155
2180,71.0,0.12705611,152851
2190,72.0,0.127594525,153544
2200,72.0,0.128166725,154249
2210,72.0,0.128732082,154960
2220,71.0,0.129290169,155661
2230,74.0,0.12983286,156354
2240,74.0,0.130418317,157053
2250,70.0,0.130963574,157745
2260,72.0,0.131505838,158443
2270,72.0,0.132060077,159145
2280,72.0,0.132610466,159829
2290,70.0,0.133156151,160526
2300,72.0,0.133741608,161224
2310,71.0,0.134294136,161927
2320,72.0,0.134865053,162629
2330,69.0,0.13542314,163337
2340,72.0,0.135966687,164050
2350,70.0,0.136534183,164745
2360,70.0,0.137100395,165435
2370,72.0,0.137660192,166131
2380,71.0,0.138236668,166842
2390,74.0,0.138807585,167535
2400,73.0,0.139358402,168226
2410,75.0,0.139913068,168928
2420,74.0,0.140501091,169627
2430,77.0,0.141067732,170314
2440,75.0,0.141625391,171008
2450,75.0,0.142177918,171702
2460,70.0,0.142787324,172400
2470,72.0,0.143364228,173100
2480,74.0,0.143953962,173798
2490,70.0,0.144506061,174501
2500,70.0,0.145055168,175201
2510,67.0,0.145610261,175910
2520,67.0,0.146159795,176611
2530,66.0,0.146697355,177301
2540,66.0,0.147253304,177998
2550,66.0,0.147796851,178698
2560,66.0,0.148352799,179386
2570,66.0,0.148898056,180084
2580,69.0,0.149433477,180778
2590,66.0,0.149966761,181478
2600,72.0,0.150510736,182171
2610,66.0,0.151059415,182880
2620,69.0,0.151593981,183574
2630,66.0,0.152139666,184277
2640,70.0,0.152696898,184971
2650,67.0,0.153260972,185673
2660,65.0,0.153813927,186377
2670,66.0,0.154392114,187074
2680,65.0,0.154936089,187777
2690,66.0,0.155470655,188463
2700,67.0,0.156032163,189149
2710,66.0,0.156574427,189854
2720,66.0,0.157120112,190549
2730,65.0,0.157682048,191241
2740,69.0,0.158250826,191948
2750,65.0,0.158835855,192633
2760,65.0,0.159384534,193338
2770,66.0,0.15995203,194050
2780,66.0,0.16051696,194743
2790,67.0,0.161068205,195439
2800,64.0,0.161611324,196137
2810,65.0,0.162157009,196853
2820,68.0,0.162733913,197555
2830,69.0,0.163292,198260
2840,73.0,0.163835974,198962
2850,74.0,0.164394061,199663
2860,70.0,0.164970537,200375
2870,71.0,0.165601325,201081
2880,68.0,0.166183361,201777
2890,75.0,0.166738454,202476
2900,71.0,0.167308088,203177
2910,70.0,0.167862327,203862
2920,66.0,0.168412288,204569
2930,68.0,0.168964388,205262
2940,68.0,0.169546851,205961
2950,68.0,0.170183198,206643
2960,66.0,0.17072931,207329
2970,67.0,0.171296378,208022
2980,68.0,0.171868578,208714
2990,67.0,0.172428803,209409
3000,72.0,0.17297235,210113
3010,67.0,0.173509482,210794
3020,69.0,0.174057306,211498
3030,72.0,0.174626512,212202
3040,71.0,0.17518802,212886
3050,72.0,0.17572558,213573
3060,71.0,0.176274259,214288
3070,74.0,0.176828925,214993
3080,75.0,0.177404118,215699
3090,74.0,0.17798145,216400
3100,74.0,0.178520721,217103
3110,76.0,0.179114303,217803
3120,79.0,0.179682653,218514
3130,75.0,0.180287782,219210
3140,76.0,0.180833895,219915
3150,74.0,0.181389417,220605
3160,74.0,0.181938096,221296
3170,74.0,0.182509868,222000
3180,74.0,0.183067955,222696
3190,74.0,0.183630319,223398
3200,74.0,0.184191827,224107
3210,76.0,0.184752908,224792
3220,76.0,0.185317838,225486
3230,76.0,0.185890037,226192
3240,76.0,0.186546056,226885
3250,75.0,0.187115262,227583
3260,75.0,0.187655815,228272
3270,74.0,0.188245121,228964
3280,74.0,0.188796793,229663
3290,74.0,0.189388665,230361
3300,76.0,0.189959154,231064
3310,76.0,0.190558724,231753
3320,76.0,0.191123653,232450
3330,78.0,0.191675325,233141
3340,74.0,0.192238971,233844
3350,74.0,0.192780379,234540
3360,74.0,0.193347874,235232
3370,73.0,0.193912375,235935
3380,71.0,0.194452928,236637
3390,73.0,0.19501187,237328
3400,73.0,0.195614005,238028
3410,73.0,0.196173375,238722
3420,73.0,0.196715639,239406
3430,73.0,0.197295108,240099
3440,74.0,0.197851056,240798
3450,72.0,0.198389043,241504
3460,74.0,0.198948413,242206
3470,73.0,0.199620683,242907
3480,74.0,0.200217258,243605
3490,74.0,0.200811267,244313
3500,74.0,0.201400145,245010
3510,76.0,0.201967213,245708
3520,76.0,0.202534281,246411
3530,74.0,0.203080821,247103
3540,74.0,0.203637198,247802
3550,74.0,0.204205976,248509
3560,72.0,0.207849151,249194
3570,71.0,0.208395692,249884
3580,70.0,0.208950785,250599
3590,70.0,0.209522985,251314
3600,74.0,0.210268384,252013
3610,72.0,0.210832886,252704
3620,76.0,0.211405941,253409
3630,73.0,0.21197643,254111
3640,72.0,0.21252297,254808
3650,73.0,0.213074642,255503
3660,75.0,0.213636578,256217
3670,73.0,0.214218613,256915
3680,73.0,0.214780121,257598
3690,73.0,0.215338208,258294
3700,73.0,0.215895867,259000
3710,73.0,0.216441979,259724
3720,73.0,0.217003488,260424
3730,73.0,0.217550028,261132
3740,73.0,0.218093575,261838
3750,76.0,0.218888154,262539
3760,75.0,0.219441109,263251
3770,73.0,0.219990216,263954
3780,73.0,0.220553862,264638
3790,75.0,0.221114515,265352
3800,75.0,0.221664476,266058
3810,75.0,0.222252499,266759
3820,75.0,0.222811014,267455
3830,75.0,0.223364396,268140
3840,75.0,0.223908798,268836
3850,75.0,0.224449779,269542
3860,75.0,0.225006583,270255
3870,75.0,0.225582631,270948
3880,75.0,0.226124039,271645
3890,75.0,0.226701371,272351
3900,76.0,0.227260741,273058
3910,75.0,0.22782396,273740
3920,75.0,0.22865489,274446
3930,79.0,0.22922324,275143
3940,79.0,0.229776195,275831
3950,79.0,0.230357375,276537
3960,76.0,0.230928292,277226
3970,79.0,0.231495788,277926
3980,76.0,0.232045322,278617
3990,75.0,0.232629496,279324
4000,74.0,0.233194853,280029
4010,74.0,0.233755934,280729
4020,77.0,0.234314877,281427
4030,79.0,0.234873392,282127
4040,75.0,0.235656425,282819
4050,76.0,0.236253856,283522
4060,77.0,0.236808095,284220
4070,77.0,0.237422632,284920
4080,79.0,0.237993977,285622
4090,75.0,0.238545222,286319
4100,75.0,0.239094329,287022
4110,76.0,0.239686628,287718
4120,76.0,0.240278927,288410
4130,75.0,0.240893037,289090
4140,76.0,0.241478066,289795
4150,76.0,0.242069083,290509
4160,74.0,0.242658817,291197
4170,74.0,0.243214338,291900
4180,73.0,0.243762589,292602
4190,73.0,0.244309557,293297
4200,77.0,0.244886033,294010
4210,75.0,0.245463792,294715
4220,76.0,0.246020596,295417
4230,75.0,0.246572696,296117
4240,79.0,0.2471496,296823
4250,79.0,0.2477017,297534
4260,86.0,0.248246958,298233
4270,81.0,0.248799913,298933
4280,79.0,0.249376817,299634
4290,82.0,0.249928061,300314
4300,81.0,0.250472891,301022
4310,84.0,0.251015583,301709
4320,82.0,0.251558702,302420
4330,84.0,0.252156988,303110
4340,84.0,0.252738596,303813
4350,82.0,0.253277011,304507
4360,77.0,0.253837236,305213
4370,82.0,0.254385059,305917
4380,82.0,0.25493331,306618
4390,83.0,0.255478139,307318
4400,83.0,0.256025963,308029
4410,82.0,0.256603294,308722
4420,83.0,0.257164374,309426
4430,81.0,0.257722889,310122
4440,78.0,0.258290384,310823
4450,78.0,0.258850182,311520
4460,81.0,0.259415539,312213
4470,77.0,0.259956093,312899
4480,77.0,0.260495791,313590
4490,77.0,0.26105174,314280
4500,77.0,0.261594431,314992
4510,77.0,0.262170907,315682
4520,77.0,0.262729849,316373
4530,77.0,0.263271257,317055
4540,82.0,0.263867833,317760
4550,77.0,0.264535399,318457
4560,77.0,0.265093059,319149
4570,84.0,0.26563233,319848
4580,77.0,0.266178015,320546
4590,78.0,0.266733964,321242
4600,77.0,0.267278794,321953
4610,77.0,0.267909154,322638
4620,77.0,0.268496749,323336
4630,77.0,0.269044572,324032
4640,77.0,0.269600093,324727
4650,77.0,0.270181701,325434
4660,77.0,0.270721399,326129
4670,77.0,0.271321824,326827
4680,77.0,0.271858528,327525
4690,81.0,0.272405924,328221
4700,77.0,0.272961873,328917
4710,77.0,0.273551179,329629
4720,77.0,0.274113115,330339
4730,77.0,0.274672057,331021
4740,78.0,0.275226723,331744
4750,77.0,0.275820733,332429
4760,77.0,0.276369412,333123
4770,78.0,0.276934341,333826
4780,81.0,0.277489007,334522
4790,75.0,0.278044528,335213
4800,77.0,0.278621859,335910
4810,75.0,0.279193631,336600
4820,76.0,0.279753856,337300
4830,72.0,0.280363262,337989
4840,81.0,0.281000464,338684
4850,74.0,0.281615002,339389
4860,72.0,0.282201314,340082
4870,72.0,0.28278506,340796
4880,70.0,0.283363674,341483
4890,70.0,0.283924755,342185
4900,70.0,0.284588045,342878
4910,70.0,0.285141856,343564
4920,70.0,0.285708924,344261
4930,70.0,0.286335008,344945
4940,70.0,0.28691405,345637
4950,74.0,0.287493519,346368
4960,74.0,0.288047757,347061
4970,74.0,0.288605416,347749
4980,74.0,0.289159227,348458
4990,74.0,0.290076114,349157
