it,funval,time,funcount
0,13.0,0.00166912999975,794
10,18.0,0.00345329799984,1489
20,18.0,0.00518700300017,2191
30,18.0,0.00689847000012,2880
40,18.0,0.00855904700029,3581
50,18.0,0.0102816330004,4276
60,18.0,0.0120003700004,4961
70,18.0,0.0136900270004,5662
80,18.0,0.0154284360005,6367
90,19.0,0.0171219410004,7073
100,18.0,0.0188646270003,7773
110,18.0,0.0206368200002,8484
120,18.0,0.0224107240001,9189
130,18.0,0.0240708730003,9892
140,18.0,0.025731021,10579
150,19.0,0.0274707129997,11279
160,18.0,0.0292407679999,11956
170,18.0,0.030939833,12669
180,19.0,0.0327868660002,13379
190,21.0,0.0345133010001,14074
200,21.0,0.0362555590004,14771
210,19.0,0.0380174890006,15465
220,21.0,0.039752905001,16155
230,24.0,0.0414857550013,16852
240,19.0,0.0437600130017,17542
250,19.0,0.0456395470014,18235
260,19.0,0.0477722520018,18934
270,19.0,0.0494687510018,19631
280,19.0,0.0511832110014,20320
290,19.0,0.0528933950013,21028
300,19.0,0.0545727880012,21741
310,19.0,0.0562359300015,22445
320,21.0,0.0579097630016,23138
330,21.0,0.0596917920016,23824
340,19.0,0.0614216470017,24522
350,19.0,0.0634500040014,25219
360,19.0,0.0651520630017,25918
370,19.0,0.0668280340019,26613
380,19.0,0.0685908190021,27311
390,21.0,0.0704143300022,28011
400,21.0,0.0720890180023,28713
410,21.0,0.0737406140024,29411
420,22.0,0.0754439560023,30115
430,21.0,0.0771242040023,30815
440,21.0,0.0790011730023,31532
450,25.0,0.0807874790025,32247
460,25.0,0.0824959520028,32946
470,25.0,0.0842514670026,33641
480,27.0,0.0861459690022,34329
490,27.0,0.0878458890024,35028
500,27.0,0.0896189380028,35721
510,27.0,0.0913385300028,36409
520,27.0,0.0931171380025,37112
530,27.0,0.0948204790025,37812
540,27.0,0.0965238200024,38501
550,27.0,0.0982425570023,39198
560,27.0,0.100011757002,39897
570,28.0,0.101779674002,40595
580,28.0,0.103488575002,41286
590,28.0,0.105333042002,41995
600,27.0,0.107094972002,42684
610,27.0,0.109024114002,43382
620,27.0,0.110870720002,44067
630,29.0,0.112640776002,44785
640,29.0,0.114413825002,45478
650,29.0,0.116254015002,46177
660,37.0,0.117981305002,46886
670,37.0,0.119755209002,47574
680,37.0,0.121524836002,48256
690,37.0,0.123291898002,48944
700,37.0,0.125074356002,49645
710,37.0,0.126809344002,50342
720,38.0,0.128558872002,51034
730,38.0,0.130334915002,51747
740,38.0,0.132098555002,52459
750,38.0,0.133899829002,53157
760,38.0,0.135631395002,53864
770,38.0,0.137567807003,54567
780,38.0,0.139404149003,55265
790,38.0,0.141151967003,55973
800,38.0,0.142876263003,56676
810,42.0,0.144623653002,57378
820,39.0,0.146517728002,58085
830,43.0,0.148333115002,58780
840,40.0,0.150116855002,59483
850,40.0,0.151910003002,60183
860,38.0,0.153682197002,60880
870,38.0,0.155489885002,61581
880,38.0,0.157357873002,62288
890,38.0,0.159121941002,62990
900,42.0,0.160906965002,63689
910,40.0,0.162753570002,64385
920,42.0,0.164606590002,65084
930,43.0,0.166381778002,65773
940,43.0,0.168686827002,66464
950,43.0,0.170441486001,67159
960,43.0,0.172193580001,67856
970,43.0,0.173945246001,68557
980,43.0,0.175711452001,69272
990,44.0,0.177434038002,69966
1000,43.0,0.179160045002,70662
1010,43.0,0.180982702002,71365
1020,44.0,0.182689464002,72052
1030,46.0,0.184447545002,72734
1040,45.0,0.186198355002,73421
1050,46.0,0.187970121002,74130
1060,45.0,0.189727347003,74833
1070,44.0,0.191485000003,75536
1080,45.0,0.193222127002,76212
1090,46.0,0.194975932002,76902
1100,44.0,0.196707499002,77579
1110,44.0,0.198469857002,78283
1120,45.0,0.200195864002,78986
1130,45.0,0.201932135002,79686
1140,44.0,0.203657287002,80395
1150,44.0,0.205426487002,81081
1160,44.0,0.207182002001,81780
1170,45.0,0.208959327001,82467
1180,45.0,0.210726816001,83164
1190,44.0,0.212488318001,83861
1200,44.0,0.214236563002,84567
1210,44.0,0.216006618001,85266
1220,44.0,0.217762133001,85974
1230,45.0,0.219602751001,86676
1240,45.0,0.221437382001,87376
1250,45.0,0.223313923001,88082
1260,45.0,0.225067728001,88797
1270,45.0,0.226854889001,89500
1280,44.0,0.22857833,90200
1290,44.0,0.230299205,90904
1300,44.0,0.232152653,91600
1310,45.0,0.233899187001,92304
1320,44.0,0.235638024,92991
1330,45.0,0.237365741,93688
1340,44.0,0.239119546,94405
1350,44.0,0.240937498001,95102
1360,44.0,0.242766998001,95807
1370,45.0,0.244521658,96488
1380,44.0,0.24627418,97185
1390,45.0,0.24826576,97889
1400,45.0,0.250041802,98598
1410,47.0,0.251829819,99301
1420,47.0,0.253593887,99977
1430,48.0,0.255321177,100677
1440,45.0,0.25705702,101374
1450,45.0,0.25878431,102071
1460,45.0,0.260621079,102762
1470,45.0,0.262380015,103446
1480,47.0,0.264213363,104139
1490,47.0,0.266032171,104831
1500,47.0,0.26781249,105555
1510,47.0,0.269624028,106239
1520,48.0,0.271376122,106937
1530,51.0,0.273143183,107637
1540,51.0,0.274996203,108353
1550,48.0,0.27677695,109048
1560,47.0,0.278552993,109746
1570,51.0,0.280685698,110437
1580,51.0,0.282526316,111129
1590,48.0,0.284350256,111828
1600,48.0,0.286162649,112510
1610,47.0,0.28799172,113204
1620,47.0,0.289871255,113893
1630,47.0,0.291655851001,114594
1640,47.0,0.293530681,115292
1650,48.0,0.295778852001,115988
1660,48.0,0.297576705001,116698
1670,48.0,0.299407915001,117399
1680,48.0,0.301190372001,118098
1690,48.0,0.302898417001,118795
1700,51.0,0.304677453001,119485
1710,48.0,0.306409875001,120178
1720,48.0,0.308282567001,120870
1730,51.0,0.310040648001,121564
1740,48.0,0.311813697001,122264
1750,52.0,0.313873273001,122948
1760,52.0,0.315635630001,123644
1770,55.0,0.317449733001,124350
1780,55.0,0.319213374001,125047
1790,52.0,0.321151070002,125740
1800,52.0,0.322975437002,126433
1810,52.0,0.324981984002,127143
1820,55.0,0.326770428002,127848
1830,52.0,0.328561438002,128538
1840,53.0,0.330619303002,129234
1850,56.0,0.332490712002,129930
1860,56.0,0.334364260002,130652
1870,57.0,0.336171521002,131332
1880,56.0,0.338033522002,132031
1890,56.0,0.339840356002,132742
1900,57.0,0.341641630002,133458
1910,59.0,0.343460865002,134157
1920,57.0,0.345214242002,134875
1930,56.0,0.347048873002,135574
1940,57.0,0.348907453002,136274
1950,56.0,0.350670666002,136977
1960,56.0,0.352469802002,137674
1970,56.0,0.354306571002,138369
1980,55.0,0.356062086002,139063
1990,55.0,0.357923659002,139754
2000,55.0,0.359722795002,140454
2010,56.0,0.361464625002,141144
2020,56.0,0.363215863002,141842
2030,55.0,0.364926902002,142530
2040,55.0,0.366807719002,143232
2050,55.0,0.368649620002,143935
2060,55.0,0.370467572002,144630
2070,55.0,0.372369344002,145320
2080,56.0,0.374210818002,146019
2090,55.0,0.376148941002,146726
2100,55.0,0.378070814002,147422
2110,55.0,0.379882780002,148125
2120,55.0,0.405843876002,148826
2130,55.0,0.407493761002,149541
2140,56.0,0.409144501002,150229
2150,56.0,0.410792676002,150931
2160,55.0,0.413374416002,151632
2170,57.0,0.414999924002,152324
2180,57.0,0.416666915001,153027
2190,55.0,0.418324925001,153716
2200,56.0,0.419955138002,154418
2210,56.0,0.421612721002,155123
2220,56.0,0.423634664002,155835
2230,55.0,0.425293529002,156528
2240,55.0,0.426970784002,157221
2250,55.0,0.428636492002,157916
2260,55.0,0.430794429002,158626
2270,56.0,0.432486224002,159328
2280,56.0,0.434097620001,160018
2290,56.0,0.435769315001,160714
2300,56.0,0.437438445002,161413
2310,56.0,0.439069940001,162104
2320,56.0,0.440689889002,162801
2330,56.0,0.442311121002,163513
2340,56.0,0.443919951002,164210
2350,56.0,0.445587797001,164908
2360,56.0,0.447190213001,165610
2370,56.0,0.448858915001,166312
2380,56.0,0.450504524002,167006
2390,56.0,0.452233097002,167706
2400,57.0,0.453873145002,168413
2410,57.0,0.455605140002,169106
2420,56.0,0.457225089002,169802
2430,56.0,0.458859578002,170495
2440,57.0,0.460552656002,171175
2450,56.0,0.462208528002,171868
2460,56.0,0.463931969001,172570
2470,56.0,0.465582281001,173269
2480,57.0,0.467237298001,173965
2490,56.0,0.468884190001,174661
2500,56.0,0.470532792001,175340
2510,56.0,0.472149320001,176045
2520,57.0,0.473814600001,176739
2530,56.0,0.475422147001,177443
2540,56.0,0.477020713,178138
2550,59.0,0.478620990001,178838
2560,56.0,0.480279428001,179525
2570,56.0,0.481905364001,180229
2580,57.0,0.483559098001,180917
2590,57.0,0.485331719001,181618
2600,57.0,0.487050029001,182308
2610,56.0,0.488746100001,183008
2620,56.0,0.490446876001,183706
2630,59.0,0.492148507001,184421
2640,56.0,0.493831748001,185115
2650,57.0,0.495582987001,185815
2660,57.0,0.497251260001,186502
2670,57.0,0.498893447001,187190
2680,57.0,0.500542904001,187887
2690,56.0,0.502204335001,188584
2700,56.0,0.503862345,189281
2710,56.0,0.505562266,189967
2720,56.0,0.507337881,190671
2730,57.0,0.50903438,191360
2740,62.0,0.510801442,192057
2750,62.0,0.512630941,192757
2760,62.0,0.514435636,193446
2770,62.0,0.516119733,194143
2780,60.0,0.517765769,194848
2790,57.0,0.519461413,195553
2800,57.0,0.521203244,196242
2810,57.0,0.522901454,196946
2820,56.0,0.524588971999,197634
2830,56.0,0.526312840999,198325
2840,56.0,0.527938349999,199023
2850,57.0,0.529703273999,199722
2860,57.0,0.531380100999,200437
2870,57.0,0.533204040999,201129
2880,57.0,0.535018571999,201832
2890,56.0,0.536667601999,202526
2900,56.0,0.538312782999,203224
2910,56.0,0.540011419999,203907
2920,57.0,0.541703214999,204604
2930,56.0,0.543410404998,205308
2940,56.0,0.545060289998,206008
2950,56.0,0.546771755998,206707
2960,56.0,0.548443451998,207396
2970,56.0,0.550140378998,208084
2980,56.0,0.551762893998,208769
2990,56.0,0.553402514998,209452
3000,56.0,0.555075064998,210148
3010,56.0,0.556724949998,210859
3020,56.0,0.558410757998,211551
3030,62.0,0.560080314997,212250
3040,62.0,0.561725922998,212954
3050,62.0,0.563390347997,213652
3060,62.0,0.565031679997,214350
3070,62.0,0.566645214997,215047
3080,64.0,0.569432228997,215749
3090,64.0,0.571086390997,216435
3100,64.0,0.572734992997,217132
3110,64.0,0.574398134997,217839
3120,64.0,0.576040321997,218533
3130,65.0,0.577772315997,219231
3140,67.0,0.579415357997,219930
3150,65.0,0.581067807997,220634
3160,67.0,0.582738647998,221339
3170,67.0,0.584436857998,222043
3180,67.0,0.586125231998,222749
3190,67.0,0.587814888998,223443
3200,67.0,0.589530204998,224136
3210,67.0,0.591201899998,224829
3220,67.0,0.592956131998,225535
3230,67.0,0.594643221998,226219
3240,67.0,0.596650197998,226923
3250,67.0,0.598387323998,227620
3260,67.0,0.600044906998,228329
3270,67.0,0.601733280998,229023
3280,68.0,0.603364776998,229718
3290,68.0,0.605020220998,230415
3300,67.0,0.606685928998,231121
3310,67.0,0.608327260998,231818
3320,65.0,0.609985271998,232519
3330,65.0,0.611895596998,233221
3340,65.0,0.614996080998,233908
3350,65.0,0.616645965998,234598
3360,67.0,0.618327924999,235299
3370,65.0,0.619973104999,235986
3380,67.0,0.621648220999,236693
3390,65.0,0.623321625999,237393
3400,65.0,0.624904796999,238100
3410,65.0,0.626603861999,238779
3420,65.0,0.628534713999,239479
3430,66.0,0.631863564,240183
3440,65.0,0.633480518999,240886
3450,65.0,0.635105599999,241585
3460,65.0,0.636778577999,242288
3470,65.0,0.638487478999,242989
3480,65.0,0.640148909999,243692
3490,65.0,0.642100717999,244381
3500,66.0,0.644666207999,245088
3510,65.0,0.646330205999,245798
3520,65.0,0.647967688999,246498
3530,65.0,0.649612015,247177
3540,65.0,0.651266176,247867
3550,66.0,0.65294728,248567
3560,66.0,0.654615554,249256
3570,65.0,0.656448902,249967
3580,65.0,0.65815481,250658
3590,65.0,0.659826077001,251364
3600,66.0,0.661537972001,252067
3610,66.0,0.663463693001,252764
3620,66.0,0.665142230001,253465
3630,66.0,0.666830176001,254171
3640,65.0,0.668509997,254872
3650,65.0,0.670197087,255572
3660,65.0,0.671904705,256279
3670,65.0,0.673662786,256972
3680,65.0,0.675398629,257671
3690,65.0,0.677423566,258369
3700,65.0,0.679138882,259063
3710,65.0,0.680844789,259750
3720,65.0,0.682513919,260455
3730,66.0,0.684176206,261152
3740,65.0,0.685891094,261860
3750,66.0,0.687617529,262569
3760,65.0,0.689406401001,263283
3770,65.0,0.691064411001,263993
3780,66.0,0.692736534001,264695
3790,67.0,0.694420631001,265403
3800,66.0,0.696165883001,266095
3810,66.0,0.697962453001,266795
3820,66.0,0.699594376001,267500
3830,66.0,0.701241695001,268190
3840,66.0,0.702909114001,268882
3850,65.0,0.704603475001,269576
3860,66.0,0.706279019,270282
3870,65.0,0.70802085,270972
3880,66.0,0.709680571,271667
3890,65.0,0.711336443,272363
3900,65.0,0.712932015,273052
3910,65.0,0.714623383,273746
3920,65.0,0.716278399,274441
3930,65.0,0.717932988,275149
3940,65.0,0.71958886,275838
3950,65.0,0.721257561,276532
3960,65.0,0.722970738,277217
3970,66.0,0.724613781,277917
3980,66.0,0.72638854,278614
3990,64.0,0.728051682,279316
4000,64.0,0.729728936,280021
4010,64.0,0.731380104,280726
4020,64.0,0.733089433,281431
4030,65.0,0.734749154,282126
4040,66.0,0.736401178,282830
4050,66.0,0.738040372,283528
4060,66.0,0.739662887,284232
4070,66.0,0.741311489,284944
4080,66.0,0.74296565,285636
4090,67.0,0.744844329,286346
4100,67.0,0.746961211,287050
4110,67.0,0.748663269,287753
4120,67.0,0.75035207,288448
4130,68.0,0.752098604,289149
4140,67.0,0.753760891,289839
4150,67.0,0.755553184,290545
4160,67.0,0.75719195,291239
4170,68.0,0.758839269,291933
4180,68.0,0.76053534,292624
4190,68.0,0.76218608,293329
4200,68.0,0.763832971,294038
4210,69.0,0.765615000001,294730
4220,69.0,0.767238371001,295416
4230,69.0,0.768966088001,296126
4240,69.0,0.770612980001,296818
4250,68.0,0.772230363001,297515
4260,69.0,0.773986306001,298212
4270,69.0,0.775651587001,298898
4280,69.0,0.777301472001,299594
4290,69.0,0.778984286001,300282
4300,73.0,0.780901881001,300982
4310,69.0,0.782670225001,301682
4320,69.0,0.784474065001,302392
4330,69.0,0.786273201001,303096
4340,75.0,0.788022302001,303788
4350,77.0,0.789697846001,304495
4360,75.0,0.791376811001,305186
4370,69.0,0.793008735001,305890
4380,69.0,0.794686417001,306601
4390,69.0,0.796318340001,307294
4400,69.0,0.797980199001,307988
4410,69.0,0.799748972001,308695
4420,75.0,0.801460439001,309399
4430,72.0,0.803115884001,310106
4440,69.0,0.804756361001,310812
4450,69.0,0.806417365001,311527
4460,69.0,0.808118569001,312238
4470,69.0,0.809788553001,312958
4480,72.0,0.811445708001,313662
4490,69.0,0.81321448,314367
4500,69.0,0.814889169,315069
4510,72.0,0.816607906,315768
4520,72.0,0.818282595,316471
4530,72.0,0.820012451,317166
4540,72.0,0.821667896,317879
4550,72.0,0.825228962,318582
4560,72.0,0.826993458,319271
4570,72.0,0.828641205,319965
4580,72.0,0.830353955,320656
4590,72.0,0.832083811,321355
4600,72.0,0.833787153,322044
4610,72.0,0.83552043,322748
4620,72.0,0.837202389,323447
4630,76.0,0.838894184,324153
4640,73.0,0.840561603,324861
4650,72.0,0.842321395,325553
4660,72.0,0.844017466,326248
4670,73.0,0.845841833,326926
4680,75.0,0.847549023,327611
4690,75.0,0.849228844,328308
4700,76.0,0.850911229999,329010
4710,75.0,0.852623979999,329712
4720,80.0,0.854325610999,330416
4730,75.0,0.856093954999,331134
4740,75.0,0.857781473999,331823
4750,75.0,0.859596432999,332534
4760,75.0,0.861335268999,333232
4770,75.0,0.863012950999,333923
4780,80.0,0.864668394999,334627
4790,75.0,0.866299035999,335311
4800,81.0,0.868052413,336007
4810,75.0,0.869794242999,336700
4820,75.0,0.871526237,337398
4830,75.0,0.87329116,338107
4840,73.0,0.874971835,338818
4850,73.0,0.87662172,339520
4860,73.0,0.878286146,340217
4870,75.0,0.879954848,340936
4880,73.0,0.88166546,341627
4890,75.0,0.883475715,342328
4900,73.0,0.885254751,343015
4910,73.0,0.886973059999,343701
4920,73.0,0.888714463,344414
4930,73.0,0.890351946,345102
4940,74.0,0.892009528,345804
4950,75.0,0.893676091,346501
4960,73.0,0.895319989,347191
4970,74.0,0.896969446,347898
4980,73.0,0.898655254,348581
4990,73.0,0.900334647,349269
