it,funval,time,funcount
0,12.0,0.00170548000006,725
10,14.0,0.003338687,1352
20,14.0,0.00497745300027,1986
30,14.0,0.00662990399996,2628
40,16.0,0.00826610399963,3264
50,24.0,0.00987493499997,3890
60,27.0,0.0115115630001,4520
70,24.0,0.0131464800002,5154
80,24.0,0.0147762649999,5786
90,24.0,0.0164201629996,6422
100,27.0,0.0180995559995,7054
110,24.0,0.0197579939995,7684
120,24.0,0.0214331099996,8305
130,24.0,0.0231274709995,8928
140,24.0,0.0247315969991,9565
150,27.0,0.0264135559992,10193
160,23.0,0.0280386369991,10832
170,24.0,0.0296568759991,11461
180,32.0,0.0312528769991,12096
190,27.0,0.032931414999,12729
200,32.0,0.034612517999,13343
210,32.0,0.0362653959992,13972
220,32.0,0.0379486379993,14612
230,32.0,0.0395707259995,15253
240,36.0,0.0412030769999,15879
250,32.0,0.0428683569999,16506
260,32.0,0.0444921549997,17141
270,35.0,0.046155297,17771
280,36.0,0.0478111689999,18405
290,36.0,0.0495119449997,19030
300,36.0,0.0511934759998,19648
310,36.0,0.0528078659995,20281
320,36.0,0.0544355129996,20921
330,36.0,0.0561615199999,21548
340,36.0,0.0577724889999,22174
350,36.0,0.0594138209999,22808
360,38.0,0.0613797410001,23436
370,36.0,0.0630634109998,24068
380,38.0,0.0647564889996,24695
390,38.0,0.0665714479996,25325
400,38.0,0.0682315969993,25959
410,44.0,0.0699114179997,26585
420,44.0,0.0716348589995,27213
430,44.0,0.0733074099994,27850
440,44.0,0.0750128899995,28475
450,44.0,0.0795079489994,29105
460,44.0,0.0812536289995,29736
470,44.0,0.0829270349996,30350
480,44.0,0.0846226789995,30973
490,47.0,0.0862948019994,31603
500,47.0,0.0879498189993,32238
510,47.0,0.0897861599992,32867
520,44.0,0.0915951309989,33497
530,44.0,0.093363474999,34125
540,44.0,0.094997108999,34757
550,44.0,0.0966756469988,35385
560,44.0,0.0983601709991,36018
570,47.0,0.100199505999,36653
580,44.0,0.101846396999,37285
590,44.0,0.103554442999,37917
600,47.0,0.105340321999,38551
610,47.0,0.107097547999,39171
620,44.0,0.108754274999,39815
630,47.0,0.110685127999,40452
640,44.0,0.112491961999,41079
650,44.0,0.114244910999,41702
660,44.0,0.115906343,42335
670,44.0,0.117705051,42964
680,44.0,0.119419084,43596
690,47.0,0.121062127,44225
700,47.0,0.122764614,44847
710,47.0,0.124385846,45475
720,47.0,0.126093037,46101
730,50.0,0.127722394,46731
740,47.0,0.129720816,47364
750,47.0,0.131353595,47995
760,47.0,0.133052233,48619
770,47.0,0.134756429,49258
780,47.0,0.13643796,49880
790,47.0,0.138129327,50512
800,47.0,0.13978135,51136
810,50.0,0.141458177,51766
820,47.0,0.143082831,52393
830,47.0,0.14473742,53027
840,50.0,0.146467276,53664
850,48.0,0.148142392,54293
860,47.0,0.14989192,54931
870,47.0,0.151626907,55565
880,47.0,0.153340511999,56190
890,47.0,0.155004936999,56822
900,47.0,0.156940921999,57457
910,47.0,0.158630150999,58099
920,47.0,0.160310826999,58721
930,47.0,0.161976107999,59365
940,48.0,0.163646947999,60002
950,48.0,0.165369533999,60639
960,47.0,0.167055769999,61266
970,47.0,0.168680422998,61880
980,47.0,0.170411561998,62518
990,47.0,0.172075558998,63140
1000,47.0,0.173763077998,63767
1010,47.0,0.175467274998,64402
1020,48.0,0.177402404998,65032
1030,48.0,0.179117292997,65659
1040,48.0,0.180836457997,66285
1050,48.0,0.182511573998,66901
1060,48.0,0.184133661997,67547
1070,48.0,0.186589672997,68175
1080,48.0,0.188473911997,68819
1090,47.0,0.190110967997,69449
1100,47.0,0.191893852997,70067
1110,48.0,0.193565975997,70698
1120,47.0,0.195301818997,71315
1130,47.0,0.196986343997,71936
1140,47.0,0.198692678996,72562
1150,47.0,0.200334437996,73201
1160,50.0,0.202051464996,73831
1170,47.0,0.203805697996,74467
1180,47.0,0.205403835996,75107
1190,47.0,0.207363340996,75735
1200,47.0,0.209237743996,76363
1210,50.0,0.211490191996,77006
1220,47.0,0.213139648996,77639
1230,47.0,0.214846411996,78280
1240,47.0,0.216464222996,78899
1250,47.0,0.218122660996,79525
1260,47.0,0.219799059996,80159
1270,47.0,0.221416443997,80799
1280,47.0,0.223018003996,81427
1290,47.0,0.224647788996,82053
1300,47.0,0.226288265996,82674
1310,47.0,0.227931735996,83300
1320,47.0,0.229554678996,83931
1330,47.0,0.231201569996,84568
1340,47.0,0.232851881996,85201
1350,47.0,0.234581737996,85842
1360,50.0,0.236260702996,86472
1370,50.0,0.237956346996,87109
1380,50.0,0.239670806996,87737
1390,50.0,0.241372009996,88363
1400,50.0,0.243082193997,88988
1410,50.0,0.244841130997,89622
1420,50.0,0.246836130997,90257
1430,50.0,0.248434696996,90875
1440,50.0,0.250076455996,91502
1450,50.0,0.251849076997,92133
1460,50.0,0.253454485996,92773
1470,50.0,0.255121476996,93408
1480,50.0,0.256824390996,94050
1490,51.0,0.258485394997,94676
1500,51.0,0.260140839996,95303
1510,51.0,0.261835199997,95931
1520,51.0,0.263496202997,96578
1530,51.0,0.265159344996,97213
1540,51.0,0.266772023997,97848
1550,51.0,0.268525400997,98468
1560,52.0,0.270203938996,99111
1570,51.0,0.271874350996,99751
1580,51.0,0.273554598996,100384
1590,51.0,0.275216029996,101015
1600,51.0,0.276918088996,101649
1610,52.0,0.278788642996,102279
1620,51.0,0.280589489997,102920
1630,51.0,0.282246644997,103547
1640,52.0,0.283896101997,104185
1650,52.0,0.285594311996,104818
1660,51.0,0.287208701996,105446
1670,52.0,0.291371902996,106082
1680,51.0,0.292994417996,106710
1690,51.0,0.294773026996,107339
1700,51.0,0.296396397996,107971
1710,51.0,0.298007793996,108591
1720,52.0,0.299632446996,109221
1730,52.0,0.301260520996,109860
1740,51.0,0.302921951997,110481
1750,51.0,0.304592363997,111103
1760,51.0,0.306325213997,111724
1770,51.0,0.308492131997,112365
1780,51.0,0.310161260997,112982
1790,58.0,0.311773511997,113615
1800,52.0,0.313562384997,114251
1810,51.0,0.315494520997,114890
1820,51.0,0.317134569997,115528
1830,51.0,0.318726720997,116170
1840,51.0,0.320377032997,116792
1850,51.0,0.322073104997,117408
1860,51.0,0.323674664997,118048
1870,51.0,0.325347214997,118671
1880,51.0,0.326984697997,119296
1890,51.0,0.328631161997,119929
1900,51.0,0.330315686997,120551
1910,51.0,0.332158442997,121175
1920,51.0,0.333866060997,121815
1930,52.0,0.335614733997,122452
1940,52.0,0.337349294997,123086
1950,51.0,0.339579077997,123723
1960,51.0,0.341252055997,124335
1970,52.0,0.342941711997,124970
1980,51.0,0.344686535997,125587
1990,51.0,0.346433497997,126228
2000,53.0,0.348079105997,126853
2010,60.0,0.349721720997,127482
2020,51.0,0.351547797997,128111
2030,51.0,0.353232322997,128734
2040,51.0,0.354882207997,129369
2050,51.0,0.356515414996,130008
2060,51.0,0.358203360996,130641
2070,51.0,0.359886174997,131264
2080,51.0,0.361581390996,131896
2090,51.0,0.363315522996,132519
2100,51.0,0.365244237997,133152
2110,51.0,0.366909517997,133781
2120,51.0,0.368521341996,134415
2130,51.0,0.370220833996,135041
2140,52.0,0.371845486996,135675
2150,51.0,0.373455599996,136303
2160,51.0,0.375105912996,136928
2170,51.0,0.376742967996,137555
2180,51.0,0.378348804996,138188
2190,51.0,0.379971747996,138814
2200,51.0,0.381619066996,139444
2210,51.0,0.383262963996,140074
2220,51.0,0.384867089996,140708
2230,51.0,0.386468650996,141341
2240,51.0,0.388138207995,141981
2250,51.0,0.389799210996,142620
2260,51.0,0.391790362995,143251
2270,51.0,0.393411595995,143898
2280,51.0,0.395049078995,144536
2290,51.0,0.396675014995,145162
2300,51.0,0.398326182995,145800
2310,51.0,0.399913629995,146428
2320,51.0,0.401517328995,147058
2330,51.0,0.403165502996,147690
2340,51.0,0.404829071996,148323
2350,51.0,0.406493069996,148956
2360,52.0,0.408570179996,149590
2370,51.0,0.410204241996,150220
2380,51.0,0.411849849996,150855
2390,51.0,0.413513847996,151489
2400,51.0,0.415143633996,152115
2410,51.0,0.416799505996,152738
2420,51.0,0.418454950996,153353
2430,51.0,0.420113388996,153992
2440,51.0,0.421800479996,154609
2450,51.0,0.423472174996,155230
2460,51.0,0.425088274996,155877
2470,51.0,0.426715493996,156510
2480,51.0,0.428342284996,157137
2490,52.0,0.429984044996,157765
2500,52.0,0.431857164996,158401
2510,55.0,0.433499351996,159037
2520,52.0,0.435133413996,159676
2530,52.0,0.436858993995,160303
2540,59.0,0.438545656996,160940
2550,52.0,0.440287914996,161570
2560,52.0,0.441971584996,162198
2570,52.0,0.443631305996,162823
2580,52.0,0.445368004996,163464
2590,55.0,0.447020028996,164095
2600,55.0,0.448856797996,164712
2610,55.0,0.450592212996,165340
2620,55.0,0.452484576996,165974
2630,54.0,0.454255486995,166612
2640,52.0,0.455969518995,167240
2650,52.0,0.457615126995,167867
2660,55.0,0.459277413996,168506
2670,55.0,0.461271131996,169134
2680,55.0,0.463057010996,169768
2690,55.0,0.464833053996,170406
2700,55.0,0.466928552996,171038
2710,55.0,0.468668244996,171666
2720,55.0,0.470676074995,172284
2730,55.0,0.472317406995,172912
2740,55.0,0.474137924995,173542
2750,55.0,0.475788237995,174165
2760,55.0,0.477462498995,174794
2770,55.0,0.479079882995,175430
2780,56.0,0.481009024995,176053
2790,55.0,0.482645652995,176697
2800,55.0,0.484365244995,177311
2810,55.0,0.485982627995,177933
2820,55.0,0.487633367995,178565
2830,60.0,0.489598004995,179200
2840,56.0,0.491506191995,179832
2850,56.0,0.493139825996,180458
2860,59.0,0.494808955995,181092
2870,56.0,0.496444727995,181722
2880,56.0,0.498412785995,182353
2890,56.0,0.500072078995,182987
2900,55.0,0.501728805995,183627
2910,55.0,0.503365005995,184254
2920,55.0,0.505013606995,184885
2930,55.0,0.506633127995,185523
2940,55.0,0.508252221995,186157
2950,55.0,0.509869177996,186786
2960,56.0,0.511556267996,187416
2970,55.0,0.515564657996,188064
2980,55.0,0.517216253996,188702
2990,55.0,0.518861006996,189341
3000,55.0,0.520595994996,189960
3010,55.0,0.522441744996,190599
3020,55.0,0.524188706996,191240
3030,55.0,0.525845861996,191873
3040,56.0,0.527545354996,192518
3050,56.0,0.529240142996,193148
3060,55.0,0.530931937996,193781
3070,55.0,0.532591230996,194409
3080,55.0,0.534238977997,195037
3090,55.0,0.535918370997,195677
3100,55.0,0.537594769996,196317
3110,55.0,0.539229259996,196943
3120,55.0,0.540854767996,197574
3130,55.0,0.542490112996,198195
3140,55.0,0.544328591996,198816
3150,55.0,0.545999859996,199446
3160,55.0,0.547724156996,200072
3170,55.0,0.549490362996,200709
3180,55.0,0.551165051996,201332
3190,55.0,0.552838029996,201946
3200,55.0,0.554849708996,202584
3210,61.0,0.556564596995,203214
3220,62.0,0.558309420996,203842
3230,62.0,0.560053389996,204471
3240,62.0,0.561696431996,205115
3250,62.0,0.563343322995,205745
3260,62.0,0.565096699995,206381
3270,62.0,0.566817574995,207006
3280,62.0,0.568547430995,207640
3290,62.0,0.570261036995,208274
3300,62.0,0.571993885995,208897
3310,62.0,0.573642059995,209526
3320,61.0,0.575309905995,210166
3330,62.0,0.577281812995,210803
3340,61.0,0.579048873995,211431
3350,60.0,0.580746227995,212056
3360,60.0,0.582384565995,212702
3370,60.0,0.584388546995,213329
3380,61.0,0.586032443995,213980
3390,61.0,0.587784537995,214619
3400,60.0,0.589510972995,215253
3410,60.0,0.591302838995,215873
3420,60.0,0.593045951995,216508
3430,60.0,0.594718929995,217159
3440,61.0,0.596405165995,217794
3450,61.0,0.598112783995,218409
3460,60.0,0.599772504996,219037
3470,60.0,0.601452752996,219657
3480,61.0,0.603101354995,220277
3490,60.0,0.604891509995,220897
3500,60.0,0.606505898996,221525
3510,60.0,0.608318291996,222160
3520,60.0,0.610009658996,222795
3530,60.0,0.611672373996,223438
3540,60.0,0.613373577996,224060
3550,60.0,0.614990961996,224697
3560,60.0,0.616620746996,225324
3570,60.0,0.618296290996,225946
3580,60.0,0.619959004996,226587
3590,60.0,0.621604613996,227211
3600,60.0,0.623253643996,227853
3610,61.0,0.624974519996,228485
3620,61.0,0.626639799996,229112
3630,61.0,0.628628812996,229742
3640,61.0,0.630324883996,230379
3650,60.0,0.631993157996,231012
3660,60.0,0.633690084996,231636
3670,61.0,0.635341679996,232257
3680,62.0,0.636976596996,232888
3690,62.0,0.638629475995,233513
3700,63.0,0.640283209995,234130
3710,62.0,0.642012637995,234780
3720,62.0,0.643796377995,235406
3730,62.0,0.645489883996,236025
3740,63.0,0.647148321996,236658
3750,63.0,0.648841398996,237287
3760,62.0,0.650549443995,237907
3770,63.0,0.652432827995,238541
3780,62.0,0.654233673995,239173
3790,63.0,0.655877998995,239798
3800,63.0,0.657598873995,240432
3810,61.0,0.659350966995,241049
3820,62.0,0.661013252995,241685
3830,61.0,0.663256292996,242325
3840,61.0,0.665048586995,242951
3850,61.0,0.666903744995,243576
3860,62.0,0.668836308995,244205
3870,62.0,0.670490042995,244842
3880,61.0,0.672314837995,245488
3890,62.0,0.673966004995,246111
3900,62.0,0.675681320995,246751
3910,65.0,0.677422723995,247369
3920,62.0,0.679146592995,248002
3930,62.0,0.680952571995,248634
3940,62.0,0.682699105995,249274
3950,62.0,0.684336588994,249894
3960,62.0,0.686282836994,250515
3970,62.0,0.688096084994,251141
3980,62.0,0.690040622994,251777
3990,61.0,0.691802552994,252407
4000,61.0,0.693701759994,253039
4010,61.0,0.695833608994,253680
4020,61.0,0.698278500995,254319
4030,62.0,0.700670790995,254943
4040,62.0,0.702347617994,255578
4050,63.0,0.704291299994,256214
4060,63.0,0.706266200994,256851
4070,62.0,0.707976812994,257484
4080,61.0,0.709678870994,258118
4090,61.0,0.711349282994,258759
4100,61.0,0.713529028993,259395
4110,61.0,0.715243489994,260015
4120,61.0,0.716943409993,260651
4130,61.0,0.718599281993,261290
4140,61.0,0.720248311993,261911
4150,61.0,0.721912736993,262534
4160,61.0,0.723585715993,263156
4170,61.0,0.725213362993,263785
4180,61.0,0.726894038994,264409
4190,61.0,0.728604650993,265048
4200,61.0,0.730283615993,265670
4210,61.0,0.731999786994,266297
4220,61.0,0.733983668993,266928
4230,62.0,0.735579241993,267552
4240,62.0,0.737245377994,268174
4250,62.0,0.738853780993,268813
4260,61.0,0.740459189994,269448
4270,61.0,0.742079994994,270077
4280,62.0,0.744022394994,270711
4290,61.0,0.745699648994,271343
4300,61.0,0.747369204994,271980
4310,61.0,0.749016950994,272600
4320,62.0,0.750676671993,273246
4330,62.0,0.752625486994,273877
4340,63.0,0.754347217994,274506
4350,62.0,0.756147636994,275122
4360,61.0,0.760813757994,275740
4370,62.0,0.762635986994,276375
4380,61.0,0.764356862994,277004
4390,61.0,0.765968258994,277641
4400,62.0,0.768134748994,278263
4410,62.0,0.769800028994,278894
4420,62.0,0.771504225994,279538
4430,63.0,0.773106640994,280163
4440,63.0,0.774799717994,280791
4450,63.0,0.776492367994,281423
4460,62.0,0.778120442994,282063
4470,63.0,0.780261700995,282687
4480,63.0,0.782435887995,283323
4490,63.0,0.784187981995,283959
4500,63.0,0.786862094995,284587
4510,63.0,0.788531651995,285224
4520,63.0,0.790203774995,285856
4530,65.0,0.791871621995,286486
4540,63.0,0.793574535995,287112
4550,67.0,0.795238533995,287764
4560,63.0,0.796852495995,288405
4570,63.0,0.798473300995,289052
4580,62.0,0.800132165995,289684
4590,63.0,0.801782050995,290321
4600,69.0,0.803453745995,290953
4610,62.0,0.805116460995,291586
4620,63.0,0.806779175995,292212
4630,62.0,0.808509031995,292845
4640,62.0,0.810161909995,293487
4650,63.0,0.811829755995,294119
4660,62.0,0.814187406996,294761
4670,62.0,0.815844989996,295385
4680,62.0,0.817509414996,296008
4690,62.0,0.819225585995,296643
4700,67.0,0.820881885996,297278
4710,63.0,0.822546310996,297906
4720,63.0,0.824164121996,298534
4730,63.0,0.825778083995,299171
4740,63.0,0.827393328995,299807
4750,63.0,0.829061175995,300434
4760,63.0,0.830699941995,301060
4770,63.0,0.832367360995,301695
4780,63.0,0.833994152995,302319
4790,63.0,0.835706474995,302950
4800,63.0,0.837371326995,303584
4810,63.0,0.839040028995,304220
4820,63.0,0.841131251995,304862
4830,62.0,0.842959895995,305491
4840,62.0,0.844604220995,306119
4850,62.0,0.846248117995,306761
4860,62.0,0.847926655995,307401
4870,62.0,0.849578678995,308033
4880,62.0,0.851297415995,308662
4890,62.0,0.852953287995,309287
4900,62.0,0.854734889996,309924
4910,62.0,0.856384346996,310560
4920,62.0,0.858026533996,311204
4930,62.0,0.859633653995,311845
4940,62.0,0.861778332996,312463
4950,62.0,0.863864423996,313107
4960,62.0,0.865789717996,313739
4970,63.0,0.867852715996,314364
4980,62.0,0.869784423996,314991
4990,62.0,0.871452269996,315623
