it,funval,time,funcount
0,7.0,0.000592298999891,287
10,6.0,0.00119272399979,473
20,6.0,0.00185430299962,660
30,7.0,0.00246841199942,854
40,6.0,0.00314410299916,1045
50,7.0,0.0037659099994,1233
60,7.0,0.00440909999952,1420
70,7.0,0.00502235399927,1610
80,7.0,0.00567452499945,1798
90,7.0,0.00630659599938,1981
100,7.0,0.00693909399979,2166
110,7.0,0.0075540580001,2360
120,7.0,0.00818997800025,2542
130,7.0,0.00883402300042,2735
140,9.0,0.0097564710004,2919
150,9.0,0.0103949570007,3106
160,9.0,0.0110394300004,3290
170,9.0,0.0116565340004,3483
180,9.0,0.0122813350004,3672
190,9.0,0.0129518940003,3854
200,9.0,0.0136468300002,4042
210,9.0,0.0142908759999,4230
220,9.0,0.0149165319999,4420
230,9.0,0.0155644269998,4607
240,9.0,0.0163128199997,4797
250,9.0,0.0170154539996,4977
260,9.0,0.0176560779996,5165
270,10.0,0.0183099589999,5351
280,9.0,0.0189788079997,5541
290,9.0,0.0195941999996,5732
300,9.0,0.0202061719992,5918
310,10.0,0.0207916289992,6103
320,9.0,0.0214455109995,6292
330,9.0,0.0220510669997,6481
340,9.0,0.0226857039997,6671
350,9.0,0.0232886949998,6856
360,9.0,0.0239267529996,7045
370,9.0,0.0245643839999,7235
380,9.0,0.0251887569998,7418
390,9.0,0.0258127019997,7605
400,9.0,0.0264452009997,7795
410,9.0,0.0270580279998,7985
420,10.0,0.0276631569996,8169
430,10.0,0.0282853919998,8355
440,10.0,0.0288806849999,8543
450,10.0,0.0294909459999,8731
460,11.0,0.03010249,8923
470,11.0,0.0307619310001,9108
480,11.0,0.0314059760003,9293
490,11.0,0.0320290660006,9482
500,11.0,0.0326970600004,9666
510,11.0,0.0333137350003,9852
520,11.0,0.0339321210004,10038
530,11.0,0.0345299800001,10220
540,11.0,0.0351513599999,10410
550,11.0,0.0358715279999,10594
560,11.0,0.0364796500003,10783
570,11.0,0.0371664610002,10970
580,11.0,0.0378412970003,11159
590,11.0,0.0385101460001,11351
600,11.0,0.0391717250004,11537
610,11.0,0.0399872590001,11724
620,11.0,0.0408421369998,11909
630,11.0,0.0414476929996,12099
640,11.0,0.0420446969997,12288
650,11.0,0.0427233819996,12471
660,11.0,0.0433233789995,12659
670,11.0,0.0439417649995,12848
680,11.0,0.0445892309999,13037
690,11.0,0.0452217299999,13227
700,11.0,0.045896994,13409
710,11.0,0.0465513029999,13596
720,11.0,0.0472090329999,13782
730,11.0,0.0478599210001,13972
740,12.0,0.0484877159997,14155
750,13.0,0.0491672559997,14340
760,13.0,0.0498574879998,14525
770,13.0,0.0504715969996,14714
780,13.0,0.0511673879996,14898
790,13.0,0.0518281119998,15081
800,13.0,0.0524943949995,15265
810,13.0,0.0531953179998,15458
820,13.0,0.0538692989999,15636
830,14.0,0.0545629519997,15818
840,14.0,0.0552660130002,16006
850,14.0,0.055912624,16190
860,14.0,0.0565742030003,16375
870,14.0,0.0572041350006,16557
880,14.0,0.0578614380006,16741
890,14.0,0.0585508150007,16927
900,14.0,0.0592017030008,17112
910,14.0,0.0598684140009,17296
920,14.0,0.0604893660011,17481
930,14.0,0.0611488070012,17666
940,14.0,0.0618193660011,17852
950,14.0,0.0624745300015,18039
960,14.0,0.0631733150017,18222
970,14.0,0.0638165050018,18408
980,17.0,0.0644797950017,18594
990,20.0,0.0651229850018,18781
1000,20.0,0.0657477860018,18964
1010,20.0,0.0664529860019,19150
1020,20.0,0.0671004520018,19334
1030,20.0,0.0677889730018,19514
1040,21.0,0.0714556690018,19704
1050,20.0,0.0721108330017,19895
1060,20.0,0.0727642860015,20087
1070,20.0,0.0733754020016,20270
1080,20.0,0.0740168810012,20460
1090,20.0,0.0746716170015,20651
1100,20.0,0.0753853700016,20838
1110,20.0,0.0760341200016,21026
1120,20.0,0.0767311940017,21214
1130,20.0,0.077462908002,21403
1140,20.0,0.0781142230016,21593
1150,20.0,0.0788369570018,21780
1160,20.0,0.0794921210017,21968
1170,20.0,0.0801494230018,22152
1180,20.0,0.0808199830017,22339
1190,20.0,0.0815038000014,22527
1200,20.0,0.0821636690016,22712
1210,20.0,0.0828419270015,22896
1220,20.0,0.0835193290018,23082
1230,20.0,0.0841514000017,23267
1240,20.0,0.0848095580018,23453
1250,20.0,0.0854805450017,23640
1260,20.0,0.086181469002,23832
1270,20.0,0.0868216660019,24013
1280,21.0,0.087479824002,24203
1290,21.0,0.0881469630021,24386
1300,21.0,0.0888226550019,24573
1310,21.0,0.0894619960018,24761
1320,20.0,0.0902497320021,24947
1330,20.0,0.0909096010018,25129
1340,20.0,0.0915929900016,25316
1350,20.0,0.0922588460016,25502
1360,20.0,0.0929897050014,25693
1370,21.0,0.0935914130014,25880
1380,20.0,0.0942063780012,26067
1390,20.0,0.094898748001,26251
1400,20.0,0.0955226940009,26433
1410,20.0,0.096133810001,26620
1420,20.0,0.0967564720013,26803
1430,20.0,0.0974116370012,26994
1440,20.0,0.0980616700012,27174
1450,20.0,0.0986706480012,27363
1460,21.0,0.0992988700013,27553
1470,21.0,0.0999476190013,27740
1480,21.0,0.100570709001,27923
1490,21.0,0.101227584001,28114
1500,21.0,0.101916533001,28301
1510,21.0,0.102572553001,28490
1520,21.0,0.103181103002,28679
1530,21.0,0.103823865002,28873
1540,21.0,0.104448666002,29065
1550,21.0,0.105095277002,29252
1560,21.0,0.105724355001,29442
1570,21.0,0.106443667001,29629
1580,21.0,0.107069323001,29822
1590,21.0,0.107722777002,30002
1600,21.0,0.108380507002,30188
1610,21.0,0.109004025001,30371
1620,21.0,0.109684848002,30560
1630,21.0,0.110347282001,30743
1640,22.0,0.110952411001,30927
1650,21.0,0.111563527001,31110
1660,21.0,0.112203724001,31297
1670,21.0,0.112802438001,31487
1680,21.0,0.113397303001,31677
1690,21.0,0.114019966001,31864
1700,21.0,0.114642629002,32046
1710,22.0,0.115257593002,32229
1720,21.0,0.115878973002,32415
1730,21.0,0.116512754002,32603
1740,21.0,0.117141404002,32786
1750,21.0,0.117783738002,32974
1760,21.0,0.118450449002,33161
1770,21.0,0.119073540002,33346
1780,21.0,0.119747521002,33533
1790,21.0,0.120395415002,33718
1800,21.0,0.121079232003,33908
1810,21.0,0.121705743003,34099
1820,21.0,0.122365611003,34285
1830,21.0,0.123015216003,34471
1840,21.0,0.123678934003,34656
1850,21.0,0.124343507003,34846
1860,22.0,0.124995678003,35028
1870,21.0,0.125675219002,35217
1880,21.0,0.126311566003,35407
1890,22.0,0.126985120003,35596
1900,22.0,0.127589394002,35789
1910,21.0,0.128186397003,35975
1920,21.0,0.128803500003,36158
1930,21.0,0.129418892003,36343
1940,21.0,0.130062082003,36529
1950,21.0,0.130676191003,36719
1960,21.0,0.131315960003,36906
1970,21.0,0.131988230003,37091
1980,21.0,0.132643822003,37274
1990,21.0,0.133295137003,37461
2000,21.0,0.133951156003,37651
2010,21.0,0.134591352003,37834
2020,21.0,0.135234970002,38021
2030,21.0,0.135880298003,38202
2040,21.0,0.136664614003,38390
2050,22.0,0.137341588003,38582
2060,21.0,0.137980074003,38773
2070,21.0,0.138604020003,38961
2080,21.0,0.139234381003,39146
2090,21.0,0.139943002002,39337
2100,21.0,0.140566948002,39526
2110,22.0,0.141180630003,39711
2120,21.0,0.141801154003,39897
2130,21.0,0.142426810003,40091
2140,21.0,0.143037070003,40275
2150,22.0,0.143731579003,40459
2160,21.0,0.144380329003,40647
2170,21.0,0.144995293002,40832
2180,21.0,0.145673123003,41019
2190,21.0,0.146283811003,41210
2200,22.0,0.146952232003,41400
2210,21.0,0.147586869003,41594
2220,21.0,0.148224072002,41782
2230,21.0,0.148853577002,41965
2240,21.0,0.149481799002,42152
2250,21.0,0.150106600002,42338
2260,21.0,0.150723275002,42524
2270,21.0,0.151428047002,42714
2280,21.0,0.152064394003,42895
2290,21.0,0.152681925003,43088
2300,21.0,0.153299884003,43280
2310,21.0,0.153935376002,43468
2320,21.0,0.154555473002,43661
2330,21.0,0.155188399002,43853
2340,21.0,0.155826029002,44040
2350,21.0,0.156447409002,44232
2360,21.0,0.157060236002,44419
2370,21.0,0.157672635002,44603
2380,21.0,0.158286744002,44783
2390,21.0,0.159098429002,44967
2400,21.0,0.159726223002,45156
2410,21.0,0.160389940002,45341
2420,21.0,0.160980957002,45534
2430,21.0,0.161630990001,45729
2440,21.0,0.162260923001,45914
2450,21.0,0.163185936001,46100
2460,21.0,0.164265332001,46288
2470,21.0,0.168250629001,46475
2480,21.0,0.168905793002,46665
2490,21.0,0.169521185001,46853
2500,21.0,0.170137861002,47038
2510,21.0,0.170729305002,47227
2520,21.0,0.171326309002,47417
2530,21.0,0.171978480002,47609
2540,21.0,0.172666146002,47792
2550,21.0,0.173326442002,47975
2560,21.0,0.173979041002,48160
2570,21.0,0.174762929002,48351
2580,21.0,0.175394145002,48541
2590,21.0,0.176026644002,48724
2600,21.0,0.176634339002,48912
2610,21.0,0.177296773002,49092
2620,21.0,0.177948944002,49276
2630,21.0,0.178567330001,49463
2640,21.0,0.179177591001,49645
2650,22.0,0.179787424001,49836
2660,22.0,0.180443016001,50024
2670,25.0,0.181114431001,50212
2680,22.0,0.181780714001,50404
2690,25.0,0.182441437001,50588
2700,25.0,0.183104727001,50780
2710,25.0,0.183751338001,50967
2720,25.0,0.184403081002,51155
2730,25.0,0.185056535001,51339
2740,25.0,0.185676204001,51522
2750,25.0,0.186341204001,51716
2760,25.0,0.186939491001,51904
2770,25.0,0.187528369001,52087
2780,25.0,0.188122807001,52273
2790,25.0,0.188739482001,52456
2800,25.0,0.189354020001,52644
2810,25.0,0.190013033001,52827
2820,25.0,0.190627143001,53013
2830,26.0,0.191254509001,53195
2840,26.0,0.191877600001,53379
2850,25.0,0.192519079001,53566
2860,25.0,0.193158848001,53752
2870,25.0,0.193784504001,53945
2880,25.0,0.194440951001,54130
2890,25.0,0.195072166001,54315
2900,25.0,0.195715356001,54505
2910,25.0,0.196344861,54689
2920,25.0,0.196995321,54874
2930,25.0,0.197591042,55066
2940,25.0,0.198239791,55255
2950,25.0,0.198884690999,55442
2960,25.0,0.199543704,55633
2970,25.0,0.200154392999,55821
2980,25.0,0.200792878999,56009
2990,25.0,0.201420245999,56192
3000,25.0,0.202147255999,56380
3010,25.0,0.202804557999,56572
3020,26.0,0.203434062999,56762
3030,26.0,0.204088799999,56952
3040,26.0,0.204713600999,57137
3050,26.0,0.205349519999,57324
3060,26.0,0.205968333999,57507
3070,26.0,0.206582871,57697
3080,26.0,0.207171321,57883
3090,26.0,0.207812373,58071
3100,26.0,0.208470959,58257
3110,26.0,0.209133821,58440
3120,26.0,0.209801814,58624
3130,26.0,0.210457833,58815
3140,26.0,0.211135235,58999
3150,26.0,0.211777569,59184
3160,26.0,0.212440431,59366
3170,26.0,0.213081056,59559
3180,26.0,0.213695165,59751
3190,26.0,0.214350329999,59939
3200,26.0,0.215005494999,60123
3210,26.0,0.215661086999,60307
3220,26.0,0.216274768999,60493
3230,27.0,0.216898286999,60677
3240,27.0,0.217556017999,60867
3250,27.0,0.218211609999,61056
3260,27.0,0.218851805999,61246
3270,27.0,0.219860638999,61433
3280,27.0,0.220497413999,61619
3290,27.0,0.221121359999,61805
3300,27.0,0.221731620999,61997
3310,27.0,0.222349151999,62183
3320,27.0,0.222969675999,62366
3330,27.0,0.223602601999,62553
3340,27.0,0.224230395998,62739
3350,27.0,0.224902238998,62927
3360,27.0,0.225535164998,63112
3370,27.0,0.226192894998,63298
3380,27.0,0.226990467998,63482
3390,27.0,0.227594313998,63665
3400,27.0,0.228206712998,63852
3410,27.0,0.228832368998,64041
3420,27.0,0.229489243998,64231
3430,27.0,0.230132861998,64421
3440,30.0,0.230758090998,64607
3450,31.0,0.231387167998,64796
3460,36.0,0.232020948998,64981
3470,40.0,0.232646604998,65168
3480,40.0,0.233257292998,65354
3490,40.0,0.233918443997,65541
3500,40.0,0.234583016997,65728
3510,40.0,0.235236897998,65918
3520,45.0,0.235914727998,66108
3530,45.0,0.236576734998,66298
3540,45.0,0.237198114998,66491
3550,40.0,0.237857554998,66677
3560,40.0,0.238836879998,66866
3570,40.0,0.239512999998,67051
3580,40.0,0.240169019998,67233
3590,40.0,0.240843856998,67420
3600,40.0,0.241463953998,67608
3610,40.0,0.242120400998,67791
3620,40.0,0.242787966998,67980
3630,40.0,0.243448262998,68171
3640,45.0,0.244241558998,68357
3650,40.0,0.244919388998,68549
3660,45.0,0.245553169998,68738
3670,40.0,0.246289160998,68929
3680,45.0,0.246969555998,69119
3690,45.0,0.247591363998,69309
3700,45.0,0.248237974999,69495
3710,45.0,0.249553007999,69677
3720,45.0,0.250197907998,69865
3730,45.0,0.250915936998,70050
3740,45.0,0.251540310998,70241
3750,45.0,0.252292979998,70428
3760,45.0,0.252973375998,70620
3770,45.0,0.253665318998,70805
3780,45.0,0.254330746998,70987
3790,45.0,0.255024826998,71178
3800,46.0,0.255656041998,71364
3810,45.0,0.256329166998,71551
3820,45.0,0.256987324998,71735
3830,45.0,0.257622388998,71920
3840,45.0,0.258272421998,72110
3850,45.0,0.258898077998,72294
3860,45.0,0.259535280998,72488
3870,45.0,0.260170345998,72677
3880,45.0,0.260834062998,72869
3890,45.0,0.261646602998,73058
3900,45.0,0.262741393998,73238
3910,46.0,0.263773320999,73432
3920,46.0,0.264824064999,73617
3930,46.0,0.268143078998,73803
3940,46.0,0.268759326998,73987
3950,46.0,0.269399950998,74175
3960,46.0,0.270017908998,74366
3970,46.0,0.270626458998,74560
3980,45.0,0.271242278998,74749
3990,45.0,0.271902574998,74934
4000,45.0,0.272519250998,75121
4010,45.0,0.273123096998,75310
4020,45.0,0.273743621998,75497
4030,45.0,0.274366711998,75689
4040,45.0,0.274995361998,75875
4050,45.0,0.275632564998,76061
4060,45.0,0.276269339998,76252
4070,45.0,0.277128922998,76442
4080,45.0,0.277766125998,76628
4090,46.0,0.278397769998,76815
4100,45.0,0.279026419998,77002
4110,45.0,0.279657634997,77188
4120,45.0,0.280293127997,77373
4130,45.0,0.280928619997,77562
4140,45.0,0.281624410997,77745
4150,45.0,0.282277008997,77923
4160,45.0,0.282943718997,78109
4170,45.0,0.283568946997,78305
4180,45.0,0.284227104996,78492
4190,45.0,0.284830094996,78675
4200,45.0,0.285426242996,78860
4210,45.0,0.286250329996,79048
4220,45.0,0.286890098996,79234
4230,45.0,0.287535427996,79424
4240,45.0,0.288165360996,79611
4250,46.0,0.288857303996,79800
4260,45.0,0.289480821996,79982
4270,46.0,0.290121873997,80170
4280,45.0,0.290745818997,80357
4290,45.0,0.291366342997,80543
4300,45.0,0.292061706997,80717
4310,45.0,0.292684368997,80906
4320,45.0,0.293312590997,81090
4330,45.0,0.293937819997,81278
4340,45.0,0.294551928997,81459
4350,45.0,0.295225054997,81646
4360,45.0,0.295851993997,81839
4370,45.0,0.296471662997,82020
4380,45.0,0.297090476997,82205
4390,45.0,0.297762318997,82393
4400,45.0,0.298395672997,82584
4410,45.0,0.299041000997,82769
4420,45.0,0.299691888998,82961
4430,45.0,0.300313695998,83147
4440,45.0,0.300944483998,83336
4450,45.0,0.301578264998,83525
4460,45.0,0.302232145998,83715
4470,45.0,0.302874052998,83901
4480,45.0,0.303535203998,84084
4490,45.0,0.304192933998,84269
4500,46.0,0.304870762998,84451
4510,45.0,0.305493424998,84642
4520,45.0,0.306136186998,84831
4530,45.0,0.306802042998,85017
4540,45.0,0.307420001998,85207
4550,45.0,0.308030689998,85392
4560,45.0,0.308692268998,85573
4570,45.0,0.309351281998,85756
4580,45.0,0.309955126998,85943
4590,45.0,0.310593612999,86130
4600,45.0,0.311249204999,86321
4610,45.0,0.311865025998,86505
4620,45.0,0.312489399998,86699
4630,45.0,0.313207428998,86881
4640,45.0,0.313841209998,87069
4650,45.0,0.314503215998,87254
4660,45.0,0.315129726998,87440
4670,45.0,0.315812260998,87624
4680,45.0,0.316440054998,87814
4690,45.0,0.317071697998,88008
4700,45.0,0.317704196998,88197
4710,45.0,0.318375611998,88387
4720,45.0,0.318991859998,88581
4730,45.0,0.319607680998,88770
4740,45.0,0.320229059997,88954
4750,45.0,0.320877809997,89140
4760,45.0,0.321578732997,89327
4770,45.0,0.322229192997,89508
4780,45.0,0.322863829997,89697
4790,45.0,0.323621203997,89886
4800,45.0,0.324332818997,90075
4810,45.0,0.325011075997,90254
4820,45.0,0.325635448997,90442
4830,45.0,0.326248274996,90636
4840,45.0,0.326920972997,90819
4850,45.0,0.327573570996,91007
4860,45.0,0.328253539996,91200
4870,45.0,0.328919822996,91388
4880,45.0,0.329568144996,91568
4890,45.0,0.330183109997,91750
4900,45.0,0.330844260996,91943
4910,45.0,0.331466067997,92130
4920,46.0,0.332109257997,92321
4930,45.0,0.332761856997,92506
4940,45.0,0.333385802997,92692
4950,46.0,0.334013168997,92879
4960,45.0,0.334659352997,93069
4970,45.0,0.335341886997,93257
4980,45.0,0.336080443997,93445
4990,45.0,0.336715080997,93636
