it,funval,time,funcount
0,14.0,0.000658584999883,591
10,13.0,0.00127697099992,1082
20,13.0,0.00189108099994,1571
30,13.0,0.00251160599987,2044
40,14.0,0.00312785399979,2527
50,14.0,0.00374067999974,3024
60,14.0,0.00435992199982,3507
70,14.0,0.00497916299969,3990
80,14.0,0.0055812979997,4463
90,14.0,0.00622619899968,4954
100,14.0,0.00693054299973,5446
110,15.0,0.00758570699986,5921
120,15.0,0.00826139799983,6411
130,15.0,0.00888149499997,6894
140,15.0,0.00950672299996,7388
150,15.0,0.01014136,7867
160,14.0,0.010796952,8349
170,14.0,0.0114687949999,8837
180,15.0,0.0121500459998,9319
190,19.0,0.0128103419997,9809
200,19.0,0.0134458339996,10284
210,19.0,0.0141099789996,10767
220,22.0,0.0147989279994,11257
230,23.0,0.0154459669996,11744
240,22.0,0.0160827429997,12225
250,22.0,0.0167135309996,12714
260,22.0,0.0173601419997,13181
270,23.0,0.0179879369996,13664
280,23.0,0.0186281329995,14143
290,23.0,0.0192687569997,14619
300,27.0,0.0199247769997,15109
310,27.0,0.0205709609997,15591
320,27.0,0.0212261249997,16076
330,27.0,0.0220369549995,16571
340,29.0,0.0226827109996,17059
350,29.0,0.0233053739994,17550
360,29.0,0.0239583989994,18034
370,29.0,0.0246473469995,18515
380,30.0,0.0252952409994,19001
390,30.0,0.0260966619994,19500
400,30.0,0.0267338649994,19982
410,30.0,0.0273757719995,20466
420,30.0,0.0280061319995,20938
430,29.0,0.0286377759994,21416
440,30.0,0.0292702739994,21899
450,30.0,0.0299066209993,22379
460,30.0,0.0305703379995,22858
470,29.0,0.0312960649994,23344
480,29.0,0.0319478079996,23812
490,29.0,0.0326461659995,24300
500,30.0,0.0332961979996,24791
510,30.0,0.0340103779997,25284
520,30.0,0.0346659699999,25761
530,30.0,0.0353023179998,26229
540,29.0,0.0359472189998,26720
550,32.0,0.0366438659998,27222
560,32.0,0.0372759369998,27695
570,32.0,0.0379272519999,28185
580,32.0,0.038714561,28669
590,38.0,0.0394124909999,29167
600,38.0,0.0400954520001,29654
610,38.0,0.0407305169999,30129
620,38.0,0.0414139070001,30616
630,38.0,0.0420947310001,31092
640,38.0,0.0427486120002,31578
650,39.0,0.0433943680002,32044
660,38.0,0.0440461110004,32532
670,38.0,0.0447025590004,33003
680,39.0,0.0453367680002,33489
690,39.0,0.0459756820003,33976
700,39.0,0.0466714730003,34463
710,39.0,0.0472890040003,34940
720,39.0,0.0479270620001,35419
730,39.0,0.0485540010002,35905
740,38.0,0.049200613,36389
750,38.0,0.049872884,36871
760,38.0,0.0505661099999,37362
770,38.0,0.0512105829998,37855
780,38.0,0.0518366669999,38340
790,38.0,0.0524790019999,38819
800,38.0,0.0531846289998,39291
810,39.0,0.0538291019998,39775
820,39.0,0.0544650219997,40245
830,39.0,0.0550992309995,40721
840,39.0,0.0557368619995,41193
850,39.0,0.0563569589997,41671
860,42.0,0.0569830429997,42169
870,42.0,0.0576116929999,42642
880,42.0,0.0582446189999,43132
890,42.0,0.059023802,43621
900,40.0,0.0596781109998,44106
910,40.0,0.0603127479999,44596
920,40.0,0.060932845,45087
930,40.0,0.06156235,45570
940,40.0,0.0621824469999,46062
950,42.0,0.0628893569999,46523
960,42.0,0.0635188619999,47008
970,42.0,0.0641633349999,47490
980,43.0,0.0647800109998,47992
990,42.0,0.0654103709999,48466
1000,42.0,0.0660685289997,48962
1010,42.0,0.0667236929999,49448
1020,42.0,0.0673720149998,49940
1030,42.0,0.0681507699996,50440
1040,43.0,0.0687832679996,50924
1050,42.0,0.0694170489996,51407
1060,42.0,0.0700636599997,51883
1070,43.0,0.0706987249996,52376
1080,44.0,0.0713119789998,52862
1090,43.0,0.0719645769998,53345
1100,45.0,0.0725979309998,53844
1110,45.0,0.0732235869998,54329
1120,45.0,0.0738616449999,54833
1130,45.0,0.0745364809998,55305
1140,49.0,0.0751976319998,55784
1150,49.0,0.0758399669999,56280
1160,45.0,0.0765165139999,56775
1170,46.0,0.077155855,57265
1180,45.0,0.0777981889999,57745
1190,46.0,0.0784251289999,58224
1200,46.0,0.079062759,58717
1210,46.0,0.079707659,59203
1220,45.0,0.0803435789999,59686
1230,45.0,0.080990618,60170
1240,45.0,0.081647065,60657
1250,46.0,0.0822731489998,61142
1260,49.0,0.0828996609998,61632
1270,46.0,0.0835351539999,62132
1280,49.0,0.084184758,62621
1290,49.0,0.0848484750002,63107
1300,49.0,0.0854942310002,63591
1310,51.0,0.0861331450001,64075
1320,49.0,0.086788737,64571
1330,50.0,0.0874306439998,65059
1340,51.0,0.0880712679998,65538
1350,51.0,0.0887341299997,66020
1360,51.0,0.0893696219998,66495
1370,51.0,0.0900111019998,66975
1380,51.0,0.0906962019999,67461
1390,49.0,0.0913624849998,67935
1400,49.0,0.0920031089997,68425
1410,49.0,0.0926719579998,68902
1420,51.0,0.0933416629998,69387
1430,49.0,0.0939861359998,69863
1440,51.0,0.0946284709996,70342
1450,49.0,0.0952596859995,70817
1460,49.0,0.0959144229994,71304
1470,49.0,0.0965747189996,71786
1480,51.0,0.0972106379995,72264
1490,51.0,0.0978388599995,72742
1500,51.0,0.0984773459995,73227
1510,51.0,0.0991124099994,73711
1520,51.0,0.0998099119993,74212
1530,51.0,0.100474911999,74690
1540,51.0,0.101102278999,75172
1550,51.0,0.101742047999,75651
1560,51.0,0.102413462999,76127
1570,52.0,0.103051948999,76614
1580,56.0,0.103674611999,77095
1590,56.0,0.104294280999,77574
1600,56.0,0.104917370999,78068
1610,56.0,0.105561843999,78557
1620,56.0,0.106386358999,79039
1630,56.0,0.107015863999,79527
1640,56.0,0.107668033999,80014
1650,56.0,0.108327046999,80491
1660,56.0,0.108971091999,80968
1670,59.0,0.109607438999,81458
1680,59.0,0.110246779999,81947
1690,59.0,0.110918194999,82442
1700,56.0,0.111566089999,82922
1710,56.0,0.112196022999,83411
1720,59.0,0.112834508999,83892
1730,59.0,0.113482829999,84377
1740,59.0,0.114139276999,84871
1750,56.0,0.114820527999,85347
1760,56.0,0.115470987999,85835
1770,58.0,0.116109473999,86309
1780,56.0,0.116736839999,86787
1790,56.0,0.117365061999,87256
1800,59.0,0.118019370999,87725
1810,59.0,0.118719438999,88206
1820,56.0,0.119364338999,88682
1830,59.0,0.119988711999,89158
1840,59.0,0.120619072999,89647
1850,59.0,0.121254137999,90139
1860,59.0,0.121894761999,90603
1870,61.0,0.122524693999,91079
1880,59.0,0.123170876999,91554
1890,59.0,0.123826468999,92032
1900,59.0,0.124505580999,92505
1910,59.0,0.125156895999,92983
1920,59.0,0.125818902999,93461
1930,59.0,0.126461664999,93949
1940,59.0,0.127085610999,94411
1950,59.0,0.127710411999,94902
1960,61.0,0.128354029999,95396
1970,61.0,0.128990377999,95895
1980,63.0,0.129640837999,96371
1990,59.0,0.130284027999,96858
2000,61.0,0.130935343999,97337
2010,60.0,0.131566131999,97832
2020,59.0,0.132246099999,98314
2030,61.0,0.132889716999,98800
2040,61.0,0.133534616999,99291
2050,61.0,0.134177806999,99767
2060,61.0,0.134832543999,100257
2070,61.0,0.135472741,100752
2080,61.0,0.136121491,101225
2090,61.0,0.136748002,101716
2100,61.0,0.13738435,102210
2110,61.0,0.13800744,102696
2120,61.0,0.138642932,103178
2130,61.0,0.139334019,103661
2140,61.0,0.140053332,104145
2150,61.0,0.140758958999,104631
2160,61.0,0.141446624999,105118
2170,61.0,0.142132152999,105604
2180,62.0,0.142844623,106097
2190,61.0,0.143629365999,106568
2200,61.0,0.144338842,107046
2210,60.0,0.145056871999,107528
2220,59.0,0.145825364999,108014
2230,59.0,0.146556650999,108486
2240,59.0,0.147355078999,108977
2250,59.0,0.148087648999,109456
2260,62.0,0.148788999999,109934
2270,62.0,0.149490778999,110409
2280,59.0,0.150214367999,110896
2290,59.0,0.150907165999,111371
2300,59.0,0.151605522999,111850
2310,59.0,0.152320130999,112327
2320,59.0,0.153029607,112814
2330,59.0,0.153733523,113289
2340,62.0,0.15445198,113772
2350,63.0,0.155199943999,114258
2360,64.0,0.155923104999,114730
2370,64.0,0.156637713,115208
2380,64.0,0.157338636,115688
2390,64.0,0.158049823,116173
2400,64.0,0.158831144,116655
2410,64.0,0.159636842,117159
2420,64.0,0.160375826,117638
2430,64.0,0.161086157,118117
2440,64.0,0.161812311,118605
2450,64.0,0.162534616,119100
2460,65.0,0.163259487,119570
2470,64.0,0.163977943999,120045
2480,64.0,0.164743442999,120547
2490,64.0,0.165479434,121019
2500,65.0,0.166276578999,121510
2510,65.0,0.167009575999,122005
2520,65.0,0.167707504999,122491
2530,64.0,0.168435797999,122970
2540,66.0,0.169139286999,123440
2550,66.0,0.169853038999,123919
2560,65.0,0.170554817999,124408
2570,66.0,0.171258734999,124884
2580,66.0,0.172137133999,125371
2590,66.0,0.172854734999,125854
2600,65.0,0.173642899999,126337
2610,65.0,0.174348099999,126817
2620,69.0,0.175044745999,127289
2630,68.0,0.180898030999,127769
2640,68.0,0.181530956999,128266
2650,67.0,0.182188686999,128747
2660,65.0,0.182823750999,129236
2670,64.0,0.183497303999,129713
2680,64.0,0.184149046999,130186
2690,64.0,0.184859805999,130673
2700,64.0,0.185524377999,131167
2710,65.0,0.186182107999,131662
2720,65.0,0.186838982999,132135
2730,65.0,0.187490725999,132623
2740,65.0,0.188135197999,133120
2750,65.0,0.188782664999,133597
2760,65.0,0.189447237999,134079
2770,65.0,0.190101973999,134561
2780,65.0,0.190810166999,135028
2790,65.0,0.191478159999,135520
2800,67.0,0.192120066999,136001
2810,67.0,0.192787204999,136492
2820,65.0,0.193447500999,136988
2830,65.0,0.194103947999,137476
2840,67.0,0.194753551998,137960
2850,65.0,0.195426676999,138445
2860,65.0,0.196086544998,138944
2870,65.0,0.196749406998,139426
2880,65.0,0.197377200998,139911
2890,71.0,0.198047760998,140395
2900,65.0,0.198713188998,140875
2910,65.0,0.199367069999,141361
2920,71.0,0.200017957999,141847
2930,65.0,0.200659864999,142320
2940,65.0,0.201284665999,142804
2950,65.0,0.201919302998,143285
2960,72.0,0.202574038999,143770
2970,65.0,0.203207820999,144262
2980,65.0,0.203850154998,144753
2990,65.0,0.204480087998,145217
3000,65.0,0.205359341998,145711
3010,65.0,0.206030328999,146184
3020,65.0,0.206670525999,146665
3030,65.0,0.207332104999,147154
3040,72.0,0.208006940999,147634
3050,72.0,0.210026745998,148127
3060,72.0,0.210689179999,148608
3070,72.0,0.211369574999,149084
3080,73.0,0.212040989999,149575
3090,72.0,0.212695725999,150065
3100,72.0,0.213462506999,150551
3110,72.0,0.214156587999,151038
3120,72.0,0.214819021999,151521
3130,72.0,0.215473758999,152002
3140,72.0,0.216107112999,152492
3150,73.0,0.216782376999,152972
3160,73.0,0.217436257999,153446
3170,73.0,0.218084579999,153918
3180,73.0,0.218744019999,154410
3190,73.0,0.219387209999,154890
3200,73.0,0.220122345999,155369
3210,73.0,0.221108085999,155844
3220,73.0,0.221747853999,156310
3230,72.0,0.222382063999,156788
3240,72.0,0.223013707999,157272
3250,70.0,0.223648344999,157762
3260,72.0,0.224278704999,158237
3270,73.0,0.224901366998,158719
3280,73.0,0.225553109998,159210
3290,73.0,0.226354103998,159701
3300,72.0,0.226990878998,160199
3310,73.0,0.227671273998,160680
3320,73.0,0.228337984998,161160
3330,73.0,0.228968345998,161643
3340,72.0,0.229607259998,162120
3350,73.0,0.230237619998,162606
3360,73.0,0.230881236998,163087
3370,73.0,0.231575317998,163573
3380,73.0,0.232237751998,164048
3390,73.0,0.232877092998,164534
3400,72.0,0.233523275999,165019
3410,73.0,0.234236172999,165503
3420,72.0,0.234904165999,165978
3430,72.0,0.236233737999,166468
3440,72.0,0.236915416998,166959
3450,72.0,0.237549198999,167446
3460,72.0,0.238185545999,167929
3470,72.0,0.238815906999,168415
3480,73.0,0.239438569999,168900
3490,72.0,0.240095871999,169395
3500,72.0,0.240747186999,169875
3510,70.0,0.241383106999,170353
3520,72.0,0.242244827999,170820
3530,72.0,0.242896997999,171298
3540,72.0,0.243543180998,171792
3550,72.0,0.244294139998,172273
3560,72.0,0.244956146998,172768
3570,72.0,0.245604895998,173255
3580,72.0,0.246298120998,173725
3590,72.0,0.246967397998,174206
3600,72.0,0.247603745998,174703
3610,71.0,0.248322202998,175186
3620,72.0,0.248981215998,175665
3630,72.0,0.249623977998,176143
3640,72.0,0.250293253998,176635
3650,72.0,0.251009144998,177113
3660,72.0,0.251690395998,177600
3670,72.0,0.252351974998,178083
3680,74.0,0.253009704998,178570
3690,73.0,0.253650328998,179051
3700,73.0,0.254324309998,179537
3710,73.0,0.254967498998,180029
3720,73.0,0.255605556998,180513
3730,73.0,0.256250456998,180996
3740,72.0,0.256882099998,181479
3750,72.0,0.257512887998,181965
3760,72.0,0.258165913998,182443
3770,72.0,0.258818083998,182921
3780,72.0,0.259456141998,183406
3790,72.0,0.260149794998,183901
3800,72.0,0.260828052998,184397
3810,72.0,0.261464827998,184875
3820,72.0,0.262204239998,185369
3830,72.0,0.262863252998,185854
3840,74.0,0.263522265998,186341
3850,72.0,0.264179996998,186809
3860,73.0,0.264825752998,187291
3870,72.0,0.265487331998,187781
3880,72.0,0.266165161998,188250
3890,73.0,0.266830161998,188741
3900,72.0,0.267472496998,189231
3910,74.0,0.268099008998,189712
3920,73.0,0.268732362998,190192
3930,74.0,0.269361439998,190681
3940,73.0,0.270026012998,191160
3950,72.0,0.270670485998,191638
3960,72.0,0.271324794998,192117
3970,74.0,0.271963280998,192608
3980,72.0,0.272605615998,193093
3990,72.0,0.273259069998,193583
4000,72.0,0.273913378998,194061
4010,72.0,0.274733189998,194539
4020,72.0,0.275400755998,195029
4030,75.0,0.276040096998,195523
4040,72.0,0.276699109998,196007
4050,76.0,0.277466318998,196485
4060,76.0,0.278097106998,196967
4070,76.0,0.278747139998,197438
4080,76.0,0.279380492998,197911
4090,76.0,0.280012136998,198385
4100,77.0,0.280653187998,198867
4110,79.0,0.281285686999,199361
4120,79.0,0.281927593999,199843
4130,79.0,0.282557098999,200341
4140,79.0,0.283206703999,200823
4150,79.0,0.283834070999,201301
4160,81.0,0.284539697999,201786
4170,82.0,0.285192723999,202272
4180,82.0,0.285824794999,202742
4190,81.0,0.286472260999,203228
4200,82.0,0.287099626998,203709
4210,79.0,0.287737256999,204199
4220,82.0,0.288369754998,204678
4230,82.0,0.289010378998,205160
4240,82.0,0.289645442999,205644
4250,82.0,0.290284783999,206132
4260,82.0,0.291131964999,206618
4270,82.0,0.291828611999,207111
4280,82.0,0.292521836999,207597
4290,82.0,0.293186837999,208083
4300,82.0,0.293864239998,208584
4310,82.0,0.294568155998,209073
4320,82.0,0.295227168998,209546
4330,89.0,0.295869503998,210034
4340,86.0,0.296522529998,210518
4350,86.0,0.297147758998,211004
4360,86.0,0.297780256998,211484
4370,89.0,0.298411471998,211949
4380,86.0,0.299070056998,212432
4390,87.0,0.299707687998,212922
4400,89.0,0.300354726998,213404
4410,91.0,0.300974395998,213887
4420,91.0,0.301606466998,214370
4430,91.0,0.302371109998,214854
4440,91.0,0.303154997998,215349
4450,91.0,0.303811016998,215844
4460,93.0,0.304528617998,216320
4470,91.0,0.305167958998,216807
4480,91.0,0.305809865998,217285
4490,91.0,0.306446640998,217766
4500,91.0,0.307095389998,218246
4510,91.0,0.307753975998,218716
4520,91.0,0.308416837998,219202
4530,91.0,0.309075422998,219684
4540,91.0,0.309772496998,220165
4550,91.0,0.310420391998,220653
4560,91.0,0.311079404998,221138
4570,91.0,0.311722166998,221609
4580,91.0,0.312373054998,222084
4590,91.0,0.313008119998,222565
4600,91.0,0.313670126998,223043
4610,91.0,0.314332988998,223519
4620,91.0,0.314986014998,224011
4630,92.0,0.315635619998,224493
4640,92.0,0.316302758998,224971
4650,91.0,0.316972463998,225452
4660,91.0,0.317714441998,225935
4670,91.0,0.318367895998,226403
4680,91.0,0.319042731998,226896
4690,91.0,0.319684211998,227389
4700,91.0,0.320330822998,227864
4710,91.0,0.320968452998,228341
4720,91.0,0.321616774998,228817
4730,91.0,0.322300591998,229304
4740,92.0,0.322986973998,229777
4750,92.0,0.323648124998,230255
4760,91.0,0.324278484998,230752
4770,91.0,0.324933221998,231228
4780,91.0,0.325572990998,231710
4790,91.0,0.326237562998,232188
4800,92.0,0.326905129998,232666
4810,92.0,0.327544042998,233150
4820,92.0,0.328198779998,233629
4830,91.0,0.328847528998,234101
4840,91.0,0.329478744998,234593
4850,92.0,0.330147594998,235070
4860,91.0,0.330800193998,235553
4870,91.0,0.331460916998,236039
4880,92.0,0.332116508998,236515
4890,91.0,0.332761836998,236997
4900,91.0,0.333411440997,237458
4910,91.0,0.334057623998,237938
4920,91.0,0.334697392998,238438
4930,91.0,0.335654907998,238917
4940,91.0,0.336307933998,239407
4950,91.0,0.336951550998,239887
4960,91.0,0.337606714997,240365
4970,91.0,0.338268293997,240847
4980,91.0,0.338932866997,241321
4990,91.0,0.339584181997,241789
