it,funval,time,funcount
0,11.0,0.000251032999927,434
10,11.0,0.000502492999999,766
20,11.0,0.000752243000079,1111
30,12.0,0.00100455900008,1450
40,11.0,0.00138003800009,1792
50,11.0,0.00163577400008,2132
60,11.0,0.00191717000018,2456
70,12.0,0.00217034100024,2797
80,62.0,0.00242949900019,3132
90,63.0,0.0028143860003,3469
100,62.0,0.00308551800026,3802
110,63.0,0.00333954400026,4134
120,64.0,0.00359356900026,4474
130,62.0,0.00387197100031,4811
140,62.0,0.0041358320002,5145
150,65.0,0.00441893800019,5484
160,63.0,0.00468921500021,5810
170,64.0,0.00494666200018,6145
180,63.0,0.00521565500026,6496
190,65.0,0.00548122800024,6825
200,67.0,0.00574680000022,7156
210,67.0,0.00600724100013,7504
220,67.0,0.00639383900011,7844
230,72.0,0.00668036700006,8179
240,72.0,0.00696390100006,8511
250,70.0,0.00729661500009,8847
260,70.0,0.00759853800014,9173
270,67.0,0.00788549300012,9510
280,70.0,0.00817586900018,9845
290,70.0,0.00845940300019,10182
300,67.0,0.00874935100012,10518
310,68.0,0.00905640600013,10843
320,68.0,0.00932112300006,11174
330,70.0,0.00960380200002,11511
340,72.0,0.00988861799999,11850
350,71.0,0.010162316,12192
360,71.0,0.010431737,12534
370,71.0,0.010708856,12869
380,70.0,0.0110017989999,13200
390,70.0,0.01129688,13532
400,70.0,0.011560742,13859
410,70.0,0.011822038,14194
420,69.0,0.0120948809999,14524
430,69.0,0.0123514729999,14866
440,70.0,0.0125973739998,15204
450,70.0,0.0128582419998,15535
460,70.0,0.0131225309998,15868
470,70.0,0.0133851099998,16203
480,70.0,0.0136387079998,16536
490,69.0,0.0138952989998,16878
500,68.0,0.0141784059998,17205
510,71.0,0.0144572359998,17528
520,71.0,0.0147771199997,17864
530,71.0,0.0150461129997,18190
540,71.0,0.0153022769997,18535
550,71.0,0.0156183129997,18871
560,73.0,0.0159039849996,19213
570,73.0,0.0161729789995,19552
580,73.0,0.0164359859995,19874
590,70.0,0.0167190919994,20211
600,72.0,0.0169945009994,20548
610,72.0,0.0172562249994,20883
620,70.0,0.0175196589994,21217
630,73.0,0.0177839489994,21560
640,73.0,0.0181517299993,21892
650,73.0,0.0184305599993,22225
660,73.0,0.0187068239993,22552
670,73.0,0.0189745349993,22866
680,74.0,0.0192499439993,23209
690,74.0,0.0196155869993,23545
700,80.0,0.0199093839993,23885
710,80.0,0.0202036089994,24223
720,80.0,0.0204785899995,24562
730,80.0,0.0207655449994,24902
740,80.0,0.0210460859994,25237
750,82.0,0.0213103759994,25574
760,80.0,0.0215746649994,25914
770,80.0,0.0218372439995,26245
780,83.0,0.0221156459995,26569
790,80.0,0.0223722369994,26904
800,84.0,0.0226254079994,27245
810,80.0,0.0229012439994,27590
820,80.0,0.0231621119993,27928
830,84.0,0.0234648899993,28257
840,80.0,0.0237856299993,28604
850,80.0,0.0240760059993,28940
860,80.0,0.0243402949993,29275
870,80.0,0.0246037289993,29607
880,82.0,0.0248795649993,29947
890,81.0,0.0251464199994,30282
900,88.0,0.0254261049994,30623
910,88.0,0.0257237519994,30960
920,88.0,0.0260021539995,31298
930,86.0,0.0262946689994,31637
940,86.0,0.0265739259994,31966
950,86.0,0.0268553219994,32303
960,88.0,0.0271273089994,32656
970,86.0,0.0273980129994,32986
980,86.0,0.0276764149994,33318
990,86.0,0.0279531059995,33649
1000,86.0,0.0282238109994,33986
1010,88.0,0.0285137589995,34324
1020,88.0,0.0287818979995,34649
1030,88.0,0.0290662869994,34985
1040,89.0,0.0293280099994,35310
1050,88.0,0.0296299329993,35646
1060,88.0,0.0299023479994,35980
1070,89.0,0.0301687759994,36313
1080,88.0,0.0304313549995,36631
1090,88.0,0.0307165999994,36969
1100,86.0,0.0309736199995,37306
1110,88.0,0.0312468899995,37644
1120,88.0,0.0315573659994,37977
1130,88.0,0.0318272149995,38309
1140,86.0,0.0320859449994,38650
1150,86.0,0.0323575049994,38984
1160,86.0,0.0326153789994,39307
1170,86.0,0.0329019059994,39642
1180,89.0,0.0331815909994,39977
1190,89.0,0.0334467359995,40311
1200,86.0,0.0337242829995,40642
1210,86.0,0.0340031129996,40979
1220,88.0,0.0342909239996,41311
1230,88.0,0.0345564959996,41655
1240,85.0,0.0348344699996,41991
1250,84.0,0.0351000419996,42334
1260,85.0,0.0353677519996,42671
1270,88.0,0.0356294749996,43015
1280,88.0,0.0358916259996,43346
1290,89.0,0.0361807189996,43679
1300,89.0,0.0365018859997,44016
1310,88.0,0.0367687419996,44346
1320,88.0,0.0370291819995,44683
1330,87.0,0.0372964649996,45015
1340,85.0,0.0375684519996,45340
1350,85.0,0.0378477089996,45675
1360,85.0,0.0381171309997,46000
1370,85.0,0.0383831309997,46336
1380,85.0,0.0386568289997,46671
1390,84.0,0.0389531929997,47015
1400,85.0,0.0392286019996,47351
1410,85.0,0.0395022999996,47683
1420,84.0,0.0397734319996,48013
1430,85.0,0.0400505509996,48346
1440,82.0,0.0403139849996,48676
1450,82.0,0.0405983739996,49007
1460,82.0,0.0408699339996,49339
1470,82.0,0.0411414929996,49669
1480,85.0,0.0414224609996,50001
1490,83.0,0.0417042839995,50340
1500,82.0,0.0419873899995,50670
1510,83.0,0.0422486849995,51010
1520,85.0,0.0425339289995,51334
1530,85.0,0.0428042059996,51662
1540,83.0,0.0430637909996,51989
1550,85.0,0.0433250869996,52324
1560,83.0,0.0435842449997,52661
1570,85.0,0.0438780429997,53003
1580,85.0,0.0441504579998,53338
1590,86.0,0.0444250109997,53667
1600,89.0,0.0446845969997,54003
1610,85.0,0.0449450369997,54327
1620,88.0,0.0452127479997,54661
1630,89.0,0.0454924329997,54991
1640,89.0,0.0457866589996,55316
1650,89.0,0.0460586459997,55665
1660,89.0,0.0463383309997,55996
1670,89.0,0.0466068969997,56334
1680,89.0,0.0468669099997,56667
1690,89.0,0.0471311989998,57011
1700,89.0,0.0474130229998,57352
1710,89.0,0.0476738909997,57687
1720,89.0,0.0479441679996,58021
1730,89.0,0.0482191489996,58360
1740,89.0,0.0485035379996,58692
1750,89.0,0.0487678269996,59021
1760,89.0,0.0490355369996,59357
1770,89.0,0.0493165049995,59679
1780,89.0,0.0495876369995,60018
1790,89.0,0.0498617629995,60346
1800,89.0,0.0501525669995,60693
1810,89.0,0.0504271199995,61019
1820,89.0,0.0506944029996,61356
1830,89.0,0.0509539879996,61696
1840,89.0,0.0512533449995,62026
1850,89.0,0.0515176349995,62364
1860,89.0,0.0517857729996,62700
1870,89.0,0.0520526279996,63046
1880,89.0,0.0523186279996,63377
1890,89.0,0.0525867669996,63722
1900,89.0,0.0528720109996,64047
1910,89.0,0.0531487029997,64398
1920,89.0,0.0534112809997,64725
1930,88.0,0.0536759979998,65076
1940,89.0,0.0539680849998,65407
1950,89.0,0.0542464869999,65761
1960,89.0,0.0545167639999,66096
1970,89.0,0.0547836199999,66428
1980,89.0,0.0550453439998,66752
1990,83.0,0.0553374309999,67080
2000,83.0,0.0556213919999,67413
2010,83.0,0.0559019319999,67749
2020,83.0,0.0561730639998,68089
2030,83.0,0.0564672889999,68423
2040,83.0,0.0567298679999,68755
2050,83.0,0.0570356399999,69088
2060,83.0,0.0573119039998,69431
2070,83.0,0.0575856019998,69759
2080,83.0,0.0578503189998,70109
2090,83.0,0.0581137529998,70440
2100,83.0,0.0583801809998,70778
2110,85.0,0.0586496029998,71100
2120,83.0,0.0589083329997,71437
2130,89.0,0.0591704839998,71765
2140,83.0,0.0594416159998,72103
2150,83.0,0.0597148859998,72437
2160,89.0,0.0600317769998,72775
2170,89.0,0.0602956389998,73104
2180,89.0,0.0605654879998,73441
2190,89.0,0.0608417519999,73767
2200,83.0,0.0611145939999,74093
2210,85.0,0.0613823049999,74422
2220,83.0,0.0616530089999,74750
2230,86.0,0.0619344049999,75080
2240,86.0,0.0622098129999,75422
2250,84.0,0.0624741019999,75757
2260,85.0,0.0629188609998,76086
2270,85.0,0.0632002559998,76423
2280,89.0,0.0634773749998,76755
2290,89.0,0.0637450849998,77088
2300,84.0,0.0640277639998,77427
2310,85.0,0.0642933369998,77750
2320,85.0,0.0645537779998,78097
2330,85.0,0.0648527069998,78425
2340,85.0,0.0651174239998,78768
2350,85.0,0.0654655339998,79106
2360,85.0,0.0657524889998,79448
2370,85.0,0.0660210549999,79775
2380,85.0,0.0663088659999,80104
2390,85.0,0.066587695,80434
2400,85.0,0.066856688,80768
2410,85.0,0.067137228,81094
2420,85.0,0.0674117809999,81417
2430,85.0,0.0676777809999,81757
2440,85.0,0.067954044,82095
2450,85.0,0.068228169,82438
2460,85.0,0.068505289,82780
2470,85.0,0.068781125,83124
2480,88.0,0.0690625210001,83460
2490,86.0,0.0693469100001,83808
2500,88.0,0.0696227460002,84146
2510,86.0,0.0698930230002,84470
2520,88.0,0.0701851100001,84802
2530,89.0,0.0704579530001,85138
2540,86.0,0.070726947,85479
2550,86.0,0.0709899540001,85818
2560,87.0,0.0712709220001,86156
2570,87.0,0.071545475,86503
2580,87.0,0.0718161789999,86837
2590,89.0,0.0721835329999,87163
2600,87.0,0.0724572309999,87506
2610,87.0,0.0727232309998,87848
2620,87.0,0.0729965019998,88185
2630,86.0,0.0733009909998,88513
2640,86.0,0.0735627149999,88837
2650,86.0,0.0738231549999,89170
2660,86.0,0.074087872,89508
2670,86.0,0.074391078,89842
2680,86.0,0.0746634929999,90170
2690,86.0,0.0749243609999,90508
2700,86.0,0.0752190139999,90843
2710,86.0,0.0755063969999,91183
2720,87.0,0.075779668,91509
2730,87.0,0.076053365,91854
2740,89.0,0.076319793,92180
2750,89.0,0.0765866490001,92524
2760,89.0,0.0768470900001,92852
2770,89.0,0.0771224980001,93195
2780,89.0,0.0807750810001,93519
2790,89.0,0.0810522,93860
2800,89.0,0.0813263260001,94193
2810,87.0,0.0815846280001,94532
2820,87.0,0.0818544770001,94878
2830,87.0,0.0821196220002,95224
2840,87.0,0.0823877610002,95564
2850,87.0,0.0826537610002,95889
2860,88.0,0.0829261760002,96220
2870,88.0,0.0832152700002,96557
2880,88.0,0.0834911060002,96892
2890,89.0,0.0837571060002,97239
2900,89.0,0.0840188290002,97574
2910,87.0,0.0842796970003,97915
2920,89.0,0.0845666520003,98255
2930,89.0,0.0848377840003,98587
2940,87.0,0.0851012180003,98923
2950,89.0,0.0854219570002,99264
2960,89.0,0.0857042080002,99612
2970,89.0,0.0859808990002,99952
2980,86.0,0.0862678550002,100297
2990,86.0,0.0865385590001,100633
3000,85.0,0.0868225210002,100962
3010,86.0,0.0871099030002,101305
3020,86.0,0.0873912990002,101628
3030,86.0,0.0876607210001,101962
3040,89.0,0.0879374130002,102301
3050,86.0,0.0882196640001,102645
3060,86.0,0.0884976390001,102985
3070,85.0,0.0887777520002,103325
3080,85.0,0.0890617140002,103666
3090,85.0,0.0893392610002,104009
3100,85.0,0.0896159530001,104345
3110,85.0,0.0898883680001,104684
3120,89.0,0.0901547950001,105025
3130,86.0,0.0904349070001,105350
3140,86.0,0.0907000520001,105683
3150,89.0,0.0909660520001,106015
3160,85.0,0.0912410330001,106346
3170,89.0,0.091501901,106679
3180,89.0,0.091770039,107014
3190,89.0,0.092060843,107352
3200,88.0,0.092333685,107677
3210,86.0,0.0926535689999,108017
3220,86.0,0.0929148649999,108346
3230,86.0,0.0931859969999,108685
3240,86.0,0.0935875629998,109021
3250,86.0,0.0938527079999,109350
3260,86.0,0.0941409469998,109690
3270,84.0,0.0944086579998,110021
3280,84.0,0.0946956129998,110362
3290,86.0,0.0949872719998,110700
3300,85.0,0.0952507059998,111018
3310,84.0,0.0955222659998,111350
3320,84.0,0.0957921149998,111695
3330,82.0,0.0960542659998,112034
3340,82.0,0.0963176999998,112368
3350,82.0,0.0965734369997,112697
3360,83.0,0.0968351609998,113035
3370,83.0,0.0971242539999,113367
3380,82.0,0.097406505,113697
3390,82.0,0.097675071,114029
3400,82.0,0.0979342290001,114375
3410,82.0,0.0981874000001,114722
3420,82.0,0.0984529720001,115063
3430,82.0,0.0987142680002,115403
3440,83.0,0.0989721430002,115737
3450,83.0,0.0992347210002,116073
3460,82.0,0.0995032870002,116409
3470,81.0,0.0997744190001,116745
3480,81.0,0.100038708,117076
3490,81.0,0.100294016,117411
3500,81.0,0.100566859,117745
3510,81.0,0.100829866,118084
3520,81.0,0.101097149,118417
3530,81.0,0.101361438,118746
3540,80.0,0.101619313,119091
3550,81.0,0.101896004,119427
3560,81.0,0.102179111,119763
3570,81.0,0.102457085,120109
3580,81.0,0.102733777,120442
3590,82.0,0.1030156,120777
3600,83.0,0.103282456,121127
3610,84.0,0.103558292,121463
3620,89.0,0.103823437,121791
3630,86.0,0.104092858,122130
3640,89.0,0.104373399,122471
3650,89.0,0.104639399,122799
3660,89.0,0.104895135,123119
3670,89.0,0.105173109,123454
3680,89.0,0.105454076,123789
3690,89.0,0.105721786,124132
3700,89.0,0.105996339,124469
3710,89.0,0.106259773,124809
3720,86.0,0.106567256,125140
3730,86.0,0.106838388,125478
3740,89.0,0.107094552,125801
3750,87.0,0.10735542,126132
3760,89.0,0.107627407,126467
3770,87.0,0.107890413,126810
3780,87.0,0.108151282,127145
3790,87.0,0.108412151,127478
3800,87.0,0.108669598,127816
3810,87.0,0.108939019,128146
3820,89.0,0.109200743,128475
3830,87.0,0.109470164,128802
3840,87.0,0.109732743,129127
3850,87.0,0.109993184,129452
3860,87.0,0.110255336,129797
3870,87.0,0.110516632,130132
3880,87.0,0.110782205,130454
3890,89.0,0.111046494,130789
3900,89.0,0.11132062,131113
3910,89.0,0.111596884,131441
3920,89.0,0.111864594,131767
3930,89.0,0.112132304,132102
3940,89.0,0.112402581,132429
3950,89.0,0.112677989,132767
3960,87.0,0.112955964,133100
3970,87.0,0.113225813,133442
3980,87.0,0.113502077,133780
3990,87.0,0.113763801,134113
4000,87.0,0.114023386,134444
4010,87.0,0.114291096,134784
4020,89.0,0.114881684,135116
4030,86.0,0.115140414,135458
4040,88.0,0.115407269,135787
4050,87.0,0.115672842,136126
4060,86.0,0.115953383,136460
4070,86.0,0.116226225,136791
4080,87.0,0.11649308,137130
4090,87.0,0.11677362,137468
4100,86.0,0.117055015,137804
4110,85.0,0.117318876,138136
4120,87.0,0.117585731,138478
4130,85.0,0.117867982,138819
4140,84.0,0.118136121,139159
4150,85.0,0.118397417,139496
4160,84.0,0.118660851,139835
4170,84.0,0.118917015,140162
4180,84.0,0.119197556,140507
4190,84.0,0.119491353001,140843
4200,85.0,0.119762057,141185
4210,84.0,0.120053717,141513
4220,83.0,0.120348798,141852
4230,86.0,0.120651576,142184
4240,81.0,0.12091501,142524
4250,81.0,0.121174168,142864
4260,81.0,0.121477801001,143198
4270,81.0,0.121748078001,143525
4280,83.0,0.122041021001,143858
4290,83.0,0.122319423001,144194
4300,83.0,0.122578153001,144529
4310,81.0,0.122838594001,144868
4320,81.0,0.123102456001,145212
4330,81.0,0.123370166001,145548
4340,81.0,0.123634884001,145891
4350,81.0,0.123904733001,146221
4360,81.0,0.124168167001,146550
4370,81.0,0.124435023001,146890
4380,82.0,0.124689904001,147226
4390,81.0,0.124946496001,147562
4400,82.0,0.125234307001,147897
4410,81.0,0.125499451001,148225
4420,81.0,0.125794959001,148561
4430,81.0,0.126063953001,148901
4440,82.0,0.126333374001,149233
4450,82.0,0.126596808001,149565
4460,82.0,0.126866229001,149910
4470,82.0,0.127133512001,150247
4480,82.0,0.127413625,150593
4490,82.0,0.127680908,150931
4500,82.0,0.1279576,151272
4510,80.0,0.128289031,151605
4520,82.0,0.128577697,151936
4530,80.0,0.128848829,152271
4540,80.0,0.129111408,152604
4550,82.0,0.129382112,152930
4560,82.0,0.12964127,153260
4570,80.0,0.129908981,153598
4580,80.0,0.130183534,153941
4590,80.0,0.130465785,154277
4600,80.0,0.130774123,154613
4610,80.0,0.131043972,154951
4620,82.0,0.131311683,155281
4630,82.0,0.131571269,155616
4640,82.0,0.131851382,155958
4650,82.0,0.132128073,156285
4660,82.0,0.132424864,156617
4670,82.0,0.132696851,156951
4680,85.0,0.132967983,157287
4690,85.0,0.133247668,157618
4700,82.0,0.1336116,157957
4710,80.0,0.133896844,158276
4720,80.0,0.134165837,158612
4730,82.0,0.134445949,158957
4740,82.0,0.134814158,159293
4750,82.0,0.135092132,159629
4760,82.0,0.13537139,159958
4770,79.0,0.135634397,160297
4780,79.0,0.135901252,160631
4790,77.0,0.136164259,160971
4800,77.0,0.136475163,161304
4810,77.0,0.136771954,161634
4820,77.0,0.13704223,161966
4830,79.0,0.137316356,162292
4840,77.0,0.137587488,162635
4850,79.0,0.137865891,162971
4860,77.0,0.138129325,163312
4870,77.0,0.138400457,163657
4880,77.0,0.138666457,163988
4890,79.0,0.13893374,164314
4900,79.0,0.139223261,164655
4910,79.0,0.139497386,164988
4920,79.0,0.139765096,165322
4930,79.0,0.140127318,165666
4940,79.0,0.140389897,166000
4950,82.0,0.140641784,166337
4960,79.0,0.140913772,166666
4970,79.0,0.141203721,167006
4980,82.0,0.141504361,167334
4990,79.0,0.141792599,167675
