it,funval,time,funcount
0,7.0,0.000342122000006,285
10,7.0,0.000746681999999,472
20,7.0,0.00110120600004,656
30,7.0,0.00146300100005,844
40,7.0,0.00184617800005,1033
50,7.0,0.00222507800004,1228
60,7.0,0.00261552500012,1415
70,7.0,0.00299912900016,1600
80,9.0,0.00337631900015,1790
90,9.0,0.00374110700022,1976
100,9.0,0.00410846100021,2166
110,9.0,0.00447367600032,2351
120,9.0,0.00483632600037,2537
130,9.0,0.00520368000036,2723
140,9.0,0.00556761300038,2909
150,9.0,0.00596233600038,3100
160,9.0,0.00638314600042,3291
170,10.0,0.00674622300039,3479
180,9.0,0.00710801700041,3663
190,9.0,0.00746040300044,3853
200,10.0,0.00780423600042,4036
210,10.0,0.00815448300045,4216
220,10.0,0.00875277000046,4405
230,10.0,0.00920351600041,4591
240,10.0,0.00958498200043,4778
250,10.0,0.00994378300038,4969
260,10.0,0.0102923200003,5155
270,10.0,0.0106365810003,5337
280,10.0,0.0109868290002,5517
290,10.0,0.0113272400002,5699
300,10.0,0.0116945940002,5890
310,10.0,0.0120623760002,6083
320,10.0,0.0124297300002,6268
330,10.0,0.0127774120002,6454
340,10.0,0.0131409170002,6643
350,10.0,0.0135061320002,6828
360,11.0,0.0138555240002,7013
370,11.0,0.0142241610001,7200
380,14.0,0.0145923700001,7384
390,14.0,0.014969133,7573
400,14.0,0.015317243,7753
410,14.0,0.01569871,7941
420,14.0,0.0160528060001,8128
430,15.0,0.016400488,8314
440,14.0,0.016745604,8504
450,14.0,0.0171138129999,8688
460,14.0,0.0174815949999,8875
470,14.0,0.0178562189999,9061
480,14.0,0.0182043289999,9252
490,14.0,0.0185550039998,9440
500,14.0,0.0189001199998,9625
510,14.0,0.0192576369998,9810
520,14.0,0.0196147279999,9998
530,15.0,0.0199769499998,10188
540,14.0,0.0203263419997,10376
550,14.0,0.0206778719997,10564
560,15.0,0.0210349619998,10747
570,15.0,0.0214112969998,10931
580,15.0,0.0217713809998,11119
590,15.0,0.0221241949998,11308
600,14.0,0.0224765809999,11496
610,14.0,0.0228413689999,11685
620,15.0,0.023215993,11871
630,15.0,0.023588907,12056
640,14.0,0.023945569,12243
650,14.0,0.024322759,12431
660,14.0,0.024686692,12621
670,14.0,0.025061316,12808
680,14.0,0.025478277,12998
690,14.0,0.025894383,13182
700,14.0,0.0262681520001,13365
710,14.0,0.026691101,13545
720,14.0,0.027110629,13733
730,15.0,0.0275421310001,13921
740,15.0,0.0279732050002,14104
750,18.0,0.0283675010002,14294
760,25.0,0.0287434080002,14477
770,25.0,0.0291163210002,14665
780,28.0,0.0295046300002,14852
790,28.0,0.0298621480003,15034
800,25.0,0.0302350610003,15217
810,28.0,0.0305964270003,15403
820,28.0,0.0309642090003,15588
830,28.0,0.0313499520003,15773
840,28.0,0.0317686240002,15960
850,28.0,0.0321684790001,16146
860,28.0,0.0325439580001,16335
870,28.0,0.0329339770001,16526
880,28.0,0.0333342600001,16709
890,28.0,0.0336969100001,16886
900,28.0,0.0340912060001,17071
910,28.0,0.0344752380001,17256
920,28.0,0.0348455860001,17442
930,28.0,0.0352095190001,17629
940,28.0,0.0355640430001,17809
950,29.0,0.0359100140001,17993
960,29.0,0.0362820720001,18184
970,28.0,0.036702028,18370
980,28.0,0.037063395,18556
990,28.0,0.037420058,18744
1000,28.0,0.037785274,18934
1010,28.0,0.038138515,19121
1020,28.0,0.038547352,19304
1030,29.0,0.0389078640001,19488
1040,28.0,0.03927479,19680
1050,28.0,0.039636584,19866
1060,28.0,0.040000944,20055
1070,28.0,0.0403460590001,20243
1080,28.0,0.0406980170001,20435
1090,28.0,0.0410568180001,20620
1100,28.0,0.0414318700001,20812
1110,28.0,0.0418201780001,21000
1120,28.0,0.042233718,21189
1130,28.0,0.042600217,21383
1140,28.0,0.0429654320001,21565
1150,29.0,0.0433473260001,21752
1160,29.0,0.0437835320001,21938
1170,28.0,0.0441714130002,22122
1180,28.0,0.0445396230002,22313
1190,28.0,0.0449172400001,22504
1200,28.0,0.0452820280001,22688
1210,28.0,0.0456891540001,22871
1220,29.0,0.0461818110001,23056
1230,29.0,0.0465470260001,23250
1240,28.0,0.0469062540001,23438
1250,28.0,0.0473445990001,23625
1260,28.0,0.0477919240001,23813
1270,28.0,0.0482409590001,23998
1280,28.0,0.0486925599999,24184
1290,28.0,0.0491202129999,24367
1300,28.0,0.0495756629999,24556
1310,28.0,0.0500289749999,24743
1320,28.0,0.0504638979999,24932
1330,28.0,0.0508919789999,25111
1340,28.0,0.0513234809998,25304
1350,28.0,0.0517536999998,25492
1360,34.0,0.0521847739999,25678
1370,28.0,0.0526167029999,25860
1380,28.0,0.0530665939999,26048
1390,34.0,0.0535571119999,26237
1400,30.0,0.0540044369999,26426
1410,28.0,0.0544444919999,26606
1420,28.0,0.0548836919999,26797
1430,28.0,0.0553545379998,26982
1440,28.0,0.0558253839998,27171
1450,28.0,0.0563411329998,27358
1460,28.0,0.0568354999998,27546
1470,30.0,0.0572990759998,27732
1480,28.0,0.0577493949997,27920
1490,28.0,0.0582099769997,28104
1500,28.0,0.0586444719997,28289
1510,28.0,0.0590781119997,28474
1520,28.0,0.0595241539997,28667
1530,28.0,0.0599620709997,28849
1540,28.0,0.0603935729998,29029
1550,30.0,0.0608327719999,29215
1560,30.0,0.0612882229999,29400
1570,30.0,0.0617646279999,29592
1580,28.0,0.0622624159998,29775
1590,28.0,0.0627007609999,29962
1600,28.0,0.0631356839999,30150
1610,28.0,0.0635641919999,30340
1620,28.0,0.0639982599999,30524
1630,28.0,0.064427196,30710
1640,28.0,0.0651165720001,30899
1650,28.0,0.0655626140001,31081
1660,28.0,0.0659329620001,31269
1670,28.0,0.0662973220002,31453
1680,28.0,0.0666625370002,31643
1690,28.0,0.0670367340001,31836
1700,28.0,0.0674079360001,32022
1710,28.0,0.0677675920001,32202
1720,30.0,0.0681216880001,32392
1730,30.0,0.068493318,32577
1740,30.0,0.0688687970001,32763
1750,30.0,0.0692228930001,32950
1760,30.0,0.069595807,33138
1770,30.0,0.069976419,33322
1780,32.0,0.070383117,33505
1790,30.0,0.070753892,33690
1800,30.0,0.071123384,33879
1810,30.0,0.071496297,34071
1820,30.0,0.071867927,34263
1830,30.0,0.072242551,34452
1840,32.0,0.072616747,34637
1850,30.0,0.072978969,34821
1860,30.0,0.073330927,35010
1870,30.0,0.073680747,35198
1880,30.0,0.0740630690001,35384
1890,30.0,0.0744381200001,35568
1900,30.0,0.0747969200002,35754
1910,30.0,0.0751668400001,35938
1920,30.0,0.075533766,36127
1930,30.0,0.07590112,36317
1940,30.0,0.076277882,36497
1950,30.0,0.076666619,36682
1960,30.0,0.0770271299999,36867
1970,30.0,0.0773983319999,37052
1980,30.0,0.077764831,37242
1990,30.0,0.078126197,37428
2000,30.0,0.0784935510001,37614
2010,30.0,0.078845937,37802
2020,33.0,0.079348857,37989
2030,30.0,0.0797277570001,38176
2040,30.0,0.0801143560002,38362
2050,30.0,0.0804988160002,38551
2060,33.0,0.0808571900002,38738
2070,30.0,0.0812330970002,38929
2080,30.0,0.0816021610003,39119
2090,30.0,0.0819562580003,39308
2100,30.0,0.0823060780003,39492
2110,30.0,0.0826777080002,39685
2120,33.0,0.0830437790003,39875
2130,33.0,0.0834932420003,40059
2140,30.0,0.0838704320003,40246
2150,30.0,0.0842279500004,40432
2160,30.0,0.0897485220004,40622
2170,30.0,0.0901124540004,40811
2180,31.0,0.0904990520004,40996
2190,30.0,0.0908971970005,41180
2200,30.0,0.0912692550005,41371
2210,31.0,0.0917862870004,41558
2220,30.0,0.0921532130004,41748
2230,31.0,0.0925201390005,41936
2240,30.0,0.0928926240005,42117
2250,30.0,0.0932681030005,42306
2260,30.0,0.0936367400005,42495
2270,30.0,0.0940092260006,42679
2280,30.0,0.0943774350005,42865
2290,30.0,0.0947520590006,43047
2300,30.0,0.0951399400005,43236
2310,30.0,0.0955047280005,43419
2320,30.0,0.0958613910004,43605
2330,30.0,0.0962471340005,43795
2340,30.0,0.0966042240005,43978
2350,30.0,0.0969634530005,44167
2360,30.0,0.0973346560005,44354
2370,30.0,0.0976900350005,44538
2380,34.0,0.0980432770004,44724
2390,30.0,0.0984311590005,44908
2400,30.0,0.0987899600005,45096
2410,30.0,0.0991461950005,45282
2420,30.0,0.0995092720004,45467
2430,37.0,0.0998646510004,45660
2440,38.0,0.100223024,45849
2450,38.0,0.100586101001,46032
2460,41.0,0.100949606001,46211
2470,40.0,0.101332783001,46402
2480,38.0,0.10170313,46588
2490,38.0,0.102062786,46777
2500,37.0,0.102420304,46960
2510,37.0,0.102782954,47146
2520,37.0,0.10314432,47331
2530,38.0,0.103504831,47516
2540,37.0,0.103879882,47704
2550,37.0,0.10424296,47894
2560,37.0,0.104602616,48080
2570,37.0,0.104962699,48274
2580,37.0,0.105347587,48460
2590,38.0,0.105713658,48645
2600,37.0,0.106082722,48834
2610,37.0,0.106450076,49024
2620,37.0,0.106823845,49209
2630,37.0,0.107213865,49389
2640,37.0,0.107578653,49578
2650,37.0,0.107984495,49761
2660,37.0,0.1083681,49951
2670,37.0,0.108747428,50141
2680,37.0,0.109157548,50319
2690,37.0,0.109536876,50512
2700,37.0,0.109922619,50705
2710,37.0,0.110278427,50891
2720,37.0,0.110635945,51071
2730,38.0,0.111004582,51258
2740,37.0,0.111360389,51447
2750,37.0,0.111723039,51634
2760,37.0,0.112108354,51825
2770,38.0,0.112468437,52007
2780,38.0,0.112836218,52191
2790,38.0,0.113217257,52372
2800,38.0,0.113589742,52557
2810,38.0,0.113946832,52737
2820,37.0,0.114297935,52926
2830,37.0,0.114692231,53113
2840,38.0,0.115094225,53301
2850,37.0,0.115466711,53489
2860,38.0,0.115837486,53677
2870,37.0,0.116218097,53866
2880,37.0,0.116591011,54052
2890,37.0,0.116984024,54240
2900,37.0,0.117362924,54432
2910,38.0,0.117747384,54619
2920,38.0,0.118127567,54811
2930,41.0,0.118514165,54998
2940,41.0,0.118915303,55183
2950,37.0,0.119279663,55366
2960,37.0,0.119642741,55548
2970,37.0,0.119995127,55728
2980,37.0,0.12034794,55910
2990,37.0,0.120713155,56098
3000,37.0,0.121090345,56283
3010,37.0,0.121470956,56469
3020,37.0,0.121838309,56659
3030,37.0,0.122243724,56843
3040,37.0,0.122614071,57033
3050,38.0,0.123003235,57222
3060,37.0,0.123445428,57399
3070,38.0,0.123868377,57589
3080,37.0,0.124287049,57773
3090,37.0,0.124719406,57960
3100,38.0,0.125157323,58146
3110,38.0,0.125601654,58333
3120,37.0,0.126037004,58517
3130,37.0,0.126468933,58702
3140,37.0,0.126891027,58892
3150,37.0,0.127397368,59082
3160,37.0,0.127844265,59266
3170,38.0,0.128269352,59456
3180,38.0,0.128644831,59642
3190,38.0,0.12902587,59829
3200,38.0,0.129399639,60011
3210,38.0,0.129778111,60196
3220,38.0,0.130148031,60382
3230,38.0,0.130503838,60572
3240,38.0,0.130859218,60759
3250,42.0,0.1312471,60945
3260,42.0,0.131616592,61134
3270,38.0,0.131987795,61319
3280,41.0,0.132356004,61509
3290,42.0,0.132719081,61695
3300,41.0,0.133086007,61884
3310,41.0,0.133440532,62068
3320,44.0,0.13382157,62258
3330,41.0,0.134172673,62446
3340,41.0,0.134523776,62640
3350,41.0,0.134884715,62829
3360,41.0,0.135235818,63012
3370,41.0,0.135589487,63197
3380,41.0,0.135950854,63382
3390,41.0,0.136316925,63574
3400,41.0,0.136677864,63766
3410,41.0,0.137033244,63956
3420,41.0,0.137381781,64144
3430,41.0,0.137761109,64330
3440,41.0,0.138110502,64517
3450,41.0,0.138485981,64703
3460,41.0,0.138843072,64885
3470,41.0,0.139207432,65076
3480,41.0,0.139558963,65262
3490,42.0,0.139939574,65445
3500,42.0,0.140289394,65634
3510,42.0,0.140655893,65821
3520,42.0,0.141014266,66009
3530,44.0,0.1413705,66196
3540,44.0,0.141725024,66384
3550,46.0,0.142082114,66569
3560,44.0,0.14244177,66754
3570,44.0,0.142799715,66945
3580,44.0,0.143153811,67134
3590,44.0,0.14350577,67323
3600,44.0,0.14390477,67511
3610,44.0,0.144275117,67696
3620,44.0,0.144649741,67880
3630,46.0,0.145017523,68063
3640,44.0,0.145514028,68252
3650,46.0,0.145915594,68427
3660,44.0,0.146294067,68611
3670,44.0,0.146671685,68797
3680,44.0,0.147034334,68979
3690,46.0,0.147407675,69158
3700,44.0,0.147776312,69345
3710,44.0,0.148160344,69529
3720,44.0,0.148537106,69715
3730,44.0,0.148910019,69907
3740,44.0,0.149276945,70091
3750,46.0,0.149664399,70279
3760,46.0,0.150054418,70458
3770,44.0,0.150433746,70648
3780,44.0,0.150818634,70841
3790,44.0,0.151191975,71035
3800,44.0,0.151590975,71223
3810,44.0,0.15198185,71411
3820,44.0,0.152378284,71602
3830,46.0,0.152744783,71787
3840,46.0,0.153131809,71975
3850,46.0,0.153498736,72164
3860,46.0,0.153887473,72345
3870,46.0,0.154272789,72530
3880,47.0,0.154632445,72713
3890,47.0,0.154987825,72902
3900,46.0,0.155337645,73087
3910,44.0,0.155690458,73276
3920,44.0,0.156064654,73460
3930,44.0,0.15643714,73640
3940,46.0,0.156790381,73831
3950,44.0,0.157195796,74013
3960,44.0,0.157591375,74199
3970,44.0,0.157956163,74381
3980,44.0,0.158318812999,74570
3990,46.0,0.158769986999,74755
4000,46.0,0.159166848999,74941
4010,44.0,0.159543610999,75130
4020,44.0,0.159932774999,75318
4030,44.0,0.160303122,75509
4040,44.0,0.160708536999,75695
4050,44.0,0.161098983999,75884
4060,44.0,0.161467620999,76076
4070,44.0,0.161857639999,76267
4080,44.0,0.162230980999,76455
4090,44.0,0.162601327999,76641
4100,44.0,0.162982365999,76832
4110,44.0,0.163351430999,77022
4120,44.0,0.163719639999,77207
4130,46.0,0.164090842999,77393
4140,44.0,0.164472309,77581
4150,44.0,0.164837952,77768
4160,44.0,0.165220273999,77956
4170,44.0,0.165710790999,78146
4180,47.0,0.166102949,78329
4190,46.0,0.166495107,78517
4200,44.0,0.166865882,78705
4210,44.0,0.167233236,78891
4220,44.0,0.167589043,79080
4230,44.0,0.167968799,79268
4240,47.0,0.16843323,79457
4250,47.0,0.168839073,79645
4260,47.0,0.169198729,79837
4270,47.0,0.169557102,80024
4280,47.0,0.169948831999,80207
4290,44.0,0.170307206,80394
4300,46.0,0.170789598999,80581
4310,46.0,0.171164223,80769
4320,44.0,0.171520457999,80955
4330,44.0,0.171886101999,81142
4340,44.0,0.172249179,81328
4350,44.0,0.172619954,81517
4360,46.0,0.172976188,81701
4370,46.0,0.173340121,81890
4380,46.0,0.173697639,82077
4390,46.0,0.174082099,82266
4400,46.0,0.174474256999,82450
4410,46.0,0.174845887999,82639
4420,46.0,0.175201695999,82817
4430,46.0,0.175560924999,83005
4440,46.0,0.175908606999,83192
4450,47.0,0.176269545999,83385
4460,46.0,0.176629629999,83566
4470,46.0,0.177022642999,83757
4480,46.0,0.177410523999,83943
4490,46.0,0.177768897,84128
4500,46.0,0.178128981,84317
4510,46.0,0.178489492999,84504
4520,47.0,0.178846582999,84695
4530,46.0,0.179207948999,84883
4540,46.0,0.179563755999,85068
4550,46.0,0.179922128999,85253
4560,46.0,0.180279645999,85437
4570,46.0,0.180650420999,85618
4580,46.0,0.181011359999,85805
4590,46.0,0.181365456999,85987
4600,46.0,0.181723401999,86174
4610,46.0,0.182080063999,86355
4620,47.0,0.182444424999,86544
4630,46.0,0.182848983999,86732
4640,46.0,0.183232160999,86913
4650,46.0,0.183608494999,87098
4660,46.0,0.183985684999,87284
4670,46.0,0.184359881999,87473
4680,46.0,0.184745196999,87662
4690,46.0,0.185111694999,87851
4700,46.0,0.185508556999,88042
4710,46.0,0.185875910999,88233
4720,46.0,0.186233000999,88418
4730,46.0,0.186628579999,88606
4740,46.0,0.186993795999,88800
4750,47.0,0.187350458999,88988
4760,49.0,0.187723799999,89177
4770,46.0,0.188094574999,89362
4780,47.0,0.188455513999,89543
4790,46.0,0.188825005999,89729
4800,46.0,0.189194070999,89907
4810,46.0,0.189559286999,90093
4820,49.0,0.189917231999,90281
4830,46.0,0.190295276999,90468
4840,47.0,0.190699408999,90648
4850,46.0,0.191080446999,90835
4860,46.0,0.191447372999,91021
4870,46.0,0.192296690999,91207
4880,46.0,0.192685426999,91398
4890,46.0,0.193072452999,91590
4900,47.0,0.193453491999,91777
4910,46.0,0.193866604999,91959
4920,46.0,0.194249781999,92149
4930,47.0,0.194745003999,92338
4940,47.0,0.195123476999,92528
4950,47.0,0.195498528999,92718
4960,49.0,0.195968946999,92908
4970,47.0,0.196350840999,93100
4980,49.0,0.196757538999,93284
4990,49.0,0.197162526999,93471
