it,funval,time,funcount
0,14.0,0.0015994219998,738
10,18.0,0.00324374699994,1385
20,21.0,0.00482648999969,2021
30,22.0,0.00645413699976,2668
40,22.0,0.00827593799977,3304
50,24.0,0.00991170999941,3930
60,24.0,0.0115538969994,4561
70,24.0,0.0131503249991,5189
80,24.0,0.0148113289988,5825
90,24.0,0.016519374999,6459
100,24.0,0.0182235719994,7098
110,24.0,0.0198747399995,7733
120,25.0,0.0215772259994,8360
130,25.0,0.0232655989994,8988
140,24.0,0.0249454199993,9622
150,24.0,0.0265923119991,10251
160,24.0,0.028340984999,10875
170,25.0,0.030061432999,11494
180,24.0,0.0316839479992,12132
190,25.0,0.033299192999,12766
200,24.0,0.0352321839991,13396
210,24.0,0.0368358819992,14023
220,24.0,0.0389921079991,14654
230,24.0,0.040625314999,15296
240,24.0,0.0422807599989,15936
250,24.0,0.043909262999,16570
260,24.0,0.0455942149993,17207
270,24.0,0.0472098869996,17842
280,24.0,0.0489803699993,18470
290,25.0,0.0506135769992,19105
300,25.0,0.0522224069991,19732
310,24.0,0.0539578229991,20351
320,27.0,0.0555734959989,20976
330,25.0,0.0571878859987,21617
340,25.0,0.0588591539986,22246
350,25.0,0.0604778199986,22876
360,25.0,0.0621093159984,23511
370,25.0,0.0644541369984,24149
380,25.0,0.0660715209988,24773
390,25.0,0.0677393669985,25405
400,25.0,0.0695350819983,26039
410,25.0,0.0711913819982,26663
420,25.0,0.0727728429979,27303
430,27.0,0.0744026289981,27935
440,27.0,0.0760208669981,28561
450,28.0,0.0779217839981,29191
460,28.0,0.0795635429981,29804
470,28.0,0.0811830649982,30431
480,28.0,0.082798309998,31051
490,28.0,0.0843925999984,31668
500,28.0,0.0860506099984,32306
510,28.0,0.0876243729986,32927
520,28.0,0.0908963449988,33559
530,28.0,0.0929281239987,34189
540,35.0,0.0946331759988,34827
550,35.0,0.096294178999,35453
560,37.0,0.0979765659986,36078
570,36.0,0.0996375699983,36718
580,37.0,0.101271203998,37340
590,37.0,0.102930496998,37987
600,37.0,0.104560709998,38612
610,37.0,0.106185790998,39245
620,40.0,0.107850215998,39880
630,41.0,0.109512502998,40515
640,40.0,0.111107648998,41133
650,40.0,0.115069852998,41762
660,40.0,0.116699210998,42401
670,40.0,0.118281953998,43018
680,40.0,0.119961773998,43652
690,40.0,0.121607381998,44292
700,40.0,0.123243154998,44929
710,40.0,0.124886196998,45560
720,40.0,0.126527955998,46187
730,40.0,0.128145765998,46825
740,46.0,0.129956447999,47453
750,46.0,0.131568271998,48088
760,46.0,0.133189931998,48708
770,46.0,0.134852646998,49341
780,46.0,0.136479438998,49970
790,46.0,0.138126329998,50608
800,46.0,0.139776642998,51229
810,46.0,0.141417118998,51854
820,46.0,0.143068285998,52487
830,46.0,0.145589299998,53106
840,46.0,0.147468834999,53740
850,46.0,0.149096908999,54369
860,46.0,0.150783144999,55006
870,46.0,0.152409936999,55641
880,46.0,0.154044425999,56274
890,47.0,0.155680197999,56918
900,47.0,0.157333503999,57552
910,47.0,0.158970130999,58189
920,50.0,0.160613172999,58820
930,50.0,0.162224568999,59461
940,50.0,0.163964260998,60084
950,50.0,0.165643226998,60720
960,50.0,0.167294394998,61347
970,49.0,0.168977635999,61989
980,50.0,0.170642916999,62608
990,50.0,0.172285530999,63235
1000,50.0,0.173927289999,63865
1010,50.0,0.175555791999,64505
1020,49.0,0.177234329999,65139
1030,50.0,0.178858554998,65773
1040,50.0,0.180630320998,66412
1050,51.0,0.182264382998,67047
1060,52.0,0.183877061998,67672
1070,52.0,0.185544480998,68299
1080,52.0,0.187190089998,68933
1090,52.0,0.188827999998,69562
1100,52.0,0.190452653999,70191
1110,52.0,0.192102538999,70799
1120,52.0,0.193842658999,71440
1130,52.0,0.195475009999,72077
1140,52.0,0.197072292998,72716
1150,52.0,0.198737573998,73352
1160,52.0,0.200389168998,73972
1170,52.0,0.202060008998,74611
1180,52.0,0.203718446998,75258
1190,52.0,0.205549656998,75910
1200,52.0,0.207302178998,76541
1210,52.0,0.209052989998,77176
1220,52.0,0.210750771998,77794
1230,52.0,0.212372003999,78416
1240,52.0,0.213987676998,79038
1250,52.0,0.215642693998,79667
1260,54.0,0.217273333998,80275
1270,52.0,0.218898841998,80924
1280,55.0,0.220486289998,81555
1290,52.0,0.222082290999,82187
1300,55.0,0.223704378998,82815
1310,55.0,0.225329032999,83452
1320,55.0,0.226917762999,84083
1330,52.0,0.228541133999,84711
1340,52.0,0.230158516999,85328
1350,52.0,0.231831494999,85968
1360,52.0,0.233477958999,86594
1370,52.0,0.235114586999,87231
1380,52.0,0.236751214999,87852
1390,52.0,0.238413073999,88490
1400,54.0,0.240100591999,89113
1410,53.0,0.241680769999,89752
1420,54.0,0.243281474999,90399
1430,54.0,0.245172128999,91039
1440,55.0,0.246798492999,91676
1450,55.0,0.248444100999,92308
1460,57.0,0.250079445999,92937
1470,61.0,0.251767390999,93566
1480,57.0,0.253365101998,94198
1490,57.0,0.254980346999,94823
1500,57.0,0.256617402999,95471
1510,57.0,0.258270280999,96121
1520,57.0,0.259919738999,96749
1530,57.0,0.261542253999,97394
1540,61.0,0.265394978999,98041
1550,61.0,0.267035455999,98678
1560,61.0,0.268719125998,99308
1570,61.0,0.270354897998,99953
1580,61.0,0.272002216998,100582
1590,61.0,0.273653384998,101203
1600,61.0,0.275520516999,101830
1610,61.0,0.277177244999,102470
1620,61.0,0.278850649999,103104
1630,61.0,0.280435103999,103722
1640,61.0,0.282073014999,104350
1650,61.0,0.283768658999,104986
1660,61.0,0.285411701999,105617
1670,61.0,0.287026091999,106245
1680,61.0,0.288649034999,106882
1690,61.0,0.290262569999,107508
1700,61.0,0.291888933999,108143
1710,61.0,0.293530693999,108776
1720,61.0,0.295170314999,109391
1730,65.0,0.296915993999,110016
1740,65.0,0.298556042999,110640
1750,70.0,0.300204216999,111274
1760,70.0,0.302039703999,111926
1770,70.0,0.303911967999,112559
1780,70.0,0.305566985,113187
1790,70.0,0.307272465,113823
1800,70.0,0.308903532999,114457
1810,70.0,0.311268454,115088
1820,70.0,0.312884554,115710
1830,70.0,0.314525886,116331
1840,70.0,0.316186462,116964
1850,70.0,0.317828649,117588
1860,70.0,0.319481099,118214
1870,71.0,0.32112243,118836
1880,70.0,0.322840312,119466
1890,70.0,0.324493191,120102
1900,70.0,0.326197816,120735
1910,71.0,0.327852833001,121372
1920,71.0,0.329521107,122002
1930,71.0,0.331178262,122627
1940,71.0,0.33281318,123260
1950,70.0,0.334484875,123890
1960,70.0,0.336130055,124519
1970,70.0,0.337752142,125156
1980,70.0,0.339380644,125798
1990,70.0,0.341026680001,126437
2000,70.0,0.342695810001,127067
2010,71.0,0.344317897001,127683
2020,70.0,0.345948537001,128310
2030,70.0,0.347600988001,128958
2040,71.0,0.349320152001,129574
2050,71.0,0.350996979001,130205
2060,70.0,0.352646863001,130844
2070,73.0,0.354277931001,131479
2080,71.0,0.355926105001,132093
2090,73.0,0.357572568002,132721
2100,73.0,0.359230151002,133343
2110,73.0,0.360874476001,133980
2120,73.0,0.362519229001,134610
2130,73.0,0.364174245001,135245
2140,74.0,0.365802747001,135868
2150,74.0,0.367463751001,136488
2160,73.0,0.369125610001,137132
2170,73.0,0.370867440001,137774
2180,73.0,0.372564367001,138398
2190,73.0,0.374257873002,139028
2200,73.0,0.375992433002,139636
2210,74.0,0.377692781002,140275
2220,74.0,0.379364903002,140905
2230,73.0,0.381085351002,141534
2240,73.0,0.382707439002,142160
2250,73.0,0.384397095002,142785
2260,73.0,0.386105568002,143417
2270,73.0,0.387797791002,144050
2280,73.0,0.389432708002,144689
2290,73.0,0.391044959002,145326
2300,73.0,0.392720503002,145961
2310,74.0,0.394378086002,146594
2320,73.0,0.396032248002,147229
2330,74.0,0.397642361002,147874
2340,74.0,0.399350835002,148516
2350,74.0,0.401004568002,149140
2360,73.0,0.402600996002,149776
2370,73.0,0.404256012002,150406
2380,73.0,0.405965768003,151038
2390,73.0,0.407630620003,151673
2400,73.0,0.409286492003,152296
2410,73.0,0.410910290002,152917
2420,73.0,0.412566162002,153546
2430,74.0,0.414177558002,154177
2440,73.0,0.415830864003,154804
2450,73.0,0.417402061003,155436
2460,73.0,0.419062637002,156057
2470,73.0,0.420707390002,156694
2480,73.0,0.422351288002,157321
2490,73.0,0.426281418002,157945
2500,73.0,0.427986470002,158583
2510,74.0,0.429734715002,159228
2520,73.0,0.431364073002,159868
2530,73.0,0.432998562002,160502
2540,74.0,0.434639894002,161129
2550,73.0,0.436283364002,161770
2560,74.0,0.437924696002,162406
2570,74.0,0.439637446002,163031
2580,74.0,0.441427601002,163665
2590,74.0,0.443104000002,164295
2600,74.0,0.444785103002,164923
2610,75.0,0.446421731002,165555
2620,75.0,0.448069478002,166200
2630,73.0,0.449753147002,166825
2640,73.0,0.451376090003,167454
2650,73.0,0.452981926003,168094
2660,73.0,0.454608718003,168726
2670,73.0,0.456256465003,169352
2680,73.0,0.457901218003,169991
2690,74.0,0.459636206003,170619
2700,74.0,0.461332277003,171248
2710,73.0,0.463024500003,171876
2720,73.0,0.464678661003,172498
2730,73.0,0.466342658003,173137
2740,73.0,0.468047282003,173758
2750,73.0,0.470104293003,174378
2760,73.0,0.471785824003,175007
2770,73.0,0.473440841003,175634
2780,73.0,0.475092864003,176275
2790,73.0,0.476833412003,176915
2800,73.0,0.478576953003,177550
2810,73.0,0.480225983003,178190
2820,73.0,0.481919060002,178817
2830,73.0,0.483655331002,179462
2840,73.0,0.485353968003,180090
2850,73.0,0.487064580002,180722
2860,73.0,0.488718314003,181354
2870,73.0,0.490416096003,181990
2880,73.0,0.492124141003,182607
2890,73.0,0.493731689003,183231
2900,73.0,0.495401246003,183854
2910,73.0,0.497035735003,184475
2920,73.0,0.498642000003,185107
2930,73.0,0.500285042003,185737
2940,74.0,0.501940914003,186362
2950,73.0,0.503559152003,186985
2960,74.0,0.505206043003,187612
2970,73.0,0.506860204003,188248
2980,74.0,0.508551999003,188886
2990,73.0,0.510194186003,189502
3000,73.0,0.511829958002,190127
3010,73.0,0.513490534002,190747
3020,73.0,0.515134004002,191373
3030,74.0,0.517181179003,192013
3040,74.0,0.518955511003,192653
3050,73.0,0.520606679003,193272
3060,74.0,0.522791130003,193905
3070,74.0,0.524701455003,194534
3080,73.0,0.526523256003,195165
3090,73.0,0.528277916003,195807
3100,73.0,0.529970567003,196432
3110,73.0,0.531844115003,197070
3120,73.0,0.533523080003,197701
3130,73.0,0.535230270003,198332
3140,73.0,0.537002891003,198943
3150,73.0,0.538638236003,199578
3160,74.0,0.540448491003,200214
3170,73.0,0.542068013003,200847
3180,84.0,0.543699937003,201485
3190,85.0,0.545303207003,202119
3200,85.0,0.546935986003,202753
3210,85.0,0.549146951003,203388
3220,85.0,0.550793842003,204021
3230,86.0,0.552517284003,204652
3240,85.0,0.554203520003,205281
3250,85.0,0.555897025003,205911
3260,86.0,0.557531087003,206552
3270,85.0,0.559231435003,207187
3280,85.0,0.560976259003,207820
3290,85.0,0.562644533004,208443
3300,85.0,0.564255501004,209070
3310,85.0,0.565939598004,209695
3320,85.0,0.567614287004,210326
3330,85.0,0.569242789004,210962
3340,85.0,0.570938005004,211586
3350,88.0,0.572809842004,212212
3360,94.0,0.574440055004,212842
3370,87.0,0.576102770004,213469
3380,88.0,0.577731272004,214107
3390,88.0,0.579375598003,214737
3400,88.0,0.581032326003,215376
3410,87.0,0.582675796004,215995
3420,88.0,0.586556746004,216626
3430,88.0,0.588225447004,217258
3440,88.0,0.589859082004,217896
3450,88.0,0.591503835004,218532
3460,88.0,0.593152009004,219175
3470,88.0,0.594848936004,219796
3480,88.0,0.596439377004,220426
3490,88.0,0.598090544004,221054
3500,88.0,0.599757107004,221678
3510,88.0,0.601424097004,222307
3520,88.0,0.603092798004,222936
3530,88.0,0.604759789004,223560
3540,85.0,0.606422503004,224191
3550,90.0,0.608057848004,224817
3560,85.0,0.609704740004,225445
3570,85.0,0.611349920004,226073
3580,85.0,0.612989114004,226702
3590,85.0,0.614624886004,227336
3600,85.0,0.616291877004,227979
3610,85.0,0.617960151004,228619
3620,85.0,0.619551020004,229257
3630,85.0,0.621200050004,229896
3640,85.0,0.622865330004,230517
3650,85.0,0.624481431004,231149
3660,85.0,0.626179641004,231780
3670,86.0,0.627884693004,232421
3680,85.0,0.629560237004,233052
3690,85.0,0.631219958004,233679
3700,85.0,0.632845467004,234307
3710,86.0,0.634453442004,234936
3720,85.0,0.636102044004,235556
3730,86.0,0.637810945005,236185
3740,85.0,0.639440303005,236816
3750,85.0,0.641064529005,237450
3760,85.0,0.642691748004,238084
3770,85.0,0.644327948005,238707
3780,85.0,0.645965859005,239326
3790,85.0,0.647630712005,239965
3800,85.0,0.649293426005,240591
3810,86.0,0.650973674005,241227
3820,86.0,0.652682147005,241863
3830,86.0,0.654353415005,242492
3840,86.0,0.655989615005,243123
3850,86.0,0.657651902005,243770
3860,86.0,0.659268858005,244394
3870,86.0,0.660900781005,245032
3880,86.0,0.662540830005,245657
3890,86.0,0.664196274005,246289
3900,88.0,0.665829052005,246915
3910,86.0,0.667508017005,247537
3920,85.0,0.669162606005,248160
3930,86.0,0.670810352005,248796
3940,85.0,0.672444414005,249417
3950,86.0,0.674159302005,250043
3960,86.0,0.675828004005,250662
3970,86.0,0.677504831005,251297
3980,85.0,0.679159848005,251931
3990,85.0,0.680786211005,252569
4000,85.0,0.682419418005,253195
4010,86.0,0.684026966005,253824
4020,86.0,0.685667443005,254436
4030,91.0,0.687419109005,255073
4040,91.0,0.689220811005,255692
4050,86.0,0.690988301005,256311
4060,85.0,0.692645456005,256952
4070,86.0,0.694330409005,257586
4080,85.0,0.695999111005,258228
4090,86.0,0.697619915005,258851
4100,85.0,0.699287761006,259488
4110,86.0,0.700938929005,260123
4120,86.0,0.702596939005,260748
4130,85.0,0.704247679005,261386
4140,85.0,0.705874471005,262017
4150,85.0,0.707520080005,262644
4160,85.0,0.709129766005,263274
4170,85.0,0.710715931005,263902
4180,85.0,0.712381212005,264527
4190,85.0,0.714054618005,265150
4200,85.0,0.715718615005,265789
4210,86.0,0.717376626005,266431
4220,86.0,0.719033781005,267062
4230,85.0,0.720684521005,267706
4240,85.0,0.722325425006,268333
4250,85.0,0.723955210005,268966
4260,85.0,0.725579863005,269598
4270,85.0,0.727215635005,270226
4280,85.0,0.728861243005,270854
4290,85.0,0.730484186005,271485
4300,85.0,0.732128083006,272119
4310,85.0,0.733774546005,272749
4320,86.0,0.738193483005,273370
4330,86.0,0.739919062005,273994
4340,86.0,0.741879423005,274622
4350,86.0,0.743527597006,275258
4360,86.0,0.745171068006,275900
4370,86.0,0.746829506006,276531
4380,86.0,0.748463140006,277167
4390,86.0,0.750094208006,277799
4400,87.0,0.751735967006,278426
4410,87.0,0.753479935006,279057
4420,87.0,0.755176006006,279689
4430,86.0,0.756825891006,280320
4440,86.0,0.758424458006,280941
4450,86.0,0.760060231005,281564
4460,86.0,0.761678898005,282201
4470,86.0,0.763555439005,282820
4480,86.0,0.765253649005,283452
4490,86.0,0.766881296005,284085
4500,86.0,0.768522200005,284711
4510,86.0,0.770211857005,285357
4520,86.0,0.771857037005,285994
4530,86.0,0.773459880005,286630
4540,86.0,0.775100357005,287257
4550,86.0,0.776774618005,287896
4560,86.0,0.778442892004,288520
4570,88.0,0.780088073005,289154
4580,88.0,0.781765328005,289792
4590,87.0,0.783439589005,290424
4600,87.0,0.785083915005,291057
4610,87.0,0.786738504005,291690
4620,87.0,0.788435003005,292330
4630,87.0,0.790096434005,292975
4640,87.0,0.791749741005,293602
4650,87.0,0.793400908005,294229
4660,87.0,0.795289423005,294861
4670,87.0,0.796978652005,295492
4680,87.0,0.798594325006,296122
4690,87.0,0.800312634005,296756
4700,87.0,0.802077130005,297388
4710,87.0,0.803790308005,298012
4720,87.0,0.805420521006,298642
4730,87.0,0.807159357006,299269
4740,87.0,0.808806248006,299914
4750,88.0,0.810475377006,300540
4760,88.0,0.812209082006,301173
4770,88.0,0.813902588006,301808
4780,88.0,0.815556749006,302446
4790,95.0,0.817230582006,303067
4800,92.0,0.818882605005,303702
4810,90.0,0.820529069005,304332
4820,98.0,0.822163986005,304965
4830,98.0,0.823811305005,305599
4840,96.0,0.825479579005,306234
4850,98.0,0.827158544005,306871
4860,98.0,0.828789184005,307488
4870,98.0,0.830465583004,308123
4880,98.0,0.832195439004,308751
4890,96.0,0.833847890004,309382
4900,96.0,0.835548665004,310012
4910,98.0,0.837273389005,310647
4920,98.0,0.838898470005,311293
4930,95.0,0.840603094005,311925
4940,95.0,0.842315844005,312550
4950,95.0,0.843969577004,313187
4960,95.0,0.845811478005,313815
4970,95.0,0.847590086005,314444
4980,95.0,0.849360141005,315089
4990,95.0,0.851088714005,315717
