it,funval,time,funcount
0,29.0,0.000169349999993,281
10,30.0,0.000348964000011,464
20,30.0,0.000534993000031,652
30,30.0,0.00071931200003,830
40,30.0,0.000898499000044,1017
50,31.0,0.00107597500005,1202
60,34.0,0.00125430600005,1388
70,34.0,0.00143349200005,1575
80,33.0,0.00163748200006,1761
90,34.0,0.00184403900008,1947
100,33.0,0.00204503600008,2137
110,33.0,0.0022233680001,2319
120,33.0,0.00242693100012,2505
130,33.0,0.0026138150001,2695
140,33.0,0.00278915300009,2883
150,33.0,0.0029632080001,3065
160,34.0,0.00314325000011,3251
170,34.0,0.00333355600011,3438
180,33.0,0.0035268550001,3622
190,34.0,0.00372058200011,3809
200,34.0,0.00390703800011,3993
210,34.0,0.00409862600011,4187
220,34.0,0.0042812340001,4371
230,35.0,0.0044800930001,4561
240,34.0,0.00466997100011,4755
250,35.0,0.00485129600011,4943
260,34.0,0.0050638400001,5131
270,35.0,0.00537046700009,5317
280,35.0,0.0055915640001,5504
290,35.0,0.00578486300012,5693
300,35.0,0.00597773400011,5879
310,35.0,0.0062048180001,6067
320,35.0,0.00640838100011,6251
330,35.0,0.00669490800013,6439
340,35.0,0.00693738700014,6624
350,35.0,0.00715164100015,6810
360,35.0,0.00734451300013,6996
370,35.0,0.00754251600014,7186
380,35.0,0.00775292100013,7375
390,35.0,0.00794151600013,7561
400,35.0,0.00814764500015,7749
410,35.0,0.00833666700015,7936
420,35.0,0.00853210400015,8124
430,35.0,0.00872583100016,8314
440,35.0,0.00891399800014,8504
450,35.0,0.00909959900014,8683
460,35.0,0.00929118800013,8872
470,35.0,0.00947294000011,9060
480,35.0,0.0096593960001,9249
490,35.0,0.00987493300011,9432
500,35.0,0.0100750740001,9621
510,35.0,0.0102705110001,9808
520,35.0,0.0104620990001,9996
530,35.0,0.0106699390001,10179
540,35.0,0.0108662320001,10364
550,35.0,0.0110586760001,10554
560,35.0,0.0112759240001,10746
570,35.0,0.0114893220001,10925
580,35.0,0.0117219650001,11116
590,35.0,0.0119131260001,11308
600,35.0,0.0121025760001,11496
610,35.0,0.0122967300001,11688
620,35.0,0.0124938780001,11881
630,35.0,0.0126923090001,12065
640,35.0,0.0128928780001,12253
650,35.0,0.0131126920001,12436
660,35.0,0.0133021420001,12624
670,35.0,0.0134860320001,12810
680,35.0,0.0136990030001,13003
690,35.0,0.0139085530002,13191
700,35.0,0.0141168200002,13385
710,35.0,0.0143186720001,13575
720,35.0,0.0145384860001,13768
730,35.0,0.0147659970002,13962
740,35.0,0.0149943640002,14143
750,35.0,0.0151799650002,14329
760,35.0,0.0153724090002,14517
770,35.0,0.0155652800002,14701
780,35.0,0.0157513090002,14892
790,35.0,0.0159458910002,15082
800,35.0,0.0161597180002,15270
810,35.0,0.0163436090002,15459
820,35.0,0.0165399020002,15645
830,35.0,0.0167233650002,15830
840,35.0,0.0169123870002,16011
850,35.0,0.0171031200002,16200
860,35.0,0.0172934260002,16388
870,35.0,0.0174815930002,16576
880,35.0,0.0176697610002,16764
890,35.0,0.0178660540002,16951
900,35.0,0.0180580700002,17146
910,35.0,0.0182697580002,17331
920,35.0,0.0184716100002,17518
930,35.0,0.0186726060002,17702
940,35.0,0.0188530750002,17892
950,35.0,0.0190515060002,18080
960,35.0,0.0192683260002,18269
970,35.0,0.0195048180002,18452
980,35.0,0.0197301910002,18638
990,35.0,0.0199354640002,18825
1000,35.0,0.0201398820002,19011
1010,35.0,0.0203584130002,19200
1020,35.0,0.0205585550002,19391
1030,35.0,0.0207843560002,19585
1040,35.0,0.0209793660002,19775
1050,35.0,0.0215130770002,19966
1060,35.0,0.0217174950001,20148
1070,35.0,0.0219018130001,20337
1080,35.0,0.0220916910001,20525
1090,35.0,0.0222845630001,20708
1100,35.0,0.0224654600001,20899
1110,35.0,0.0226703060001,21090
1120,35.0,0.0228567630001,21275
1130,35.0,0.0230385150001,21462
1140,35.0,0.0232437880001,21652
1150,34.0,0.0234430750001,21835
1160,34.0,0.0236543350001,22025
1170,35.0,0.023851483,22215
1180,35.0,0.0240422160001,22403
1190,34.0,0.0242303830001,22583
1200,35.0,0.0244206890001,22770
1210,35.0,0.0246678720001,22962
1220,35.0,0.0248594600001,23147
1230,35.0,0.0250557530001,23328
1240,35.0,0.0252460580001,23514
1250,35.0,0.0289807510001,23702
1260,35.0,0.0291843140001,23889
1270,35.0,0.0293724810001,24076
1280,35.0,0.0295674900001,24261
1290,35.0,0.0297590780002,24449
1300,35.0,0.0300297820002,24639
1310,34.0,0.0302115340002,24825
1320,34.0,0.0304039770002,25010
1330,34.0,0.0306075400002,25199
1340,35.0,0.0307850160002,25385
1350,35.0,0.0309813090002,25574
1360,34.0,0.0311848720002,25757
1370,35.0,0.0313794540002,25934
1380,35.0,0.0315659110002,26122
1390,35.0,0.0317840140002,26306
1400,35.0,0.0320046830002,26492
1410,35.0,0.0322514380002,26677
1420,35.0,0.0324656920002,26865
1430,35.0,0.0326889270002,27057
1440,35.0,0.0329510780003,27239
1450,35.0,0.0331452320003,27430
1460,35.0,0.0333325440003,27615
1470,35.0,0.0335391000003,27794
1480,35.0,0.0337597690003,27977
1490,35.0,0.0339607660002,28164
1500,35.0,0.0341707440002,28353
1510,35.0,0.0343589110002,28540
1520,35.0,0.0345543480002,28724
1530,35.0,0.0347647530002,28911
1540,35.0,0.0349862780002,29098
1550,35.0,0.0352142170003,29281
1560,35.0,0.0354301810003,29469
1570,35.0,0.0356196310003,29657
1580,35.0,0.0358039500003,29842
1590,35.0,0.0360186320002,30028
1600,35.0,0.0362217670002,30214
1610,35.0,0.0364706610002,30404
1620,35.0,0.0366797830002,30592
1630,35.0,0.0368632460002,30776
1640,35.0,0.0370432880002,30966
1650,35.0,0.0372472790002,31154
1660,35.0,0.0374328800002,31338
1670,35.0,0.0376137770002,31526
1680,35.0,0.0377933920002,31708
1690,35.0,0.0380144880002,31893
1700,35.0,0.0382368680002,32078
1710,35.0,0.0386029390002,32269
1720,35.0,0.0388184760002,32460
1730,35.0,0.0390391450002,32645
1740,35.0,0.0392820520002,32827
1750,35.0,0.0394937400002,33016
1760,35.0,0.0396814800002,33207
1770,35.0,0.0398773450002,33389
1780,35.0,0.0400650850002,33574
1790,35.0,0.0402536800002,33762
1800,35.0,0.0404452690002,33956
1810,35.0,0.0406672210002,34143
1820,35.0,0.0408784810002,34336
1830,35.0,0.0410679310002,34519
1840,35.0,0.0412616580002,34707
1850,35.0,0.0414810440002,34892
1860,35.0,0.0417786900002,35076
1870,35.0,0.0420066290002,35261
1880,35.0,0.0422183180002,35450
1890,35.0,0.0424270130002,35640
1900,35.0,0.0426275830002,35834
1910,35.0,0.0428461140002,36020
1920,35.0,0.0430501050002,36203
1930,35.0,0.0432421210002,36391
1940,35.0,0.0434409790002,36581
1950,35.0,0.0436312840002,36764
1960,35.0,0.0438288600002,36956
1970,35.0,0.0440161720002,37140
1980,35.0,0.0442051950002,37329
1990,35.0,0.0443980660002,37518
2000,35.0,0.0445913650002,37703
2010,35.0,0.0447756830002,37891
2020,35.0,0.0449621400002,38080
2030,35.0,0.0451588600002,38263
2040,35.0,0.0453560080002,38442
2050,35.0,0.0455484510002,38632
2060,35.0,0.0457494480002,38812
2070,35.0,0.0459418920002,38998
2080,35.0,0.0461300590002,39188
2090,35.0,0.0463148050002,39377
2100,35.0,0.0465081040002,39561
2110,35.0,0.0467116670002,39749
2120,35.0,0.0468874330002,39928
2130,35.0,0.0470798760002,40119
2140,35.0,0.0472680430002,40306
2150,35.0,0.0474887120002,40494
2160,35.0,0.0476854320002,40677
2170,35.0,0.0478860010002,40863
2180,35.0,0.0480728860002,41051
2190,35.0,0.0482901330002,41236
2200,35.0,0.0484924130002,41424
2210,35.0,0.0486895610002,41611
2220,35.0,0.0488773010002,41802
2230,35.0,0.0490569150002,41988
2240,35.0,0.0492378120002,42177
2250,35.0,0.0494178540002,42373
2260,35.0,0.0496231280002,42551
2270,35.0,0.0498959710002,42735
2280,35.0,0.0501153570002,42924
2290,35.0,0.0503210580002,43110
2300,35.0,0.0505233380002,43299
2310,35.0,0.0507187760002,43480
2320,35.0,0.0509073710002,43659
2330,35.0,0.0511130720002,43842
2340,35.0,0.0513162080002,44026
2350,35.0,0.0515073680002,44211
2360,35.0,0.0517083650002,44402
2370,35.0,0.0519418630002,44590
2380,35.0,0.0521445700002,44778
2390,35.0,0.0523417180002,44968
2400,35.0,0.0525294580002,45161
2410,35.0,0.0527146320002,45349
2420,35.0,0.0529083590002,45529
2430,35.0,0.0530969540002,45711
2440,35.0,0.0532928190002,45891
2450,35.0,0.0534903940002,46080
2460,35.0,0.0536982340002,46271
2470,35.0,0.0539146260002,46456
2480,35.0,0.0541224660002,46645
2490,35.0,0.0545847590002,46831
2500,35.0,0.0547720710001,47020
2510,35.0,0.0549649430001,47212
2520,35.0,0.0552189680001,47398
2530,35.0,0.0554101290001,47583
2540,35.0,0.0555970140001,47770
2550,35.0,0.0557967280001,47955
2560,35.0,0.0559917380001,48144
2570,35.0,0.0561803330001,48326
2580,35.0,0.0563800470001,48519
2590,35.0,0.0565810440001,48705
2600,35.0,0.0567799030001,48893
2610,35.0,0.0569676420001,49078
2620,35.0,0.0571459730001,49267
2630,35.0,0.0575137540001,49454
2640,35.0,0.0577233040001,49645
2650,35.0,0.0579106160001,49834
2660,35.0,0.0581043430001,50026
2670,35.0,0.058302774,50214
2680,35.0,0.058499494,50404
2690,35.0,0.058694503,50586
2700,35.0,0.058904053,50777
2710,35.0,0.059096496,50968
2720,35.0,0.059297493,51153
2730,35.0,0.059493358,51340
2740,35.0,0.059692217,51528
2750,35.0,0.059879101,51720
2760,35.0,0.060068551,51907
2770,35.0,0.060264844,52092
2780,35.0,0.060454722,52277
2790,35.0,0.060642462,52468
2800,35.0,0.060837044,52655
2810,35.0,0.0610346189999,52845
2820,35.0,0.0612458799999,53028
2830,35.0,0.0614374689999,53209
2840,35.0,0.0616457359999,53398
2850,35.0,0.06183818,53579
2860,35.0,0.062042598,53771
2870,35.0,0.062232048,53964
2880,35.0,0.062427057,54151
2890,35.0,0.0626135139999,54336
2900,35.0,0.0628243469999,54521
2910,35.0,0.063021068,54707
2920,35.0,0.0632280519999,54892
2930,35.0,0.0634187849999,55079
2940,35.0,0.0636142219999,55267
2950,35.0,0.0637964029999,55452
2960,35.0,0.0639973999999,55636
2970,35.0,0.064199252,55817
2980,35.0,0.064386136,56000
2990,35.0,0.064575158,56186
3000,35.0,0.064765036,56373
3010,35.0,0.06496475,56561
3020,35.0,0.065158477,56739
3030,35.0,0.065372303,56928
3040,35.0,0.065569878,57113
3050,35.0,0.065766171,57300
3060,35.0,0.065958615,57486
3070,35.0,0.066144644,57676
3080,35.0,0.066339227,57861
3090,35.0,0.066523118,58050
3100,35.0,0.066715989,58240
3110,35.0,0.066910998,58429
3120,35.0,0.067088046,58615
3130,35.0,0.067304866,58803
3140,35.0,0.067508857,58991
3150,35.0,0.06769959,59178
3160,35.0,0.067894172,59362
3170,35.0,0.06807678,59553
3180,35.0,0.068263236,59738
3190,35.0,0.068459957,59928
3200,35.0,0.0686579600001,60121
3210,35.0,0.0688495490001,60303
3220,35.0,0.0690372890001,60489
3230,35.0,0.0692511160001,60675
3240,35.0,0.069464515,60860
3250,35.0,0.0696616630001,61046
3260,35.0,0.0698494030001,61235
3270,35.0,0.0700320110001,61420
3280,35.0,0.070229159,61611
3290,35.0,0.070427162,61797
3300,35.0,0.07062602,61988
3310,35.0,0.07082103,62175
3320,35.0,0.0710280140001,62367
3330,35.0,0.0712486830001,62554
3340,35.0,0.071452246,62741
3350,35.0,0.071645546,62929
3360,35.0,0.071841411,63113
3370,35.0,0.072032999,63299
3380,35.0,0.0722318580001,63483
3390,35.0,0.0724384140001,63674
3400,35.0,0.0726364170001,63860
3410,35.0,0.0728348480001,64046
3420,35.0,0.0730234430001,64233
3430,35.0,0.0732287160001,64414
3440,35.0,0.0734378390001,64598
3450,35.0,0.0736242950001,64782
3460,35.0,0.0738094680001,64971
3470,35.0,0.0739929310001,65153
3480,35.0,0.0742041920001,65337
3490,35.0,0.0743983470001,65521
3500,35.0,0.0745920740001,65710
3510,35.0,0.0747810970001,65900
3520,35.0,0.0749833770001,66090
3530,35.0,0.0751860840001,66274
3540,35.0,0.075377673,66463
3550,35.0,0.0755722550001,66655
3560,35.0,0.0757711130001,66849
3570,35.0,0.0759973420001,67037
3580,35.0,0.0761979120001,67223
3590,35.0,0.0763929220001,67412
3600,35.0,0.0765892150001,67603
3610,35.0,0.0767760990001,67788
3620,35.0,0.0795353150001,67979
3630,35.0,0.0797303250001,68167
3640,35.0,0.0799257620001,68353
3650,35.0,0.0801156400001,68538
3660,35.0,0.0803200580001,68720
3670,35.0,0.0805278970001,68910
3680,35.0,0.0807229070001,69100
3690,35.0,0.0809226210001,69290
3700,35.0,0.0811163480001,69478
3710,35.0,0.0813113580001,69661
3720,35.0,0.0814956760001,69843
3730,35.0,0.0817077920001,70032
3740,35.0,0.0819173420001,70215
3750,35.0,0.0821658080002,70404
3760,35.0,0.0823762130001,70587
3770,35.0,0.0825699400002,70778
3780,35.0,0.0827820560002,70966
3790,35.0,0.0829638080002,71155
3800,35.0,0.0831814830001,71348
3810,35.0,0.0833833350001,71533
3820,35.0,0.0835642320001,71724
3830,35.0,0.0837425640001,71911
3840,35.0,0.0839367180001,72097
3850,35.0,0.0841283070001,72285
3860,35.0,0.0843156190001,72467
3870,35.0,0.0845042140001,72653
3880,35.0,0.0847090600001,72841
3890,35.0,0.0848946610001,73031
3900,35.0,0.0850943750001,73223
3910,35.0,0.0852893850001,73414
3920,35.0,0.0854997900001,73603
3930,35.0,0.0857136160001,73790
3940,35.0,0.0858992170001,73977
3950,35.0,0.0860967920001,74172
3960,35.0,0.0863384160002,74361
3970,35.0,0.0866518850002,74547
3980,35.0,0.0868464670002,74736
3990,35.0,0.0870525960001,74920
4000,35.0,0.0872450400001,75107
4010,35.0,0.0874314970002,75289
4020,35.0,0.0876466070002,75476
4030,35.0,0.0878634270002,75662
4040,35.0,0.0880665620002,75850
4050,35.0,0.0882825270002,76038
4060,35.0,0.0884753990002,76225
4070,35.0,0.0886588620002,76412
4080,35.0,0.0888675570002,76599
4090,35.0,0.0890694090002,76792
4100,35.0,0.0892627080002,76981
4110,35.0,0.0894756790002,77168
4120,35.0,0.0898276380002,77345
4130,35.0,0.0900277800002,77531
4140,35.0,0.0902168030002,77719
4150,35.0,0.0904776720002,77909
4160,35.0,0.0906684050002,78100
4170,35.0,0.0908604210002,78290
4180,35.0,0.0910708260002,78480
4190,35.0,0.0912589930003,78664
4200,35.0,0.0914428830002,78858
4210,35.0,0.0916383200002,79045
4220,35.0,0.0918423110002,79237
4230,35.0,0.0920454460002,79428
4240,35.0,0.0922494370002,79619
4250,35.0,0.0924517170002,79809
4260,35.0,0.0926467270002,79998
4270,35.0,0.0928425920002,80185
4280,35.0,0.0930384570002,80376
4290,35.0,0.0932394540002,80559
4300,35.0,0.0934301870002,80747
4310,35.0,0.0936264790002,80937
4320,35.0,0.0938283310002,81121
4330,35.0,0.0940259070002,81312
4340,35.0,0.0942132190002,81503
4350,35.0,0.0943971100002,81686
4360,35.0,0.0945912640002,81876
4370,35.0,0.0947764380002,82061
4380,35.0,0.0949671710002,82250
4390,35.0,0.0951621810002,82441
4400,35.0,0.0953507760002,82634
4410,35.0,0.0955534840002,82823
4420,35.0,0.0957352360002,83012
4430,35.0,0.0959127120002,83195
4440,35.0,0.0960910430002,83385
4450,35.0,0.0962826320002,83573
4460,35.0,0.0964618180002,83763
4470,35.0,0.0966397210002,83947
4480,35.0,0.0968402900002,84138
4490,35.0,0.0970348730002,84327
4500,35.0,0.0972286000002,84515
4510,35.0,0.0974180500002,84707
4520,35.0,0.0976164810002,84895
4530,35.0,0.0978465580002,85081
4540,35.0,0.0980428500002,85272
4550,35.0,0.0982635180002,85459
4560,35.0,0.0984538230002,85645
4570,35.0,0.0986419910002,85833
4580,35.0,0.0988301580002,86013
4590,35.0,0.0990268780002,86197
4600,35.0,0.0992090590002,86380
4610,35.0,0.0994203200002,86565
4620,35.0,0.0996273040003,86755
4630,35.0,0.0998351430003,86943
4640,35.0,0.100030581,87127
4650,35.0,0.10020763,87316
4660,35.0,0.100413759,87506
4670,35.0,0.100601071,87693
4680,35.0,0.100819601,87883
4690,35.0,0.101016749,88072
4700,35.0,0.101208337,88258
4710,35.0,0.101411044,88438
4720,35.0,0.101595362,88623
4730,35.0,0.101786095,88812
4740,35.0,0.101964426,88995
4750,35.0,0.102166705,89180
4760,35.0,0.102353162,89366
4770,35.0,0.102563568,89551
4780,35.0,0.102797494,89730
4790,35.0,0.103002768,89916
4800,35.0,0.103195212,90108
4810,35.0,0.103388939,90293
4820,35.0,0.103613457,90480
4830,35.0,0.103828566,90669
4840,35.0,0.104032557,90856
4850,35.0,0.104215592,91045
4860,35.0,0.104399483,91229
4870,35.0,0.104582946,91417
4880,35.0,0.104794634,91600
4890,35.0,0.104987078,91790
4900,35.0,0.105164554,91976
4910,35.0,0.105356571,92161
4920,35.0,0.1055627,92348
4930,35.0,0.105769684,92527
4940,35.0,0.105989498,92714
4950,35.0,0.106203325,92899
4960,35.0,0.106394058,93085
4970,35.0,0.106585219,93271
4980,35.0,0.106762267,93457
4990,35.0,0.106959415,93645
