it,funval,time,funcount
0,32.0,0.00614622800001,797
10,32.0,0.007563898,1500
20,35.0,0.00870573099999,2204
30,35.0,0.01000879,2901
40,33.0,0.010905578,3604
50,32.0,0.011764732,4303
60,34.0,0.012632012,4990
70,33.0,0.013578835,5697
80,33.0,0.014427726,6394
90,35.0,0.015297144,7090
100,35.0,0.016314958,7782
110,34.0,0.017173685,8475
120,33.0,0.01782329,9182
130,32.0,0.018390785,9884
140,32.0,0.018970682,10571
150,32.0,0.019541171,11265
160,34.0,0.020107383,11947
170,33.0,0.020700965,12643
180,35.0,0.021267177,13332
190,34.0,0.0218646079999,14024
200,33.0,0.0225364509999,14722
210,35.0,0.0231501329999,15416
220,35.0,0.0237851979999,16108
230,35.0,0.0245181949999,16803
240,35.0,0.0251010859999,17512
250,35.0,0.0256801279999,18216
260,35.0,0.0262548929999,18927
270,35.0,0.0270049959999,19620
280,35.0,0.0275951569999,20326
290,35.0,0.0281665019999,21022
300,35.0,0.0287511029999,21725
310,35.0,0.0293211639999,22420
320,35.0,0.0298937909999,23107
330,35.0,0.0305515209999,23801
340,35.0,0.0312195149999,24505
350,35.0,0.0326696859999,25211
360,35.0,0.0332649789999,25913
370,35.0,0.0338517189999,26620
380,35.0,0.0344303339999,27315
390,35.0,0.0350602659999,28009
400,35.0,0.0356487169999,28717
410,35.0,0.0362662479999,29426
420,35.0,0.0368512769999,30124
430,35.0,0.0374345949999,30819
440,35.0,0.0380174859999,31531
450,35.0,0.03858883,32222
460,35.0,0.039214058,32926
470,35.0,0.040290461,33625
480,35.0,0.0409293739999,34320
490,35.0,0.0415362139999,35031
500,35.0,0.042218748,35741
510,35.0,0.0428734849999,36450
520,35.0,0.0434841729999,37141
530,35.0,0.0883145979999,37839
540,35.0,0.0888611389999,38540
550,35.0,0.0895274219999,39243
560,35.0,0.0900872189999,39929
570,35.0,0.0906923479999,40628
580,35.0,0.0914711039999,41325
590,35.0,0.0920458689999,42009
600,35.0,0.0929388079999,42707
610,35.0,0.0935875579999,43407
620,35.0,0.0941465009999,44097
630,35.0,0.0946913309999,44797
640,35.0,0.0954559749999,45476
650,35.0,0.0960046529999,46179
660,35.0,0.0966084989999,46876
670,35.0,0.0971580329999,47565
680,35.0,0.0977849719999,48261
690,35.0,0.0983541779999,48947
700,35.0,0.0991406319999,49648
710,35.0,0.0997072719999,50345
720,35.0,0.100257234,51057
730,35.0,0.100815321,51758
740,34.0,0.101351598,52461
750,35.0,0.101964425,53158
760,35.0,0.10250284,53859
770,35.0,0.103066059,54571
780,35.0,0.103636976,55273
790,35.0,0.10426862,55978
800,35.0,0.104822431,56686
810,35.0,0.105461344,57381
820,35.0,0.106033971,58074
830,35.0,0.106600611,58781
840,35.0,0.107417428,59474
850,35.0,0.108182926,60173
860,35.0,0.108687984,60857
870,35.0,0.109145145,61553
880,35.0,0.109605727,62246
890,34.0,0.110068875,62936
900,35.0,0.110535872,63633
910,35.0,0.111010566,64340
920,35.0,0.111472858,65031
930,35.0,0.111932585,65738
940,35.0,0.112395733,66451
950,35.0,0.112854605,67145
960,35.0,0.113313477,67841
970,35.0,0.113776197,68536
980,35.0,0.114235924,69240
990,35.0,0.11469394,69941
1000,35.0,0.115175049,70648
1010,35.0,0.115649744,71348
1020,35.0,0.116110754,72055
1030,35.0,0.116570481,72771
1040,35.0,0.117178603,73476
1050,35.0,0.11766014,74184
1060,35.0,0.118124143,74876
1070,35.0,0.1185766,75559
1080,35.0,0.119044452,76261
1090,35.0,0.119499902,76965
1100,35.0,0.119951504,77666
1110,35.0,0.120423633,78343
1120,35.0,0.120888919,79031
1130,35.0,0.121351212,79715
1140,35.0,0.121820347,80413
1150,35.0,0.122279219,81114
1160,35.0,0.122739801,81809
1170,35.0,0.123213641,82493
1180,35.0,0.123684487,83206
1190,35.0,0.124139082,83893
1200,35.0,0.124603513,84604
1210,35.0,0.1250688,85295
1220,35.0,0.125536653,86001
1230,34.0,0.126002367,86694
1240,34.0,0.12648476,87397
1250,35.0,0.126957744,88093
1260,35.0,0.127421748,88788
1270,35.0,0.127881047,89495
1280,33.0,0.128351465,90202
1290,32.0,0.128811619,90898
1300,35.0,0.129261938,91591
1310,35.0,0.129710973,92281
1320,34.0,0.130154449,92971
1330,34.0,0.130618025,93673
1340,33.0,0.131073903,94362
1350,35.0,0.131527643,95067
1360,33.0,0.131980955,95760
1370,34.0,0.132432556,96463
1380,35.0,0.132888007,97171
1390,35.0,0.133339609,97871
1400,35.0,0.133787789,98571
1410,32.0,0.134239818,99276
1420,35.0,0.134695268,99976
1430,32.0,0.135168252,100669
1440,35.0,0.135624558,101359
1450,33.0,0.136071455,102046
1460,35.0,0.136517497,102746
1470,35.0,0.13697252,103449
1480,35.0,0.137417707,104152
1490,34.0,0.137902666,104846
1500,34.0,0.138345714,105550
1510,35.0,0.138794322,106244
1520,35.0,0.139275859,106957
1530,35.0,0.139726178,107656
1540,35.0,0.140165805,108361
1550,35.0,0.140614841,109055
1560,35.0,0.141073285,109753
1570,35.0,0.141538572,110448
1580,35.0,0.141989745,111150
1590,35.0,0.142428945,111846
1600,35.0,0.142876698,112540
1610,35.0,0.143314187,113235
1620,35.0,0.143758518,113945
1630,35.0,0.144203705,114652
1640,35.0,0.1446583,115346
1650,35.0,0.145111184,116040
1660,35.0,0.145580747,116743
1670,35.0,0.146097779,117436
1680,35.0,0.146553229,118144
1690,34.0,0.147006541,118846
1700,34.0,0.147477814,119552
1710,32.0,0.147921717,120233
1720,33.0,0.148370752,120936
1730,35.0,0.148808669,121632
1740,33.0,0.149263264,122326
1750,34.0,0.149707167,123027
1760,34.0,0.150166466,123719
1770,35.0,0.150621488,124426
1780,35.0,0.151095328,125121
1790,35.0,0.151536666,125812
1800,35.0,0.151985702,126498
1810,35.0,0.152431316,127192
1820,35.0,0.152876075,127887
1830,35.0,0.153322544,128591
1840,35.0,0.153770296,129300
1850,35.0,0.154221897,130004
1860,35.0,0.154689322,130702
1870,35.0,0.155137075,131400
1880,35.0,0.155584827,132104
1890,35.0,0.156025309,132809
1900,34.0,0.156479476,133514
1910,35.0,0.156919104,134224
1920,35.0,0.157370705,134923
1930,35.0,0.157823162,135630
1940,35.0,0.158267066,136325
1950,35.0,0.158723372,137027
1960,35.0,0.159179678,137737
1970,35.0,0.159637267,138437
1980,35.0,0.160096993,139127
1990,35.0,0.160540897,139822
2000,35.0,0.160994209,140520
2010,35.0,0.161441962,141235
2020,35.0,0.161882872,141939
2030,35.0,0.162341316,142631
2040,34.0,0.162784365,143345
2050,35.0,0.163223992,144041
2060,35.0,0.1636726,144726
2070,35.0,0.164129761,145407
2080,35.0,0.164612581,146101
2090,35.0,0.165066321,146799
2100,35.0,0.165511507,147493
2110,35.0,0.165959259,148211
2120,35.0,0.166421124,148912
2130,34.0,0.166873153,149619
2140,34.0,0.167324327,150328
2150,35.0,0.167780633,151019
2160,35.0,0.168225392,151728
2170,35.0,0.168678277,152431
2180,35.0,0.169122608,153139
2190,34.0,0.169572072,153833
2200,33.0,0.17002068,154543
2210,35.0,0.170494092,155233
2220,34.0,0.1709628,155940
2230,35.0,0.171419534,156640
2240,35.0,0.171877551,157339
2250,35.0,0.17232231,158033
2260,34.0,0.172787168,158726
2270,33.0,0.173252882,159428
2280,33.0,0.173705339,160121
2290,33.0,0.174182172,160823
2300,33.0,0.174649169,161523
2310,32.0,0.175099915,162233
2320,33.0,0.175558787,162946
2330,32.0,0.17600098,163638
2340,33.0,0.17645472,164345
2350,34.0,0.176918724,165031
2360,31.0,0.177372892,165723
2370,33.0,0.177824065,166429
2380,33.0,0.178272246,167121
2390,32.0,0.178729407,167810
2400,33.0,0.179185712,168496
2410,34.0,0.179645011,169185
2420,32.0,0.180099606,169891
2430,33.0,0.180553345,170578
2440,32.0,0.181004091,171285
2450,33.0,0.181451416,171972
2460,32.0,0.181900879,172665
2470,32.0,0.182344355,173369
2480,32.0,0.182813063,174065
2490,35.0,0.183306147,174752
2500,32.0,0.18377571,175443
2510,35.0,0.18425297,176123
2520,35.0,0.184718256,176825
2530,33.0,0.185181832,177509
2540,35.0,0.185634716,178204
2550,35.0,0.186086317,178894
2560,35.0,0.186536635,179589
2570,35.0,0.186981394,180281
2580,35.0,0.187442404,180987
2590,35.0,0.187882887,181680
2600,35.0,0.188337482,182359
2610,35.0,0.188820302,183049
2620,35.0,0.189278746,183746
2630,35.0,0.189727354,184426
2640,35.0,0.190317515,185112
2650,35.0,0.190763985,185820
2660,35.0,0.191213448,186512
2670,35.0,0.191660345,187210
2680,35.0,0.192111947,187908
2690,35.0,0.192565687,188605
2700,35.0,0.193010446,189295
2710,35.0,0.193472739,189998
2720,35.0,0.193932039,190705
2730,35.0,0.194383213,191389
2740,35.0,0.194848927,192080
2750,35.0,0.195308654,192775
2760,35.0,0.195756406,193459
2770,35.0,0.196203304,194138
2780,34.0,0.196648918,194856
2790,35.0,0.197125323,195551
2800,35.0,0.197576069,196260
2810,35.0,0.198040928,196940
2820,35.0,0.198489536,197640
2830,35.0,0.19895354,198337
2840,34.0,0.199404714,199058
2850,35.0,0.199843058,199757
2860,35.0,0.20029466,200457
2870,35.0,0.200749683,201160
2880,35.0,0.201217963,201860
2890,35.0,0.201667426,202574
2900,35.0,0.202114751,203271
2910,35.0,0.202562075,203959
2920,34.0,0.203017953,204659
2930,34.0,0.203480245,205356
2940,35.0,0.203942966,206075
2950,35.0,0.204385587,206785
2960,35.0,0.204842748,207487
2970,33.0,0.205288362,208181
2980,33.0,0.205737397,208885
2990,35.0,0.206183439,209584
3000,33.0,0.206643593,210289
3010,34.0,0.207094767,210993
3020,35.0,0.207540382,211697
3030,35.0,0.207998826,212394
3040,35.0,0.208448717,213093
3050,34.0,0.208898608,213779
3060,35.0,0.209356197,214489
3070,35.0,0.209802239,215180
3080,35.0,0.210249136,215879
3090,35.0,0.210702876,216571
3100,34.0,0.211152767,217276
3110,33.0,0.21161335,217965
3120,35.0,0.212069655,218662
3130,33.0,0.212527671,219356
3140,33.0,0.212973713,220042
3150,35.0,0.213428736,220736
3160,35.0,0.21389274,221425
3170,34.0,0.214346907,222126
3180,33.0,0.214814331,222812
3190,35.0,0.215259945,223506
3200,34.0,0.215709836,224210
3210,35.0,0.216166142,224920
3220,34.0,0.216626724,225620
3230,35.0,0.217074049,226307
3240,35.0,0.217538052,227002
3250,34.0,0.217982811,227708
3260,34.0,0.218495994,228405
3270,33.0,0.218957004,229111
3280,33.0,0.219413738,229809
3290,34.0,0.219869189,230504
3300,33.0,0.220321646,231220
3310,33.0,0.220777096,231925
3320,33.0,0.221232118,232632
3330,33.0,0.22168543,233325
3340,32.0,0.222134465,234016
3350,34.0,0.222591198,234716
3360,32.0,0.22305007,235415
3370,35.0,0.223498678,236118
3380,35.0,0.22397038,236830
3390,33.0,0.224410863,237513
3400,35.0,0.224879571,238210
3410,32.0,0.225337159,238904
3420,35.0,0.225777214,239599
3430,33.0,0.226233948,240297
3440,34.0,0.226709498,241008
3450,34.0,0.227173929,241700
3460,35.0,0.227624247,242399
3470,35.0,0.228075849,243095
3480,35.0,0.22854028,243793
3490,35.0,0.22899573,244490
3500,35.0,0.229444338,245182
3510,35.0,0.229883538,245869
3520,35.0,0.23032958,246564
3530,35.0,0.230776478,247268
3540,35.0,0.231222948,247960
3550,35.0,0.231694649,248673
3560,35.0,0.232149672,249380
3570,35.0,0.232605122,250063
3580,35.0,0.233075112,250758
3590,35.0,0.233540398,251465
3600,35.0,0.234003974,252170
3610,35.0,0.234465412,252870
3620,35.0,0.234920862,253554
3630,35.0,0.235380589,254260
3640,35.0,0.23585058,254961
3650,35.0,0.236356493,255672
3660,35.0,0.236911159,256372
3670,35.0,0.237374735,257077
3680,35.0,0.23782762,257776
3690,35.0,0.238287775,258471
3700,35.0,0.238756055,259173
3710,35.0,0.239209367,259870
3720,35.0,0.239672515,260575
3730,35.0,0.240134808,261275
3740,35.0,0.240599667,261978
3750,35.0,0.241053835,262691
3760,35.0,0.241505436,263393
3770,35.0,0.241959176,264084
3780,35.0,0.242427456,264780
3790,35.0,0.243103148,265484
3800,35.0,0.243590245,266178
3810,35.0,0.244048689,266873
3820,35.0,0.244607631,267579
3830,35.0,0.245077194,268278
3840,35.0,0.245550178,268981
3850,35.0,0.246006056,269696
3860,35.0,0.246456375,270396
3870,35.0,0.246905838,271090
3880,34.0,0.247381816,271792
3890,35.0,0.247825292,272484
3900,35.0,0.248264492,273191
3910,35.0,0.248710106,273891
3920,35.0,0.249170261,274587
3930,35.0,0.249631271,275288
3940,35.0,0.250076885,275986
3950,35.0,0.250540461,276676
3960,35.0,0.250997622,277367
3970,35.0,0.251449224,278076
3980,34.0,0.25190553,278780
3990,35.0,0.252349862,279468
4000,35.0,0.252809161,280163
4010,35.0,0.253270598,280878
4020,35.0,0.25370937,281579
4030,35.0,0.254175512,282257
4040,35.0,0.254637805,282955
4050,35.0,0.255077432,283654
4060,35.0,0.255537159,284352
4070,35.0,0.25597978,285049
4080,35.0,0.256420262,285750
4090,35.0,0.256876996,286447
4100,35.0,0.25748298,287155
4110,35.0,0.257940141,287862
4120,35.0,0.258391315,288549
4130,35.0,0.258833508,289246
4140,35.0,0.259283827,289947
4150,35.0,0.259730297,290643
4160,35.0,0.260173773,291339
4170,35.0,0.260632644,292042
4180,35.0,0.261082963,292753
4190,35.0,0.261537558,293446
4200,35.0,0.26198916,294136
4210,35.0,0.262435629,294840
4220,35.0,0.262997993,295540
4230,35.0,0.26355608,296238
4240,35.0,0.26417019,296936
4250,35.0,0.264619226,297635
4260,35.0,0.265083657,298322
4270,32.0,0.265681088,299026
4280,35.0,0.266165191,299727
4290,35.0,0.26661722,300422
4300,35.0,0.267064117,301122
4310,35.0,0.267511442,301825
4320,35.0,0.267954918,302532
4330,35.0,0.268401387,303221
4340,35.0,0.268846573,303922
4350,35.0,0.269308865,304622
4360,35.0,0.269761321,305313
4370,35.0,0.270229601,306008
4380,35.0,0.270676499,306712
4390,35.0,0.271134087,307400
4400,35.0,0.271588254,308107
4410,35.0,0.272039,308811
4420,35.0,0.272487608,309514
4430,35.0,0.27293921,310204
4440,35.0,0.273418608,310890
4450,35.0,0.27387748,311586
4460,34.0,0.274341483,312281
4470,35.0,0.274793084,312981
4480,35.0,0.275250672,313694
4490,35.0,0.275693293,314386
4500,35.0,0.276148316,315096
4510,35.0,0.276594358,315787
4520,35.0,0.277059217,316473
4530,35.0,0.27757796,317168
4540,35.0,0.278042391,317866
4550,35.0,0.278570543,318564
4560,35.0,0.279020861,319255
4570,35.0,0.279467331,319969
4580,35.0,0.279993344,320667
4590,35.0,0.280453926,321365
4600,35.0,0.280981222,322068
4610,35.0,0.281451213,322766
4620,35.0,0.281894689,323458
4630,35.0,0.282340303,324154
4640,35.0,0.282780358,324855
4650,35.0,0.283235381,325562
4660,35.0,0.283677147,326260
4670,35.0,0.284125755,326953
4680,35.0,0.284577357,327654
4690,35.0,0.285023399,328353
4700,35.0,0.285483125,329049
4710,35.0,0.285927457,329758
4720,35.0,0.286490676,330453
4730,35.0,0.286939284,331146
4740,35.0,0.287381049,331869
4750,35.0,0.287826663,332569
4760,35.0,0.288265863,333269
4770,35.0,0.288702924,333976
4780,35.0,0.289150676,334662
4790,35.0,0.295379868,335359
4800,35.0,0.295833608,336062
4810,35.0,0.296283071,336756
4820,35.0,0.296741943,337457
4830,35.0,0.297204664,338152
4840,35.0,0.297658403,338847
4850,35.0,0.29815448,339543
4860,35.0,0.298616345,340244
4870,35.0,0.299064953,340948
4880,35.0,0.299543069,341655
4890,35.0,0.300013059,342357
4900,35.0,0.300474069,343049
4910,35.0,0.300936362,343742
4920,35.0,0.301395661,344439
4930,35.0,0.301851966,345131
4940,34.0,0.302304851,345830
4950,33.0,0.302764577,346521
4960,35.0,0.303219599,347236
4970,35.0,0.303675477,347931
4980,33.0,0.304122374,348620
4990,32.0,0.304581246,349313
