it,funval,time,funcount
0,12.0,0.000650033000056,552
10,15.0,0.00133513299988,1008
20,12.0,0.00212158699969,1470
30,12.0,0.00282764199983,1932
40,12.0,0.00352172299972,2396
50,13.0,0.00421665899967,2857
60,14.0,0.00485257899982,3309
70,16.0,0.0055090259998,3761
80,16.0,0.00621336999984,4227
90,16.0,0.00691044399946,4689
100,16.0,0.00755919299945,5153
110,16.0,0.00825199099927,5615
120,16.0,0.00893837399917,6073
130,16.0,0.0096363029993,6549
140,18.0,0.0104154859991,6998
150,18.0,0.011726669999,7466
160,18.0,0.0124365739989,7918
170,18.0,0.0131135489992,8376
180,18.0,0.0137404879993,8833
190,18.0,0.0143729869992,9292
200,19.0,0.0150046299996,9748
210,19.0,0.0156644979993,10194
220,19.0,0.0164761829997,10658
230,19.0,0.0171873699996,11109
240,19.0,0.0178284219996,11565
250,19.0,0.0184878619998,12030
260,21.0,0.019123782,12479
270,19.0,0.0197703929998,12938
280,22.0,0.020406741,13381
290,22.0,0.0210614780003,13833
300,22.0,0.0218081600001,14301
310,23.0,0.022627543,14755
320,23.0,0.0232861290001,15211
330,27.0,0.0239391550003,15653
340,23.0,0.024574219,16111
350,27.0,0.0252503380002,16566
360,27.0,0.0260141260005,17035
370,27.0,0.0266594540003,17480
380,30.0,0.0273471200003,17944
390,30.0,0.027990737,18402
400,27.0,0.0286531720003,18869
410,27.0,0.0292779730003,19322
420,27.0,0.0299254390002,19774
430,27.0,0.0306314940003,20217
440,30.0,0.0313016270002,20659
450,31.0,0.0321197270005,21118
460,31.0,0.0327860100006,21568
470,31.0,0.0337730330007,22010
480,31.0,0.0344162230008,22469
490,31.0,0.0351008950011,22933
500,31.0,0.0374187740013,23395
510,31.0,0.0380653850011,23860
520,31.0,0.0387141350011,24315
530,31.0,0.0393547590011,24767
540,31.0,0.0400171930009,25232
550,31.0,0.0406625220012,25700
560,31.0,0.0413134100008,26154
570,32.0,0.0420288740006,26609
580,32.0,0.0426925910006,27061
590,32.0,0.0433494660006,27517
600,32.0,0.0441021350007,27972
610,32.0,0.0447833860007,28435
620,32.0,0.0454736180004,28885
630,32.0,0.0462746120006,29330
640,32.0,0.0469584290008,29804
650,32.0,0.0476182970006,30263
660,32.0,0.0482986930006,30715
670,33.0,0.0490398160005,31166
680,33.0,0.0497326130003,31616
690,32.0,0.0504519260003,32077
700,33.0,0.0511032410004,32540
710,32.0,0.0517635370006,32993
720,32.0,0.0524161350004,33447
730,32.0,0.0530717270003,33903
740,34.0,0.0537260360002,34368
750,32.0,0.0543739300001,34818
760,32.0,0.0550188310003,35285
770,34.0,0.0561820470007,35737
780,35.0,0.056860304001,36199
790,34.0,0.0574996450014,36647
800,34.0,0.0581479670013,37100
810,34.0,0.0588044150013,37548
820,34.0,0.0594869490014,38003
830,34.0,0.0602400460016,38446
840,34.0,0.0609452450017,38900
850,34.0,0.0616329110017,39363
860,34.0,0.0622979120012,39822
870,34.0,0.0629449510011,40282
880,35.0,0.0636565660011,40747
890,35.0,0.0643463700007,41193
900,35.0,0.0650434440008,41655
910,40.0,0.0657405180009,42114
920,35.0,0.0664209130009,42576
930,35.0,0.0696154800007,43041
940,35.0,0.0702582420008,43478
950,35.0,0.0709125510007,43944
960,39.0,0.0715754130006,44404
970,35.0,0.0722438340008,44849
980,35.0,0.0729199530006,45310
990,35.0,0.0736029140007,45767
1000,35.0,0.0742285710007,46226
1010,40.0,0.0748614970007,46694
1020,40.0,0.0755119570008,47155
1030,42.0,0.0761867930009,47607
1040,42.0,0.0768423850009,48060
1050,44.0,0.0774979770008,48516
1060,44.0,0.0781599840006,48977
1070,44.0,0.0788091610007,49440
1080,43.0,0.0794703120009,49882
1090,44.0,0.0801507080009,50358
1100,44.0,0.0808135700008,50814
1110,44.0,0.0815055120011,51265
1120,43.0,0.0822376540013,51714
1130,43.0,0.0830365100014,52171
1140,43.0,0.0837250310014,52626
1150,46.0,0.0843870370018,53075
1160,43.0,0.0850687160018,53537
1170,43.0,0.085736282002,53990
1180,44.0,0.0864213820023,54448
1190,44.0,0.0871235880022,54911
1200,44.0,0.0877988520024,55363
1210,44.0,0.0884570090025,55824
1220,44.0,0.0891711890026,56282
1230,46.0,0.0898669800026,56725
1240,44.0,0.0906440250028,57175
1250,44.0,0.0913351120025,57638
1260,44.0,0.0920155080025,58097
1270,44.0,0.0926728110026,58555
1280,46.0,0.0933446540025,59009
1290,44.0,0.0939985350028,59470
1300,44.0,0.0946524160026,59926
1310,43.0,0.0953387990025,60383
1320,43.0,0.0960243270024,60841
1330,43.0,0.0967308100026,61285
1340,42.0,0.0974184750025,61742
1350,43.0,0.0981258130028,62188
1360,42.0,0.0989084180028,62640
1370,42.0,0.0996469750025,63096
1380,43.0,0.100320100003,63559
1390,42.0,0.101060367003,64006
1400,42.0,0.101769843003,64467
1410,42.0,0.102497280002,64932
1420,42.0,0.103192644002,65388
1430,42.0,0.103867908002,65848
1440,43.0,0.104564127003,66312
1450,42.0,0.105881298002,66766
1460,43.0,0.106577945002,67225
1470,43.0,0.107260479002,67664
1480,43.0,0.107970382002,68119
1490,43.0,0.108662752002,68561
1500,43.0,0.109465884002,69024
1510,43.0,0.110198453002,69470
1520,43.0,0.110896810002,69931
1530,43.0,0.111614412002,70380
1540,43.0,0.112302078002,70835
1550,43.0,0.113275844002,71284
1560,42.0,0.113954102002,71724
1570,42.0,0.114648183002,72196
1580,42.0,0.115762219002,72652
1590,43.0,0.116430640002,73113
1600,42.0,0.117086659003,73562
1610,42.0,0.117761495002,74007
1620,42.0,0.118440607002,74450
1630,43.0,0.119093633002,74908
1640,42.0,0.119757778002,75366
1650,42.0,0.120425772002,75829
1660,42.0,0.121130116002,76294
1670,42.0,0.121819493002,76758
1680,43.0,0.122477223002,77216
1690,43.0,0.123168738002,77686
1700,42.0,0.123906866002,78123
1710,42.0,0.124568018001,78571
1720,42.0,0.125222755001,79023
1730,43.0,0.125878774001,79478
1740,43.0,0.126558742001,79926
1750,43.0,0.127245553001,80386
1760,43.0,0.127891309001,80849
1770,43.0,0.128582824001,81325
1780,44.0,0.12924141,81772
1790,43.0,0.129894864,82212
1800,43.0,0.130547463,82680
1810,43.0,0.131206903,83143
1820,44.0,0.131864633,83602
1830,43.0,0.132512954,84061
1840,43.0,0.13319506,84527
1850,44.0,0.133861769999,84975
1860,43.0,0.134565686999,85430
1870,44.0,0.135255918,85882
1880,44.0,0.135941445999,86342
1890,43.0,0.136600459999,86798
1900,43.0,0.137271446999,87258
1910,43.0,0.137933454,87698
1920,43.0,0.138618554,88170
1930,43.0,0.139324608999,88620
1940,44.0,0.139994312999,89064
1950,43.0,0.140673425999,89530
1960,43.0,0.141427804999,89973
1970,43.0,0.142039775999,90426
1980,44.0,0.142679971999,90876
1990,43.0,0.143313753999,91340
2000,44.0,0.143953950999,91804
2010,43.0,0.144667275999,92262
2020,43.0,0.145322012999,92711
2030,44.0,0.148445589999,93165
2040,43.0,0.149109734999,93621
2050,44.0,0.149761477999,94075
2060,44.0,0.150455130999,94522
2070,43.0,0.151103880999,94967
2080,44.0,0.151731674999,95418
2090,43.0,0.152379569999,95869
2100,43.0,0.153047563999,96306
2110,43.0,0.153730525999,96765
2120,44.0,0.154475924998,97209
2130,44.0,0.155140497998,97680
2140,47.0,0.155853394998,98122
2150,44.0,0.156546619998,98582
2160,44.0,0.157312546998,99049
2170,44.0,0.157989521998,99499
2180,44.0,0.158690444998,99952
2190,44.0,0.159355872998,100410
2200,44.0,0.160005049998,100863
2210,44.0,0.160714953998,101317
2220,47.0,0.161407751998,101773
2230,47.0,0.162093706998,102235
2240,44.0,0.162884437998,102695
2250,44.0,0.163580656998,103143
2260,44.0,0.164537743998,103604
2270,47.0,0.165222415998,104074
2280,46.0,0.165903666998,104531
2290,44.0,0.166603306997,104991
2300,44.0,0.167342290997,105441
2310,44.0,0.168042358997,105913
2320,44.0,0.168699661997,106360
2330,44.0,0.169359529997,106809
2340,44.0,0.170094665997,107271
2350,47.0,0.170768219997,107716
2360,47.0,0.171428087996,108170
2370,47.0,0.172110621997,108622
2380,47.0,0.172841480996,109092
2390,47.0,0.173498355996,109548
2400,47.0,0.174147532996,110005
2410,47.0,0.174792861996,110467
2420,47.0,0.175413813996,110925
2430,47.0,0.176043318997,111377
2440,47.0,0.176791283996,111834
2450,47.0,0.177478093996,112287
2460,48.0,0.178195267996,112738
2470,47.0,0.178944942996,113187
2480,47.0,0.179705737996,113642
2490,48.0,0.180392548996,114084
2500,48.0,0.181098175996,114534
2510,48.0,0.181791401996,114983
2520,47.0,0.182519694996,115434
2530,47.0,0.183211637996,115895
2540,48.0,0.183936081996,116349
2550,47.0,0.184646840996,116797
2560,47.0,0.185338783996,117243
2570,47.0,0.186051680996,117696
2580,47.0,0.186757307996,118161
2590,47.0,0.187445829996,118600
2600,47.0,0.188126225996,119052
2610,47.0,0.188771981996,119508
2620,48.0,0.189423725995,119968
2630,48.0,0.190118661995,120417
2640,48.0,0.190774253995,120867
2650,48.0,0.191448662995,121319
2660,48.0,0.192160277995,121776
2670,48.0,0.192874458995,122228
2680,48.0,0.193513372996,122684
2690,48.0,0.194163832996,123154
2700,48.0,0.194863900996,123616
2710,47.0,0.195516926996,124064
2720,47.0,0.196153702996,124521
2730,47.0,0.196845645996,124996
2740,48.0,0.197576932996,125453
2750,48.0,0.198285553996,125918
2760,48.0,0.199032663996,126382
2770,48.0,0.199754114996,126844
2780,48.0,0.200496947996,127308
2790,48.0,0.201197015996,127767
2800,48.0,0.201849185996,128215
2810,52.0,0.202497506996,128674
2820,52.0,0.203141979996,129144
2830,52.0,0.203858726996,129609
2840,52.0,0.204539549996,130074
2850,52.0,0.205223366996,130534
2860,52.0,0.205914880996,131001
2870,52.0,0.206735546996,131455
2880,52.0,0.207427916996,131920
2890,52.0,0.208110878996,132381
2900,53.0,0.208815222996,132847
2910,53.0,0.209508020996,133315
2920,53.0,0.210169599996,133765
2930,53.0,0.210854699996,134223
2940,52.0,0.211551345996,134670
2950,52.0,0.212248847996,135127
2960,52.0,0.213060960996,135591
2970,52.0,0.213728098996,136046
2980,53.0,0.214374282996,136494
2990,53.0,0.215088463996,136945
3000,53.0,0.215941203996,137396
3010,56.0,0.216579261996,137857
3020,52.0,0.217205772996,138291
3030,53.0,0.217848535996,138748
3040,52.0,0.218578966996,139207
3050,52.0,0.219259361996,139652
3060,53.0,0.219894425996,140117
3070,52.0,0.220552155996,140568
3080,53.0,0.221211596996,141039
3090,53.0,0.221858207996,141496
3100,53.0,0.222582651996,141966
3110,53.0,0.223288706996,142422
3120,53.0,0.223964397996,142886
3130,53.0,0.224604594996,143343
3140,53.0,0.225273443996,143797
3150,53.0,0.225911929996,144248
3160,52.0,0.226555974996,144695
3170,52.0,0.227221830996,145150
3180,53.0,0.227923608996,145619
3190,53.0,0.228580483996,146079
3200,52.0,0.231747680996,146527
3210,53.0,0.232370770996,146996
3220,52.0,0.232999420996,147450
3230,52.0,0.233653729997,147904
3240,52.0,0.234306755996,148350
3250,52.0,0.235005968997,148818
3260,52.0,0.235689357997,149270
3270,52.0,0.236419789997,149724
3280,60.0,0.237098474997,150199
3290,57.0,0.237770745997,150652
3300,53.0,0.238437028996,151106
3310,53.0,0.239121273997,151570
3320,52.0,0.239894042997,152018
3330,52.0,0.240567168997,152477
3340,53.0,0.241235589996,152928
3350,52.0,0.241898879996,153379
3360,53.0,0.242636580996,153842
3370,53.0,0.243344346996,154299
3380,52.0,0.243999510996,154756
3390,53.0,0.244635430996,155222
3400,53.0,0.245290594996,155687
3410,53.0,0.245915823996,156142
3420,53.0,0.246567138996,156584
3430,53.0,0.247232138996,157033
3440,53.0,0.247858222996,157477
3450,53.0,0.248525788996,157932
3460,57.0,0.249223290996,158388
3470,57.0,0.250154718996,158842
3480,57.0,0.250836824996,159307
3490,57.0,0.251514654996,159764
3500,57.0,0.252188207996,160223
3510,57.0,0.252849786996,160680
3520,57.0,0.253538307996,161135
3530,57.0,0.254213570995,161598
3540,57.0,0.254901664995,162050
3550,59.0,0.255563243995,162503
3560,57.0,0.256188899995,162957
3570,59.0,0.256865874995,163406
3580,59.0,0.257517189995,163864
3590,59.0,0.258222389995,164319
3600,59.0,0.258892093995,164784
3610,59.0,0.259546829995,165241
3620,59.0,0.260181894995,165728
3630,59.0,0.260937984995,166186
3640,59.0,0.261688942995,166647
3650,59.0,0.262370620995,167118
3660,59.0,0.263044601995,167590
3670,59.0,0.263708318995,168049
3680,60.0,0.264443026995,168517
3690,59.0,0.265127270995,168962
3700,59.0,0.265838456995,169415
3710,59.0,0.266500890995,169862
3720,59.0,0.267239447995,170329
3730,59.0,0.267954483995,170794
3740,59.0,0.268666525995,171237
3750,59.0,0.269388831995,171674
3760,59.0,0.270076069995,172122
3770,60.0,0.270778702995,172584
3780,59.0,0.271498015995,173031
3790,59.0,0.272187819995,173482
3800,59.0,0.272896012995,173928
3810,59.0,0.273553742995,174379
3820,59.0,0.274248250995,174849
3830,59.0,0.274982530995,175300
3840,58.0,0.275610325995,175746
3850,58.0,0.276253087995,176213
3860,58.0,0.276883020995,176670
3870,58.0,0.277503545995,177124
3880,59.0,0.278124497995,177581
3890,58.0,0.278759990995,178030
3900,59.0,0.279551148995,178474
3910,59.0,0.280178943995,178940
3920,59.0,0.280893123995,179401
3930,59.0,0.281550426995,179861
3940,59.0,0.282265890995,180327
3950,59.0,0.282949279996,180775
3960,59.0,0.283623260996,181233
3970,60.0,0.284325466996,181693
3980,60.0,0.284991322995,182147
3990,60.0,0.285726885995,182589
4000,59.0,0.286408991995,183042
4010,60.0,0.287106493995,183510
4020,60.0,0.287821957995,183964
4030,60.0,0.288509195995,184425
4040,60.0,0.289210974996,184874
4050,60.0,0.289896074995,185341
4060,63.0,0.290585878995,185796
4070,60.0,0.291287656995,186262
4080,60.0,0.291977888995,186722
4090,60.0,0.292661705996,187172
4100,60.0,0.293360062996,187634
4110,60.0,0.294074243996,188078
4120,60.0,0.294790133995,188519
4130,60.0,0.295484641995,188974
4140,60.0,0.296169741996,189418
4150,60.0,0.296835597996,189867
4160,60.0,0.297560468995,190331
4170,60.0,0.298237442995,190779
4180,60.0,0.298905009995,191247
4190,60.0,0.299525533995,191711
4200,63.0,0.300184547995,192166
4210,63.0,0.300870074995,192632
4220,63.0,0.301548331995,193097
4230,63.0,0.302204778995,193543
4240,63.0,0.302856093995,193997
4250,63.0,0.303521093995,194455
4260,63.0,0.304183955995,194902
4270,64.0,0.304841685995,195357
4280,64.0,0.305512245995,195816
4290,63.0,0.306169547995,196273
4300,63.0,0.306820007995,196716
4310,64.0,0.307474743995,197160
4320,64.0,0.308106387994,197614
4330,64.0,0.308761979994,198077
4340,64.0,0.309437243995,198540
4350,64.0,0.310066748994,199001
4360,64.0,0.310750993995,199476
4370,64.0,0.311514781995,199923
4380,64.0,0.312188334995,200368
4390,64.0,0.312920048995,200821
4400,64.0,0.313630379995,201264
4410,66.0,0.314313341995,201717
4420,66.0,0.315071570995,202164
4430,64.0,0.315785750995,202612
4440,64.0,0.316493088996,203058
4450,66.0,0.320003263996,203518
4460,64.0,0.320678527996,203962
4470,64.0,0.321344382996,204439
4480,64.0,0.322044878996,204899
4490,64.0,0.322750933996,205366
4500,64.0,0.323428335996,205811
4510,66.0,0.324101888995,206254
4520,64.0,0.324773731995,206708
4530,64.0,0.325431034995,207162
4540,64.0,0.326130674995,207610
4550,64.0,0.326835873995,208055
4560,64.0,0.327525250995,208499
4570,63.0,0.328226601995,208944
4580,64.0,0.328930945995,209405
4590,63.0,0.329672067995,209869
4600,63.0,0.330330653995,210337
4610,63.0,0.331019602995,210785
4620,63.0,0.331702991994,211248
4630,64.0,0.332400920994,211705
4640,64.0,0.333131778994,212157
4650,64.0,0.333882309994,212623
4660,64.0,0.334584515994,213086
4670,66.0,0.335290570994,213535
4680,68.0,0.336049653994,213978
4690,66.0,0.336745017994,214424
4700,66.0,0.337435249994,214880
4710,68.0,0.338139165994,215342
4720,68.0,0.338827259994,215798
4730,68.0,0.339481568994,216262
4740,68.0,0.340143147994,216712
4750,70.0,0.340796173994,217188
4760,70.0,0.341542855994,217652
4770,70.0,0.342208710994,218111
4780,70.0,0.342893383994,218576
4790,70.0,0.343613123994,219031
4800,70.0,0.344269998994,219498
4810,70.0,0.344929439994,219957
4820,70.0,0.345587597994,220414
4830,70.0,0.346264572994,220872
4840,70.0,0.346993720993,221318
4850,74.0,0.347662997993,221783
4860,74.0,0.348326714993,222241
4870,74.0,0.349045171993,222716
4880,74.0,0.349737968993,223180
4890,74.0,0.350455569993,223635
4900,74.0,0.351154354993,224089
4910,74.0,0.351863402992,224547
4920,74.0,0.352591695992,224996
4930,74.0,0.353287914993,225450
4940,74.0,0.353951204993,225908
4950,74.0,0.354646140993,226353
4960,74.0,0.355333805993,226811
4970,74.0,0.356032590993,227272
4980,71.0,0.356751475993,227725
4990,71.0,0.357456675993,228181
