0.1215,0.1251,0.1246,0.1282
0.1276,0.1324,0.1379,0.1296
0.1423,0.1460,0.1556,0.1547
0.1592,0.1716,0.1747,0.1730
0.1879,0.1926,0.2006,0.1986
0.2106,0.2196,0.2250,0.2253
0.2392,0.2346,0.2458,0.2355
0.2521,0.2497,0.2536,0.2449
0.1166,0.1196,0.1190,0.1240
0.1202,0.1301,0.1263,0.1339
0.1319,0.1332,0.1368,0.1485
0.1089,0.1083,0.1125,0.1631
0.1706,0.1806,0.1857,0.1979
0.2046,0.2232,0.2271,0.2136
0.2461,0.2486,0.2593,0.2476
0.2646,0.2727,0.2728,0.2551
0.1082,0.1060,0.1101,0.1125
0.1074,0.1019,0.1095,0.1180
0.1180,0.0593,0.0776,0.0683
0.0000,0.0000,0.0000,0.0000
0.0800,0.0906,0.1502,0.1551
0.1408,0.1580,0.1709,0.2188
0.2603,0.2748,0.2856,0.2620
0.3034,0.3123,0.3081,0.2892
0.0962,0.0916,0.0966,0.1001
0.0919,0.0857,0.0885,0.0957
0.0831,0.0677,0.0714,0.0840
0.0185,0.0490,0.0266,0.0548
0.0856,0.0456,0.0891,0.0778
0.0000,0.0000,0.0000,0.0000
0.2081,0.2041,0.3050,0.2450
0.3224,0.3514,0.3685,0.3208
0.0741,0.0683,0.0713,0.0832
0.0589,0.0493,0.0502,0.0723
0.0554,0.0337,0.0158,0.0443
0.0000,0.0000,0.0000,0.0000
0.0405,0.0416,0.0715,0.0606
0.0343,0.1095,0.0904,0.1208
0.1549,0.1990,0.2329,0.2517
0.4136,0.3857,0.4321,0.3579
0.0546,0.0293,0.0291,0.0477
0.0000,0.0000,0.0000,0.0000
0.0000,0.0000,0.0000,0.0000
0.0002,0.0084,0.0040,0.0041
0.0210,0.0129,0.0200,0.0387
0.0499,0.0110,0.0480,0.0462
0.0000,0.0000,0.0000,0.0000
0.3872,0.5209,0.5838,0.3744
0.0346,0.0140,0.0239,0.0270
0.0000,0.0000,0.0000,0.0000
0.0000,0.0003,0.0000,0.0000
0.0001,0.0000,0.0012,0.0000
0.0000,0.0000,0.0000,0.0000
0.0034,0.0002,0.0152,0.0045
0.0000,0.0000,0.0000,0.0000
0.5620,0.5208,0.7445,0.4159
0.0230,0.0155,0.0191,0.0207
0.0107,0.0019,0.0012,0.0028
0.0009,0.0007,0.0001,0.0002
0.0000,0.0000,0.0000,0.0000
0.0000,0.0002,0.0002,0.0000
0.0019,0.0000,0.0001,0.0024
0.0000,0.0000,0.0500,0.0001
0.0000,0.0000,0.0000,0.0000
