0.1337,0.1370,0.1372,0.1390
0.1407,0.1471,0.1488,0.1446
0.1547,0.1601,0.1700,0.1695
0.1774,0.1928,0.1917,0.1862
0.2035,0.2113,0.2246,0.2134
0.2390,0.2458,0.2570,0.2397
0.2640,0.2684,0.2762,0.2621
0.2838,0.2857,0.2861,0.2725
0.1295,0.1329,0.1342,0.1364
0.1335,0.1400,0.1421,0.1457
0.1417,0.1510,0.1563,0.1637
0.1232,0.0996,0.1416,0.1861
0.1877,0.1953,0.2206,0.2170
0.2307,0.2407,0.2600,0.2501
0.2722,0.2858,0.2974,0.2662
0.3040,0.3202,0.3106,0.2924
0.1246,0.1192,0.1239,0.1281
0.1227,0.1196,0.1263,0.1302
0.1322,0.0749,0.1032,0.0957
0.0000,0.0000,0.0000,0.0000
0.1241,0.1299,0.1800,0.1689
0.0954,0.1411,0.1670,0.2474
0.2763,0.2885,0.3132,0.2866
0.3479,0.3657,0.3580,0.3200
0.1112,0.1044,0.1111,0.1138
0.1096,0.1011,0.1060,0.1133
0.0977,0.0788,0.0839,0.1037
0.0399,0.0675,0.0354,0.0787
0.1282,0.0574,0.0899,0.0808
0.0000,0.0000,0.0000,0.0000
0.1860,0.2508,0.3160,0.2138
0.3915,0.4338,0.4171,0.3526
0.0955,0.0868,0.0919,0.0979
0.0568,0.0506,0.0605,0.0874
0.0648,0.0255,0.0438,0.0570
0.0000,0.0000,0.0000,0.0000
0.0515,0.0843,0.1111,0.0984
0.0567,0.1651,0.0869,0.1276
0.1869,0.2623,0.2284,0.3018
0.4110,0.4732,0.5198,0.4024
0.0825,0.0451,0.0580,0.0557
0.0000,0.0000,0.0000,0.0000
0.0000,0.0000,0.0000,0.0000
0.0000,0.0037,0.0019,0.0025
0.0371,0.0160,0.0645,0.0612
0.0519,0.0222,0.0456,0.0438
0.0000,0.0000,0.0000,0.0000
0.4125,0.4981,0.6231,0.3841
0.0744,0.0546,0.0412,0.0561
0.0000,0.0000,0.0000,0.0000
0.0005,0.0012,0.0000,0.0000
0.0004,0.0000,0.0000,0.0000
0.0000,0.0000,0.0000,0.0000
0.0100,0.0000,0.0000,0.0024
0.0000,0.0000,0.0000,0.0000
0.4178,0.5494,0.7801,0.3721
0.0696,0.0588,0.0575,0.0548
0.0382,0.0349,0.0138,0.0289
0.0067,0.0057,0.0015,0.0098
0.0000,0.0000,0.0000,0.0000
0.0000,0.0000,0.0000,0.0000
0.0006,0.0000,0.0000,0.0000
0.0000,0.0536,0.0000,0.0000
0.0000,0.0000,0.0000,0.0000
