0.00000000,0.00000000,0.00000000,0.00000000,0.00000000,0.00000000,0.00000000,0.00000000,0.00000000,0.00000000,0.00000000,0.00000000,0.00000000,0.00000000,0.00000000,0.00000000
0.00000000,0.00000000,0.00000000,0.00000000,0.00000000,-0.00000000,-0.00000000,0.00000000,0.00000000,-0.00000000,-0.00000000,0.00000000,0.00000000,-0.00000000,0.00000000,0.00000000
-0.00000000,-0.00000000,0.03662723,0.01804028,-0.00000000,-0.00000000,0.07436437,0.00000000,-0.00000000,-0.00000000,0.18871935,0.00000000,-0.00000000,-0.00000000,0.49751244,0.00000000
0.05224946,0.05383278,0.10929686,0.10608224,0.02573481,-0.00000000,0.11582350,0.00000000,0.10131631,0.17996800,0.24168343,-0.00000000,-0.00000000,0.30367415,0.61655055,0.00000000
0.22197228,0.22869871,0.24235540,0.23522730,0.31665612,0.00000000,0.25682761,0.00000000,0.42093560,0.53797071,0.53591007,0.00000000,0.00000000,0.67336860,0.82917160,0.00000000
0.34455952,0.29281155,0.24993665,0.24258558,0.40674869,0.00000000,0.26486157,-0.00000000,0.48126358,0.57036222,0.55267416,0.00000000,0.00000000,0.69443261,0.83954641,0.00000000
0.53248010,0.44978860,0.38072706,0.36952921,0.54861586,-0.00000000,0.32320271,0.00000000,0.58137634,0.63175429,0.59867509,0.00000000,0.00000000,0.73435551,0.85920993,0.00000000
0.54202593,0.49880319,0.47069569,0.45685170,0.55845096,0.00000000,0.35834807,-0.00000000,0.59179874,0.64307982,0.61520756,0.00000000,0.00000000,0.74172044,0.86283743,0.00000000
0.54202593,0.49880319,0.47069569,0.45685170,0.55845096,-0.00000000,0.35834807,0.00000000,0.59179874,0.64307982,0.61520756,0.00000000,0.00000000,0.74172044,0.86283743,0.00000000
