it,funval,time,funcount
0,269.0,0.00188423800046,445
10,277.0,0.00379242500094,777
20,279.0,0.00570659900131,1115
30,281.0,0.00760580600127,1454
40,280.0,0.00950159200147,1783
50,285.0,0.0114935990014,2122
60,284.0,0.0133684290022,2456
70,281.0,0.0151953620025,2780
80,279.0,0.0170030510026,3126
90,280.0,0.0188458070033,3470
100,278.0,0.0204781580032,3794
110,281.0,0.0221451490033,4127
120,281.0,0.0237710850033,4457
130,285.0,0.0255663720036,4805
140,285.0,0.0272987940043,5137
150,284.0,0.0290461830045,5472
160,286.0,0.030632775005,5814
170,284.0,0.0323301290055,6149
180,287.0,0.0338996150058,6479
190,283.0,0.0356880600057,6811
200,284.0,0.0378254690049,7147
210,284.0,0.0394984480045,7473
220,282.0,0.0411226740043,7813
230,285.0,0.0429179610037,8148
240,284.0,0.0445597200041,8494
250,287.0,0.0462036180043,8842
260,284.0,0.0478479440044,9170
270,283.0,0.049351571005,9505
280,285.0,0.0508791470047,9852
290,287.0,0.0523665240044,10188
300,289.0,0.0539069300048,10535
310,287.0,0.0553789110045,10864
320,287.0,0.0569749120041,11192
330,290.0,0.0585982820039,11525
340,293.0,0.0601912890043,11863
350,296.0,0.0617885730044,12191
360,289.0,0.0633909880044,12526
370,297.0,0.0650956120044,12858
380,292.0,0.0667057250039,13193
390,290.0,0.0682615260039,13531
400,293.0,0.0697895300036,13852
410,293.0,0.071349607003,14167
420,294.0,0.0728532340027,14499
430,295.0,0.0746596400022,14828
440,294.0,0.0765977630017,15167
450,294.0,0.0784349590012,15506
460,293.0,0.0803251850011,15833
470,296.0,0.0819695110013,16178
480,296.0,0.0835428460014,16515
490,297.0,0.0854142550015,16848
500,300.0,0.0869751880009,17191
510,296.0,0.0885190150002,17522
520,300.0,0.089938395,17855
530,299.0,0.0913650450002,18191
540,299.0,0.0928378819999,18529
550,299.0,0.094254269,18868
560,298.0,0.0956552600001,19196
570,298.0,0.0970896079998,19533
580,298.0,0.0985517529998,19861
590,298.0,0.0999890939993,20191
600,296.0,0.101429428999,20523
610,297.0,0.102857361999,20864
620,297.0,0.104584224999,21193
630,297.0,0.106111372998,21527
640,297.0,0.107673161999,21853
650,298.0,0.109283274998,22180
660,296.0,0.111096094998,22519
670,298.0,0.112629230998,22853
680,299.0,0.114140128998,23187
690,300.0,0.115650598997,23519
700,299.0,0.117192714998,23850
710,300.0,0.118754503998,24192
720,301.0,0.120324417999,24525
730,302.0,0.121861402999,24863
740,301.0,0.123409505999,25189
750,301.0,0.125044422999,25522
760,303.0,0.126556175999,25853
770,304.0,0.127981115998,26184
780,298.0,0.129418457998,26536
790,298.0,0.130868628999,26874
800,302.0,0.132268763999,27214
810,298.0,0.133912661999,27547
820,299.0,0.135304671999,27881
830,300.0,0.136731321999,28226
840,300.0,0.140897088999,28561
850,300.0,0.142378907,28886
860,301.0,0.143803845999,29229
870,302.0,0.145236482999,29575
880,301.0,0.146693068999,29916
890,299.0,0.148139819,30245
900,301.0,0.149623775,30586
910,301.0,0.151042727,30921
920,299.0,0.152414637,31258
930,298.0,0.153760033,31597
940,300.0,0.155163162,31937
950,299.0,0.156612049999,32267
960,302.0,0.158007053999,32598
970,303.0,0.159456797,32933
980,300.0,0.160937331,33266
990,298.0,0.162384508,33603
1000,297.0,0.163846654,33937
1010,296.0,0.165358834,34274
1020,298.0,0.166820551,34608
1030,301.0,0.168272432,34933
1040,295.0,0.169740564001,35273
1050,297.0,0.17119159,35605
1060,298.0,0.172621234001,35935
1070,299.0,0.174070122001,36267
1080,299.0,0.175513878001,36596
1090,295.0,0.176952075001,36936
1100,295.0,0.178405239001,37270
1110,294.0,0.179855838001,37613
1120,296.0,0.181420192001,37938
1130,292.0,0.182913556002,38275
1140,292.0,0.184360733002,38618
1150,299.0,0.185821167002,38952
1160,298.0,0.187229428002,39295
1170,298.0,0.188632985001,39640
1180,297.0,0.190040391001,39973
1190,299.0,0.191452501002,40311
1200,299.0,0.192886421001,40645
1210,301.0,0.194328894001,40984
1220,302.0,0.195785052001,41327
1230,300.0,0.197236933001,41663
1240,301.0,0.198699933002,42008
1250,302.0,0.200154380002,42348
1260,306.0,0.201601558003,42680
1270,306.0,0.203076533003,43002
1280,307.0,0.204520289003,43338
1290,305.0,0.205967894003,43680
1300,306.0,0.207433033003,44013
1310,305.0,0.208865243004,44341
1320,305.0,0.210279919004,44676
1330,302.0,0.211670218004,45011
1340,302.0,0.213128515004,45345
1350,302.0,0.214591943004,45678
1360,301.0,0.215999776004,46012
1370,305.0,0.217452940004,46339
1380,302.0,0.218884294004,46674
1390,305.0,0.220304957004,47003
1400,305.0,0.221738449005,47326
1410,305.0,0.223188192005,47668
1420,307.0,0.224618263005,47996
1430,309.0,0.226063730005,48337
1440,310.0,0.227531435004,48666
1450,307.0,0.228936702005,49010
1460,308.0,0.230332989005,49347
1470,306.0,0.231857572005,49686
1480,305.0,0.233283366005,50028
1490,305.0,0.234780151004,50360
1500,308.0,0.236290193005,50700
1510,308.0,0.237745496004,51031
1520,304.0,0.239202937004,51358
1530,304.0,0.240651397004,51695
1540,305.0,0.242110976004,52027
1550,307.0,0.243583385004,52372
1560,305.0,0.245040399004,52708
1570,307.0,0.246514091004,53052
1580,308.0,0.247966828004,53390
1590,308.0,0.249397327004,53735
1600,304.0,0.250836806004,54081
1610,305.0,0.252260034004,54424
1620,304.0,0.253677704004,54755
1630,304.0,0.255072708004,55097
1640,304.0,0.256494226004,55432
1650,304.0,0.257947390004,55763
1660,304.0,0.259355651004,56106
1670,304.0,0.260763484003,56438
1680,304.0,0.262206813003,56780
1690,304.0,0.263652708003,57125
1700,304.0,0.265098602003,57453
1710,306.0,0.266558609003,57790
1720,308.0,0.268023747004,58121
1730,306.0,0.269480333004,58463
1740,305.0,0.270939057004,58793
1750,306.0,0.272407189004,59126
1760,309.0,0.273903546004,59455
1770,308.0,0.275368257005,59793
1780,307.0,0.276828264005,60125
1790,305.0,0.278253204004,60454
1800,306.0,0.279695249003,60797
1810,310.0,0.281115912004,61122
1820,306.0,0.282548121004,61458
1830,306.0,0.284016681004,61782
1840,315.0,0.285480537004,62108
1850,307.0,0.286952519004,62440
1860,306.0,0.288396702004,62776
1870,305.0,0.289845163004,63104
1880,306.0,0.291208948005,63431
1890,306.0,0.292633887006,63767
1900,306.0,0.294067807005,64113
1910,308.0,0.295511991006,64446
1920,309.0,0.296953609006,64775
1930,306.0,0.298414471006,65111
1940,304.0,0.299908263006,65455
1950,300.0,0.301408470005,65780
1960,299.0,0.302877030005,66114
1970,303.0,0.304324207005,66437
1980,301.0,0.305904384005,66776
1990,300.0,0.307484989005,67107
2000,302.0,0.309066877006,67437
2010,301.0,0.310635080005,67786
2020,304.0,0.312263154005,68116
2030,301.0,0.313716747006,68460
2040,302.0,0.315371764005,68795
2050,303.0,0.316971613005,69138
2060,303.0,0.318556923005,69469
2070,303.0,0.320192267005,69813
2080,300.0,0.321831888005,70162
2090,304.0,0.323474930005,70490
2100,302.0,0.325003362005,70827
2110,303.0,0.326519392005,71156
2120,307.0,0.328085457006,71486
2130,306.0,0.329765705006,71830
2140,305.0,0.331304828006,72181
2150,305.0,0.332766546006,72519
2160,304.0,0.334617000006,72855
2170,305.0,0.336463178006,73189
2180,305.0,0.338088259006,73525
2190,305.0,0.339507639006,73854
2200,304.0,0.340962514007,74184
2210,305.0,0.342472129007,74520
2220,305.0,0.344144679007,74861
2230,305.0,0.345681236006,75203
2240,309.0,0.347274243006,75540
2250,307.0,0.348704742006,75873
2260,306.0,0.350140800006,76206
2270,310.0,0.351595675005,76539
2280,313.0,0.353021898005,76872
2290,308.0,0.354552040005,77213
2300,310.0,0.356038134005,77551
2310,309.0,0.357560578004,77883
2320,305.0,0.359238261005,78214
2330,305.0,0.360878737005,78540
2340,305.0,0.362788208005,78878
2350,304.0,0.364395328004,79205
2360,304.0,0.365998599004,79525
2370,302.0,0.367578349004,79863
2380,304.0,0.369152112004,80196
2390,307.0,0.370790450005,80520
2400,305.0,0.372435203006,80857
2410,303.0,0.374047454006,81197
2420,302.0,0.375636612006,81530
2430,307.0,0.377236034005,81867
2440,307.0,0.378802527005,82206
2450,306.0,0.380383988005,82539
2460,304.0,0.381970580005,82877
2470,302.0,0.383549475006,83211
2480,308.0,0.385065504005,83538
2490,308.0,0.386661077005,83873
2500,308.0,0.388256222005,84215
2510,300.0,0.389859921005,84551
2520,305.0,0.391488851005,84892
2530,304.0,0.395845779006,85228
2540,307.0,0.397424245006,85572
2550,308.0,0.398985178005,85898
2560,310.0,0.400614963005,86229
2570,312.0,0.402184877005,86561
2580,313.0,0.403918154005,86894
2590,315.0,0.405443165005,87226
2600,314.0,0.407105452005,87558
2610,315.0,0.408659970005,87895
2620,311.0,0.410227746005,88238
2630,313.0,0.411849406005,88572
2640,314.0,0.413424452005,88912
2650,315.0,0.414973410005,89247
2660,314.0,0.416550594005,89569
2670,315.0,0.418093138004,89898
2680,316.0,0.419684434004,90229
2690,314.0,0.421288560004,90572
2700,311.0,0.422873014004,90899
2710,313.0,0.424445921004,91230
2720,315.0,0.426051757004,91568
2730,314.0,0.427631080003,91896
2740,315.0,0.429235206004,92231
2750,314.0,0.430772618003,92572
2760,318.0,0.432440037002,92909
2770,317.0,0.433998832003,93246
2780,311.0,0.435524270002,93579
2790,311.0,0.437004376003,93923
2800,311.0,0.438424611003,94260
2810,312.0,0.440044560003,94598
2820,314.0,0.441596940002,94935
2830,311.0,0.443072343002,95280
2840,314.0,0.444484453003,95611
2850,312.0,0.446075322002,95950
2860,313.0,0.447725635002,96291
2870,316.0,0.449283147002,96629
2880,316.0,0.450838948002,96956
2890,313.0,0.452328463002,97293
2900,314.0,0.453874856003,97635
2910,313.0,0.455370786003,97967
2920,313.0,0.456923593003,98309
2930,315.0,0.458566207003,98635
2940,319.0,0.460106185003,98978
2950,316.0,0.461635044004,99312
2960,316.0,0.463250289004,99651
2970,317.0,0.464889055003,99988
2980,318.0,0.466508577003,100317
2990,317.0,0.468075925003,100646
3000,315.0,0.469632581003,100986
3010,317.0,0.471234569002,101309
3020,316.0,0.472745467002,101640
3030,314.0,0.474294426002,101984
3040,314.0,0.475840819002,102327
3050,311.0,0.477370961002,102669
3060,311.0,0.478901959003,103005
3070,311.0,0.480440654002,103334
3080,313.0,0.481963954002,103666
3090,311.0,0.483559099002,103999
3100,309.0,0.485193588002,104336
3110,310.0,0.486895647003,104678
3120,306.0,0.488410821003,105007
3130,311.0,0.489936259002,105344
3140,310.0,0.491439459002,105677
3150,308.0,0.493075659002,106003
3160,314.0,0.494649422002,106341
3170,310.0,0.496138509002,106668
3180,311.0,0.497733654002,106997
3190,312.0,0.499300574002,107338
3200,310.0,0.501007765001,107668
3210,310.0,0.502617023001,107994
3220,308.0,0.504286152001,108328
3230,309.0,0.505905246001,108674
3240,308.0,0.507532893002,109009
3250,310.0,0.509096819002,109339
3260,311.0,0.510642784001,109674
3270,309.0,0.512201151001,110015
3280,308.0,0.513795441001,110350
3290,307.0,0.515343544001,110682
3300,308.0,0.516942111001,111024
3310,306.0,0.518606108001,111363
3320,307.0,0.520165758001,111684
3330,306.0,0.521810084001,112031
3340,308.0,0.523454409001,112372
3350,308.0,0.524993959001,112712
3360,306.0,0.526613481001,113047
3370,310.0,0.528272347001,113384
3380,305.0,0.529709688001,113723
3390,308.0,0.531115811001,114062
3400,306.0,0.532676744001,114402
3410,309.0,0.534213301001,114743
3420,302.0,0.535790485001,115089
3430,301.0,0.537357405001,115431
3440,302.0,0.538883270001,115767
3450,303.0,0.540292814001,116096
3460,306.0,0.541988030001,116444
3470,304.0,0.543771342001,116781
3480,303.0,0.54534596,117121
3490,304.0,0.546791427,117450
3500,304.0,0.548238176,117781
3510,305.0,0.549820491001,118126
3520,304.0,0.551454553,118467
3530,305.0,0.552930383001,118800
3540,303.0,0.554565727001,119139
3550,302.0,0.555959020001,119472
3560,303.0,0.557350175001,119803
3570,305.0,0.558781529001,120130
3580,307.0,0.560229562001,120478
3590,307.0,0.561834543001,120814
3600,307.0,0.563427122001,121162
3610,307.0,0.565252772001,121505
3620,310.0,0.567105792002,121842
3630,307.0,0.568977201002,122176
3640,307.0,0.570687812002,122508
3650,311.0,0.572216671002,122858
3660,308.0,0.573828922002,123193
3670,309.0,0.575482656001,123525
3680,311.0,0.577141949002,123869
3690,311.0,0.579145931002,124199
3700,314.0,0.580782131003,124540
3710,310.0,0.582413199003,124881
3720,312.0,0.583911267003,125227
3730,309.0,0.585488023003,125558
3740,312.0,0.587125933002,125889
3750,311.0,0.588521792003,126216
3760,313.0,0.589927915003,126559
3770,314.0,0.591515790004,126892
3780,316.0,0.593175511003,127230
3790,316.0,0.594765524003,127560
3800,318.0,0.596370933004,127902
3810,318.0,0.597824953004,128228
3820,320.0,0.599365358004,128573
3830,318.0,0.600941259004,128895
3840,321.0,0.602673681004,129215
3850,321.0,0.604314158004,129541
3860,322.0,0.606078654004,129879
3870,323.0,0.607925686004,130207
3880,325.0,0.609764593004,130536
3890,325.0,0.611308420004,130867
3900,328.0,0.612843694004,131196
3910,327.0,0.614275048004,131539
3920,329.0,0.615924078004,131882
3930,332.0,0.617606464004,132211
3940,330.0,0.619181082004,132546
3950,331.0,0.620782642004,132888
3960,329.0,0.622380781004,133230
3970,329.0,0.623969511003,133560
3980,331.0,0.625424814003,133894
3990,335.0,0.627113615003,134230
4000,333.0,0.628712181003,134556
4010,334.0,0.630306043003,134889
4020,335.0,0.631899050003,135221
4030,336.0,0.633371887003,135548
4040,335.0,0.634823341003,135883
4050,334.0,0.636394965003,136216
4060,333.0,0.637920403004,136546
4070,333.0,0.639378699004,136890
4080,335.0,0.640799362004,137209
4090,334.0,0.642232427004,137545
4100,334.0,0.643804907005,137881
4110,331.0,0.645367979005,138218
4120,331.0,0.646813446005,138558
4130,333.0,0.648243945005,138889
4140,328.0,0.649698820005,139221
4150,329.0,0.651130602005,139554
4160,329.0,0.652556397004,139887
4170,327.0,0.654161806005,140223
4180,327.0,0.655784321005,140551
4190,327.0,0.657205412004,140877
4200,328.0,0.658615811005,141210
4210,330.0,0.663123700005,141543
4220,328.0,0.664716280005,141877
4230,330.0,0.666207078005,142214
4240,331.0,0.667717548004,142540
4250,331.0,0.669361446004,142888
4260,330.0,0.670987383003,143221
4270,334.0,0.672646248004,143567
4280,333.0,0.674274750003,143895
4290,334.0,0.675842953003,144229
4300,333.0,0.677433822002,144574
4310,332.0,0.679025974002,144908
4320,329.0,0.680583058002,145236
4330,331.0,0.682205145002,145584
4340,326.0,0.683812692001,145925
4350,325.0,0.685440767002,146265
4360,326.0,0.687062427002,146609
4370,326.0,0.688711884002,146948
4380,328.0,0.690356209002,147281
4390,326.0,0.691915859002,147608
4400,324.0,0.693473798002,147935
4410,326.0,0.695060390001,148269
4420,328.0,0.696575136002,148615
4430,329.0,0.698075342002,148945
4440,327.0,0.699638841003,149286
4450,327.0,0.701278035002,149615
4460,326.0,0.702858212002,149952
4470,328.0,0.704428554002,150294
4480,328.0,0.705942873003,150625
4490,328.0,0.707466600003,150948
4500,330.0,0.709121617003,151291
4510,327.0,0.710466158003,151628
4520,331.0,0.712042914003,151973
4530,327.0,0.713684673003,152311
4540,330.0,0.715220802002,152643
4550,331.0,0.716814237003,152960
4560,331.0,0.718391421003,153298
4570,331.0,0.719885213003,153638
4580,334.0,0.721481214004,153980
4590,332.0,0.723087478003,154303
4600,330.0,0.724618903003,154641
4610,333.0,0.726232865003,154976
4620,329.0,0.727857090003,155308
4630,328.0,0.729425293003,155643
4640,329.0,0.730987081003,155976
4650,327.0,0.732536896004,156317
4660,325.0,0.734058912004,156650
4670,327.0,0.735643794004,156981
4680,327.0,0.737171370004,157318
4690,327.0,0.738723323004,157653
4700,329.0,0.740306067003,157993
4710,329.0,0.741881541003,158327
4720,327.0,0.743479252003,158671
4730,329.0,0.745086371003,159004
4740,327.0,0.746730697003,159339
4750,330.0,0.748355350002,159677
4760,329.0,0.750053132002,160021
4770,332.0,0.751540937002,160351
4780,327.0,0.753482909002,160696
4790,323.0,0.755066936002,161042
4800,323.0,0.756595367002,161372
4810,323.0,0.758190084001,161698
4820,323.0,0.759789506002,162032
4830,320.0,0.761366690002,162369
4840,323.0,0.762806597001,162697
4850,326.0,0.764260617001,163031
4860,327.0,0.765939582001,163351
4870,327.0,0.767740001001,163694
4880,326.0,0.769303500001,164030
4890,323.0,0.770763079001,164357
4900,323.0,0.772192295,164688
4910,321.0,0.773915737001,165029
4920,320.0,0.775477953001,165363
4930,318.0,0.777123561001,165698
4940,321.0,0.778700317001,166034
4950,319.0,0.780273225,166370
4960,321.0,0.781912419,166710
4970,321.0,0.783507992,167040
4980,320.0,0.785152318,167380
4990,322.0,0.786593934999,167714
