it,funval,time,funcount
0,69.0,0.00108067899998,644
10,68.0,0.00215408700001,1193
20,72.0,0.00322578500004,1736
30,74.0,0.004292351,2281
40,77.0,0.00533026399989,2827
50,81.0,0.00635577499986,3366
60,81.0,0.00738128599983,3913
70,81.0,0.00839867199988,4464
80,80.0,0.00941990699994,5019
90,84.0,0.0104223259999,5570
100,83.0,0.0114114869999,6113
110,81.0,0.0124010759999,6665
120,82.0,0.0133953689999,7206
130,83.0,0.014356733,7758
140,85.0,0.015329643,8296
150,87.0,0.016295284,8845
160,85.0,0.017369548,9393
170,85.0,0.0183514390001,9943
180,85.0,0.0192905640001,10497
190,83.0,0.0202309730001,11055
200,85.0,0.0211525650001,11604
210,86.0,0.022080144,12160
220,85.0,0.023009861,12703
230,85.0,0.0239254659999,13254
240,84.0,0.0248376499999,13801
250,84.0,0.0257562489999,14340
260,84.0,0.0266992239998,14890
270,85.0,0.0275934459999,15446
280,84.0,0.0285329989998,16000
290,86.0,0.0294652819998,16555
300,84.0,0.0303629259998,17106
310,85.0,0.0312943539998,17643
320,85.0,0.0322313419998,18200
330,87.0,0.0331401039998,18752
340,87.0,0.0341078829997,19304
350,84.0,0.0350273359998,19844
360,84.0,0.0359549149998,20397
370,86.0,0.0368897639999,20943
380,86.0,0.0378481339999,21486
390,85.0,0.0387680149998,22039
400,86.0,0.0396857579999,22582
410,85.0,0.0406167579999,23129
420,87.0,0.041562299,23674
430,86.0,0.0427066980001,24228
440,86.0,0.0436650680001,24775
450,86.0,0.0446136020001,25325
460,87.0,0.0455381870001,25875
470,87.0,0.0464546470001,26419
480,87.0,0.0473544290002,26972
490,87.0,0.0483076670001,27529
500,86.0,0.0492399500001,28065
510,85.0,0.0501671020002,28614
520,86.0,0.0511186290001,29163
530,85.0,0.0520740060001,29726
540,86.0,0.0530174090001,30274
550,85.0,0.0539424220001,30827
560,86.0,0.0548828300001,31378
570,88.0,0.0559224540001,31917
580,88.0,0.0568812520002,32456
590,88.0,0.0578250820001,33002
600,89.0,0.0587573650001,33549
610,88.0,0.0596704040001,34103
620,88.0,0.0605795940002,34657
630,88.0,0.0615212850001,35209
640,89.0,0.0624420210002,35753
650,88.0,0.0634042400002,36294
660,90.0,0.0643437940001,36842
670,88.0,0.0652542670001,37393
680,91.0,0.0661822740001,37941
690,88.0,0.0671594610001,38493
700,88.0,0.0681114160001,39045
710,90.0,0.0690274490001,39593
720,88.0,0.0699507520002,40145
730,88.0,0.0708522440002,40694
740,88.0,0.0717665660002,41247
750,88.0,0.0726834540001,41792
760,88.0,0.0736123160001,42346
770,88.0,0.07458822,42898
780,89.0,0.0755106680001,43446
790,89.0,0.0764271280001,43991
800,92.0,0.077367964,44543
810,91.0,0.0782852790001,45086
820,90.0,0.0792226940001,45630
830,91.0,0.0801673800001,46188
840,90.0,0.0811201900001,46739
850,91.0,0.0820409260001,47293
860,91.0,0.0829394250001,47838
870,90.0,0.083868715,48381
880,90.0,0.084819388,48933
890,90.0,0.085743546,49489
900,90.0,0.086670697,50040
910,90.0,0.087594427,50585
920,89.0,0.088519868,51134
930,89.0,0.0894410320001,51690
940,89.0,0.0903733150001,52223
950,89.0,0.091300894,52769
960,89.0,0.09225285,53315
970,89.0,0.093171449,53865
980,88.0,0.094063961,54414
990,89.0,0.095000521,54963
1000,89.0,0.095916126,55512
1010,90.0,0.0968441330001,56058
1020,90.0,0.0977567440001,56597
1030,91.0,0.0987228120001,57140
1040,90.0,0.0996781880001,57687
1050,89.0,0.100606622,58231
1060,90.0,0.101755297,58777
1070,90.0,0.102696133,59332
1080,92.0,0.103623285,59884
1090,89.0,0.104554285,60430
1100,89.0,0.105491272,60985
1110,90.0,0.106439379,61537
1120,91.0,0.107399459,62077
1130,90.0,0.108390758,62626
1140,90.0,0.109358536,63172
1150,90.0,0.110317761,63719
1160,90.0,0.111268861,64272
1170,91.0,0.112265292,64816
1180,90.0,0.113245045,65366
1190,90.0,0.114202988,65910
1200,89.0,0.115155371,66464
1210,91.0,0.116100911,67017
1220,91.0,0.117074677,67561
1230,91.0,0.117994559,68111
1240,91.0,0.118938816,68656
1250,91.0,0.119863829,69202
1260,92.0,0.120799534,69746
1270,92.0,0.121724975,70295
1280,91.0,0.122877927,70857
1290,91.0,0.123805934,71402
1300,89.0,0.124716835,71953
1310,88.0,0.125655961,72512
1320,88.0,0.126592521,73061
1330,89.0,0.127506415,73610
1340,89.0,0.12841646,74158
1350,88.0,0.129362,74703
1360,89.0,0.130300698,75250
1370,88.0,0.131227849,75799
1380,88.0,0.132177666,76345
1390,90.0,0.133095837,76885
1400,89.0,0.134009303001,77436
1410,88.0,0.134932605001,77985
1420,90.0,0.135865744001,78534
1430,89.0,0.136810429001,79083
1440,88.0,0.137750410001,79633
1450,88.0,0.138702365001,80189
1460,89.0,0.139665439001,80733
1470,86.0,0.140605848001,81288
1480,88.0,0.141551388001,81838
1490,87.0,0.142510614001,82383
1500,88.0,0.143453161,82937
1510,88.0,0.144410249,83494
1520,88.0,0.145367763,84040
1530,87.0,0.146344522001,84593
1540,88.0,0.147305886,85146
1550,86.0,0.148258696001,85690
1560,87.0,0.1491743,86237
1570,88.0,0.150127538,86794
1580,89.0,0.151058966001,87348
1590,89.0,0.152030165,87889
1600,88.0,0.152957744,88437
1610,88.0,0.153887889,88980
1620,88.0,0.154844976001,89524
1630,88.0,0.155857658001,90067
1640,88.0,0.15678652,90611
1650,88.0,0.157696138,91165
1660,85.0,0.15861217,91713
1670,85.0,0.159573961,92261
1680,86.0,0.160492131001,92803
1690,86.0,0.161441092001,93356
1700,87.0,0.162416141001,93912
1710,88.0,0.163348852001,94460
1720,86.0,0.164282846001,95005
1730,87.0,0.165225393001,95549
1740,87.0,0.166151689001,96104
1750,86.0,0.167136574001,96649
1760,86.0,0.168112905001,97201
1770,87.0,0.169056307001,97744
1780,88.0,0.169959510001,98290
1790,87.0,0.170916170001,98823
1800,87.0,0.171845032001,99379
1810,86.0,0.172753367,99933
1820,86.0,0.173673248,100485
1830,87.0,0.174605104,101042
1840,88.0,0.175535249,101590
1850,88.0,0.17647523,102143
1860,88.0,0.177434028,102689
1870,89.0,0.178362034,103232
1880,90.0,0.179292179,103782
1890,89.0,0.180221469,104334
1900,88.0,0.181187965,104886
1910,89.0,0.182150611,105432
1920,91.0,0.183108126,105982
1930,89.0,0.184028008,106530
1940,87.0,0.184953449,107076
1950,89.0,0.185893857,107611
1960,89.0,0.186816732,108160
1970,88.0,0.187744739,108706
1980,90.0,0.188694556,109254
1990,88.0,0.189605457,109807
2000,89.0,0.190707518,110359
2010,91.0,0.191643223,110914
2020,90.0,0.192584059,111466
2030,90.0,0.193533021,112014
2040,91.0,0.194467015,112561
2050,92.0,0.195374922,113117
2060,92.0,0.196298225,113664
2070,92.0,0.197193731,114204
2080,91.0,0.198144831,114753
2090,91.0,0.199405979,115303
2100,90.0,0.200426359,115854
2110,90.0,0.201374466,116402
2120,92.0,0.202311026,116951
2130,92.0,0.203254429,117491
2140,92.0,0.204151645,118045
2150,92.0,0.205058697,118590
2160,92.0,0.205965749,119145
2170,93.0,0.206870235,119704
2180,94.0,0.207787978,120238
2190,93.0,0.208699734,120788
2200,92.0,0.209593101,121336
2210,92.0,0.210554892,121882
2220,92.0,0.21145724,122432
2230,93.0,0.212381825,122980
2240,92.0,0.213288022,123536
2250,92.0,0.214244254,124085
2260,93.0,0.215203479,124619
2270,92.0,0.216128492,125163
2280,93.0,0.217056071,125707
2290,92.0,0.217981512,126265
2300,93.0,0.218894123,126813
2310,93.0,0.219829399,127355
2320,94.0,0.220761682,127899
2330,94.0,0.221681136,128444
2340,93.0,0.222640361,128990
2350,92.0,0.223542281,129540
2360,93.0,0.224505783,130095
2370,93.0,0.225446192,130653
2380,93.0,0.226470848,131200
2390,92.0,0.227839337,131756
2400,92.0,0.22877889,132305
2410,91.0,0.22974453,132845
2420,92.0,0.230717441,133393
2430,91.0,0.231667258,133933
2440,93.0,0.232755207,134480
2450,89.0,0.233706734,135029
2460,91.0,0.234658689,135585
2470,91.0,0.235582847,136127
2480,92.0,0.236519407,136670
2490,91.0,0.237438433,137230
2500,91.0,0.238360453,137780
2510,92.0,0.23931027,138332
2520,93.0,0.240227158,138883
2530,92.0,0.241197502,139427
2540,92.0,0.242107547,139970
2550,92.0,0.243100129,140519
2560,93.0,0.244187651,141064
2570,93.0,0.245131481,141618
2580,94.0,0.246061198,142171
2590,93.0,0.246981934,142720
2600,93.0,0.247885992,143272
2610,92.0,0.248813144,143816
2620,91.0,0.249724045,144372
2630,92.0,0.250831238,144918
2640,90.0,0.251778917,145465
2650,90.0,0.252710772,146017
2660,90.0,0.253634502,146558
2670,90.0,0.254589023,147111
2680,90.0,0.25552601,147658
2690,91.0,0.256452734,148213
2700,91.0,0.25738459,148760
2710,90.0,0.258326709,149314
2720,90.0,0.259265835,149864
2730,89.0,0.260297761,150411
2740,89.0,0.261233893,150959
2750,91.0,0.262165321,151503
2760,90.0,0.263130961,152056
2770,91.0,0.264073508,152596
2780,90.0,0.265060531,153144
2790,90.0,0.266007782,153687
2800,90.0,0.266955888,154229
2810,88.0,0.268167428,154779
2820,89.0,0.269092014,155327
2830,89.0,0.270006763,155869
2840,90.0,0.271022866,156412
2850,90.0,0.271953866,156960
2860,89.0,0.272876741,157505
2870,89.0,0.273810735,158047
2880,90.0,0.274708379,158594
2890,90.0,0.275678724,159154
2900,91.0,0.276593901,159704
2910,92.0,0.277505657,160247
2920,91.0,0.278407577,160794
2930,90.0,0.279334729,161354
2940,91.0,0.280249478,161899
2950,90.0,0.281165083,162451
2960,91.0,0.282124308,163002
2970,91.0,0.283041623,163546
2980,91.0,0.283987591,164089
2990,89.0,0.28496435,164637
3000,90.0,0.285878671,165186
3010,89.0,0.286847305,165730
3020,91.0,0.287780871,166285
3030,90.0,0.28873026,166833
3040,90.0,0.289651424,167381
3050,91.0,0.290565319,167932
3060,89.0,0.291477075,168477
3070,89.0,0.29240722,169028
3080,89.0,0.293368584,169579
3090,90.0,0.294388536,170121
3100,90.0,0.2953298,170668
3110,88.0,0.296297151,171220
3120,89.0,0.297228579,171765
3130,89.0,0.298195502,172312
3140,89.0,0.299118805,172859
3150,88.0,0.300042963,173412
3160,88.0,0.300949159,173961
3170,88.0,0.301884009,174517
3180,89.0,0.302837675,175056
3190,88.0,0.303769959,175609
3200,88.0,0.304719348,176154
3210,88.0,0.305663178,176703
3220,88.0,0.306588191,177254
3230,88.0,0.307547416,177807
3240,87.0,0.308465587,178359
3250,88.0,0.309393166999,178903
3260,87.0,0.310339563,179449
3270,86.0,0.31128767,180003
3280,86.0,0.31221525,180552
3290,85.0,0.313147105,181091
3300,86.0,0.31407169,181638
3310,85.0,0.314985155999,182184
3320,84.0,0.315917438999,182730
3330,86.0,0.316850578,183281
3340,86.0,0.317749503999,183829
3350,84.0,0.318643298,184379
3360,83.0,0.319542224,184925
3370,84.0,0.320442860999,185485
3380,84.0,0.321331095999,186031
3390,85.0,0.322252687999,186584
3400,84.0,0.323223887999,187134
3410,85.0,0.324150610999,187686
3420,85.0,0.325080328,188237
3430,85.0,0.32607847,188780
3440,85.0,0.327044537999,189330
3450,86.0,0.327963991999,189874
3460,87.0,0.328887295,190423
3470,86.0,0.329831124999,190972
3480,87.0,0.330745018999,191522
3490,88.0,0.331686282999,192077
3500,87.0,0.332627118999,192627
3510,88.0,0.333566671999,193188
3520,88.0,0.334535732999,193742
3530,88.0,0.335453048999,194288
3540,88.0,0.336413556999,194843
3550,88.0,0.337331727999,195390
3560,88.0,0.338278978999,195943
3570,87.0,0.339239914999,196490
3580,89.0,0.340151670999,197038
3590,87.0,0.341051024999,197579
3600,89.0,0.341957221999,198138
3610,88.0,0.342910459999,198687
3620,89.0,0.343858566999,199229
3630,89.0,0.344778448999,199772
3640,88.0,0.345692343999,200327
3650,88.0,0.346617784999,200882
3660,87.0,0.347535955999,201435
3670,87.0,0.348430605999,201984
3680,88.0,0.349391541999,202529
3690,89.0,0.350308857999,203083
3700,89.0,0.351218476,203631
3710,88.0,0.352125955999,204184
3720,88.0,0.353044127,204740
3730,88.0,0.353926801999,205287
3740,88.0,0.354848394,205835
3750,87.0,0.355774263,206383
3760,87.0,0.356663781,206932
3770,87.0,0.357566556,207477
3780,88.0,0.358886721,208022
3790,87.0,0.359811734,208567
3800,86.0,0.360732471,209115
3810,86.0,0.361668603,209665
3820,86.0,0.362600886,210213
3830,86.0,0.363537018,210756
3840,86.0,0.364458181999,211309
3850,88.0,0.365482410999,211859
3860,87.0,0.366436504999,212416
3870,86.0,0.367373492,212970
3880,88.0,0.368469138,213521
3890,87.0,0.369424087,214074
3900,85.0,0.370352093999,214624
3910,84.0,0.371301056,215183
3920,84.0,0.372248306999,215733
3930,85.0,0.373164338999,216279
3940,85.0,0.374082082,216827
3950,86.0,0.375089205,217383
3960,86.0,0.376055701,217929
3970,86.0,0.377008939,218476
3980,86.0,0.377929248,219028
3990,86.0,0.378849984,219583
4000,85.0,0.379775424999,220133
4010,84.0,0.380709845999,220685
4020,86.0,0.381614331,221233
4030,85.0,0.382538916,221776
4040,86.0,0.38349472,222327
4050,86.0,0.384441543,222875
4060,85.0,0.38534945,223422
4070,88.0,0.386266338,223962
4080,86.0,0.387222998,224517
4090,85.0,0.388154854,225066
4100,86.0,0.389092697,225606
4110,86.0,0.390024553,226155
4120,86.0,0.390979075,226705
4130,86.0,0.391934879,227248
4140,85.0,0.392852195,227793
4150,86.0,0.393790037,228343
4160,86.0,0.394699227,228891
4170,86.0,0.395601147,229443
4180,85.0,0.396533431,229995
4190,86.0,0.397465714,230543
4200,86.0,0.398408688,231095
4210,87.0,0.399351235,231648
4220,87.0,0.40509889,232190
4230,87.0,0.406059398,232738
4240,85.0,0.407017768,233289
4250,88.0,0.407960315,233835
4260,87.0,0.408892598,234382
4270,87.0,0.409832152,234934
4280,88.0,0.410800786,235479
4290,84.0,0.411748037,236017
4300,87.0,0.412741047,236564
4310,87.0,0.41365879,237116
4320,87.0,0.414593639,237658
4330,85.0,0.415517369,238206
4340,85.0,0.416460343,238757
4350,86.0,0.417401607,239309
4360,86.0,0.418351852,239862
4370,87.0,0.419290551,240407
4380,87.0,0.420289548,240948
4390,88.0,0.421230812,241503
4400,89.0,0.422165661,242056
4410,91.0,0.423153967,242605
4420,92.0,0.424098225,243157
4430,90.0,0.425052318,243702
4440,92.0,0.425997003,244252
4450,93.0,0.427011396,244799
4460,93.0,0.427999701,245353
4470,92.0,0.428942248,245899
4480,94.0,0.429875386,246444
4490,94.0,0.430829052,246991
4500,94.0,0.431765612,247547
4510,93.0,0.432686349,248101
4520,93.0,0.433614356,248648
4530,94.0,0.434542791,249199
4540,92.0,0.435454547,249746
4550,94.0,0.436382981,250303
4560,94.0,0.437346055,250859
4570,94.0,0.43828518,251397
4580,93.0,0.439229865,251944
4590,93.0,0.440201065,252492
4600,93.0,0.441205622,253045
4610,94.0,0.442156722,253593
4620,93.0,0.443091999,254145
4630,93.0,0.44404652,254697
4640,93.0,0.444974955,255251
4650,94.0,0.445887139,255800
4660,93.0,0.446815146,256349
4670,92.0,0.447728613,256896
4680,92.0,0.448644646,257455
4690,93.0,0.449567521,258000
4700,91.0,0.450466875,258548
4710,92.0,0.451401724,259100
4720,92.0,0.452319894,259645
4730,92.0,0.453259447,260198
4740,94.0,0.454212685,260742
4750,92.0,0.455158225,261301
4760,92.0,0.456082811,261860
4770,91.0,0.457068551,262415
4780,91.0,0.45801067,262969
4790,92.0,0.458951079,263517
4800,92.0,0.45987481,264066
4810,92.0,0.460786138,264613
4820,92.0,0.46171329,265164
4830,92.0,0.462647712,265712
4840,93.0,0.463576146,266263
4850,93.0,0.464508429,266813
4860,93.0,0.465435153,267365
4870,91.0,0.466411485,267919
4880,93.0,0.467337781,268467
4890,93.0,0.46825809,269009
4900,93.0,0.469185242,269553
4910,94.0,0.470116243,270103
4920,94.0,0.471048954,270649
4930,94.0,0.472021865,271197
4940,94.0,0.472943457,271747
4950,94.0,0.473863766,272294
4960,95.0,0.474788352,272839
4970,93.0,0.475742873,273389
4980,94.0,0.476639661,273943
4990,94.0,0.477580498,274497
