it,funval,time,funcount
0,289.0,0.00182137400043,285
10,291.0,0.00345971200022,472
20,296.0,0.00511558400103,664
30,300.0,0.00675263900121,854
40,308.0,0.00838114200178,1036
50,305.0,0.00998484000229,1222
60,312.0,0.0115645900023,1408
70,307.0,0.0131379250024,1604
80,305.0,0.0146779040024,1793
90,307.0,0.0162409750019,1980
100,306.0,0.017837831002,2165
110,308.0,0.0193701120015,2355
120,313.0,0.0208835750018,2539
130,304.0,0.0224047360016,2721
140,304.0,0.023889975002,2906
150,306.0,0.0253692260021,3101
160,303.0,0.0268737090018,3290
170,303.0,0.0283354270023,3474
180,301.0,0.0297800390017,3663
190,301.0,0.031192149002,3851
200,302.0,0.0326324840025,4038
210,302.0,0.034024067003,4224
220,303.0,0.035713723003,4417
230,302.0,0.0371711640028,4605
240,302.0,0.0386140650025,4792
250,303.0,0.0400424260024,4978
260,301.0,0.0414151920022,5167
270,301.0,0.0427939450019,5356
280,301.0,0.0441932250023,5545
290,305.0,0.0456374080022,5730
300,304.0,0.0471743930029,5914
310,303.0,0.0485334740024,6097
320,303.0,0.0499336090024,6290
330,304.0,0.0512259760026,6476
340,308.0,0.0524948220027,6658
350,307.0,0.0538064340035,6846
360,306.0,0.055112058003,7038
370,307.0,0.0563573830032,7227
380,307.0,0.0576493230037,7416
390,308.0,0.0589463950037,7604
400,306.0,0.0602922180042,7787
410,307.0,0.0616243570039,7972
420,305.0,0.0630232100038,8154
430,307.0,0.0643147220044,8338
440,307.0,0.0656964690043,8526
450,304.0,0.0671038750042,8717
460,304.0,0.0685998040044,8904
470,301.0,0.0698814800044,9094
480,300.0,0.0711610170047,9285
490,301.0,0.0725042750046,9473
500,302.0,0.0738826000043,9667
510,301.0,0.0752510890043,9849
520,301.0,0.0766354020043,10042
530,300.0,0.0780282670039,10230
540,301.0,0.0794463640041,10413
550,302.0,0.080735737004,10597
560,301.0,0.0821358720041,10784
570,302.0,0.0835035060045,10972
580,304.0,0.0849130500046,11163
590,301.0,0.0862126870043,11351
600,302.0,0.0875041990039,11537
610,303.0,0.0888410420039,11720
620,301.0,0.0902625600038,11903
630,302.0,0.0916609850037,12094
640,301.0,0.0930162170034,12282
650,303.0,0.0943782920031,12472
660,303.0,0.0957771440035,12660
670,303.0,0.0971811280033,12847
680,302.0,0.0985898170038,13037
690,303.0,0.0999587340038,13222
700,303.0,0.101301992004,13406
710,304.0,0.102642684004,13583
720,303.0,0.104069762003,13764
730,300.0,0.105448943003,13946
740,300.0,0.106828124003,14132
750,300.0,0.111472434003,14310
760,299.0,0.112935862003,14490
770,300.0,0.114333432003,14675
780,299.0,0.115852027003,14861
790,300.0,0.117256439003,15043
800,299.0,0.118651870002,15228
810,301.0,0.119988713002,15412
820,301.0,0.121425627002,15600
830,300.0,0.123047715003,15784
840,304.0,0.124688191003,15969
850,301.0,0.126060102003,16155
860,300.0,0.127470502003,16335
870,301.0,0.128935641002,16514
880,302.0,0.130382818003,16695
890,304.0,0.131921514003,16889
900,304.0,0.133392212003,17077
910,305.0,0.134894985003,17262
920,305.0,0.136318214003,17446
930,304.0,0.137723054003,17631
940,304.0,0.139199312002,17816
950,303.0,0.140641785003,18007
960,305.0,0.142052612004,18197
970,305.0,0.143420246004,18388
980,303.0,0.144848606004,18575
990,303.0,0.146295356005,18761
1000,304.0,0.147686938005,18952
1010,303.0,0.149075955005,19142
1020,304.0,0.150556917006,19330
1030,304.0,0.151970309005,19515
1040,307.0,0.153511143005,19702
1050,306.0,0.154920687005,19888
1060,304.0,0.156374707005,20078
1070,305.0,0.157845405005,20263
1080,304.0,0.159651383005,20450
1090,303.0,0.161053229004,20638
1100,302.0,0.162473892005,20829
1110,304.0,0.163924490005,21017
1120,303.0,0.165342587005,21212
1130,303.0,0.166775652005,21400
1140,302.0,0.168196315005,21585
1150,304.0,0.169580628005,21766
1160,303.0,0.171023101006,21957
1170,305.0,0.172441625005,22136
1180,305.0,0.173860149006,22327
1190,302.0,0.175272259006,22510
1200,303.0,0.176704468006,22696
1210,304.0,0.178146941007,22881
1220,305.0,0.179572308007,23068
1230,304.0,0.180983562007,23253
1240,304.0,0.182418337007,23439
1250,304.0,0.183821894007,23626
1260,302.0,0.185308415007,23812
1270,303.0,0.186833425008,24002
1280,303.0,0.188497850007,24191
1290,302.0,0.190024571007,24377
1300,303.0,0.191448656006,24566
1310,304.0,0.192894978006,24750
1320,304.0,0.194337879006,24939
1330,301.0,0.195748278005,25124
1340,302.0,0.197214272005,25308
1350,303.0,0.198633652005,25493
1360,302.0,0.200046189006,25674
1370,302.0,0.201491228006,25860
1380,301.0,0.202921727006,26049
1390,302.0,0.204314165006,26226
1400,303.0,0.205715583005,26413
1410,302.0,0.207138384006,26606
1420,303.0,0.208554342006,26797
1430,304.0,0.210083629006,26982
1440,304.0,0.211501726006,27170
1450,304.0,0.212904427006,27352
1460,303.0,0.214298148006,27545
1470,305.0,0.215732924006,27734
1480,304.0,0.217191220006,27918
1490,305.0,0.218611456006,28107
1500,304.0,0.220101826006,28294
1510,304.0,0.221547292006,28480
1520,301.0,0.223004305007,28667
1530,303.0,0.224437370007,28853
1540,303.0,0.225811846007,29043
1550,304.0,0.227217114007,29234
1560,304.0,0.228627513007,29421
1570,302.0,0.230136700007,29608
1580,302.0,0.231504333007,29795
1590,302.0,0.232843314007,29988
1600,301.0,0.234263550007,30178
1610,301.0,0.235688490007,30366
1620,303.0,0.237114713008,30554
1630,301.0,0.238553338007,30743
1640,301.0,0.240005647008,30930
1650,302.0,0.241445555008,31114
1660,300.0,0.242829867007,31304
1670,300.0,0.244182961007,31484
1680,300.0,0.245642968008,31671
1690,300.0,0.247070901008,31858
1700,301.0,0.248498834007,32046
1710,301.0,0.249929333007,32236
1720,303.0,0.251334173007,32420
1730,301.0,0.252707794008,32610
1740,301.0,0.254125891007,32799
1750,302.0,0.255522178007,32982
1760,301.0,0.256908629007,33160
1770,301.0,0.258269848007,33346
1780,301.0,0.259677681008,33536
1790,302.0,0.261163347008,33729
1800,302.0,0.262623781008,33924
1810,302.0,0.264015364009,34111
1820,301.0,0.265488201008,34302
1830,302.0,0.266935806008,34491
1840,299.0,0.268362884009,34684
1850,302.0,0.269797659009,34868
1860,299.0,0.27123200701,35052
1870,300.0,0.27278011101,35237
1880,302.0,0.27432522101,35426
1890,302.0,0.27576384501,35613
1900,300.0,0.27717809301,35806
1910,303.0,0.278619710009,35994
1920,300.0,0.28017893301,36180
1930,301.0,0.28161541901,36362
1940,302.0,0.28341156101,36553
1950,304.0,0.28520299901,36739
1960,304.0,0.286714325011,36929
1970,304.0,0.28816022001,37118
1980,302.0,0.289584731011,37307
1990,304.0,0.291056712012,37491
2000,303.0,0.292664260011,37683
2010,305.0,0.294132393012,37868
2020,303.0,0.295587268011,38054
2030,302.0,0.297312848011,38242
2040,305.0,0.29873949801,38429
2050,306.0,0.30020164301,38620
2060,310.0,0.30159621901,38800
2070,308.0,0.30308872801,38985
2080,308.0,0.30447774401,39168
2090,311.0,0.30592791501,39357
2100,309.0,0.30745463601,39540
2110,310.0,0.308888983011,39721
2120,308.0,0.310354550011,39913
2130,308.0,0.311760672011,40099
2140,307.0,0.313246766011,40292
2150,307.0,0.314667856012,40472
2160,306.0,0.316141547011,40661
2170,304.0,0.317556223012,40850
2180,306.0,0.318990999011,41036
2190,308.0,0.320493771012,41222
2200,307.0,0.321940520012,41405
2210,308.0,0.323323549012,41597
2220,306.0,0.324777996012,41783
2230,308.0,0.326250832011,41970
2240,309.0,0.327748900012,42159
2250,307.0,0.329215322012,42353
2260,309.0,0.330668487011,42539
2270,311.0,0.332116948011,42727
2280,309.0,0.333503827012,42914
2290,312.0,0.334900542011,43096
2300,309.0,0.336366537012,43280
2310,309.0,0.337764961011,43468
2320,308.0,0.339212566011,43664
2330,310.0,0.340597733011,43853
2340,310.0,0.342026093012,44046
2350,310.0,0.343424946012,44231
2360,312.0,0.344828503013,44418
2370,310.0,0.346327427013,44606
2380,311.0,0.350768175013,44788
2390,311.0,0.352190976014,44976
2400,310.0,0.353601803014,45166
2410,309.0,0.355056251014,45351
2420,310.0,0.356418753013,45538
2430,310.0,0.357869351013,45724
2440,310.0,0.359328075012,45909
2450,311.0,0.360784661012,46094
2460,316.0,0.362306250012,46279
2470,309.0,0.363755566012,46469
2480,309.0,0.365176657011,46650
2490,309.0,0.366559687011,46844
2500,308.0,0.36797949401,47024
2510,308.0,0.36947414101,47213
2520,309.0,0.37089694201,47403
2530,310.0,0.37228424801,47592
2540,309.0,0.373754091011,47782
2550,311.0,0.375199558011,47966
2560,311.0,0.37665571701,48156
2570,311.0,0.37807680701,48341
2580,312.0,0.379706165009,48531
2590,309.0,0.381174297009,48715
2600,312.0,0.38258854501,48902
2610,310.0,0.38400279301,49085
2620,311.0,0.38543842301,49270
2630,310.0,0.38689372601,49455
2640,310.0,0.388265209011,49648
2650,311.0,0.38967603601,49839
2660,311.0,0.391073178011,50030
2670,311.0,0.392486571011,50219
2680,311.0,0.39386532401,50397
2690,310.0,0.395287697011,50582
2700,309.0,0.396727604011,50763
2710,310.0,0.398194881011,50950
2720,309.0,0.399589884012,51138
2730,310.0,0.400969065013,51327
2740,311.0,0.402383313013,51520
2750,310.0,0.403763777013,51710
2760,311.0,0.405471395014,51893
2770,313.0,0.406942093014,52071
2780,312.0,0.408327688014,52256
2790,315.0,0.409989975014,52437
2800,313.0,0.411379847013,52624
2810,313.0,0.412782976013,52806
2820,313.0,0.414198079013,52991
2830,312.0,0.415684600012,53180
2840,312.0,0.417124935013,53369
2850,314.0,0.418568264013,53549
2860,312.0,0.419975670013,53730
2870,312.0,0.421347153013,53915
2880,314.0,0.422816141013,54096
2890,312.0,0.424237659013,54281
2900,313.0,0.425615556012,54467
2910,312.0,0.426988749012,54659
2920,312.0,0.428373917012,54849
2930,312.0,0.429845043012,55035
2940,311.0,0.431231494013,55220
2950,311.0,0.432708180013,55408
2960,312.0,0.434144667013,55598
2970,314.0,0.435502892013,55784
2980,312.0,0.436909870013,55971
2990,313.0,0.438339086013,56160
3000,313.0,0.439817482013,56346
3010,314.0,0.441703004014,56531
3020,314.0,0.443142483014,56719
3030,316.0,0.444585384013,56907
3040,313.0,0.445935485014,57088
3050,316.0,0.447427139015,57282
3060,316.0,0.448917509015,57470
3070,314.0,0.450349291014,57660
3080,314.0,0.451806732015,57848
3090,315.0,0.453274009015,58028
3100,314.0,0.454751549015,58218
3110,313.0,0.456202148014,58404
3120,315.0,0.457574914014,58586
3130,313.0,0.459070844014,58768
3140,319.0,0.460463709014,58951
3150,319.0,0.461895064014,59138
3160,319.0,0.463306747015,59329
3170,320.0,0.464785998015,59518
3180,319.0,0.466248143015,59705
3190,319.0,0.467729961016,59894
3200,316.0,0.469255399015,60076
3210,316.0,0.470741920015,60266
3220,318.0,0.472265219015,60453
3230,318.0,0.473721804015,60640
3240,320.0,0.475297277015,60820
3250,319.0,0.477002329015,61006
3260,318.0,0.478437104014,61192
3270,318.0,0.479846221015,61379
3280,318.0,0.481325472015,61568
3290,317.0,0.482865878015,61758
3300,319.0,0.484251901015,61949
3310,315.0,0.485687959015,62141
3320,315.0,0.487096647015,62326
3330,316.0,0.488548529016,62515
3340,316.0,0.489958500017,62704
3350,316.0,0.491522854017,62887
3360,316.0,0.492962761016,63074
3370,316.0,0.494663964016,63258
3380,316.0,0.496178710016,63444
3390,316.0,0.497685759015,63627
3400,316.0,0.499101290015,63819
3410,316.0,0.500501426016,64010
3420,316.0,0.501949887016,64194
3430,316.0,0.503342753015,64376
3440,315.0,0.504726638015,64568
3450,316.0,0.506124208015,64754
3460,314.0,0.507524343015,64943
3470,314.0,0.509462039015,65130
3480,315.0,0.510907078016,65319
3490,315.0,0.512423108016,65504
3500,314.0,0.513841205016,65692
3510,315.0,0.515231077016,65881
3520,316.0,0.516767634016,66071
3530,317.0,0.518154512016,66263
3540,316.0,0.519557214016,66455
3550,314.0,0.520958633016,66638
3560,316.0,0.522383572015,66828
3570,317.0,0.523820058015,67012
3580,316.0,0.525224471015,67201
3590,313.0,0.526800799015,67391
3600,314.0,0.528351469015,67580
3610,314.0,0.529846971015,67766
3620,316.0,0.531340335015,67954
3630,316.0,0.532755438015,68137
3640,317.0,0.534172252015,68324
3650,317.0,0.535537320015,68512
3660,315.0,0.536929757016,68699
3670,313.0,0.538298674016,68885
3680,315.0,0.539657327015,69063
3690,315.0,0.541120328015,69255
3700,315.0,0.542474704016,69445
3710,317.0,0.543940270016,69631
3720,315.0,0.545586306016,69814
3730,315.0,0.546919728015,69999
3740,317.0,0.548340819015,70190
3750,317.0,0.549862408016,70376
3760,316.0,0.551298466015,70561
3770,316.0,0.552713142016,70753
3780,317.0,0.554144924015,70935
3790,317.0,0.555558744015,71128
3800,315.0,0.557029870015,71316
3810,316.0,0.558446684015,71504
3820,317.0,0.559846820015,71688
3830,316.0,0.561386371015,71873
3840,318.0,0.562857497015,72056
3850,317.0,0.564253356016,72240
3860,316.0,0.565628260016,72435
3870,316.0,0.567051916016,72630
3880,315.0,0.568544852015,72816
3890,315.0,0.569988181015,73003
3900,313.0,0.571412692016,73187
3910,314.0,0.572845757016,73375
3920,316.0,0.574240333015,73564
3930,316.0,0.575634482015,73752
3940,317.0,0.577070112015,73945
3950,320.0,0.578469392014,74132
3960,317.0,0.579888772014,74312
3970,318.0,0.581313711014,74502
3980,316.0,0.582782699014,74683
3990,317.0,0.584339356014,74871
4000,317.0,0.585796369015,75053
4010,316.0,0.590351300015,75243
4020,316.0,0.591816438015,75430
4030,315.0,0.593208876016,75616
4040,316.0,0.594648784016,75804
4050,314.0,0.596132312015,75992
4060,314.0,0.597563666015,76178
4070,316.0,0.599051470015,76360
4080,314.0,0.600425518015,76552
4090,315.0,0.601804699016,76741
4100,314.0,0.603229210015,76928
4110,312.0,0.604619509016,77109
4120,312.0,0.605999545016,77295
4130,312.0,0.607358199016,77483
4140,310.0,0.608800244016,77668
4150,313.0,0.610616486017,77860
4160,313.0,0.612077348017,78048
4170,314.0,0.613499293017,78233
4180,315.0,0.615314679018,78418
4190,311.0,0.616675470017,78606
4200,310.0,0.618120937017,78797
4210,309.0,0.619663053018,78988
4220,310.0,0.621085426018,79176
4230,310.0,0.622506945018,79363
4240,309.0,0.623924187018,79556
4250,308.0,0.625564663018,79744
4260,309.0,0.626926737018,79920
4270,307.0,0.628410265018,80109
4280,309.0,0.629822802018,80293
4290,309.0,0.631243465018,80482
4300,308.0,0.632678241018,80671
4310,308.0,0.634113871019,80855
4320,307.0,0.635557199019,81033
4330,308.0,0.637050563018,81217
4340,310.0,0.638513136018,81411
4350,310.0,0.639966300018,81600
4360,309.0,0.641425024018,81784
4370,309.0,0.642879044018,81978
4380,311.0,0.644263784017,82168
4390,307.0,0.645663492018,82357
4400,306.0,0.647033692018,82542
4410,306.0,0.648406458018,82728
4420,307.0,0.649892124018,82920
4430,306.0,0.651356835018,83111
4440,305.0,0.652820263018,83295
4450,304.0,0.654366228017,83482
4460,305.0,0.655829228018,83670
4470,307.0,0.657299071017,83861
4480,307.0,0.659134985017,84049
4490,306.0,0.660532127017,84231
4500,308.0,0.661968613017,84417
4510,306.0,0.663342662017,84605
4520,307.0,0.664916424017,84791
4530,306.0,0.666369161017,84980
4540,306.0,0.667777422017,85163
4550,305.0,0.669234007017,85351
4560,305.0,0.670630294017,85537
4570,306.0,0.672063359017,85716
4580,307.0,0.673475041017,85903
4590,306.0,0.675000907017,86092
4600,308.0,0.676362126017,86280
4610,307.0,0.677785355017,86470
4620,305.0,0.679287700016,86655
4630,307.0,0.680760536016,86840
4640,307.0,0.682170080016,87031
4650,308.0,0.683626666017,87224
4660,308.0,0.685010123017,87408
4670,308.0,0.686510329017,87590
4680,305.0,0.687922866016,87777
4690,305.0,0.689356359017,87968
4700,307.0,0.690745376017,88155
4710,308.0,0.692160479017,88344
4720,308.0,0.693582852016,88532
4730,304.0,0.695076643016,88719
4740,304.0,0.696583692016,88906
4750,302.0,0.698064226016,89089
4760,302.0,0.699723520015,89273
4770,300.0,0.701218594015,89461
4780,303.0,0.702732913014,89648
4790,305.0,0.704180518014,89838
4800,304.0,0.705729905015,90023
4810,303.0,0.707160831015,90212
4820,305.0,0.708634951015,90398
4830,304.0,0.710065450015,90592
4840,304.0,0.711539141015,90779
4850,304.0,0.712947830015,90960
4860,300.0,0.714451030015,91148
4870,302.0,0.715911465015,91331
4880,306.0,0.717270974015,91513
4890,307.0,0.718720717015,91693
4900,302.0,0.720090917015,91878
4910,305.0,0.721462827016,92070
4920,303.0,0.722821480016,92257
4930,303.0,0.724565448016,92443
4940,300.0,0.725923246016,92626
4950,301.0,0.727485035015,92811
4960,300.0,0.728863360015,92994
4970,302.0,0.730274615014,93183
4980,299.0,0.731694851014,93372
4990,301.0,0.733157423015,93552
