it,funval,time,funcount
0,119.0,0.00280112700011,735
10,115.0,0.00559455600023,1364
20,121.0,0.00840637400006,2001
30,121.0,0.0111741440001,2620
40,122.0,0.013960302,3248
50,131.0,0.0166865900001,3869
60,131.0,0.01951252,4496
70,127.0,0.022233248,5126
80,135.0,0.0249428560001,5757
90,132.0,0.0276221020001,6386
100,131.0,0.0302855250002,7009
110,132.0,0.0329279920002,7646
120,130.0,0.035615363,8286
130,130.0,0.038253553,8917
140,133.0,0.040841281,9544
150,130.0,0.0434354229999,10187
160,138.0,0.0460073269999,10830
170,131.0,0.0485835079999,11444
180,131.0,0.0511998879999,12078
190,135.0,0.0537752139999,12715
200,136.0,0.0563330049999,13339
210,138.0,0.0588608610001,13972
220,137.0,0.061353222,14601
230,136.0,0.0639465090001,15226
240,139.0,0.0664564030001,15858
250,141.0,0.0689697190001,16500
260,144.0,0.071467212,17130
270,141.0,0.0739741130001,17762
280,142.0,0.076400188,18411
290,144.0,0.0787984649999,19048
300,146.0,0.0812617449999,19668
310,145.0,0.0836638709998,20292
320,146.0,0.0861519549997,20926
330,146.0,0.0886169459995,21557
340,145.0,0.0910656859996,22183
350,148.0,0.0935388029995,22813
360,147.0,0.0959708649996,23439
370,147.0,0.0983956569996,24079
380,147.0,0.100814034,24713
390,147.0,0.10325978,25348
400,148.0,0.105751285,25977
410,149.0,0.108237231,26616
420,147.0,0.110807852,27251
430,150.0,0.113253599,27882
440,150.0,0.115736551,28511
450,147.0,0.11824388,29139
460,148.0,0.120695186,29758
470,146.0,0.123308573,30377
480,145.0,0.125812908999,31011
490,144.0,0.128441691,31649
500,146.0,0.130869477,32283
510,146.0,0.133348153,32903
520,148.0,0.135834099,33533
530,146.0,0.13828284,34145
540,148.0,0.140787603,34757
550,146.0,0.143346677,35396
560,146.0,0.145974604,36024
570,146.0,0.148593978,36636
580,148.0,0.151085056,37260
590,148.0,0.153509848,37893
600,150.0,0.155979544,38529
610,147.0,0.158497137,39168
620,147.0,0.161010881,39791
630,150.0,0.163541730999,40427
640,152.0,0.166049914999,41060
650,149.0,0.168547407999,41691
660,146.0,0.171043617999,42317
670,147.0,0.173591145999,42949
680,149.0,0.176154924999,43571
690,149.0,0.178637449999,44195
700,149.0,0.181143495999,44825
710,148.0,0.183849683999,45469
720,152.0,0.186322372999,46106
730,151.0,0.188805752999,46749
740,150.0,0.191279724999,47385
750,147.0,0.193754123999,48021
760,148.0,0.196220397999,48658
770,146.0,0.198714041999,49295
780,149.0,0.201192717999,49929
790,149.0,0.203810380999,50572
800,148.0,0.206524693999,51206
810,151.0,0.209357893999,51834
820,146.0,0.211919106999,52446
830,148.0,0.214449956999,53077
840,148.0,0.216839253999,53707
850,149.0,0.219533893999,54323
860,149.0,0.221908222999,54946
870,152.0,0.224587895999,55590
880,154.0,0.227004989999,56222
890,154.0,0.229663280999,56861
900,151.0,0.232190280999,57500
910,152.0,0.235167171999,58117
920,154.0,0.237538506999,58752
930,154.0,0.239898295999,59384
940,155.0,0.242235418999,60015
950,155.0,0.244591358999,60646
960,154.0,0.246968680999,61292
970,155.0,0.249356694999,61932
980,156.0,0.251710496999,62557
990,156.0,0.254092523999,63204
1000,155.0,0.256509190999,63842
1010,156.0,0.258894638999,64467
1020,156.0,0.261318147999,65086
1030,155.0,0.263777151999,65722
1040,157.0,0.266198950999,66351
1050,157.0,0.268598938999,66983
1060,159.0,0.271033993999,67612
1070,157.0,0.273475891999,68254
1080,161.0,0.275943448999,68887
1090,160.0,0.278318205999,69512
1100,159.0,0.280773360999,70137
1110,158.0,0.283187033999,70774
1120,156.0,0.285615673999,71406
1130,156.0,0.288037044999,72040
1140,158.0,0.290407524999,72666
1150,159.0,0.292828895999,73290
1160,159.0,0.295246844998,73920
1170,157.0,0.297715256998,74555
1180,158.0,0.300064781998,75180
1190,155.0,0.302486579998,75806
1200,156.0,0.304966111999,76436
1210,156.0,0.307303662998,77066
1220,155.0,0.309636508998,77697
1230,155.0,0.312017679998,78317
1240,153.0,0.314427503998,78948
1250,154.0,0.316872394998,79573
1260,151.0,0.319372025998,80197
1270,152.0,0.321816489998,80836
1280,152.0,0.324246840998,81450
1290,150.0,0.326716536998,82095
1300,150.0,0.329276894998,82736
1310,150.0,0.331742740998,83369
1320,151.0,0.334180789999,83999
1330,154.0,0.336636800999,84630
1340,149.0,0.339347264998,85269
1350,152.0,0.341836204999,85892
1360,153.0,0.344269122999,86539
1370,151.0,0.346709737999,87171
1380,154.0,0.349145648999,87801
1390,154.0,0.351590967999,88440
1400,151.0,0.354079479999,89064
1410,152.0,0.356556017999,89694
1420,151.0,0.358988079999,90331
1430,154.0,0.361480440999,90961
1440,152.0,0.363917206999,91593
1450,151.0,0.366489110999,92233
1460,155.0,0.368939989999,92854
1470,154.0,0.371324154999,93480
1480,156.0,0.373743814999,94108
1490,155.0,0.376183146999,94729
1500,154.0,0.378649420999,95353
1510,154.0,0.381071646999,95976
1520,156.0,0.383562724999,96605
1530,153.0,0.386060644999,97238
1540,152.0,0.388525207999,97864
1550,154.0,0.391003884999,98501
1560,153.0,0.393521904999,99139
1570,150.0,0.396021535999,99759
1580,150.0,0.398489947999,100392
1590,151.0,0.400900198999,101028
1600,150.0,0.403298903999,101658
1610,150.0,0.405740801999,102300
1620,147.0,0.408181416999,102932
1630,148.0,0.410636143999,103583
1640,150.0,0.413178967999,104217
1650,151.0,0.415679453999,104841
1660,152.0,0.418166254999,105470
1670,151.0,0.420602593999,106101
1680,153.0,0.423076565999,106739
1690,151.0,0.425527871999,107370
1700,151.0,0.428021943999,108002
1710,153.0,0.430417655999,108627
1720,152.0,0.432942945999,109264
1730,150.0,0.435379284999,109896
1740,150.0,0.437795951999,110520
1750,152.0,0.440219460999,111145
1760,148.0,0.442808898998,111775
1770,149.0,0.445288002998,112407
1780,149.0,0.447890698998,113045
1790,149.0,0.450346708998,113676
1800,151.0,0.452869860998,114303
1810,148.0,0.455340839998,114934
1820,154.0,0.457739117998,115567
1830,151.0,0.460253716999,116188
1840,151.0,0.462709299999,116821
1850,152.0,0.465156329999,117450
1860,154.0,0.467646980999,118089
1870,151.0,0.470217601998,118720
1880,149.0,0.472615451998,119333
1890,150.0,0.475064619998,119968
1900,151.0,0.477559118998,120591
1910,151.0,0.480065163998,121217
1920,153.0,0.482591736998,121844
1930,152.0,0.485128145998,122474
1940,151.0,0.487719722998,123114
1950,151.0,0.490231756998,123742
1960,151.0,0.492698886998,124373
1970,154.0,0.495263948998,125014
1980,154.0,0.497809338998,125649
1990,154.0,0.500490721998,126272
2000,152.0,0.502950580998,126890
2010,154.0,0.505418565998,127528
2020,156.0,0.507834376998,128165
2030,154.0,0.510297656998,128795
2040,155.0,0.512784458998,129422
2050,154.0,0.515245600998,130040
2060,154.0,0.517680656998,130670
2070,153.0,0.520098177998,131298
2080,155.0,0.522529384998,131932
2090,153.0,0.525005066998,132580
2100,157.0,0.527649672998,133215
2110,155.0,0.530033409997,133855
2120,155.0,0.532505242998,134486
2130,154.0,0.534926185998,135111
2140,153.0,0.537315054998,135735
2150,156.0,0.539770209998,136368
2160,150.0,0.542227075998,137001
2170,150.0,0.544674532998,137626
2180,153.0,0.547114292998,138258
2190,152.0,0.549565171998,138890
2200,155.0,0.551986114998,139517
2210,153.0,0.554459658998,140160
2220,153.0,0.556888726998,140779
2230,152.0,0.559331479998,141391
2240,154.0,0.561779364998,142032
2250,153.0,0.564224683998,142666
2260,151.0,0.566666581997,143299
2270,152.0,0.569114466997,143941
2280,155.0,0.571586299998,144551
2290,156.0,0.574167611998,145176
2300,158.0,0.576629181998,145814
2310,154.0,0.578972291998,146443
2320,153.0,0.581622028998,147083
2330,157.0,0.584028859997,147699
2340,159.0,0.586489146998,148317
2350,158.0,0.588925485998,148947
2360,158.0,0.591370804997,149590
2370,158.0,0.593848197998,150230
2380,159.0,0.596326018998,150859
2390,156.0,0.598808543998,151499
2400,156.0,0.601232052998,152133
2410,158.0,0.603674377998,152758
2420,157.0,0.606125684998,153399
2430,155.0,0.608619328998,154043
2440,156.0,0.611041126997,154673
2450,157.0,0.613473616997,155310
2460,159.0,0.615935186997,155929
2470,157.0,0.618418139997,156541
2480,158.0,0.620938725997,157183
2490,160.0,0.623411414997,157821
2500,158.0,0.625818673998,158447
2510,156.0,0.628244320998,159071
2520,161.0,0.630711877998,159690
2530,162.0,0.636862381998,160317
2540,157.0,0.639341485998,160960
2550,161.0,0.641738480998,161585
2560,161.0,0.644230414998,162217
2570,158.0,0.646647508998,162849
2580,159.0,0.649091544998,163473
2590,157.0,0.651578346998,164089
2600,160.0,0.654021955998,164717
2610,159.0,0.656422370998,165349
2620,157.0,0.658918152998,165974
2630,156.0,0.661375018998,166607
2640,157.0,0.663819910998,167244
2650,157.0,0.666193384998,167874
2660,157.0,0.668576693998,168506
2670,156.0,0.670959575998,169127
2680,158.0,0.673413020998,169763
2690,158.0,0.675934033998,170396
2700,158.0,0.678387050998,171035
2710,158.0,0.680804999998,171664
2720,158.0,0.683197717998,172287
2730,156.0,0.685572473998,172924
2740,158.0,0.687910024998,173555
2750,157.0,0.690227475998,174181
2760,155.0,0.692636444998,174826
2770,158.0,0.695054821998,175464
2780,160.0,0.697717816998,176107
2790,157.0,0.700159714998,176740
2800,155.0,0.702541313997,177370
2810,156.0,0.704962256997,178012
2820,156.0,0.707381061997,178648
2830,155.0,0.709823386997,179283
2840,157.0,0.712201136997,179913
2850,155.0,0.714624645997,180548
2860,153.0,0.717043022997,181176
2870,153.0,0.719507586997,181810
2880,152.0,0.722047844997,182439
2890,156.0,0.724514118997,183063
2900,153.0,0.726989373997,183709
2910,154.0,0.729620293997,184339
2920,155.0,0.732207593997,184972
2930,151.0,0.734726041997,185593
2940,153.0,0.737219257997,186214
2950,154.0,0.739732573997,186844
2960,149.0,0.742329281997,187480
2970,150.0,0.744841742998,188117
2980,149.0,0.747300318998,188745
2990,153.0,0.749796528997,189370
3000,152.0,0.752459094997,190012
3010,153.0,0.754891584997,190661
3020,154.0,0.757305684997,191297
3030,151.0,0.759800184997,191934
3040,153.0,0.762470449997,192566
3050,153.0,0.764972646997,193205
3060,152.0,0.767494943997,193833
3070,152.0,0.770014674997,194454
3080,154.0,0.772518154997,195080
3090,154.0,0.775007522997,195703
3100,154.0,0.777489192997,196329
3110,153.0,0.780030305997,196968
3120,155.0,0.782554740997,197600
3130,153.0,0.785080031997,198255
3140,156.0,0.787613875997,198894
3150,152.0,0.790133178997,199515
3160,153.0,0.792624256997,200134
3170,153.0,0.795111485997,200762
3180,154.0,0.797536705997,201389
3190,152.0,0.800001697997,202024
3200,154.0,0.802465406997,202653
3210,153.0,0.804932535997,203286
3220,152.0,0.807395816997,203920
3230,153.0,0.809897157997,204543
3240,151.0,0.812395505997,205180
3250,154.0,0.814884445997,205811
3260,153.0,0.817296408997,206430
3270,151.0,0.819709653997,207071
3280,152.0,0.822100233997,207709
3290,150.0,0.824477128997,208355
3300,150.0,0.826854878997,208993
3310,151.0,0.829295921997,209616
3320,150.0,0.831751076997,210251
3330,149.0,0.834194257997,210889
3340,152.0,0.836632307997,211518
3350,152.0,0.839068645997,212138
3360,150.0,0.841580250997,212765
3370,153.0,0.844171827997,213396
3380,153.0,0.846756989997,214036
3390,154.0,0.849354981997,214662
3400,153.0,0.851923892997,215300
3410,149.0,0.854516751997,215933
3420,153.0,0.857113887997,216561
3430,153.0,0.859666119997,217188
3440,152.0,0.862269242997,217829
3450,154.0,0.864844140997,218462
3460,156.0,0.867438282997,219096
3470,156.0,0.870024727997,219728
3480,152.0,0.872687721997,220363
3490,154.0,0.875278015997,220998
3500,154.0,0.877846498997,221629
3510,153.0,0.880441924997,222245
3520,151.0,0.882978761997,222883
3530,151.0,0.885593858997,223516
3540,152.0,0.888202113997,224160
3550,150.0,0.890717567997,224792
3560,150.0,0.893210355997,225418
3570,150.0,0.895725382997,226043
3580,152.0,0.898235277997,226660
3590,148.0,0.900846526997,227300
3600,147.0,0.903486855997,227937
3610,145.0,0.906037377997,228570
3620,146.0,0.908551548997,229200
3630,145.0,0.910950680997,229830
3640,144.0,0.913313890997,230473
3650,145.0,0.915778881997,231099
3660,145.0,0.918266110997,231733
3670,144.0,0.920769163997,232365
3680,147.0,0.923302151997,232990
3690,146.0,0.925794940997,233614
3700,148.0,0.928288584997,234246
3710,148.0,0.930795913997,234881
3720,149.0,0.933206165997,235504
3730,148.0,0.935661748997,236139
3740,150.0,0.938130588997,236768
3750,150.0,0.940591731997,237393
3760,152.0,0.943065703997,238023
3770,148.0,0.945499476997,238637
3780,151.0,0.947951210997,239266
3790,149.0,0.950448275997,239876
3800,152.0,0.952877343997,240512
3810,151.0,0.955230716997,241154
3820,150.0,0.957647382997,241786
3830,152.0,0.960083293997,242420
3840,152.0,0.962528612997,243054
3850,151.0,0.964958963997,243681
3860,154.0,0.967386321997,244304
3870,156.0,0.969836344997,244930
3880,156.0,0.972305184997,245566
3890,159.0,0.974779583997,246196
3900,158.0,0.977266812997,246835
3910,157.0,0.979695453997,247467
3920,157.0,0.982107416997,248103
3930,160.0,0.984493719997,248739
3940,158.0,0.986893707997,249371
3950,160.0,0.989307808997,250014
3960,159.0,0.991700954997,250639
3970,159.0,0.994140714997,251269
3980,157.0,0.996560802997,251908
3990,158.0,0.999025793997,252533
4000,160.0,1.001486509,253173
4010,159.0,1.0039515,253800
4020,159.0,1.006375009,254417
4030,160.0,1.008811347,255055
4040,161.0,1.011257949,255689
4050,161.0,1.013837552,256313
4060,161.0,1.016191781,256950
4070,161.0,1.018681148,257563
4080,160.0,1.021132027,258191
4090,160.0,1.023588465,258826
4100,158.0,1.026045759,259457
4110,160.0,1.028456866,260091
4120,162.0,1.030867545,260716
4130,163.0,1.033285494,261346
4140,161.0,1.03567479,261985
4150,162.0,1.038028591,262623
4160,162.0,1.040388807,263253
4170,163.0,1.042852943,263876
4180,161.0,1.045239247,264512
4190,159.0,1.047635814,265144
4200,161.0,1.05001613,265772
4210,160.0,1.052413124,266415
4220,159.0,1.054782321,267041
4230,160.0,1.057157505,267674
4240,159.0,1.059639603,268300
4250,162.0,1.062068244,268932
4260,162.0,1.064574717,269562
4270,160.0,1.066967007,270184
4280,159.0,1.069327651,270810
4290,161.0,1.071764845,271447
4300,161.0,1.074239245,272094
4310,160.0,1.076653773,272725
4320,158.0,1.079093961,273363
4330,161.0,1.081544412,273990
4340,159.0,1.084044899,274622
4350,158.0,1.086447881,275246
4360,159.0,1.088892773,275882
4370,161.0,1.091354771,276511
4380,164.0,1.093839006,277146
4390,161.0,1.096344624,277774
4400,160.0,1.098830998,278412
4410,160.0,1.101298983,279047
4420,161.0,1.103915364,279688
4430,161.0,1.106376934,280315
4440,160.0,1.108830807,280928
4450,161.0,1.111318464,281560
4460,164.0,1.113796712,282182
4470,165.0,1.116289929,282817
4480,162.0,1.11876219,283431
4490,162.0,1.121269091,284066
4500,162.0,1.123782835,284694
4510,163.0,1.126240557,285331
4520,166.0,1.128661072,285961
4530,163.0,1.131098266,286591
4540,162.0,1.133514505,287219
4550,161.0,1.135970516,287849
4560,161.0,1.13840771,288466
4570,163.0,1.140917605,289089
4580,162.0,1.143370622,289718
4590,165.0,1.14582706,290335
4600,162.0,1.148268958,290949
4610,166.0,1.150747635,291583
4620,164.0,1.153195948,292202
4630,163.0,1.155670775,292828
4640,164.0,1.158149451,293465
4650,162.0,1.160573388,294095
4660,163.0,1.163000318,294728
4670,162.0,1.165558538,295363
4680,161.0,1.168047905,295995
4690,160.0,1.17063435,296620
4700,158.0,1.173075393,297251
4710,164.0,1.175560912,297878
4720,160.0,1.178011363,298499
4730,158.0,1.180416055,299134
4740,159.0,1.182868217,299764
4750,160.0,1.185255803,300395
4760,160.0,1.187812312,301033
4770,157.0,1.190305529,301680
4780,158.0,1.192769237,302311
4790,157.0,1.195235511,302938
4800,157.0,1.197678692,303571
4810,156.0,1.200151809,304198
4820,156.0,1.202661276,304826
4830,156.0,1.20514038,305461
4840,159.0,1.207591686,306083
4850,160.0,1.210033584,306710
4860,159.0,1.212523379,307345
4870,157.0,1.214958435,307970
4880,158.0,1.217389642,308604
4890,153.0,1.219781932,309237
4900,154.0,1.22222554,309867
4910,153.0,1.224588749,310495
4920,156.0,1.22704476,311129
4930,155.0,1.229495639,311760
4940,156.0,1.231954643,312390
4950,157.0,1.234444866,313035
4960,157.0,1.237053976,313679
4970,154.0,1.239575417,314313
4980,156.0,1.242047679,314924
4990,155.0,1.244569548,315564
