it,funval,time,funcount
0,64.0,0.000530716999947,556
10,63.0,0.00110334499993,1018
20,64.0,0.00160840299998,1475
30,66.0,0.002099348,1926
40,67.0,0.00258002999999,2392
50,67.0,0.00306969299993,2849
60,67.0,0.0035969889999,3305
70,70.0,0.00410589599994,3752
80,70.0,0.00464473799991,4202
90,72.0,0.00515706599992,4647
100,71.0,0.00565485399989,5110
110,76.0,0.00615093099987,5559
120,72.0,0.0066401659999,6000
130,73.0,0.0071191369999,6453
140,74.0,0.00760195699991,6902
150,76.0,0.00809546899995,7361
160,76.0,0.00858470399999,7814
170,77.0,0.00911841399989,8264
180,78.0,0.00962475499989,8741
190,74.0,0.0101375109998,9174
200,75.0,0.0106284559997,9631
210,76.0,0.0111099929998,10090
220,77.0,0.0116253149997,10544
230,76.0,0.0121491889997,11017
240,76.0,0.0126298709997,11486
250,76.0,0.0131310799998,11934
260,76.0,0.0136258739998,12405
270,76.0,0.0141454729998,12855
280,76.0,0.0147813929998,13314
290,78.0,0.0152800359998,13785
300,78.0,0.0157590069998,14262
310,82.0,0.0162469589998,14728
320,77.0,0.0167169499997,15184
330,79.0,0.0172061849997,15644
340,78.0,0.0176945649998,16107
350,81.0,0.0181735359998,16561
360,81.0,0.0186717509998,17010
370,80.0,0.0191614129998,17476
380,81.0,0.0196587729997,17939
390,82.0,0.0201548509998,18392
400,83.0,0.0206906999998,18848
410,82.0,0.0211824999998,19316
420,81.0,0.0216790049998,19765
430,81.0,0.0221823529997,20224
440,80.0,0.0226878389997,20694
450,81.0,0.0231685209998,21147
460,81.0,0.0236325249998,21595
470,80.0,0.0240973839998,22064
480,79.0,0.0246708659998,22520
490,81.0,0.0251814829998,22976
500,82.0,0.0256672959998,23429
510,82.0,0.0261749189998,23901
520,84.0,0.0266491859998,24363
530,83.0,0.0271140439997,24819
540,82.0,0.0276007129997,25272
550,81.0,0.0281053429998,25729
560,82.0,0.0286014209997,26187
570,85.0,0.0290684179998,26650
580,82.0,0.0295465339998,27086
590,81.0,0.0300319199998,27531
600,79.0,0.0305327019998,28000
610,81.0,0.0310240749999,28456
620,84.0,0.0315492329999,28920
630,84.0,0.0320594229999,29359
640,83.0,0.0325666199999,29823
650,84.0,0.0330323339999,30270
660,82.0,0.0335468,30734
670,81.0,0.03401679,31193
680,81.0,0.034491057,31645
690,81.0,0.0349973979999,32110
700,79.0,0.035466105,32563
710,80.0,0.0359780049999,33004
720,81.0,0.036477931,33471
730,77.0,0.0370009510001,33924
740,78.0,0.0375261090001,34371
750,81.0,0.0381389350001,34823
760,79.0,0.0386307360001,35296
770,81.0,0.0391178320001,35747
780,82.0,0.0396780580002,36200
790,83.0,0.0402327240001,36660
800,79.0,0.0407634410002,37119
810,80.0,0.0412723480002,37568
820,81.0,0.0417987890002,38030
830,82.0,0.0423222360001,38488
840,80.0,0.0427892330001,38942
850,80.0,0.0432964290001,39399
860,79.0,0.043798065,39862
870,78.0,0.0442796020001,40310
880,79.0,0.0447611390001,40776
890,80.0,0.0452597820001,41229
900,80.0,0.0457999070002,41692
910,81.0,0.0463357560002,42149
920,79.0,0.0469041070002,42604
930,80.0,0.0473976180002,43055
940,80.0,0.0478941230002,43507
950,78.0,0.0483829300002,43971
960,82.0,0.0488768690002,44442
970,81.0,0.0493541300002,44893
980,83.0,0.0498865580001,45350
990,83.0,0.0503946090001,45805
1000,82.0,0.0509253260001,46251
1010,79.0,0.0514042970001,46724
1020,80.0,0.0519914640001,47183
1030,80.0,0.0525149110001,47633
1040,79.0,0.0529908880002,48090
1050,79.0,0.0534903870002,48551
1060,80.0,0.0540082740002,49011
1070,78.0,0.0544983640002,49463
1080,77.0,0.0549935860001,49929
1090,80.0,0.0555888780002,50391
1100,75.0,0.0561084770002,50857
1110,76.0,0.0565878760002,51321
1120,77.0,0.0571288570002,51783
1130,76.0,0.0576210860003,52231
1140,77.0,0.0580983470003,52688
1150,79.0,0.0585619230003,53134
1160,79.0,0.0590520140003,53598
1170,81.0,0.0595480920002,54064
1180,78.0,0.0600471620003,54533
1190,80.0,0.0605522200002,54990
1200,80.0,0.0610585610002,55462
1210,81.0,0.0616234900002,55930
1220,81.0,0.0621332520002,56383
1230,84.0,0.0626391650002,56840
1240,81.0,0.0631219850002,57292
1250,86.0,0.0636548410001,57740
1260,83.0,0.0641513460001,58196
1270,84.0,0.0647081500001,58661
1280,85.0,0.0651943910002,59118
1290,84.0,0.0656938900003,59587
1300,85.0,0.0661788490003,60043
1310,86.0,0.0666958820003,60502
1320,86.0,0.0671911040004,60961
1330,84.0,0.0677030050003,61424
1340,84.0,0.0681785550004,61873
1350,81.0,0.0687293720003,62338
1360,82.0,0.0692151860003,62804
1370,81.0,0.0696945850003,63258
1380,80.0,0.0701752670003,63695
1390,80.0,0.0706833190004,64134
1400,81.0,0.0711699880004,64589
1410,83.0,0.0716515250004,65034
1420,84.0,0.0721322060004,65497
1430,84.0,0.0726445340003,65960
1440,83.0,0.0731183740004,66421
1450,79.0,0.0736080370003,66874
1460,81.0,0.0741302010003,67328
1470,80.0,0.0746660500004,67788
1480,79.0,0.0751809440003,68253
1490,78.0,0.0756800150003,68719
1500,76.0,0.0761709610003,69164
1510,77.0,0.0766764470003,69615
1520,76.0,0.0771768010003,70084
1530,76.0,0.0776758720003,70538
1540,77.0,0.0782981070003,70993
1550,79.0,0.0788078690002,71451
1560,80.0,0.0793296050002,71920
1570,80.0,0.0798265370003,72383
1580,80.0,0.0803307390003,72856
1590,80.0,0.0808315200003,73308
1600,80.0,0.0813066430003,73771
1610,84.0,0.0818185440003,74236
1620,85.0,0.0823295900003,74696
1630,83.0,0.0828449120004,75148
1640,82.0,0.0833482590004,75597
1650,82.0,0.0838776930004,76067
1660,82.0,0.0843789030005,76517
1670,81.0,0.0848715590005,76980
1680,81.0,0.0853992830005,77432
1690,81.0,0.0859193090005,77889
1700,81.0,0.0864243670004,78350
1710,78.0,0.0869140290005,78790
1720,80.0,0.0874109620005,79241
1730,80.0,0.0878933540005,79692
1740,81.0,0.0884026880004,80148
1750,82.0,0.0889068900004,80597
1760,82.0,0.0893914210004,81051
1770,83.0,0.0899088810005,81514
1780,83.0,0.0903908450006,81979
1790,83.0,0.0908843560005,82437
1800,81.0,0.0913782950005,82871
1810,81.0,0.0918602600005,83328
1820,84.0,0.0923328170005,83790
1830,83.0,0.0928190580005,84265
1840,81.0,0.0933027340005,84731
1850,78.0,0.0938082200005,85193
1860,81.0,0.0943273910005,85647
1870,80.0,0.0948247510005,86107
1880,82.0,0.0953191180005,86568
1890,83.0,0.0958147680004,87032
1900,85.0,0.0962920290004,87480
1910,85.0,0.0967778430004,87928
1920,84.0,0.0972670780004,88380
1930,83.0,0.0977276600004,88840
1940,87.0,0.0982228820004,89298
1950,84.0,0.0987005710003,89760
1960,83.0,0.0991940830004,90213
1970,82.0,0.0996687770004,90664
1980,82.0,0.10016742,91129
1990,82.0,0.100638266,91583
2000,81.0,0.101355012,92025
2010,81.0,0.101829707,92486
2020,80.0,0.102322363,92956
2030,80.0,0.102806466,93407
2040,81.0,0.10334317,93874
2050,79.0,0.10386234,94326
2060,78.0,0.104356279,94779
2070,78.0,0.104863475,95238
2080,78.0,0.105371527,95688
2090,81.0,0.10586119,96134
2100,81.0,0.106382499,96605
2110,82.0,0.10688157,97052
2120,83.0,0.107360114,97510
2130,85.0,0.107837375,97963
2140,84.0,0.108332597,98436
2150,83.0,0.108821832,98897
2160,82.0,0.109286263,99359
2170,81.0,0.109898662,99820
2180,82.0,0.110364376,100274
2190,83.0,0.110832228,100724
2200,85.0,0.111296232,101181
2210,84.0,0.111779052,101633
2220,83.0,0.112236641,102081
2230,82.0,0.112707487,102541
2240,81.0,0.113192873,102995
2250,82.0,0.113666713,103459
2260,80.0,0.114149105,103907
2270,81.0,0.114632353,104361
2280,82.0,0.115110041,104828
2290,81.0,0.115625362,105276
2300,82.0,0.116156935,105739
2310,85.0,0.116680809,106190
2320,82.0,0.117180735,106665
2330,84.0,0.11770632,107134
2340,82.0,0.118210095,107591
2350,85.0,0.118730976,108046
2360,85.0,0.119236034,108495
2370,85.0,0.119755204,108962
2380,86.0,0.120252565,109415
2390,84.0,0.1207217,109859
2400,85.0,0.121188697,110315
2410,84.0,0.121649279,110766
2420,84.0,0.122135948,111220
2430,83.0,0.122614919,111681
2440,83.0,0.123102015,112134
2450,85.0,0.12358398,112595
2460,86.0,0.124057392,113067
2470,83.0,0.124552614,113517
2480,83.0,0.125036289,113958
2490,81.0,0.125532794,114427
2500,82.0,0.126090881,114887
2510,83.0,0.126614756,115356
2520,83.0,0.127118531,115811
2530,85.0,0.127623162,116267
2540,85.0,0.128172696,116718
2550,80.0,0.128681603,117179
2560,81.0,0.129202484,117615
2570,80.0,0.129707115,118075
2580,80.0,0.130298987,118525
2590,80.0,0.130789932,118986
2600,81.0,0.131307819,119433
2610,80.0,0.131829128001,119895
2620,80.0,0.132376952001,120345
2630,78.0,0.13290211,120796
2640,80.0,0.133407168,121236
2650,81.0,0.1339242,121687
2660,82.0,0.134430541,122138
2670,81.0,0.134945863,122600
2680,83.0,0.13546204,123048
2690,80.0,0.135980355,123500
2700,78.0,0.136487979,123958
2710,78.0,0.137018269,124412
2720,78.0,0.137533163001,124874
2730,81.0,0.138030096001,125330
2740,79.0,0.138593315001,125793
2750,79.0,0.139109920001,126258
2760,78.0,0.139620538001,126723
2770,80.0,0.140135005001,127178
2780,78.0,0.140661018001,127641
2790,77.0,0.141137851001,128089
2800,77.0,0.141677121001,128535
2810,80.0,0.142225372001,128977
2820,79.0,0.142747964001,129441
2830,79.0,0.143266279001,129906
2840,77.0,0.143752948001,130370
2850,76.0,0.149136670001,130829
2860,80.0,0.149653703001,131289
2870,82.0,0.150143793001,131756
2880,80.0,0.150634311001,132212
2890,82.0,0.151121407,132677
2900,82.0,0.151640577001,133132
2910,83.0,0.152143924,133584
2920,82.0,0.152645988,134031
2930,82.0,0.153124532,134498
2940,81.0,0.153656105,134946
2950,81.0,0.154139781,135391
2960,85.0,0.154649116,135860
2970,83.0,0.155142628,136318
2980,82.0,0.155618606,136761
2990,81.0,0.156102709,137226
3000,79.0,0.156600069,137691
3010,80.0,0.157151313,138157
3020,80.0,0.157662785,138622
3030,80.0,0.158165277,139089
3040,79.0,0.158687869,139548
3050,79.0,0.159201908,140006
3060,77.0,0.159712098,140465
3070,78.0,0.160224427,140923
3080,83.0,0.160749157,141376
3090,81.0,0.161280302,141832
3100,80.0,0.161817007,142285
3110,80.0,0.162326342,142738
3120,81.0,0.162809162,143188
3130,83.0,0.163364683001,143646
3140,82.0,0.163877439,144119
3150,86.0,0.164365391001,144564
3160,86.0,0.164881996,145025
3170,85.0,0.165414851,145490
3180,89.0,0.16589596,145949
3190,86.0,0.166386478,146412
3200,85.0,0.166874002,146860
3210,86.0,0.167373928001,147322
3220,86.0,0.167911487,147773
3230,86.0,0.168418683,148234
3240,87.0,0.168913477,148694
3250,88.0,0.169416824,149153
3260,87.0,0.16992573,149612
3270,85.0,0.170425657,150065
3280,86.0,0.170893509001,150528
3290,86.0,0.171390014001,150996
3300,85.0,0.171876683001,151453
3310,84.0,0.172376609,151914
3320,83.0,0.172883378001,152365
3330,82.0,0.173389719001,152836
3340,85.0,0.173954221,153306
3350,84.0,0.174558495,153768
3360,86.0,0.175130695,154218
3370,83.0,0.175708027,154683
3380,85.0,0.176260127,155134
3390,82.0,0.176886638,155598
3400,83.0,0.177493906,156058
3410,83.0,0.178067816,156522
3420,82.0,0.178634456,156978
3430,83.0,0.179200668,157443
3440,85.0,0.179768591,157899
3450,86.0,0.180366022,158359
3460,84.0,0.181032733,158824
3470,83.0,0.181592531,159278
3480,84.0,0.182198088,159729
3490,84.0,0.182767722,160170
3500,82.0,0.183341205,160618
3510,82.0,0.183901431,161071
3520,83.0,0.184441129,161529
3530,84.0,0.184997506,161996
3540,83.0,0.185554737,162474
3550,82.0,0.186107265,162927
3560,83.0,0.186669628,163383
3570,80.0,0.187228998,163836
3580,82.0,0.187810606,164290
3590,81.0,0.188373825,164742
3600,78.0,0.188960564,165197
3610,82.0,0.18960632,165652
3620,82.0,0.1901674,166114
3630,79.0,0.190721638,166568
3640,80.0,0.191292555,167027
3650,80.0,0.191859623,167491
3660,79.0,0.192453205,167954
3670,81.0,0.193032247,168401
3680,79.0,0.193620697,168851
3690,79.0,0.194183061,169299
3700,80.0,0.194759965,169759
3710,80.0,0.195330882,170217
3720,81.0,0.195894101,170674
3730,81.0,0.196624105,171133
3740,82.0,0.197112485,171596
3750,81.0,0.197612839,172063
3760,82.0,0.198113193,172510
3770,81.0,0.198598579,172967
3780,78.0,0.199125019,173418
3790,84.0,0.199629649,173883
3800,84.0,0.200259582,174330
3810,85.0,0.20076464,174794
3820,82.0,0.201249171,175243
3830,81.0,0.201770907,175695
3840,80.0,0.202269978,176145
3850,82.0,0.202971756,176615
3860,82.0,0.203580306,177068
3870,81.0,0.204061843,177526
3880,83.0,0.204571178,177985
3890,81.0,0.205070249,178442
3900,82.0,0.205548793,178884
3910,83.0,0.20611971,179348
3920,82.0,0.206632038,179814
3930,82.0,0.207159762,180260
3940,82.0,0.207665675,180708
3950,83.0,0.208172871,181166
3960,84.0,0.208651414,181622
3970,86.0,0.209190257,182067
3980,84.0,0.209698736,182529
3990,84.0,0.210187543,182978
4000,83.0,0.210674212,183434
4010,82.0,0.211160453,183897
4020,83.0,0.211647122,184364
4030,85.0,0.212146193,184812
4040,85.0,0.212646974,185272
4050,84.0,0.213147328,185725
4060,83.0,0.213618174,186183
4070,82.0,0.214126653,186623
4080,82.0,0.214611184,187076
4090,84.0,0.215088872,187509
4100,84.0,0.215574258,187968
4110,85.0,0.216058362,188433
4120,83.0,0.216543748,188887
4130,81.0,0.217014166,189357
4140,84.0,0.217524784,189811
4150,82.0,0.218029842,190276
4160,80.0,0.218541315,190736
4170,82.0,0.219013871,191194
4180,82.0,0.219500112,191660
4190,82.0,0.21999063,192127
4200,83.0,0.220457627,192593
4210,84.0,0.220948572,193047
4220,85.0,0.221483994,193514
4230,84.0,0.221964248,193963
4240,84.0,0.222487268,194425
4250,83.0,0.222972226,194889
4260,86.0,0.223504226,195343
4270,85.0,0.223981914,195796
4280,83.0,0.224479273999,196257
4290,86.0,0.224986042999,196711
4300,83.0,0.225471001999,197152
4310,85.0,0.226026094999,197614
4320,85.0,0.226550825,198056
4330,84.0,0.227108485,198521
4340,87.0,0.227614398,198988
4350,86.0,0.228114752,199455
4360,86.0,0.228700636,199917
4370,85.0,0.229181745999,200380
4380,87.0,0.229655157999,200834
4390,85.0,0.230157221999,201293
4400,85.0,0.230655864999,201751
4410,84.0,0.231131414999,202214
4420,85.0,0.231612095999,202666
4430,86.0,0.232116725999,203118
4440,86.0,0.232589709999,203574
4450,84.0,0.233100326999,204037
4460,84.0,0.23357716,204504
4470,84.0,0.234093337,204963
4480,85.0,0.23457744,205425
4490,84.0,0.235069241,205877
4500,86.0,0.235618347,206327
4510,84.0,0.236111431,206785
4520,83.0,0.236622476,207244
4530,81.0,0.237110427999,207700
4540,81.0,0.237633446999,208167
4550,81.0,0.238130379999,208626
4560,79.0,0.238643135999,209066
4570,80.0,0.239155464,209530
4580,83.0,0.239641278,209976
4590,83.0,0.240148046,210441
4600,80.0,0.240665506,210892
4610,85.0,0.241180828,211352
4620,84.0,0.241685458,211821
4630,81.0,0.242212754,212273
4640,82.0,0.242778539,212741
4650,84.0,0.243290011,213203
4660,83.0,0.243801483,213665
4670,81.0,0.244440397,214120
4680,83.0,0.244991214,214576
4690,82.0,0.245532623,215019
4700,83.0,0.246050511,215491
4710,86.0,0.247056778,215938
4720,86.0,0.24756483,216387
4730,84.0,0.248106238,216852
4740,83.0,0.248625837,217315
4750,85.0,0.249161258,217765
4760,82.0,0.249712503,218223
4770,81.0,0.250288552,218702
4780,80.0,0.250816702999,219149
4790,81.0,0.251337156,219607
4800,80.0,0.251881558,220061
4810,84.0,0.252421256,220526
4820,84.0,0.252981054,220975
4830,86.0,0.25350664,221425
4840,83.0,0.254139566,221878
4850,82.0,0.254705778,222339
4860,81.0,0.255378903,222795
4870,81.0,0.256055023,223248
4880,83.0,0.256575476,223704
4890,83.0,0.25708866,224167
4900,82.0,0.257593718,224620
4910,80.0,0.258094927,225089
4920,81.0,0.258677391,225562
4930,83.0,0.259165771,226019
4940,83.0,0.25967254,226461
4950,81.0,0.26017546,226926
4960,83.0,0.260669826,227380
4970,82.0,0.261189852,227847
4980,82.0,0.261714583,228295
4990,82.0,0.262306882,228754
