it,funval,time,funcount
0,290.0,0.00504587700016,649
10,285.0,0.0100083610005,1197
20,287.0,0.015435704001,1747
30,294.0,0.0203558510011,2286
40,298.0,0.0253760680007,2839
50,290.0,0.0304809600002,3396
60,296.0,0.0355396659997,3942
70,289.0,0.0404315879996,4495
80,298.0,0.0451674159995,5050
90,300.0,0.0499815049989,5604
100,301.0,0.0547027929988,6150
110,301.0,0.0597717629989,6699
120,296.0,0.0648663919992,7254
130,300.0,0.0698955899989,7796
140,303.0,0.0744329869985,8344
150,302.0,0.0795229119985,8901
160,300.0,0.0839675089983,9442
170,297.0,0.0884890829984,9986
180,302.0,0.0930576989986,10544
190,299.0,0.0974744979985,11094
200,299.0,0.101834419998,11652
210,292.0,0.106152430998,12198
220,297.0,0.110632950998,12759
230,296.0,0.114968495999,13303
240,291.0,0.119224497999,13846
250,291.0,0.123345788999,14394
260,292.0,0.127416189999,14942
270,291.0,0.131500703,15489
280,290.0,0.135682293,16039
290,292.0,0.139909642,16587
300,293.0,0.144007411999,17136
310,291.0,0.147984155999,17688
320,293.0,0.151866815999,18239
330,296.0,0.155896160999,18790
340,293.0,0.159864779,19343
350,296.0,0.163921494999,19884
360,294.0,0.167970939999,20432
370,294.0,0.172097790998,20976
380,297.0,0.176617653998,21528
390,295.0,0.180568738998,22075
400,297.0,0.184625026998,22626
410,296.0,0.188555156999,23177
420,296.0,0.192572955998,23734
430,297.0,0.196647632998,24284
440,296.0,0.200697933998,24840
450,298.0,0.204734977998,25389
460,297.0,0.209094042998,25944
470,296.0,0.213083616998,26493
480,295.0,0.217041543999,27044
490,297.0,0.224070446999,27587
500,295.0,0.228160090999,28136
510,297.0,0.232714166999,28689
520,299.0,0.236674659999,29238
530,296.0,0.240702722999,29775
540,296.0,0.24470641,30326
550,298.0,0.248794344,30875
560,296.0,0.252790760001,31422
570,295.0,0.257319604,31969
580,298.0,0.261634622,32511
590,299.0,0.265657553001,33056
600,298.0,0.269494883001,33608
610,297.0,0.273504557002,34164
620,300.0,0.277499690002,34712
630,297.0,0.281438374001,35257
640,297.0,0.285680263001,35808
650,295.0,0.289468840001,36357
660,297.0,0.293421208002,36906
670,298.0,0.297356898001,37456
680,298.0,0.301384105001,38006
690,298.0,0.305362560001,38555
700,298.0,0.309400031001,39095
710,299.0,0.313276704002,39650
720,299.0,0.317089229001,40199
730,301.0,0.321246015001,40741
740,301.0,0.325069232001,41297
750,301.0,0.32908361,41848
760,298.0,0.333140326,42399
770,298.0,0.33687844,42954
780,299.0,0.340631522,43502
790,298.0,0.344473984001,44057
800,298.0,0.348322005001,44616
810,298.0,0.352274373001,45166
820,299.0,0.356099728001,45710
830,297.0,0.360383527001,46261
840,298.0,0.364161413001,46812
850,297.0,0.368278855001,47364
860,295.0,0.372158522002,47907
870,298.0,0.375950948001,48453
880,298.0,0.379689489001,48991
890,296.0,0.383448130001,49538
900,296.0,0.387701566001,50099
910,296.0,0.391499124002,50653
920,296.0,0.395662325001,51208
930,297.0,0.399522320002,51754
940,297.0,0.403344254002,52301
950,298.0,0.407221355003,52857
960,298.0,0.411001379003,53402
970,298.0,0.415207345003,53952
980,296.0,0.418972401003,54501
990,297.0,0.422942303003,55056
1000,296.0,0.426772362003,55598
1010,295.0,0.430639199003,56146
1020,297.0,0.434434190003,56691
1030,296.0,0.438222767003,57240
1040,295.0,0.441948052004,57789
1050,295.0,0.445798211003,58348
1060,298.0,0.449567116004,58893
1070,297.0,0.453621693004,59446
1080,296.0,0.457454319003,59992
1090,298.0,0.461338263003,60542
1100,298.0,0.465187139003,61091
1110,297.0,0.469182700003,61643
1120,296.0,0.473183393004,62196
1130,296.0,0.476979668004,62738
1140,297.0,0.481026975004,63284
1150,297.0,0.484950690005,63830
1160,295.0,0.488737129004,64384
1170,296.0,0.492491066004,64937
1180,298.0,0.496497318004,65482
1190,298.0,0.500922242004,66035
1200,300.0,0.504839542004,66583
1210,302.0,0.508585781005,67128
1220,301.0,0.512412419004,67676
1230,300.0,0.516380183005,68226
1240,302.0,0.520352223005,68765
1250,302.0,0.524157478005,69319
1260,302.0,0.528169290005,69865
1270,304.0,0.532248243005,70415
1280,302.0,0.536570959005,70953
1290,302.0,0.540548986005,71503
1300,302.0,0.544323878004,72060
1310,300.0,0.548103474005,72614
1320,300.0,0.551952777006,73160
1330,302.0,0.555979556006,73714
1340,300.0,0.559821162006,74257
1350,300.0,0.563747871006,74807
1360,301.0,0.567712641006,75351
1370,302.0,0.571526878006,75905
1380,300.0,0.575338548006,76447
1390,302.0,0.579325128006,76993
1400,302.0,0.583291608005,77537
1410,302.0,0.587020313005,78081
1420,302.0,0.590947449005,78632
1430,302.0,0.594990479006,79178
1440,302.0,0.598967223006,79735
1450,301.0,0.602701488006,80276
1460,302.0,0.606703464006,80826
1470,302.0,0.610955189006,81370
1480,303.0,0.614705277006,81914
1490,303.0,0.618920651006,82459
1500,304.0,0.622745579006,83013
1510,303.0,0.626746700006,83557
1520,303.0,0.630952238006,84100
1530,304.0,0.634712590007,84655
1540,303.0,0.638846711006,85209
1550,303.0,0.642757169006,85757
1560,303.0,0.646826714007,86303
1570,302.0,0.650688847007,86847
1580,304.0,0.654508215006,87395
1590,304.0,0.658532001006,87941
1600,304.0,0.662425353006,88491
1610,305.0,0.666350351006,89037
1620,307.0,0.670164587006,89580
1630,308.0,0.674103698006,90125
1640,307.0,0.677888427005,90669
1650,308.0,0.681754409004,91219
1660,308.0,0.685803427004,91776
1670,307.0,0.689790435004,92327
1680,309.0,0.694071241004,92871
1690,309.0,0.698078776004,93420
1700,309.0,0.702023019004,93967
1710,311.0,0.706060490003,94515
1720,307.0,0.709926472004,95062
1730,307.0,0.713900222004,95617
1740,308.0,0.718152375004,96168
1750,308.0,0.722536245004,96717
1760,309.0,0.726364166003,97265
1770,309.0,0.730603489003,97814
1780,309.0,0.734613590002,98363
1790,310.0,0.738697247003,98917
1800,309.0,0.742974204003,99469
1810,310.0,0.746997135004,100016
1820,310.0,0.751242873004,100564
1830,309.0,0.755247843004,101111
1840,308.0,0.759101851004,101658
1850,308.0,0.763123926004,102198
1860,308.0,0.767111361005,102746
1870,310.0,0.771044057005,103289
1880,309.0,0.775514313006,103827
1890,309.0,0.779312726006,104370
1900,309.0,0.783702155006,104918
1910,311.0,0.787592513007,105463
1920,311.0,0.791522216007,106018
1930,311.0,0.795625973007,106565
1940,314.0,0.799595875008,107119
1950,314.0,0.803582883008,107663
1960,314.0,0.807676804008,108209
1970,313.0,0.811675787008,108755
1980,315.0,0.815807769009,109294
1990,313.0,0.820066764009,109841
2000,314.0,0.824086701009,110385
2010,312.0,0.828129731009,110939
2020,314.0,0.832127003008,111481
2030,318.0,0.836250005008,112030
2040,316.0,0.840187833008,112571
2050,316.0,0.844025590008,113119
2060,316.0,0.848075463008,113664
2070,313.0,0.851941445008,114222
2080,314.0,0.855965231009,114773
2090,311.0,0.860166921009,115318
2100,314.0,0.864090209009,115870
2110,312.0,0.86801905601,116421
2120,313.0,0.87191625601,116970
2130,312.0,0.87589128901,117527
2140,312.0,0.87988342901,118078
2150,310.0,0.88731133301,118633
2160,311.0,0.89099085801,119182
2170,311.0,0.89498043201,119730
2180,312.0,0.899103434011,120278
2190,310.0,0.90287233901,120825
2200,314.0,0.906688714011,121376
2210,312.0,0.91052561601,121939
2220,310.0,0.914495090011,122481
2230,311.0,0.918890078011,123034
2240,312.0,0.923269671011,123583
2250,314.0,0.927227598012,124129
2260,312.0,0.931410471012,124674
2270,312.0,0.935409881012,125229
2280,313.0,0.939546139011,125784
2290,313.0,0.943594301011,126330
2300,314.0,0.947637759012,126884
2310,313.0,0.951452423012,127433
2320,312.0,0.955321827011,127973
2330,314.0,0.959145899012,128526
2340,312.0,0.963554572012,129066
2350,312.0,0.967650204012,129621
2360,314.0,0.971495659011,130174
2370,314.0,0.975490792011,130724
2380,313.0,0.979584713012,131265
2390,315.0,0.983754757011,131812
2400,317.0,0.987851245011,132356
2410,315.0,0.991944739012,132905
2420,316.0,0.995977506012,133449
2430,316.0,0.999851186012,134007
2440,315.0,1.00362607901,134556
2450,316.0,1.00755877501,135106
2460,315.0,1.01133879901,135648
2470,315.0,1.01522017701,136192
2480,315.0,1.01964296401,136736
2490,315.0,1.02371079901,137289
2500,313.0,1.02747842101,137834
2510,315.0,1.03135808801,138389
2520,315.0,1.03516206001,138945
2530,316.0,1.03888050201,139499
2540,316.0,1.04264085401,140046
2550,315.0,1.04655943801,140588
2560,317.0,1.05047588301,141134
2570,319.0,1.05429482401,141685
2580,320.0,1.05823992201,142229
2590,319.0,1.06207682401,142774
2600,320.0,1.06576917901,143317
2610,319.0,1.07010301301,143869
2620,322.0,1.07390057101,144421
2630,322.0,1.07771181401,144967
2640,321.0,1.08218976701,145515
2650,321.0,1.08621013201,146067
2660,322.0,1.09010134601,146607
2670,323.0,1.09484230601,147152
2680,322.0,1.09881905001,147700
2690,322.0,1.10277954401,148250
2700,323.0,1.10684652301,148808
2710,325.0,1.11086004601,149355
2720,326.0,1.11538632401,149903
2730,325.0,1.11939770801,150460
2740,323.0,1.12397615901,151012
2750,321.0,1.12800678801,151553
2760,321.0,1.13261175401,152099
2770,321.0,1.13672192601,152651
2780,322.0,1.14074015302,153194
2790,322.0,1.14507227702,153753
2800,323.0,1.14901951301,154306
2810,323.0,1.15330758901,154855
2820,322.0,1.15721077701,155400
2830,323.0,1.16120591001,155953
2840,321.0,1.16528614701,156502
2850,322.0,1.16921242901,157053
2860,322.0,1.17297705802,157602
2870,322.0,1.17675451601,158148
2880,321.0,1.18061707702,158702
2890,320.0,1.18448049302,159255
2900,321.0,1.18840549102,159799
2910,320.0,1.19238907801,160347
2920,319.0,1.19662583501,160895
2930,319.0,1.20053330002,161449
2940,319.0,1.20444889002,162002
2950,319.0,1.20848978202,162547
2960,318.0,1.21246224902,163095
2970,319.0,1.21647277802,163636
2980,319.0,1.22047903002,164189
2990,318.0,1.22484622202,164739
3000,319.0,1.22882852602,165286
3010,321.0,1.23280441502,165841
3020,319.0,1.23678500802,166384
3030,320.0,1.24071086202,166937
3040,321.0,1.24461618802,167488
3050,322.0,1.24860148602,168035
3060,321.0,1.25283054502,168576
3070,321.0,1.25685133802,169126
3080,322.0,1.26068652902,169682
3090,321.0,1.26469235302,170229
3100,321.0,1.26860366602,170774
3110,322.0,1.27253251301,171325
3120,320.0,1.27699977501,171872
3130,323.0,1.28101115902,172426
3140,320.0,1.28497892301,172971
3150,321.0,1.28898859701,173509
3160,324.0,1.29300169201,174055
3170,321.0,1.29690060301,174607
3180,319.0,1.30095902901,175163
3190,320.0,1.30494389901,175706
3200,321.0,1.30913618001,176256
3210,320.0,1.31317835501,176809
3220,320.0,1.31716279701,177354
3230,321.0,1.32112799401,177904
3240,326.0,1.32513039701,178454
3250,319.0,1.32914434701,179002
3260,322.0,1.33315829701,179558
3270,320.0,1.33711708001,180096
3280,321.0,1.34109382401,180645
3290,324.0,1.34508767501,181192
3300,322.0,1.34908622901,181739
3310,320.0,1.35339354901,182289
3320,322.0,1.35725482701,182836
3330,321.0,1.36123242701,183381
3340,322.0,1.36526904301,183927
3350,321.0,1.36960202201,184475
3360,321.0,1.37360955701,185023
3370,321.0,1.37754567401,185565
3380,321.0,1.38156219001,186118
3390,322.0,1.38561420101,186667
3400,320.0,1.38961660501,187216
3410,319.0,1.39361601501,187769
3420,320.0,1.39760901001,188311
3430,321.0,1.40174612401,188866
3440,319.0,1.40624674301,189427
3450,320.0,1.41040695001,189979
3460,320.0,1.41445083601,190523
3470,320.0,1.41842758101,191070
3480,321.0,1.42240731901,191625
3490,322.0,1.42670223701,192172
3500,324.0,1.43090435401,192716
3510,322.0,1.43511160301,193263
3520,320.0,1.43910673701,193810
3530,319.0,1.44320878301,194355
3540,316.0,1.44711539201,194905
3550,317.0,1.45116483701,195456
3560,319.0,1.45518776801,196011
3570,316.0,1.45929024301,196554
3580,316.0,1.46363049301,197102
3590,316.0,1.46760852001,197648
3600,318.0,1.47143216501,198197
3610,317.0,1.47547134601,198747
3620,318.0,1.47932749201,199293
3630,319.0,1.48329910401,199846
3640,320.0,1.48730621201,200396
3650,318.0,1.49141595701,200935
3660,319.0,1.49565442501,201480
3670,320.0,1.49973081201,202034
3680,321.0,1.50369045001,202587
3690,320.0,1.50831808201,203138
3700,320.0,1.51233417001,203683
3710,320.0,1.51630621001,204226
3720,319.0,1.52046983901,204772
3730,320.0,1.52439612001,205312
3740,321.0,1.52833394801,205860
3750,321.0,1.53292907901,206405
3760,321.0,1.53692677801,206950
3770,322.0,1.54082911001,207498
3780,323.0,1.54514198901,208049
3790,323.0,1.54908537701,208596
3800,322.0,1.55620194801,209150
3810,323.0,1.56021931902,209695
3820,325.0,1.56397667701,210246
3830,324.0,1.56776568202,210800
3840,324.0,1.57146573401,211342
3850,323.0,1.57538389001,211883
3860,326.0,1.57919983702,212432
3870,322.0,1.58329076402,212976
3880,322.0,1.58705582001,213523
3890,322.0,1.59083712702,214073
3900,326.0,1.59462698701,214620
3910,323.0,1.59843095901,215167
3920,326.0,1.60215282202,215713
3930,322.0,1.60593541202,216255
3940,324.0,1.60971543601,216804
3950,323.0,1.61354635001,217355
3960,325.0,1.61749187502,217911
3970,324.0,1.62153276702,218464
3980,324.0,1.62548513502,219017
3990,326.0,1.62942681202,219569
4000,325.0,1.63336250202,220118
4010,324.0,1.63732299502,220677
4020,324.0,1.64193523102,221224
4030,324.0,1.64582644402,221774
4040,324.0,1.64969071602,222320
4050,325.0,1.65365719702,222879
4060,324.0,1.65768397602,223423
4070,324.0,1.66147469102,223972
4080,325.0,1.66538814302,224519
4090,326.0,1.66934863602,225066
4100,324.0,1.67336044802,225602
4110,326.0,1.67727988601,226154
4120,325.0,1.68122712201,226708
4130,325.0,1.68523038101,227261
4140,325.0,1.68921054701,227820
4150,325.0,1.69304445601,228368
4160,329.0,1.69703574001,228914
4170,328.0,1.70104969001,229464
4180,331.0,1.70502344101,230008
4190,330.0,1.70905150401,230554
4200,327.0,1.71309581801,231094
4210,327.0,1.71709950501,231639
4220,326.0,1.72116349001,232183
4230,328.0,1.72499012801,232737
4240,327.0,1.72913494001,233285
4250,328.0,1.73304497101,233834
4260,330.0,1.73709612701,234389
4270,328.0,1.74094115401,234941
4280,329.0,1.74494398501,235491
4290,330.0,1.74900583201,236034
4300,328.0,1.75302534101,236582
4310,328.0,1.75693879201,237134
4320,329.0,1.76080776801,237686
4330,331.0,1.76476569501,238233
4340,331.0,1.76859789301,238778
4350,329.0,1.77278675301,239324
4360,331.0,1.77692301201,239868
4370,328.0,1.78094893601,240413
4380,328.0,1.78511128201,240959
4390,330.0,1.78905424201,241515
4400,328.0,1.79290825001,242061
4410,330.0,1.79692604901,242610
4420,330.0,1.80090022701,243155
4430,332.0,1.80499158201,243702
4440,330.0,1.80897046501,244248
4450,330.0,1.81299981101,244802
4460,331.0,1.81704284201,245341
4470,331.0,1.82102300701,245887
4480,332.0,1.82495185401,246431
4490,331.0,1.82889780701,246979
4500,330.0,1.83286599901,247528
4510,333.0,1.83682777501,248079
4520,331.0,1.84084685701,248640
4530,331.0,1.84484070801,249191
4540,332.0,1.84882130101,249736
4550,331.0,1.85286518701,250293
4560,333.0,1.85686801801,250844
4570,332.0,1.86087940201,251393
4580,330.0,1.86485571901,251938
4590,330.0,1.86877173701,252490
4600,332.0,1.87285881601,253043
4610,331.0,1.87691724201,253588
4620,334.0,1.88111080601,254130
4630,332.0,1.88562382601,254679
4640,332.0,1.88959886001,255228
4650,331.0,1.89351402201,255770
4660,330.0,1.89758142901,256311
4670,330.0,1.90185282601,256866
4680,332.0,1.90598138701,257414
4690,329.0,1.91010438901,257967
4700,330.0,1.91397037101,258512
4710,332.0,1.91780855601,259063
4720,331.0,1.92165358401,259616
4730,330.0,1.92547252401,260160
4740,330.0,1.92938084301,260706
4750,331.0,1.93321304101,261254
4760,330.0,1.93746519301,261812
4770,330.0,1.94128969201,262360
4780,332.0,1.94539772601,262914
4790,331.0,1.94915679501,263466
4800,330.0,1.95294793801,264018
4810,332.0,1.95676987201,264557
4820,331.0,1.96070641701,265105
4830,331.0,1.96494830601,265654
4840,332.0,1.96864237201,266202
4850,331.0,1.97290906501,266751
4860,333.0,1.97696107701,267300
4870,332.0,1.98084630401,267842
4880,334.0,1.98467165901,268385
4890,335.0,1.98840849001,268939
4900,334.0,1.99224111501,269484
4910,335.0,1.99598222201,270030
4920,334.0,1.99977293801,270578
4930,335.0,2.00374283901,271124
4940,334.0,2.00756947801,271679
4950,335.0,2.01151457601,272228
4960,335.0,2.01534463501,272784
4970,338.0,2.01916186501,273334
4980,336.0,2.02307873701,273891
4990,337.0,2.02687030801,274444
