it,funval,time,funcount
0,70.0,0.000815962000047,582
10,69.0,0.00166528,1071
20,70.0,0.00247311600003,1542
30,67.0,0.00333783000008,2026
40,72.0,0.00415293600008,2512
50,69.0,0.00496291100001,2998
60,72.0,0.00573824500009,3472
70,74.0,0.006581149,3957
80,75.0,0.00735477299997,4432
90,78.0,0.00817714999994,4920
100,74.0,0.00895804399988,5406
110,75.0,0.00980009199986,5900
120,77.0,0.0105950989998,6384
130,77.0,0.0113717169997,6864
140,75.0,0.0122522539997,7355
150,76.0,0.0130344309997,7836
160,74.0,0.0139705629997,8325
170,79.0,0.0151320689997,8803
180,78.0,0.0158962849997,9285
190,79.0,0.0166331309997,9772
200,78.0,0.0174345529997,10261
210,79.0,0.0181790959997,10745
220,80.0,0.0189582789997,11218
230,81.0,0.0197182179996,11707
240,83.0,0.0204542089996,12192
250,82.0,0.0211957589996,12682
260,82.0,0.0219539869996,13171
270,86.0,0.0227220519996,13644
280,85.0,0.0234888339995,14120
290,85.0,0.0242415029995,14603
300,85.0,0.0250027259995,15093
310,88.0,0.0257429929994,15576
320,87.0,0.0264977999994,16062
330,88.0,0.0272359289995,16535
340,88.0,0.0279522479995,17011
350,86.0,0.0286707049995,17494
360,87.0,0.0294674219996,17987
370,87.0,0.0301803199997,18476
380,86.0,0.0309282849996,18954
390,85.0,0.0316741119996,19424
400,86.0,0.0377386569995,19918
410,87.0,0.0385434999995,20397
420,89.0,0.0393855489996,20889
430,88.0,0.0402211819995,21363
440,88.0,0.0410345779995,21845
450,90.0,0.0418184649996,22332
460,87.0,0.0425899499995,22828
470,86.0,0.0433969309995,23326
480,88.0,0.0442167419994,23811
490,85.0,0.0450498099993,24297
500,86.0,0.0457678389993,24784
510,86.0,0.0464841579992,25260
520,85.0,0.0472013319992,25752
530,85.0,0.0479287699992,26240
540,83.0,0.0487053869992,26722
550,85.0,0.0494644709993,27201
560,85.0,0.0502697409993,27690
570,88.0,0.0510177059994,28178
580,87.0,0.0517797829993,28676
590,86.0,0.0525123519993,29159
600,87.0,0.0532637379993,29656
610,85.0,0.0540065709993,30130
620,86.0,0.0547878929992,30611
630,88.0,0.0555704979993,31108
640,85.0,0.0563565239993,31592
650,85.0,0.0571493919992,32066
660,85.0,0.0579225889992,32559
670,86.0,0.0586979239993,33036
680,85.0,0.0595681979992,33512
690,83.0,0.0604115299992,34004
700,84.0,0.0612612759992,34478
710,86.0,0.0620190769991,34967
720,80.0,0.0628517169991,35456
730,82.0,0.0636497179992,35937
740,86.0,0.0644169269991,36420
750,82.0,0.0651909779991,36914
760,84.0,0.0659697339991,37403
770,80.0,0.0667472069991,37905
780,81.0,0.0675430689992,38381
790,81.0,0.0683000149992,38859
800,82.0,0.0690881789991,39342
810,84.0,0.0698878899991,39824
820,85.0,0.0706499679991,40310
830,85.0,0.0713885249991,40781
840,81.0,0.0721155349991,41275
850,82.0,0.0728587959991,41761
860,86.0,0.0736204449992,42236
870,82.0,0.0743970629992,42716
880,84.0,0.0751651279992,43203
890,82.0,0.0759019739992,43700
900,82.0,0.0766811579991,44178
910,84.0,0.0774385309992,44663
920,84.0,0.0781817909992,45132
930,83.0,0.0789348879993,45626
940,81.0,0.0796824249993,46099
950,82.0,0.0804530549993,46588
960,83.0,0.0812467789993,47067
970,84.0,0.0820139879993,47539
980,83.0,0.0827628079993,48032
990,81.0,0.0835017919993,48501
1000,83.0,0.0842548889993,48991
1010,82.0,0.0850118339994,49468
1020,84.0,0.0857811809993,49940
1030,83.0,0.0865128959992,50426
1040,84.0,0.0872454649992,50906
1050,80.0,0.0879848769991,51387
1060,81.0,0.0887657719992,51863
1070,83.0,0.0895239999992,52337
1080,82.0,0.0902916369992,52830
1090,83.0,0.0910413129992,53319
1100,82.0,0.0917755929992,53802
1110,83.0,0.0925013199992,54275
1120,83.0,0.0932638249992,54767
1130,84.0,0.0940117899992,55252
1140,86.0,0.0947935399993,55735
1150,86.0,0.0955415049993,56212
1160,85.0,0.0962715079993,56705
1170,86.0,0.0970938839993,57179
1180,87.0,0.0978414209992,57659
1190,85.0,0.0985983659992,58137
1200,87.0,0.0993886679992,58623
1210,84.0,0.100118670999,59099
1220,86.0,0.100873905999,59600
1230,85.0,0.101623153999,60082
1240,84.0,0.102400626999,60561
1250,88.0,0.103139183999,61045
1260,86.0,0.103885010999,61534
1270,87.0,0.104619290999,62014
1280,88.0,0.105356136999,62506
1290,88.0,0.106099825999,62982
1300,87.0,0.106838810999,63460
1310,87.0,0.107576512999,63932
1320,85.0,0.108356123999,64422
1330,84.0,0.109154979999,64900
1340,86.0,0.109910641999,65377
1350,87.0,0.110679134999,65853
1360,87.0,0.111436935999,66331
1370,87.0,0.112179768999,66819
1380,88.0,0.112920463999,67297
1390,88.0,0.113671849999,67776
1400,88.0,0.114398858999,68260
1410,91.0,0.115171199999,68741
1420,88.0,0.115915315999,69236
1430,88.0,0.116677820999,69739
1440,89.0,0.117411672999,70220
1450,88.0,0.118147235999,70716
1460,89.0,0.118888785999,71196
1470,89.0,0.119655994999,71686
1480,89.0,0.120418499999,72164
1490,88.0,0.121284497999,72652
1500,88.0,0.122036311999,73132
1510,88.0,0.122763321999,73606
1520,86.0,0.123502733999,74087
1530,90.0,0.124232309999,74576
1540,90.0,0.125043139999,75059
1550,90.0,0.125771860999,75553
1560,89.0,0.126481336999,76042
1570,90.0,0.127206208999,76516
1580,92.0,0.127983681999,76988
1590,91.0,0.128719244999,77473
1600,91.0,0.129428293999,77943
1610,89.0,0.130210897999,78403
1620,92.0,0.130938334999,78895
1630,90.0,0.131711530999,79383
1640,88.0,0.132440250999,79864
1650,88.0,0.133171964999,80351
1660,86.0,0.133899829999,80838
1670,89.0,0.134657629999,81325
1680,90.0,0.135416285999,81804
1690,87.0,0.136156979999,82289
1700,87.0,0.136898102999,82765
1710,87.0,0.137621263999,83260
1720,86.0,0.138385907999,83745
1730,87.0,0.139129595999,84229
1740,88.0,0.139892528999,84716
1750,87.0,0.140640065999,85202
1760,88.0,0.141384609999,85689
1770,89.0,0.142122310999,86161
1780,91.0,0.142857873999,86660
1790,87.0,0.143606693999,87139
1800,87.0,0.144327716999,87622
1810,90.0,0.145131704999,88106
1820,89.0,0.145955363999,88592
1830,89.0,0.146678097999,89056
1840,89.0,0.147432904999,89529
1850,88.0,0.148188139999,90003
1860,91.0,0.149153779999,90486
1870,91.0,0.149902172999,90968
1880,91.0,0.150695896999,91451
1890,90.0,0.151475507999,91930
1900,90.0,0.152230742999,92418
1910,92.0,0.152960746999,92902
1920,91.0,0.153799801999,93383
1930,90.0,0.154549904999,93866
1940,90.0,0.155309416999,94351
1950,88.0,0.156079619999,94833
1960,90.0,0.156845546999,95301
1970,89.0,0.157584958999,95784
1980,87.0,0.158308975999,96252
1990,88.0,0.159044110999,96736
2000,87.0,0.159778817999,97211
2010,88.0,0.160528065999,97703
2020,87.0,0.161277312999,98186
2030,88.0,0.162037251999,98675
2040,89.0,0.162792059999,99157
2050,89.0,0.163545583999,99624
2060,87.0,0.164279008999,100112
2070,90.0,0.165018419999,100588
2080,89.0,0.165753982999,101076
2090,89.0,0.166515205999,101563
2100,89.0,0.167223398999,102043
2110,90.0,0.167965803999,102509
2120,91.0,0.168693668999,103003
2130,91.0,0.169458739999,103490
2140,91.0,0.170187032999,103982
2150,90.0,0.170932431999,104472
2160,88.0,0.171652171999,104946
2170,88.0,0.172398853999,105417
2180,90.0,0.173166918999,105899
2190,90.0,0.173908468999,106393
2200,92.0,0.174641465999,106881
2210,91.0,0.175382160999,107351
2220,90.0,0.176142100999,107842
2230,89.0,0.176899901999,108321
2240,90.0,0.177635464999,108821
2250,90.0,0.178395830999,109299
2260,90.0,0.179143794999,109782
2270,89.0,0.179907154999,110256
2280,91.0,0.180629887999,110729
2290,88.0,0.181338080999,111205
2300,88.0,0.182058675999,111689
2310,90.0,0.182797659999,112162
2320,85.0,0.183543058999,112642
2330,86.0,0.184266220999,113112
2340,87.0,0.185016323999,113595
2350,89.0,0.185746327999,114076
2360,89.0,0.186455804999,114558
2370,89.0,0.187181531999,115036
2380,89.0,0.187920087999,115514
2390,90.0,0.188681737999,116011
2400,90.0,0.189439110999,116501
2410,89.0,0.190176384999,116981
2420,87.0,0.190970963999,117463
2430,87.0,0.191718928999,117949
2440,87.0,0.192471170999,118426
2450,88.0,0.193199463999,118915
2460,87.0,0.194118489999,119396
2470,90.0,0.194896817999,119876
2480,89.0,0.195681560999,120362
2490,90.0,0.196429953999,120843
2500,87.0,0.197206571999,121329
2510,88.0,0.197997729999,121806
2520,87.0,0.198756813999,122294
2530,89.0,0.199503922999,122785
2540,91.0,0.200251887999,123270
2550,89.0,0.201007122999,123742
2560,92.0,0.201783739999,124226
2570,93.0,0.202521441999,124713
2580,87.0,0.203307895999,125184
2590,87.0,0.204062703999,125671
2600,87.0,0.204801259999,126155
2610,88.0,0.205575738999,126630
2620,87.0,0.206528976999,127105
2630,86.0,0.207270526999,127583
2640,86.0,0.207988555999,128061
2650,86.0,0.208718986999,128538
2660,86.0,0.209603372999,129025
2670,87.0,0.210332520999,129501
2680,84.0,0.211077492999,129977
2690,84.0,0.211819042999,130463
2700,83.0,0.212599509999,130945
2710,86.0,0.213339776999,131437
2720,88.0,0.214100998999,131915
2730,87.0,0.214816461999,132397
2740,84.0,0.215623870999,132877
2750,85.0,0.216367558999,133360
2760,87.0,0.217145886999,133839
2770,87.0,0.217905825999,134327
2780,88.0,0.218685436999,134814
2790,87.0,0.219421426999,135300
2800,87.0,0.220162976999,135781
2810,84.0,0.220889558999,136264
2820,88.0,0.221646931999,136752
2830,86.0,0.222440655999,137228
2840,86.0,0.223179639999,137718
2850,86.0,0.223911780999,138208
2860,86.0,0.224674285999,138694
2870,84.0,0.225421822999,139185
2880,83.0,0.226135574999,139658
2890,82.0,0.226869426999,140146
2900,84.0,0.227583606999,140624
2910,82.0,0.228331999999,141117
2920,83.0,0.229037198999,141589
2930,83.0,0.229782169999,142064
2940,82.0,0.230522436999,142563
2950,84.0,0.231239182999,143041
2960,86.0,0.231977738999,143530
2970,84.0,0.232717150999,144002
2980,86.0,0.233457844999,144487
2990,85.0,0.234242159999,144990
3000,87.0,0.234973873999,145465
3010,88.0,0.235733812999,145950
3020,88.0,0.236499738999,146439
3030,86.0,0.237246420999,146927
3040,87.0,0.237966159999,147417
3050,85.0,0.238681622999,147897
3060,85.0,0.239467648999,148392
3070,84.0,0.240240417999,148885
3080,87.0,0.241010192999,149379
3090,86.0,0.241779967999,149862
3100,89.0,0.242509543999,150343
3110,88.0,0.243302411999,150822
3120,89.0,0.244067054999,151305
3130,89.0,0.244922788999,151800
3140,87.0,0.245669898999,152281
3150,88.0,0.246393915999,152757
3160,90.0,0.247161979999,153239
3170,89.0,0.247878725999,153719
3180,90.0,0.248581787999,154201
3190,90.0,0.249297250999,154671
3200,91.0,0.250014852999,155144
3210,89.0,0.250829958999,155639
3220,88.0,0.251547560999,156120
3230,88.0,0.252267728999,156606
3240,87.0,0.253005002999,157087
3250,90.0,0.253719610999,157569
3260,90.0,0.254468858999,158042
3270,90.0,0.255199717999,158525
3280,87.0,0.255954524999,159013
3290,90.0,0.256740123999,159493
3300,90.0,0.257500918999,159987
3310,88.0,0.258248028999,160472
3320,89.0,0.258998558999,160955
3330,88.0,0.259752937999,161439
3340,91.0,0.260500902999,161916
3350,89.0,0.261264263999,162390
3360,89.0,0.262001109999,162871
3370,88.0,0.262736672999,163345
3380,92.0,0.263504309999,163816
3390,88.0,0.264247570999,164301
3400,88.0,0.265028464999,164784
3410,88.0,0.265810214999,165258
3420,89.0,0.266611208999,165743
3430,89.0,0.267457533999,166226
3440,89.0,0.268240138999,166703
3450,89.0,0.269085180999,167186
3460,87.0,0.269960586999,167670
3470,87.0,0.270736776999,168161
3480,87.0,0.271495433999,168644
3490,85.0,0.272239549999,169125
3500,86.0,0.272993929999,169601
3510,86.0,0.273761994999,170078
3520,85.0,0.274595490999,170561
3530,86.0,0.275362271999,171048
3540,86.0,0.276125204999,171531
3550,85.0,0.276865899999,172027
3560,84.0,0.277613009999,172505
3570,85.0,0.278369099999,172976
3580,83.0,0.279147855999,173462
3590,84.0,0.279898814999,173941
3600,83.0,0.280778924999,174422
3610,84.0,0.281558963999,174910
3620,85.0,0.282357818999,175390
3630,82.0,0.283103644999,175879
3640,84.0,0.283843911999,176366
3650,83.0,0.284614542999,176865
3660,82.0,0.285396719999,177345
3670,84.0,0.286160080999,177822
3680,82.0,0.286901631999,178314
3690,83.0,0.287704764999,178794
3700,84.0,0.288477961999,179290
3710,87.0,0.289224643999,179783
3720,85.0,0.289990570999,180276
3730,86.0,0.290750509999,180747
3740,85.0,0.291586570999,181229
3750,85.0,0.292377728999,181716
3760,84.0,0.293118423999,182202
3770,85.0,0.293912147999,182692
3780,84.0,0.294666527999,183178
3790,85.0,0.295482488999,183657
3800,85.0,0.296253118999,184145
3810,85.0,0.297185401999,184635
3820,86.0,0.297938925999,185112
3830,87.0,0.298712122999,185596
3840,86.0,0.299444691999,186067
3850,86.0,0.300188807999,186556
3860,86.0,0.300957727999,187036
3870,85.0,0.301768984999,187520
3880,86.0,0.302561425999,187997
3890,83.0,0.303352155999,188489
3900,85.0,0.304128345999,188973
3910,84.0,0.305009738999,189459
3920,89.0,0.305853497999,189951
3930,84.0,0.306629259999,190423
3940,84.0,0.307391336999,190909
3950,85.0,0.308146143999,191395
3960,85.0,0.308921905999,191885
3970,86.0,0.309687403999,192363
3980,85.0,0.310464448999,192845
3990,86.0,0.311236362999,193338
4000,87.0,0.312002716999,193818
4010,83.0,0.312774630999,194298
4020,86.0,0.313509337999,194773
4030,84.0,0.314281251999,195260
4040,85.0,0.315035203999,195738
4050,87.0,0.315773760999,196235
4060,85.0,0.316509323999,196719
4070,85.0,0.317321435999,197199
4080,87.0,0.318079236999,197681
4090,83.0,0.318832761999,198158
4100,85.0,0.319568324999,198639
4110,83.0,0.320356488999,199140
4120,83.0,0.321124125999,199625
4130,84.0,0.322138090999,200120
4140,84.0,0.322876219999,200595
4150,84.0,0.323660963999,201084
4160,84.0,0.324408073999,201563
4170,86.0,0.325165446999,202065
4180,83.0,0.325903147999,202549
4190,81.0,0.326635716999,203042
4200,82.0,0.327358449999,203525
4210,83.0,0.328103848999,203998
4220,83.0,0.328860793999,204472
4230,85.0,0.329604054999,204960
4240,83.0,0.330353730999,205436
4250,83.0,0.331096991999,205910
4260,82.0,0.331829133999,206388
4270,82.0,0.332618580999,206876
4280,85.0,0.333393487999,207343
4290,85.0,0.334129905999,207826
4300,86.0,0.334937313999,208308
4310,86.0,0.336047500999,208799
4320,85.0,0.336796748999,209296
4330,83.0,0.337554121999,209786
4340,84.0,0.338279421999,210263
4350,86.0,0.339175354999,210747
4360,86.0,0.340016119999,211239
4370,84.0,0.340747406999,211720
4380,85.0,0.341488102,212208
4390,84.0,0.342244191999,212681
4400,86.0,0.342996860999,213170
4410,88.0,0.343741403999,213646
4420,85.0,0.344469268999,214137
4430,86.0,0.345194568999,214618
4440,85.0,0.345936545999,215103
4450,83.0,0.346697768999,215596
4460,85.0,0.347428627999,216083
4470,86.0,0.348375451999,216565
4480,83.0,0.349121705999,217054
4490,82.0,0.349872663999,217542
4500,83.0,0.350607371999,218017
4510,82.0,0.351356618999,218498
4520,85.0,0.352165309999,218975
4530,84.0,0.352929952999,219447
4540,85.0,0.353703149999,219915
4550,84.0,0.354462661999,220405
4560,88.0,0.355263227999,220898
4570,85.0,0.356090735999,221378
4580,87.0,0.356899854999,221873
4590,88.0,0.357699992999,222369
4600,87.0,0.358478320999,222861
4610,86.0,0.359686012999,223339
4620,87.0,0.360474176999,223823
4630,89.0,0.361235826999,224313
4640,89.0,0.362158701999,224799
4650,89.0,0.362906238999,225286
4660,88.0,0.363643939999,225772
4670,88.0,0.364412859999,226246
4680,88.0,0.365159113999,226732
4690,89.0,0.365891682999,227210
4700,86.0,0.366658891999,227689
4710,90.0,0.367420969999,228191
4720,86.0,0.368175776999,228679
4730,85.0,0.368954532999,229180
4740,87.0,0.369743979999,229657
4750,87.0,0.370516320999,230142
4760,87.0,0.371283529999,230625
4770,89.0,0.372052449999,231104
4780,86.0,0.372796137999,231592
4790,87.0,0.373537260999,232073
4800,87.0,0.374458852999,232548
4810,86.0,0.375233759999,233023
4820,87.0,0.376063406999,233513
4830,84.0,0.376854136999,234008
4840,85.0,0.377622201999,234480
4850,88.0,0.378418918999,234957
4860,86.0,0.379185700999,235444
4870,89.0,0.379934520999,235926
4880,85.0,0.380710710999,236412
4890,87.0,0.381452260999,236891
4900,88.0,0.382230160999,237376
4910,86.0,0.382988816999,237869
4920,89.0,0.383768000999,238341
4930,87.0,0.384509550999,238830
4940,89.0,0.385257515999,239311
4950,87.0,0.386042258999,239796
4960,88.0,0.386800058999,240299
4970,86.0,0.387657502999,240782
4980,86.0,0.388390071999,241268
4990,87.0,0.389120502999,241754
