it,funval,time,funcount
0,65.0,0.000844185999995,668
10,64.0,0.001700347,1238
20,68.0,0.00260012900003,1813
30,68.0,0.00345415100003,2396
40,71.0,0.00431843800004,2982
50,72.0,0.00526098500006,3573
60,72.0,0.006112014,4156
70,72.0,0.00694422599997,4718
80,73.0,0.00776574700001,5295
90,76.0,0.00860993399999,5886
100,74.0,0.00943230999997,6460
110,74.0,0.010234586,7034
120,77.0,0.0110325860001,7617
130,78.0,0.0118994380001,8200
140,78.0,0.0126991490001,8783
150,82.0,0.0134975770002,9369
160,82.0,0.0142840310001,9950
170,82.0,0.0150824590002,10531
180,81.0,0.0158774660001,11106
190,82.0,0.0166643470002,11663
200,82.0,0.0174375430001,12250
210,81.0,0.0182419580001,12824
220,82.0,0.0190027530001,13400
230,81.0,0.0197686790001,13977
240,85.0,0.0205897730001,14547
250,86.0,0.0213659630001,15125
260,82.0,0.0221746540002,15708
270,82.0,0.0229696610003,16298
280,86.0,0.0237723650002,16868
290,85.0,0.0245314480002,17454
300,85.0,0.0252862550001,18017
310,83.0,0.0260688600001,18580
320,86.0,0.0268553130001,19149
330,84.0,0.0276156800001,19733
340,82.0,0.0284269370001,20319
350,82.0,0.029190725,20897
360,87.0,0.030001127,21491
370,81.0,0.030804687,22069
380,80.0,0.0316108120001,22658
390,80.0,0.0324049630001,23240
400,80.0,0.0331914170001,23818
410,79.0,0.0339898450002,24393
420,81.0,0.0394107730002,24963
430,83.0,0.0402134780003,25548
440,81.0,0.0410371370002,26138
450,82.0,0.0418937260002,26699
460,84.0,0.0426754760002,27272
470,83.0,0.0435042680002,27857
480,85.0,0.0443138150002,28436
490,81.0,0.0451079660003,29016
500,79.0,0.0459388950003,29579
510,81.0,0.0467501520003,30170
520,82.0,0.0475939110003,30750
530,79.0,0.0484791520003,31323
540,78.0,0.0493062330003,31911
550,80.0,0.0501260440002,32499
560,81.0,0.0509445710002,33089
570,79.0,0.0517404330002,33656
580,82.0,0.0525602440002,34246
590,77.0,0.0533612380002,34829
600,80.0,0.0541925960001,35396
610,75.0,0.0551565250001,35981
620,77.0,0.0559669270002,36551
630,79.0,0.0567743350002,37117
640,80.0,0.0575565120002,37683
650,78.0,0.0583835920003,38264
660,78.0,0.0592252130002,38838
670,80.0,0.0600565700003,39417
680,79.0,0.0610089530003,40000
690,79.0,0.0618527120004,40584
700,79.0,0.0626951880004,41161
710,83.0,0.0635470730003,41749
720,82.0,0.0643737260003,42326
730,84.0,0.0652008070003,42906
740,84.0,0.0659996630003,43488
750,84.0,0.0667955250003,44062
760,83.0,0.0676991550004,44638
770,83.0,0.0684920240004,45213
780,83.0,0.0692737730004,45786
790,84.0,0.0700995700004,46370
800,82.0,0.0709155320003,46962
810,82.0,0.0718405450003,47540
820,84.0,0.0726624940004,48120
830,81.0,0.0734322690004,48703
840,82.0,0.0742170120004,49275
850,83.0,0.0750808710004,49849
860,85.0,0.0758998260004,50417
870,83.0,0.0767230580004,50999
880,83.0,0.0775338880004,51577
890,81.0,0.0783823510004,52125
900,81.0,0.0792137090004,52708
910,80.0,0.0800164140004,53287
920,80.0,0.0808387910004,53856
930,83.0,0.0819224640003,54441
940,84.0,0.0827119110004,55038
950,86.0,0.0834838250004,55618
960,84.0,0.0842647190003,56213
970,85.0,0.0850841020003,56795
980,84.0,0.0858957870004,57376
990,89.0,0.0867074720004,57951
1000,87.0,0.0874947810004,58521
1010,87.0,0.0882594250004,59094
1020,85.0,0.0890236410004,59675
1030,86.0,0.0897720330004,60230
1040,87.0,0.0905272680004,60802
1050,86.0,0.0913043140004,61375
1060,87.0,0.0920963270004,61959
1070,85.0,0.0928917620004,62530
1080,83.0,0.0936957490004,63114
1090,88.0,0.0945010200004,63695
1100,84.0,0.0952737880003,64267
1110,85.0,0.0960264570003,64842
1120,84.0,0.0967898170003,65426
1130,85.0,0.0975771260003,66003
1140,85.0,0.0983627250002,66584
1150,85.0,0.0991226640002,67162
1160,85.0,0.0998800370003,67743
1170,87.0,0.100628857,68314
1180,85.0,0.101371262,68895
1190,87.0,0.102126925,69466
1200,87.0,0.102895844,70022
1210,84.0,0.103712234,70603
1220,85.0,0.104580369,71180
1230,86.0,0.105388205,71755
1240,83.0,0.106169955,72330
1250,86.0,0.106952132,72907
1260,83.0,0.107758258,73485
1270,84.0,0.108555403001,74067
1280,86.0,0.109322612,74636
1290,86.0,0.110140712,75212
1300,86.0,0.110932297,75804
1310,83.0,0.111753391,76380
1320,83.0,0.112580472,76957
1330,87.0,0.11338617,77533
1340,86.0,0.114166636001,78106
1350,86.0,0.114931279001,78687
1360,88.0,0.115702338001,79273
1370,85.0,0.116470831001,79857
1380,87.0,0.117253008001,80444
1390,88.0,0.118039034001,81028
1400,86.0,0.118823777001,81613
1410,90.0,0.119610231001,82193
1420,87.0,0.120380434001,82772
1430,92.0,0.121169454001,83364
1440,89.0,0.121935380001,83953
1450,87.0,0.122729532001,84526
1460,85.0,0.123516414001,85117
1470,86.0,0.124310993001,85701
1480,84.0,0.125094454001,86292
1490,84.0,0.125901008001,86882
1500,85.0,0.126719963001,87471
1510,86.0,0.127512404001,88047
1520,88.0,0.128303562001,88625
1530,86.0,0.129085739001,89197
1540,87.0,0.129857653001,89764
1550,88.0,0.130621868001,90325
1560,88.0,0.131408322001,90893
1570,92.0,0.132167833001,91471
1580,89.0,0.132955570001,92031
1590,87.0,0.133738602001,92601
1600,89.0,0.134555847001,93180
1610,86.0,0.135335886001,93737
1620,84.0,0.136119773001,94322
1630,88.0,0.136906654001,94913
1640,87.0,0.137704654001,95499
1650,87.0,0.138494528001,96065
1660,87.0,0.139268152001,96651
1670,88.0,0.140126879001,97224
1680,86.0,0.140903924001,97788
1690,86.0,0.141721596001,98365
1700,85.0,0.142570914001,98948
1710,85.0,0.143362499001,99524
1720,84.0,0.144157505001,100090
1730,81.0,0.144981592001,100666
1740,83.0,0.145884795001,101245
1750,82.0,0.146711020001,101837
1760,82.0,0.147522277001,102416
1770,82.0,0.148336100001,102985
1780,84.0,0.149163608001,103558
1790,83.0,0.149975721001,104125
1800,81.0,0.151115844001,104687
1810,84.0,0.151942924001,105258
1820,83.0,0.152743918001,105826
1830,83.0,0.153634291001,106402
1840,84.0,0.154451108001,106978
1850,88.0,0.155257233001,107555
1860,85.0,0.156057371001,108130
1870,85.0,0.156852378001,108718
1880,84.0,0.157663635001,109303
1890,85.0,0.158456503001,109890
1900,88.0,0.159253221001,110473
1910,86.0,0.160020858001,111040
1920,85.0,0.160822279001,111619
1930,86.0,0.161600607001,112190
1940,87.0,0.162395186001,112766
1950,84.0,0.163192331001,113333
1960,85.0,0.164065598001,113928
1970,86.0,0.164842216001,114496
1980,84.0,0.165597879001,115060
1990,87.0,0.166485259001,115626
2000,85.0,0.167257172001,116185
2010,86.0,0.168051323001,116782
2020,85.0,0.168850178001,117375
2030,85.0,0.169606695001,117942
2040,90.0,0.170419663001,118509
2050,83.0,0.171245033001,119087
2060,82.0,0.172067837001,119660
2070,82.0,0.172891924001,120251
2080,84.0,0.173664693001,120816
2090,85.0,0.174472957001,121399
2100,83.0,0.175282503001,122002
2110,83.0,0.176093333001,122583
2120,85.0,0.176916137001,123161
2130,84.0,0.177706439001,123733
2140,83.0,0.178500163001,124315
2150,83.0,0.179317836001,124901
2160,86.0,0.180212058001,125468
2170,85.0,0.181019467001,126042
2180,85.0,0.181821743001,126629
2190,86.0,0.182593228001,127205
2200,81.0,0.183398071001,127786
2210,86.0,0.184199493001,128366
2220,85.0,0.184994927001,128957
2230,83.0,0.185783091001,129521
2240,82.0,0.186583657001,130109
2250,84.0,0.187377381001,130694
2260,83.0,0.188141597001,131274
2270,83.0,0.188937459001,131862
2280,85.0,0.189711511001,132440
2290,80.0,0.190487701001,132995
2300,83.0,0.191267740001,133579
2310,79.0,0.192090972001,134139
2320,78.0,0.192899236001,134705
2330,79.0,0.193697664001,135275
2340,79.0,0.194481979001,135842
2350,79.0,0.195302217001,136420
2360,82.0,0.196133147001,136992
2370,81.0,0.196948253001,137567
2380,83.0,0.197829218001,138151
2390,84.0,0.198701202001,138729
2400,81.0,0.199522295001,139313
2410,81.0,0.200322861001,139894
2420,84.0,0.201108032001,140461
2430,84.0,0.201888927001,141039
2440,82.0,0.202704461001,141630
2450,86.0,0.203490915001,142191
2460,84.0,0.204242301001,142765
2470,88.0,0.205049282001,143339
2480,87.0,0.205834452001,143908
2490,85.0,0.206629886001,144481
2500,86.0,0.207458677001,145059
2510,84.0,0.208308851001,145646
2520,85.0,0.209089317001,146232
2530,85.0,0.209871067001,146803
2540,86.0,0.210653672001,147368
2550,85.0,0.211462363001,147950
2560,87.0,0.212227007001,148534
2570,86.0,0.212993361001,149112
2580,85.0,0.213788368001,149703
2590,87.0,0.214573111001,150286
2600,84.0,0.215368545001,150865
2610,87.0,0.216164407001,151453
2620,87.0,0.216951288001,152038
2630,89.0,0.217792053001,152611
2640,86.0,0.218598179001,153194
2650,88.0,0.219390620001,153768
2660,84.0,0.220230103001,154356
2670,85.0,0.221084981001,154931
2680,86.0,0.221938576001,155497
2690,85.0,0.222732727001,156073
2700,85.0,0.223567078001,156653
2710,85.0,0.224421956001,157230
2720,85.0,0.225229365001,157800
2730,86.0,0.226009404001,158369
2740,85.0,0.226815102001,158947
2750,84.0,0.227583594001,159515
2760,81.0,0.228372186001,160088
2770,83.0,0.229226636001,160658
2780,86.0,0.230038748001,161237
2790,84.0,0.230817504,161809
2800,86.0,0.231618497,162385
2810,86.0,0.232425905,162959
2820,87.0,0.233242722,163532
2830,86.0,0.234040295,164102
2840,88.0,0.234846421,164681
2850,86.0,0.235622183,165257
2860,86.0,0.236406926,165837
2870,85.0,0.237198939,166413
2880,86.0,0.237987103,167000
2890,86.0,0.23876928,167578
2900,86.0,0.239525798,168160
2910,85.0,0.240288303,168742
2920,87.0,0.241075184,169322
2930,85.0,0.241825287,169890
2940,84.0,0.242608747001,170458
2950,84.0,0.243407603,171024
2960,87.0,0.244180800001,171623
2970,83.0,0.244965970001,172218
2980,82.0,0.245760549001,172793
2990,81.0,0.246548286001,173374
3000,76.0,0.247404874001,173954
3010,78.0,0.248191755001,174520
3020,81.0,0.248985479001,175091
3030,80.0,0.249779631,175666
3040,79.0,0.250551117001,176246
3050,80.0,0.251373066,176822
3060,76.0,0.252180047,177404
3070,84.0,0.252970777,177973
3080,81.0,0.253758942,178561
3090,82.0,0.254650599,179137
3100,80.0,0.255459718,179709
3110,79.0,0.256270976,180292
3120,79.0,0.257131414,180878
3130,80.0,0.257944809,181446
3140,80.0,0.258725704001,182007
3150,88.0,0.259537817,182596
3160,86.0,0.260343515,183167
3170,82.0,0.261134245001,183744
3180,84.0,0.261925403001,184312
3190,83.0,0.262736233001,184896
3200,84.0,0.263525252,185471
3210,86.0,0.264366017,186047
3220,85.0,0.265190531,186625
3230,88.0,0.265978696001,187199
3240,85.0,0.266804494,187779
3250,86.0,0.267555453,188354
3260,85.0,0.268311544001,188918
3270,87.0,0.269100564,189487
3280,85.0,0.269871194,190061
3290,85.0,0.270646101,190647
3300,86.0,0.271483873,191244
3310,88.0,0.272472606,191832
3320,89.0,0.273288568,192410
3330,86.0,0.274066469,192990
3340,89.0,0.274846508,193578
3350,90.0,0.275642797,194142
3360,85.0,0.276436093,194725
3370,85.0,0.277216132,195291
3380,84.0,0.278000875,195868
3390,87.0,0.278781341,196446
3400,85.0,0.279544274,197017
3410,87.0,0.280323457,197603
3420,86.0,0.281124451,198178
3430,86.0,0.281922023,198763
3440,85.0,0.282692226,199342
3450,89.0,0.283476542,199925
3460,87.0,0.284240757,200481
3470,87.0,0.284990005,201053
3480,87.0,0.285773465,201626
3490,87.0,0.286545806,202207
3500,87.0,0.287307456,202781
3510,86.0,0.288087923,203351
3520,85.0,0.288883785,203908
3530,85.0,0.289685206,204498
3540,86.0,0.290489621,205075
3550,85.0,0.291269232,205649
3560,84.0,0.292070653,206243
3570,84.0,0.292826743,206810
3580,84.0,0.293632441,207393
3590,83.0,0.294426165,207977
3600,83.0,0.295213047,208554
3610,87.0,0.296085887,209132
3620,84.0,0.296898427,209699
3630,82.0,0.297673334,210281
3640,83.0,0.298529067,210849
3650,85.0,0.299387366,211423
3660,84.0,0.300196057,212006
3670,86.0,0.300980372,212577
3680,88.0,0.301852356,213150
3690,88.0,0.302652495,213725
3700,85.0,0.303409013,214312
3710,84.0,0.304226257,214887
3720,86.0,0.304989617,215466
3730,87.0,0.305771366,216026
3740,86.0,0.306533016,216589
3750,86.0,0.307294666,217154
3760,84.0,0.308065296,217720
3770,84.0,0.308856881,218281
3780,87.0,0.309641624,218852
3790,87.0,0.310446894,219416
3800,88.0,0.311235486,219994
3810,84.0,0.311995426,220569
3820,86.0,0.312878529,221152
3830,85.0,0.313776172,221725
3840,85.0,0.314618221,222298
3850,85.0,0.315457276,222875
3860,88.0,0.31649519,223443
3870,89.0,0.317331679,224028
3880,86.0,0.318199386,224594
3890,87.0,0.319018341,225170
3900,86.0,0.319899306,225757
3910,86.0,0.320746486,226330
3920,87.0,0.321606068,226906
3930,86.0,0.32247677,227490
3940,88.0,0.323362439,228061
3950,88.0,0.324248963,228664
3960,85.0,0.325236841,229234
3970,87.0,0.326116095,229819
3980,90.0,0.327003048,230399
3990,87.0,0.327872039,230977
4000,85.0,0.32875557,231558
4010,85.0,0.329637818,232132
4020,85.0,0.330576944,232708
4030,85.0,0.331452777,233295
4040,86.0,0.332283279,233870
4050,87.0,0.333144144,234448
4060,84.0,0.33399945,235020
4070,83.0,0.33482311,235593
4080,85.0,0.335662165,236177
4090,83.0,0.336523886,236760
4100,83.0,0.337370639,237337
4110,84.0,0.338245189,237914
4120,86.0,0.339026083,238505
4130,85.0,0.339773621,239077
4140,86.0,0.340532704,239656
4150,86.0,0.341305045,240230
4160,87.0,0.342098769,240821
4170,83.0,0.342888644,241386
4180,81.0,0.343704178,241957
4190,86.0,0.344507311,242528
4200,84.0,0.345333537,243111
4210,84.0,0.346113148,243696
4220,85.0,0.346873087,244276
4230,84.0,0.347637302,244849
4240,86.0,0.348420762,245430
4250,86.0,0.349167444,245999
4260,87.0,0.349962879,246571
4270,85.0,0.350726667,247145
4280,85.0,0.35155332,247730
4290,86.0,0.352409481,248309
4300,82.0,0.353180539,248904
4310,81.0,0.35395117,249491
4320,82.0,0.35474917,250073
4330,83.0,0.355515524,250643
4340,84.0,0.356278029,251220
4350,86.0,0.357047804,251795
4360,81.0,0.357850509,252371
4370,85.0,0.358660912,252958
4380,83.0,0.359461051,253547
4390,82.0,0.360252209,254132
4400,83.0,0.361077152,254713
4410,83.0,0.361852059,255304
4420,86.0,0.362620979,255878
4430,85.0,0.363388616,256461
4440,85.0,0.364212275,257036
4450,85.0,0.364996162,257606
4460,85.0,0.365768931,258192
4470,86.0,0.366550253,258775
4480,85.0,0.367321738,259346
4490,84.0,0.368087664,259934
4500,84.0,0.368854018,260514
4510,86.0,0.369648597,261072
4520,86.0,0.370424359,261653
4530,89.0,0.371219794,262221
4540,88.0,0.37202592,262792
4550,88.0,0.372798261,263386
4560,87.0,0.373559056,263956
4570,86.0,0.374318139,264529
4580,89.0,0.375099033,265109
4590,87.0,0.375899599,265687
4600,87.0,0.376688619001,266263
4610,87.0,0.377480632001,266857
4620,86.0,0.378264092001,267432
4630,89.0,0.379062092,268003
4640,88.0,0.379905852001,268577
4650,86.0,0.380668357001,269153
4660,87.0,0.381443692001,269739
4670,87.0,0.382199782,270322
4680,87.0,0.382981959001,270895
4690,87.0,0.383756439,271477
4700,86.0,0.384556578,272060
4710,84.0,0.385327209,272625
4720,85.0,0.386138039,273205
4730,84.0,0.386944164001,273789
4740,85.0,0.387736605,274363
4750,84.0,0.388559837,274949
4760,82.0,0.389428828001,275530
4770,82.0,0.390290121,276107
4780,83.0,0.391094964,276690
4790,82.0,0.391929315,277264
4800,82.0,0.392734158,277851
4810,83.0,0.393523177,278424
4820,85.0,0.394305781,278997
4830,86.0,0.395081543,279578
4840,88.0,0.395855167,280154
4850,87.0,0.396671984,280735
4860,86.0,0.397466135,281308
4870,86.0,0.398267984,281892
4880,88.0,0.399049306,282461
4890,84.0,0.399845596,283022
4900,87.0,0.400669256,283595
4910,84.0,0.40145742,284174
4920,83.0,0.402240452,284744
4930,84.0,0.403042301,285329
4940,83.0,0.403823623,285897
4950,84.0,0.404663961,286481
4960,84.0,0.405441861,287051
4970,83.0,0.406255257,287634
4980,84.0,0.407034013,288216
4990,83.0,0.407867508,288800
