it,funval,time,funcount
0,63.0,0.000413967999975,283
10,63.0,0.00085658799992,466
20,65.0,0.00129493299994,653
30,68.0,0.00173840899993,834
40,66.0,0.00228281099987,1026
50,64.0,0.00278359199979,1215
60,66.0,0.00328137999975,1403
70,66.0,0.00378772099975,1596
80,71.0,0.00428978599973,1782
90,71.0,0.00479142299969,1968
100,70.0,0.00529519899965,2158
110,70.0,0.00576903899969,2344
120,72.0,0.00625228599972,2534
130,73.0,0.00672227599966,2719
140,75.0,0.00719141099967,2907
150,76.0,0.00768107299973,3094
160,76.0,0.00814849799963,3280
170,75.0,0.00859838899964,3473
180,77.0,0.00908505799964,3666
190,76.0,0.00955633099966,3850
200,76.0,0.0100797779996,4039
210,77.0,0.0105574659996,4228
220,77.0,0.0110013689996,4414
230,78.0,0.0114722149996,4601
240,77.0,0.0120568159995,4785
250,76.0,0.0126230279994,4972
260,76.0,0.0130763399994,5162
270,76.0,0.0135450469994,5351
280,77.0,0.0140749079994,5539
290,77.0,0.0145427609995,5722
300,78.0,0.0149922239995,5911
310,77.0,0.0154540899995,6098
320,77.0,0.0159176659994,6285
330,77.0,0.0163714059994,6468
340,77.0,0.0169632779994,6656
350,78.0,0.0174379729993,6846
360,77.0,0.0179331949993,7033
370,79.0,0.0184284169992,7217
380,78.0,0.0189651209993,7406
390,77.0,0.0194423809993,7597
400,77.0,0.0199042459993,7781
410,77.0,0.0203669669993,7973
420,77.0,0.0208373859994,8155
430,78.0,0.0212727369993,8344
440,79.0,0.0216931189993,8534
450,80.0,0.0220857049993,8723
460,78.0,0.0224911199992,8909
470,79.0,0.0228875549993,9096
480,78.0,0.0232925419994,9286
490,78.0,0.0236996669993,9481
500,78.0,0.0241756439992,9668
510,79.0,0.0246127059993,9851
520,80.0,0.0250369369992,10035
530,81.0,0.0254427799993,10216
540,79.0,0.0258956639992,10402
550,79.0,0.0263301589993,10587
560,79.0,0.0267300149993,10774
570,79.0,0.0271268769993,10961
580,79.0,0.0275818999994,11146
590,79.0,0.0279877419994,11335
600,79.0,0.0283807549993,11525
610,78.0,0.0287592279992,11714
620,79.0,0.0291945779992,11898
630,79.0,0.0296342049992,12082
640,79.0,0.0301627839991,12265
650,78.0,0.0305741859992,12451
660,78.0,0.0309731859992,12636
670,79.0,0.0313649169991,12824
680,79.0,0.0317527989992,13009
690,79.0,0.0321599249992,13202
700,80.0,0.0325657679991,13388
710,80.0,0.0329660509991,13576
720,81.0,0.0333723219991,13766
730,80.0,0.0337554989991,13954
740,80.0,0.034159202999,14142
750,80.0,0.0345372479991,14328
760,80.0,0.0349426619991,14514
770,80.0,0.0353403789992,14704
780,82.0,0.0357351029992,14894
790,81.0,0.0361161419992,15082
800,81.0,0.0365130039992,15265
810,79.0,0.0369911199991,15456
820,82.0,0.0373956789991,15645
830,80.0,0.0377801389991,15834
840,79.0,0.0381765729992,16023
850,79.0,0.0385644549992,16208
860,80.0,0.0389523359993,16390
870,81.0,0.0393406449992,16573
880,81.0,0.0397285259993,16764
890,83.0,0.0401262429993,16951
900,83.0,0.0405962339994,17136
910,83.0,0.0409819769994,17325
920,83.0,0.0413869649994,17512
930,84.0,0.0417782679995,17700
940,84.0,0.0421699979995,17887
950,84.0,0.0425668599995,18071
960,83.0,0.0429808279995,18260
970,87.0,0.0434170339995,18449
980,85.0,0.0438066259994,18636
990,84.0,0.0441996389994,18826
1000,85.0,0.0446080479994,19016
1010,85.0,0.0449937909995,19200
1020,87.0,0.0454004889995,19385
1030,88.0,0.0457810999994,19569
1040,86.0,0.0462190159994,19753
1050,86.0,0.0466269969994,19938
1060,86.0,0.0470195819994,20129
1070,86.0,0.0474177269995,20321
1080,86.0,0.0478056079994,20507
1090,86.0,0.0481926339994,20688
1100,90.0,0.0485740999994,20876
1110,85.0,0.0489927719995,21068
1120,88.0,0.0494093059993,21253
1130,88.0,0.0498177149994,21440
1140,87.0,0.0502492159994,21622
1150,88.0,0.0506323929994,21809
1160,88.0,0.0510125759995,21991
1170,87.0,0.0514252609995,22175
1180,87.0,0.0518101479995,22360
1190,87.0,0.0522078649994,22544
1200,86.0,0.0526025889994,22731
1210,85.0,0.0530148459994,22919
1220,85.0,0.0534065759994,23102
1230,87.0,0.0537722189993,23292
1240,87.0,0.0541720739993,23473
1250,86.0,0.0545526849994,23661
1260,88.0,0.0549662249994,23847
1270,88.0,0.0553742059993,24035
1280,90.0,0.0557680739993,24220
1290,89.0,0.0561606599993,24406
1300,89.0,0.0565964379992,24594
1310,88.0,0.0569915899993,24782
1320,89.0,0.0573905909993,24969
1330,89.0,0.0577806099992,25155
1340,89.0,0.0581573729992,25344
1350,88.0,0.0585409769992,25529
1360,89.0,0.0589797489993,25717
1370,89.0,0.0593719069992,25900
1380,89.0,0.0597610709992,26086
1390,89.0,0.0601463859992,26269
1400,90.0,0.0605299909993,26458
1410,89.0,0.0610859399993,26647
1420,90.0,0.0615281329993,26832
1430,89.0,0.0619237119993,27019
1440,90.0,0.0623167249993,27208
1450,90.0,0.0627046059993,27391
1460,90.0,0.0632468699994,27579
1470,91.0,0.0636326129994,27769
1480,89.0,0.0640367449994,27959
1490,89.0,0.0644340349994,28141
1500,90.0,0.0648313249993,28332
1510,90.0,0.0652440099993,28516
1520,89.0,0.0656511349994,28709
1530,90.0,0.0660578329994,28895
1540,89.0,0.0664653859993,29080
1550,90.0,0.0668485629993,29266
1560,90.0,0.0672809199993,29452
1570,91.0,0.0676965989993,29639
1580,90.0,0.0680857629993,29826
1590,92.0,0.0684821969993,30012
1600,90.0,0.0688563939993,30201
1610,92.0,0.0692258869993,30391
1620,91.0,0.0696201829993,30574
1630,92.0,0.0699956619993,30757
1640,91.0,0.0703976559993,30946
1650,91.0,0.0707863919993,31134
1660,91.0,0.0712033539993,31326
1670,91.0,0.0716369939994,31521
1680,91.0,0.0720235919994,31706
1690,91.0,0.0724166049994,31891
1700,91.0,0.0727890909994,32076
1710,91.0,0.0732081909995,32265
1720,92.0,0.0737192359995,32448
1730,92.0,0.0741302099996,32632
1740,92.0,0.0745351969996,32819
1750,93.0,0.0749611389997,33004
1760,91.0,0.0753528689997,33194
1770,92.0,0.0757450269997,33386
1780,92.0,0.0761294869998,33576
1790,91.0,0.0766473739998,33759
1800,91.0,0.0770579209998,33946
1810,90.0,0.0774569209998,34134
1820,92.0,0.0778649019998,34322
1830,91.0,0.0782784429998,34506
1840,91.0,0.0787146489998,34694
1850,91.0,0.0792274049999,34882
1860,91.0,0.0797149289999,35070
1870,91.0,0.0801421539999,35255
1880,90.0,0.0805646749999,35438
1890,90.0,0.0810102889999,35621
1900,89.0,0.0813998809999,35808
1910,90.0,0.0818001639999,35996
1920,90.0,0.0821987369999,36184
1930,89.0,0.0827345859999,36374
1940,88.0,0.0831335859999,36557
1950,90.0,0.0835428489999,36751
1960,90.0,0.0839358619999,36939
1970,88.0,0.0843357169998,37125
1980,88.0,0.0847445529998,37312
1990,89.0,0.0851341439998,37499
2000,90.0,0.0855335719998,37687
2010,89.0,0.0859479679998,37880
2020,90.0,0.0863362759999,38065
2030,90.0,0.0867540919999,38253
2040,89.0,0.0871355589999,38438
2050,91.0,0.0875213019999,38627
2060,93.0,0.0879087559999,38814
2070,92.0,0.0883077569999,39007
2080,90.0,0.0887217249999,39192
2090,91.0,0.0891151659998,39383
2100,91.0,0.0895393969998,39562
2110,90.0,0.0899888599998,39751
2120,90.0,0.0904066769998,39943
2130,90.0,0.0908035379998,40132
2140,91.0,0.0912435929998,40318
2150,91.0,0.0916425929998,40505
2160,93.0,0.0920343229999,40690
2170,93.0,0.092434606,40882
2180,93.0,0.092827192,41065
2190,90.0,0.093218067,41251
2200,90.0,0.0936333179999,41435
2210,90.0,0.0940336009999,41621
2220,91.0,0.0944338839998,41804
2230,90.0,0.0948542669998,41989
2240,90.0,0.0952541219998,42177
2250,91.0,0.0957288169998,42364
2260,93.0,0.0961842669998,42548
2270,91.0,0.0965708659998,42738
2280,91.0,0.0969929589997,42920
2290,91.0,0.0974009389997,43104
2300,91.0,0.0978016499997,43295
2310,91.0,0.0982327239998,43486
2320,92.0,0.0986176119998,43670
2330,91.0,0.0990097699997,43860
2340,91.0,0.0994831819996,44050
2350,90.0,0.0998791889996,44233
2360,88.0,0.100318389,44419
2370,89.0,0.100730646,44604
2380,88.0,0.101136916,44784
2390,88.0,0.10156072,44971
2400,88.0,0.101981958,45152
2410,88.0,0.102432277,45334
2420,88.0,0.102900129,45516
2430,89.0,0.103344888,45702
2440,91.0,0.103746454,45883
2450,91.0,0.104147591999,46065
2460,91.0,0.104541459999,46254
2470,91.0,0.104949012999,46441
2480,91.0,0.105353999999,46632
2490,90.0,0.105758558999,46821
2500,88.0,0.106157131,47008
2510,88.0,0.106543729,47193
2520,90.0,0.106927334,47379
2530,91.0,0.107326334,47570
2540,90.0,0.10776254,47756
2550,90.0,0.108179929,47940
2560,89.0,0.108571232,48130
2570,91.0,0.108958258,48322
2580,91.0,0.109420123,48513
2590,91.0,0.109812709,48699
2600,91.0,0.110204439,48884
2610,90.0,0.110614558,49071
2620,91.0,0.111005433,49259
2630,92.0,0.111389038,49448
2640,91.0,0.11179317,49635
2650,91.0,0.112181051,49827
2660,90.0,0.112596729,50016
2670,91.0,0.113041059999,50204
2680,91.0,0.113454172999,50391
2690,91.0,0.113857448999,50581
2700,90.0,0.114296220999,50773
2710,91.0,0.114697786999,50963
2720,91.0,0.115116886999,51150
2730,91.0,0.115527433999,51335
2740,91.0,0.115937980999,51521
2750,91.0,0.116323723999,51705
2760,92.0,0.116736408999,51894
2770,91.0,0.117143962,52079
2780,91.0,0.117528849,52267
2790,90.0,0.118010813999,52451
2800,91.0,0.118652720999,52639
2810,91.0,0.119062411999,52828
2820,91.0,0.119456708,53018
2830,91.0,0.119885644,53201
2840,90.0,0.12028892,53385
2850,90.0,0.120737956,53570
2860,90.0,0.121131397,53761
2870,89.0,0.121537239999,53948
2880,91.0,0.121959333999,54134
2890,88.0,0.122382711,54327
2900,88.0,0.122904448,54520
2910,88.0,0.123314139999,54705
2920,88.0,0.123725542,54892
2930,89.0,0.124142502999,55078
2940,89.0,0.124535515999,55264
2950,89.0,0.124933232999,55450
2960,87.0,0.125317264999,55640
2970,88.0,0.125739785999,55826
2980,89.0,0.126148622,56011
2990,91.0,0.126546767,56199
3000,89.0,0.126929944,56383
3010,91.0,0.127307989,56573
3020,91.0,0.127714687,56759
3030,91.0,0.128097864,56944
3040,92.0,0.128494298,57135
3050,90.0,0.128872343,57321
3060,90.0,0.129297857,57506
3070,89.0,0.129726793,57692
3080,90.0,0.130143327,57878
3090,89.0,0.130561571,58067
3100,88.0,0.130979388,58254
3110,89.0,0.131415594,58437
3120,89.0,0.131829989,58628
3130,91.0,0.132252082,58816
3140,88.0,0.132665195,59005
3150,89.0,0.133074887,59192
3160,89.0,0.133470894,59381
3170,89.0,0.133881867999,59567
3180,91.0,0.134283433999,59751
3190,90.0,0.134717928999,59932
3200,89.0,0.135119494999,60122
3210,90.0,0.135530041999,60305
3220,91.0,0.135934601999,60488
3230,90.0,0.136339588999,60678
3240,90.0,0.136741154999,60866
3250,90.0,0.137129035999,61051
3260,89.0,0.137526325999,61243
3270,89.0,0.137935589999,61435
3280,92.0,0.138353833999,61631
3290,89.0,0.138757109999,61811
3300,91.0,0.139156537999,61999
3310,91.0,0.139555537999,62189
3320,90.0,0.139981051999,62380
3330,92.0,0.140386038999,62561
3340,90.0,0.140785038999,62744
3350,90.0,0.141192591999,62928
3360,90.0,0.141586887999,63120
3370,90.0,0.142001710999,63311
3380,91.0,0.142397289999,63500
3390,90.0,0.142795434999,63684
3400,91.0,0.143196145999,63870
3410,91.0,0.143618666999,64061
3420,91.0,0.144024936999,64247
3430,91.0,0.144423936999,64434
3440,89.0,0.144853300999,64620
3450,90.0,0.145289934999,64808
3460,90.0,0.145734693999,64992
3470,90.0,0.146136259999,65182
3480,90.0,0.146584011999,65369
3490,90.0,0.147223780999,65558
3500,90.0,0.147623635999,65744
3510,91.0,0.148012372999,65933
3520,89.0,0.148397259999,66118
3530,89.0,0.148788989999,66302
3540,90.0,0.149187990999,66488
3550,90.0,0.149633605999,66677
3560,89.0,0.150026618999,66866
3570,89.0,0.150451277999,67054
3580,89.0,0.150885772999,67240
3590,89.0,0.151286483999,67426
3600,89.0,0.151712853999,67615
3610,89.0,0.152127248999,67802
3620,90.0,0.152505294,67991
3630,89.0,0.15289403,68181
3640,90.0,0.153272502999,68368
3650,90.0,0.153654397999,68552
3660,88.0,0.154078629999,68743
3670,87.0,0.154456247999,68929
3680,87.0,0.154834720999,69112
3690,87.0,0.155258097999,69298
3700,86.0,0.155646834999,69486
3710,86.0,0.156036426999,69671
3720,87.0,0.156418320999,69856
3730,87.0,0.156812616999,70045
3740,89.0,0.157264645999,70237
3750,88.0,0.157651671999,70421
3760,87.0,0.158083601999,70608
3770,87.0,0.158485167999,70796
3780,88.0,0.158902556999,70981
3790,86.0,0.159320800999,71168
3800,85.0,0.159731347999,71354
3810,87.0,0.160197916999,71539
3820,86.0,0.160614877999,71732
3830,87.0,0.161055787999,71921
3840,86.0,0.161554003999,72112
3850,87.0,0.162026131999,72298
3860,87.0,0.162467042,72486
3870,86.0,0.162869891,72674
3880,86.0,0.163303958,72862
3890,86.0,0.163713649,73048
3900,88.0,0.164104096,73237
3910,88.0,0.164498819,73424
3920,89.0,0.164887984,73613
3930,90.0,0.165341295999,73802
3940,89.0,0.165770658999,73986
3950,88.0,0.166159822999,74169
3960,88.0,0.166566092999,74355
3970,90.0,0.167015983999,74548
3980,89.0,0.167550976999,74731
3990,90.0,0.167993597,74917
4000,89.0,0.168455462,75104
4010,90.0,0.168874989,75288
4020,91.0,0.169282543,75476
4030,90.0,0.169676411999,75662
4040,90.0,0.170085675999,75852
4050,90.0,0.170487669999,76037
4060,90.0,0.170887525999,76222
4070,91.0,0.171277972999,76410
4080,91.0,0.171677400999,76597
4090,93.0,0.172065708999,76783
4100,92.0,0.172480104999,76968
4110,94.0,0.172880814999,77156
4120,93.0,0.173290505999,77343
4130,93.0,0.173684373999,77533
4140,93.0,0.174079952999,77720
4150,94.0,0.174491782999,77906
4160,93.0,0.174880946999,78090
4170,94.0,0.175275242999,78273
4180,94.0,0.175652431999,78456
4190,94.0,0.176042023999,78642
4200,95.0,0.176488065999,78832
4210,95.0,0.176867393999,79022
4220,95.0,0.177257412999,79212
4230,96.0,0.177638023999,79401
4240,96.0,0.178043866999,79589
4250,94.0,0.178468525999,79779
4260,95.0,0.178848280999,79968
4270,95.0,0.179260965999,80155
4280,94.0,0.179644142999,80334
4290,94.0,0.180059821999,80519
4300,94.0,0.180493889999,80711
4310,93.0,0.180888613999,80900
4320,94.0,0.181326102999,81081
4330,95.0,0.181767867999,81273
4340,95.0,0.182157031999,81462
4350,95.0,0.182553893999,81646
4360,95.0,0.182969144999,81834
4370,96.0,0.183436569999,82015
4380,96.0,0.183850537999,82207
4390,95.0,0.184267498999,82394
4400,95.0,0.184680610999,82578
4410,95.0,0.185072768999,82764
4420,94.0,0.185466637999,82953
4430,94.0,0.185888731999,83144
4440,94.0,0.186278323999,83331
4450,92.0,0.186672191999,83517
4460,93.0,0.187087442999,83700
4470,92.0,0.187503976999,83892
4480,91.0,0.187948307999,84081
4490,91.0,0.188369545999,84265
4500,91.0,0.188759137999,84449
4510,91.0,0.189283012999,84640
4520,91.0,0.189755141999,84824
4530,91.0,0.190165688999,85010
4540,91.0,0.190584360999,85196
4550,91.0,0.191003888999,85387
4560,90.0,0.191419139999,85563
4570,91.0,0.191869458999,85755
4580,91.0,0.192289413999,85945
4590,91.0,0.192688413999,86133
4600,92.0,0.193104092999,86326
4610,93.0,0.193510363999,86508
4620,93.0,0.193902093999,86693
4630,89.0,0.194309219999,86883
4640,92.0,0.194711212999,87069
4650,91.0,0.195152550999,87260
4660,92.0,0.195563097999,87449
4670,92.0,0.195939432999,87637
4680,91.0,0.196332018999,87827
4690,92.0,0.196721610999,88014
4700,93.0,0.197124886999,88200
4710,93.0,0.197520465999,88385
4720,92.0,0.197906636999,88577
4730,93.0,0.198298793999,88772
4740,92.0,0.198733716999,88960
4750,93.0,0.199154527999,89149
4760,94.0,0.199558232999,89337
4770,94.0,0.199991445999,89524
4780,94.0,0.200376760999,89711
4790,94.0,0.200752666999,89898
4800,94.0,0.201166207999,90085
4810,93.0,0.201566917999,90273
4820,93.0,0.201990293999,90456
4830,92.0,0.202404261999,90641
4840,92.0,0.202793853999,90823
4850,94.0,0.203183873999,91011
4860,93.0,0.203615374999,91197
4870,92.0,0.204019506999,91376
4880,92.0,0.204439034,91563
4890,92.0,0.204838889,91752
4900,92.0,0.205247298,91934
4910,92.0,0.205654851,92122
4920,91.0,0.206073951,92304
4930,91.0,0.206520849,92494
4940,92.0,0.20692712,92682
4950,92.0,0.207332535,92870
4960,92.0,0.207743937,93060
4970,91.0,0.208121555,93253
4980,90.0,0.20856161,93437
4990,90.0,0.208962321,93623
