it,funval,time,funcount
0,282.0,0.0020852359994,551
10,282.0,0.0041345489999,1003
20,275.0,0.00614366199989,1458
30,279.0,0.00817629599987,1911
40,284.0,0.0101593219997,2367
50,293.0,0.0121359329996,2818
60,292.0,0.0142215959995,3269
70,297.0,0.0162204459994,3720
80,293.0,0.0181470219995,4179
90,290.0,0.0200684659994,4631
100,295.0,0.0219946149991,5076
110,300.0,0.0240533359993,5531
120,290.0,0.026042348999,5993
130,287.0,0.0280313629992,6455
140,290.0,0.0298873769989,6916
150,289.0,0.031734836999,7377
160,291.0,0.0335544999989,7834
170,291.0,0.0354951889985,8294
180,289.0,0.0373524849992,8758
190,291.0,0.0392055049997,9223
200,288.0,0.0411218169993,9679
210,299.0,0.0428978589989,10140
220,299.0,0.0446302809987,10607
230,297.0,0.0463220759993,11071
240,296.0,0.0479924889996,11514
250,302.0,0.0496534929998,11968
260,294.0,0.0513397279992,12435
270,296.0,0.0529866189991,12895
280,298.0,0.054565512999,13335
290,298.0,0.0561521049995,13787
300,298.0,0.0577284339997,14236
310,298.0,0.0593004860002,14695
320,295.0,0.0608387530001,15141
330,298.0,0.0623898499998,15592
340,296.0,0.0639777249999,16053
350,295.0,0.0658307450003,16517
360,294.0,0.067513559,16962
370,295.0,0.0691779839999,17419
380,293.0,0.0707949389998,17883
390,296.0,0.0724037689997,18335
400,295.0,0.0741934969992,18787
410,301.0,0.0758600609988,19249
420,303.0,0.0775595529985,19710
430,300.0,0.0793706629984,20169
440,300.0,0.0810530489989,20623
450,298.0,0.0828008659983,21083
460,302.0,0.084532859998,21546
470,301.0,0.0862314969982,22014
480,300.0,0.0879433919981,22487
490,302.0,0.0894795209979,22934
500,301.0,0.091005385998,23391
510,301.0,0.0924953289987,23823
520,302.0,0.0940066539988,24275
530,299.0,0.0954593909983,24741
540,300.0,0.0970686489982,25197
550,301.0,0.0986099099982,25656
560,301.0,0.100172981998,26118
570,303.0,0.101856651999,26577
580,299.0,0.103527063999,27027
590,303.0,0.105250077999,27466
600,302.0,0.107133887998,27928
610,299.0,0.108891112998,28386
620,300.0,0.110604290998,28838
630,300.0,0.112298223998,29289
640,298.0,0.114179896997,29745
650,299.0,0.115779318998,30214
660,300.0,0.117458711998,30687
670,300.0,0.119216792998,31139
680,300.0,0.120941088998,31588
690,300.0,0.122712426997,32032
700,299.0,0.124347770998,32488
710,297.0,0.125960022998,32949
720,300.0,0.127574412997,33411
730,294.0,0.129233278996,33866
740,296.0,0.130906256996,34318
750,293.0,0.132628414996,34778
760,294.0,0.134357415996,35241
770,303.0,0.136136879996,35706
780,301.0,0.137868445996,36167
790,298.0,0.139700937995,36631
800,301.0,0.141543266995,37094
810,302.0,0.143374048995,37557
820,303.0,0.145172329994,38006
830,304.0,0.146960773995,38464
840,306.0,0.148806950994,38918
850,306.0,0.150689906994,39376
860,309.0,0.152464665994,39827
870,308.0,0.154626451994,40277
880,313.0,0.156438416994,40739
890,303.0,0.158221300994,41200
900,308.0,0.160014877994,41661
910,311.0,0.161786643994,42120
920,314.0,0.163439949994,42578
930,312.0,0.165131316993,43026
940,315.0,0.167009995993,43472
950,314.0,0.168853606993,43932
960,310.0,0.170640768993,44379
970,312.0,0.172428357992,44827
980,316.0,0.174258283992,45275
990,316.0,0.175915866993,45741
1000,307.0,0.177593548992,46195
1010,309.0,0.179247281993,46651
1020,306.0,0.181018619992,47111
1030,309.0,0.182851967992,47560
1040,310.0,0.184717389991,48021
1050,306.0,0.186478464992,48488
1060,305.0,0.188295989991,48953
1070,310.0,0.189948440991,49417
1080,307.0,0.191966961991,49878
1090,310.0,0.193588193991,50327
1100,310.0,0.195317621991,50783
1110,311.0,0.197095374991,51238
1120,311.0,0.198806841991,51697
1130,311.0,0.200367774992,52164
1140,308.0,0.202022791992,52626
1150,306.0,0.204050293993,53080
1160,308.0,0.205736528992,53535
1170,307.0,0.207436021992,53998
1180,309.0,0.212439987992,54450
1190,314.0,0.214090299992,54916
1200,308.0,0.215693570992,55386
1210,309.0,0.217312664991,55835
1220,311.0,0.218933468992,56292
1230,311.0,0.220844649992,56752
1240,314.0,0.222554833991,57211
1250,316.0,0.224280840991,57672
1260,317.0,0.225955528991,58128
1270,318.0,0.22777305299,58578
1280,316.0,0.22970048399,59030
1290,317.0,0.231300332991,59467
1300,313.0,0.233405667991,59936
1310,313.0,0.235196678991,60377
1320,320.0,0.236953048991,60828
1330,320.0,0.238723103991,61282
1340,323.0,0.240430721991,61746
1350,321.0,0.242113535992,62217
1360,322.0,0.243805757992,62665
1370,317.0,0.245750723991,63116
1380,315.0,0.247403173991,63570
1390,320.0,0.249094540992,64037
1400,316.0,0.250720048992,64514
1410,312.0,0.252427238992,64975
1420,309.0,0.254164364991,65441
1430,308.0,0.255853593991,65914
1440,307.0,0.25763305799,66365
1450,307.0,0.259495913991,66830
1460,304.0,0.26123817199,67265
1470,308.0,0.262870522991,67733
1480,311.0,0.264532381991,68179
1490,311.0,0.266201083991,68624
1500,310.0,0.267878765992,69076
1510,310.0,0.269573981991,69527
1520,315.0,0.27142229799,69996
1530,312.0,0.27323725699,70456
1540,311.0,0.27495984299,70923
1550,312.0,0.27662597899,71370
1560,311.0,0.27827244299,71824
1570,316.0,0.27986416699,72275
1580,318.0,0.281526025989,72728
1590,320.0,0.283220386989,73185
1600,319.0,0.28493570199,73648
1610,317.0,0.28663220099,74108
1620,320.0,0.28817816599,74568
1630,321.0,0.28979512199,75025
1640,320.0,0.29135776599,75471
1650,317.0,0.29289603299,75920
1660,319.0,0.29449802099,76383
1670,317.0,0.29618511099,76841
1680,317.0,0.29771995699,77281
1690,316.0,0.29950497999,77735
1700,319.0,0.30113775899,78172
1710,318.0,0.302835112991,78623
1720,316.0,0.30467744099,79080
1730,312.0,0.306314923991,79534
1740,318.0,0.307971223991,80007
1750,316.0,0.309641208991,80466
1760,317.0,0.311295797991,80927
1770,315.0,0.312898640991,81383
1780,314.0,0.314481811991,81835
1790,313.0,0.316079522991,82282
1800,316.0,0.317751217992,82744
1810,312.0,0.319397680992,83195
1820,314.0,0.321095462991,83640
1830,312.0,0.322903578992,84088
1840,313.0,0.324637710992,84549
1850,314.0,0.326325228992,84998
1860,316.0,0.328116666991,85451
1870,315.0,0.329891853991,85897
1880,315.0,0.331624702992,86343
1890,319.0,0.333429825992,86795
1900,319.0,0.335143857991,87252
1910,319.0,0.336915623991,87702
1920,322.0,0.338588173991,88171
1930,323.0,0.340313752991,88629
1940,326.0,0.342208255991,89086
1950,323.0,0.343798269992,89550
1960,317.0,0.345360058992,90001
1970,319.0,0.346926550991,90448
1980,317.0,0.348552487991,90900
1990,319.0,0.350252407991,91351
2000,319.0,0.352048976992,91816
2010,319.0,0.353837848992,92270
2020,320.0,0.355640405992,92728
2030,318.0,0.357495563992,93184
2040,319.0,0.359099262992,93639
2050,317.0,0.360710230992,94089
2060,316.0,0.362379787991,94541
2070,320.0,0.363998881991,94991
2080,322.0,0.365627384991,95451
2090,319.0,0.367130584991,95910
2100,319.0,0.368716321991,96377
2110,321.0,0.370279393991,96825
2120,318.0,0.37183690499,97263
2130,320.0,0.37357445799,97719
2140,323.0,0.37529490599,98192
2150,317.0,0.377015781989,98635
2160,317.0,0.378734090989,99083
2170,317.0,0.38036259299,99549
2180,318.0,0.38195346199,100012
2190,325.0,0.38365423799,100449
2200,318.0,0.38541103599,100910
2210,317.0,0.38715243899,101367
2220,317.0,0.38895841699,101824
2230,317.0,0.39055484599,102274
2240,315.0,0.392118344989,102727
2250,316.0,0.393909355989,103172
2260,316.0,0.39566102299,103636
2270,317.0,0.39740199699,104101
2280,319.0,0.39916563799,104559
2290,320.0,0.400693641991,105011
2300,323.0,0.402296484991,105462
2310,325.0,0.403794980991,105914
2320,323.0,0.405305877991,106372
2330,324.0,0.406959184991,106832
2340,321.0,0.408627458991,107269
2350,319.0,0.410320963991,107724
2360,321.0,0.412079044991,108172
2370,321.0,0.413708402991,108617
2380,324.0,0.41538565699,109072
2390,325.0,0.41704409499,109545
2400,322.0,0.418705525991,110017
2410,319.0,0.420289551991,110486
2420,320.0,0.421923185991,110942
2430,318.0,0.423530732991,111399
2440,322.0,0.425198151991,111855
2450,323.0,0.426789020991,112307
2460,319.0,0.428478248991,112757
2470,318.0,0.430219223991,113217
2480,321.0,0.431857561991,113680
2490,317.0,0.433498465991,114141
2500,317.0,0.435224900991,114588
2510,316.0,0.436911563991,115046
2520,317.0,0.438606779991,115500
2530,320.0,0.44036614399,115945
2540,322.0,0.442329925991,116399
2550,322.0,0.44414702299,116843
2560,325.0,0.44581957299,117302
2570,323.0,0.44754900199,117752
2580,324.0,0.44930964899,118219
2590,327.0,0.45101170699,118681
2600,324.0,0.452773208991,119146
2610,324.0,0.454427797991,119600
2620,322.0,0.456209399991,120056
2630,326.0,0.457884088992,120505
2640,325.0,0.459689211992,120972
2650,326.0,0.461539665992,121424
2660,331.0,0.463418771992,121874
2670,326.0,0.465325247992,122324
2680,324.0,0.467100434992,122787
2690,325.0,0.468711830992,123234
2700,324.0,0.470417737993,123690
2710,328.0,0.472133480993,124156
2720,329.0,0.473829552992,124601
2730,331.0,0.475571383992,125060
2740,333.0,0.477318345993,125522
2750,324.0,0.479043924993,125975
2760,324.0,0.480905924993,126440
2770,322.0,0.482617391993,126910
2780,326.0,0.484435771992,127363
2790,329.0,0.486160922992,127806
2800,324.0,0.487805247992,128266
2810,328.0,0.489482074992,128726
2820,331.0,0.491169592992,129183
2830,325.0,0.492943923992,129645
2840,325.0,0.494843985992,130103
2850,326.0,0.496623448992,130551
2860,328.0,0.501225420992,131014
2870,325.0,0.503018996992,131476
2880,330.0,0.504810007992,131930
2890,330.0,0.506595030992,132394
2900,326.0,0.508397587992,132855
2910,326.0,0.510228369992,133312
2920,322.0,0.512020663992,133754
2930,321.0,0.513851017992,134216
2940,323.0,0.515638606992,134663
2950,327.0,0.517374877992,135115
2960,326.0,0.519140228992,135575
2970,327.0,0.520891895992,136035
2980,324.0,0.522683333992,136478
2990,328.0,0.524444835992,136946
3000,325.0,0.526207621992,137401
3010,326.0,0.527958432993,137871
3020,324.0,0.529923924993,138337
3030,327.0,0.531710230994,138780
3040,322.0,0.533399031994,139242
3050,318.0,0.535390611994,139683
3060,319.0,0.537180766994,140151
3070,319.0,0.538959374993,140617
3080,316.0,0.540556657994,141077
3090,318.0,0.542171474995,141535
3100,318.0,0.543767047995,141997
3110,315.0,0.545560195995,142452
3120,316.0,0.547384134995,142917
3130,319.0,0.549217055996,143370
3140,317.0,0.550944345995,143814
3150,320.0,0.552688741996,144269
3160,318.0,0.554544327995,144728
3170,314.0,0.556218160996,145187
3180,316.0,0.557929627996,145650
3190,316.0,0.559668891996,146105
3200,314.0,0.561408583995,146554
3210,315.0,0.563034519995,147003
3220,314.0,0.564828951995,147454
3230,313.0,0.566619534995,147903
3240,317.0,0.568372055995,148363
3250,314.0,0.570287512995,148828
3260,316.0,0.571987432995,149278
3270,316.0,0.573713866995,149740
3280,317.0,0.575522837995,150197
3290,320.0,0.577464381995,150643
3300,320.0,0.579200224995,151101
3310,317.0,0.580870208994,151562
3320,317.0,0.582520093994,152015
3330,321.0,0.584306827994,152472
3340,320.0,0.586061059994,152929
3350,318.0,0.587768249994,153389
3360,314.0,0.589502382993,153840
3370,315.0,0.591243357993,154287
3380,315.0,0.592994168994,154747
3390,321.0,0.594813831994,155204
3400,317.0,0.596615105993,155649
3410,319.0,0.598353942993,156102
3420,319.0,0.600110740992,156548
3430,321.0,0.601938529991,157006
3440,316.0,0.603620915991,157471
3450,320.0,0.605345639991,157921
3460,319.0,0.607237148992,158367
3470,319.0,0.608901145992,158840
3480,321.0,0.610527509992,159284
3490,319.0,0.612355725992,159741
3500,321.0,0.614110813992,160190
3510,321.0,0.615688853992,160642
3520,313.0,0.617640661992,161097
3530,316.0,0.619253767992,161554
3540,315.0,0.621107643992,162024
3550,312.0,0.622875560992,162483
3560,319.0,0.624521168992,162941
3570,317.0,0.626361786992,163395
3580,317.0,0.628145954992,163857
3590,316.0,0.629841170992,164322
3600,315.0,0.631544084992,164775
3610,316.0,0.633388978992,165219
3620,313.0,0.635363880992,165669
3630,316.0,0.637069788992,166113
3640,316.0,0.638736779993,166571
3650,319.0,0.640437554992,167013
3660,315.0,0.642282876992,167463
3670,317.0,0.644115369992,167910
3680,316.0,0.645763544991,168369
3690,312.0,0.647536166992,168813
3700,314.0,0.649295530992,169282
3710,315.0,0.650939000992,169723
3720,315.0,0.652510624992,170169
3730,315.0,0.654267849992,170633
3740,316.0,0.656063135992,171089
3750,313.0,0.657922142992,171546
3760,313.0,0.659723843992,172002
3770,311.0,0.661330108992,172451
3780,308.0,0.663064241992,172900
3790,309.0,0.664819329992,173361
3800,313.0,0.666582970993,173811
3810,313.0,0.668309405993,174265
3820,312.0,0.669956724993,174718
3830,311.0,0.671900407992,175162
3840,312.0,0.673695266993,175624
3850,313.0,0.675242514993,176073
3860,317.0,0.676904801992,176540
3870,318.0,0.678514059992,177007
3880,316.0,0.680159240992,177457
3890,318.0,0.681767643992,177912
3900,318.0,0.683513750992,178365
3910,320.0,0.685245316992,178817
3920,320.0,0.686923426992,179276
3930,319.0,0.688584430992,179717
3940,312.0,0.690325832992,180182
3950,313.0,0.692088617992,180635
3960,314.0,0.693688467993,181092
3970,315.0,0.695326805992,181548
3980,309.0,0.697144758992,181999
3990,306.0,0.698866061992,182458
4000,310.0,0.700488149992,182905
4010,311.0,0.702154712992,183352
4020,311.0,0.703853776992,183799
4030,311.0,0.705608863992,184253
4040,310.0,0.707422539992,184710
4050,315.0,0.709284540992,185168
4060,307.0,0.710936991991,185631
4070,309.0,0.712559506991,186093
4080,319.0,0.714230346991,186551
4090,324.0,0.716006388991,187012
4100,324.0,0.717790556991,187462
4110,322.0,0.719423334991,187926
4120,322.0,0.721136939991,188394
4130,315.0,0.722915120991,188844
4140,314.0,0.724560729991,189311
4150,319.0,0.726166565991,189755
4160,317.0,0.72784125499,190217
4170,318.0,0.729517654991,190658
4180,318.0,0.731271458991,191120
4190,316.0,0.73292348199,191589
4200,319.0,0.73458020999,192048
4210,319.0,0.73646359399,192515
4220,321.0,0.738219963991,192975
4230,319.0,0.73994383299,193419
4240,319.0,0.74170191399,193886
4250,319.0,0.74343219799,194344
4260,327.0,0.74519583799,194803
4270,330.0,0.74702875899,195260
4280,321.0,0.74875219999,195718
4290,321.0,0.75060393699,196187
4300,322.0,0.75238211799,196663
4310,319.0,0.75430869399,197122
4320,323.0,0.756087301991,197589
4330,320.0,0.757809459991,198050
4340,318.0,0.759645373991,198491
4350,321.0,0.761484281991,198948
4360,314.0,0.763142719991,199404
4370,324.0,0.764967086991,199879
4380,318.0,0.766804710991,200325
4390,316.0,0.768395579991,200770
4400,319.0,0.770039476992,201228
4410,312.0,0.771865554992,201690
4420,316.0,0.773670249991,202142
4430,312.0,0.775400105992,202599
4440,312.0,0.777028180992,203057
4450,314.0,0.778902583991,203519
4460,313.0,0.780685467991,203960
4470,313.0,0.782453812991,204413
4480,315.0,0.78427475899,204879
4490,314.0,0.78604267599,205349
4500,314.0,0.78779519799,205793
4510,314.0,0.78941771299,206255
4520,315.0,0.79104279399,206725
4530,319.0,0.792827388989,207169
4540,318.0,0.79457178499,207618
4550,316.0,0.79885087999,208079
4560,317.0,0.80064702199,208537
4570,316.0,0.80237174699,208974
4580,318.0,0.80400195999,209437
4590,316.0,0.80556887999,209886
4600,314.0,0.80726366799,210340
4610,316.0,0.80880963299,210805
4620,317.0,0.81052580399,211263
4630,314.0,0.81210854699,211722
4640,315.0,0.813663920991,212166
4650,312.0,0.815431838991,212631
4660,313.0,0.817284431991,213092
4670,312.0,0.819023695991,213555
4680,310.0,0.820652197991,213999
4690,311.0,0.822435937991,214468
4700,313.0,0.824221816992,214928
4710,314.0,0.825982463992,215377
4720,320.0,0.827787586992,215829
4730,317.0,0.829626493992,216295
4740,316.0,0.831547510991,216739
4750,320.0,0.833250424991,217182
4760,319.0,0.835091042991,217636
4770,321.0,0.83690600199,218088
4780,315.0,0.83870855899,218533
4790,314.0,0.84051453699,218995
4800,318.0,0.84233206199,219445
4810,315.0,0.844148730989,219896
4820,314.0,0.846006454989,220342
4830,317.0,0.847814571989,220782
4840,315.0,0.849591897989,221238
4850,319.0,0.85134955099,221706
4860,320.0,0.853278264989,222169
4870,316.0,0.855068419989,222630
4880,317.0,0.856809822989,223095
4890,313.0,0.858561916989,223532
4900,314.0,0.860216933988,223989
4910,315.0,0.862022056988,224456
4920,315.0,0.863771584988,224917
4930,313.0,0.865570292988,225369
4940,311.0,0.867324951989,225829
4950,312.0,0.869051813988,226288
4960,314.0,0.870767556988,226746
4970,317.0,0.872458068988,227192
4980,317.0,0.874451359988,227657
4990,315.0,0.876169669988,228099
