it,funval,time,funcount
0,64.0,0.000800993999974,572
10,68.0,0.0016323509999,1054
20,69.0,0.00243035099993,1536
30,71.0,0.00329720399998,2016
40,70.0,0.00411231099997,2494
50,73.0,0.00493511500008,2981
60,72.0,0.00578828200003,3465
70,74.0,0.00670003799996,3945
80,74.0,0.00750145899997,4432
90,75.0,0.00828064299992,4916
100,77.0,0.00908805199992,5403
110,78.0,0.00985654499993,5869
120,79.0,0.0106400059999,6358
130,80.0,0.0113798449999,6838
140,84.0,0.0121923849998,7329
150,84.0,0.0129591669998,7804
160,82.0,0.0137285149998,8287
170,83.0,0.0144773349998,8772
180,82.0,0.0152300039998,9269
190,82.0,0.0159783969998,9747
200,85.0,0.0168029109998,10230
210,84.0,0.0175282099998,10708
220,85.0,0.0182406799997,11194
230,85.0,0.0189398929998,11665
240,85.0,0.0196643369999,12145
250,85.0,0.0203939129999,12626
260,84.0,0.021123917,13108
270,82.0,0.021853065,13587
280,83.0,0.0225651069999,14075
290,83.0,0.0232844189999,14557
300,85.0,0.0240913999999,15040
310,84.0,0.0248072909999,15533
320,85.0,0.0255449929998,16020
330,84.0,0.0262651609999,16500
340,87.0,0.0269853289999,16982
350,85.0,0.0276969439999,17461
360,88.0,0.0284166829999,17944
370,84.0,0.0291535289999,18437
380,83.0,0.0298963619999,18899
390,84.0,0.0306152469999,19397
400,86.0,0.0313371249999,19885
410,84.0,0.0321141709999,20372
420,86.0,0.0328664129999,20854
430,86.0,0.0335711849999,21337
440,83.0,0.034322999,21824
450,82.0,0.0350457320001,22309
460,83.0,0.0358843590001,22800
470,85.0,0.0366246270002,23285
480,84.0,0.0373473610001,23784
490,84.0,0.0380880560001,24273
500,82.0,0.038810362,24753
510,83.0,0.0395206930001,25232
520,81.0,0.0402297410001,25714
530,84.0,0.0409691530001,26205
540,83.0,0.0416854720002,26695
550,84.0,0.0423966590002,27185
560,84.0,0.0431317950002,27677
570,84.0,0.0438605160002,28155
580,84.0,0.0445977900002,28644
590,85.0,0.0453410510003,29132
600,83.0,0.0460505270003,29610
610,84.0,0.0467642800003,30096
620,85.0,0.0474942830002,30576
630,84.0,0.0482037590002,31064
640,84.0,0.0489025440003,31549
650,83.0,0.0496180070003,32028
660,83.0,0.0503783740003,32512
670,84.0,0.0511117990003,32999
680,83.0,0.0518229860003,33478
690,85.0,0.0525482850003,33964
700,86.0,0.0532577620003,34454
710,83.0,0.0540044440003,34947
720,83.0,0.0547665220003,35429
730,83.0,0.0554913940002,35914
740,83.0,0.0562081400002,36410
750,84.0,0.0569163340002,36892
760,82.0,0.0576630160002,37371
770,83.0,0.0583686440002,37859
780,83.0,0.0592102650002,38346
790,82.0,0.0599620780002,38826
800,81.0,0.0606903710002,39309
810,84.0,0.0614379080002,39796
820,81.0,0.0621833070003,40274
830,79.0,0.0629231460002,40758
840,81.0,0.0636638410002,41244
850,80.0,0.0644267740003,41729
860,81.0,0.0651670410002,42205
870,82.0,0.0659180000002,42692
880,83.0,0.0666454370003,43185
890,83.0,0.0673792900003,43673
900,84.0,0.0680849170003,44154
910,84.0,0.0688380140003,44631
920,85.0,0.0695851230004,45126
930,84.0,0.0703117050003,45620
940,85.0,0.0710267400003,46095
950,85.0,0.0717285180003,46566
960,85.0,0.0724324340003,47052
970,84.0,0.0731679970004,47535
980,85.0,0.0738975730003,48014
990,86.0,0.0746339910003,48498
1000,85.0,0.0753451770003,48993
1010,84.0,0.0760828790002,49483
1020,83.0,0.0768218630002,49968
1030,84.0,0.0775689720001,50463
1040,85.0,0.0783058180001,50941
1050,85.0,0.0790974030001,51419
1060,84.0,0.0798291170001,51909
1070,86.0,0.0805373100001,52382
1080,86.0,0.0812668860001,52856
1090,88.0,0.0819802110001,53338
1100,86.0,0.082708076,53821
1110,87.0,0.083452192,54323
1120,86.0,0.084207,54819
1130,89.0,0.0849323,55303
1140,90.0,0.08565931,55781
1150,90.0,0.0863747729999,56260
1160,88.0,0.0871060589999,56748
1170,88.0,0.0878933679999,57226
1180,85.0,0.0886327799999,57719
1190,86.0,0.0893794619999,58209
1200,87.0,0.0901325589999,58694
1210,87.0,0.090893353,59167
1220,87.0,0.091617797,59650
1230,90.0,0.092351222,60142
1240,91.0,0.0930649740001,60637
1250,89.0,0.0937735950001,61119
1260,88.0,0.0945095860002,61595
1270,88.0,0.0952994610002,62073
1280,89.0,0.0960919020001,62555
1290,88.0,0.0969044420001,63040
1300,88.0,0.0976985930001,63513
1310,89.0,0.0985038630001,63990
1320,88.0,0.0993022910002,64487
1330,90.0,0.100089172,64959
1340,88.0,0.100886317,65443
1350,88.0,0.101692015,65933
1360,90.0,0.102484455,66423
1370,87.0,0.103279889,66908
1380,86.0,0.104059073,67391
1390,86.0,0.104804472,67872
1400,88.0,0.105561845,68359
1410,86.0,0.106305106,68850
1420,85.0,0.107045801,69328
1430,84.0,0.107810444,69817
1440,84.0,0.108548145,70311
1450,85.0,0.109305946,70792
1460,87.0,0.110021409,71264
1470,84.0,0.110772795,71739
1480,85.0,0.111501516,72226
1490,85.0,0.112240928,72718
1500,83.0,0.112989748,73215
1510,83.0,0.113916044,73704
1520,83.0,0.114670424,74188
1530,85.0,0.115410263,74674
1540,87.0,0.116150958,75169
1550,84.0,0.116895074,75655
1560,85.0,0.117628499,76139
1570,85.0,0.118391859,76632
1580,85.0,0.119159496,77112
1590,85.0,0.119895486,77612
1600,84.0,0.120659274,78097
1610,85.0,0.121400824,78585
1620,85.0,0.122268959,79076
1630,84.0,0.123010509,79560
1640,86.0,0.123758473,80055
1650,84.0,0.124494464,80538
1660,82.0,0.125212493,81036
1670,83.0,0.125954043,81528
1680,84.0,0.126693455,82011
1690,85.0,0.127430728,82500
1700,83.0,0.128135928,82978
1710,84.0,0.128844121,83458
1720,83.0,0.129570275,83934
1730,84.0,0.13027633,84413
1740,84.0,0.130983668,84889
1750,83.0,0.131709395,85373
1760,84.0,0.1324518,85861
1770,85.0,0.13320062,86344
1780,85.0,0.133939177,86830
1790,83.0,0.134667898,87311
1800,82.0,0.135391914,87785
1810,85.0,0.13613603,88264
1820,84.0,0.136853632,88750
1830,85.0,0.137597748,89230
1840,85.0,0.138352983,89701
1850,87.0,0.139086835,90184
1860,87.0,0.139861742,90662
1870,86.0,0.140584048,91151
1880,85.0,0.141301222,91647
1890,86.0,0.142034647,92126
1900,89.0,0.142777053,92610
1910,85.0,0.143504063,93095
1920,87.0,0.144228079,93584
1930,88.0,0.144952951,94071
1940,87.0,0.145693218,94552
1950,92.0,0.146400556,95038
1960,90.0,0.147113026,95532
1970,89.0,0.147830627,96016
1980,86.0,0.148558492,96501
1990,85.0,0.149302608,96995
2000,86.0,0.150046296,97482
2010,85.0,0.15075791,97975
2020,86.0,0.151459261,98451
2030,86.0,0.152173013,98921
2040,85.0,0.152922261,99419
2050,86.0,0.153665522,99908
2060,85.0,0.154391677,100387
2070,85.0,0.155122963,100873
2080,87.0,0.155860237,101352
2090,85.0,0.156593234,101831
2100,86.0,0.157324948,102318
2110,84.0,0.158065643,102800
2120,86.0,0.15879864,103285
2130,85.0,0.159530354,103761
2140,84.0,0.16023983,104241
2150,83.0,0.160969834,104725
2160,84.0,0.161701121,105213
2170,86.0,0.162435401,105702
2180,86.0,0.163179089,106186
2190,86.0,0.163910803,106668
2200,84.0,0.164618141,107144
2210,86.0,0.165353276,107633
2220,87.0,0.16613973,108119
2230,88.0,0.166932171,108591
2240,85.0,0.167723757,109077
2250,84.0,0.168498236,109558
2260,85.0,0.169278275,110053
2270,83.0,0.170074565,110542
2280,87.0,0.170864013,111010
2290,85.0,0.171665434,111498
2300,86.0,0.172466001,111985
2310,84.0,0.17332259,112467
2320,86.0,0.174108188,112944
2330,83.0,0.174912603001,113430
2340,89.0,0.175727282001,113913
2350,86.0,0.176540250001,114389
2360,83.0,0.177347231001,114866
2370,83.0,0.178137106001,115344
2380,87.0,0.178944942,115821
2390,84.0,0.179795971,116300
2400,84.0,0.180617065,116786
2410,85.0,0.181429606,117262
2420,82.0,0.182252838,117730
2430,84.0,0.183073931,118221
2440,84.0,0.183898018,118709
2450,88.0,0.184706709,119181
2460,86.0,0.185530796,119657
2470,85.0,0.186343764,120141
2480,86.0,0.187159298,120629
2490,86.0,0.187977398,121117
2500,89.0,0.188769411001,121607
2510,89.0,0.189541752001,122099
2520,85.0,0.190240537001,122587
2530,85.0,0.190975672001,123063
2540,89.0,0.191707813001,123546
2550,90.0,0.192451074001,124035
2560,87.0,0.193212724001,124511
2570,86.0,0.193958978001,124986
2580,86.0,0.194738589001,125461
2590,88.0,0.195516917001,125948
2600,88.0,0.196277284001,126433
2610,89.0,0.197008143001,126926
2620,89.0,0.197740285001,127392
2630,89.0,0.198469005001,127869
2640,90.0,0.199202429001,128354
2650,92.0,0.199919603001,128849
2660,88.0,0.200656449001,129322
2670,89.0,0.201420665001,129805
2680,89.0,0.202187874001,130291
2690,91.0,0.202940115001,130777
2700,91.0,0.203658572001,131265
2710,88.0,0.204374463001,131744
2720,90.0,0.205123711001,132234
2730,89.0,0.205852432001,132718
2740,88.0,0.206595265001,133192
2750,88.0,0.207323557001,133671
2760,89.0,0.208042014001,134145
2770,88.0,0.208781426001,134646
2780,87.0,0.209499882001,135129
2790,86.0,0.210220905001,135612
2800,87.0,0.211000517001,136088
2810,86.0,0.211747626,136573
2820,86.0,0.212560167,137052
2830,87.0,0.213292309001,137538
2840,84.0,0.214027445,138023
2850,86.0,0.214852388,138508
2860,83.0,0.215604201,138996
2870,85.0,0.216346178,139475
2880,84.0,0.217088156,139958
2890,83.0,0.217874609,140445
2900,84.0,0.218628988,140922
2910,82.0,0.219367545,141393
2920,83.0,0.220098832,141879
2930,83.0,0.220821137,142381
2940,84.0,0.221567392,142865
2950,85.0,0.222320489,143347
2960,83.0,0.223075724,143832
2970,84.0,0.223815563,144304
2980,82.0,0.224579779,144792
2990,83.0,0.22529738,145265
3000,84.0,0.226069293,145745
3010,86.0,0.226819824,146219
3020,86.0,0.227590454,146704
3030,84.0,0.228344833,147179
3040,87.0,0.229107766,147668
3050,87.0,0.22982665,148141
3060,86.0,0.230551521,148620
3070,83.0,0.231317875,149101
3080,85.0,0.232067978,149592
3090,83.0,0.233184152,150077
3100,86.0,0.233946657,150553
3110,85.0,0.234681364,151031
3120,86.0,0.235644438,151519
3130,87.0,0.236347072,151999
3140,86.0,0.237079641,152484
3150,85.0,0.237828888,152968
3160,84.0,0.238565733,153440
3170,86.0,0.239307283,153919
3180,88.0,0.240037286,154408
3190,88.0,0.240807489,154894
3200,87.0,0.241543052,155364
3210,90.0,0.242252529,155839
3220,90.0,0.243022732,156310
3230,89.0,0.243749314001,156790
3240,89.0,0.244458790001,157280
3250,89.0,0.245182379001,157772
3260,89.0,0.245908106,158249
3270,92.0,0.24660689,158730
3280,90.0,0.247348868,159224
3290,88.0,0.248106241,159702
3300,87.0,0.248885852,160190
3310,85.0,0.249644936,160670
3320,86.0,0.250370236,161141
3330,88.0,0.251132314001,161622
3340,89.0,0.251985909,162115
3350,84.0,0.252777922,162600
3360,86.0,0.253504077,163077
3370,85.0,0.254228949001,163559
3380,84.0,0.254976486001,164051
3390,84.0,0.255711621001,164533
3400,83.0,0.256433927,165013
3410,85.0,0.257171628,165488
3420,83.0,0.257917883,165964
3430,83.0,0.258649597,166453
3440,83.0,0.259359928001,166939
3450,83.0,0.260145099001,167421
3460,82.0,0.260872109001,167911
3470,82.0,0.261611520001,168397
3480,81.0,0.262347938001,168875
3490,80.0,0.263083929001,169353
3500,79.0,0.263836171001,169839
3510,80.0,0.264573016001,170318
3520,81.0,0.265278215001,170798
3530,81.0,0.266028318001,171277
3540,80.0,0.266763026001,171760
3550,82.0,0.267500727001,172238
3560,85.0,0.268215762001,172719
3570,82.0,0.268943199001,173196
3580,81.0,0.269669781001,173686
3590,83.0,0.270430575001,174171
3600,81.0,0.271163144001,174657
3610,84.0,0.271901701001,175152
3620,86.0,0.272618875001,175629
3630,84.0,0.273366840001,176112
3640,86.0,0.274096416001,176589
3650,86.0,0.274842242001,177061
3660,85.0,0.275609451001,177552
3670,87.0,0.276331329001,178049
3680,86.0,0.277172095001,178539
3690,86.0,0.277888414001,179022
3700,87.0,0.278623549001,179498
3710,86.0,0.279342434001,179983
3720,86.0,0.280095530001,180467
3730,86.0,0.280810138001,180938
3740,84.0,0.281526456001,181405
3750,84.0,0.282244058001,181885
3760,84.0,0.282967219001,182365
3770,84.0,0.283739133001,182834
3780,84.0,0.284452458001,183315
3790,82.0,0.285177758001,183802
3800,83.0,0.285891511001,184284
3810,85.0,0.286622797001,184765
3820,82.0,0.287340826001,185255
3830,83.0,0.288054151001,185728
3840,86.0,0.288768759001,186210
3850,84.0,0.289498335001,186688
3860,85.0,0.290247583001,187158
3870,85.0,0.291051570001,187644
3880,85.0,0.291824339001,188128
3890,87.0,0.292580857001,188602
3900,88.0,0.293342935001,189073
3910,85.0,0.294069518001,189561
3920,85.0,0.294827319001,190046
3930,86.0,0.295559888001,190527
3940,87.0,0.296311274001,191018
3950,88.0,0.297051969001,191508
3960,87.0,0.297786676001,191984
3970,87.0,0.298531648001,192473
3980,89.0,0.299298858001,192965
3990,88.0,0.300086167001,193451
4000,86.0,0.300836698001,193926
4010,85.0,0.301711249001,194410
4020,85.0,0.302453654001,194895
4030,87.0,0.303214020001,195376
4040,86.0,0.303952149001,195861
4050,87.0,0.304679587001,196357
4060,87.0,0.305514366001,196833
4070,85.0,0.306286280001,197309
4080,86.0,0.307002598001,197768
4090,86.0,0.307742010001,198257
4100,87.0,0.308498101001,198731
4110,86.0,0.309292680001,199217
4120,87.0,0.310042783001,199700
4130,85.0,0.310796308001,200181
4140,85.0,0.311534009001,200658
4150,85.0,0.312277270001,201133
4160,86.0,0.313014971001,201604
4170,84.0,0.313753100001,202068
4180,86.0,0.314477117001,202552
4190,86.0,0.315391011001,203038
4200,83.0,0.316141969001,203520
4210,85.0,0.316876249001,203991
4220,83.0,0.317632767001,204459
4230,85.0,0.318393990001,204942
4240,84.0,0.319149225001,205420
4250,85.0,0.319906598001,205895
4260,85.0,0.320651142001,206381
4270,85.0,0.321379863001,206848
4280,84.0,0.322100030001,207307
4290,85.0,0.322820625001,207781
4300,84.0,0.323575860001,208265
4310,84.0,0.324287475001,208755
4320,82.0,0.325006787001,209228
4330,82.0,0.325729948001,209711
4340,85.0,0.326477913001,210191
4350,84.0,0.327201501001,210679
4360,84.0,0.327946472001,211160
4370,83.0,0.328657231001,211630
4380,84.0,0.329401775001,212124
4390,83.0,0.330133489001,212602
4400,84.0,0.330864775001,213067
4410,85.0,0.331598199001,213542
4420,86.0,0.332317083001,214022
4430,83.0,0.333092418001,214506
4440,85.0,0.333835251001,214996
4450,84.0,0.334551570001,215472
4460,85.0,0.335327760001,215945
4470,83.0,0.336089409001,216414
4480,85.0,0.336819840001,216890
4490,86.0,0.337600734001,217376
4500,86.0,0.338348698001,217861
4510,86.0,0.339082978001,218341
4520,86.0,0.339958811001,218826
4530,88.0,0.340695657001,219317
4540,89.0,0.341449609001,219798
4550,85.0,0.342201423001,220273
4560,87.0,0.342956231001,220752
4570,87.0,0.343678109001,221238
4580,87.0,0.344463279001,221715
4590,88.0,0.345287366001,222202
4600,86.0,0.346005395001,222678
4610,88.0,0.346734970001,223151
4620,86.0,0.347506028001,223623
4630,85.0,0.348249288001,224109
4640,85.0,0.349141372001,224592
4650,84.0,0.349889765001,225066
4660,86.0,0.350624473001,225554
4670,83.0,0.351369872001,226042
4680,85.0,0.352088328001,226538
4690,85.0,0.352837576001,227030
4700,86.0,0.353598371001,227523
4710,86.0,0.354432722001,228001
4720,85.0,0.355167002001,228488
4730,82.0,0.355878616001,228961
4740,83.0,0.356625298001,229447
4750,82.0,0.357384810001,229930
4760,84.0,0.358090865001,230395
4770,85.0,0.358823862001,230873
4780,87.0,0.359551727001,231378
4790,86.0,0.360272322001,231851
4800,85.0,0.361003609001,232338
4810,86.0,0.361749863001,232811
4820,85.0,0.362480721001,233292
4830,85.0,0.363199606001,233779
4840,85.0,0.363903522001,234268
4850,84.0,0.364630105001,234741
4860,87.0,0.365376359001,235231
4870,87.0,0.366110639001,235706
4880,87.0,0.366838932001,236196
4890,86.0,0.367568081001,236683
4900,86.0,0.368343843001,237174
4910,88.0,0.369096512001,237655
4920,87.0,0.369830365001,238141
4930,86.0,0.370554382001,238619
4940,89.0,0.371258298001,239103
4950,89.0,0.371999848001,239599
4960,86.0,0.372751234001,240084
4970,85.0,0.373484231001,240564
4980,85.0,0.374221933001,241055
4990,88.0,0.374972036001,241524
