it,funval,time,funcount
0,120.0,0.00200526399999,592
10,124.0,0.00400026500006,1070
20,120.0,0.00599740400003,1554
30,120.0,0.00801335999995,2041
40,122.0,0.010004084,2525
50,125.0,0.0119854,3012
60,126.0,0.0139342139998,3490
70,127.0,0.0159168119997,3972
80,126.0,0.0179019769996,4443
90,125.0,0.0198670419995,4916
100,127.0,0.0217957569996,5401
110,128.0,0.0238155609995,5883
120,129.0,0.0257036479995,6362
130,129.0,0.0275836099995,6841
140,130.0,0.0294802499993,7317
150,132.0,0.0313794569993,7805
160,131.0,0.0332418849991,8288
170,131.0,0.035073093999,8771
180,137.0,0.0368961779989,9249
190,134.0,0.0387543299987,9738
200,136.0,0.0405526099987,10206
210,137.0,0.0423205269985,10680
220,139.0,0.0441590069986,11172
230,141.0,0.0459513009985,11668
240,142.0,0.0477919189984,12150
250,142.0,0.0496094439984,12642
260,142.0,0.0514034479984,13123
270,142.0,0.0532299539984,13597
280,143.0,0.0550012919985,14077
290,144.0,0.0567807549985,14566
300,142.0,0.0585516649985,15051
310,143.0,0.0603011929984,15524
320,145.0,0.0620417409984,16012
330,145.0,0.0637112979985,16482
340,146.0,0.0654621089984,16972
350,144.0,0.0672013729986,17444
360,145.0,0.0689795539988,17913
370,144.0,0.0706858889987,18396
380,144.0,0.0724033429988,18878
390,146.0,0.0740977039989,19354
400,146.0,0.0759284859989,19836
410,146.0,0.077633537999,20326
420,147.0,0.079338161999,20808
430,149.0,0.081046207999,21273
440,146.0,0.0828030069988,21757
450,148.0,0.0844990779988,22237
460,150.0,0.0861647859988,22723
470,148.0,0.0878664169986,23211
480,147.0,0.0895488029985,23692
490,147.0,0.0913573469986,24184
500,147.0,0.0931214149987,24669
510,148.0,0.0948983119986,25157
520,149.0,0.0966632359987,25635
530,144.0,0.0983892429988,26107
540,145.0,0.100107123999,26598
550,144.0,0.101827570998,27079
560,143.0,0.103634831999,27563
570,143.0,0.105390346998,28059
580,143.0,0.107097536998,28522
590,146.0,0.108773508998,29007
600,145.0,0.110691959998,29496
610,144.0,0.112455600998,29970
620,146.0,0.114183317998,30464
630,144.0,0.115971334998,30945
640,144.0,0.117700762998,31434
650,145.0,0.119412229998,31917
660,148.0,0.121145078998,32404
670,151.0,0.122868519998,32890
680,149.0,0.124568012998,33368
690,147.0,0.126305993998,33856
700,147.0,0.128159868998,34348
710,147.0,0.129854656998,34822
720,146.0,0.131545168998,35297
730,146.0,0.133456349998,35785
740,145.0,0.135140873998,36265
750,145.0,0.136903658998,36766
760,144.0,0.138616835998,37232
770,144.0,0.140408700998,37710
780,141.0,0.142358369998,38194
790,142.0,0.144199415998,38674
800,145.0,0.145901474998,39136
810,147.0,0.147608664998,39618
820,143.0,0.149314571998,40100
830,145.0,0.151046993998,40590
840,141.0,0.152896165998,41070
850,143.0,0.154637995998,41552
860,141.0,0.156339626998,42029
870,142.0,0.158075469998,42512
880,144.0,0.160076457998,42984
890,145.0,0.161831544998,43467
900,143.0,0.163606731998,43949
910,145.0,0.165365240998,44442
920,142.0,0.167115623998,44931
930,143.0,0.168889955998,45430
940,142.0,0.170722875999,45905
950,140.0,0.172433487998,46384
960,141.0,0.174132124999,46863
970,143.0,0.175870105999,47361
980,141.0,0.177689340999,47844
990,142.0,0.179437157999,48327
1000,140.0,0.181166585999,48814
1010,139.0,0.182908843999,49309
1020,140.0,0.184646824999,49804
1030,139.0,0.186394214999,50276
1040,136.0,0.188175389999,50763
1050,138.0,0.190056634999,51254
1060,137.0,0.191876297999,51730
1070,136.0,0.193683130999,52204
1080,137.0,0.195463877999,52683
1090,135.0,0.197225806999,53168
1100,137.0,0.198978328999,53648
1110,135.0,0.200770194999,54133
1120,135.0,0.202535117999,54619
1130,138.0,0.204300895999,55108
1140,138.0,0.206067529999,55597
1150,138.0,0.207990684999,56090
1160,139.0,0.209729521999,56572
1170,139.0,0.211455100999,57061
1180,140.0,0.213188377999,57555
1190,140.0,0.214900272999,58026
1200,141.0,0.216682729999,58518
1210,143.0,0.218467325999,59008
1220,142.0,0.220207872999,59486
1230,142.0,0.221949275999,59950
1240,139.0,0.223707357999,60432
1250,137.0,0.225497940999,60923
1260,141.0,0.227295365999,61410
1270,140.0,0.229132135999,61899
1280,142.0,0.230889789999,62387
1290,141.0,0.232678661999,62881
1300,143.0,0.234459835999,63374
1310,142.0,0.236215350999,63858
1320,143.0,0.238021329999,64344
1330,141.0,0.239695163999,64815
1340,145.0,0.241427157999,65296
1350,144.0,0.243177112999,65785
1360,143.0,0.244892856999,66269
1370,145.0,0.246646661999,66737
1380,146.0,0.248360267999,67205
1390,144.0,0.250123052999,67693
1400,148.0,0.251857184999,68187
1410,148.0,0.253560526999,68681
1420,149.0,0.255246761999,69171
1430,149.0,0.256944970999,69652
1440,148.0,0.258625218999,70134
1450,150.0,0.260309743999,70626
1460,147.0,0.262045587999,71112
1470,148.0,0.263800247999,71600
1480,148.0,0.26554721,72086
1490,149.0,0.267275355,72584
1500,147.0,0.268964584,73073
1510,147.0,0.270617462,73539
1520,150.0,0.272260504,74026
1530,148.0,0.273930916,74507
1540,146.0,0.275596196,74998
1550,148.0,0.277347435,75491
1560,148.0,0.279006728,75975
1570,147.0,0.280695101,76458
1580,147.0,0.2823916,76942
1590,148.0,0.284066715999,77416
1600,148.0,0.285739267,77887
1610,147.0,0.287438332,78370
1620,149.0,0.289196839999,78849
1630,153.0,0.290928833999,79338
1640,150.0,0.292653130999,79820
1650,151.0,0.294334234,80306
1660,149.0,0.295974711,80787
1670,150.0,0.297658808,81273
1680,150.0,0.299315535,81745
1690,153.0,0.301011607,82221
1700,154.0,0.3027838,82709
1710,151.0,0.304574382,83200
1720,151.0,0.306318778,83685
1730,151.0,0.308053766,84177
1740,152.0,0.309776351,84651
1750,153.0,0.311493805,85147
1760,152.0,0.313162079,85621
1770,151.0,0.314824366,86105
1780,151.0,0.316525569,86596
1790,153.0,0.318242596,87069
1800,153.0,0.319935247,87553
1810,151.0,0.32167665,88034
1820,155.0,0.323419763,88518
1830,153.0,0.32510386,88995
1840,155.0,0.326792661,89474
1850,159.0,0.328519523,89962
1860,157.0,0.330194639,90449
1870,158.0,0.331912521,90928
1880,154.0,0.333594907,91427
1890,152.0,0.335286274,91897
1900,150.0,0.337026394,92377
1910,151.0,0.338792601,92872
1920,151.0,0.340632791,93346
1930,152.0,0.34249864,93829
1940,152.0,0.344414525,94319
1950,155.0,0.346182014,94810
1960,153.0,0.347972597,95299
1970,154.0,0.349705447,95787
1980,154.0,0.351465239,96275
1990,157.0,0.353195522,96764
2000,155.0,0.354920674,97249
2010,156.0,0.356677045,97744
2020,158.0,0.358407329,98239
2030,156.0,0.360156857,98724
2040,160.0,0.361869179,99199
2050,157.0,0.363560119,99694
2060,156.0,0.365298528,100171
2070,159.0,0.367123751,100659
2080,156.0,0.36887841,101130
2090,157.0,0.370710902999,101628
2100,155.0,0.372480103,102105
2110,156.0,0.374239467,102588
2120,155.0,0.375991561,103064
2130,158.0,0.377901031999,103553
2140,156.0,0.379734808,104034
2150,158.0,0.381528811999,104526
2160,158.0,0.383215048,105009
2170,158.0,0.384953885,105497
2180,156.0,0.386626862999,105992
2190,152.0,0.388331059999,106485
2200,153.0,0.390066902999,106974
2210,158.0,0.39180018,107464
2220,158.0,0.393545004,107938
2230,156.0,0.395288117,108427
2240,156.0,0.397017117,108910
2250,157.0,0.398744835,109391
2260,155.0,0.400464854,109866
2270,153.0,0.402225501,110339
2280,153.0,0.404189710999,110825
2290,155.0,0.405934534999,111306
2300,156.0,0.407647283999,111791
2310,151.0,0.409370724999,112266
2320,151.0,0.411287036999,112755
2330,154.0,0.413014754999,113234
2340,153.0,0.414772408999,113724
2350,154.0,0.416475321999,114196
2360,155.0,0.418250936999,114675
2370,154.0,0.419965824999,115163
2380,154.0,0.421661041999,115646
2390,156.0,0.423441360999,116126
2400,158.0,0.425464158999,116612
2410,154.0,0.427534425999,117101
2420,154.0,0.429383169999,117591
2430,152.0,0.431361064999,118081
2440,154.0,0.433230335999,118554
2450,153.0,0.435104738999,119039
2460,154.0,0.436979568999,119524
2470,153.0,0.438811205999,119998
2480,154.0,0.440668929999,120480
2490,154.0,0.442511686999,120960
2500,154.0,0.444387800999,121440
2510,155.0,0.446235261999,121913
2520,153.0,0.448071602999,122394
2530,151.0,0.449957551999,122891
2540,151.0,0.451862317999,123367
2550,153.0,0.453736292999,123846
2560,152.0,0.455630367999,124325
2570,152.0,0.457489802999,124803
2580,151.0,0.459356935999,125275
2590,153.0,0.461082087999,125751
2600,151.0,0.462840168999,126236
2610,154.0,0.464605947999,126719
2620,151.0,0.466335375999,127202
2630,151.0,0.468006215999,127690
2640,152.0,0.469715972999,128171
2650,153.0,0.471428294999,128655
2660,149.0,0.473114530999,129131
2670,153.0,0.474833695999,129609
2680,151.0,0.476543879999,130096
2690,152.0,0.478266037999,130576
2700,149.0,0.480005729999,131053
2710,149.0,0.481737295999,131533
2720,150.0,0.483472710999,132013
2730,149.0,0.485217107999,132500
2740,147.0,0.486957655999,132982
2750,149.0,0.488693070999,133459
2760,149.0,0.490417367999,133938
2770,150.0,0.492134821999,134419
2780,151.0,0.493882638999,134903
2790,153.0,0.495645423999,135393
2800,151.0,0.497379555999,135871
2810,149.0,0.499131221999,136362
2820,147.0,0.500884598999,136851
2830,150.0,0.502579386999,137340
2840,152.0,0.504296840999,137823
2850,149.0,0.506044658999,138312
2860,148.0,0.507804022999,138788
2870,148.0,0.509556116999,139279
2880,148.0,0.511271859999,139770
2890,149.0,0.513322027999,140250
2900,152.0,0.515014249999,140727
2910,149.0,0.516846314999,141214
2920,150.0,0.518619363999,141698
2930,154.0,0.520356062999,142196
2940,151.0,0.522096609999,142681
2950,152.0,0.523856400999,143163
2960,152.0,0.525523391999,143643
2970,152.0,0.527235285999,144137
2980,150.0,0.528972411999,144616
2990,149.0,0.530633415999,145095
3000,148.0,0.532388074999,145577
3010,150.0,0.534120069999,146068
3020,151.0,0.535930324999,146558
3030,152.0,0.537684984999,147050
3040,153.0,0.539372075999,147531
3050,155.0,0.541119892999,148016
3060,150.0,0.542823233999,148527
3070,148.0,0.544559504999,149021
3080,147.0,0.546240179999,149503
3090,147.0,0.547923848999,150001
3100,148.0,0.549569456999,150488
3110,150.0,0.551284771999,150968
3120,149.0,0.553038148999,151456
3130,153.0,0.554746621999,151939
3140,149.0,0.556511972999,152426
3150,150.0,0.558333346999,152909
3160,147.0,0.560105540999,153396
3170,146.0,0.561815724999,153877
3180,147.0,0.563585352,154358
3190,147.0,0.565389618999,154833
3200,150.0,0.567173359,155314
3210,148.0,0.568926308,155802
3220,147.0,0.57065873,156287
3230,146.0,0.57252458,156773
3240,144.0,0.574298912,157253
3250,149.0,0.576030051,157742
3260,144.0,0.577759052,158214
3270,143.0,0.5794795,158692
3280,147.0,0.581224752,159173
3290,148.0,0.582960167,159656
3300,149.0,0.584799929999,160144
3310,147.0,0.586519522999,160623
3320,148.0,0.588214739,161113
3330,149.0,0.589943312,161597
3340,149.0,0.59165264,162071
3350,149.0,0.593359403,162553
3360,154.0,0.595055902,163038
3370,150.0,0.596753256,163519
3380,151.0,0.598464295,164004
3390,154.0,0.600156517,164477
3400,152.0,0.601817093,164943
3410,153.0,0.603555502,165421
3420,149.0,0.605383718,165906
3430,150.0,0.60711614,166389
3440,150.0,0.608924255999,166878
3450,152.0,0.610737931999,167369
3460,149.0,0.612504566,167848
3470,151.0,0.614234422,168324
3480,150.0,0.615996779,168806
3490,149.0,0.617810882,169302
3500,149.0,0.619539455,169770
3510,151.0,0.621277863999,170268
3520,150.0,0.623043214999,170747
3530,149.0,0.624774781999,171241
3540,150.0,0.626499933999,171716
3550,151.0,0.628245612999,172195
3560,149.0,0.629980172999,172686
3570,148.0,0.631731411999,173177
3580,149.0,0.633453141999,173655
3590,149.0,0.635169312999,174151
3600,150.0,0.636891470999,174632
3610,153.0,0.642657941999,175115
3620,152.0,0.644502409,175614
3630,149.0,0.646201902,176103
3640,149.0,0.647889848,176586
3650,151.0,0.649576511,177060
3660,150.0,0.651283274,177537
3670,151.0,0.653057605999,178031
3680,151.0,0.654843484,178513
3690,153.0,0.656601138,179003
3700,157.0,0.658364779,179497
3710,153.0,0.66007924,179968
3720,156.0,0.661805247,180443
3730,154.0,0.663497042,180916
3740,153.0,0.665217917,181399
3750,153.0,0.666989683,181878
3760,152.0,0.668937214,182345
3770,151.0,0.670632858,182825
3780,151.0,0.672322942,183301
3790,153.0,0.674022863,183775
3800,153.0,0.675731336,184265
3810,152.0,0.677470172,184754
3820,154.0,0.679133742,185241
3830,149.0,0.68088498,185720
3840,152.0,0.682584044999,186210
3850,155.0,0.684334429,186680
3860,153.0,0.686049745,187141
3870,152.0,0.687776178999,187623
3880,148.0,0.689531693999,188111
3890,149.0,0.691261123,188585
3900,151.0,0.692967886,189062
3910,152.0,0.694709717,189544
3920,150.0,0.696646983999,190028
3930,154.0,0.698381543999,190521
3940,150.0,0.700053666999,191013
3950,152.0,0.701761713,191504
3960,152.0,0.703869186,191967
3970,152.0,0.705594765,192454
3980,154.0,0.70762911,192943
3990,153.0,0.709366236,193430
4000,151.0,0.711111914999,193911
4010,152.0,0.712867002999,194397
4020,151.0,0.714634491999,194875
4030,150.0,0.716371617999,195362
4040,153.0,0.718154502999,195849
4050,153.0,0.719891628999,196330
4060,153.0,0.721645005999,196804
4070,155.0,0.723355189999,197282
4080,153.0,0.725073499999,197762
4090,154.0,0.726791808999,198235
4100,152.0,0.728541336999,198728
4110,152.0,0.730272903999,199221
4120,156.0,0.731972396999,199703
4130,151.0,0.733725346,200181
4140,154.0,0.735406449,200662
4150,150.0,0.737144002,201153
4160,151.0,0.73882425,201641
4170,151.0,0.740558382,202124
4180,150.0,0.742286099,202609
4190,152.0,0.744018948,203096
4200,152.0,0.745763771999,203580
4210,153.0,0.747490205999,204063
4220,156.0,0.749222627999,204543
4230,157.0,0.750909290999,205025
4240,159.0,0.752647699999,205509
4250,156.0,0.754438709999,205999
4260,156.0,0.756143761999,206465
4270,155.0,0.757912105999,206940
4280,157.0,0.759621434999,207424
4290,156.0,0.761562550999,207908
4300,156.0,0.763301815,208397
4310,158.0,0.765000452,208870
4320,157.0,0.766728598,209356
4330,158.0,0.76849395,209840
4340,159.0,0.770239200999,210332
4350,156.0,0.771953232999,210826
4360,154.0,0.773704899999,211315
4370,159.0,0.775443736999,211799
4380,162.0,0.777148360999,212285
4390,157.0,0.778841865999,212760
4400,157.0,0.780615769999,213242
4410,156.0,0.782396944999,213741
4420,158.0,0.784126800999,214229
4430,156.0,0.785848103999,214724
4440,157.0,0.787592926999,215221
4450,154.0,0.789324065999,215710
4460,151.0,0.791081719999,216186
4470,154.0,0.792808582999,216667
4480,153.0,0.794644068998,217155
4490,151.0,0.796417545999,217643
4500,154.0,0.798164935999,218122
4510,153.0,0.799899495998,218592
4520,153.0,0.801672544999,219074
4530,153.0,0.803425920999,219566
4540,155.0,0.805169461999,220040
4550,152.0,0.806911719998,220527
4560,152.0,0.808593250998,221002
4570,151.0,0.810258958998,221488
4580,153.0,0.811939207998,221976
4590,152.0,0.813659655998,222465
4600,153.0,0.815403196998,222938
4610,150.0,0.817126637999,223420
4620,151.0,0.818811589999,223901
4630,149.0,0.820547432998,224377
4640,151.0,0.822314494998,224858
4650,154.0,0.824025961998,225344
4660,153.0,0.825704498998,225826
4670,152.0,0.827405273998,226310
4680,151.0,0.829101772998,226784
4690,153.0,0.830834194998,227275
4700,152.0,0.832534114998,227746
4710,152.0,0.834272523998,228223
4720,151.0,0.835965601998,228696
4730,152.0,0.837692036998,229184
4740,153.0,0.839394950998,229650
4750,153.0,0.841112404998,230143
4760,152.0,0.842860649998,230624
4770,150.0,0.844549450998,231097
4780,149.0,0.846269043998,231578
4790,149.0,0.847976661998,232061
4800,151.0,0.849699675998,232551
4810,153.0,0.851414563998,233026
4820,152.0,0.853226956998,233506
4830,154.0,0.854913619998,234003
4840,149.0,0.856613967998,234471
4850,148.0,0.858343823998,234955
4860,149.0,0.860052296998,235434
4870,149.0,0.861729550998,235922
4880,150.0,0.863421345998,236400
4890,151.0,0.865107580998,236867
4900,149.0,0.866807927998,237358
4910,150.0,0.868512979998,237844
4920,150.0,0.870200925998,238322
4930,147.0,0.871858935998,238797
4940,150.0,0.873566980998,239274
4950,148.0,0.875229267998,239748
4960,146.0,0.876964255998,240234
4970,147.0,0.878656050998,240716
4980,151.0,0.880317482998,241205
4990,148.0,0.881949406998,241688
