it,funval,time,funcount
0,36.0,0.000339128999997,562
10,42.0,0.000684672000006,1016
20,41.0,0.001037913,1456
30,42.0,0.001374476,1921
40,42.0,0.00169265,2379
50,44.0,0.00202664699998,2835
60,43.0,0.00235551199998,3300
70,41.0,0.00268437699998,3775
80,43.0,0.00299955699998,4235
90,43.0,0.00332029699999,4680
100,45.0,0.0036513,5137
110,43.0,0.00398273100001,5595
120,45.0,0.004306464,6048
130,44.0,0.00462036100001,6502
140,44.0,0.00494152799999,6945
150,45.0,0.005252004,7393
160,44.0,0.00557274400001,7856
170,45.0,0.00591700499999,8298
180,45.0,0.00621807199997,8755
190,46.0,0.00652640999996,9207
200,47.0,0.00683816899996,9674
210,46.0,0.00717002699997,10149
220,45.0,0.00748007499996,10609
230,45.0,0.00779782099997,11072
240,46.0,0.00813609499997,11524
250,45.0,0.00844699899997,11978
260,45.0,0.00880109499997,12442
270,44.0,0.00912910399995,12896
280,45.0,0.00946780599998,13348
290,43.0,0.00980394099997,13809
300,44.0,0.010163169,14270
310,44.0,0.010483908,14734
320,44.0,0.010800371,15190
330,45.0,0.011131374,15641
340,44.0,0.011475634,16099
350,42.0,0.011791242,16547
360,43.0,0.012111554,17027
370,44.0,0.012424169,17497
380,45.0,0.012747047,17959
390,45.0,0.013088742,18422
400,43.0,0.013413331,18882
410,44.0,0.013743052,19327
420,45.0,0.014109978,19787
430,44.0,0.0144213089999,20241
440,44.0,0.014772412,20698
450,44.0,0.015098711,21151
460,45.0,0.01543784,21633
470,45.0,0.01577868,22099
480,43.0,0.016351735,22563
490,43.0,0.016699844,23029
500,43.0,0.0170338410001,23480
510,44.0,0.017357147,23927
520,44.0,0.0176766040001,24383
530,44.0,0.0180020470001,24843
540,44.0,0.0183321950001,25287
550,43.0,0.018668758,25748
560,43.0,0.019144736,26195
570,43.0,0.0195069580001,26649
580,43.0,0.0198405270001,27103
590,46.0,0.0201916300001,27562
600,45.0,0.0205606950001,28016
610,45.0,0.0208951190001,28470
620,46.0,0.0212282600001,28923
630,45.0,0.0215584080001,29376
640,45.0,0.021902669,29840
650,45.0,0.022227258,30299
660,46.0,0.0225479970001,30767
670,46.0,0.0229012390001,31239
680,46.0,0.0233592550001,31701
690,47.0,0.0236868370001,32154
700,44.0,0.0240071490001,32614
710,46.0,0.0243394360001,33073
720,45.0,0.0247136320001,33521
730,47.0,0.0250365100001,33969
740,47.0,0.0253606710001,34441
750,45.0,0.0256779890001,34900
760,46.0,0.0260072820001,35365
770,44.0,0.0263382860001,35820
780,46.0,0.0266975150001,36288
790,43.0,0.0270558890001,36735
800,42.0,0.0273868930001,37193
810,42.0,0.0277029280001,37645
820,43.0,0.0280296550001,38108
830,42.0,0.0283897380001,38581
840,43.0,0.0287318600001,39032
850,42.0,0.0290679960001,39495
860,44.0,0.0294019930001,39955
870,42.0,0.0297543790001,40410
880,46.0,0.0300896590001,40871
890,47.0,0.030409116,41324
900,45.0,0.030752093,41777
910,46.0,0.031099774,42221
920,46.0,0.031454299,42667
930,45.0,0.031854582,43120
940,46.0,0.032203547,43569
950,45.0,0.032538827,44021
960,45.0,0.032878811,44478
970,45.0,0.033205538,44940
980,44.0,0.033540818,45398
990,45.0,0.033867544,45856
1000,48.0,0.034198119,46320
1010,44.0,0.03454238,46769
1020,45.0,0.034945229,47231
1030,44.0,0.035398113,47688
1040,44.0,0.035762046,48130
1050,45.0,0.036098609,48588
1060,44.0,0.036456982,49033
1070,45.0,0.036789268,49484
1080,44.0,0.037127114,49941
1090,45.0,0.0374795,50394
1100,44.0,0.037819057,50839
1110,44.0,0.038185128,51297
1120,43.0,0.038515276,51746
1130,48.0,0.038838154,52206
1140,44.0,0.039167019,52670
1150,45.0,0.039502726,53118
1160,43.0,0.039950051,53571
1170,44.0,0.040264375,54019
1180,44.0,0.040585115,54480
1190,42.0,0.040931942,54930
1200,45.0,0.041281762,55391
1210,44.0,0.041642702,55847
1220,44.0,0.041972422,56319
1230,44.0,0.042311124,56773
1240,46.0,0.042631864,57228
1250,45.0,0.042969282,57693
1260,44.0,0.043315681,58154
1270,45.0,0.04364925,58615
1280,44.0,0.043972556,59078
1290,42.0,0.044312113,59530
1300,44.0,0.044641833,59981
1310,42.0,0.044961717,60442
1320,44.0,0.04530555,60900
1330,44.0,0.045659219,61361
1340,44.0,0.045995354,61812
1350,47.0,0.04634047,62261
1360,45.0,0.0466915730001,62713
1370,46.0,0.0470362610001,63167
1380,42.0,0.0473882190001,63622
1390,43.0,0.047723927,64066
1400,44.0,0.0480622010001,64530
1410,43.0,0.0483961980001,65001
1420,42.0,0.0487323330001,65466
1430,44.0,0.0490684680001,65916
1440,43.0,0.0494734550001,66383
1450,42.0,0.049800182,66831
1460,42.0,0.0501264810001,67275
1470,41.0,0.0504626170001,67732
1480,41.0,0.050785922,68200
1490,43.0,0.051143439,68650
1500,43.0,0.0514812850001,69107
1510,40.0,0.051806729,69567
1520,42.0,0.052153555,70034
1530,44.0,0.052474723,70488
1540,43.0,0.0528014500001,70950
1550,42.0,0.053131598,71413
1560,43.0,0.0534484890001,71866
1570,45.0,0.053785907,72326
1580,43.0,0.054104081,72788
1590,44.0,0.05443594,73234
1600,44.0,0.054761811,73692
1610,44.0,0.0550958080001,74146
1620,44.0,0.0554152640001,74617
1630,43.0,0.0557347200001,75061
1640,43.0,0.0560567420001,75529
1650,44.0,0.0563714950001,75989
1660,44.0,0.0567123340001,76450
1670,44.0,0.057053601,76906
1680,43.0,0.057476122,77373
1690,43.0,0.057843904,77841
1700,45.0,0.058200994,78306
1710,44.0,0.0585337080001,78760
1720,47.0,0.058863001,79230
1730,45.0,0.0591845960001,79681
1740,45.0,0.059528856,80142
1750,43.0,0.0598607150001,80594
1760,44.0,0.0601972780001,81041
1770,43.0,0.0605210110001,81497
1780,45.0,0.0608417500001,81951
1790,45.0,0.0611624900001,82403
1800,46.0,0.0614836570001,82872
1810,46.0,0.0617992650001,83326
1820,47.0,0.0621165830001,83791
1830,46.0,0.0624227830001,84243
1840,46.0,0.0627614840001,84703
1850,45.0,0.0630873560001,85168
1860,46.0,0.0634140830001,85623
1870,46.0,0.0637284080001,86070
1880,46.0,0.0640482920001,86521
1890,46.0,0.0643686040001,86973
1900,46.0,0.0646957580001,87420
1910,46.0,0.0650053790001,87876
1920,44.0,0.0653325330001,88323
1930,45.0,0.0656712340001,88786
1940,46.0,0.0659919740001,89245
1950,47.0,0.0663195560001,89701
1960,45.0,0.0666710860001,90145
1970,46.0,0.0669837010001,90614
1980,44.0,0.0672993080001,91076
1990,44.0,0.0676183370001,91519
2000,45.0,0.0680964530001,91973
2010,46.0,0.068416338,92419
2020,43.0,0.0687289520001,92876
2030,44.0,0.0690625210001,93344
2040,43.0,0.0694003660001,93813
2050,43.0,0.0697553180001,94268
2060,45.0,0.0700880320001,94723
2070,43.0,0.0704207460001,95178
2080,41.0,0.0707419130001,95633
2090,44.0,0.0710934440001,96087
2100,42.0,0.071412045,96536
2110,42.0,0.071784959,97001
2120,43.0,0.072141194,97462
2130,44.0,0.072492725,97927
2140,42.0,0.0728404070001,98375
2150,42.0,0.0732146040001,98829
2160,43.0,0.0735310670001,99277
2170,43.0,0.0738778940001,99732
2180,42.0,0.0742366950001,100179
2190,42.0,0.0745651330001,100638
2200,42.0,0.0748897220001,101104
2210,43.0,0.0752190150001,101553
2220,44.0,0.0755555780001,102000
2230,45.0,0.0758861540001,102451
2240,43.0,0.0762218610001,102912
2250,44.0,0.0765460220001,103363
2260,45.0,0.0768753150001,103821
2270,45.0,0.0771969100001,104278
2280,44.0,0.0775274860001,104739
2290,44.0,0.0778452320001,105200
2300,44.0,0.0781642610001,105649
2310,43.0,0.0784867120001,106087
2320,45.0,0.0788053130001,106542
2330,45.0,0.0791384540001,106990
2340,45.0,0.0794805770001,107450
2350,45.0,0.0797996060001,107912
2360,45.0,0.0801481430001,108370
2370,45.0,0.0804919760001,108820
2380,44.0,0.0808148540001,109268
2390,45.0,0.0811407260001,109726
2400,44.0,0.0814704470001,110194
2410,46.0,0.0818048720001,110640
2420,44.0,0.0821465670001,111097
2430,44.0,0.0824951040001,111562
2440,44.0,0.0828342330001,112018
2450,44.0,0.0832233970001,112478
2460,44.0,0.0835552550001,112939
2470,42.0,0.0838832650001,113402
2480,45.0,0.0842052880001,113861
2490,44.0,0.0845311590001,114303
2500,45.0,0.0848574580001,114764
2510,45.0,0.0851850400001,115227
2520,44.0,0.0855036420001,115683
2530,45.0,0.0858307960001,116142
2540,46.0,0.0861943010001,116607
2550,44.0,0.0865308640002,117068
2560,45.0,0.0868451890002,117519
2570,45.0,0.0871727710002,117965
2580,46.0,0.0874798260002,118424
2590,47.0,0.0878155330002,118882
2600,46.0,0.0881264370002,119343
2610,46.0,0.0884441830002,119812
2620,45.0,0.0887623560002,120260
2630,46.0,0.0891006300002,120719
2640,45.0,0.0894149550002,121184
2650,46.0,0.0897545120002,121656
2660,44.0,0.0900979170002,122131
2670,45.0,0.0904438890003,122595
2680,44.0,0.0907774580002,123053
2690,45.0,0.0911144490003,123500
2700,46.0,0.0914561440002,123957
2710,46.0,0.0917837260002,124414
2720,46.0,0.0920989060002,124870
2730,44.0,0.0924145140002,125304
2740,44.0,0.0927373920002,125751
2750,45.0,0.0930769490002,126205
2760,44.0,0.0934592710002,126672
2770,45.0,0.0938133670002,127118
2780,44.0,0.0941524960002,127562
2790,44.0,0.0945403770002,128024
2800,44.0,0.0949201330002,128497
2810,45.0,0.0953071590002,128967
2820,46.0,0.0956920460002,129423
2830,47.0,0.0960769330002,129872
2840,46.0,0.0964708010002,130341
2850,45.0,0.0968556890002,130799
2860,46.0,0.0972354450002,131261
2870,45.0,0.0976293130002,131720
2880,46.0,0.0979966660002,132173
2890,46.0,0.0983781320002,132635
2900,49.0,0.0987540390002,133100
2910,49.0,0.0991222480002,133564
2920,46.0,0.0994866080002,134012
2930,45.0,0.0998693580002,134472
2940,46.0,0.100241416,134922
2950,46.0,0.100598079,135383
2960,47.0,0.10095688,135844
2970,45.0,0.101337919,136307
2980,44.0,0.101702707,136759
2990,44.0,0.102071344,137236
3000,44.0,0.102435277,137682
3010,45.0,0.102797927,138145
3020,47.0,0.103163143,138605
3030,45.0,0.103523654,139062
3040,45.0,0.103905548,139525
3050,45.0,0.104263493,139983
3060,45.0,0.104615451,140432
3070,44.0,0.104935763,140888
3080,43.0,0.105255219,141340
3090,43.0,0.105581091,141793
3100,43.0,0.105897554,142251
3110,43.0,0.106220004,142734
3120,45.0,0.106537323,143175
3130,44.0,0.106859773,143622
3140,44.0,0.107175808,144081
3150,44.0,0.107517502,144550
3160,44.0,0.107835676,145001
3170,42.0,0.108163259,145462
3180,43.0,0.10850196,145930
3190,44.0,0.108817567,146396
3200,45.0,0.109143866,146859
3210,45.0,0.109467599,147327
3220,45.0,0.109813998,147777
3230,45.0,0.110133027,148226
3240,47.0,0.110452912,148667
3250,46.0,0.110788192,149110
3260,47.0,0.111114491,149567
3270,43.0,0.111458752,150007
3280,43.0,0.111826534,150456
3290,43.0,0.112158392,150924
3300,46.0,0.11250864,151386
3310,46.0,0.112822964,151833
3320,43.0,0.113144986,152277
3330,44.0,0.113502931,152740
3340,42.0,0.113871567,153198
3350,44.0,0.114238921,153671
3360,43.0,0.114609696,154126
3370,44.0,0.114976195,154579
3380,43.0,0.115365359,155041
3390,44.0,0.115763076,155476
3400,44.0,0.11613599,155941
3410,44.0,0.116486238,156413
3420,44.0,0.116826222,156872
3430,43.0,0.117208971,157322
3440,45.0,0.117551093,157775
3450,44.0,0.117878248,158252
3460,44.0,0.118210107,158707
3470,46.0,0.118559927,159165
3480,45.0,0.118875107,159623
3490,44.0,0.119326708,160067
3500,45.0,0.11970347,160522
3510,44.0,0.120057139,160980
3520,46.0,0.120388998,161434
3530,46.0,0.120710593,161883
3540,46.0,0.121021069,162335
3550,45.0,0.121367468,162775
3560,45.0,0.121710018,163248
3570,45.0,0.122065397,163712
3580,44.0,0.122422487,164180
3590,44.0,0.122775728,164637
3600,43.0,0.123110152,165106
3610,44.0,0.123435168,165548
3620,44.0,0.123764461,165998
3630,45.0,0.124087767,166460
3640,45.0,0.124417059,166937
3650,44.0,0.124750201,167409
3660,43.0,0.125088902,167868
3670,45.0,0.125415201,168331
3680,46.0,0.12573423,168788
3690,44.0,0.126054115,169230
3700,44.0,0.126371005,169672
3710,48.0,0.12669816,170136
3720,45.0,0.127025315,170597
3730,44.0,0.127404215,171046
3740,44.0,0.127876772,171494
3750,43.0,0.128209914,171935
3760,43.0,0.128547333,172394
3770,44.0,0.128879192,172847
3780,44.0,0.129211906,173308
3790,43.0,0.129552318,173770
3800,42.0,0.129906414,174225
3810,44.0,0.130254096,174678
3820,44.0,0.130617173,175146
3830,45.0,0.130946894,175597
3840,44.0,0.131309116,176051
3850,46.0,0.131643541,176522
3860,44.0,0.131963425,176957
3870,43.0,0.132298705,177402
3880,43.0,0.132681027,177856
3890,46.0,0.1330394,178313
3900,45.0,0.133381523,178784
3910,46.0,0.133712099,179221
3920,46.0,0.134037115,179681
3930,46.0,0.134382658,180141
3940,42.0,0.134710668,180601
3950,44.0,0.135045948,181072
3960,42.0,0.135367115,181531
3970,42.0,0.135708382,181980
3980,43.0,0.136053497,182432
3990,42.0,0.136375092,182886
4000,46.0,0.136700108,183324
4010,46.0,0.137043086,183780
4020,42.0,0.137386492,184235
4030,42.0,0.13773118,184690
4040,45.0,0.138084849,185137
4050,45.0,0.138419273,185603
4060,44.0,0.138803733,186061
4070,44.0,0.13915954,186519
4080,44.0,0.139486267,186978
4090,45.0,0.139916486,187447
4100,45.0,0.140251339,187905
4110,46.0,0.140586191,188357
4120,46.0,0.140910351,188811
4130,45.0,0.141249479,189262
4140,47.0,0.141563804,189714
4150,45.0,0.14188155,190180
4160,44.0,0.142237785,190631
4170,43.0,0.142583329,191089
4180,46.0,0.14293486,191553
4190,45.0,0.143264581,192015
4200,43.0,0.143628514,192455
4210,42.0,0.143956524,192909
4220,43.0,0.144342695,193357
4230,44.0,0.144689949,193816
4240,47.0,0.145039769,194265
4250,46.0,0.145364785,194719
4260,45.0,0.145691512,195180
4270,45.0,0.146020377,195642
4280,44.0,0.146337695,196096
4290,44.0,0.146682383,196538
4300,45.0,0.147033058,197008
4310,45.0,0.147365772,197452
4320,44.0,0.147701907,197903
4330,46.0,0.148071827,198357
4340,45.0,0.148395132,198800
4350,46.0,0.148722286,199254
4360,46.0,0.149078949,199716
4370,46.0,0.149425776,200161
4380,45.0,0.149757207,200609
4390,46.0,0.150071532,201067
4400,45.0,0.150406384,201520
4410,44.0,0.150755349,201991
4420,43.0,0.151089346,202453
4430,45.0,0.151413934,202908
4440,45.0,0.151742372,203369
4450,47.0,0.152069098,203820
4460,45.0,0.152399246,204283
4470,45.0,0.152748211,204747
4480,45.0,0.153078787,205215
4490,44.0,0.153443147,205667
4500,45.0,0.15377244,206134
4510,44.0,0.154108148,206582
4520,43.0,0.154431881,207030
4530,43.0,0.154769727,207490
4540,43.0,0.155096026,207952
4550,45.0,0.155449268,208416
4560,45.0,0.155778988,208868
4570,44.0,0.156118544,209336
4580,43.0,0.156473924,209793
4590,44.0,0.156816901,210236
4600,44.0,0.157145338,210695
4610,44.0,0.157466506,211141
4620,43.0,0.157822313,211607
4630,44.0,0.158149039,212069
4640,43.0,0.158479187,212531
4650,43.0,0.158834994,212983
4660,43.0,0.159163003,213434
4670,44.0,0.159489302,213899
4680,42.0,0.159839122,214353
4690,43.0,0.160164566,214802
4700,42.0,0.160502839,215261
4710,44.0,0.16083983,215721
4720,43.0,0.161158431,216172
4730,44.0,0.161495422,216617
4740,45.0,0.161835406,217082
4750,44.0,0.162151869,217549
4760,42.0,0.162464483,218003
4770,45.0,0.16279848,218458
4780,45.0,0.163107673,218902
4790,45.0,0.16344167,219366
4800,43.0,0.163772246,219820
4810,43.0,0.164081011,220257
4820,42.0,0.164395335,220713
4830,43.0,0.164717785,221189
4840,43.0,0.165051354,221652
4850,42.0,0.165392621,222114
4860,44.0,0.165747573,222561
4870,43.0,0.166092262,223018
4880,44.0,0.166418989,223477
4890,42.0,0.166755551,223927
4900,43.0,0.167089975,224392
4910,42.0,0.167415419,224846
4920,43.0,0.167759679,225321
4930,41.0,0.168108216,225790
4940,40.0,0.168441785,226240
4950,42.0,0.168766801,226693
4960,45.0,0.169099943,227146
4970,43.0,0.169422394,227595
4980,44.0,0.169742278,228045
4990,45.0,0.170088677,228501
