it,funval,time,funcount
0,284.0,0.00384588199995,659
10,285.0,0.0075433689999,1236
20,285.0,0.0113178330002,1812
30,297.0,0.0150704870002,2392
40,292.0,0.0187829420001,2961
50,296.0,0.0224800010001,3552
60,288.0,0.0261471249996,4148
70,287.0,0.0297766149997,4736
80,291.0,0.033362913,5309
90,302.0,0.0370830649999,5890
100,297.0,0.0408083489992,6478
110,298.0,0.0445212309996,7060
120,303.0,0.0481960519992,7641
130,298.0,0.051734878999,8194
140,296.0,0.0552553179987,8769
150,297.0,0.0587667749987,9337
160,296.0,0.0621371069992,9913
170,296.0,0.0655673109986,10488
180,298.0,0.0689778429987,11080
190,302.0,0.0721292169992,11649
200,300.0,0.0754140189993,12238
210,303.0,0.0786222709994,12814
220,296.0,0.0819344429992,13402
230,307.0,0.0854074119998,13996
240,303.0,0.0886862269999,14569
250,301.0,0.0917199969999,15133
260,300.0,0.0947909730003,15706
270,303.0,0.0979517550004,16287
280,305.0,0.10108474,16866
290,305.0,0.104233121,17448
300,302.0,0.107401174,18039
310,303.0,0.110539291,18608
320,303.0,0.113781755001,19187
330,306.0,0.116742824001,19760
340,306.0,0.119797549,20330
350,305.0,0.122918987,20892
360,304.0,0.125996377,21462
370,308.0,0.129011757999,22031
380,308.0,0.132082305999,22601
390,310.0,0.135132753999,23175
400,309.0,0.138295246998,23738
410,309.0,0.141334147998,24304
420,312.0,0.144391865999,24892
430,309.0,0.147398265999,25468
440,313.0,0.150325549999,26040
450,310.0,0.153315698999,26607
460,312.0,0.156309696999,27195
470,312.0,0.159466203,27788
480,310.0,0.162423423,28367
490,314.0,0.165456337,28935
500,315.0,0.168417406,29532
510,313.0,0.171484533001,30115
520,316.0,0.174507611001,30693
530,312.0,0.177513156001,31283
540,313.0,0.180525543001,31868
550,318.0,0.183699582001,32452
560,311.0,0.186634136001,33021
570,317.0,0.189683301001,33588
580,307.0,0.193038238001,34173
590,308.0,0.196026676002,34746
600,307.0,0.198920175002,35308
610,310.0,0.201747816002,35876
620,311.0,0.204766618002,36465
630,313.0,0.207785848002,37039
640,313.0,0.210969297003,37614
650,315.0,0.214223308002,38202
660,318.0,0.220586356002,38784
670,318.0,0.223608579002,39362
680,319.0,0.226608136002,39918
690,314.0,0.229656446002,40488
700,317.0,0.232940392002,41072
710,317.0,0.236071239002,41637
720,318.0,0.239158465001,42219
730,317.0,0.242390238001,42804
740,314.0,0.245592931001,43381
750,319.0,0.249013299001,43966
760,312.0,0.252325899,44542
770,314.0,0.255727878,45119
780,314.0,0.258634634,45695
790,311.0,0.261549943,46279
800,316.0,0.264611938001,46851
810,320.0,0.267626891001,47436
820,320.0,0.271039561001,48002
830,319.0,0.274114386001,48562
840,313.0,0.277273886001,49143
850,318.0,0.280356408001,49736
860,311.0,0.283473142001,50315
870,312.0,0.286521024001,50880
880,312.0,0.289538543,51463
890,310.0,0.292759197,52042
900,315.0,0.296224896,52632
910,316.0,0.299352322,53203
920,313.0,0.302453233,53776
930,323.0,0.305575953999,54347
940,315.0,0.308752559999,54925
950,314.0,0.312137859999,55488
960,315.0,0.315350815998,56072
970,312.0,0.318557356999,56647
980,312.0,0.321878936998,57234
990,313.0,0.325000803999,57801
1000,315.0,0.328312974999,58383
1010,312.0,0.331411747999,58967
1020,314.0,0.334657633,59541
1030,314.0,0.337822265,60138
1040,311.0,0.340904359,60698
1050,318.0,0.344263999999,61272
1060,313.0,0.347512451,61848
1070,310.0,0.350580005,62428
1080,312.0,0.353831877999,63018
1090,311.0,0.357209907999,63592
1100,311.0,0.360439114999,64174
1110,310.0,0.363451501999,64736
1120,314.0,0.366471586999,65303
1130,313.0,0.369609275999,65880
1140,311.0,0.373053592999,66475
1150,311.0,0.376425635999,67054
1160,307.0,0.379656125999,67631
1170,307.0,0.382765162998,68204
1180,309.0,0.385973842998,68773
1190,315.0,0.388927640998,69352
1200,311.0,0.391770676998,69919
1210,317.0,0.394698815998,70491
1220,318.0,0.397621822998,71067
1230,315.0,0.400602135998,71635
1240,317.0,0.403524287999,72196
1250,318.0,0.406422919998,72764
1260,320.0,0.409476361999,73344
1270,320.0,0.412650828998,73920
1280,320.0,0.415720093998,74503
1290,319.0,0.418756001998,75074
1300,318.0,0.421783784998,75651
1310,318.0,0.424914203999,76235
1320,318.0,0.427888101999,76810
1330,315.0,0.430843611,77383
1340,314.0,0.433793132999,77944
1350,324.0,0.436708015,78517
1360,318.0,0.439663096,79093
1370,317.0,0.442787528001,79672
1380,317.0,0.445952587001,80259
1390,317.0,0.448919215001,80840
1400,318.0,0.451955123001,81411
1410,320.0,0.455233510002,81988
1420,323.0,0.458464855001,82563
1430,323.0,0.461633763001,83144
1440,324.0,0.464704311002,83703
1450,321.0,0.467877068001,84273
1460,322.0,0.470902713002,84849
1470,325.0,0.474046390002,85421
1480,321.0,0.477179803001,86016
1490,326.0,0.480330322001,86589
1500,327.0,0.483479130002,87166
1510,328.0,0.486760511001,87750
1520,326.0,0.489833624001,88320
1530,326.0,0.493768031001,88913
1540,325.0,0.497045990001,89472
1550,323.0,0.500347470002,90057
1560,325.0,0.503829848001,90641
1570,326.0,0.506994052002,91232
1580,324.0,0.509979925002,91826
1590,323.0,0.513130444002,92408
1600,325.0,0.516251027002,92992
1610,324.0,0.519228346002,93565
1620,326.0,0.522223627002,94151
1630,321.0,0.525254831002,94727
1640,320.0,0.528331366001,95302
1650,320.0,0.531392506001,95886
1660,315.0,0.534510523001,96472
1670,317.0,0.537544293001,97048
1680,318.0,0.540574641001,97643
1690,323.0,0.544055308,98235
1700,316.0,0.547356788,98809
1710,318.0,0.550575731,99387
1720,320.0,0.554094459,99968
1730,319.0,0.557456666001,100549
1740,315.0,0.560968980001,101126
1750,316.0,0.564553567002,101703
1760,312.0,0.567716060002,102287
1770,316.0,0.571425094002,102848
1780,314.0,0.574550809001,103430
1790,315.0,0.578158488001,103999
1800,321.0,0.581420196,104574
1810,316.0,0.584714406,105166
1820,320.0,0.587822587,105742
1830,322.0,0.591078309,106317
1840,320.0,0.594103097,106899
1850,316.0,0.597178348999,107470
1860,314.0,0.600922449999,108031
1870,315.0,0.604043887999,108615
1880,315.0,0.607330829,109198
1890,315.0,0.610607504999,109775
1900,314.0,0.613676341999,110348
1910,313.0,0.616761429999,110929
1920,315.0,0.619920501999,111502
1930,315.0,0.622941441999,112071
1940,315.0,0.626342564999,112636
1950,317.0,0.629492656998,113211
1960,315.0,0.632606825998,113789
1970,317.0,0.635911299998,114365
1980,318.0,0.638992538998,114931
1990,316.0,0.642004498998,115514
2000,318.0,0.645156300998,116095
2010,315.0,0.648355572997,116673
2020,318.0,0.651880715997,117254
2030,318.0,0.655003864998,117839
2040,318.0,0.658149251997,118414
2050,318.0,0.661321580997,118996
2060,321.0,0.664442591997,119575
2070,323.0,0.667608077996,120148
2080,318.0,0.670794946996,120728
2090,318.0,0.673796214996,121303
2100,318.0,0.677050225996,121887
2110,323.0,0.680216139996,122478
2120,320.0,0.683228953996,123044
2130,318.0,0.686288382995,123625
2140,311.0,0.689406827995,124181
2150,314.0,0.692831472996,124772
2160,312.0,0.695996104996,125340
2170,307.0,0.699533221996,125918
2180,312.0,0.703024152996,126497
2190,313.0,0.706134044995,127070
2200,312.0,0.709291405995,127649
2210,309.0,0.712473142995,128212
2220,309.0,0.715609976995,128772
2230,309.0,0.719176174995,129337
2240,305.0,0.722368176995,129925
2250,311.0,0.725697026995,130495
2260,311.0,0.729165291994,131060
2270,316.0,0.732540755995,131633
2280,314.0,0.735604888995,132218
2290,317.0,0.739230957995,132811
2300,314.0,0.742378910994,133389
2310,316.0,0.745412252994,133965
2320,312.0,0.748518723994,134537
2330,313.0,0.751640589994,135117
2340,317.0,0.757960871994,135673
2350,316.0,0.761113101994,136249
2360,314.0,0.764292700994,136838
2370,316.0,0.767559541994,137402
2380,316.0,0.770726738994,137976
2390,315.0,0.773945682994,138552
2400,315.0,0.777218510994,139132
2410,317.0,0.780998962994,139713
2420,320.0,0.784336793994,140287
2430,312.0,0.787530505994,140870
2440,311.0,0.790657931994,141432
2450,319.0,0.793808450994,142022
2460,312.0,0.797068448994,142600
2470,315.0,0.800310056994,143185
2480,312.0,0.803392151995,143764
2490,313.0,0.806618792994,144342
2500,309.0,0.809853559994,144909
2510,312.0,0.812982695994,145478
2520,313.0,0.816165715994,146076
2530,311.0,0.819351302995,146667
2540,316.0,0.822408165995,147249
2550,312.0,0.825659182995,147834
2560,314.0,0.828723315995,148418
2570,313.0,0.831853734995,148997
2580,314.0,0.835157780995,149570
2590,316.0,0.838394257995,150145
2600,316.0,0.841952757994,150739
2610,315.0,0.845324800994,151326
2620,315.0,0.848637399994,151906
2630,312.0,0.851733179994,152462
2640,313.0,0.854658325994,153039
2650,313.0,0.857644625994,153612
2660,318.0,0.860707475994,154189
2670,314.0,0.863901615994,154775
2680,313.0,0.866989269995,155345
2690,314.0,0.870265090995,155925
2700,313.0,0.873319814995,156505
2710,313.0,0.876398487994,157077
2720,312.0,0.879667466994,157652
2730,312.0,0.883133165994,158216
2740,317.0,0.886341844994,158785
2750,311.0,0.889381173994,159374
2760,316.0,0.892402968993,159934
2770,314.0,0.895396538994,160507
2780,312.0,0.898594954993,161084
2790,312.0,0.901896862993,161661
2800,312.0,0.904945599993,162233
2810,314.0,0.908127336993,162802
2820,322.0,0.911312923993,163371
2830,313.0,0.914562230993,163934
2840,319.0,0.917825649994,164510
2850,317.0,0.921083081994,165082
2860,317.0,0.924315281994,165670
2870,317.0,0.927523533994,166271
2880,321.0,0.930601351994,166856
2890,316.0,0.933747165994,167440
2900,321.0,0.936855346994,167998
2910,321.0,0.940008431994,168568
2920,321.0,0.943144838994,169150
2930,320.0,0.946322726993,169721
2940,320.0,0.949433900993,170306
2950,323.0,0.952509152993,170881
2960,324.0,0.955586115993,171460
2970,322.0,0.958689592993,172050
2980,323.0,0.961785372993,172639
2990,323.0,0.964813582993,173213
3000,325.0,0.968269018993,173802
3010,322.0,0.971316045993,174363
3020,325.0,0.974375046993,174932
3030,324.0,0.977409671993,175501
3040,323.0,0.980499036993,176087
3050,321.0,0.983528529993,176663
3060,326.0,0.986569141993,177233
3070,330.0,0.989564849992,177813
3080,328.0,0.992609310993,178386
3090,327.0,0.995735025993,178961
3100,327.0,0.998691817993,179520
3110,331.0,1.00188852299,180095
3120,326.0,1.00500525699,180683
3130,326.0,1.00811301099,181275
3140,326.0,1.01123573299,181850
3150,327.0,1.01436572399,182419
3160,325.0,1.01743755499,182996
3170,327.0,1.02056455299,183579
3180,324.0,1.02355641199,184155
3190,325.0,1.02653116499,184741
3200,321.0,1.02948325299,185307
3210,320.0,1.03283006499,185873
3220,317.0,1.03572997899,186442
3230,316.0,1.03865384199,187014
3240,317.0,1.04174235099,187596
3250,318.0,1.04483984099,188169
3260,317.0,1.04822043699,188748
3270,318.0,1.05155997799,189335
3280,315.0,1.05461042599,189911
3290,319.0,1.05771133699,190492
3300,316.0,1.06086142799,191085
3310,315.0,1.06406155499,191669
3320,318.0,1.06705640899,192242
3330,317.0,1.07008119799,192827
3340,316.0,1.07331125999,193387
3350,314.0,1.07642115199,193958
3360,316.0,1.07942541399,194533
3370,314.0,1.08301940899,195117
3380,318.0,1.086210128,195697
3390,318.0,1.089386733,196293
3400,319.0,1.092510738,196855
3410,319.0,1.095659119,197417
3420,317.0,1.098807928,198001
3430,316.0,1.101925089,198574
3440,315.0,1.104950733,199158
3450,314.0,1.108090989,199722
3460,311.0,1.111128607,200279
3470,313.0,1.114233367,200847
3480,315.0,1.117318027,201427
3490,314.0,1.120439465,202005
3500,316.0,1.12357074,202585
3510,314.0,1.126831593,203170
3520,313.0,1.129975697,203755
3530,314.0,1.13315102,204340
3540,315.0,1.136278446,204908
3550,320.0,1.139467882,205492
3560,319.0,1.142626098,206062
3570,320.0,1.145733852,206635
3580,317.0,1.148900194,207207
3590,319.0,1.151904027,207760
3600,328.0,1.155066948,208344
3610,320.0,1.158261943,208938
3620,322.0,1.161407758,209499
3630,323.0,1.164561698,210074
3640,322.0,1.16771179,210639
3650,325.0,1.170882836,211208
3660,328.0,1.174115464,211773
3670,330.0,1.17739043,212360
3680,328.0,1.180585853,212939
3690,330.0,1.183747063,213517
3700,329.0,1.186926662,214092
3710,332.0,1.190025435,214661
3720,332.0,1.193195626,215244
3730,330.0,1.196376508,215835
3740,329.0,1.199497091,216412
3750,329.0,1.202738272,217005
3760,328.0,1.205972611,217577
3770,329.0,1.209277512,218158
3780,329.0,1.212419905,218733
3790,324.0,1.215590096,219312
3800,329.0,1.21863584,219901
3810,326.0,1.221773957,220483
3820,330.0,1.224843222,221066
3830,331.0,1.227956107,221644
3840,331.0,1.231030932,222224
3850,330.0,1.234078814,222791
3860,327.0,1.237215648,223343
3870,325.0,1.240374293,223923
3880,329.0,1.243445269,224497
3890,329.0,1.246544042,225062
3900,330.0,1.249590641,225630
3910,327.0,1.252678295,226217
3920,324.0,1.255852762,226806
3930,325.0,1.258933146,227388
3940,322.0,1.26198445,227970
3950,325.0,1.265097763,228540
3960,325.0,1.26842404799,229109
3970,332.0,1.271525386,229696
3980,329.0,1.27454333299,230268
3990,327.0,1.27775329499,230845
4000,326.0,1.28089483299,231428
4010,326.0,1.28415953499,232026
4020,328.0,1.29008766,232608
4030,326.0,1.293287359,233176
4040,324.0,1.296426331,233766
4050,321.0,1.299436579,234342
4060,323.0,1.302643976,234912
4070,324.0,1.305848807,235500
4080,327.0,1.308853069,236069
4090,328.0,1.312303372,236634
4100,327.0,1.315421817,237205
4110,326.0,1.3196265,237787
4120,323.0,1.32276034,238357
4130,328.0,1.325839869,238941
4140,324.0,1.329429587,239511
4150,321.0,1.332583099,240079
4160,325.0,1.33592991,240661
4170,322.0,1.339045361,241227
4180,321.0,1.342438359,241801
4190,319.0,1.345739839,242359
4200,319.0,1.348883515,242923
4210,318.0,1.352015217,243496
4220,324.0,1.355220048,244076
4230,325.0,1.358457808,244653
4240,321.0,1.361834555,245228
4250,321.0,1.365042807,245809
4260,323.0,1.368202734,246385
4270,318.0,1.371387038,246972
4280,321.0,1.374460152,247556
4290,321.0,1.377541391,248129
4300,319.0,1.380730826,248693
4310,321.0,1.383851837,249268
4320,318.0,1.386861658,249844
4330,322.0,1.390234984,250398
4340,325.0,1.393413728,250991
4350,322.0,1.396602308,251572
4360,320.0,1.399730589,252162
4370,321.0,1.402884529,252745
4380,319.0,1.405944386,253318
4390,325.0,1.409006381,253908
4400,319.0,1.412101733,254477
4410,320.0,1.415379265,255039
4420,319.0,1.418598208,255622
4430,320.0,1.421843239,256195
4440,317.0,1.425191761,256778
4450,319.0,1.428341425,257348
4460,321.0,1.431494509,257901
4470,318.0,1.434651015,258471
4480,322.0,1.437764328,259052
4490,324.0,1.441014062,259638
4500,316.0,1.444168429,260219
4510,315.0,1.447226575,260796
4520,315.0,1.450434399,261371
4530,315.0,1.453564818,261956
4540,319.0,1.456830375,262533
4550,318.0,1.460025798,263101
4560,316.0,1.463020223,263668
4570,317.0,1.466083928,264237
4580,315.0,1.469229742,264819
4590,317.0,1.472352036,265378
4600,318.0,1.475441828,265972
4610,321.0,1.478506816,266544
4620,316.0,1.48174201,267124
4630,317.0,1.485261166,267692
4640,318.0,1.488755518,268278
4650,319.0,1.491869259,268863
4660,319.0,1.495003527,269431
4670,321.0,1.498433303,270011
4680,323.0,1.501545761,270595
4690,325.0,1.504840826,271167
4700,321.0,1.5078994,271748
4710,322.0,1.511295392,272334
4720,320.0,1.51447884,272913
4730,323.0,1.517613963,273487
4740,319.0,1.520825636,274068
4750,324.0,1.523988556,274650
4760,320.0,1.527150621,275238
4770,326.0,1.530270777,275803
4780,316.0,1.533349023,276387
4790,318.0,1.5366056,276970
4800,315.0,1.539707366,277552
4810,316.0,1.542778341,278114
4820,315.0,1.546017384,278699
4830,320.0,1.549122571,279288
4840,321.0,1.552096042,279856
4850,318.0,1.555243139,280442
4860,318.0,1.558421456,281022
4870,322.0,1.561597206,281592
4880,322.0,1.564765259,282163
4890,323.0,1.567879,282750
4900,324.0,1.571059883,283339
4910,319.0,1.574205698,283906
4920,320.0,1.577378455,284475
4930,321.0,1.580706878,285064
4940,319.0,1.584042998,285635
4950,318.0,1.587044694,286218
4960,317.0,1.590395782,286794
4970,316.0,1.593818716,287365
4980,315.0,1.597228393,287934
4990,314.0,1.600775774,288498
