it,funval,time,funcount
0,35.0,0.000642333999991,655
10,37.0,0.001277827,1201
20,40.0,0.00199585600001,1742
30,41.0,0.00260611600001,2287
40,41.0,0.00319371100002,2842
50,42.0,0.00377660200004,3391
60,46.0,0.00434281500003,3940
70,46.0,0.00489363200003,4478
80,46.0,0.00545727900004,5024
90,46.0,0.00603161700005,5577
100,47.0,0.00658328900005,6128
110,47.0,0.00713624400007,6672
120,48.0,0.00768791600007,7214
130,48.0,0.00822590400006,7759
140,47.0,0.00882718400004,8312
150,48.0,0.00938569900006,8861
160,47.0,0.00995191100006,9413
170,48.0,0.0104941750001,9962
180,48.0,0.0111219690001,10504
190,49.0,0.0116958790001,11045
200,48.0,0.0122680790001,11598
210,50.0,0.012833864,12141
220,49.0,0.0134094840001,12691
230,50.0,0.013969709,13235
240,49.0,0.014532501,13787
250,49.0,0.015114536,14338
260,49.0,0.015672195,14891
270,49.0,0.016222157,15436
280,49.0,0.016779816,15983
290,49.0,0.017333627,16536
300,49.0,0.017890859,17084
310,48.0,0.018447663,17628
320,49.0,0.019081872,18174
330,48.0,0.019672461,18715
340,49.0,0.0202125869999,19266
350,49.0,0.020763404,19816
360,49.0,0.0213334649999,20365
370,49.0,0.0218851369999,20919
380,49.0,0.0225347419999,21472
390,49.0,0.02307444,22025
400,49.0,0.023621836,22574
410,48.0,0.024167094,23121
420,49.0,0.024717911,23669
430,49.0,0.025265735,24222
440,49.0,0.025844777,24764
450,49.0,0.026404147,25327
460,49.0,0.027114051,25880
470,50.0,0.027688816,26420
480,49.0,0.028274273,26962
490,49.0,0.028826373,27510
500,49.0,0.029433213,28051
510,50.0,0.029995577,28597
520,49.0,0.030545966,29141
530,49.0,0.031091223,29693
540,50.0,0.031674541,30238
550,50.0,0.032215949,30790
560,50.0,0.032768049,31336
570,50.0,0.033299622,31888
580,50.0,0.033904751,32435
590,50.0,0.034464976,32981
600,50.0,0.035031617,33525
610,50.0,0.0355773030001,34085
620,50.0,0.0361242710001,34630
630,50.0,0.036684069,35180
640,50.0,0.037269098,35716
650,50.0,0.03779725,36265
660,50.0,0.038350206,36812
670,49.0,0.038871087,37362
680,50.0,0.039396672,37906
690,49.0,0.039939792,38459
700,50.0,0.0406047930001,39008
710,50.0,0.0411645910001,39555
720,50.0,0.041714553,40104
730,50.0,0.04227264,40656
740,50.0,0.0428234570001,41202
750,50.0,0.0433580230001,41748
760,50.0,0.043904135,42297
770,50.0,0.044446399,42850
780,50.0,0.04524055,43403
790,50.0,0.045769129,43956
800,50.0,0.046361429,44498
810,50.0,0.046895995,45059
820,50.0,0.047436976,45610
830,50.0,0.048009603,46153
840,50.0,0.048552295,46707
850,50.0,0.049084723,47262
860,50.0,0.04962271,47810
870,50.0,0.050170534,48359
880,50.0,0.050704673,48911
890,50.0,0.051243943,49469
900,50.0,0.051805451,50016
910,49.0,0.052344721,50564
920,50.0,0.052904946,51110
930,50.0,0.0534613219999,51659
940,50.0,0.0540232579999,52215
950,50.0,0.0545496979999,52763
960,50.0,0.0551005149999,53310
970,50.0,0.0556487659999,53855
980,49.0,0.0562132679999,54406
990,50.0,0.0567670789999,54946
1000,49.0,0.0573089149999,55496
1010,50.0,0.057845191,56039
1020,50.0,0.0584118309999,56592
1030,49.0,0.058954095,57134
1040,50.0,0.059487806,57687
1050,50.0,0.060015102,58235
1060,50.0,0.060552234,58776
1070,50.0,0.061098346,59323
1080,50.0,0.061638044,59878
1090,50.0,0.062173038,60427
1100,50.0,0.062703328,60980
1110,50.0,0.063244737,61526
1120,50.0,0.063791705,62069
1130,50.0,0.064322422,62613
1140,50.0,0.064877515,63161
1150,50.0,0.065438596,63717
1160,50.0,0.065987274,64265
1170,50.0,0.066538946,64812
1180,50.0,0.067117132,65366
1190,50.0,0.067705155,65917
1200,50.0,0.068246136,66475
1210,50.0,0.068817053,67020
1220,50.0,0.069358462,67565
1230,50.0,0.069928096,68114
1240,50.0,0.0704648,68665
1250,50.0,0.070994662,69216
1260,50.0,0.071530939,69765
1270,50.0,0.072100145,70315
1280,50.0,0.072656949,70866
1290,50.0,0.073194509,71420
1300,50.0,0.073753024,71969
1310,50.0,0.0743021299999,72516
1320,50.0,0.0748332749999,73063
1330,50.0,0.075390934,73614
1340,50.0,0.0759678379999,74160
1350,50.0,0.0764959889999,74697
1360,50.0,0.0770523659999,75244
1370,50.0,0.0775877879999,75792
1380,50.0,0.0781257749999,76347
1390,50.0,0.0786770189999,76901
1400,50.0,0.079232968,77456
1410,50.0,0.079759836,78011
1420,50.0,0.080282,78554
1430,50.0,0.080822981,79105
1440,50.0,0.081396891,79662
1450,50.0,0.081930174,80212
1460,50.0,0.08249938,80757
1470,50.0,0.083042927,81303
1480,50.0,0.083577065,81857
1490,50.0,0.084103934,82408
1500,50.0,0.084647909,82960
1510,50.0,0.085211555,83500
1520,50.0,0.085774346,84051
1530,50.0,0.086338847,84600
1540,50.0,0.086905487,85146
1550,50.0,0.087498642,85695
1560,50.0,0.088063144,86251
1570,50.0,0.088597282,86804
1580,49.0,0.089141257,87356
1590,49.0,0.08970918,87902
1600,49.0,0.090289504,88450
1610,50.0,0.090862986,88998
1620,49.0,0.091412093,89545
1630,49.0,0.091960772,90091
1640,48.0,0.092510733,90637
1650,50.0,0.093068393,91189
1660,50.0,0.093617072,91736
1670,50.0,0.09415848,92274
1680,49.0,0.094696895,92824
1690,50.0,0.095254127,93373
1700,50.0,0.095817774,93922
1710,50.0,0.096377572,94463
1720,50.0,0.096910427,95013
1730,50.0,0.097468086,95559
1740,50.0,0.098039003,96104
1750,50.0,0.09860992,96650
1760,50.0,0.099170573,97196
1770,49.0,0.099702573,97739
1780,49.0,0.100252107,98282
1790,49.0,0.100795226,98822
1800,49.0,0.101355023,99373
1810,47.0,0.101931072,99911
1820,47.0,0.102464355,100457
1830,48.0,0.103000204,101004
1840,47.0,0.103553159,101545
1850,48.0,0.104133484,102093
1860,47.0,0.104679597,102641
1870,49.0,0.105222717,103186
1880,49.0,0.10576156,103732
1890,49.0,0.106283297,104283
1900,49.0,0.106844378,104824
1910,49.0,0.107376378,105373
1920,49.0,0.107938314,105916
1930,49.0,0.108535745,106466
1940,48.0,0.10908143,107022
1950,49.0,0.109640372,107574
1960,48.0,0.110182636,108126
1970,49.0,0.110715491,108674
1980,49.0,0.111256472,109225
1990,49.0,0.111793177,109776
2000,49.0,0.112341,110327
2010,48.0,0.112906785,110875
2020,49.0,0.113471286,111429
2030,49.0,0.114013977,111983
2040,49.0,0.114566077,112538
2050,49.0,0.115107485,113086
2060,49.0,0.115691659,113637
2070,49.0,0.11622537,114187
2080,49.0,0.116780463,114744
2090,49.0,0.117320588,115297
2100,48.0,0.117864135,115843
2110,48.0,0.118426498,116392
2120,49.0,0.118980736,116940
2130,48.0,0.119551225,117491
2140,49.0,0.120130267,118041
2150,49.0,0.120681084,118584
2160,48.0,0.121246869,119128
2170,48.0,0.121812226,119673
2180,49.0,0.122358767,120225
2190,48.0,0.122923269,120776
2200,48.0,0.123483922,121329
2210,48.0,0.124046714,121877
2220,48.0,0.124615064,122420
2230,48.0,0.125171013,122973
2240,47.0,0.125772721,123515
2250,48.0,0.12631755,124057
2260,48.0,0.126901296,124598
2270,48.0,0.127470074,125145
2280,47.0,0.128047834,125685
2290,49.0,0.128593092,126227
2300,48.0,0.129135355,126781
2310,47.0,0.129800355,127331
2320,48.0,0.130338343,127874
2330,48.0,0.130873337,128421
2340,49.0,0.131445537,128968
2350,48.0,0.131986518,129516
2360,47.0,0.132568126,130069
2370,48.0,0.133115094,130623
2380,49.0,0.13364966,131185
2390,48.0,0.134209885,131745
2400,48.0,0.134761985,132299
2410,48.0,0.135320928,132845
2420,48.0,0.135857632,133400
2430,49.0,0.136428121,133947
2440,49.0,0.136972096,134499
2450,49.0,0.137538309,135048
2460,49.0,0.138111364,135587
2470,49.0,0.138704947,136129
2480,49.0,0.139254053,136680
2490,49.0,0.139799738,137233
2500,49.0,0.140335159,137777
2510,49.0,0.140870581,138322
2520,49.0,0.141400015,138873
2530,49.0,0.141935437,139414
2540,49.0,0.14249438,139968
2550,49.0,0.143051184,140517
2560,49.0,0.143596441,141067
2570,49.0,0.144134,141615
2580,49.0,0.144716463,142167
2590,50.0,0.145346395,142720
2600,50.0,0.145884382,143267
2610,49.0,0.146417665,143813
2620,49.0,0.146962067,144366
2630,49.0,0.147508179,144913
2640,49.0,0.148079095,145465
2650,48.0,0.148616655,146023
2660,49.0,0.149168328,146566
2670,49.0,0.149710164,147110
2680,49.0,0.150264402,147656
2690,49.0,0.150794691,148203
2700,49.0,0.151334389,148747
2710,49.0,0.151884778,149302
2720,49.0,0.152451845,149848
2730,49.0,0.153009076,150394
2740,49.0,0.153545781,150947
2750,49.0,0.154095315,151499
2760,48.0,0.15463544,152046
2770,49.0,0.15520037,152599
2780,48.0,0.155771286,153145
2790,49.0,0.156307563,153690
2800,48.0,0.156871637,154238
2810,48.0,0.157434001,154782
2820,49.0,0.15798824,155335
2830,50.0,0.158553169,155888
2840,49.0,0.159115105,156438
2850,48.0,0.159675758,156997
2860,49.0,0.160233845,157544
2870,50.0,0.160789366,158088
2880,49.0,0.161361566,158636
2890,50.0,0.161916231,159184
2900,50.0,0.162481588,159736
2910,50.0,0.163032832,160284
2920,50.0,0.163569109,160830
2930,50.0,0.164115222,161379
2940,50.0,0.164706238,161923
2950,50.0,0.165268174,162472
2960,50.0,0.165821129,163018
2970,50.0,0.166368525,163563
2980,50.0,0.166890262,164108
2990,50.0,0.167548419,164656
3000,50.0,0.168119764,165205
3010,50.0,0.168661172,165762
3020,50.0,0.169206429,166304
3030,50.0,0.169770931,166858
3040,49.0,0.170325169,167408
3050,49.0,0.170893947,167959
3060,50.0,0.171459304,168507
3070,50.0,0.172020813,169056
3080,49.0,0.172569064,169616
3090,50.0,0.173139981,170159
3100,50.0,0.173727149,170711
3110,49.0,0.174258294,171266
3120,49.0,0.174813387,171815
3130,49.0,0.175368052,172363
3140,49.0,0.175902191,172911
3150,49.0,0.176429487,173452
3160,49.0,0.176973889,174000
3170,50.0,0.177507172,174538
3180,50.0,0.178052429,175089
3190,49.0,0.178604529,175630
3200,49.0,0.179154063,176179
3210,49.0,0.179710012,176733
3220,50.0,0.180280501,177288
3230,50.0,0.180952344,177837
3240,50.0,0.181527109,178384
3250,49.0,0.18207536,178930
3260,49.0,0.182633019,179473
3270,50.0,0.183182125,180024
3280,49.0,0.18373508,180581
3290,48.0,0.184305569,181132
3300,49.0,0.184896158,181681
3310,47.0,0.185477766,182230
3320,48.0,0.186028156,182788
3330,48.0,0.186589664,183343
3340,48.0,0.1871315,183885
3350,47.0,0.187672053,184432
3360,48.0,0.188285307,184978
3370,48.0,0.188829709,185531
3380,47.0,0.189374538,186080
3390,48.0,0.189942461,186621
3400,47.0,0.190497127,187171
3410,47.0,0.191062912,187715
3420,47.0,0.191634684,188256
3430,48.0,0.192206456,188815
3440,48.0,0.192776945,189366
3450,47.0,0.193346151,189916
3460,47.0,0.193897396,190456
3470,47.0,0.194502953,191004
3480,48.0,0.195116635,191557
3490,48.0,0.195676432,192106
3500,47.0,0.196255901,192657
3510,47.0,0.196856754,193204
3520,47.0,0.197453758,193754
3530,47.0,0.198046485,194311
3540,47.0,0.198659311,194867
3550,46.0,0.199273848,195420
3560,46.0,0.19987299,195966
3570,47.0,0.200460585,196513
3580,47.0,0.201045615,197064
3590,47.0,0.20160584,197616
3600,47.0,0.202182316,198177
3610,47.0,0.202757509,198736
3620,48.0,0.203309609,199285
3630,47.0,0.203862136,199834
3640,47.0,0.204401406,200376
3650,48.0,0.204934689,200930
3660,47.0,0.205479946,201475
3670,47.0,0.206037178,202019
3680,48.0,0.206564047,202569
3690,48.0,0.207092199,203115
3700,47.0,0.207620778,203663
3710,47.0,0.208150212,204203
3720,47.0,0.208690338,204749
3730,47.0,0.209238161,205294
3740,48.0,0.209769306,205837
3750,47.0,0.210301734,206385
3760,47.0,0.210876072,206934
3770,47.0,0.211436297,207479
3780,48.0,0.211990108,208023
3790,47.0,0.212550333,208567
3800,49.0,0.213092169,209106
3810,49.0,0.213654105,209650
3820,48.0,0.214225449,210190
3830,48.0,0.214821597,210742
3840,48.0,0.215374125,211287
3850,48.0,0.215997215,211837
3860,48.0,0.216568132,212385
3870,48.0,0.21710783,212937
3880,48.0,0.217638548,213482
3890,48.0,0.218173541,214035
3900,49.0,0.218730773,214583
3910,49.0,0.219262773,215129
3920,48.0,0.219851223,215675
3930,48.0,0.220412732,216221
3940,48.0,0.220964832,216764
3950,48.0,0.22153361,217305
3960,49.0,0.222123771,217857
3970,49.0,0.222726334,218405
3980,49.0,0.223328041,218958
3990,50.0,0.223936591,219512
4000,50.0,0.22451435,220053
4010,50.0,0.225103228,220597
4020,50.0,0.225739148,221140
4030,49.0,0.226330592,221684
4040,49.0,0.226934438,222236
4050,49.0,0.227542132,222779
4060,50.0,0.228161801,223329
4070,50.0,0.228799432,223878
4080,50.0,0.229386599,224422
4090,50.0,0.230029789,224971
4100,50.0,0.230653307,225521
4110,50.0,0.231242185,226069
4120,49.0,0.231840899,226619
4130,50.0,0.232455436,227164
4140,50.0,0.233060137,227720
4150,50.0,0.233645594,228273
4160,50.0,0.234254144,228823
4170,50.0,0.234853286,229372
4180,50.0,0.235454566,229932
4190,50.0,0.236063116,230474
4200,50.0,0.236673805,231023
4210,50.0,0.237263966,231573
4220,49.0,0.237863535,232116
4230,50.0,0.238460966,232671
4240,50.0,0.239096886,233214
4250,50.0,0.239683626,233768
4260,50.0,0.240263951,234316
4270,50.0,0.240851974,234874
4280,50.0,0.241425884,235427
4290,49.0,0.242041704,235973
4300,50.0,0.242638707,236521
4310,50.0,0.24323229,237067
4320,50.0,0.243762579,237618
4330,50.0,0.244312113,238169
4340,49.0,0.244856515,238710
4350,50.0,0.245388516,239256
4360,49.0,0.245964136,239796
4370,50.0,0.246500841,240343
4380,49.0,0.247041394,240894
4390,50.0,0.247689288,241446
4400,50.0,0.248251651,241993
4410,49.0,0.248815725,242542
4420,50.0,0.249385787,243087
4430,49.0,0.250041807,243640
4440,50.0,0.2506572,244194
4450,48.0,0.251211011,244741
4460,49.0,0.251753275,245291
4470,50.0,0.252299388,245837
4480,49.0,0.252853626,246380
4490,49.0,0.253426681,246929
4500,50.0,0.253979208,247473
4510,49.0,0.25452532,248013
4520,49.0,0.255085545,248562
4530,49.0,0.255650902,249112
4540,49.0,0.256220535,249659
4550,49.0,0.256770069,250213
4560,49.0,0.257340986,250767
4570,49.0,0.257889665,251313
4580,49.0,0.258408835,251860
4590,49.0,0.25894169,252410
4600,49.0,0.259478395,252948
4610,49.0,0.26002579,253499
4620,50.0,0.260565488,254038
4630,49.0,0.261103476,254587
4640,49.0,0.26166028,255131
4650,50.0,0.262242315,255680
4660,50.0,0.262810238,256229
4670,50.0,0.263377306,256777
4680,50.0,0.263925557,257328
4690,50.0,0.264487065,257879
4700,50.0,0.265019066,258433
4710,50.0,0.265560903,258982
4720,50.0,0.266098463,259536
4730,50.0,0.266631746,260089
4740,50.0,0.267179997,260631
4750,50.0,0.267720123,261182
4760,50.0,0.268279493,261730
4770,50.0,0.268812776,262272
4780,50.0,0.269357605,262825
4790,50.0,0.269882335,263380
4800,50.0,0.270399795,263922
4810,50.0,0.270947191,264478
4820,50.0,0.271498435,265026
4830,50.0,0.272034284,265576
4840,50.0,0.272595365,266118
4850,50.0,0.273119667,266666
4860,49.0,0.273679465,267216
4870,49.0,0.274226433,267771
4880,50.0,0.274762709,268320
4890,50.0,0.275288294,268868
4900,50.0,0.275828419,269418
4910,50.0,0.276388216,269963
4920,50.0,0.27693775,270515
4930,50.0,0.277474455,271058
4940,50.0,0.278024844,271600
4950,50.0,0.278554706,272151
4960,50.0,0.279106379,272699
4970,50.0,0.279644367,273250
4980,50.0,0.280166531,273792
4990,50.0,0.280730606,274340
