it,funval,time,funcount
0,290.0,0.00312785400001,469
10,281.0,0.00632327699986,846
20,290.0,0.00945711700024,1221
30,290.0,0.0125853980007,1588
40,291.0,0.0161293570009,1946
50,291.0,0.019604037001,2318
60,294.0,0.0227939000015,2689
70,303.0,0.0259499780013,3061
80,299.0,0.0294841010009,3428
90,302.0,0.0327214330009,3801
100,303.0,0.0359861360012,4165
110,302.0,0.0392457060016,4532
120,301.0,0.0423406300015,4901
130,298.0,0.0454094670022,5268
140,306.0,0.048416722002,5643
150,303.0,0.0517092220025,6010
160,304.0,0.0550585990022,6376
170,303.0,0.0578592970014,6740
180,303.0,0.0606950630017,7107
190,308.0,0.0635359610014,7471
200,304.0,0.0662725120019,7840
210,303.0,0.0691339370014,8211
220,306.0,0.0721630020007,8583
230,302.0,0.0748807360005,8948
240,303.0,0.077561264,9322
250,303.0,0.0802062970006,9689
260,303.0,0.0833149060009,10065
270,304.0,0.0858868100013,10432
280,305.0,0.0885583570016,10806
290,302.0,0.0911982590014,11178
300,303.0,0.0937718740015,11546
310,302.0,0.0964126310018,11915
320,301.0,0.0989725610016,12285
330,301.0,0.102030707002,12653
340,301.0,0.104637679002,13025
350,304.0,0.107222413001,13390
360,304.0,0.109793034001,13756
370,303.0,0.112557810001,14130
380,305.0,0.115122017,14509
390,304.0,0.1177106,14875
400,302.0,0.120365041,15243
410,304.0,0.122995961,15612
420,303.0,0.125579412,15983
430,304.0,0.128231715,16354
440,304.0,0.130787369,16722
450,306.0,0.133359274,17088
460,306.0,0.135913217,17451
470,306.0,0.138497095,17820
480,308.0,0.141483395,18186
490,306.0,0.144076682001,18549
500,307.0,0.146876526001,18925
510,305.0,0.150079218,19295
520,307.0,0.152867515,19665
530,305.0,0.155687031001,20035
540,306.0,0.158360716,20407
550,308.0,0.160889,20773
560,307.0,0.163392052,21139
570,309.0,0.166084555,21505
580,307.0,0.168650473,21872
590,307.0,0.171272412999,22247
600,307.0,0.173817802999,22626
610,309.0,0.176444874,22995
620,310.0,0.179264817999,23359
630,308.0,0.182096735999,23719
640,309.0,0.184637420999,24090
650,307.0,0.187173830998,24459
660,308.0,0.189738037999,24827
670,310.0,0.192294119999,25196
680,307.0,0.194957114999,25563
690,309.0,0.197522176999,25928
700,309.0,0.200059868999,26299
710,309.0,0.202589863999,26664
720,310.0,0.205056138999,27028
730,308.0,0.207545077998,27398
740,311.0,0.210078493998,27767
750,308.0,0.212685038998,28139
760,310.0,0.215354020998,28501
770,308.0,0.218023857999,28865
780,310.0,0.220588063999,29233
790,309.0,0.223094536999,29600
800,307.0,0.225728451,29970
810,307.0,0.228352956,30337
820,308.0,0.231049735,30700
830,308.0,0.233597691,31069
840,309.0,0.236184562999,31437
850,308.0,0.238734656999,31797
860,309.0,0.241242413,32164
870,309.0,0.243781816,32530
880,309.0,0.246727061,32895
890,308.0,0.249282713999,33271
900,309.0,0.25185419,33638
910,308.0,0.254455174,34005
920,308.0,0.256992011,34368
930,306.0,0.259641748,34738
940,308.0,0.262147794,35104
950,308.0,0.264689335,35472
960,307.0,0.267232159,35843
970,307.0,0.269768996,36212
980,306.0,0.272365704,36570
990,309.0,0.274908527999,36933
1000,308.0,0.277477866999,37303
1010,310.0,0.280051482999,37661
1020,308.0,0.282827377999,38029
1030,309.0,0.285512609998,38404
1040,307.0,0.288063559999,38775
1050,306.0,0.290713297999,39144
1060,307.0,0.293285201999,39517
1070,308.0,0.295798946,39887
1080,308.0,0.298325946999,40260
1090,310.0,0.300855086,40629
1100,309.0,0.303656212999,41004
1110,314.0,0.306175942998,41378
1120,309.0,0.308976213999,41747
1130,310.0,0.311776484999,42112
1140,309.0,0.314501489,42478
1150,312.0,0.317196985,42844
1160,313.0,0.319904028001,43209
1170,313.0,0.322776145001,43576
1180,313.0,0.325476346001,43940
1190,313.0,0.328112399001,44308
1200,311.0,0.330762564001,44684
1210,310.0,0.333378944,45051
1220,311.0,0.335955981001,45422
1230,310.0,0.338498805,45788
1240,314.0,0.341058307,46149
1250,311.0,0.343610112001,46523
1260,313.0,0.346135402001,46888
1270,314.0,0.348817213001,47249
1280,313.0,0.351882202001,47613
1290,315.0,0.354619608001,47979
1300,317.0,0.357191085001,48351
1310,316.0,0.359731344,48716
1320,315.0,0.362458487001,49079
1330,314.0,0.365108652001,49452
1340,315.0,0.367829380001,49821
1350,318.0,0.370575340001,50194
1360,315.0,0.373291364001,50557
1370,317.0,0.375995413002,50923
1380,314.0,0.378688344002,51295
1390,315.0,0.381483483001,51662
1400,317.0,0.384163156001,52037
1410,314.0,0.386835987001,52403
1420,314.0,0.389570400001,52774
1430,315.0,0.392273166,53144
1440,315.0,0.394969945,53511
1450,313.0,0.397665869001,53890
1460,312.0,0.400413966001,54257
1470,316.0,0.403088080001,54621
1480,313.0,0.405946512002,54985
1490,311.0,0.408722407002,55358
1500,313.0,0.411421752002,55725
1510,312.0,0.414125801002,56093
1520,310.0,0.419738745002,56460
1530,311.0,0.422743435002,56823
1540,311.0,0.426056462002,57193
1550,312.0,0.428704489002,57554
1560,315.0,0.431544532002,57921
1570,310.0,0.434241739002,58294
1580,312.0,0.437025332001,58662
1590,311.0,0.439636581002,59030
1600,312.0,0.442328656001,59392
1610,313.0,0.445083168001,59759
1620,315.0,0.447772249001,60123
1630,313.0,0.450447645001,60489
1640,312.0,0.453159819001,60863
1650,312.0,0.455734717,61228
1660,312.0,0.458458438,61596
1670,313.0,0.461254005,61958
1680,313.0,0.463958054001,62323
1690,312.0,0.466967447001,62691
1700,313.0,0.469705280001,63061
1710,314.0,0.472462786001,63426
1720,313.0,0.475218581002,63787
1730,315.0,0.477897826002,64150
1740,314.0,0.481153548001,64526
1750,316.0,0.483845195002,64896
1760,316.0,0.486530428001,65254
1770,315.0,0.489205825002,65621
1780,313.0,0.491985141001,65993
1790,317.0,0.494732811001,66366
1800,316.0,0.497555320001,66737
1810,315.0,0.500262362001,67112
1820,315.0,0.502873611002,67483
1830,316.0,0.505560126002,67850
1840,316.0,0.508327895001,68219
1850,316.0,0.510866442001,68587
1860,318.0,0.513591019002,68959
1870,316.0,0.516255296002,69331
1880,317.0,0.518981584001,69694
1890,318.0,0.521639447002,70061
1900,316.0,0.524328528002,70432
1910,318.0,0.527026163002,70801
1920,317.0,0.529696000001,71168
1930,316.0,0.532353007001,71529
1940,317.0,0.535013863001,71887
1950,318.0,0.537652909001,72249
1960,317.0,0.540337714001,72610
1970,318.0,0.543017387002,72979
1980,318.0,0.545710317001,73348
1990,317.0,0.548431900001,73714
2000,318.0,0.551135522001,74077
2010,318.0,0.553782266001,74444
2020,316.0,0.556381113001,74806
2030,318.0,0.559024863001,75167
2040,318.0,0.561668185002,75536
2050,319.0,0.564398749002,75901
2060,318.0,0.567092534002,76265
2070,317.0,0.569743126001,76631
2080,318.0,0.572373619001,76986
2090,318.0,0.575022501001,77349
2100,319.0,0.577724412001,77726
2110,318.0,0.580487050001,78097
2120,319.0,0.583130800001,78472
2130,318.0,0.585804486001,78844
2140,318.0,0.589053792,79213
2150,320.0,0.59164879,79584
2160,318.0,0.594303659,79961
2170,320.0,0.596888393,80338
2180,322.0,0.599879824999,80703
2190,319.0,0.602539398,81072
2200,319.0,0.605280225,81441
2210,321.0,0.607971017,81804
2220,320.0,0.610864089,82172
2230,324.0,0.613801209,82548
2240,320.0,0.616599769,82920
2250,321.0,0.61932178,83282
2260,319.0,0.622051916,83646
2270,318.0,0.624724746,84012
2280,319.0,0.627374055,84369
2290,317.0,0.630088368,84741
2300,317.0,0.63282107,85104
2310,316.0,0.635476794,85471
2320,316.0,0.638150908,85835
2330,315.0,0.640964864,86202
2340,316.0,0.643519234,86567
2350,316.0,0.646146306,86934
2360,316.0,0.648887560999,87291
2370,316.0,0.651545423,87655
2380,317.0,0.654136145,88024
2390,318.0,0.656713181,88389
2400,318.0,0.659323147,88761
2410,316.0,0.661954923,89123
2420,316.0,0.664611503001,89494
2430,315.0,0.667361311001,89867
2440,317.0,0.669952460001,90242
2450,314.0,0.672585946001,90606
2460,314.0,0.675270323,90973
2470,315.0,0.678033816001,91336
2480,315.0,0.681106075001,91706
2490,315.0,0.683796439002,92072
2500,317.0,0.686546247001,92452
2510,315.0,0.689237894001,92820
2520,316.0,0.691845293,93191
2530,314.0,0.694719548,93565
2540,314.0,0.697387674,93932
2550,314.0,0.69993392,94304
2560,312.0,0.702562703,94668
2570,310.0,0.705227836,95037
2580,310.0,0.707850203,95405
2590,311.0,0.71084249,95769
2600,311.0,0.713668848,96132
2610,311.0,0.716257431,96501
2620,310.0,0.719044445001,96870
2630,311.0,0.721772016001,97237
2640,311.0,0.724330236,97602
2650,311.0,0.72688589,97971
2660,310.0,0.729589512,98341
2670,311.0,0.732335043999,98715
2680,311.0,0.734911224999,99074
2690,312.0,0.737532737999,99439
2700,312.0,0.740116615998,99808
2710,310.0,0.742863429999,100182
2720,309.0,0.745593565999,100552
2730,309.0,0.748165470999,100917
2740,311.0,0.750745928999,101279
2750,313.0,0.753259672999,101650
2760,312.0,0.755844834999,102023
2770,310.0,0.758569838999,102389
2780,312.0,0.761281157999,102753
2790,313.0,0.763880433,103122
2800,312.0,0.766582772,103495
2810,312.0,0.769167078,103861
2820,313.0,0.771747108,104223
2830,312.0,0.774350658,104593
2840,315.0,0.777149646,104957
2850,313.0,0.779908863,105324
2860,313.0,0.782509420001,105687
2870,314.0,0.785166427,106056
2880,312.0,0.787775537,106427
2890,313.0,0.790466329,106798
2900,314.0,0.793037805,107168
2910,312.0,0.795641782999,107531
2920,315.0,0.798225233999,107901
2930,316.0,0.800871977999,108273
2940,317.0,0.803562769999,108635
2950,315.0,0.806210796999,108998
2960,316.0,0.808818624999,109363
2970,316.0,0.811473066999,109739
2980,317.0,0.814186096998,110116
2990,317.0,0.816825997998,110477
3000,317.0,0.819474879998,110843
3010,316.0,0.822168665998,111213
3020,317.0,0.824886827998,111583
3030,316.0,0.827563934998,111950
3040,316.0,0.830231633998,112324
3050,316.0,0.832994271997,112693
3060,315.0,0.835740230998,113057
3070,315.0,0.838377138998,113425
3080,316.0,0.841060660999,113802
3090,316.0,0.843786092999,114167
3100,318.0,0.846515800999,114536
3110,316.0,0.849228403,114904
3120,317.0,0.851919195,115274
3130,317.0,0.854629231,115645
3140,316.0,0.857278968,116017
3150,316.0,0.859978741,116389
3160,314.0,0.862688777001,116755
3170,315.0,0.865251273,117121
3180,313.0,0.868016049,117493
3190,316.0,0.870731644,117861
3200,317.0,0.876279585,118231
3210,314.0,0.879008865,118592
3220,315.0,0.881857461,118965
3230,315.0,0.884619671,119331
3240,317.0,0.887712455999,119697
3250,317.0,0.890572171,120061
3260,314.0,0.893156905,120426
3270,317.0,0.895853684,120792
3280,316.0,0.898501283001,121161
3290,315.0,0.901161284001,121530
3300,314.0,0.904029125002,121901
3310,316.0,0.906819560002,122263
3320,315.0,0.909722040002,122634
3330,313.0,0.912356382002,123007
3340,315.0,0.915080103003,123383
3350,314.0,0.918100187003,123750
3360,316.0,0.921019773003,124108
3370,317.0,0.923997948003,124476
3380,315.0,0.926608341002,124847
3390,316.0,0.929443679002,125212
3400,317.0,0.932074172002,125577
3410,317.0,0.934721344002,125939
3420,317.0,0.937437795003,126303
3430,316.0,0.940159378003,126670
3440,319.0,0.942866421003,127039
3450,316.0,0.945583300003,127410
3460,319.0,0.948353208003,127779
3470,317.0,0.951884765002,128146
3480,320.0,0.954513119003,128516
3490,317.0,0.957345036002,128881
3500,315.0,0.960225278002,129243
3510,312.0,0.963059333002,129606
3520,315.0,0.965759961003,129974
3530,315.0,0.968435785003,130336
3540,314.0,0.970968345003,130702
3550,315.0,0.973538967003,131082
3560,314.0,0.976092910003,131461
3570,316.0,0.978791827002,131833
3580,314.0,0.981486040002,132200
3590,314.0,0.984514250002,132569
3600,313.0,0.987288434002,132932
3610,312.0,0.990114792002,133296
3620,317.0,0.993522330002,133669
3630,315.0,0.996233649002,134032
3640,313.0,0.999002701001,134395
3650,312.0,1.001962487,134760
3660,313.0,1.00464216,135129
3670,311.0,1.007406509,135501
3680,312.0,1.010232011,135870
3690,311.0,1.012946752,136236
3700,312.0,1.015560994,136600
3710,314.0,1.018495548,136960
3720,312.0,1.02121371,137334
3730,310.0,1.023900226,137708
3740,313.0,1.026732143,138079
3750,312.0,1.029452871,138444
3760,312.0,1.032100898,138815
3770,314.0,1.034762609,139190
3780,314.0,1.037885758,139560
3790,317.0,1.040679615,139926
3800,317.0,1.043375112,140296
3810,315.0,1.046072746,140663
3820,315.0,1.048900815,141028
3830,317.0,1.051657038,141397
3840,316.0,1.054456881,141764
3850,317.0,1.057112605,142129
3860,315.0,1.059826062,142501
3870,315.0,1.062536953,142866
3880,316.0,1.065284623,143237
3890,316.0,1.068315399,143602
3900,316.0,1.071030994,143973
3910,316.0,1.073948869,144339
3920,316.0,1.076755982,144719
3930,316.0,1.079536581,145088
3940,316.0,1.082486959,145455
3950,316.0,1.085271834,145815
3960,317.0,1.088190565,146177
3970,315.0,1.090851849,146549
3980,316.0,1.093431024,146919
3990,317.0,1.096023456,147279
4000,316.0,1.098634277,147643
4010,318.0,1.101192925,148020
4020,315.0,1.103783218,148395
4030,316.0,1.106287981,148758
4040,315.0,1.108876137,149126
4050,313.0,1.11142281,149491
4060,316.0,1.113897638,149863
4070,316.0,1.116438323,150233
4080,317.0,1.119087633,150599
4090,318.0,1.121752338,150973
4100,317.0,1.124565867,151349
4110,317.0,1.127488447,151715
4120,317.0,1.129994921,152084
4130,316.0,1.13258778,152460
4140,318.0,1.135322193,152835
4150,316.0,1.137921039,153200
4160,315.0,1.140432217,153570
4170,317.0,1.142975468,153940
4180,318.0,1.145509312,154306
4190,316.0,1.148259975,154670
4200,318.0,1.15101748,155038
4210,316.0,1.153724096,155400
4220,316.0,1.156659934,155762
4230,317.0,1.15928615,156123
4240,317.0,1.162225408,156485
4250,316.0,1.164913634,156858
4260,318.0,1.167598439,157229
4270,315.0,1.17036963,157602
4280,316.0,1.172970187,157974
4290,314.0,1.17555321,158348
4300,312.0,1.178090475,158716
4310,312.0,1.180628167,159084
4320,314.0,1.183334782,159438
4330,313.0,1.185824577,159807
4340,313.0,1.188426417,160166
4350,315.0,1.191182213,160537
4360,315.0,1.194118905,160901
4370,315.0,1.196819106,161266
4380,315.0,1.199557795,161623
4390,317.0,1.202226349,161991
4400,316.0,1.204961189,162358
4410,314.0,1.207604512,162723
4420,315.0,1.210112269,163097
4430,315.0,1.212732926,163462
4440,319.0,1.215512669,163833
4450,320.0,1.218296261,164206
4460,319.0,1.220857902,164571
4470,319.0,1.223529878,164936
4480,319.0,1.226224092,165308
4490,319.0,1.228959788,165673
4500,321.0,1.231612519,166043
4510,318.0,1.234576153,166419
4520,320.0,1.237180559,166793
4530,321.0,1.239782827,167167
4540,321.0,1.24250441,167538
4550,320.0,1.245131054,167899
4560,321.0,1.247840235,168268
4570,319.0,1.250615274,168638
4580,318.0,1.253309487,169012
4590,318.0,1.256020379,169380
4600,316.0,1.259219223,169749
4610,317.0,1.261916857,170116
4620,319.0,1.264534948,170479
4630,318.0,1.267557171,170851
4640,318.0,1.270357442,171212
4650,317.0,1.273305253,171580
4660,319.0,1.276076871,171948
4670,321.0,1.27884293,172311
4680,320.0,1.281569217,172682
4690,319.0,1.284328006,173048
4700,319.0,1.287060708,173414
4710,316.0,1.289584716,173783
4720,317.0,1.292235309,174153
4730,318.0,1.29501206,174526
4740,316.0,1.297709695,174890
4750,317.0,1.300802053,175257
4760,317.0,1.303467185,175623
4770,316.0,1.306131463,175987
4780,317.0,1.30869738,176350
4790,317.0,1.31168368,176712
4800,316.0,1.314348385,177081
4810,316.0,1.317069541,177448
4820,316.0,1.319792834,177817
4830,315.0,1.322309571,178183
4840,316.0,1.325017897,178552
4850,315.0,1.327717669,178919
4860,314.0,1.330311812,179280
4870,316.0,1.333016289,179652
4880,316.0,1.338862731,180025
4890,316.0,1.341417102,180400
4900,316.0,1.343958643,180767
4910,316.0,1.3467324,181134
4920,316.0,1.349699455,181501
4930,318.0,1.352423604,181864
4940,318.0,1.355110975,182244
4950,316.0,1.357821439,182607
4960,316.0,1.36050325,182976
4970,315.0,1.363228254,183341
4980,317.0,1.365957535,183707
4990,314.0,1.368765076,184069
