it,funval,time,funcount
0,36.0,0.000313041999988,438
10,38.0,0.000614537999979,768
20,38.0,0.000910473999994,1091
30,40.0,0.00119871200002,1424
40,40.0,0.001492082,1758
50,40.0,0.001786307,2096
60,42.0,0.00209336099999,2439
70,43.0,0.00238202599999,2767
80,42.0,0.00267325699997,3108
90,43.0,0.00298031199998,3449
100,44.0,0.00327496499997,3790
110,45.0,0.00358458499997,4122
120,45.0,0.00386640899995,4457
130,45.0,0.00415763999996,4795
140,46.0,0.00446469499997,5127
150,45.0,0.00475464399997,5461
160,44.0,0.00505100699996,5794
170,45.0,0.00533582399996,6126
180,44.0,0.00563945799996,6462
190,44.0,0.00593368299997,6799
200,43.0,0.00623004599996,7150
210,44.0,0.00652170499995,7488
220,44.0,0.00681721399994,7808
230,44.0,0.00711956399994,8142
240,45.0,0.00743816499991,8492
250,44.0,0.00772640299991,8826
260,45.0,0.00800993699991,9161
270,45.0,0.00829389799992,9498
280,46.0,0.00857914299993,9819
290,45.0,0.00887379599993,10155
300,45.0,0.00915647399995,10474
310,44.0,0.00945411999996,10812
320,45.0,0.00974620699995,11139
330,45.0,0.0100344449999,11475
340,45.0,0.010330808,11804
350,45.0,0.0106246049999,12141
360,45.0,0.0109128429999,12481
370,45.0,0.011213055,12802
380,44.0,0.011510274,13121
390,46.0,0.011804072,13465
400,45.0,0.012085895,13798
410,45.0,0.012389528,14136
420,47.0,0.01269701,14480
430,46.0,0.013001071,14815
440,46.0,0.013309836,15153
450,47.0,0.013608765,15489
460,47.0,0.01389572,15818
470,46.0,0.014182675,16146
480,47.0,0.014464498,16480
490,47.0,0.014760006,16817
500,48.0,0.0150392630001,17150
510,47.0,0.0153480290001,17481
520,47.0,0.0156366950001,17819
530,47.0,0.0159322030001,18159
540,47.0,0.0162161640001,18493
550,48.0,0.0165159490001,18832
560,48.0,0.0167947790001,19165
570,48.0,0.0170706150001,19499
580,48.0,0.0173639850001,19843
590,48.0,0.0176496570001,20167
600,47.0,0.0179361840001,20507
610,46.0,0.0182171520001,20836
620,45.0,0.0185071010001,21173
630,45.0,0.0187889240001,21509
640,46.0,0.019116506,21855
650,45.0,0.019451359,22189
660,46.0,0.0197477220001,22518
670,45.0,0.0200389530001,22855
680,45.0,0.0203216310001,23192
690,45.0,0.0206017440001,23528
700,45.0,0.0208916930001,23859
710,45.0,0.0211833520001,24195
720,45.0,0.0214733010001,24521
730,44.0,0.0217803560001,24857
740,43.0,0.022075437,25183
750,44.0,0.022378215,25516
760,44.0,0.022675006,25846
770,45.0,0.0229700870001,26179
780,43.0,0.0232750030001,26506
790,43.0,0.0235970260001,26841
800,45.0,0.0238921060001,27184
810,44.0,0.0241991610001,27523
820,45.0,0.0245032230001,27858
830,45.0,0.0247910330001,28192
840,46.0,0.025095949,28528
850,45.0,0.025394879,28875
860,47.0,0.02568611,29216
870,44.0,0.025978197,29549
880,44.0,0.026276271,29885
890,44.0,0.02658632,30218
900,45.0,0.026887816,30556
910,47.0,0.027181613,30896
920,45.0,0.02747541,31227
930,44.0,0.027774339,31565
940,44.0,0.028068991,31902
950,44.0,0.028361506,32234
960,45.0,0.028660008,32564
970,44.0,0.033399257,32894
980,45.0,0.033695193,33235
990,47.0,0.034000109,33575
1000,47.0,0.034308875,33900
1010,46.0,0.034595402,34232
1020,46.0,0.0348947590001,34586
1030,46.0,0.035187273,34919
1040,47.0,0.035502881,35248
1050,47.0,0.03578727,35577
1060,47.0,0.036077219,35907
1070,47.0,0.036377004,36243
1080,46.0,0.036668235,36575
1090,45.0,0.036976145,36914
1100,45.0,0.037287904,37232
1110,45.0,0.037611638,37562
1120,45.0,0.037908857,37898
1130,45.0,0.038220188,38234
1140,47.0,0.038530664,38579
1150,47.0,0.038833014,38906
1160,45.0,0.039149049,39248
1170,47.0,0.039438997,39581
1180,47.0,0.039729801,39914
1190,47.0,0.040025736,40244
1200,47.0,0.040317823,40571
1210,48.0,0.040614614,40898
1220,48.0,0.040910123,41241
1230,46.0,0.041214611,41567
1240,46.0,0.041508409,41895
1250,46.0,0.0418052,42229
1260,46.0,0.042103274,42570
1270,45.0,0.042392795,42908
1280,45.0,0.042711397,43250
1290,44.0,0.043012892,43580
1300,44.0,0.043325934,43920
1310,44.0,0.043644963,44252
1320,44.0,0.043962282,44594
1330,44.0,0.044260784,44937
1340,43.0,0.044562279,45263
1350,42.0,0.044854793,45594
1360,44.0,0.045156289,45923
1370,42.0,0.045465054,46260
1380,45.0,0.045763128,46594
1390,43.0,0.046064623,46924
1400,43.0,0.046374671,47261
1410,42.0,0.046677449,47600
1420,44.0,0.046966114,47942
1430,45.0,0.047255207,48276
1440,43.0,0.047549433,48622
1450,44.0,0.047838954,48950
1460,43.0,0.048146864,49298
1470,44.0,0.048447503,49626
1480,43.0,0.048744294,49960
1490,43.0,0.049034671,50299
1500,46.0,0.049351134,50634
1510,47.0,0.049636379,50966
1520,46.0,0.049943861,51301
1530,47.0,0.050275292,51627
1540,45.0,0.050580636,51959
1550,46.0,0.050879993,52299
1560,44.0,0.051175929,52641
1570,44.0,0.051477851,52967
1580,44.0,0.051784478,53296
1590,44.0,0.052091105,53638
1600,42.0,0.052406285,53973
1610,43.0,0.052721892,54309
1620,43.0,0.053028092,54642
1630,43.0,0.053336857,54974
1640,44.0,0.053640063,55300
1650,44.0,0.053946263,55636
1660,45.0,0.054262298,55982
1670,45.0,0.054568069,56309
1680,45.0,0.05487042,56637
1690,46.0,0.055168494,56977
1700,45.0,0.055460153,57319
1710,44.0,0.055770202,57654
1720,44.0,0.056078968,57990
1730,45.0,0.056368489,58331
1740,46.0,0.056648174,58658
1750,46.0,0.056947104,58988
1760,46.0,0.057234914,59332
1770,45.0,0.0575351259999,59665
1780,46.0,0.057831062,59995
1790,48.0,0.058122722,60337
1800,46.0,0.058437902,60671
1810,45.0,0.058741108,61008
1820,48.0,0.059036189,61341
1830,48.0,0.059340251,61675
1840,48.0,0.059645595,62007
1850,47.0,0.059951794,62337
1860,46.0,0.06025329,62673
1870,46.0,0.060552219,63021
1880,47.0,0.060854142,63346
1890,46.0,0.061166756,63705
1900,49.0,0.061473811,64037
1910,46.0,0.061767608,64375
1920,46.0,0.062063544,64715
1930,46.0,0.062385139,65058
1940,46.0,0.062682785,65389
1950,46.0,0.062985136,65720
1960,47.0,0.0632810719999,66057
1970,47.0,0.0635825669999,66383
1980,45.0,0.0638823509999,66723
1990,45.0,0.0641748659999,67055
2000,48.0,0.0644725119999,67393
2010,46.0,0.0647675919999,67734
2020,46.0,0.0650707979999,68073
2030,47.0,0.0653740039999,68398
2040,46.0,0.0656699399999,68737
2050,46.0,0.0659791329999,69070
2060,45.0,0.0662878989999,69403
2070,45.0,0.0665936709999,69724
2080,45.0,0.0669032919999,70060
2090,45.0,0.0672133409999,70396
2100,46.0,0.0675169749999,70726
2110,46.0,0.0678099179999,71066
2120,45.0,0.0681079919999,71397
2130,47.0,0.0684171849999,71733
2140,46.0,0.068719108,72068
2150,48.0,0.0690223139999,72407
2160,48.0,0.0693126899999,72750
2170,48.0,0.0696248759999,73092
2180,47.0,0.0699131139999,73421
2190,48.0,0.0702009239999,73763
2200,46.0,0.0704865959999,74096
2210,47.0,0.0707722679999,74435
2220,48.0,0.0711118249999,74774
2230,47.0,0.071407761,75115
2240,48.0,0.071727646,75454
2250,47.0,0.072008614,75800
2260,46.0,0.072305833,76132
2270,47.0,0.072617592,76460
2280,47.0,0.07291481,76792
2290,47.0,0.073203903,77134
2300,47.0,0.073494707,77475
2310,48.0,0.073778668,77815
2320,49.0,0.074072893,78155
2330,49.0,0.074355999,78486
2340,47.0,0.074638677,78821
2350,47.0,0.074932474,79151
2360,46.0,0.075255352,79483
2370,47.0,0.075541024,79811
2380,47.0,0.075825841,80131
2390,47.0,0.076107237,80470
2400,47.0,0.076404884,80813
2410,48.0,0.0767025299999,81153
2420,49.0,0.0769775109999,81500
2430,48.0,0.0772725919999,81841
2440,47.0,0.0775792189999,82181
2450,47.0,0.077868312,82522
2460,48.0,0.078158688,82848
2470,46.0,0.07845163,83180
2480,47.0,0.078768949,83516
2490,46.0,0.079072582,83855
2500,46.0,0.0793847689999,84192
2510,48.0,0.079664027,84526
2520,46.0,0.079961246,84861
2530,46.0,0.080271295,85210
2540,45.0,0.0805672309999,85553
2550,46.0,0.080867871,85886
2560,46.0,0.081147128,86208
2570,47.0,0.081431945,86546
2580,47.0,0.08175183,86878
2590,47.0,0.082058029,87221
2600,47.0,0.082372782,87547
2610,47.0,0.08268112,87894
2620,48.0,0.083207561,88238
2630,47.0,0.083508628,88571
2640,46.0,0.08379259,88903
2650,47.0,0.084084677,89234
2660,47.0,0.084381468,89570
2670,48.0,0.084690233,89918
2680,47.0,0.084980609,90257
2690,48.0,0.085293223,90593
2700,48.0,0.085599422,90929
2710,48.0,0.085899635,91261
2720,48.0,0.086192577,91597
2730,48.0,0.086472262,91917
2740,47.0,0.086752803,92236
2750,48.0,0.087043607,92578
2760,47.0,0.087353655,92922
2770,46.0,0.087662848,93257
2780,46.0,0.0879818770001,93597
2790,47.0,0.0882919260001,93945
2800,46.0,0.0885805920001,94282
2810,49.0,0.0888906400001,94613
2820,49.0,0.0891805880001,94945
2830,49.0,0.089477379,95282
2840,48.0,0.089769893,95629
2850,47.0,0.090103462,95966
2860,48.0,0.090398543,96306
2870,49.0,0.09068892,96636
2880,49.0,0.0909861390001,96974
2890,48.0,0.091271384,97316
2900,48.0,0.091555773,97651
2910,49.0,0.09184059,97986
2920,49.0,0.092156198,98317
2930,47.0,0.092448285,98657
2940,48.0,0.092732674,98993
2950,47.0,0.093057263,99325
2960,46.0,0.0933514880001,99656
2970,46.0,0.093674794,99993
2980,46.0,0.0939869810001,100339
2990,44.0,0.094276502,100666
3000,43.0,0.094603656,101005
3010,45.0,0.094898309,101341
3020,45.0,0.095191679,101679
3030,46.0,0.095494029,102018
3040,46.0,0.095830165,102351
3050,47.0,0.096141496,102680
3060,47.0,0.096425458,103017
3070,47.0,0.096734224,103347
3080,47.0,0.097035719,103674
3090,47.0,0.097343202,104013
3100,44.0,0.097652395,104352
3110,45.0,0.097954318,104685
3120,44.0,0.098283184,105008
3130,44.0,0.098589811,105353
3140,45.0,0.098896438,105688
3150,45.0,0.099519101,106024
3160,46.0,0.099820168,106354
3170,46.0,0.10014048,106684
3180,45.0,0.100471056,107022
3190,45.0,0.100771696,107362
3200,44.0,0.10107704,107699
3210,46.0,0.10143413,108042
3220,43.0,0.101748028,108387
3230,43.0,0.102064491,108721
3240,42.0,0.10239977,109051
3250,44.0,0.102715377,109383
3260,44.0,0.103021149,109722
3270,43.0,0.103342744,110052
3280,43.0,0.103650227,110400
3290,44.0,0.103951295,110728
3300,43.0,0.104244665,111068
3310,44.0,0.104542739,111411
3320,42.0,0.104837392,111756
3330,44.0,0.105129051,112098
3340,42.0,0.105438672,112433
3350,43.0,0.105755563,112770
3360,42.0,0.106089988,113116
3370,44.0,0.106400464,113447
3380,43.0,0.106740448,113786
3390,44.0,0.107076156,114124
3400,43.0,0.107375085,114453
3410,43.0,0.107696252,114790
3420,43.0,0.108016136,115118
3430,43.0,0.108311216,115452
3440,44.0,0.108610145,115785
3450,43.0,0.1089172,116115
3460,45.0,0.109221689,116446
3470,45.0,0.109575358,116786
3480,45.0,0.109878137,117124
3490,44.0,0.110165947,117462
3500,43.0,0.110466587,117784
3510,43.0,0.110753114,118114
3520,42.0,0.111048195,118448
3530,42.0,0.111384758,118783
3540,43.0,0.111693096,119114
3550,42.0,0.111990743,119450
3560,41.0,0.112321746,119785
3570,41.0,0.112636071,120125
3580,43.0,0.112970496,120457
3590,43.0,0.1132613,120793
3600,44.0,0.11355638,121128
3610,44.0,0.113853171,121453
3620,46.0,0.114151673,121785
3630,47.0,0.114450175,122105
3640,48.0,0.114738413,122441
3650,48.0,0.115041619,122769
3660,47.0,0.115340549,123108
3670,47.0,0.115634774,123458
3680,48.0,0.115926433,123799
3690,47.0,0.116230067,124134
3700,47.0,0.116528141,124473
3710,46.0,0.116825788,124821
3720,47.0,0.11714439,125155
3730,46.0,0.117435194,125482
3740,46.0,0.117731557,125811
3750,48.0,0.118027065,126153
3760,47.0,0.118322573,126486
3770,49.0,0.118622358,126819
3780,49.0,0.118912307,127156
3790,48.0,0.119209953,127489
3800,48.0,0.119505461,127821
3810,47.0,0.119806957,128142
3820,47.0,0.120115295,128471
3830,48.0,0.120410375,128799
3840,46.0,0.120714437,129126
3850,46.0,0.12102363,129470
3860,47.0,0.121329829,129809
3870,47.0,0.121630041,130139
3880,47.0,0.121951636,130468
3890,47.0,0.12225698,130808
3900,46.0,0.122553343,131143
3910,47.0,0.122847568,131473
3920,45.0,0.123174294,131809
3930,46.0,0.123473651,132146
3940,45.0,0.123802944,132483
3950,47.0,0.124132664,132812
3960,46.0,0.124458536,133150
3970,45.0,0.12481135,133489
3980,46.0,0.125122254,133823
3990,47.0,0.125418618,134168
4000,47.0,0.125736792,134503
4010,46.0,0.1260524,134837
4020,46.0,0.12634577,135170
4030,46.0,0.12663914,135504
4040,44.0,0.126945767,135842
4050,46.0,0.127281046,136178
4060,45.0,0.127578692,136516
4070,47.0,0.127873345,136843
4080,46.0,0.12818596,137184
4090,45.0,0.128487456,137509
4100,45.0,0.128781254,137837
4110,45.0,0.129087026,138168
4120,44.0,0.129400924,138489
4130,43.0,0.129702847,138830
4140,43.0,0.130002631,139165
4150,44.0,0.130297284,139494
4160,45.0,0.130592792,139822
4170,45.0,0.130888728,140160
4180,45.0,0.131208613,140490
4190,46.0,0.131497707,140818
4200,47.0,0.131788938,141154
4210,47.0,0.132090861,141482
4220,47.0,0.132407324,141825
4230,46.0,0.13270882,142168
4240,46.0,0.132999624,142498
4250,45.0,0.133302402,142837
4260,44.0,0.133606463,143169
4270,45.0,0.133909242,143512
4280,46.0,0.134250937,143844
4290,46.0,0.134542168,144184
4300,46.0,0.134873599,144517
4310,46.0,0.135178515,144860
4320,47.0,0.135506525,145197
4330,46.0,0.135831113,145532
4340,47.0,0.13617965,145872
4350,45.0,0.136555129,146211
4360,45.0,0.136889126,146545
4370,44.0,0.137253059,146885
4380,46.0,0.137661895,147217
4390,45.0,0.138026683,147554
4400,44.0,0.138378641,147891
4410,44.0,0.138728461,148208
4420,43.0,0.139071867,148547
4430,44.0,0.139416983,148881
4440,43.0,0.13976552,149235
4450,44.0,0.140099089,149567
4460,45.0,0.14053615,149911
4470,44.0,0.140915906,150251
4480,44.0,0.141288392,150581
4490,47.0,0.141652752,150924
4500,46.0,0.142009843,151268
4510,45.0,0.142388316,151595
4520,45.0,0.142741558,151930
4530,47.0,0.143223523,152271
4540,46.0,0.143569494,152608
4550,48.0,0.143930861,152945
4560,45.0,0.144276405,153288
4570,46.0,0.144619383,153633
4580,45.0,0.144958512,153965
4590,46.0,0.145325439,154301
4600,46.0,0.145670127,154648
4610,46.0,0.146007117,154974
4620,44.0,0.146367628,155315
4630,44.0,0.146732843,155650
4640,45.0,0.147083946,155982
4650,44.0,0.147430773,156323
4660,44.0,0.147781448,156658
4670,43.0,0.148135545,156990
4680,44.0,0.148522571,157331
4690,46.0,0.148876667,157668
4700,46.0,0.149240172,158000
4710,45.0,0.149610519,158329
4720,45.0,0.149953924,158659
4730,47.0,0.150343944,158988
4740,47.0,0.150674947,159315
4750,45.0,0.151027761,159655
4760,45.0,0.151364751,159985
4770,45.0,0.151735099,160326
4780,45.0,0.152087912,160664
4790,45.0,0.152393256,161008
4800,46.0,0.152710574,161333
4810,45.0,0.153009075,161660
4820,45.0,0.153302445,161989
4830,46.0,0.153590255,162320
4840,45.0,0.153895599,162650
4850,47.0,0.154240715,162989
4860,46.0,0.154524249,163323
4870,47.0,0.154806073,163661
4880,45.0,0.155122536,163998
4890,45.0,0.155430446,164325
4900,45.0,0.155716973,164652
4910,46.0,0.156006922,164982
4920,47.0,0.156306279,165309
4930,47.0,0.156588958,165645
4940,46.0,0.156880617,165980
4950,46.0,0.157172704,166321
4960,46.0,0.157456666,166659
4970,46.0,0.15776757,166989
4980,46.0,0.158067355,167313
4990,45.0,0.158388522,167649
