it,funval,time,funcount
0,116.0,0.000991299999896,285
10,114.0,0.00199500100007,472
20,113.0,0.00299528100004,660
30,119.0,0.00398401500024,853
40,116.0,0.00497531500014,1038
50,117.0,0.00595891700004,1232
60,117.0,0.00694465700008,1420
70,118.0,0.00790644800009,1606
80,120.0,0.00885626500008,1791
90,119.0,0.00979453500008,1979
100,123.0,0.0107635960001,2172
110,127.0,0.0116873260001,2362
120,127.0,0.0125948049999,2543
130,131.0,0.0134950139998,2731
140,129.0,0.0144097629998,2923
150,128.0,0.0152834579999,3113
160,130.0,0.016193075,3301
170,129.0,0.017079171,3490
180,129.0,0.018220577,3678
190,132.0,0.0190677579999,3868
200,132.0,0.0199183589998,4052
210,132.0,0.020859623,4244
220,134.0,0.0216952559999,4426
230,134.0,0.022536877,4613
240,134.0,0.0233870509999,4793
250,134.0,0.024232949,4977
260,133.0,0.0250724319999,5162
270,133.0,0.0259170459999,5340
280,134.0,0.0268749889999,5530
290,135.0,0.0277200309999,5718
300,135.0,0.028537276,5899
310,135.0,0.029363501,6090
320,135.0,0.03036036,6273
330,136.0,0.031192145,6463
340,137.0,0.0320495889998,6651
350,135.0,0.0328775249998,6836
360,136.0,0.0337200009999,7021
370,135.0,0.0345449439999,7210
380,136.0,0.0353916969998,7398
390,136.0,0.0362478579998,7582
400,136.0,0.0371005979998,7767
410,136.0,0.037935804,7951
420,136.0,0.0387740029998,8136
430,137.0,0.0396327299998,8324
440,137.0,0.0404675079997,8510
450,137.0,0.0413125499997,8698
460,139.0,0.0422409849996,8886
470,140.0,0.0431296479996,9079
480,137.0,0.0439836709995,9268
490,138.0,0.0448603589996,9449
500,137.0,0.0457024069997,9638
510,137.0,0.0465675489997,9825
520,139.0,0.0474335459996,10004
530,140.0,0.0482927009996,10198
540,141.0,0.0492527819995,10383
550,140.0,0.0501341749996,10564
560,139.0,0.0509890529997,10748
570,139.0,0.0518512009999,10935
580,141.0,0.0527231849999,11123
590,140.0,0.05357678,11306
600,140.0,0.054452613,11496
610,138.0,0.0553220310001,11680
620,140.0,0.0561794749999,11871
630,138.0,0.0570386290001,12056
640,139.0,0.0580196650001,12247
650,139.0,0.0588925040001,12436
660,139.0,0.0597627770001,12622
670,139.0,0.060624925,12808
680,139.0,0.0614883560002,12992
690,140.0,0.0623949810001,13180
700,139.0,0.0632661100001,13369
710,139.0,0.0641534900001,13552
720,139.0,0.0650297500001,13736
730,139.0,0.065903445,13923
740,140.0,0.066779705,14115
750,141.0,0.0676337279999,14304
760,142.0,0.068506996,14491
770,142.0,0.069367862,14682
780,143.0,0.070219319,14866
790,143.0,0.071079757,15059
800,141.0,0.071947893,15247
810,142.0,0.0728682020001,15431
820,142.0,0.073714099,15615
830,140.0,0.0745522980001,15805
840,141.0,0.075387076,15986
850,142.0,0.0762214270001,16173
860,143.0,0.0770737390001,16356
870,143.0,0.0779457240001,16542
880,144.0,0.0790028819999,16724
890,141.0,0.0798586149999,16910
900,141.0,0.0807288890001,17096
910,144.0,0.0815936030001,17283
920,144.0,0.0824493370001,17471
930,143.0,0.083323459,17656
940,144.0,0.0841958709998,17844
950,144.0,0.0850823949997,18036
960,144.0,0.0859471089998,18223
970,143.0,0.0868280739999,18407
980,143.0,0.0876765379999,18598
990,145.0,0.0885232909998,18783
1000,143.0,0.0893837279998,18970
1010,143.0,0.0902420269999,19161
1020,143.0,0.091099899,19350
1030,143.0,0.091959482,19533
1040,143.0,0.0928327490001,19719
1050,144.0,0.0937483540001,19909
1060,144.0,0.0946040880003,20097
1070,143.0,0.0954640980003,20278
1080,143.0,0.0963271020003,20465
1090,143.0,0.0971610250003,20652
1100,143.0,0.0980920250004,20838
1110,142.0,0.0989460480002,21018
1120,143.0,0.0998244470002,21204
1130,144.0,0.100685312,21384
1140,144.0,0.101544894,21572
1150,142.0,0.10236,21764
1160,145.0,0.103187508,21951
1170,143.0,0.104195913,22144
1180,141.0,0.105070036,22327
1190,145.0,0.105937317,22513
1200,144.0,0.106815288,22699
1210,144.0,0.107682996,22884
1220,143.0,0.108527611,23068
1230,144.0,0.109376075,23249
1240,147.0,0.11023523,23441
1250,144.0,0.111110208,23627
1260,144.0,0.111972356,23820
1270,145.0,0.112882829,24008
1280,144.0,0.113749254,24195
1290,145.0,0.114596862,24386
1300,146.0,0.115454733,24565
1310,145.0,0.116310894,24752
1320,144.0,0.117195708,24944
1330,145.0,0.11804973,25128
1340,145.0,0.118925991,25316
1350,145.0,0.119773172,25505
1360,145.0,0.12066269,25698
1370,144.0,0.121526977,25887
1380,146.0,0.122398106,26078
1390,146.0,0.12327009,26269
1400,144.0,0.124136087,26458
1410,146.0,0.125040145,26647
1420,145.0,0.125898444,26832
1430,144.0,0.126769573,27020
1440,143.0,0.127630438,27207
1450,141.0,0.128533641,27391
1460,140.0,0.129410329,27584
1470,141.0,0.130257082,27769
1480,140.0,0.131183806,27959
1490,140.0,0.132049375,28148
1500,141.0,0.132934616,28336
1510,139.0,0.133796764,28524
1520,141.0,0.134673453,28710
1530,139.0,0.13554116,28897
1540,140.0,0.136411434,29086
1550,138.0,0.137270589,29268
1560,140.0,0.138125039,29453
1570,144.0,0.1390013,29643
1580,145.0,0.139949406,29827
1590,146.0,0.140850898,30011
1600,146.0,0.141771635,30197
1610,146.0,0.142725301,30385
1620,146.0,0.14357633,30574
1630,146.0,0.144435485,30763
1640,146.0,0.145288653,30956
1650,146.0,0.14623847,31142
1660,146.0,0.147093775,31327
1670,146.0,0.147959343999,31516
1680,146.0,0.148820208999,31701
1690,145.0,0.149713148,31889
1700,146.0,0.150567171,32079
1710,147.0,0.151424188,32265
1720,147.0,0.152298738,32448
1730,148.0,0.153163025,32635
1740,148.0,0.15403501,32824
1750,147.0,0.154904429,33007
1760,151.0,0.156337921999,33197
1770,151.0,0.157327082999,33380
1780,148.0,0.158186665,33568
1790,147.0,0.159057794,33750
1800,149.0,0.15999863,33940
1810,149.0,0.160879168,34132
1820,149.0,0.161797767,34316
1830,150.0,0.162661199,34506
1840,151.0,0.163511799999,34694
1850,154.0,0.164373948999,34880
1860,152.0,0.165347286999,35066
1870,151.0,0.166218415999,35257
1880,154.0,0.167061319999,35442
1890,152.0,0.167959818999,35624
1900,152.0,0.168824532999,35810
1910,151.0,0.169693095999,35996
1920,153.0,0.170557810999,36184
1930,152.0,0.171429367999,36375
1940,152.0,0.172282962999,36561
1950,151.0,0.173145110999,36743
1960,152.0,0.173983309999,36924
1970,152.0,0.174849733999,37103
1980,153.0,0.175711881999,37294
1990,153.0,0.176561627999,37482
2000,154.0,0.177407952999,37666
2010,153.0,0.178293622,37854
2020,153.0,0.179127545,38043
2030,154.0,0.180127825,38232
2040,153.0,0.180966451999,38418
2050,153.0,0.181963310999,38599
2060,155.0,0.18279082,38792
2070,155.0,0.183633723999,38978
2080,155.0,0.184489029999,39169
2090,154.0,0.185333644999,39354
2100,154.0,0.186168850999,39539
2110,154.0,0.187007905999,39728
2120,155.0,0.187856368999,39916
2130,156.0,0.188743748999,40106
2140,154.0,0.189607179999,40293
2150,154.0,0.190460347999,40480
2160,154.0,0.191332331999,40671
2170,155.0,0.192182932999,40859
2180,155.0,0.193042087999,41043
2190,156.0,0.193911506999,41234
2200,156.0,0.194771516999,41417
2210,158.0,0.195623828999,41604
2220,160.0,0.196472719999,41789
2230,158.0,0.197324175999,41976
2240,158.0,0.198190600999,42160
2250,159.0,0.199077552999,42346
2260,157.0,0.199944832999,42533
2270,156.0,0.200816817999,42719
2280,156.0,0.201682814999,42904
2290,156.0,0.202541969999,43086
2300,157.0,0.20343106,43275
2310,157.0,0.204288504,43465
2320,157.0,0.205184009,43650
2330,157.0,0.206029477999,43834
2340,156.0,0.206881789999,44022
2350,155.0,0.207746932,44208
2360,155.0,0.208617204999,44396
2370,155.0,0.209494747999,44583
2380,153.0,0.210360316999,44773
2390,156.0,0.211221609999,44962
2400,153.0,0.212089744999,45143
2410,155.0,0.212954886999,45333
2420,153.0,0.213826443999,45521
2430,152.0,0.214700993999,45715
2440,153.0,0.215584524999,45903
2450,153.0,0.216452232999,46093
2460,153.0,0.217293852999,46276
2470,154.0,0.218137184999,46458
2480,153.0,0.218993772999,46640
2490,152.0,0.219864046999,46832
2500,154.0,0.220742445999,47017
2510,154.0,0.221622555999,47209
2520,155.0,0.222529607999,47397
2530,154.0,0.223389189999,47589
2540,154.0,0.224227816999,47770
2550,153.0,0.225078845999,47955
2560,153.0,0.225937145999,48141
2570,152.0,0.226811268999,48326
2580,153.0,0.227722169999,48511
2590,155.0,0.228660012999,48700
2600,152.0,0.229530285999,48889
2610,152.0,0.230399703999,49083
2620,150.0,0.231262279999,49269
2630,153.0,0.232143244999,49458
2640,150.0,0.233027202999,49646
2650,149.0,0.233892345,49832
2660,151.0,0.234792981999,50024
2670,150.0,0.235672235999,50213
2680,151.0,0.236549351999,50399
2690,151.0,0.237659966999,50585
2700,151.0,0.238530240999,50777
2710,152.0,0.239394527999,50964
2720,152.0,0.240278913999,51152
2730,151.0,0.241139351999,51334
2740,151.0,0.242015184999,51526
2750,151.0,0.242864502999,51710
2760,150.0,0.243721519999,51898
2770,149.0,0.244589227999,52081
2780,149.0,0.245458218999,52275
2790,150.0,0.246312668999,52464
2800,150.0,0.247241103999,52651
2810,150.0,0.248101968999,52834
2820,150.0,0.248976946999,53022
2830,150.0,0.249833535999,53204
2840,150.0,0.250711506999,53392
2850,151.0,0.251559542999,53577
2860,152.0,0.252422546999,53767
2870,150.0,0.253293247999,53956
2880,149.0,0.254152829999,54142
2890,150.0,0.255020109999,54330
2900,150.0,0.256072991999,54515
2910,150.0,0.257086528999,54708
2920,152.0,0.258096217999,54895
2930,151.0,0.259100346999,55082
2940,151.0,0.260110890999,55268
2950,152.0,0.261159495999,55455
2960,152.0,0.262288071999,55638
2970,153.0,0.263294338999,55826
2980,152.0,0.268624603999,56014
2990,153.0,0.269496587999,56198
3000,150.0,0.270360018999,56388
3010,149.0,0.271240555999,56575
3020,149.0,0.272101420999,56759
3030,149.0,0.273008044999,56948
3040,150.0,0.273879601999,57136
3050,153.0,0.274776817999,57317
3060,151.0,0.275686007999,57500
3070,151.0,0.276643950999,57685
3080,150.0,0.277508236999,57875
3090,150.0,0.278408446999,58065
3100,151.0,0.279278719999,58252
3110,152.0,0.280161394999,58440
3120,153.0,0.281026536999,58627
3130,151.0,0.281945990999,58813
3140,153.0,0.282807710999,59004
3150,154.0,0.283805852999,59191
3160,153.0,0.284647045999,59380
3170,154.0,0.285581467999,59568
3180,154.0,0.286420950999,59755
3190,154.0,0.287283954999,59942
3200,155.0,0.288162780999,60127
3210,154.0,0.289122861999,60316
3220,156.0,0.289955074999,60499
3230,154.0,0.290796695999,60682
3240,154.0,0.291748223999,60869
3250,154.0,0.292617214999,61059
3260,154.0,0.293494330999,61239
3270,154.0,0.294347497999,61427
3280,155.0,0.295208790999,61617
3290,154.0,0.296074787999,61802
3300,154.0,0.297010064999,61984
3310,154.0,0.297889746999,62170
3320,155.0,0.298757026999,62355
3330,151.0,0.299631148999,62544
3340,152.0,0.300502705999,62726
3350,154.0,0.301368702999,62915
3360,154.0,0.302264207999,63104
3370,154.0,0.303141323999,63285
3380,153.0,0.304006465999,63470
3390,153.0,0.304866902999,63652
3400,154.0,0.305741880999,63836
3410,157.0,0.306611726999,64022
3420,155.0,0.307484138999,64211
3430,158.0,0.308371091999,64394
3440,157.0,0.309245214999,64578
3450,156.0,0.310136870999,64770
3460,155.0,0.311027244999,64952
3470,155.0,0.311935579999,65137
3480,155.0,0.312852467999,65325
3490,152.0,0.313746690999,65506
3500,152.0,0.314634925999,65690
3510,154.0,0.315651456999,65877
3520,153.0,0.316545678999,66063
3530,152.0,0.317498916999,66249
3540,153.0,0.318361919999,66439
3550,152.0,0.319328414999,66626
3560,153.0,0.320204247999,66813
3570,152.0,0.321066395999,67000
3580,151.0,0.321942228999,67188
3590,152.0,0.322841154999,67375
3600,152.0,0.323802946999,67561
3610,152.0,0.324661245999,67747
3620,153.0,0.325521682999,67933
3630,153.0,0.326391528999,68117
3640,155.0,0.327291737999,68305
3650,157.0,0.328182538999,68493
3660,155.0,0.329048963999,68677
3670,155.0,0.329937198999,68864
3680,153.0,0.330791221999,69053
3690,154.0,0.331647810999,69242
3700,155.0,0.332544598999,69430
3710,154.0,0.333406319999,69616
3720,154.0,0.334266756999,69800
3730,154.0,0.335116075999,69983
3740,155.0,0.336010297999,70166
3750,155.0,0.336856194999,70352
3760,155.0,0.337741436999,70539
3770,153.0,0.338647632999,70720
3780,155.0,0.339517051999,70913
3790,152.0,0.340382620999,71096
3800,153.0,0.341239637999,71285
3810,152.0,0.342112049999,71472
3820,151.0,0.342980185999,71655
3830,153.0,0.343924870999,71845
3840,151.0,0.344802841999,72033
3850,150.0,0.345677391999,72223
3860,150.0,0.346549375999,72413
3870,151.0,0.347429057999,72599
3880,150.0,0.348273244999,72784
3890,150.0,0.349122135999,72968
3900,149.0,0.349966322999,73154
3910,148.0,0.350876367999,73343
3920,148.0,0.351729535999,73529
3930,149.0,0.352573294999,73713
3940,147.0,0.353426034999,73903
3950,146.0,0.354288182999,74090
3960,147.0,0.355128092999,74280
3970,147.0,0.355990667999,74469
3980,148.0,0.356879757999,74655
3990,147.0,0.357741050999,74843
4000,146.0,0.358590796999,75033
4010,147.0,0.359434555999,75217
4020,147.0,0.360288578999,75397
4030,148.0,0.361128061999,75586
4040,148.0,0.362021000999,75780
4050,148.0,0.362884431999,75961
4060,150.0,0.363735888999,76147
4070,151.0,0.364683567999,76340
4080,151.0,0.365549991999,76527
4090,151.0,0.366438226999,76704
4100,151.0,0.367306361999,76888
4110,151.0,0.368206570999,77078
4120,149.0,0.369062303999,77266
4130,149.0,0.369917182999,77449
4140,149.0,0.370781896999,77634
4150,152.0,0.371674408999,77821
4160,150.0,0.372536983999,78016
4170,150.0,0.373398276999,78204
4180,150.0,0.374268122999,78388
4190,149.0,0.375162772999,78573
4200,151.0,0.376028341999,78766
4210,149.0,0.376890062999,78951
4220,149.0,0.377783856999,79140
4230,148.0,0.378657123999,79329
4240,147.0,0.379543220999,79515
4250,147.0,0.380413493999,79700
4260,147.0,0.381278207999,79885
4270,147.0,0.382153613999,80075
4280,148.0,0.383030302999,80266
4290,146.0,0.383895871999,80452
4300,147.0,0.384774270999,80638
4310,146.0,0.385672341999,80826
4320,147.0,0.386513107999,81011
4330,149.0,0.387376538999,81198
4340,151.0,0.388248094999,81388
4350,151.0,0.389083728998,81581
4360,151.0,0.389906959998,81759
4370,150.0,0.390735322998,81945
4380,148.0,0.391615859998,82132
4390,149.0,0.392436525998,82323
4400,150.0,0.393244361999,82506
4410,151.0,0.394066310999,82692
4420,150.0,0.394889114999,82882
4430,151.0,0.395758532999,83068
4440,151.0,0.396627523999,83260
4450,152.0,0.397500363999,83449
4460,151.0,0.398374913999,83636
4470,151.0,0.399193013999,83824
4480,150.0,0.400063714999,84014
4490,150.0,0.400927145999,84202
4500,151.0,0.401765772999,84394
4510,150.0,0.402622361999,84583
4520,152.0,0.403498194999,84775
4530,152.0,0.404426200999,84964
4540,152.0,0.405308021999,85153
4550,152.0,0.406120561999,85347
4560,152.0,0.406948498,85531
4570,151.0,0.407785842999,85715
4580,152.0,0.408621476999,85905
4590,151.0,0.409481486999,86091
4600,151.0,0.410331232999,86279
4610,149.0,0.411141634999,86465
4620,151.0,0.411948187999,86650
4630,154.0,0.412773557999,86842
4640,149.0,0.413607908999,87028
4650,149.0,0.414420876999,87211
4660,152.0,0.415242397999,87401
4670,148.0,0.416066484999,87587
4680,148.0,0.416885012999,87774
4690,146.0,0.417724495999,87962
4700,149.0,0.418558418999,88148
4710,148.0,0.419391058999,88334
4720,153.0,0.420233961999,88523
4730,153.0,0.421092688999,88710
4740,152.0,0.421937730999,88897
4750,152.0,0.422805438999,89082
4760,152.0,0.423655612999,89270
4770,153.0,0.424529307999,89457
4780,153.0,0.425401292999,89646
4790,152.0,0.426261301999,89831
4800,153.0,0.427110192999,90021
4810,153.0,0.427948391999,90209
4820,153.0,0.428811823999,90396
4830,154.0,0.429661997999,90585
4840,153.0,0.430495065999,90772
4850,153.0,0.431349516999,90960
4860,153.0,0.432241173999,91147
4870,154.0,0.433102466999,91336
4880,156.0,0.433968891999,91520
4890,155.0,0.434866535999,91703
4900,154.0,0.435702169999,91888
4910,155.0,0.436540369999,92077
4920,154.0,0.437388832999,92263
4930,155.0,0.438253119999,92455
4940,155.0,0.439120400999,92639
4950,156.0,0.440002220999,92831
4960,159.0,0.440869928999,93020
4970,154.0,0.441758591999,93206
4980,154.0,0.442617746999,93388
4990,154.0,0.443476473999,93576
