it,funval,time,funcount
0,122.0,0.00185302,460
10,124.0,0.00383048700019,829
20,130.0,0.00566297900036,1192
30,134.0,0.00752070300041,1557
40,135.0,0.00957343700043,1923
50,133.0,0.0117335110003,2289
60,133.0,0.0142344250003,2657
70,135.0,0.0161935030003,3024
80,136.0,0.0181264940002,3396
90,138.0,0.0200398130003,3759
100,136.0,0.0219437230003,4127
110,137.0,0.0238463500004,4492
120,142.0,0.0256997980002,4864
130,140.0,0.0275724900002,5227
140,139.0,0.0294190960003,5598
150,139.0,0.0315278520004,5966
160,142.0,0.0334082420004,6342
170,141.0,0.0352411620004,6712
180,138.0,0.0370206260004,7075
190,140.0,0.0387774250005,7432
200,137.0,0.0405414930005,7802
210,141.0,0.0423102650007,8163
220,140.0,0.0440358440005,8532
230,140.0,0.0457798130005,8900
240,144.0,0.0475169390004,9275
250,141.0,0.0492720260004,9654
260,140.0,0.0510536280003,10027
270,141.0,0.0527937470004,10394
280,140.0,0.0546416350003,10760
290,142.0,0.0563150400003,11126
300,142.0,0.0578742620003,11496
310,143.0,0.0594150950001,11862
320,143.0,0.0609439540001,12231
330,142.0,0.0625305460001,12601
340,143.0,0.064065392,12965
350,141.0,0.065610074,13333
360,142.0,0.0674211839998,13702
370,142.0,0.0691296569998,14074
380,142.0,0.0706897349999,14436
390,143.0,0.0722352719999,14807
400,144.0,0.073808179,15170
410,145.0,0.0753532890001,15542
420,144.0,0.0768834310002,15913
430,143.0,0.0784251190003,16280
440,144.0,0.0799676630004,16646
450,143.0,0.0814794160005,17016
460,144.0,0.0829971560004,17387
470,145.0,0.0845833210003,17758
480,146.0,0.0862964980004,18121
490,143.0,0.0878997690004,18496
500,146.0,0.0894932040003,18864
510,144.0,0.0910691050001,19235
520,144.0,0.0926958960001,19603
530,143.0,0.0941896870002,19967
540,143.0,0.095673214,20335
550,143.0,0.0972149030001,20698
560,143.0,0.0987305050003,21067
570,143.0,0.100329072,21434
580,143.0,0.101928494,21807
590,144.0,0.103474459,22179
600,144.0,0.10504865,22546
610,144.0,0.106591194,22918
620,146.0,0.108205156,23293
630,145.0,0.109735725,23655
640,147.0,0.111294948,24029
650,143.0,0.112811405,24381
660,145.0,0.114338554,24753
670,145.0,0.115869551,25119
680,145.0,0.117390712,25482
690,144.0,0.118912301,25854
700,145.0,0.120501031,26218
710,147.0,0.122186839,26587
720,144.0,0.123711849,26949
730,146.0,0.125310843,27308
740,147.0,0.126896152,27676
750,144.0,0.128445539,28047
760,144.0,0.129981668,28420
770,144.0,0.131517797,28785
780,143.0,0.133047511,29151
790,144.0,0.134568673,29515
800,146.0,0.136097104,29882
810,146.0,0.137612706,30252
820,145.0,0.139165086,30618
830,145.0,0.140702926,30991
840,144.0,0.142242048,31366
850,144.0,0.143757223,31731
860,145.0,0.145298484,32096
870,145.0,0.146855568,32465
880,146.0,0.14841479,32830
890,146.0,0.1499599,33196
900,146.0,0.151635017,33557
910,145.0,0.153287468,33921
920,146.0,0.154887318,34281
930,148.0,0.156468778,34651
940,147.0,0.158054088,35027
950,148.0,0.159615021,35390
960,148.0,0.161138748,35763
970,148.0,0.162759552,36129
980,149.0,0.164336736,36502
990,148.0,0.165883129,36864
1000,149.0,0.167517618,37230
1010,150.0,0.169151252,37598
1020,151.0,0.170666427,37956
1030,151.0,0.17223463,38325
1040,150.0,0.173843033,38691
1050,151.0,0.17540311,39066
1060,151.0,0.176985426,39438
1070,150.0,0.178509581,39813
1080,151.0,0.180076501,40181
1090,151.0,0.181656250999,40547
1100,152.0,0.183228302999,40906
1110,151.0,0.184815322999,41271
1120,152.0,0.186415171999,41640
1130,152.0,0.188002619999,42013
1140,152.0,0.189682440999,42394
1150,152.0,0.191287849999,42768
1160,152.0,0.192856908999,43125
1170,153.0,0.194445211999,43495
1180,151.0,0.196124176999,43869
1190,152.0,0.197623100999,44228
1200,151.0,0.199107911999,44599
1210,150.0,0.200608118999,44968
1220,152.0,0.202245601999,45334
1230,153.0,0.203847161999,45700
1240,152.0,0.205383718999,46071
1250,152.0,0.206918137999,46439
1260,151.0,0.208518414999,46799
1270,152.0,0.210069939999,47166
1280,152.0,0.211621891999,47526
1290,152.0,0.213122953999,47893
1300,152.0,0.214656088999,48270
1310,152.0,0.216273044999,48642
1320,152.0,0.217790784999,49004
1330,152.0,0.219420997999,49371
1340,152.0,0.220957126999,49743
1350,155.0,0.222737018999,50110
1360,152.0,0.224309497999,50481
1370,152.0,0.225986324999,50843
1380,153.0,0.227519888999,51215
1390,151.0,0.229220236999,51583
1400,153.0,0.230802552999,51949
1410,154.0,0.232371182999,52313
1420,154.0,0.233918002999,52678
1430,155.0,0.235485350999,53045
1440,154.0,0.237062534999,53412
1450,151.0,0.238617481,53785
1460,153.0,0.240138215,54161
1470,153.0,0.241723097,54528
1480,153.0,0.243279754,54894
1490,154.0,0.244851378,55256
1500,155.0,0.246387507,55622
1510,154.0,0.24795571,55991
1520,155.0,0.249457199,56360
1530,154.0,0.250983064,56729
1540,155.0,0.252557682,57099
1550,154.0,0.254113483,57472
1560,154.0,0.25568468,57844
1570,154.0,0.257268706,58215
1580,155.0,0.258823224,58586
1590,155.0,0.260460279,58958
1600,155.0,0.262040029,59327
1610,154.0,0.263600533999,59694
1620,154.0,0.265202949,60064
1630,154.0,0.266813917,60431
1640,154.0,0.268352612,60800
1650,152.0,0.269956737,61167
1660,153.0,0.271555732,61532
1670,156.0,0.27314318,61901
1680,157.0,0.274719937,62263
1690,153.0,0.276267613,62635
1700,154.0,0.277849501,63004
1710,152.0,0.279348424,63372
1720,153.0,0.280838794,63739
1730,153.0,0.282399727,64104
1740,152.0,0.284094515,64475
1750,152.0,0.285654593,64838
1760,152.0,0.28725658,65206
1770,152.0,0.288803401,65574
1780,153.0,0.290540955,65942
1790,152.0,0.292133534,66307
1800,151.0,0.293691901,66677
1810,152.0,0.29571085,67041
1820,152.0,0.297303002,67411
1830,151.0,0.298879331,67776
1840,154.0,0.300427007,68143
1850,154.0,0.301957577,68509
1860,155.0,0.30355315,68884
1870,155.0,0.305124775,69250
1880,154.0,0.306645081,69618
1890,155.0,0.308196606,69980
1900,156.0,0.30980843,70349
1910,154.0,0.311320183,70715
1920,155.0,0.312986318,71079
1930,154.0,0.314508335,71453
1940,154.0,0.316056866,71829
1950,154.0,0.31757033,72196
1960,154.0,0.319126986,72558
1970,153.0,0.320674234,72922
1980,155.0,0.322201382,73289
1990,156.0,0.323749913,73660
2000,154.0,0.325289035,74028
2010,155.0,0.326816610999,74396
2020,156.0,0.328405342,74764
2030,155.0,0.329952589999,75125
2040,153.0,0.331627279,75496
2050,156.0,0.333187356,75864
2060,153.0,0.334808161,76234
2070,154.0,0.336337876,76609
2080,155.0,0.341646759,76977
2090,157.0,0.343329573,77339
2100,158.0,0.344861853,77707
2110,158.0,0.346414233,78071
2120,158.0,0.34794523,78440
2130,158.0,0.349484781,78803
2140,159.0,0.351025187,79168
2150,158.0,0.352617766,79538
2160,157.0,0.354203502,79912
2170,157.0,0.355781969,80281
2180,157.0,0.357367706,80641
2190,159.0,0.358934199,81008
2200,159.0,0.360505824,81373
2210,158.0,0.362090706001,81736
2220,159.0,0.363654205001,82103
2230,161.0,0.365219414,82476
2240,161.0,0.366742286,82849
2250,161.0,0.368363518,83211
2260,161.0,0.370000146001,83578
2270,161.0,0.371576474001,83946
2280,161.0,0.373110464001,84317
2290,159.0,0.374601689001,84689
2300,159.0,0.376148937001,85057
2310,160.0,0.377694475001,85428
2320,159.0,0.379236163001,85802
2330,160.0,0.380781273001,86163
2340,160.0,0.382328521001,86539
2350,157.0,0.383865078001,86905
2360,158.0,0.385376831001,87277
2370,157.0,0.386947600001,87646
2380,159.0,0.388521363001,88020
2390,156.0,0.390081440001,88393
2400,155.0,0.391685566001,88755
2410,156.0,0.393189621001,89124
2420,158.0,0.394719335001,89489
2430,156.0,0.396239214001,89860
2440,154.0,0.397768500001,90227
2450,154.0,0.399299925001,90595
2460,155.0,0.400838620001,90965
2470,156.0,0.402370900001,91335
2480,155.0,0.403904463001,91702
2490,156.0,0.405438454001,92073
2500,155.0,0.407142651001,92440
2510,156.0,0.408662957001,92815
2520,155.0,0.410205929001,93181
2530,156.0,0.411745480001,93551
2540,158.0,0.413300426001,93920
2550,155.0,0.414809186001,94292
2560,155.0,0.416319656001,94654
2570,156.0,0.417837824001,95028
2580,154.0,0.419353425001,95396
2590,152.0,0.420875441001,95765
2600,152.0,0.422381207001,96129
2610,152.0,0.423918191001,96493
2620,154.0,0.425663870001,96864
2630,152.0,0.427201282001,97228
2640,152.0,0.428733562001,97596
2650,151.0,0.430263704,97970
2660,152.0,0.431793418001,98339
2670,152.0,0.433363332,98710
2680,153.0,0.434882783,99086
2690,151.0,0.436413353,99455
2700,152.0,0.437935797,99825
2710,152.0,0.439449688,100198
2720,151.0,0.440961013,100567
2730,151.0,0.442468062,100937
2740,152.0,0.443976394,101303
2750,152.0,0.445478311,101669
2760,153.0,0.446972958001,102037
2770,153.0,0.448477013001,102405
2780,152.0,0.449982352001,102773
2790,151.0,0.451472295001,103143
2800,152.0,0.452937861001,103515
2810,151.0,0.454407704001,103880
2820,152.0,0.455869422001,104236
2830,152.0,0.457340548001,104604
2840,152.0,0.458859999001,104971
2850,151.0,0.460382016,105345
2860,151.0,0.461974595001,105715
2870,153.0,0.463541087001,106089
2880,151.0,0.465116561001,106459
2890,151.0,0.466716838001,106827
2900,152.0,0.468277771001,107205
2910,151.0,0.469848113001,107579
2920,152.0,0.471414606001,107946
2930,151.0,0.472940044001,108318
2940,151.0,0.474462488001,108689
2950,150.0,0.475970820001,109065
2960,150.0,0.477548860001,109433
2970,150.0,0.479067028001,109803
2980,150.0,0.480566379001,110162
2990,150.0,0.482191460001,110533
3000,150.0,0.483699364001,110900
3010,150.0,0.485269705001,111264
3020,149.0,0.486830211001,111631
3030,149.0,0.488399269001,112004
3040,149.0,0.489944379001,112374
3050,149.0,0.491468106002,112744
3060,150.0,0.492999531001,113106
3070,148.0,0.494555760002,113477
3080,148.0,0.496072645002,113848
3090,148.0,0.497596800001,114219
3100,150.0,0.499137634001,114584
3110,149.0,0.500663500001,114953
3120,149.0,0.502181241001,115313
3130,147.0,0.503691711001,115677
3140,148.0,0.505241525001,116036
3150,148.0,0.506751140001,116401
3160,148.0,0.508347141001,116769
3170,148.0,0.509903797001,117136
3180,149.0,0.511482691001,117498
3190,149.0,0.513069283001,117860
3200,149.0,0.514638341001,118234
3210,147.0,0.516173614001,118599
3220,146.0,0.517731126001,118971
3230,148.0,0.519279657001,119338
3240,147.0,0.520838879001,119697
3250,148.0,0.522350205001,120068
3260,149.0,0.523920546001,120444
3270,149.0,0.525456675001,120808
3280,149.0,0.526932505001,121178
3290,149.0,0.528480180001,121545
3300,148.0,0.530018876001,121917
3310,148.0,0.531564414001,122283
3320,151.0,0.533134755001,122654
3330,147.0,0.534690984001,123020
3340,147.0,0.536293827001,123386
3350,148.0,0.537772223001,123759
3360,149.0,0.539284404001,124130
3370,149.0,0.540836356001,124493
3380,148.0,0.542362221001,124851
3390,148.0,0.543916739001,125227
3400,148.0,0.545446025001,125594
3410,148.0,0.547046303001,125962
3420,147.0,0.548619210002,126324
3430,148.0,0.550180570002,126701
3440,149.0,0.551758182002,127066
3450,148.0,0.553323392001,127437
3460,146.0,0.554891167001,127808
3470,147.0,0.556517959001,128177
3480,148.0,0.558069484001,128547
3490,147.0,0.559649662001,128920
3500,146.0,0.561164837001,129289
3510,146.0,0.562788635001,129662
3520,146.0,0.564748568002,130033
3530,145.0,0.566244070002,130406
3540,146.0,0.567928595002,130781
3550,147.0,0.569494233001,131159
3560,146.0,0.571062436002,131527
3570,146.0,0.572591295002,131890
3580,145.0,0.574236476001,132264
3590,146.0,0.575832904001,132629
3600,148.0,0.577402390001,132994
3610,148.0,0.579028326001,133358
3620,148.0,0.580590542001,133726
3630,147.0,0.582148054001,134094
3640,147.0,0.583698296001,134466
3650,148.0,0.585281467001,134829
3660,151.0,0.586775686001,135196
3670,150.0,0.588397774001,135573
3680,151.0,0.589983083001,135941
3690,150.0,0.591539311001,136300
3700,153.0,0.593140016001,136672
3710,153.0,0.594708220001,137037
3720,155.0,0.596291819001,137405
3730,152.0,0.597901505001,137772
3740,155.0,0.599516750001,138146
3750,152.0,0.601387731001,138509
3760,153.0,0.602883233001,138879
3770,153.0,0.604423639001,139239
3780,154.0,0.605923845001,139605
3790,153.0,0.607521984001,139971
3800,154.0,0.609100023001,140335
3810,154.0,0.610668226002,140697
3820,154.0,0.612241134002,141064
3830,155.0,0.613800784002,141428
3840,156.0,0.615416884001,141793
3850,157.0,0.616930348001,142151
3860,156.0,0.618503256002,142516
3870,155.0,0.620059912001,142880
3880,156.0,0.621638378002,143247
3890,155.0,0.623179639002,143611
3900,158.0,0.624784193001,143975
3910,158.0,0.626320322001,144343
3920,157.0,0.627891092001,144711
3930,156.0,0.629467848001,145076
3940,158.0,0.631019373001,145442
3950,159.0,0.632575601001,145812
3960,159.0,0.634164760001,146177
3970,161.0,0.635734673001,146547
3980,159.0,0.637282777001,146911
3990,159.0,0.638879206001,147289
4000,158.0,0.640453396001,147668
4010,159.0,0.642180686001,148041
4020,160.0,0.644050384001,148408
4030,159.0,0.645600198001,148773
4040,160.0,0.647123498001,149143
4050,159.0,0.648700254001,149511
4060,159.0,0.650249213001,149874
4070,158.0,0.651797316001,150239
4080,158.0,0.653307358001,150604
4090,160.0,0.654808420001,150974
4100,159.0,0.656332147001,151344
4110,160.0,0.657843900001,151710
4120,158.0,0.659424933001,152078
4130,158.0,0.660979024001,152443
4140,158.0,0.662549794001,152810
4150,159.0,0.664117142001,153180
4160,159.0,0.665675081001,153546
4170,159.0,0.667166735001,153906
4180,158.0,0.668757604001,154278
4190,159.0,0.670334787001,154653
4200,159.0,0.671883318001,155019
4210,160.0,0.673448527001,155390
4220,161.0,0.675162560001,155768
4230,161.0,0.676878731001,156132
4240,160.0,0.678594474001,156501
4250,159.0,0.680295249001,156872
4260,161.0,0.682050336001,157240
4270,160.0,0.683742986001,157601
4280,158.0,0.685371489001,157964
4290,157.0,0.687026934001,158336
4300,156.0,0.688660141001,158696
4310,158.0,0.690295486001,159060
4320,158.0,0.691988991001,159428
4330,158.0,0.693693187001,159796
4340,155.0,0.695384127001,160159
4350,155.0,0.697191388002,160537
4360,156.0,0.699000787002,160900
4370,156.0,0.700724656002,161271
4380,155.0,0.702471618001,161640
4390,156.0,0.704135616002,162012
4400,155.0,0.705852214002,162370
4410,156.0,0.707636382002,162744
4420,157.0,0.709356830002,163112
4430,158.0,0.711076850002,163484
4440,156.0,0.712782757002,163848
4450,157.0,0.714416391002,164220
4460,158.0,0.716152234002,164585
4470,157.0,0.717871398002,164958
4480,157.0,0.719449437001,165326
4490,155.0,0.721004383001,165688
4500,157.0,0.722561467001,166058
4510,159.0,0.724127960001,166421
4520,161.0,0.725667938001,166787
4530,158.0,0.727220318001,167153
4540,156.0,0.728846255001,167515
4550,156.0,0.730406761001,167883
4560,156.0,0.732015163001,168254
4570,156.0,0.733573530001,168628
4580,156.0,0.735110087001,169008
4590,155.0,0.736703521001,169381
4600,156.0,0.738290541001,169749
4610,158.0,0.739850619001,170120
4620,156.0,0.741505208001,170490
4630,156.0,0.743183746001,170860
4640,158.0,0.744752805001,171221
4650,155.0,0.746331699001,171589
4660,156.0,0.747903751001,171961
4670,155.0,0.749442019001,172329
4680,157.0,0.750992261001,172699
4690,156.0,0.752562602001,173060
4700,157.0,0.754272786001,173433
4710,156.0,0.755786249001,173798
4720,156.0,0.757363433001,174167
4730,156.0,0.758937195001,174540
4740,156.0,0.760528064001,174907
4750,159.0,0.762097977001,175278
4760,157.0,0.763699110001,175649
4770,157.0,0.765273300001,176013
4780,158.0,0.766827818001,176380
4790,156.0,0.768400297001,176744
4800,155.0,0.769959091002,177109
4810,155.0,0.771502062001,177473
4820,155.0,0.773077107002,177842
4830,155.0,0.774634191002,178208
4840,156.0,0.776219500002,178577
4850,157.0,0.777793690002,178941
4860,156.0,0.779344359001,179306
4870,155.0,0.780898022001,179671
4880,157.0,0.782461093001,180040
4890,157.0,0.784029724001,180400
4900,157.0,0.785611184001,180772
4910,156.0,0.787151589001,181140
4920,156.0,0.788751011002,181508
4930,156.0,0.790324773001,181873
4940,156.0,0.791875870001,182242
4950,156.0,0.793456903001,182613
4960,155.0,0.794965663001,182985
4970,154.0,0.796435506001,183351
4980,156.0,0.797993445001,183723
4990,153.0,0.799502632001,184093
