it,funval,time,funcount
0,119.0,0.00214040299988,737
10,125.0,0.00447581599974,1371
20,126.0,0.00661322499968,1994
30,130.0,0.00874421899971,2617
40,130.0,0.0110112069997,3248
50,132.0,0.0133346449998,3892
60,139.0,0.0154818899998,4515
70,133.0,0.0176346949997,5146
80,134.0,0.0198024669996,5763
90,134.0,0.0219107959997,6393
100,136.0,0.0240486319997,7034
110,137.0,0.0261176169997,7661
120,134.0,0.0281947269998,8300
130,134.0,0.0302521649999,8931
140,136.0,0.0322929239996,9553
150,139.0,0.0342934839996,10188
160,141.0,0.0362906229996,10820
170,139.0,0.0381894009995,11446
180,139.0,0.0400992989996,12085
190,137.0,0.0421819679996,12716
200,139.0,0.0440768979995,13340
210,141.0,0.0460890049994,13976
220,140.0,0.0480292659995,14596
230,141.0,0.0500020289994,15219
240,143.0,0.0518990969995,15853
250,142.0,0.0537901779996,16476
260,142.0,0.0557449799996,17118
270,142.0,0.0576916559996,17753
280,141.0,0.0596041189997,18387
290,145.0,0.0615050359995,19018
300,139.0,0.0634953319995,19653
310,140.0,0.0653782869995,20279
320,139.0,0.0672479849995,20901
330,140.0,0.0696740599994,21528
340,145.0,0.0715454689996,22147
350,141.0,0.0734403989998,22781
360,141.0,0.0753712509998,23399
370,146.0,0.0773222029995,24041
380,142.0,0.0792295349995,24670
390,144.0,0.0810663039995,25312
400,145.0,0.0829394229993,25947
410,143.0,0.0847808959993,26583
420,142.0,0.0867382629992,27222
430,141.0,0.0887225719994,27856
440,143.0,0.0906534239994,28482
450,143.0,0.0925586179994,29118
460,143.0,0.0944454229993,29750
470,142.0,0.0963116999994,30368
480,141.0,0.0983366369994,30996
490,140.0,0.100655370999,31633
500,143.0,0.102541319999,32263
510,144.0,0.104365686999,32886
520,142.0,0.106150709999,33518
530,146.0,0.107972510999,34155
540,142.0,0.109832372999,34790
550,142.0,0.112101070999,35426
560,143.0,0.114001132999,36051
570,148.0,0.116020509999,36679
580,148.0,0.117871818999,37312
590,148.0,0.119774874999,37944
600,145.0,0.121683061999,38569
610,148.0,0.123545917999,39184
620,144.0,0.125442130999,39831
630,147.0,0.127390517999,40456
640,145.0,0.129340614999,41090
650,146.0,0.131316370999,41711
660,144.0,0.133674876999,42347
670,145.0,0.135601879999,42975
680,147.0,0.137688825999,43610
690,151.0,0.139648331999,44231
700,149.0,0.141559512999,44849
710,147.0,0.143539118999,45476
720,149.0,0.145432765999,46102
730,152.0,0.147254139999,46742
740,150.0,0.149108870999,47378
750,149.0,0.151170158,48012
760,151.0,0.153161738,48638
770,152.0,0.154995941,49261
780,154.0,0.156808334,49892
790,153.0,0.158817875,50533
800,149.0,0.16068458,51164
810,150.0,0.162557272,51796
820,152.0,0.164452629,52423
830,153.0,0.166655896,53057
840,152.0,0.168581617,53689
850,149.0,0.170431644,54329
860,150.0,0.172310751,54958
870,151.0,0.174797552,55569
880,152.0,0.176816501,56205
890,154.0,0.1786259,56807
900,154.0,0.180734656,57447
910,153.0,0.182592807,58076
920,149.0,0.184615178,58708
930,151.0,0.186540044,59336
940,151.0,0.188449514,59963
950,151.0,0.190346582,60607
960,155.0,0.192218419,61247
970,151.0,0.194099664,61870
980,152.0,0.196048906,62495
990,153.0,0.197984035,63121
1000,152.0,0.200037196,63741
1010,153.0,0.201931271,64375
1020,151.0,0.203816792,65003
1030,151.0,0.20580324,65638
1040,156.0,0.207669945,66265
1050,154.0,0.209573,66886
1060,157.0,0.211482897,67514
1070,153.0,0.213388091,68146
1080,150.0,0.215267197,68786
1090,151.0,0.21711594,69422
1100,152.0,0.218961689,70054
1110,151.0,0.220869449,70684
1120,152.0,0.223136864,71321
1130,152.0,0.2250288,71945
1140,152.0,0.226977186,72579
1150,152.0,0.229042322,73205
1160,151.0,0.2310014,73840
1170,150.0,0.232881789,74473
1180,152.0,0.234812642,75099
1190,150.0,0.236799945,75731
1200,147.0,0.23868119,76370
1210,148.0,0.240689876,76986
1220,150.0,0.242922224,77612
1230,149.0,0.244732906,78252
1240,148.0,0.246573097,78889
1250,150.0,0.248550564,79515
1260,150.0,0.250442072999,80140
1270,150.0,0.252299369,80770
1280,147.0,0.254311902999,81408
1290,149.0,0.256235913,82038
1300,150.0,0.258138112999,82670
1310,151.0,0.260035608999,83297
1320,150.0,0.261908300999,83925
1330,151.0,0.264360889999,84555
1340,149.0,0.266222890999,85183
1350,150.0,0.268116109999,85822
1360,149.0,0.270034133999,86446
1370,151.0,0.271893995999,87072
1380,150.0,0.273821855999,87708
1390,150.0,0.275793762999,88347
1400,153.0,0.277745999,88980
1410,155.0,0.279731591,89597
1420,156.0,0.28165218,90232
1430,154.0,0.283520168,90862
1440,153.0,0.28542023,91481
1450,151.0,0.287300619,92096
1460,154.0,0.289246438999,92723
1470,153.0,0.291146073999,93356
1480,155.0,0.293014488999,93993
1490,154.0,0.294837146,94636
1500,156.0,0.296757307999,95267
1510,155.0,0.298915243999,95899
1520,153.0,0.300764841999,96539
1530,153.0,0.303040382999,97168
1540,153.0,0.305253486999,97794
1550,153.0,0.307231380999,98428
1560,155.0,0.309116474999,99064
1570,156.0,0.311042195999,99706
1580,154.0,0.312951665999,100333
1590,153.0,0.314921862999,100964
1600,155.0,0.316878374999,101597
1610,155.0,0.318782284999,102231
1620,157.0,0.320657115999,102867
1630,153.0,0.322543492999,103504
1640,153.0,0.324588101999,104140
1650,158.0,0.326438555999,104775
1660,156.0,0.328409179999,105408
1670,156.0,0.330396482999,106036
1680,156.0,0.332222560999,106663
1690,154.0,0.334111075999,107303
1700,156.0,0.336001301999,107924
1710,155.0,0.337835077999,108554
1720,156.0,0.339705203999,109171
1730,159.0,0.341590725999,109793
1740,158.0,0.343410816999,110413
1750,159.0,0.345287357999,111043
1760,161.0,0.347133534999,111668
1770,158.0,0.348995962999,112304
1780,156.0,0.350906715999,112933
1790,157.0,0.352774703999,113557
1800,160.0,0.354683745999,114189
1810,162.0,0.356579958999,114823
1820,161.0,0.358547589999,115455
1830,159.0,0.360401891999,116077
1840,159.0,0.362314355999,116715
1850,157.0,0.364281558999,117349
1860,158.0,0.366128163999,117985
1870,158.0,0.367972630999,118611
1880,156.0,0.369827788999,119245
1890,152.0,0.371678669999,119876
1900,154.0,0.373564191999,120498
1910,155.0,0.375467247999,121129
1920,153.0,0.377340367999,121766
1930,151.0,0.379258818999,122403
1940,157.0,0.381137069998,123032
1950,156.0,0.382982819998,123662
1960,156.0,0.384838832999,124299
1970,154.0,0.386747447999,124917
1980,155.0,0.388558557999,125555
1990,155.0,0.390422696999,126168
2000,152.0,0.392321048999,126794
2010,153.0,0.394232228999,127427
2020,154.0,0.396075412998,128065
2030,155.0,0.397921589999,128700
2040,152.0,0.399825072999,129328
2050,155.0,0.401692632999,129954
2060,153.0,0.403708587999,130574
2070,157.0,0.405772012999,131200
2080,156.0,0.408021039999,131831
2090,153.0,0.409908699999,132460
2100,156.0,0.411829715999,133100
2110,158.0,0.413755436999,133726
2120,155.0,0.415935182999,134345
2130,155.0,0.417793762999,134958
2140,155.0,0.419724614999,135585
2150,154.0,0.421657177999,136222
2160,156.0,0.423561515999,136852
2170,154.0,0.425556943999,137479
2180,156.0,0.427431773999,138115
2190,153.0,0.429362199999,138758
2200,151.0,0.431304171999,139384
2210,152.0,0.433216207999,140016
2220,151.0,0.435137224999,140647
2230,151.0,0.437094592999,141270
2240,148.0,0.439072059999,141898
2250,151.0,0.440994786999,142528
2260,152.0,0.442934192999,143159
2270,152.0,0.444765830999,143799
2280,152.0,0.446693262999,144423
2290,153.0,0.448581778999,145055
2300,150.0,0.450536152999,145689
2310,150.0,0.452432792999,146322
2320,153.0,0.454329432999,146948
2330,151.0,0.456183307999,147587
2340,150.0,0.458053861999,148218
2350,151.0,0.459894906999,148841
2360,153.0,0.461816351999,149463
2370,151.0,0.463703157,150084
2380,153.0,0.465654964,150731
2390,155.0,0.467503707,151364
2400,155.0,0.469462785,151993
2410,153.0,0.471386795,152620
2420,157.0,0.473345445,153254
2430,154.0,0.47526689,153887
2440,156.0,0.477252483,154514
2450,155.0,0.479401011,155140
2460,158.0,0.481455028,155790
2470,158.0,0.483482531,156439
2480,157.0,0.485392856,157073
2490,159.0,0.487354927,157709
2500,159.0,0.489310156,158344
2510,158.0,0.491285912,158976
2520,162.0,0.493223608,159603
2530,160.0,0.495365722,160237
2540,158.0,0.497345327,160877
2550,160.0,0.499427142,161500
2560,161.0,0.501239963,162130
2570,156.0,0.503145584,162767
2580,155.0,0.504969951,163398
2590,155.0,0.50692689,164035
2600,155.0,0.508889817,164662
2610,154.0,0.510771917,165286
2620,155.0,0.512636056,165919
2630,154.0,0.514544243,166545
2640,157.0,0.516453285,167181
2650,156.0,0.518326405,167806
2660,154.0,0.520217914,168433
2670,155.0,0.522144918,169061
2680,155.0,0.524030012,169698
2690,154.0,0.52589073,170335
2700,154.0,0.527770264,170971
2710,154.0,0.529625422,171582
2720,158.0,0.531518642,172215
2730,156.0,0.533440941,172845
2740,153.0,0.535387188999,173479
2750,155.0,0.537356101999,174107
2760,152.0,0.539274124999,174741
2770,151.0,0.541169054999,175375
2780,155.0,0.543258994999,176002
2790,153.0,0.545181294999,176639
2800,154.0,0.547186559999,177270
2810,151.0,0.549126393999,177896
2820,154.0,0.551052542999,178524
2830,154.0,0.552997080999,179149
2840,154.0,0.554932209999,179777
2850,154.0,0.556860068999,180403
2860,154.0,0.558846088999,181046
2870,154.0,0.560700391999,181681
2880,153.0,0.562600880999,182313
2890,153.0,0.564493244999,182944
2900,152.0,0.566285965999,183568
2910,155.0,0.568184743999,184206
2920,154.0,0.570124148999,184846
2930,153.0,0.571978878999,185479
2940,150.0,0.573946937999,186122
2950,150.0,0.575785417999,186763
2960,152.0,0.577624752999,187388
2970,150.0,0.579823315999,188014
2980,151.0,0.581766142999,188632
2990,155.0,0.583851378999,189258
3000,149.0,0.585768119999,189885
3010,151.0,0.587826840999,190520
3020,151.0,0.589802169,191160
3030,150.0,0.591757826,191783
3040,149.0,0.593620253999,192423
3050,150.0,0.595467285999,193065
3060,152.0,0.597348103999,193688
3070,151.0,0.599229775999,194325
3080,152.0,0.601103323999,194965
3090,153.0,0.602968318,195587
3100,151.0,0.604867951999,196227
3110,153.0,0.606776567,196868
3120,152.0,0.608684754,197499
3130,151.0,0.610613041,198139
3140,151.0,0.612467772,198781
3150,151.0,0.614390927,199417
3160,150.0,0.616343162,200045
3170,150.0,0.618287273,200674
3180,151.0,0.620145853,201314
3190,151.0,0.622182763,201936
3200,148.0,0.624152532,202570
3210,150.0,0.626018381,203199
3220,150.0,0.627886797,203840
3230,149.0,0.630016080999,204461
3240,149.0,0.631821631,205099
3250,146.0,0.633908577,205720
3260,143.0,0.635802651999,206352
3270,144.0,0.637685607,206973
3280,145.0,0.639571984,207605
3290,146.0,0.641504975,208229
3300,143.0,0.643511093999,208867
3310,145.0,0.645427833999,209495
3320,146.0,0.647292828999,210129
3330,143.0,0.649216410999,210765
3340,144.0,0.651217398999,211381
3350,141.0,0.653079826999,212017
3360,143.0,0.654996994999,212651
3370,138.0,0.657263554999,213286
3380,141.0,0.659293194999,213915
3390,141.0,0.66115263,214554
3400,139.0,0.663416624,215187
3410,141.0,0.665400506,215821
3420,143.0,0.667350175,216447
3430,139.0,0.6694538,217069
3440,139.0,0.672431974,217689
3450,143.0,0.674403881,218319
3460,141.0,0.677285833999,218960
3470,144.0,0.683420514999,219601
3480,147.0,0.685471537999,220233
3490,144.0,0.687359197999,220876
3500,145.0,0.689295610999,221504
3510,144.0,0.691175572999,222137
3520,144.0,0.693130801999,222768
3530,144.0,0.695004348999,223399
3540,146.0,0.696929214999,224030
3550,146.0,0.698894706999,224664
3560,149.0,0.700829835999,225302
3570,147.0,0.702662327999,225938
3580,152.0,0.704555546999,226562
3590,151.0,0.706441495999,227191
3600,152.0,0.708319747999,227827
3610,153.0,0.710207407999,228457
3620,153.0,0.712144247999,229094
3630,152.0,0.714068257999,229721
3640,154.0,0.716124839999,230345
3650,153.0,0.718081779999,230994
3660,155.0,0.719988255999,231628
3670,154.0,0.721859664999,232250
3680,157.0,0.723781536999,232888
3690,155.0,0.725703408999,233513
3700,157.0,0.727655216999,234142
3710,157.0,0.729880721999,234771
3720,157.0,0.731819699999,235403
3730,158.0,0.734491246999,236044
3740,157.0,0.736328443999,236679
3750,160.0,0.738218241999,237298
3760,159.0,0.740057149999,237932
3770,159.0,0.741951651999,238564
3780,159.0,0.743794408999,239196
3790,162.0,0.745625190999,239830
3800,161.0,0.747585123999,240470
3810,161.0,0.749409063999,241111
3820,160.0,0.751367713999,241741
3830,163.0,0.753258794999,242376
3840,160.0,0.755291856999,243009
3850,162.0,0.757185931999,243621
3860,158.0,0.759089842999,244252
3870,157.0,0.760963390999,244871
3880,159.0,0.762821542999,245501
3890,162.0,0.764696800999,246130
3900,160.0,0.766599856999,246761
3910,159.0,0.768411394999,247398
3920,157.0,0.770224215999,248024
3930,160.0,0.772106316999,248658
3940,156.0,0.774011509999,249301
3950,159.0,0.776084343999,249940
3960,157.0,0.777991248999,250569
3970,159.0,0.779925950999,251194
3980,155.0,0.782092012999,251830
3990,155.0,0.784571544999,252464
4000,157.0,0.787068182999,253089
4010,157.0,0.789523337999,253704
4020,154.0,0.792002869999,254332
4030,158.0,0.794477269999,254964
4040,154.0,0.796957656999,255593
4050,153.0,0.799514592999,256218
4060,153.0,0.801983432999,256829
4070,155.0,0.804476648999,257463
4080,155.0,0.806985260999,258098
4090,158.0,0.809430580999,258739
4100,153.0,0.811874189999,259372
4110,159.0,0.814292566999,260009
4120,154.0,0.816663046999,260644
4130,154.0,0.819148137999,261275
4140,154.0,0.821572501999,261899
4150,151.0,0.823999431999,262524
4160,149.0,0.826670123999,263138
4170,148.0,0.829195413999,263765
4180,148.0,0.831713006999,264409
4190,148.0,0.834204940999,265037
4200,150.0,0.836725954999,265668
4210,147.0,0.839221309999,266307
4220,148.0,0.841658503999,266927
4230,153.0,0.844262910999,267553
4240,149.0,0.846951992999,268181
4250,148.0,0.849361816999,268804
4260,147.0,0.851773351999,269438
4270,148.0,0.854168208999,270066
4280,149.0,0.856639614998,270702
4290,151.0,0.859112303998,271342
4300,150.0,0.861562327998,271958
4310,148.0,0.864055543999,272578
4320,148.0,0.866573991998,273208
4330,148.0,0.869086452999,273848
4340,147.0,0.871737900999,274477
4350,149.0,0.874251216999,275108
4360,147.0,0.876696963998,275728
4370,152.0,0.879197450999,276357
4380,149.0,0.881645763999,276986
4390,147.0,0.884121018999,277606
4400,147.0,0.886518868999,278240
4410,148.0,0.888948364999,278862
4420,148.0,0.891446712999,279484
4430,145.0,0.893918118999,280109
4440,145.0,0.896467785999,280753
4450,148.0,0.898962284999,281387
4460,146.0,0.901436256999,282015
4470,147.0,0.903913221999,282638
4480,145.0,0.906402160999,283258
4490,144.0,0.908899225999,283900
4500,144.0,0.911395435999,284541
4510,143.0,0.913882664999,285177
4520,143.0,0.916366472999,285796
4530,142.0,0.918872518999,286418
4540,145.0,0.921553046999,287046
4550,146.0,0.923990240999,287686
4560,142.0,0.926509543999,288311
4570,144.0,0.929058782999,288934
4580,145.0,0.931542590999,289565
4590,145.0,0.934046498999,290195
4600,143.0,0.936606428999,290817
4610,145.0,0.939132146999,291445
4620,146.0,0.941626645999,292075
4630,144.0,0.944145520999,292696
4640,148.0,0.946695186999,293326
4650,146.0,0.949233733999,293955
4660,149.0,0.951735075999,294575
4670,148.0,0.954228291999,295207
4680,151.0,0.956724501999,295837
4690,148.0,0.959203177999,296458
4700,151.0,0.961648496999,297076
4710,149.0,0.964032661999,297709
4720,148.0,0.966468145999,298344
4730,150.0,0.968913892999,298975
4740,147.0,0.971395562999,299606
4750,150.0,0.973872955999,300237
4760,150.0,0.976346927999,300864
4770,149.0,0.978963735999,301499
4780,149.0,0.981472347999,302125
4790,151.0,0.983990367999,302754
4800,151.0,0.986461773999,303384
4810,148.0,0.988954990999,304012
4820,153.0,0.991410573999,304654
4830,147.0,0.993892670999,305282
4840,147.0,0.996483391999,305906
4850,145.0,0.998972758999,306536
4860,148.0,1.001455711,307171
4870,147.0,1.003945934,307798
4880,149.0,1.006398096,308430
4890,150.0,1.008902859,309066
4900,148.0,1.011412754,309694
4910,150.0,1.013924787,310336
4920,151.0,1.016435537,310971
4930,152.0,1.018832532,311595
4940,151.0,1.021263311,312223
4950,153.0,1.023747119,312850
4960,150.0,1.026215104,313489
4970,147.0,1.028789575,314126
4980,148.0,1.031343946,314744
4990,147.0,1.033771732,315367
