it,funval,time,funcount
0,271.0,0.00343747399984,593
10,279.0,0.00704558100006,1076
20,286.0,0.0104086430001,1560
30,288.0,0.0139273710001,2045
40,287.0,0.0177826610006,2539
50,299.0,0.0213415890012,3028
60,293.0,0.024732021001,3518
70,292.0,0.0281369930008,4022
80,292.0,0.0315064700007,4513
90,294.0,0.0347895610012,4995
100,305.0,0.0380901860008,5478
110,295.0,0.0413638690006,5951
120,296.0,0.044778677001,6441
130,299.0,0.0480254180011,6918
140,299.0,0.051386342001,7398
150,303.0,0.0544752790011,7887
160,307.0,0.0576463260013,8358
170,310.0,0.0606463110016,8851
180,308.0,0.063600538002,9326
190,311.0,0.0665513430022,9806
200,313.0,0.0695081350023,10285
210,310.0,0.0725034160023,10764
220,311.0,0.0754422460022,11256
230,313.0,0.0783635420021,11737
240,315.0,0.0812125660023,12233
250,316.0,0.0840748460023,12714
260,317.0,0.0869739050022,13204
270,318.0,0.0898721090016,13679
280,319.0,0.0928502840015,14155
290,327.0,0.0957865490018,14646
300,325.0,0.0986988650011,15128
310,322.0,0.101585522001,15608
320,324.0,0.104616298002,16097
330,326.0,0.107376797002,16580
340,324.0,0.110188614002,17072
350,319.0,0.112988458002,17559
360,318.0,0.115963211002,18043
370,321.0,0.119072675002,18516
380,323.0,0.122168882002,19007
390,324.0,0.124955469002,19493
400,326.0,0.127774129002,19969
410,323.0,0.130969124003,20458
420,326.0,0.133756138003,20956
430,323.0,0.136544435004,21449
440,324.0,0.139584192004,21937
450,326.0,0.142382753004,22419
460,325.0,0.145137693004,22893
470,325.0,0.148290350005,23365
480,324.0,0.151094042004,23839
490,323.0,0.153893458004,24322
500,321.0,0.156822025004,24809
510,324.0,0.159889152003,25288
520,322.0,0.163020854003,25778
530,319.0,0.165901524003,26262
540,319.0,0.168898516003,26753
550,317.0,0.171640199002,27236
560,320.0,0.174377605003,27715
570,321.0,0.177119288002,28205
580,320.0,0.179948212002,28690
590,323.0,0.183088467003,29176
600,319.0,0.185944761003,29662
610,321.0,0.188967839003,30132
620,321.0,0.191697975004,30612
630,321.0,0.194480712003,31102
640,322.0,0.197299372003,31579
650,325.0,0.200088524002,32058
660,322.0,0.202861853003,32538
670,325.0,0.205713015003,33011
680,326.0,0.208454698003,33484
690,324.0,0.211238291004,33971
700,320.0,0.214157450004,34456
710,319.0,0.217080030004,34945
720,319.0,0.220329337004,35432
730,326.0,0.223329322003,35914
740,323.0,0.226087255003,36386
750,324.0,0.228900784004,36865
760,326.0,0.231847312004,37347
770,328.0,0.234687355004,37843
780,326.0,0.237414498005,38323
790,325.0,0.240207072005,38797
800,331.0,0.242971848004,39284
810,330.0,0.245746460004,39766
820,326.0,0.248538178003,40253
830,329.0,0.251239234004,40740
840,330.0,0.254013846004,41228
850,328.0,0.257156668004,41715
860,328.0,0.259903055004,42190
870,327.0,0.263056995003,42687
880,327.0,0.265818350003,43168
890,325.0,0.268992389003,43663
900,326.0,0.271716966003,44147
910,329.0,0.274432134002,44628
920,328.0,0.277245235003,45108
930,326.0,0.280036098003,45586
940,326.0,0.282726462003,46059
950,331.0,0.285466007002,46548
960,331.0,0.288123443002,47038
970,330.0,0.291016942003,47525
980,333.0,0.293660264003,48002
990,333.0,0.296394677003,48486
1000,332.0,0.299094877004,48958
1010,332.0,0.302199637003,49438
1020,333.0,0.305422429004,49914
1030,332.0,0.308097825004,50386
1040,332.0,0.310888687003,50873
1050,329.0,0.313622672003,51360
1060,332.0,0.316836483003,51839
1070,330.0,0.319603398002,52327
1080,330.0,0.322313434001,52799
1090,328.0,0.325018339002,53266
1100,331.0,0.328145765002,53754
1110,329.0,0.330883599002,54244
1120,327.0,0.333638538003,54733
1130,329.0,0.336367391003,55217
1140,330.0,0.339115916003,55695
1150,327.0,0.341811412003,56186
1160,328.0,0.344555233003,56672
1170,327.0,0.347593707003,57153
1180,332.0,0.350358483003,57636
1190,330.0,0.353121548003,58114
1200,332.0,0.355866652004,58589
1210,330.0,0.358698569004,59076
1220,329.0,0.361446239003,59575
1230,330.0,0.364100681003,60050
1240,333.0,0.366838943003,60535
1250,329.0,0.369572928003,61010
1260,329.0,0.372294083004,61494
1270,330.0,0.374967342004,61963
1280,329.0,0.377813800004,62452
1290,328.0,0.380512289004,62925
1300,330.0,0.383445987004,63412
1310,327.0,0.386515252005,63899
1320,331.0,0.389353156004,64384
1330,335.0,0.392135466004,64860
1340,333.0,0.395053342005,65351
1350,333.0,0.397765516005,65843
1360,330.0,0.401033639006,66329
1370,332.0,0.403747096006,66803
1380,328.0,0.406592699005,67272
1390,334.0,0.409516990006,67776
1400,329.0,0.412816759006,68252
1410,330.0,0.415808619006,68738
1420,333.0,0.419024569006,69211
1430,334.0,0.422001461006,69687
1440,331.0,0.424980491006,70176
1450,332.0,0.428310196005,70654
1460,330.0,0.431348242006,71136
1470,329.0,0.434291349005,71617
1480,334.0,0.439794814005,72103
1490,332.0,0.442722098004,72578
1500,331.0,0.445628427004,73069
1510,334.0,0.448662196003,73556
1520,327.0,0.451659615003,74032
1530,332.0,0.454628809004,74532
1540,332.0,0.457555237004,75015
1550,329.0,0.460766055005,75498
1560,333.0,0.463711301005,75980
1570,327.0,0.466588122004,76476
1580,331.0,0.469548336004,76967
1590,332.0,0.472394794004,77433
1600,331.0,0.475334908004,77911
1610,336.0,0.478248079004,78393
1620,334.0,0.481199739003,78872
1630,334.0,0.484538425003,79361
1640,333.0,0.487593577003,79839
1650,331.0,0.490604253003,80321
1660,333.0,0.493577296003,80812
1670,332.0,0.496600374003,81298
1680,334.0,0.499500716002,81773
1690,335.0,0.502391222002,82255
1700,333.0,0.505572104003,82729
1710,336.0,0.508430963002,83222
1720,338.0,0.511335153003,83707
1730,335.0,0.514253029002,84199
1740,333.0,0.517136265003,84689
1750,334.0,0.520052003003,85175
1760,338.0,0.522949779003,85666
1770,335.0,0.526249976003,86141
1780,338.0,0.529163575003,86630
1790,334.0,0.532104971003,87111
1800,339.0,0.534957843003,87592
1810,335.0,0.537882133003,88074
1820,335.0,0.540736289004,88570
1830,335.0,0.543594294004,89048
1840,337.0,0.546497202005,89542
1850,336.0,0.549394123004,90017
1860,339.0,0.552352198004,90497
1870,338.0,0.555544199005,90989
1880,339.0,0.558415461005,91455
1890,342.0,0.561365411005,91947
1900,340.0,0.564306380004,92434
1910,337.0,0.567282844004,92913
1920,341.0,0.570170356004,93393
1930,341.0,0.573001418004,93875
1940,341.0,0.575940249004,94354
1950,339.0,0.578841874004,94837
1960,346.0,0.581812778004,95325
1970,345.0,0.584808059004,95802
1980,344.0,0.587776826004,96277
1990,341.0,0.590632692005,96760
2000,340.0,0.593505237004,97245
2010,345.0,0.596456042003,97737
2020,342.0,0.599405564003,98230
2030,347.0,0.602420945003,98733
2040,348.0,0.605342242004,99223
2050,348.0,0.608227189004,99701
2060,350.0,0.611108287003,100186
2070,346.0,0.614278906003,100663
2080,347.0,0.617528640003,101141
2090,346.0,0.620750149003,101639
2100,348.0,0.624182919004,102120
2110,349.0,0.627272712004,102602
2120,349.0,0.630245755004,103079
2130,351.0,0.633091785004,103568
2140,350.0,0.635998114004,104052
2150,349.0,0.638960038004,104540
2160,349.0,0.641820180004,105023
2170,349.0,0.644713680003,105503
2180,351.0,0.647643102004,105980
2190,351.0,0.650812010003,106461
2200,349.0,0.653768802003,106948
2210,350.0,0.656724739004,107441
2220,345.0,0.659818380004,107910
2230,348.0,0.662807674004,108394
2240,346.0,0.665808514005,108867
2250,348.0,0.668820045005,109363
2260,345.0,0.671753316005,109831
2270,344.0,0.675109536005,110314
2280,349.0,0.678062052005,110784
2290,345.0,0.681025259005,111277
2300,347.0,0.684000868006,111755
2310,349.0,0.686815251005,112236
2320,348.0,0.690026924006,112719
2330,346.0,0.692949504006,113192
2340,347.0,0.695873367005,113674
2350,343.0,0.698642419005,114165
2360,347.0,0.701369989006,114643
2370,346.0,0.704074894005,115126
2380,343.0,0.706716933006,115614
2390,342.0,0.709442793005,116105
2400,340.0,0.712076707005,116582
2410,337.0,0.714775624005,117066
2420,337.0,0.717872258005,117549
2430,335.0,0.720749079004,118035
2440,339.0,0.723484775004,118519
2450,340.0,0.726201226004,118993
2460,337.0,0.728897577004,119475
2470,338.0,0.731657221005,119957
2480,338.0,0.734690563005,120439
2490,336.0,0.737638375005,120915
2500,338.0,0.740375781005,121388
2510,334.0,0.743140129005,121872
2520,334.0,0.745935268005,122349
2530,336.0,0.748637179006,122824
2540,336.0,0.751301028005,123301
2550,335.0,0.754014485005,123786
2560,334.0,0.756639847005,124266
2570,336.0,0.759327218005,124751
2580,337.0,0.762078737005,125234
2590,344.0,0.764889699005,125727
2600,340.0,0.767666450005,126196
2610,338.0,0.770460307004,126680
2620,338.0,0.773253736004,127171
2630,336.0,0.776011669004,127657
2640,339.0,0.778776873005,128144
2650,334.0,0.781560038004,128617
2660,336.0,0.784326952004,129079
2670,333.0,0.787044686004,129566
2680,334.0,0.789987366004,130049
2690,336.0,0.792921493005,130539
2700,333.0,0.795992041004,131030
2710,332.0,0.798699940004,131512
2720,332.0,0.801367639004,131987
2730,332.0,0.804303048003,132465
2740,332.0,0.807430474003,132965
2750,332.0,0.810158471003,133440
2760,338.0,0.812955749003,133919
2770,335.0,0.815641409003,134410
2780,336.0,0.818414311002,134898
2790,334.0,0.821150006002,135394
2800,334.0,0.823925900001,135880
2810,335.0,0.826647483001,136367
2820,334.0,0.829378475,136848
2830,334.0,0.832214242,137320
2840,334.0,0.834863979,137804
2850,331.0,0.837559047,138295
2860,334.0,0.840312275999,138783
2870,333.0,0.843002639999,139261
2880,334.0,0.845673331999,139738
2890,334.0,0.848322213999,140221
2900,333.0,0.851035672,140725
2910,334.0,0.853741859,141213
2920,332.0,0.856433078,141689
2930,331.0,0.859102915,142171
2940,331.0,0.861811240999,142646
2950,333.0,0.864506309999,143124
2960,331.0,0.867325398,143600
2970,333.0,0.870599936,144082
2980,332.0,0.873445111,144562
2990,333.0,0.876518653,145039
3000,334.0,0.879171812,145528
3010,331.0,0.882034947999,146014
3020,332.0,0.884951112999,146492
3030,332.0,0.887835631999,146977
3040,331.0,0.890684227999,147464
3050,329.0,0.893310444999,147948
3060,329.0,0.896191542999,148435
3070,328.0,0.899006354999,148914
3080,331.0,0.901961436999,149394
3090,330.0,0.905152154999,149869
3100,329.0,0.907867323999,150356
3110,329.0,0.910646212999,150841
3120,329.0,0.913533726,151324
3130,326.0,0.916493939999,151808
3140,328.0,0.919885226999,152287
3150,326.0,0.922576873999,152771
3160,326.0,0.928506708999,153249
3170,330.0,0.931379680998,153733
3180,333.0,0.934458353999,154215
3190,333.0,0.937452779998,154698
3200,332.0,0.940500661998,155172
3210,335.0,0.943433932998,155645
3220,334.0,0.946348387998,156123
3230,331.0,0.949222214998,156609
3240,330.0,0.952164466999,157095
3250,328.0,0.955039148998,157582
3260,329.0,0.957917252998,158060
3270,329.0,0.960668343999,158551
3280,328.0,0.963583225998,159042
3290,326.0,0.966478007997,159522
3300,328.0,0.969372789998,160008
3310,328.0,0.972096510997,160480
3320,326.0,0.974936980997,160964
3330,328.0,0.977821926997,161442
3340,327.0,0.980578576998,161924
3350,330.0,0.983518262998,162409
3360,327.0,0.986501996998,162894
3370,326.0,0.989476322997,163376
3380,326.0,0.992333471996,163862
3390,328.0,0.995176936995,164349
3400,330.0,0.998079416995,164830
3410,327.0,1.00101782,165311
3420,330.0,1.004021654,165795
3430,329.0,1.00697502499,166277
3440,329.0,1.009881781,166743
3450,329.0,1.012779984,167217
3460,330.0,1.015925371,167696
3470,331.0,1.019004044,168180
3480,329.0,1.02190011,168655
3490,334.0,1.024858613,169137
3500,330.0,1.027913338,169611
3510,328.0,1.030863287,170101
3520,329.0,1.03364260399,170592
3530,331.0,1.036914576,171080
3540,328.0,1.039770869,171554
3550,326.0,1.042699436,172046
3560,325.0,1.045593363,172526
3570,325.0,1.04886448,173010
3580,324.0,1.051805449,173489
3590,323.0,1.054781485,173987
3600,324.0,1.057713473,174483
3610,324.0,1.060642896,174972
3620,321.0,1.06366127,175460
3630,317.0,1.066631747,175937
3640,319.0,1.069627028,176417
3650,319.0,1.072520955,176910
3660,321.0,1.075467056,177385
3670,321.0,1.078368253,177864
3680,318.0,1.081387055,178360
3690,322.0,1.084315622,178839
3700,323.0,1.087211687,179319
3710,320.0,1.090181309,179802
3720,320.0,1.093544372,180284
3730,324.0,1.09646182,180774
3740,321.0,1.099374991,181255
3750,323.0,1.102259937,181742
3760,322.0,1.10516926,182231
3770,322.0,1.108291126,182711
3780,322.0,1.111180349,183194
3790,326.0,1.114171353,183668
3800,328.0,1.117233347,184138
3810,325.0,1.120338107,184620
3820,328.0,1.123209369,185103
3830,328.0,1.12614264,185590
3840,328.0,1.129058377,186071
3850,329.0,1.131933487,186557
3860,329.0,1.134813729,187042
3870,330.0,1.137731177,187529
3880,327.0,1.140638361,188010
3890,328.0,1.143546829,188488
3900,329.0,1.146313316,188964
3910,330.0,1.149210236,189450
3920,327.0,1.152112716,189941
3930,329.0,1.155024604,190427
3940,326.0,1.157913399,190920
3950,328.0,1.160801339,191409
3960,327.0,1.163676449,191894
3970,332.0,1.166644787,192379
3980,332.0,1.169525884,192856
3990,332.0,1.172459155,193348
4000,331.0,1.175403545,193834
4010,332.0,1.178309447,194311
4020,332.0,1.18117857,194799
4030,330.0,1.184182832,195283
4040,334.0,1.186968991,195765
4050,336.0,1.189892427,196249
4060,335.0,1.192784644,196734
4070,336.0,1.195713211,197207
4080,334.0,1.198624244,197689
4090,339.0,1.201569917,198174
4100,333.0,1.204488648,198659
4110,335.0,1.207441591,199163
4120,340.0,1.210383843,199637
4130,334.0,1.213259382,200102
4140,334.0,1.2162042,200597
4150,334.0,1.219023288,201074
4160,340.0,1.222077585,201572
4170,339.0,1.225128888,202062
4180,340.0,1.22800015,202541
4190,342.0,1.230936414,203039
4200,337.0,1.233802116,203520
4210,339.0,1.237004809,204005
4220,343.0,1.239753762,204481
4230,340.0,1.242707133,204973
4240,341.0,1.245749028,205455
4250,341.0,1.248766547,205923
4260,340.0,1.251610438,206408
4270,338.0,1.254577921,206874
4280,337.0,1.257465861,207353
4290,337.0,1.260431207,207832
4300,335.0,1.263437179,208316
4310,332.0,1.26628492,208811
4320,336.0,1.269218191,209296
4330,337.0,1.272063793,209771
4340,335.0,1.275095425,210243
4350,336.0,1.278042382,210724
4360,337.0,1.281047927,211205
4370,340.0,1.284032517,211675
4380,338.0,1.286890093,212154
4390,340.0,1.289785731,212638
4400,343.0,1.292719857,213135
4410,337.0,1.295678787,213618
4420,341.0,1.298541924,214099
4430,337.0,1.30135417,214593
4440,343.0,1.304162994,215072
4450,342.0,1.307266899,215550
4460,341.0,1.310261324,216026
4470,340.0,1.31324848,216510
4480,340.0,1.316233497,216980
4490,341.0,1.319125286,217468
4500,342.0,1.322068821,217951
4510,337.0,1.324993539,218432
4520,337.0,1.327925527,218928
4530,340.0,1.330802776,219411
4540,341.0,1.333703118,219887
4550,339.0,1.336573952,220378
4560,339.0,1.339464885,220858
4570,335.0,1.342508918,221338
4580,333.0,1.345383173,221821
4590,336.0,1.348183444,222307
4600,337.0,1.350982005,222793
4610,335.0,1.353973009,223271
4620,333.0,1.356718113,223752
4630,331.0,1.359614606,224234
4640,332.0,1.362622716,224716
4650,332.0,1.365379794,225211
4660,332.0,1.368133878,225696
4670,333.0,1.370976059,226186
4680,333.0,1.373825083,226672
4690,332.0,1.377427631,227154
4700,330.0,1.380250995,227622
4710,331.0,1.383129526,228112
4720,326.0,1.385921671,228605
4730,331.0,1.38865309,229080
4740,327.0,1.391470039,229576
4750,328.0,1.394191195,230078
4760,327.0,1.396970083,230568
4770,331.0,1.399719464,231042
4780,331.0,1.402580034,231531
4790,328.0,1.40525372,232018
4800,327.0,1.407969744,232500
4810,328.0,1.410851697,232990
4820,332.0,1.41398511,233474
4830,330.0,1.416769986,233957
4840,328.0,1.422832821,234435
4850,330.0,1.425604867,234914
4860,323.0,1.428300363,235404
4870,330.0,1.431111753,235900
4880,332.0,1.433894491,236384
4890,327.0,1.436672952,236863
4900,329.0,1.439739651,237348
4910,331.0,1.44251298,237824
4920,328.0,1.445197358,238310
4930,330.0,1.447928349,238789
4940,327.0,1.450669604,239260
4950,330.0,1.453501094,239739
4960,331.0,1.456262449,240226
4970,329.0,1.459019955,240720
4980,329.0,1.461857004,241207
4990,330.0,1.464792413,241690
