it,funval,time,funcount
0,119.0,0.0022930749999,782
10,116.0,0.00462121699979,1481
20,126.0,0.00696988599975,2173
30,127.0,0.00943231199972,2861
40,134.0,0.0119028629997,3557
50,129.0,0.0142374199997,4245
60,131.0,0.0164843089997,4945
70,133.0,0.0187521519997,5641
80,134.0,0.0209939089998,6342
90,138.0,0.0232660289998,7042
100,135.0,0.0258434929999,7725
110,139.0,0.0281729180001,8411
120,138.0,0.0306105400002,9114
130,138.0,0.0328595670003,9810
140,138.0,0.0351132970004,10503
150,140.0,0.0373011690003,11198
160,140.0,0.0394719350002,11906
170,139.0,0.0416200350001,12607
180,138.0,0.0437937950001,13296
190,136.0,0.045954725,13991
200,136.0,0.0481763809998,14678
210,138.0,0.0505122209997,15377
220,139.0,0.0526312409997,16073
230,140.0,0.0547618079997,16768
240,142.0,0.0570296509998,17454
250,143.0,0.0591559409997,18181
260,142.0,0.0612685469998,18875
270,144.0,0.0634589849999,19578
280,146.0,0.0656336,20265
290,142.0,0.0682722179999,20962
300,146.0,0.0704451219999,21654
310,146.0,0.0726099009999,22361
320,145.0,0.0747575739999,23055
330,144.0,0.0770006140001,23753
340,149.0,0.0791478590002,24450
350,147.0,0.0815345900003,25160
360,143.0,0.0836882500003,25855
370,144.0,0.0862229490001,26558
380,146.0,0.0884467440001,27250
390,147.0,0.090603397,27956
400,149.0,0.0927091600001,28648
410,146.0,0.0950668099999,29352
420,146.0,0.0971918170001,30059
430,149.0,0.0993223830001,30773
440,144.0,0.101498281,31473
450,145.0,0.103664771,32178
460,146.0,0.105957846,32890
470,146.0,0.108112362,33581
480,148.0,0.110254903,34281
490,147.0,0.112395306,34988
500,148.0,0.114570776,35684
510,148.0,0.1166945,36383
520,149.0,0.118883227,37067
530,150.0,0.12102919,37776
540,147.0,0.123362464,38485
550,145.0,0.125566159,39182
560,146.0,0.127713404,39878
570,145.0,0.129802916,40605
580,147.0,0.131976675,41322
590,149.0,0.134173528,42016
600,149.0,0.136316497,42701
610,150.0,0.138451767,43383
620,149.0,0.140890672,44081
630,150.0,0.143178615,44773
640,151.0,0.14540412,45484
650,148.0,0.147460703,46184
660,152.0,0.149646865,46886
670,149.0,0.151774866,47587
680,148.0,0.153853259,48290
690,146.0,0.156038993,48977
700,150.0,0.158157158,49674
710,148.0,0.160528065,50367
720,147.0,0.162665902,51068
730,147.0,0.164789627,51756
740,147.0,0.167233236,52451
750,152.0,0.169309918,53145
760,150.0,0.171513613,53852
770,150.0,0.174033343,54541
780,149.0,0.176231906,55245
790,147.0,0.178420206,55942
800,152.0,0.180524258,56644
810,154.0,0.182976847,57361
820,154.0,0.185139488,58056
830,153.0,0.187258936,58758
840,154.0,0.189389503,59471
850,153.0,0.191443092,60174
860,154.0,0.19375926,60887
870,150.0,0.195865451,61584
880,151.0,0.197989603,62278
890,152.0,0.200098787,62975
900,152.0,0.202227216,63673
910,153.0,0.204406107,64377
920,154.0,0.206535391,65067
930,154.0,0.208648851,65768
940,156.0,0.210779845,66462
950,153.0,0.213096013,67167
960,157.0,0.215185097,67860
970,152.0,0.217370831,68553
980,153.0,0.219511661,69258
990,149.0,0.221616569,69957
1000,148.0,0.223756116,70637
1010,150.0,0.225844773,71324
1020,150.0,0.228109195,72025
1030,150.0,0.230359504,72727
1040,156.0,0.232443028,73408
1050,152.0,0.23458172,74099
1060,152.0,0.236716135,74806
1070,151.0,0.238879203,75499
1080,156.0,0.24110257,76205
1090,154.0,0.243646677,76903
1100,154.0,0.245840536,77595
1110,159.0,0.247959983,78283
1120,158.0,0.250193614,78977
1130,157.0,0.252410567,79681
1140,158.0,0.254717327,80390
1150,157.0,0.257049318,81085
1160,159.0,0.260799833,81772
1170,161.0,0.263080078,82489
1180,156.0,0.268945337,83186
1190,155.0,0.27107291,83895
1200,152.0,0.273322364,84597
1210,154.0,0.27631294,85301
1220,150.0,0.278606015,86005
1230,151.0,0.2812271,86689
1240,151.0,0.284952384,87386
1250,151.0,0.287062424,88084
1260,157.0,0.289228486,88784
1270,154.0,0.291277799,89474
1280,152.0,0.293818912,90165
1290,148.0,0.295972999,90857
1300,152.0,0.298120671,91553
1310,148.0,0.300214032,92254
1320,151.0,0.302406608,92949
1330,149.0,0.304451216,93642
1340,155.0,0.306567242,94341
1350,153.0,0.308656754,95029
1360,152.0,0.310699224,95725
1370,153.0,0.312683106,96415
1380,153.0,0.314641329,97115
1390,154.0,0.316681661,97816
1400,153.0,0.319228762,98504
1410,151.0,0.321295608,99208
1420,152.0,0.323333374,99900
1430,153.0,0.325429301,100591
1440,152.0,0.327615463,101284
1450,155.0,0.329685731,101995
1460,153.0,0.331720931,102694
1470,157.0,0.333713794,103405
1480,151.0,0.335761824,104101
1490,153.0,0.337737153,104799
1500,154.0,0.339858312001,105511
1510,150.0,0.341877261001,106223
1520,151.0,0.344045461001,106927
1530,150.0,0.537223970001,107628
1540,150.0,0.539296803001,108328
1550,152.0,0.541333286001,109022
1560,151.0,0.543354801001,109722
1570,148.0,0.545360921001,110402
1580,151.0,0.547393555001,111092
1590,150.0,0.549599816001,111787
1600,149.0,0.551728672001,112488
1610,150.0,0.554404497001,113193
1620,153.0,0.556438415001,113889
1630,155.0,0.558994069001,114583
1640,156.0,0.561073318001,115282
1650,155.0,0.563115360001,115976
1660,155.0,0.565187338001,116686
1670,157.0,0.567760953001,117385
1680,158.0,0.569798292001,118103
1690,154.0,0.571910470001,118807
1700,157.0,0.574192426001,119507
1710,156.0,0.576272529001,120201
1720,159.0,0.578293189001,120902
1730,159.0,0.580310000001,121594
1740,158.0,0.582293027001,122282
1750,159.0,0.584328227001,122975
1760,164.0,0.586429714001,123676
1770,164.0,0.588481593001,124379
1780,160.0,0.590908951001,125081
1790,160.0,0.592977081001,125778
1800,164.0,0.595008860001,126478
1810,165.0,0.597333581001,127177
1820,162.0,0.599442765001,127870
1830,162.0,0.601504479001,128571
1840,160.0,0.603767618001,129273
1850,159.0,0.605786140001,129972
1860,159.0,0.607971447001,130686
1870,161.0,0.610066519001,131376
1880,158.0,0.612178269001,132081
1890,159.0,0.614256662001,132780
1900,157.0,0.618683725001,133489
1910,160.0,0.620762545001,134179
1920,159.0,0.622873012001,134877
1930,160.0,0.624968511001,135571
1940,160.0,0.627203425001,136253
1950,160.0,0.629336985001,136962
1960,163.0,0.631357217002,137668
1970,158.0,0.633359488002,138355
1980,161.0,0.635352778002,139068
1990,158.0,0.637502590002,139768
2000,157.0,0.640299013002,140470
2010,157.0,0.642571989002,141176
2020,156.0,0.644583240002,141865
2030,155.0,0.646683871001,142571
2040,156.0,0.648750717001,143275
2050,153.0,0.650901811001,143973
2060,153.0,0.652938294001,144664
2070,153.0,0.654951256001,145355
2080,157.0,0.656988594001,146069
2090,153.0,0.659067414001,146771
2100,157.0,0.661122286002,147471
2110,156.0,0.663198968002,148176
2120,157.0,0.665289763002,148858
2130,158.0,0.667444706002,149557
2140,152.0,0.669485038002,150257
2150,153.0,0.671832425002,150955
2160,158.0,0.673913384002,151652
2170,155.0,0.676046944002,152347
2180,160.0,0.678094974002,153048
2190,154.0,0.680359824001,153736
2200,150.0,0.682466870001,154447
2210,151.0,0.684552961001,155143
2220,151.0,0.686661290001,155847
2230,148.0,0.688811528001,156553
2240,146.0,0.690924989002,157245
2250,148.0,0.693036311002,157950
2260,148.0,0.695176714001,158670
2270,150.0,0.697323959001,159372
2280,152.0,0.699454953001,160072
2290,152.0,0.701559005001,160771
2300,150.0,0.703704539001,161460
2310,150.0,0.705971527001,162164
2320,148.0,0.708274010001,162858
2330,147.0,0.710587612001,163548
2340,149.0,0.713141555001,164252
2350,149.0,0.715251166002,164960
2360,148.0,0.717328703001,165661
2370,149.0,0.719528550002,166341
2380,146.0,0.721653985001,167041
2390,149.0,0.723815771001,167752
2400,149.0,0.726018183002,168443
2410,149.0,0.728257374001,169155
2420,148.0,0.730384092001,169873
2430,149.0,0.732500546001,170585
2440,148.0,0.735143013002,171271
2450,150.0,0.737451911002,171985
2460,148.0,0.739921178002,172683
2470,148.0,0.743048604002,173384
2480,146.0,0.745462277001,174080
2490,147.0,0.748560195002,174774
2500,149.0,0.752903010002,175489
2510,146.0,0.756009908001,176180
2520,148.0,0.759400768002,176876
2530,148.0,0.762381509001,177572
2540,156.0,0.765267739001,178261
2550,150.0,0.767730592001,178976
2560,153.0,0.770473558001,179678
2570,152.0,0.772517311001,180382
2580,153.0,0.774595277001,181070
2590,149.0,0.776660840001,181775
2600,148.0,0.778837166001,182484
2610,149.0,0.780887762001,183186
2620,150.0,0.782950759001,183882
2630,155.0,0.785076194001,184573
2640,152.0,0.787293575001,185271
2650,152.0,0.789680733001,185961
2660,151.0,0.791751428001,186654
2670,154.0,0.793872586001,187351
2680,150.0,0.796001015001,188053
2690,151.0,0.798075131001,188756
2700,153.0,0.800149675002,189453
2710,151.0,0.802152802002,190142
2720,151.0,0.804168331002,190837
2730,150.0,0.806211656002,191529
2740,149.0,0.808347782002,192220
2750,152.0,0.810418905002,192920
2760,150.0,0.812572137002,193626
2770,149.0,0.814642832002,194331
2780,153.0,0.817266482002,195027
2790,154.0,0.819537746002,195726
2800,152.0,0.821617850002,196429
2810,149.0,0.823723613002,197119
2820,145.0,0.826763798002,197824
2830,149.0,0.829763783002,198532
2840,147.0,0.832858707002,199224
2850,152.0,0.835954914002,199912
2860,152.0,0.839617334002,200615
2870,149.0,0.841675200002,201303
2880,151.0,0.843722803002,202004
2890,152.0,0.845802051002,202697
2900,152.0,0.847902255002,203405
2910,156.0,0.850075587002,204100
2920,152.0,0.852467878002,204801
2930,155.0,0.854636934002,205494
2940,153.0,0.856784180002,206193
2950,157.0,0.858917740002,206891
2960,164.0,0.861079953002,207592
2970,161.0,0.863263121002,208295
2980,158.0,0.865456125002,208992
2990,157.0,0.867676071002,209699
3000,158.0,0.869874207002,210408
3010,157.0,0.872166426002,211111
3020,154.0,0.874348311002,211808
3030,153.0,0.876516511002,212503
3040,156.0,0.878715930002,213200
3050,156.0,0.880893538002,213902
3060,161.0,0.883054896002,214613
3070,155.0,0.885247045002,215304
3080,158.0,0.887310898002,216020
3090,156.0,0.889484230002,216717
3100,157.0,0.891630192002,217421
3110,156.0,0.893841585002,218130
3120,158.0,0.895949486002,218821
3130,160.0,0.897965869002,219511
3140,161.0,0.899930079002,220200
3150,156.0,0.901916526002,220894
3160,158.0,0.903856787002,221598
3170,158.0,0.905829978002,222309
3180,157.0,0.907908798002,223015
3190,154.0,0.909952123002,223727
3200,160.0,0.911980481002,224440
3210,158.0,0.914187170002,225147
3220,156.0,0.916105621002,225835
3230,154.0,0.918116873002,226537
3240,151.0,0.920169180002,227232
3250,150.0,0.922150496002,227930
3260,151.0,0.924558182002,228638
3270,149.0,0.926551472002,229331
3280,151.0,0.928543052002,230044
3290,149.0,0.930559436002,230743
3300,151.0,0.932536475002,231427
3310,150.0,0.934534469002,232123
3320,152.0,0.936495685002,232820
3330,153.0,0.938498812002,233525
3340,152.0,0.940461738002,234229
3350,155.0,0.942447330002,234949
3360,154.0,0.944526578002,235669
3370,154.0,0.946900479002,236379
3380,154.0,0.948879229002,237076
3390,153.0,0.950981998002,237772
3400,154.0,0.953031738002,238481
3410,154.0,0.955184970002,239195
3420,151.0,0.957233427002,239898
3430,153.0,0.959353302002,240604
3440,153.0,0.961448801002,241308
3450,152.0,0.963510943002,242004
3460,151.0,0.965662465002,242713
3470,152.0,0.967660459002,243405
3480,154.0,0.969648189001,244112
3490,152.0,0.971647894001,244811
3500,151.0,0.973642467001,245509
3510,152.0,0.975705036001,246223
3520,149.0,0.977642731001,246921
3530,152.0,0.979605658001,247613
3540,150.0,0.981626745001,248307
3550,152.0,0.983691454001,249005
3560,154.0,0.985744616001,249706
3570,154.0,0.987778961001,250426
3580,153.0,0.989732908001,251121
3590,153.0,0.991720211001,251819
3600,152.0,0.993718206001,252505
3610,151.0,0.995690114001,253201
3620,152.0,0.997631230001,253889
3630,150.0,0.999647613001,254589
3640,157.0,1.00164133,255270
3650,152.0,1.003689359,255964
3660,151.0,1.005798543,256665
3670,153.0,1.007832033,257383
3680,154.0,1.009811638,258074
3690,154.0,1.011875491,258763
3700,155.0,1.013761867,259453
3710,154.0,1.015841116,260159
3720,158.0,1.017816873,260861
3730,156.0,1.019854211,261554
3740,160.0,1.02176753,262253
3750,158.0,1.023749273,262940
3760,158.0,1.025831087,263653
3770,155.0,1.027969351,264349
3780,156.0,1.029960075,265049
3790,157.0,1.031978596,265746
3800,156.0,1.033989419,266449
3810,158.0,1.036050279,267146
3820,159.0,1.038135942,267848
3830,156.0,1.040276345,268531
3840,159.0,1.042255095,269223
3850,160.0,1.044249669,269944
3860,159.0,1.046216872,270642
3870,158.0,1.048227268,271333
3880,157.0,1.050176938,272032
3890,161.0,1.052320762,272719
3900,157.0,1.054348692,273420
3910,158.0,1.056363792,274112
3920,155.0,1.058315172,274800
3930,155.0,1.060418796,275492
3940,151.0,1.062401822,276198
3950,154.0,1.064592688,276896
3960,150.0,1.066605222,277594
3970,148.0,1.070880895,278289
3980,148.0,1.073629847,279003
3990,145.0,1.075737748,279702
4000,145.0,1.078018421,280406
4010,145.0,1.080060891,281101
4020,148.0,1.082841918,281795
4030,153.0,1.085389019,282496
4040,151.0,1.087410962,283182
4050,152.0,1.089499191,283883
4060,147.0,1.091616928,284562
4070,149.0,1.093659398,285276
4080,147.0,1.095611634,285962
4090,149.0,1.097553606,286655
4100,152.0,1.099658942,287344
4110,149.0,1.101674898,288037
4120,149.0,1.103882015,288757
4130,153.0,1.105882148,289454
4140,150.0,1.108029821,290141
4150,154.0,1.109999162,290832
4160,151.0,1.112086108,291536
4170,152.0,1.1140918,292244
4180,158.0,1.116499913,292930
4190,155.0,1.118490638,293620
4200,153.0,1.120442446,294319
4210,158.0,1.122391688,295021
4220,157.0,1.124354615,295724
4230,154.0,1.126295304,296403
4240,160.0,1.128157305,297101
4250,154.0,1.130108258,297817
4260,155.0,1.131989076,298501
4270,155.0,1.133913942,299198
4280,154.0,1.135816997,299904
4290,153.0,1.137793181,300601
4300,152.0,1.139737291,301292
4310,155.0,1.141695086,301991
4320,154.0,1.143624228,302692
4330,153.0,1.145559357,303391
4340,152.0,1.147507743,304099
4350,151.0,1.149761473,304789
4360,153.0,1.151654693,305478
4370,153.0,1.153608639,306179
4380,154.0,1.155560447,306874
4390,153.0,1.157520381,307574
4400,155.0,1.159418732,308271
4410,154.0,1.161381231,308980
4420,152.0,1.163348007,309675
4430,152.0,1.165338304,310362
4440,154.0,1.167336726,311057
4450,155.0,1.169303929,311763
4460,155.0,1.171265573,312454
4470,157.0,1.173197281,313138
4480,154.0,1.175084085,313837
4490,156.0,1.17700168,314534
4500,158.0,1.178904735,315224
4510,158.0,1.180841575,315938
4520,158.0,1.182937502,316634
4530,158.0,1.184906844,317342
4540,162.0,1.187099848,318049
4550,155.0,1.189006324,318749
4560,158.0,1.191040241,319469
4570,158.0,1.192974515,320166
4580,159.0,1.194892539,320866
4590,159.0,1.196788752,321563
4600,162.0,1.198791022,322263
4610,158.0,1.201050313,322957
4620,160.0,1.20316078,323654
4630,157.0,1.205098048,324364
4640,157.0,1.207064396,325064
4650,161.0,1.208971728,325766
4660,159.0,1.210927812,326475
4670,158.0,1.21290699,327175
4680,158.0,1.214897714,327886
4690,158.0,1.216852088,328581
4700,161.0,1.218871465,329271
4710,159.0,1.220893408,329968
4720,163.0,1.222823833,330680
4730,162.0,1.224900943,331375
4740,160.0,1.22706786,332080
4750,162.0,1.229324584,332779
4760,154.0,1.231603119,333492
4770,155.0,1.233574599,334197
4780,158.0,1.23561151,334902
4790,156.0,1.237645855,335594
4800,158.0,1.239709708,336303
4810,157.0,1.241705564,336999
4820,157.0,1.243647536,337705
4830,160.0,1.245602765,338394
4840,154.0,1.247559704,339086
4850,156.0,1.249555132,339786
4860,155.0,1.255822812,340495
4870,153.0,1.257905481,341182
4880,156.0,1.259867552,341871
4890,157.0,1.26182107,342558
4900,154.0,1.263817781,343238
4910,154.0,1.265798242,343943
4920,158.0,1.26798868,344658
4930,159.0,1.269966147,345352
4940,157.0,1.272036415,346064
4950,157.0,1.274039541,346767
4960,153.0,1.276141455,347476
4970,156.0,1.278086421,348188
4980,153.0,1.280155834,348891
4990,151.0,1.282206002,349595
