it,funval,time,funcount
0,38.0,0.000488806999996,572
10,38.0,0.000964785000008,1044
20,42.0,0.00143477500001,1535
30,41.0,0.00190391,2015
40,40.0,0.002374328,2507
50,41.0,0.002845601,2994
60,44.0,0.00330532700001,3467
70,42.0,0.00375521800001,3944
80,45.0,0.00420596400002,4419
90,45.0,0.00467167800002,4910
100,44.0,0.00512285200001,5398
110,45.0,0.00557317000001,5881
120,46.0,0.00601579000001,6364
130,46.0,0.00646140400001,6845
140,46.0,0.00689376100001,7317
150,48.0,0.00734023100001,7795
160,47.0,0.00776831200002,8281
170,45.0,0.00824557300002,8754
180,45.0,0.00869247000003,9234
190,48.0,0.00913252500003,9710
200,47.0,0.00963116900003,10188
210,47.0,0.010090896,10670
220,48.0,0.01052753,11151
230,48.0,0.010969723,11630
240,47.0,0.011524816,12106
250,47.0,0.011968292,12586
260,48.0,0.012392951,13091
270,47.0,0.012818466,13572
280,46.0,0.013251251,14042
290,47.0,0.013734071,14518
300,45.0,0.014223734,15010
310,45.0,0.014686455,15492
320,46.0,0.015152169,15980
330,47.0,0.015682459,16472
340,45.0,0.016155443,16969
350,44.0,0.016624151,17466
360,47.0,0.017100129,17956
370,46.0,0.017564987,18452
380,46.0,0.018025142,18941
390,48.0,0.018504113,19429
400,47.0,0.018937753,19904
410,47.0,0.01939192,20391
420,46.0,0.019844805,20869
430,45.0,0.02030667,21349
440,48.0,0.020764258,21826
450,49.0,0.021214149,22302
460,48.0,0.02166575,22780
470,47.0,0.022164393,23256
480,49.0,0.022639943,23729
490,48.0,0.023052628,24207
500,48.0,0.023467451,24693
510,47.0,0.023916487,25173
520,47.0,0.024401445,25663
530,47.0,0.024874857,26150
540,48.0,0.025316194,26630
550,46.0,0.025748123,27117
560,47.0,0.02618219,27595
570,47.0,0.026614119,28085
580,46.0,0.027047331,28562
590,47.0,0.027466431,29035
600,48.0,0.027882537,29521
610,48.0,0.028302064,29991
620,49.0,0.028762646,30473
630,48.0,0.029189016,30970
640,49.0,0.029629071,31450
650,47.0,0.030078534,31945
660,48.0,0.03050191,32430
670,47.0,0.030952656,32912
680,47.0,0.031372611,33381
690,47.0,0.031802402,33866
700,46.0,0.032225778,34329
710,47.0,0.032663694,34810
720,47.0,0.033140099,35289
730,47.0,0.033580581,35763
740,47.0,0.034006096,36249
750,47.0,0.034442729,36740
760,47.0,0.034900745,37219
770,45.0,0.035357051,37686
780,46.0,0.035827897,38169
790,46.0,0.036273511,38644
800,48.0,0.036705868,39123
810,47.0,0.037146779,39614
820,49.0,0.037581275,40075
830,48.0,0.038017909,40563
840,48.0,0.038484906,41040
850,48.0,0.03893608,41516
860,48.0,0.039421466,42000
870,48.0,0.039842704,42478
880,48.0,0.040308845,42965
890,49.0,0.040789527,43450
900,49.0,0.04125182,43924
910,47.0,0.041763293,44410
920,48.0,0.042456091,44896
930,48.0,0.042917101,45372
940,48.0,0.043362715,45849
950,49.0,0.043833134,46347
960,48.0,0.044283025,46837
970,49.0,0.044733343,47340
980,48.0,0.045186228,47830
990,47.0,0.045626711,48305
1000,49.0,0.046063344,48780
1010,49.0,0.046702685,49268
1020,49.0,0.047141884,49756
1030,47.0,0.047589636,50234
1040,46.0,0.048080581,50723
1050,47.0,0.048530044,51206
1060,47.0,0.048967961,51684
1070,47.0,0.049435813,52156
1080,47.0,0.049878006,52627
1090,46.0,0.050309936,53093
1100,47.0,0.050763676,53585
1110,46.0,0.051227252,54078
1120,48.0,0.051673722,54563
1130,48.0,0.052126179,55045
1140,48.0,0.052556825,55533
1150,49.0,0.052992603,56018
1160,48.0,0.053438645,56505
1170,48.0,0.053893668,56982
1180,48.0,0.054337144,57455
1190,48.0,0.054793877,57929
1200,47.0,0.055239064,58408
1210,49.0,0.055674415,58887
1220,48.0,0.05611447,59359
1230,46.0,0.056575052,59840
1240,48.0,0.057022377,60318
1250,46.0,0.057466709,60797
1260,48.0,0.057899494,61288
1270,47.0,0.058348102,61769
1280,47.0,0.058806118,62260
1290,47.0,0.059233343,62731
1300,45.0,0.059684517,63217
1310,45.0,0.060124572,63697
1320,43.0,0.060683942,64173
1330,45.0,0.061146235,64659
1340,43.0,0.061609383,65147
1350,45.0,0.062106744,65642
1360,45.0,0.062636606,66127
1370,46.0,0.063154066,66616
1380,45.0,0.063684356,67104
1390,46.0,0.064200961,67595
1400,45.0,0.064714144,68076
1410,47.0,0.065214498,68556
1420,48.0,0.065725971,69033
1430,46.0,0.066228891,69528
1440,46.0,0.066715988,69998
1450,47.0,0.067244567,70468
1460,46.0,0.067735512,70950
1470,47.0,0.06821876,71427
1480,46.0,0.068709706,71902
1490,46.0,0.069209632,72391
1500,46.0,0.069686465,72878
1510,47.0,0.070151323,73345
1520,46.0,0.070578976,73825
1530,48.0,0.071012616,74318
1540,47.0,0.071497575,74793
1550,47.0,0.071956446,75281
1560,45.0,0.072423443,75761
1570,48.0,0.072952877,76232
1580,45.0,0.073431848,76711
1590,46.0,0.073893285,77197
1600,47.0,0.074345314,77689
1610,46.0,0.074796488,78181
1620,47.0,0.075269044,78662
1630,47.0,0.075726205,79140
1640,47.0,0.076176951,79624
1650,46.0,0.076639243,80111
1660,47.0,0.07709897,80615
1670,47.0,0.077555703,81098
1680,48.0,0.078011581,81587
1690,46.0,0.07847088,82063
1700,47.0,0.078932745,82553
1710,46.0,0.079392044,83034
1720,47.0,0.079849632,83512
1730,46.0,0.080392324,83991
1740,46.0,0.080859321,84478
1750,47.0,0.081326318,84962
1760,47.0,0.081778347,85446
1770,47.0,0.082235935,85946
1780,47.0,0.0826978,86432
1790,46.0,0.083142559,86919
1800,46.0,0.083593733,87409
1810,47.0,0.084032932,87891
1820,46.0,0.084487099,88368
1830,45.0,0.084926298,88841
1840,46.0,0.085397999,89321
1850,49.0,0.085832494,89798
1860,49.0,0.086273405,90285
1870,47.0,0.086728427,90779
1880,48.0,0.087167627,91253
1890,49.0,0.087608965,91729
1900,48.0,0.088051158,92208
1910,49.0,0.088507892,92699
1920,47.0,0.089009529,93183
1930,47.0,0.089499192,93663
1940,48.0,0.089967044,94145
1950,48.0,0.090461411,94630
1960,48.0,0.090901038,95115
1970,47.0,0.091329974,95596
1980,49.0,0.091811939,96087
1990,46.0,0.092258409,96570
2000,48.0,0.092721129,97051
2010,47.0,0.093188126,97541
2020,47.0,0.093632029,98023
2030,46.0,0.094065242,98499
2040,46.0,0.094487336,98984
2050,46.0,0.09493295,99465
2060,47.0,0.095413632,99944
2070,48.0,0.095901584,100425
2080,48.0,0.096349337,100912
2090,46.0,0.096783405,101386
2100,47.0,0.097220894,101876
2110,47.0,0.097663087,102359
2120,47.0,0.098115971,102833
2130,46.0,0.098552177,103322
2140,46.0,0.098989666,103816
2150,46.0,0.099421168,104293
2160,47.0,0.099859512,104762
2170,47.0,0.100299994,105229
2180,48.0,0.100726364,105716
2190,49.0,0.101148885,106206
2200,48.0,0.10157611,106685
2210,47.0,0.101993927,107164
2220,47.0,0.102441252,107647
2230,48.0,0.102903545,108134
2240,48.0,0.103344882,108622
2250,48.0,0.103772107,109102
2260,48.0,0.104218576,109595
2270,48.0,0.104650077,110079
2280,49.0,0.10507046,110568
2290,48.0,0.105487849,111048
2300,49.0,0.105900107,111526
2310,49.0,0.106351708,112002
2320,47.0,0.106807158,112495
2330,48.0,0.107263464,112962
2340,47.0,0.107704374,113452
2350,46.0,0.108140152,113926
2360,45.0,0.108586194,114418
2370,46.0,0.109146419,114898
2380,46.0,0.109623679,115384
2390,46.0,0.110080412,115867
2400,46.0,0.110529448,116353
2410,47.0,0.110996017,116836
2420,47.0,0.111466435,117321
2430,48.0,0.111905207,117811
2440,46.0,0.112336282,118281
2450,47.0,0.112776765,118765
2460,44.0,0.113228367,119245
2470,46.0,0.113695792,119729
2480,45.0,0.114167066,120209
2490,48.0,0.11459814,120692
2500,48.0,0.115021944,121179
2510,46.0,0.115466275,121661
2520,46.0,0.115922581,122143
2530,46.0,0.1163528,122621
2540,46.0,0.11680654,123097
2550,45.0,0.117299196,123588
2560,49.0,0.117787148,124078
2570,47.0,0.118246875,124568
2580,47.0,0.118697193,125054
2590,47.0,0.119184717,125540
2600,47.0,0.119652997,126020
2610,47.0,0.120130686,126500
2620,45.0,0.120604526,126986
2630,45.0,0.121087347,127481
2640,46.0,0.121555199,127959
2650,46.0,0.122059829,128449
2660,48.0,0.122528965,128925
2670,47.0,0.122995535,129403
2680,45.0,0.123447137,129893
2690,46.0,0.123903442,130372
2700,45.0,0.124367446,130847
2710,47.0,0.124834871,131332
2720,46.0,0.125298874,131809
2730,47.0,0.125789392,132297
2740,46.0,0.126249547,132787
2750,47.0,0.126698155,133277
2760,48.0,0.127167291,133765
2770,47.0,0.127594089,134245
2780,49.0,0.128058948,134722
2790,49.0,0.128516537,135212
2800,49.0,0.128972842,135694
2810,48.0,0.129436845,136178
2820,49.0,0.129894006,136667
2830,48.0,0.130340903,137137
2840,48.0,0.130921655,137629
2850,47.0,0.131382665,138118
2860,47.0,0.13183897,138614
2870,49.0,0.132301263,139105
2880,49.0,0.132751581,139598
2890,48.0,0.133196767,140088
2900,48.0,0.133654356,140562
2910,46.0,0.134100826,141050
2920,47.0,0.134536604,141524
2930,46.0,0.134989061,142015
2940,46.0,0.135451354,142507
2950,45.0,0.135914074,142999
2960,46.0,0.136367386,143483
2970,46.0,0.136817276,143971
2980,46.0,0.137289832,144446
2990,46.0,0.137746565,144938
3000,46.0,0.138208858,145428
3010,48.0,0.138685691,145909
3020,49.0,0.139161241,146389
3030,46.0,0.139655608,146873
3040,48.0,0.140126453,147358
3050,47.0,0.14055881,147836
3060,49.0,0.141005708,148324
3070,46.0,0.141480402,148818
3080,49.0,0.141947826,149307
3090,48.0,0.14241183,149792
3100,49.0,0.142866425,150272
3110,47.0,0.143309046,150753
3120,46.0,0.143776898,151236
3130,47.0,0.144238763,151719
3140,47.0,0.144692075,152200
3150,48.0,0.14514667,152684
3160,47.0,0.14560212,153163
3170,48.0,0.146050728,153659
3180,48.0,0.146489928,154127
3190,48.0,0.146939819,154611
3200,47.0,0.14739698,155105
3210,47.0,0.14785799,155589
3220,50.0,0.148300611,156066
3230,48.0,0.148761621,156541
3240,47.0,0.149215788,157011
3250,48.0,0.149690055,157497
3260,50.0,0.150160473,157981
3270,47.0,0.150617634,158467
3280,48.0,0.151084203,158953
3290,46.0,0.151542647,159431
3300,46.0,0.152066521,159917
3310,49.0,0.156197648,160391
3320,48.0,0.156667638,160879
3330,46.0,0.157137201,161349
3340,47.0,0.157590941,161835
3350,47.0,0.15804126,162336
3360,47.0,0.158487729,162814
3370,47.0,0.158944462,163285
3380,48.0,0.159397774,163772
3390,48.0,0.15984125,164265
3400,47.0,0.160303971,164751
3410,47.0,0.160780376,165236
3420,47.0,0.161249939,165738
3430,46.0,0.161713515,166225
3440,46.0,0.162232258,166700
3450,46.0,0.16269284,167180
3460,45.0,0.163172667,167663
3470,46.0,0.163636243,168144
3480,46.0,0.164105378,168629
3490,45.0,0.164569809,169116
3500,46.0,0.165040227,169596
3510,46.0,0.165495677,170093
3520,46.0,0.165958825,170582
3530,46.0,0.166425822,171065
3540,47.0,0.16687999,171547
3550,48.0,0.167326459,172031
3560,46.0,0.167769935,172517
3570,46.0,0.168218543,173017
3580,47.0,0.168675276,173498
3590,47.0,0.169131154,173984
3600,46.0,0.169590453,174477
3610,46.0,0.170052318,174956
3620,46.0,0.170512044,175434
3630,47.0,0.171047038,175920
3640,47.0,0.171553379,176398
3650,47.0,0.171995144,176882
3660,48.0,0.172436482,177363
3670,47.0,0.172909038,177839
3680,47.0,0.173360212,178321
3690,46.0,0.173816517,178804
3700,46.0,0.174279237,179294
3710,48.0,0.174721002,179771
3720,48.0,0.175175169,180262
3730,49.0,0.175624204,180754
3740,48.0,0.176067252,181239
3750,46.0,0.176520992,181711
3760,46.0,0.176967034,182189
3770,47.0,0.177409655,182671
3780,48.0,0.177858691,183153
3790,46.0,0.178306016,183633
3800,48.0,0.178749064,184121
3810,47.0,0.179203232,184592
3820,46.0,0.179659537,185072
3830,48.0,0.180121402,185562
3840,48.0,0.180579418,186034
3850,46.0,0.181044704,186518
3860,47.0,0.181505714,186997
3870,47.0,0.181975277,187495
3880,47.0,0.18244484,187980
3890,46.0,0.182896869,188468
3900,47.0,0.183354458,188956
3910,47.0,0.183817178,189452
3920,48.0,0.184280754,189935
3930,46.0,0.184737488,190421
3940,46.0,0.185197642,190906
3950,45.0,0.185659935,191391
3960,45.0,0.186138478,191867
3970,46.0,0.186611462,192338
3980,47.0,0.187073327,192804
3990,46.0,0.187651941,193292
4000,45.0,0.188148446,193772
4010,43.0,0.188616299,194252
4020,44.0,0.189082013,194724
4030,45.0,0.189539173,195218
4040,46.0,0.190001466,195697
4050,46.0,0.190442377,196179
4060,47.0,0.190900821,196652
4070,45.0,0.191366108,197154
4080,47.0,0.191820703,197629
4090,46.0,0.19228599,198114
4100,46.0,0.192727328,198604
4110,46.0,0.193171231,199087
4120,46.0,0.19362882,199575
4130,45.0,0.194088547,200056
4140,45.0,0.194542715,200546
4150,45.0,0.194999021,201035
4160,46.0,0.195461314,201512
4170,46.0,0.195928739,202003
4180,45.0,0.196385045,202483
4190,47.0,0.196841778,202960
4200,47.0,0.197332723,203446
4210,48.0,0.197833504,203924
4220,47.0,0.198333003,204411
4230,47.0,0.198824376,204887
4240,46.0,0.199310617,205362
4250,48.0,0.199801134,205842
4260,48.0,0.200408829,206340
4270,49.0,0.200869411,206811
4280,49.0,0.201325716,207295
4290,48.0,0.201781166,207773
4300,49.0,0.202231484,208258
4310,48.0,0.202679665,208739
4320,49.0,0.203138965,209230
4330,47.0,0.203605962,209704
4340,46.0,0.204152075,210183
4350,47.0,0.204748651,210663
4360,47.0,0.205213937,211146
4370,45.0,0.205689487,211639
4380,46.0,0.206145365,212115
4390,46.0,0.206600387,212601
4400,47.0,0.207154197,213083
4410,46.0,0.207619911,213570
4420,46.0,0.208077927,214050
4430,49.0,0.208515843,214532
4440,47.0,0.2090812,215004
4450,47.0,0.20952767,215479
4460,47.0,0.209969435,215967
4470,48.0,0.210406496,216459
4480,48.0,0.21083757,216942
4490,47.0,0.211278053,217415
4500,48.0,0.211707844,217892
4510,47.0,0.212152603,218365
4520,47.0,0.212642694,218843
4530,48.0,0.2130789,219326
4540,46.0,0.213523659,219810
4550,47.0,0.213967563,220295
4560,46.0,0.214404196,220786
4570,46.0,0.214878891,221276
4580,45.0,0.215329637,221766
4590,47.0,0.215797489,222251
4600,47.0,0.216275605,222733
4610,48.0,0.216718226,223228
4620,48.0,0.217210027,223707
4630,46.0,0.217684294,224196
4640,47.0,0.218154285,224682
4650,46.0,0.218641382,225169
4660,47.0,0.219081436,225641
4670,47.0,0.21952876,226110
4680,46.0,0.220065465,226592
4690,49.0,0.220845932,227068
4700,47.0,0.221284704,227542
4710,47.0,0.221712357,228021
4720,48.0,0.222142576,228503
4730,49.0,0.222579638,228988
4740,49.0,0.223030384,229472
4750,49.0,0.223472149,229945
4760,49.0,0.224043066,230429
4770,50.0,0.22451434,230899
4780,49.0,0.22494798,231386
4790,48.0,0.225389318,231868
4800,48.0,0.225821675,232345
4810,47.0,0.226317325,232844
4820,47.0,0.226772347,233335
4830,46.0,0.227244903,233827
4840,47.0,0.227716605,234319
4850,47.0,0.228173766,234795
4860,47.0,0.228615104,235283
4870,47.0,0.229055158,235776
4880,47.0,0.229499489,236252
4890,47.0,0.22992757,236735
4900,47.0,0.230370618,237210
4910,47.0,0.230801264,237704
4920,46.0,0.231243457,238193
4930,46.0,0.231695059,238670
4940,48.0,0.23215222,239153
4950,47.0,0.23263675,239644
4960,47.0,0.233107168,240126
4970,48.0,0.233551072,240598
4980,46.0,0.234016786,241082
4990,48.0,0.234442728,241546
