it,funval,time,funcount
0,118.0,0.00274724200017,647
10,129.0,0.0055098790001,1203
20,136.0,0.00823916000013,1747
30,135.0,0.0110065020001,2295
40,134.0,0.0137597320002,2843
50,138.0,0.0164270030002,3394
60,144.0,0.0190604900001,3950
70,148.0,0.0216768700002,4493
80,145.0,0.0242085750003,5038
90,147.0,0.0267646560005,5590
100,148.0,0.0293036310006,6141
110,150.0,0.0318015520006,6682
120,145.0,0.0342742410007,7229
130,147.0,0.0366806440009,7779
140,148.0,0.0390601050008,8332
150,148.0,0.0414015050007,8882
160,151.0,0.0437193830007,9425
170,150.0,0.0460577890008,9975
180,153.0,0.0484487960007,10523
190,154.0,0.0507799320008,11066
200,155.0,0.0530802770008,11613
210,151.0,0.0553690760009,12161
220,155.0,0.057624945001,12713
230,156.0,0.0598850910008,13261
240,156.0,0.0621379660008,13817
250,157.0,0.0644015320008,14371
260,158.0,0.0667420770008,14917
270,157.0,0.0689932410007,15460
280,156.0,0.0712858880008,16002
290,157.0,0.0735661340009,16550
300,157.0,0.075791639001,17093
310,159.0,0.078004315001,17638
320,155.0,0.0802281100009,18184
330,155.0,0.0824437800009,18735
340,156.0,0.0846628710008,19287
350,159.0,0.0868930810009,19833
360,159.0,0.0891036190008,20381
370,157.0,0.0913624810007,20930
380,157.0,0.0935896970007,21480
390,156.0,0.0958263210007,22027
400,157.0,0.0980813340007,22583
410,156.0,0.100360724001,23135
420,153.0,0.102632844001,23681
430,154.0,0.104873745001,24230
440,156.0,0.107112935001,24780
450,154.0,0.109303801001,25325
460,154.0,0.111560097001,25877
470,155.0,0.113833928001,26431
480,155.0,0.116068842001,26979
490,154.0,0.118278097001,27531
500,154.0,0.120471957001,28078
510,152.0,0.122673941001,28621
520,154.0,0.124912276001,29176
530,151.0,0.127093734001,29727
540,152.0,0.129294008001,30277
550,153.0,0.131527211001,30829
560,152.0,0.133762125001,31375
570,151.0,0.135961544001,31920
580,151.0,0.138153693001,32466
590,152.0,0.140337716001,33013
600,151.0,0.142543550001,33559
610,151.0,0.144737409001,34112
620,152.0,0.146936400001,34662
630,154.0,0.149147366001,35214
640,155.0,0.151350634001,35765
650,154.0,0.153555613001,36314
660,155.0,0.155994945001,36861
670,154.0,0.158349174001,37416
680,154.0,0.160574680001,37962
690,155.0,0.162793771001,38516
700,153.0,0.165344720001,39062
710,154.0,0.167524895001,39615
720,156.0,0.169796587001,40159
730,155.0,0.172230360001,40707
740,154.0,0.174473827001,41261
750,154.0,0.176714728001,41814
760,154.0,0.178899606001,42358
770,155.0,0.181305581001,42905
780,156.0,0.183518684001,43457
790,157.0,0.185691161001,44007
800,156.0,0.187884593001,44557
810,157.0,0.190096842001,45100
820,154.0,0.192273595001,45646
830,154.0,0.194450776001,46189
840,153.0,0.196618121001,46741
850,153.0,0.198796585001,47283
860,154.0,0.200991300001,47837
870,154.0,0.203314738001,48381
880,154.0,0.205522710001,48932
890,155.0,0.207757624001,49484
900,157.0,0.210031454001,50036
910,155.0,0.212286895001,50582
920,154.0,0.214511118001,51135
930,155.0,0.216864919001,51681
940,154.0,0.219059206001,52235
950,156.0,0.221269316001,52783
960,155.0,0.223445641001,53335
970,155.0,0.225765230001,53880
980,154.0,0.228106201001,54430
990,154.0,0.230408256001,54975
1000,154.0,0.232596555001,55519
1010,155.0,0.234856273001,56072
1020,154.0,0.237186982001,56622
1030,154.0,0.239439430001,57177
1040,155.0,0.241651251001,57718
1050,152.0,0.243927647001,58265
1060,153.0,0.246285725001,58812
1070,156.0,0.248533040001,59362
1080,154.0,0.250804732001,59913
1090,153.0,0.253081556001,60468
1100,154.0,0.255263869001,61018
1110,153.0,0.257489802001,61565
1120,154.0,0.259912028001,62115
1130,155.0,0.262166186001,62662
1140,152.0,0.264501171001,63220
1150,152.0,0.266743355001,63766
1160,152.0,0.268984684001,64311
1170,152.0,0.271257659001,64855
1180,152.0,0.273617448001,65389
1190,153.0,0.275853217001,65940
1200,153.0,0.278103526001,66492
1210,153.0,0.280305511001,67039
1220,154.0,0.282551544001,67581
1230,156.0,0.284763365001,68127
1240,154.0,0.287005121001,68678
1250,155.0,0.289372179001,69230
1260,155.0,0.291598968001,69780
1270,155.0,0.293880924002,70327
1280,154.0,0.296104719002,70880
1290,155.0,0.298343482001,71430
1300,155.0,0.300623299001,71973
1310,154.0,0.302854791001,72523
1320,152.0,0.305065756002,73074
1330,152.0,0.307333172002,73627
1340,153.0,0.309618549002,74158
1350,152.0,0.311833791002,74712
1360,153.0,0.314226509002,75260
1370,153.0,0.316455009002,75808
1380,154.0,0.318746801001,76358
1390,154.0,0.321007802002,76910
1400,154.0,0.323219195001,77467
1410,154.0,0.325446839001,78021
1420,155.0,0.327661653002,78570
1430,154.0,0.329873902002,79121
1440,155.0,0.332097697001,79677
1450,154.0,0.334386495002,80228
1460,155.0,0.336549991002,80783
1470,155.0,0.338748127002,81341
1480,156.0,0.340955671002,81896
1490,154.0,0.343190157002,82449
1500,154.0,0.345414808002,83002
1510,154.0,0.347804960002,83543
1520,156.0,0.350095041002,84091
1530,153.0,0.352368871002,84639
1540,155.0,0.354602929002,85186
1550,155.0,0.356847251002,85737
1560,157.0,0.359072757002,86285
1570,157.0,0.361297407002,86829
1580,155.0,0.363598179002,87383
1590,153.0,0.365848488002,87932
1600,155.0,0.368250614001,88482
1610,155.0,0.370560367001,89031
1620,153.0,0.372768339001,89572
1630,155.0,0.375054143002,90126
1640,157.0,0.377297610002,90674
1650,157.0,0.379643286002,91227
1660,158.0,0.381855106001,91787
1670,157.0,0.384082750002,92345
1680,157.0,0.386451947002,92889
1690,158.0,0.388774102002,93431
1700,159.0,0.391003457002,93988
1710,158.0,0.393192612002,94538
1720,158.0,0.395481838002,95087
1730,158.0,0.397653031002,95642
1740,158.0,0.400151807002,96186
1750,158.0,0.402401261002,96729
1760,157.0,0.404709304002,97273
1770,158.0,0.407002379002,97831
1780,157.0,0.409414769002,98377
1790,154.0,0.411687316002,98927
1800,157.0,0.413970982002,99478
1810,155.0,0.416900405002,100025
1820,156.0,0.419137457001,100578
1830,153.0,0.421704657001,101126
1840,153.0,0.424061024001,101662
1850,155.0,0.426390450001,102213
1860,153.0,0.428692078001,102758
1870,153.0,0.430977455001,103305
1880,154.0,0.433200823001,103852
1890,151.0,0.435459686001,104408
1900,153.0,0.437695027001,104954
1910,152.0,0.440038137001,105503
1920,153.0,0.442332067001,106061
1930,153.0,0.444617872001,106606
1940,151.0,0.446872031001,107157
1950,150.0,0.449100102001,107704
1960,153.0,0.451406006001,108253
1970,150.0,0.453616971001,108807
1980,152.0,0.456001136001,109350
1990,151.0,0.458213384001,109888
2000,152.0,0.460452147001,110437
2010,151.0,0.462660974001,110989
2020,150.0,0.464895033001,111541
2030,149.0,0.467182976001,112089
2040,149.0,0.469467070001,112636
2050,151.0,0.471696425001,113192
2060,151.0,0.474024139001,113734
2070,149.0,0.476354848001,114286
2080,150.0,0.478585058001,114839
2090,150.0,0.480805859001,115388
2100,152.0,0.483007843001,115938
2110,151.0,0.485214104001,116485
2120,149.0,0.487445169001,117030
2130,151.0,0.490070102001,117580
2140,150.0,0.492402949001,118130
2150,150.0,0.494989393001,118672
2160,149.0,0.497382967,119218
2170,148.0,0.49967091,119770
2180,149.0,0.502030698,120318
2190,149.0,0.504301962,120863
2200,150.0,0.506556548,121425
2210,150.0,0.508803009,121977
2220,151.0,0.511023383,122522
2230,151.0,0.513277969,123072
2240,150.0,0.515499626,123622
2250,151.0,0.517730691,124163
2260,149.0,0.519989981,124713
2270,150.0,0.522221046,125265
2280,150.0,0.52455603,125814
2290,152.0,0.52680805,126362
2300,149.0,0.529098559,126922
2310,149.0,0.531327485,127478
2320,150.0,0.533514502,128021
2330,150.0,0.535740863,128566
2340,151.0,0.537962092,129115
2350,149.0,0.540207698,129665
2360,147.0,0.542453304,130216
2370,149.0,0.54473697,130762
2380,149.0,0.546979581,131308
2390,150.0,0.549262392,131847
2400,149.0,0.551521255001,132391
2410,150.0,0.553793802001,132938
2420,148.0,0.556067632001,133486
2430,150.0,0.558342318001,134038
2440,150.0,0.560624702001,134580
2450,151.0,0.562889124001,135126
2460,152.0,0.565142427001,135681
2470,152.0,0.567386322001,136227
2480,153.0,0.569681962001,136768
2490,153.0,0.571945101001,137317
2500,152.0,0.574217648001,137867
2510,152.0,0.576443153001,138418
2520,151.0,0.578697312,138966
2530,151.0,0.580966011001,139511
2540,152.0,0.583196648001,140058
2550,153.0,0.585591932001,140610
2560,152.0,0.587836682001,141158
2570,153.0,0.590218709001,141703
2580,153.0,0.592466881001,142257
2590,153.0,0.594763377001,142799
2600,152.0,0.597063295001,143346
2610,152.0,0.599324296001,143895
2620,152.0,0.601987290001,144442
2630,155.0,0.604323130001,144989
2640,154.0,0.606588835001,145535
2650,156.0,0.608901581001,146089
2660,154.0,0.611700569001,146642
2670,154.0,0.613994927001,147186
2680,154.0,0.616555285001,147737
2690,155.0,0.618779508001,148288
2700,157.0,0.621345853001,148839
2710,157.0,0.623647053001,149387
2720,156.0,0.626657302001,149927
2730,156.0,0.628899059001,150473
2740,157.0,0.631245590001,151026
2750,156.0,0.633866674001,151575
2760,155.0,0.636114418001,152125
2770,156.0,0.638377557001,152675
2780,158.0,0.640961864001,153213
2790,157.0,0.643426000001,153765
2800,157.0,0.645630979001,154315
2810,156.0,0.648449640001,154865
2820,156.0,0.650758538001,155413
2830,156.0,0.653135005001,155963
2840,156.0,0.655468707001,156509
2850,158.0,0.657780171001,157053
2860,157.0,0.660220786001,157614
2870,157.0,0.662532250001,158163
2880,157.0,0.665583553001,158706
2890,157.0,0.667856100001,159257
2900,158.0,0.670080323001,159813
2910,158.0,0.672422150001,160361
2920,158.0,0.674761411002,160908
2930,159.0,0.676942869002,161467
2940,159.0,0.679167519002,162021
2950,157.0,0.681445198002,162577
2960,159.0,0.683744260002,163123
2970,159.0,0.686037335002,163668
2980,158.0,0.688284223002,164222
2990,159.0,0.690568745002,164777
3000,157.0,0.692818199002,165329
3010,159.0,0.695053541002,165872
3020,156.0,0.697335925002,166420
3030,155.0,0.699578536002,166971
3040,157.0,0.701863485002,167520
3050,156.0,0.704076589002,168072
3060,156.0,0.706316635002,168618
3070,157.0,0.708510494002,169163
3080,157.0,0.710752250002,169715
3090,157.0,0.713014962002,170263
3100,157.0,0.715274253002,170813
3110,157.0,0.717549366002,171363
3120,157.0,0.719738521002,171913
3130,159.0,0.722082914001,172461
3140,157.0,0.724387963001,173012
3150,158.0,0.726637417001,173572
3160,158.0,0.728875752001,174121
3170,161.0,0.731237251001,174670
3180,159.0,0.733490982002,175222
3190,158.0,0.735769517001,175773
3200,158.0,0.738122463001,176323
3210,159.0,0.740345402001,176868
3220,159.0,0.742566631001,177416
3230,159.0,0.744918294002,177965
3240,158.0,0.747180150001,178510
3250,159.0,0.749486054001,179048
3260,157.0,0.751693170001,179595
3270,154.0,0.753963579001,180150
3280,155.0,0.756207046001,180689
3290,155.0,0.758424426001,181238
3300,159.0,0.760767536001,181779
3310,157.0,0.762996891001,182332
3320,155.0,0.765320329001,182874
3330,156.0,0.767653175001,183427
3340,156.0,0.769961218001,183977
3350,156.0,0.772256431001,184519
3360,156.0,0.774499898001,185063
3370,156.0,0.776762182001,185612
3380,158.0,0.779033447001,186164
3390,157.0,0.781274348001,186720
3400,156.0,0.783574265001,187268
3410,157.0,0.785764275001,187815
3420,157.0,0.788041099001,188373
3430,158.0,0.790278579002,188924
3440,159.0,0.792486123002,189482
3450,158.0,0.794701365002,190018
3460,159.0,0.800952368002,190571
3470,160.0,0.803229619002,191122
3480,159.0,0.805472231002,191676
3490,158.0,0.807718264002,192227
3500,159.0,0.809980548002,192789
3510,158.0,0.812237700002,193344
3520,161.0,0.814525643002,193887
3530,157.0,0.816816152002,194442
3540,156.0,0.819178507002,194986
3550,157.0,0.821392039002,195536
3560,157.0,0.823576917002,196090
3570,159.0,0.825813969002,196634
3580,157.0,0.828040329002,197184
3590,158.0,0.830291922002,197732
3600,159.0,0.832536245002,198272
3610,156.0,0.834791687002,198817
3620,159.0,0.837043707002,199367
3630,158.0,0.839327801002,199922
3640,158.0,0.841731638002,200465
3650,160.0,0.844002474002,201007
3660,159.0,0.846289989002,201551
3670,159.0,0.848582636002,202101
3680,159.0,0.850920614002,202647
3690,159.0,0.853156383002,203195
3700,159.0,0.855420377002,203745
3710,159.0,0.857680522002,204298
3720,160.0,0.859892343002,204851
3730,158.0,0.862105447002,205400
3740,159.0,0.864322828002,205947
3750,159.0,0.866615475002,206495
3760,158.0,0.868836704002,207040
3770,158.0,0.871122081002,207583
3780,160.0,0.873362555002,208136
3790,159.0,0.875650071002,208677
3800,157.0,0.877875149002,209234
3810,156.0,0.880164802002,209782
3820,159.0,0.882494227002,210328
3830,158.0,0.884831350002,210878
3840,157.0,0.887191139002,211430
3850,158.0,0.889529118002,211973
3860,158.0,0.892598811002,212528
3870,157.0,0.894911558001,213073
3880,156.0,0.897131504001,213631
3890,154.0,0.899400203001,214174
3900,155.0,0.901650513001,214714
3910,156.0,0.903935463001,215269
3920,157.0,0.906175081001,215823
3930,156.0,0.908406574001,216373
3940,157.0,0.910669713001,216924
3950,158.0,0.913084241001,217469
3960,157.0,0.915252441001,218021
3970,159.0,0.917411661001,218571
3980,158.0,0.919594402001,219118
3990,158.0,0.921781846001,219667
4000,159.0,0.923986396001,220212
4010,158.0,0.926196079001,220759
4020,159.0,0.928392076001,221305
4030,158.0,0.930615871001,221850
4040,159.0,0.932829830001,222393
4050,160.0,0.935046355001,222946
4060,158.0,0.937260741001,223500
4070,158.0,0.939481543001,224044
4080,159.0,0.941856727001,224591
4090,160.0,0.944139110001,225146
4100,159.0,0.946412941001,225687
4110,159.0,0.948676508001,226237
4120,159.0,0.951019618001,226791
4130,160.0,0.953299436001,227330
4140,159.0,0.955524941001,227876
4150,158.0,0.957877460001,228428
4160,157.0,0.960202609001,228988
4170,159.0,0.962437950001,229541
4180,162.0,0.964719478001,230093
4190,161.0,0.966998868001,230641
4200,159.0,0.969229506001,231185
4210,158.0,0.971488369001,231736
4220,158.0,0.973771180001,232291
4230,157.0,0.976056129001,232847
4240,159.0,0.978332953001,233390
4250,159.0,0.980632015001,233933
4260,160.0,0.982941341,234483
4270,161.0,0.985213888001,235029
4280,160.0,0.987485153001,235577
4290,160.0,0.989757701,236123
4300,161.0,0.992000741,236665
4310,161.0,0.994252333,237215
4320,162.0,0.996521887,237766
4330,164.0,0.99877519,238310
4340,164.0,1.001063988,238858
4350,163.0,1.00332114,239400
4360,163.0,1.005599247,239953
4370,164.0,1.007807219,240487
4380,164.0,1.010073352,241032
4390,164.0,1.01233307,241583
4400,164.0,1.014575682,242132
4410,165.0,1.016829413,242683
4420,165.0,1.019168246,243234
4430,164.0,1.021453623,243782
4440,163.0,1.023734296,244331
4450,164.0,1.025996152,244881
4460,163.0,1.028260574,245430
4470,164.0,1.030641317,245984
4480,162.0,1.0329237,246532
4490,161.0,1.035203945,247084
4500,161.0,1.037468795,247629
4510,160.0,1.039765718,248171
4520,160.0,1.041971979,248722
4530,159.0,1.044232125,249274
4540,159.0,1.046523917,249824
4550,158.0,1.048791333,250380
4560,158.0,1.051080132,250936
4570,156.0,1.053374489,251485
4580,159.0,1.055649603,252036
4590,156.0,1.057870832,252574
4600,156.0,1.060219074,253124
4610,156.0,1.06246639,253670
4620,155.0,1.064728246,254214
4630,155.0,1.066971286,254764
4640,154.0,1.06921347,255313
4650,155.0,1.07138723,255862
4660,154.0,1.073635829,256411
4670,154.0,1.075961834,256959
4680,154.0,1.078202308,257516
4690,155.0,1.080439788,258068
4700,155.0,1.082696085,258621
4710,154.0,1.084977186,259175
4720,154.0,1.087147953,259719
4730,155.0,1.089334542,260265
4740,154.0,1.091518138,260810
4750,155.0,1.093732952,261357
4760,156.0,1.095987538,261909
4770,157.0,1.098399928,262459
4780,155.0,1.100598919,263011
4790,154.0,1.102831695,263561
4800,155.0,1.105031541,264105
4810,154.0,1.107247639,264652
4820,155.0,1.109465019,265207
4830,155.0,1.111661872,265757
4840,157.0,1.113951525,266299
4850,156.0,1.116202262,266855
4860,156.0,1.11851843,267404
4870,156.0,1.120779003,267954
4880,157.0,1.123054544,268503
4890,157.0,1.125334789,269048
4900,156.0,1.127645825,269599
4910,159.0,1.129929064,270141
4920,158.0,1.132254213,270686
4930,156.0,1.134551992,271240
4940,156.0,1.136862173,271786
4950,156.0,1.13914755,272338
4960,155.0,1.141423946,272888
4970,155.0,1.143657577,273433
4980,156.0,1.145945093,273974
4990,157.0,1.148274518,274524
