it,funval,time,funcount
0,272.0,0.00477773900002,645
10,276.0,0.00961278300019,1193
20,284.0,0.0143464729999,1741
30,279.0,0.0194346870003,2284
40,287.0,0.0242051550003,2829
50,294.0,0.0289944400001,3369
60,291.0,0.0337726060006,3919
70,292.0,0.0384507010003,4464
80,292.0,0.043082182,5014
90,286.0,0.0477055369993,5555
100,294.0,0.0523105029988,6119
110,290.0,0.0569163239988,6668
120,292.0,0.0613254259988,7230
130,292.0,0.0657417969987,7789
140,299.0,0.0701466219989,8339
150,296.0,0.074580954999,8882
160,298.0,0.078937027999,9437
170,295.0,0.0832332279988,9985
180,296.0,0.087450312999,10535
190,295.0,0.0917512179994,11080
200,297.0,0.0959127079996,11632
210,300.0,0.100333355999,12184
220,300.0,0.104371255,12738
230,298.0,0.109221694,13288
240,299.0,0.113350255,13843
250,299.0,0.117215382,14399
260,301.0,0.121152782001,14951
270,301.0,0.125067089,15499
280,301.0,0.128933498001,16050
290,304.0,0.133146307001,16596
300,301.0,0.137020415001,17139
310,302.0,0.140828237,17689
320,301.0,0.144690798,18242
330,303.0,0.148456282,18792
340,301.0,0.152294039,19340
350,303.0,0.156324667,19891
360,301.0,0.160212032,20448
370,301.0,0.164002747,20998
380,301.0,0.16789225,21548
390,300.0,0.171691946,22088
400,302.0,0.175490358999,22634
410,303.0,0.179814356999,23184
420,302.0,0.183676917999,23729
430,302.0,0.187525365999,24267
440,306.0,0.191357563998,24820
450,302.0,0.197653469999,25367
460,305.0,0.201502345999,25909
470,301.0,0.205327702,26466
480,301.0,0.209130818999,27012
490,301.0,0.212952753,27561
500,301.0,0.216730210999,28105
510,302.0,0.22058208,28648
520,301.0,0.224391612,29201
530,303.0,0.228219961,29750
540,304.0,0.231944818,30298
550,303.0,0.235827478,30842
560,306.0,0.240135654,31396
570,306.0,0.243990517,31948
580,305.0,0.247742744,32494
590,306.0,0.251572376,33047
600,306.0,0.255525598999,33598
610,305.0,0.259387304999,34143
620,306.0,0.263187428999,34692
630,307.0,0.266971728999,35241
640,307.0,0.270848402999,35797
650,307.0,0.274616452999,36346
660,307.0,0.278977657999,36897
670,305.0,0.282991179999,37448
680,304.0,0.286849464,37992
690,306.0,0.291224781,38542
700,307.0,0.295085631,39092
710,307.0,0.299046552999,39638
720,309.0,0.303375682999,40191
730,307.0,0.307200182999,40742
740,308.0,0.311019550999,41284
750,310.0,0.314915040999,41831
760,309.0,0.318758784999,42383
770,309.0,0.322807803,42936
780,312.0,0.326629309,43493
790,313.0,0.330375121,44042
800,314.0,0.334217153999,44590
810,312.0,0.338009579998,45137
820,311.0,0.341838355999,45680
830,313.0,0.345716311999,46225
840,312.0,0.349677232999,46778
850,312.0,0.353460677999,47330
860,311.0,0.357304421998,47886
870,311.0,0.361143034998,48425
880,311.0,0.365056058999,48976
890,311.0,0.368958818999,49529
900,313.0,0.372796148999,50087
910,311.0,0.376595416998,50638
920,310.0,0.380456694998,51193
930,311.0,0.384323959998,51738
940,313.0,0.388236983998,52290
950,313.0,0.392161981998,52837
960,311.0,0.396140008998,53382
970,312.0,0.399908913999,53928
980,312.0,0.403734695999,54474
990,312.0,0.407528403998,55027
1000,310.0,0.411691176998,55575
1010,312.0,0.419017726997,56128
1020,309.0,0.422933315997,56685
1030,313.0,0.426696661997,57236
1040,309.0,0.430539122997,57781
1050,309.0,0.434626201997,58332
1060,309.0,0.438372868997,58890
1070,309.0,0.442178551997,59435
1080,310.0,0.445953443997,59981
1090,312.0,0.449717644997,60525
1100,310.0,0.453560106997,61070
1110,310.0,0.457404706997,61612
1120,311.0,0.461210817998,62161
1130,312.0,0.465025053998,62702
1140,311.0,0.468729382997,63245
1150,310.0,0.472458087997,63799
1160,311.0,0.476172252997,64348
1170,312.0,0.479804735997,64892
1180,312.0,0.483635222997,65449
1190,313.0,0.487478111997,65999
1200,312.0,0.491275241997,66540
1210,312.0,0.495074509997,67090
1220,313.0,0.498841703997,67649
1230,311.0,0.502694855997,68193
1240,310.0,0.506381651998,68741
1250,309.0,0.510824965998,69286
1260,310.0,0.514674268998,69823
1270,311.0,0.518823356997,70376
1280,309.0,0.522578149998,70929
1290,310.0,0.526346627998,71476
1300,314.0,0.530115104997,72016
1310,309.0,0.534325347997,72552
1320,310.0,0.538045072996,73102
1330,311.0,0.541762231996,73651
1340,311.0,0.545440901997,74195
1350,310.0,0.549165758996,74751
1360,313.0,0.553025753997,75296
1370,310.0,0.557283893996,75848
1380,311.0,0.560942464997,76398
1390,311.0,0.564904668997,76946
1400,313.0,0.569047342997,77498
1410,314.0,0.572780324997,78044
1420,315.0,0.576547091996,78595
1430,313.0,0.580569594997,79149
1440,314.0,0.584441563997,79699
1450,312.0,0.588322086997,80250
1460,313.0,0.592170106997,80796
1470,313.0,0.596397027997,81339
1480,313.0,0.600184749997,81886
1490,313.0,0.604398841997,82444
1500,315.0,0.608264396997,82993
1510,314.0,0.612091889997,83535
1520,318.0,0.616313679997,84087
1530,314.0,0.620085150997,84635
1540,314.0,0.624368521996,85185
1550,316.0,0.628189172996,85735
1560,317.0,0.631999559996,86286
1570,316.0,0.636240165996,86841
1580,315.0,0.640341356996,87391
1590,316.0,0.644309547996,87938
1600,316.0,0.648513802996,88491
1610,316.0,0.652168951996,89031
1620,316.0,0.655951113996,89583
1630,318.0,0.659866276996,90134
1640,314.0,0.663608667996,90676
1650,316.0,0.667437015995,91225
1660,316.0,0.671212763996,91772
1670,313.0,0.675170262996,92328
1680,313.0,0.678993906996,92875
1690,313.0,0.683326457995,93422
1700,315.0,0.687093651995,93967
1710,313.0,0.690872820996,94523
1720,313.0,0.694648140996,95071
1730,313.0,0.698575277996,95623
1740,312.0,0.702354873996,96178
1750,310.0,0.706261054997,96728
1760,313.0,0.710166380996,97276
1770,312.0,0.714296652996,97827
1780,313.0,0.718199840996,98372
1790,313.0,0.722098324996,98920
1800,313.0,0.726305574996,99467
1810,313.0,0.730137344996,100014
1820,312.0,0.733959706997,100560
1830,314.0,0.737825688997,101109
1840,315.0,0.741613837997,101655
1850,313.0,0.745502057996,102201
1860,311.0,0.749294483997,102751
1870,313.0,0.753075790997,103299
1880,310.0,0.756822884997,103844
1890,310.0,0.760635838997,104393
1900,309.0,0.764706666997,104946
1910,310.0,0.768536726997,105494
1920,311.0,0.772321454996,106044
1930,309.0,0.776077102996,106589
1940,310.0,0.779813505997,107144
1950,310.0,0.783620044996,107694
1960,311.0,0.787460367997,108240
1970,310.0,0.791153149996,108784
1980,311.0,0.794955411996,109335
1990,313.0,0.798862875996,109886
2000,310.0,0.803003410996,110438
2010,311.0,0.807101180996,110977
2020,311.0,0.811397808996,111521
2030,311.0,0.815201780996,112069
2040,313.0,0.818994634996,112628
2050,311.0,0.822830680996,113163
2060,312.0,0.826653897996,113719
2070,314.0,0.830504056996,114270
2080,312.0,0.834253716996,114814
2090,313.0,0.838149206995,115354
2100,311.0,0.841931368996,115902
2110,310.0,0.845704122995,116448
2120,312.0,0.849602178995,117000
2130,310.0,0.853400164995,117546
2140,311.0,0.857095940995,118092
2150,313.0,0.860913170995,118639
2160,313.0,0.864639738996,119188
2170,311.0,0.868417623996,119736
2180,312.0,0.872277191996,120289
2190,312.0,0.875972539995,120842
2200,312.0,0.879714502995,121392
2210,314.0,0.883429523995,121946
2220,313.0,0.887321592994,122495
2230,311.0,0.891575455995,123037
2240,311.0,0.895385414995,123591
2250,312.0,0.899576840995,124136
2260,312.0,0.903793925995,124685
2270,311.0,0.907640663995,125232
2280,313.0,0.911791890995,125789
2290,310.0,0.915663431995,126335
2300,311.0,0.919678664995,126884
2310,313.0,0.923795251996,127434
2320,313.0,0.927618040996,127994
2330,312.0,0.931930064997,128543
2340,315.0,0.935784927997,129091
2350,315.0,0.939655613997,129642
2360,315.0,0.943892798997,130181
2370,315.0,0.947720719997,130730
2380,314.0,0.951587557997,131274
2390,316.0,0.955517688997,131823
2400,315.0,0.959376828997,132375
2410,314.0,0.963093132997,132924
2420,312.0,0.966870590996,133466
2430,315.0,0.970621534996,134018
2440,313.0,0.974456725996,134568
2450,313.0,0.978281652996,135114
2460,315.0,0.982051840996,135665
2470,314.0,0.985880189996,136207
2480,315.0,0.989748737996,136756
2490,315.0,0.993525339995,137307
2500,316.0,0.997351977996,137861
2510,316.0,1.001082822,138409
2520,316.0,1.005313592,138963
2530,318.0,1.009179147,139507
2540,317.0,1.013275634,140052
2550,317.0,1.017092864,140599
2560,319.0,1.020878875,141150
2570,317.0,1.024684986,141698
2580,319.0,1.028589457,142242
2590,316.0,1.032333558,142800
2600,317.0,1.036078942,143347
2610,318.0,1.040007361,143894
2620,316.0,1.043696723,144442
2630,318.0,1.047469477,144988
2640,318.0,1.05131151,145532
2650,318.0,1.055238219,146084
2660,316.0,1.059264999,146630
2670,315.0,1.063135686,147178
2680,315.0,1.066886629,147727
2690,316.0,1.074343612,148272
2700,316.0,1.078076166,148819
2710,318.0,1.081794608,149369
2720,316.0,1.085632365,149919
2730,317.0,1.089445746,150464
2740,317.0,1.093874519,151014
2750,318.0,1.097608785,151566
2760,316.0,1.101358445,152108
2770,314.0,1.105388646,152653
2780,315.0,1.109129325,153204
2790,313.0,1.113264728,153756
2800,315.0,1.117210253,154304
2810,314.0,1.121126698,154856
2820,314.0,1.124937513,155409
2830,315.0,1.128662369,155964
2840,314.0,1.132589078,156516
2850,314.0,1.136429401,157068
2860,317.0,1.140240216,157615
2870,316.0,1.144110902,158173
2880,315.0,1.148370752,158720
2890,317.0,1.152128965,159266
2900,317.0,1.15595945199,159821
2910,315.0,1.159723652,160368
2920,315.0,1.163467753,160917
2930,315.0,1.167181491,161460
2940,315.0,1.171361371,161999
2950,314.0,1.175135836,162551
2960,315.0,1.178946223,163099
2970,314.0,1.18273736499,163644
2980,314.0,1.18652123799,164197
2990,313.0,1.19030468299,164748
3000,314.0,1.19402740099,165294
3010,315.0,1.197799727,165843
3020,314.0,1.201552381,166385
3030,313.0,1.205234044,166936
3040,313.0,1.208998245,167488
3050,312.0,1.21279195299,168031
3060,313.0,1.216619018,168576
3070,312.0,1.220412299,169135
3080,313.0,1.2241564,169681
3090,313.0,1.22797149099,170241
3100,312.0,1.231766055,170792
3110,312.0,1.23548962799,171337
3120,312.0,1.23926452,171880
3130,314.0,1.24303941199,172427
3140,313.0,1.24691352,172982
3150,312.0,1.25085092,173535
3160,312.0,1.254890101,174079
3170,313.0,1.258941257,174617
3180,314.0,1.26287267,175164
3190,311.0,1.266889614,175722
3200,313.0,1.270633287,176267
3210,313.0,1.274502263,176818
3220,310.0,1.278254062,177360
3230,311.0,1.28220643,177911
3240,310.0,1.286069418,178464
3250,309.0,1.289944808,179024
3260,309.0,1.29366881,179572
3270,310.0,1.297666936,180114
3280,312.0,1.301684307,180671
3290,311.0,1.305679012,181225
3300,310.0,1.30952746,181779
3310,310.0,1.313429365,182318
3320,310.0,1.31743519,182862
3330,311.0,1.321661256,183406
3340,312.0,1.325531087,183958
3350,309.0,1.32939108199,184506
3360,310.0,1.33332591599,185054
3370,310.0,1.33738263199,185598
3380,309.0,1.34126871399,186148
3390,309.0,1.34528266399,186692
3400,309.0,1.35007665299,187236
3410,312.0,1.35394263499,187794
3420,307.0,1.35799421799,188352
3430,307.0,1.36204152499,188901
3440,307.0,1.36584549799,189446
3450,305.0,1.36976921299,189995
3460,306.0,1.37351758999,190547
3470,305.0,1.37740709299,191092
3480,306.0,1.38129402999,191637
3490,307.0,1.38516343299,192179
3500,305.0,1.38893704199,192724
3510,307.0,1.39292020099,193275
3520,306.0,1.396784473,193817
3530,307.0,1.40071118199,194365
3540,306.0,1.404503608,194920
3550,307.0,1.40827123,195463
3560,308.0,1.412184681,196012
3570,307.0,1.416178959,196557
3580,308.0,1.419977799,197112
3590,307.0,1.423884836,197650
3600,306.0,1.427902208,198200
3610,306.0,1.431655718,198744
3620,305.0,1.435582427,199292
3630,305.0,1.439561737,199837
3640,306.0,1.443421732,200387
3650,305.0,1.447494698,200930
3660,306.0,1.451322191,201476
3670,308.0,1.455097083,202029
3680,305.0,1.459120869,202573
3690,304.0,1.463184426,203125
3700,307.0,1.467085476,203668
3710,306.0,1.471207194,204207
3720,307.0,1.475206604,204754
3730,304.0,1.479190619,205303
3740,307.0,1.483101077,205866
3750,308.0,1.487068412,206405
3760,307.0,1.491263259,206952
3770,306.0,1.495019334,207507
3780,305.0,1.498884034,208055
3790,307.0,1.502717942,208604
3800,304.0,1.506505236,209155
3810,311.0,1.51036908,209706
3820,308.0,1.514256445,210266
3830,307.0,1.518365334,210817
3840,307.0,1.52236004,211363
3850,305.0,1.526109272,211913
3860,304.0,1.530180528,212456
3870,306.0,1.534058485,213004
3880,308.0,1.538413702,213552
3890,307.0,1.542202279,214098
3900,307.0,1.546169615,214647
3910,306.0,1.550157478,215195
3920,306.0,1.554096589,215740
3930,307.0,1.558068202,216286
3940,308.0,1.561974384,216843
3950,308.0,1.56605975199,217391
3960,311.0,1.56987099399,217940
3970,311.0,1.57376049699,218485
3980,312.0,1.57748834699,219040
3990,311.0,1.58143344499,219596
4000,311.0,1.58521860099,220140
4010,311.0,1.58942371199,220689
4020,312.0,1.59320288099,221240
4030,311.0,1.597048336,221803
4040,312.0,1.600925865,222353
4050,312.0,1.604716153,222898
4060,311.0,1.60844828,223444
4070,313.0,1.612276629,223997
4080,310.0,1.616457791,224548
4090,314.0,1.620187352,225104
4100,312.0,1.623994746,225652
4110,312.0,1.627771776,226206
4120,314.0,1.631615948,226749
4130,316.0,1.635404953,227297
4140,316.0,1.63919182,227842
4150,315.0,1.64297184399,228385
4160,315.0,1.646777955,228930
4170,318.0,1.650675155,229478
4180,317.0,1.654449192,230035
4190,318.0,1.658259579,230582
4200,316.0,1.662092632,231129
4210,317.0,1.665858116,231687
4220,317.0,1.669677484,232236
4230,318.0,1.673538762,232786
4240,320.0,1.677410304,233342
4250,315.0,1.681714203,233897
4260,317.0,1.685681539,234446
4270,316.0,1.689607821,234994
4280,315.0,1.693572591,235545
4290,314.0,1.697642136,236090
4300,315.0,1.701576543,236640
4310,314.0,1.705537037,237188
4320,316.0,1.709473154,237735
4330,314.0,1.713450754,238288
4340,313.0,1.717335981,238830
4350,314.0,1.721382005,239383
4360,315.0,1.725072221,239931
4370,313.0,1.731939044,240479
4380,313.0,1.735720778,241026
4390,313.0,1.739501658,241568
4400,313.0,1.743282965,242112
4410,314.0,1.74705914,242657
4420,314.0,1.750835743,243198
4430,315.0,1.754631162,243746
4440,315.0,1.758367566,244290
4450,315.0,1.762162131,244839
4460,315.0,1.765896396,245386
4470,315.0,1.769633655,245932
4480,314.0,1.773402988,246478
4490,314.0,1.777205249,247029
4500,315.0,1.780933527,247573
4510,315.0,1.784747336,248113
4520,314.0,1.788520945,248660
4530,317.0,1.792648224,249208
4540,314.0,1.796405582,249759
4550,315.0,1.800140275,250305
4560,315.0,1.804018231,250858
4570,314.0,1.80787395,251409
4580,317.0,1.811634302,251954
4590,319.0,1.815466071,252508
4600,318.0,1.819245667,253056
4610,319.0,1.823115498,253601
4620,320.0,1.82698875,254145
4630,319.0,1.830775617,254691
4640,320.0,1.834553075,255243
4650,320.0,1.838227896,255790
4660,320.0,1.841956174,256338
4670,319.0,1.845633133,256886
4680,319.0,1.849360128,257430
4690,320.0,1.853073011,257974
4700,323.0,1.857136997,258528
4710,318.0,1.860899487,259078
4720,318.0,1.864634179,259630
4730,317.0,1.868353904,260173
4740,318.0,1.872103137,260720
4750,318.0,1.875793781,261273
4760,319.0,1.879602885,261826
4770,320.0,1.883743848,262374
4780,320.0,1.887586737,262925
4790,319.0,1.891468115,263467
4800,320.0,1.895311004,264005
4810,324.0,1.899671781,264558
4820,319.0,1.904133056,265106
4830,319.0,1.908147434,265655
4840,323.0,1.912436365,266204
4850,323.0,1.916313039,266755
4860,321.0,1.920469825,267302
4870,322.0,1.924777145,267846
4880,322.0,1.928679478,268385
4890,322.0,1.93249799,268932
4900,320.0,1.936418284,269468
4910,322.0,1.940388613,270014
4920,324.0,1.944246042,270569
4930,323.0,1.948043172,271114
4940,323.0,1.952063109,271660
4950,324.0,1.95585468,272212
4960,322.0,1.959976826,272763
4970,325.0,1.964235822,273322
4980,324.0,1.96822839,273870
4990,323.0,1.972105063,274428
