it,funval,time,funcount
0,273.0,0.00369064500046,680
10,280.0,0.0072576980001,1255
20,284.0,0.0111574650009,1839
30,301.0,0.0147523150008,2404
40,300.0,0.0186935640013,2992
50,310.0,0.0222426550017,3564
60,307.0,0.0258481970022,4160
70,313.0,0.0297736230023,4736
80,316.0,0.0332786660019,5310
90,318.0,0.0369325320016,5889
100,322.0,0.0404563920019,6483
110,320.0,0.0438121840016,7072
120,321.0,0.0470965580016,7622
130,322.0,0.0504514950017,8204
140,324.0,0.0537298820018,8788
150,321.0,0.0570121180017,9358
160,327.0,0.0602443190019,9938
170,321.0,0.0633306900017,10508
180,324.0,0.066289620002,11071
190,323.0,0.0694435600017,11663
200,327.0,0.0724704880013,12224
210,325.0,0.0754798820008,12802
220,322.0,0.0786603360011,13381
230,327.0,0.0821166270016,13968
240,327.0,0.0851627990014,14546
250,326.0,0.0881345590014,15113
260,328.0,0.0910952000013,15685
270,329.0,0.0940430120008,16257
280,328.0,0.0971892550015,16826
290,331.0,0.100187530002,17409
300,327.0,0.103243965002,17992
310,333.0,0.106206317002,18576
320,332.0,0.109569807002,19163
330,330.0,0.112551403002,19747
340,334.0,0.115569350002,20323
350,334.0,0.119109889003,20907
360,335.0,0.122122704002,21479
370,335.0,0.125664097002,22070
380,339.0,0.128700433002,22642
390,333.0,0.131729498003,23227
400,333.0,0.134764122003,23794
410,335.0,0.137910792003,24383
420,333.0,0.140855182003,24962
430,335.0,0.143824376003,25543
440,332.0,0.146823505003,26100
450,335.0,0.150115149003,26681
460,333.0,0.153122404003,27265
470,336.0,0.156106565003,27847
480,339.0,0.159202772003,28427
490,336.0,0.162150155003,29000
500,336.0,0.165148857003,29574
510,336.0,0.168235228003,30163
520,337.0,0.171223239004,30739
530,331.0,0.174289511004,31323
540,332.0,0.177575169004,31908
550,329.0,0.180594399004,32470
560,329.0,0.183667513004,33043
570,329.0,0.186678189004,33612
580,325.0,0.189608039003,34194
590,328.0,0.192559699003,34785
600,324.0,0.195492970003,35367
610,323.0,0.198781621003,35944
620,328.0,0.201696931003,36525
630,327.0,0.204563916002,37089
640,332.0,0.207486924002,37666
650,330.0,0.210496745002,38250
660,330.0,0.213396232002,38838
670,330.0,0.216220452002,39423
680,331.0,0.219024999003,39998
690,332.0,0.221886852002,40584
700,329.0,0.224801306003,41163
710,325.0,0.227935574003,41751
720,329.0,0.230928716003,42329
730,326.0,0.233852579004,42913
740,334.0,0.236794831004,43502
750,323.0,0.239730669004,44068
760,327.0,0.242652821004,44648
770,326.0,0.245605336004,45236
780,325.0,0.248580945004,45833
790,321.0,0.251489412003,46424
800,324.0,0.254454329003,47012
810,323.0,0.257302497003,47614
820,322.0,0.260202411003,48190
830,324.0,0.263482509003,48772
840,326.0,0.266327256002,49346
850,324.0,0.269294312003,49937
860,327.0,0.272256235003,50520
870,330.0,0.275230133003,51098
880,329.0,0.278263903003,51684
890,329.0,0.281342576003,52270
900,328.0,0.284447336004,52859
910,332.0,0.287445182003,53429
920,331.0,0.290395559004,54003
930,335.0,0.293403242003,54581
940,334.0,0.296385265003,55148
950,340.0,0.299451108002,55728
960,340.0,0.302411322002,56299
970,334.0,0.305442954002,56858
980,337.0,0.308468598001,57439
990,335.0,0.311531448001,57996
1000,336.0,0.314888951,58581
1010,335.0,0.317921865,59159
1020,337.0,0.320965471,59746
1030,344.0,0.324054408,60325
1040,341.0,0.327423885,60911
1050,340.0,0.333027421,61481
1060,334.0,0.336063756,62048
1070,337.0,0.339181773999,62629
1080,338.0,0.342079121999,63195
1090,340.0,0.345135984999,63769
1100,338.0,0.348538390998,64335
1110,344.0,0.351615353999,64924
1120,341.0,0.354594383999,65507
1130,337.0,0.357557590999,66089
1140,331.0,0.360533626999,66660
1150,334.0,0.363591771999,67260
1160,339.0,0.366995461,67845
1170,337.0,0.370006564999,68421
1180,339.0,0.373088232,68986
1190,337.0,0.376090356,69565
1200,339.0,0.379670238,70144
1210,342.0,0.382695026999,70727
1220,339.0,0.385716822999,71298
1230,337.0,0.388668910999,71864
1240,339.0,0.391618432998,72440
1250,339.0,0.394609864999,73019
1260,338.0,0.397585045998,73601
1270,336.0,0.400575622998,74182
1280,338.0,0.403466128998,74754
1290,340.0,0.406332685998,75339
1300,338.0,0.409188551997,75917
1310,340.0,0.412123533997,76492
1320,344.0,0.415284315997,77082
1330,342.0,0.418251799998,77655
1340,334.0,0.421257344998,78233
1350,337.0,0.424286409998,78806
1360,337.0,0.427419822998,79389
1370,339.0,0.430649457998,79970
1380,339.0,0.433632336998,80549
1390,342.0,0.436893617998,81131
1400,339.0,0.439982982998,81719
1410,341.0,0.443169852998,82293
1420,341.0,0.446322081998,82865
1430,337.0,0.449428551999,83449
1440,340.0,0.452558542998,84034
1450,337.0,0.455706495998,84620
1460,337.0,0.458727435998,85186
1470,337.0,0.461761205998,85752
1480,340.0,0.464864254998,86319
1490,341.0,0.467995528998,86912
1500,342.0,0.471019034998,87498
1510,342.0,0.474051948998,88080
1520,342.0,0.477019859998,88657
1530,339.0,0.479994185998,89238
1540,341.0,0.483031376998,89824
1550,340.0,0.486033927998,90399
1560,344.0,0.489044603997,90973
1570,343.0,0.492224630997,91550
1580,344.0,0.495621050997,92126
1590,349.0,0.498660380998,92703
1600,348.0,0.501598783998,93280
1610,349.0,0.504699266999,93865
1620,349.0,0.507768104999,94447
1630,358.0,0.510706079998,95016
1640,356.0,0.513685964998,95597
1650,353.0,0.516804837998,96186
1660,355.0,0.519868115998,96760
1670,355.0,0.522936525998,97335
1680,356.0,0.526048127998,97910
1690,350.0,0.529041269999,98504
1700,352.0,0.532162707998,99081
1710,351.0,0.535268750999,99655
1720,348.0,0.538282848998,100224
1730,348.0,0.541487251999,100798
1740,346.0,0.544444043999,101376
1750,346.0,0.547423501998,101955
1760,349.0,0.550540663998,102520
1770,349.0,0.553748488997,103111
1780,348.0,0.556797653997,103705
1790,344.0,0.559854944997,104285
1800,345.0,0.562903681997,104863
1810,341.0,0.565967387997,105432
1820,338.0,0.569133301998,105996
1830,339.0,0.572332145997,106577
1840,341.0,0.575362065997,107146
1850,339.0,0.578467253998,107722
1860,334.0,0.581609646998,108305
1870,336.0,0.584523245998,108887
1880,338.0,0.587461220997,109456
1890,339.0,0.590575816997,110023
1900,340.0,0.593672023997,110598
1910,339.0,0.596667304997,111178
1920,343.0,0.599797296997,111737
1930,346.0,0.602899062997,112319
1940,341.0,0.605993986997,112899
1950,344.0,0.608990977998,113469
1960,341.0,0.612099586998,114054
1970,340.0,0.615286028998,114640
1980,342.0,0.618454081997,115215
1990,345.0,0.621578085997,115786
2000,343.0,0.624632809998,116360
2010,343.0,0.627618254998,116950
2020,341.0,0.630600705998,117524
2030,344.0,0.633721288998,118107
2040,343.0,0.636847003998,118677
2050,341.0,0.639805933998,119262
2060,343.0,0.642726374998,119823
2070,335.0,0.645655368999,120392
2080,340.0,0.648637391999,120968
2090,336.0,0.651751132999,121544
2100,338.0,0.654834511,122131
2110,336.0,0.657800284,122714
2120,335.0,0.66063434,123290
2130,337.0,0.663529122,123876
2140,336.0,0.666485058,124450
2150,337.0,0.669425171,125045
2160,335.0,0.672400351999,125612
2170,336.0,0.675347308,126191
2180,336.0,0.678352853,126787
2190,336.0,0.681258754,127364
2200,330.0,0.684179622999,127946
2210,333.0,0.687040620999,128522
2220,335.0,0.689936258999,129104
2230,333.0,0.69298243,129684
2240,334.0,0.695858823,130272
2250,341.0,0.698737354,130835
2260,336.0,0.701649242,131409
2270,333.0,0.704559846999,132001
2280,330.0,0.707387914999,132579
2290,332.0,0.710306218999,133156
2300,334.0,0.713189882998,133720
2310,329.0,0.716090651998,134276
2320,328.0,0.719008954998,134864
2330,328.0,0.722040586998,135451
2340,328.0,0.725016622999,136034
2350,333.0,0.727966572999,136597
2360,332.0,0.730942609999,137178
2370,330.0,0.733864334999,137753
2380,336.0,0.736792901998,138337
2390,332.0,0.739730876999,138893
2400,337.0,0.742692372998,139457
2410,334.0,0.745681238998,140050
2420,333.0,0.748605528998,140626
2430,332.0,0.751523404998,141210
2440,334.0,0.754432299998,141805
2450,333.0,0.757403631998,142374
2460,335.0,0.760436545998,142968
2470,332.0,0.763463900998,143534
2480,331.0,0.766607577999,144108
2490,330.0,0.769631511998,144686
2500,331.0,0.772615245999,145266
2510,326.0,0.775656712999,145840
2520,326.0,0.778700745999,146427
2530,324.0,0.781666090999,146999
2540,326.0,0.784659233999,147578
2550,329.0,0.787670338,148153
2560,324.0,0.790695127,148744
2570,326.0,0.793627543,149319
2580,323.0,0.796546702,149897
2590,320.0,0.799556523,150471
2600,321.0,0.802616379,151045
2610,322.0,0.805465402,151629
2620,319.0,0.808327254999,152222
2630,321.0,0.811260525999,152802
2640,324.0,0.814221594999,153384
2650,325.0,0.817109962999,153972
2660,323.0,0.819950433999,154540
2670,326.0,0.822897818,155109
2680,324.0,0.825874281999,155695
2690,322.0,0.829361790999,156274
2700,320.0,0.832286508999,156846
2710,322.0,0.835282217,157409
2720,318.0,0.838322400999,157982
2730,322.0,0.844343753,158557
2740,327.0,0.847326632,159139
2750,322.0,0.850270594,159716
2760,322.0,0.853315054999,160307
2770,323.0,0.856324447999,160890
2780,328.0,0.859290648998,161467
2790,329.0,0.862207241998,162052
2800,324.0,0.865226470999,162626
2810,325.0,0.868239284999,163205
2820,328.0,0.871171699999,163775
2830,327.0,0.874145597999,164340
2840,332.0,0.877099396998,164911
2850,325.0,0.880120336999,165491
2860,326.0,0.883166935998,166074
2870,323.0,0.886099351998,166644
2880,323.0,0.889285793998,167209
2890,325.0,0.892301174998,167794
2900,321.0,0.895338792999,168362
2910,323.0,0.898242128999,168955
2920,319.0,0.901209183999,169532
2930,315.0,0.904192917998,170109
2940,316.0,0.907236095998,170716
2950,321.0,0.910309209998,171297
2960,317.0,0.913401567997,171880
2970,319.0,0.916377603998,172454
2980,320.0,0.919484074998,173029
2990,323.0,0.922486624998,173601
3000,317.0,0.925528091998,174178
3010,316.0,0.928460079998,174742
3020,319.0,0.931474604998,175318
3030,319.0,0.934478438998,175885
3040,315.0,0.937326606998,176451
3050,318.0,0.940236356998,177027
3060,322.0,0.943200418998,177605
3070,315.0,0.946222214998,178182
3080,318.0,0.949203810997,178767
3090,321.0,0.952196952998,179359
3100,318.0,0.955298718998,179946
3110,317.0,0.958231562999,180527
3120,317.0,0.961111377998,181086
3130,314.0,0.964012146998,181663
3140,319.0,0.966914627998,182241
3150,315.0,0.969842339998,182831
3160,318.0,0.972800414998,183415
3170,322.0,0.975703750998,183996
3180,319.0,0.978737948998,184586
3190,317.0,0.981655823998,185167
3200,318.0,0.984701995998,185740
3210,317.0,0.987549308998,186312
3220,319.0,0.990506100999,186891
3230,317.0,0.993462892999,187470
3240,318.0,0.996292671998,188038
3250,318.0,0.999228081999,188610
3260,316.0,1.002163919,189199
3270,319.0,1.005092486,189763
3280,318.0,1.008057404,190332
3290,317.0,1.011043704,190914
3300,318.0,1.014077474,191497
3310,320.0,1.01705907,192071
3320,317.0,1.020013296,192646
3330,319.0,1.022963246,193216
3340,320.0,1.025968363,193793
3350,315.0,1.028923445,194362
3360,316.0,1.031849018,194956
3370,321.0,1.03476946,195531
3380,319.0,1.03771385,196119
3390,319.0,1.041199221,196692
3400,320.0,1.044094431,197261
3410,324.0,1.046976812,197852
3420,330.0,1.049959691,198425
3430,329.0,1.053013988,198992
3440,322.0,1.055997295,199578
3450,324.0,1.05899001,200151
3460,325.0,1.062059275,200722
3470,325.0,1.065158476,201295
3480,320.0,1.068217477,201870
3490,325.0,1.071271346,202454
3500,324.0,1.074332057,203024
3510,327.0,1.077386781,203615
3520,324.0,1.080357258,204191
3530,326.0,1.083470144,204767
3540,323.0,1.08673613,205349
3550,323.0,1.089928132,205941
3560,322.0,1.093008088,206507
3570,320.0,1.096247986,207092
3580,316.0,1.099379688,207665
3590,314.0,1.102437834,208236
3600,316.0,1.1055195,208799
3610,317.0,1.108585343,209379
3620,312.0,1.111893666,209957
3630,316.0,1.114889802,210539
3640,312.0,1.117864556,211136
3650,320.0,1.120883358,211725
3660,315.0,1.123953478,212306
3670,312.0,1.127162158,212877
3680,316.0,1.130196355,213454
3690,317.0,1.133172392,214025
3700,319.0,1.136080004,214606
3710,315.0,1.139150552,215180
3720,315.0,1.142220672,215743
3730,316.0,1.145199274,216314
3740,317.0,1.148185574,216900
3750,313.0,1.151229607,217482
3760,313.0,1.154271929,218067
3770,317.0,1.157287737,218654
3780,320.0,1.160271044,219225
3790,313.0,1.163209447,219797
3800,313.0,1.166217557,220366
3810,317.0,1.169615686,220938
3820,319.0,1.172561787,221516
3830,319.0,1.175490781,222084
3840,317.0,1.178586988,222671
3850,320.0,1.181610066,223255
3860,321.0,1.1847469,223830
3870,323.0,1.187790078,224420
3880,323.0,1.190717789,225005
3890,321.0,1.193686983,225574
3900,323.0,1.196614267,226155
3910,325.0,1.199513326,226745
3920,326.0,1.202370902,227312
3930,320.0,1.205319997,227883
3940,320.0,1.208401664,228455
3950,323.0,1.211366154,229032
3960,324.0,1.21438239,229610
3970,322.0,1.217267764,230197
3980,322.0,1.220274591,230785
3990,325.0,1.223181775,231373
4000,323.0,1.226079551,231959
4010,321.0,1.228960649,232528
4020,324.0,1.231832766,233114
4030,319.0,1.234736957,233692
4040,320.0,1.237749344,234257
4050,319.0,1.240688602,234825
4060,315.0,1.243644111,235393
4070,320.0,1.24664153,235978
4080,321.0,1.249638094,236543
4090,320.0,1.252549555,237118
4100,321.0,1.255542269,237691
4110,329.0,1.25850462,238270
4120,322.0,1.26147809,238848
4130,322.0,1.264463534,239425
4140,324.0,1.267427596,240008
4150,322.0,1.270478044,240585
4160,325.0,1.273549447,241161
4170,321.0,1.27672648,241747
4180,323.0,1.279864596,242337
4190,324.0,1.282827375,242901
4200,326.0,1.285858579,243485
4210,328.0,1.289074529,244060
4220,324.0,1.292546216,244645
4230,324.0,1.295584263,245203
4240,325.0,1.298658232,245798
4250,324.0,1.301740754,246365
4260,320.0,1.304814723,246952
4270,319.0,1.307820695,247518
4280,319.0,1.310917757,248090
4290,321.0,1.314312038,248675
4300,325.0,1.31745101,249255
4310,324.0,1.320503169,249840
4320,325.0,1.323795241,250414
4330,330.0,1.326801213,250968
4340,328.0,1.330020584,251540
4350,328.0,1.333176663,252117
4360,329.0,1.336450346,252703
4370,329.0,1.339837357,253275
4380,330.0,1.34299985,253835
4390,335.0,1.346150797,254414
4400,332.0,1.349315428,254978
4410,330.0,1.355435141,255566
4420,335.0,1.358531348,256152
4430,330.0,1.361753713,256737
4440,329.0,1.364883704,257325
4450,333.0,1.367915336,257897
4460,333.0,1.37140028,258474
4470,336.0,1.37447767,259043
4480,330.0,1.377637169,259625
4490,330.0,1.380674787,260197
4500,333.0,1.383794514,260774
4510,337.0,1.386949309,261355
4520,336.0,1.390087853,261927
4530,333.0,1.393379925,262500
4540,335.0,1.396909344,263090
4550,336.0,1.400181744,263669
4560,333.0,1.403487073,264239
4570,337.0,1.406893756,264801
4580,340.0,1.410033584,265375
4590,335.0,1.413143476,265939
4600,338.0,1.416418014,266511
4610,337.0,1.419740877,267071
4620,337.0,1.422979493,267643
4630,337.0,1.426185607,268208
4640,335.0,1.429236483,268788
4650,340.0,1.432341671,269360
4660,339.0,1.435390408,269933
4670,333.0,1.438649123,270512
4680,334.0,1.442250388,271098
4690,333.0,1.445166125,271672
4700,331.0,1.448514647,272250
4710,328.0,1.451395317,272836
4720,330.0,1.454396158,273431
4730,332.0,1.457548387,274009
4740,331.0,1.460704038,274576
4750,334.0,1.463794258,275150
4760,333.0,1.466961455,275730
4770,332.0,1.469935353,276299
4780,332.0,1.472944319,276879
4790,338.0,1.47592506,277468
4800,339.0,1.478883135,278062
4810,341.0,1.482048622,278640
4820,341.0,1.485263289,279209
4830,340.0,1.488232056,279785
4840,341.0,1.491213652,280349
4850,338.0,1.494176859,280911
4860,337.0,1.497322246,281490
4870,339.0,1.500480035,282059
4880,343.0,1.503636114,282627
4890,337.0,1.506719491,283212
4900,339.0,1.509932875,283808
4910,338.0,1.513079545,284386
4920,340.0,1.516179601,284975
4930,341.0,1.519257419,285545
4940,338.0,1.522286057,286121
4950,339.0,1.525313412,286698
4960,340.0,1.528546468,287260
4970,336.0,1.531582376,287833
4980,338.0,1.534614435,288409
4990,338.0,1.537601163,288983
