it,funval,time,funcount
0,120.0,0.000839909999968,416
10,124.0,0.00170505200003,757
20,131.0,0.00252357999989,1097
30,127.0,0.00338829399993,1425
40,129.0,0.00415978000001,1753
50,129.0,0.0049470890001,2089
60,129.0,0.00574295100023,2423
70,130.0,0.00663075800003,2765
80,128.0,0.00742448100004,3102
90,128.0,0.00818869699992,3428
100,131.0,0.00897899999995,3769
110,133.0,0.00979538899992,4102
120,134.0,0.0105728619999,4441
130,134.0,0.0113623090001,4767
140,134.0,0.012114978,5103
150,136.0,0.0128907399999,5442
160,133.0,0.0137118339999,5790
170,134.0,0.0146047729997,6121
180,136.0,0.0154716249999,6460
190,135.0,0.0162803169999,6788
200,137.0,0.0170868699997,7121
210,137.0,0.0178651979998,7447
220,140.0,0.0186563559998,7793
230,135.0,0.0194423819999,8128
240,137.0,0.0202639029999,8463
250,140.0,0.021059338,8805
260,142.0,0.021833817,9147
270,139.0,0.022588197,9497
280,139.0,0.0233383010002,9834
290,138.0,0.0240922530002,10162
300,139.0,0.0248710090002,10501
310,140.0,0.0256189740003,10826
320,137.0,0.0263981580003,11159
330,137.0,0.0271602360003,11489
340,137.0,0.0279680720002,11819
350,139.0,0.0287446900002,12153
360,138.0,0.0295414070001,12490
370,138.0,0.0303287160002,12826
380,136.0,0.0310933600001,13153
390,136.0,0.0318836620002,13492
400,136.0,0.032663273,13823
410,138.0,0.0334073889999,14158
420,138.0,0.0341968359999,14483
430,141.0,0.0350068109997,14811
440,139.0,0.0357757309996,15134
450,138.0,0.0365429399997,15475
460,136.0,0.0373088659996,15807
470,136.0,0.0380987409997,16139
480,139.0,0.0389578959996,16477
490,140.0,0.0397417839995,16819
500,138.0,0.0405141249996,17158
510,139.0,0.0412928809997,17496
520,143.0,0.0420895979996,17823
530,139.0,0.0462519439996,18168
540,141.0,0.0470512269997,18502
550,138.0,0.0478188639997,18845
560,141.0,0.0485989029999,19183
570,142.0,0.0493930539997,19516
580,143.0,0.0502855659997,19855
590,145.0,0.0510886979996,20194
600,145.0,0.0518400839997,20534
610,145.0,0.0528497729997,20870
620,143.0,0.0535896119995,21211
630,143.0,0.0543546829995,21550
640,144.0,0.0551578159996,21886
650,143.0,0.0559528229996,22230
660,144.0,0.0567401319995,22573
670,146.0,0.0575154669993,22903
680,144.0,0.0583297179994,23243
690,142.0,0.0591024859996,23576
700,144.0,0.0598564379995,23914
710,144.0,0.0606557209994,24253
720,143.0,0.0614477339996,24592
730,141.0,0.0622320499995,24930
740,141.0,0.0630360369994,25258
750,144.0,0.0638387419995,25591
760,142.0,0.0646298989993,25929
770,144.0,0.0654492819992,26269
780,142.0,0.0662408669994,26602
790,144.0,0.0670256099993,26939
800,142.0,0.0678223269992,27271
810,143.0,0.0685720029992,27602
820,144.0,0.0693400669993,27933
830,145.0,0.0700953019993,28267
840,145.0,0.0708723469993,28600
850,148.0,0.0717032769994,28932
860,148.0,0.0724713409995,29257
870,147.0,0.0732436819997,29592
880,148.0,0.0740489519997,29928
890,150.0,0.0748435309995,30254
900,148.0,0.0756556439994,30585
910,149.0,0.0764378209994,30911
920,150.0,0.0772080239994,31240
930,148.0,0.0779521399995,31576
940,150.0,0.0787167829994,31910
950,152.0,0.0795643909994,32238
960,152.0,0.0803427189994,32583
970,153.0,0.0811710829994,32922
980,153.0,0.0819177649994,33264
990,152.0,0.0826550379995,33596
1000,152.0,0.0833820479995,33918
1010,152.0,0.0841646529996,34253
1020,153.0,0.0849613699997,34593
1030,152.0,0.0857589419998,34936
1040,152.0,0.0867540899999,35276
1050,152.0,0.0875212989999,35603
1060,154.0,0.0883205819998,35944
1070,153.0,0.0890715409998,36287
1080,153.0,0.0898272039999,36616
1090,152.0,0.0906624099998,36943
1100,151.0,0.0914835029998,37281
1110,150.0,0.0922733779998,37626
1120,154.0,0.0930298959997,37963
1130,154.0,0.0939489219998,38300
1140,155.0,0.0946973149998,38622
1150,151.0,0.095524395,38958
1160,149.0,0.0963390740001,39299
1170,150.0,0.0974060680001,39646
1180,150.0,0.0982070620003,39978
1190,148.0,0.0990016410003,40320
1200,148.0,0.0997987860003,40669
1210,149.0,0.100593365,41004
1220,151.0,0.101316953,41334
1230,150.0,0.102062352,41661
1240,152.0,0.102831272,42007
1250,148.0,0.10358779,42342
1260,148.0,0.104539318,42687
1270,145.0,0.105286,43014
1280,145.0,0.10602028,43349
1290,145.0,0.106788345,43679
1300,146.0,0.107585063,44016
1310,151.0,0.108349706,44354
1320,149.0,0.109113067,44690
1330,150.0,0.109847347,45034
1340,150.0,0.110594029,45371
1350,151.0,0.111356962,45708
1360,150.0,0.112114335,46040
1370,148.0,0.112938422,46378
1380,149.0,0.113684249,46705
1390,148.0,0.114428793,47041
1400,148.0,0.115201134,47381
1410,150.0,0.115927289,47711
1420,146.0,0.116675682,48045
1430,145.0,0.117459997,48386
1440,146.0,0.118223358,48713
1450,146.0,0.119049583,49050
1460,146.0,0.119858702,49385
1470,147.0,0.120675092,49718
1480,147.0,0.121481218,50066
1490,152.0,0.122308299,50397
1500,148.0,0.123082779,50730
1510,149.0,0.123886766,51053
1520,148.0,0.124642428,51386
1530,149.0,0.12542375,51721
1540,148.0,0.12619267,52050
1550,144.0,0.126986821,52378
1560,145.0,0.127744621,52710
1570,144.0,0.128516962,53037
1580,147.0,0.129246966,53370
1590,146.0,0.130042828,53709
1600,144.0,0.13090968,54048
1610,143.0,0.131700837,54379
1620,144.0,0.132419294,54708
1630,141.0,0.133183082,55047
1640,142.0,0.133913941,55385
1650,140.0,0.134655919,55727
1660,139.0,0.135421845,56068
1670,139.0,0.136254913,56391
1680,142.0,0.137068736,56722
1690,144.0,0.137874007,57056
1700,143.0,0.138630097,57394
1710,141.0,0.139433657,57725
1720,142.0,0.140202577,58059
1730,140.0,0.141001005,58387
1740,141.0,0.14178361,58715
1750,141.0,0.142680398,59044
1760,138.0,0.143445041,59379
1770,140.0,0.144266562,59717
1780,141.0,0.145091932,60053
1790,141.0,0.145873253,60390
1800,141.0,0.146663555,60732
1810,141.0,0.147459844,61072
1820,142.0,0.148323275,61415
1830,142.0,0.149129401,61739
1840,144.0,0.149903453,62075
1850,142.0,0.150683492,62419
1860,143.0,0.151487907,62746
1870,141.0,0.152255116,63080
1880,144.0,0.153037721,63420
1890,145.0,0.153786541,63754
1900,144.0,0.15454092,64076
1910,144.0,0.15536458,64418
1920,142.0,0.156230577,64747
1930,146.0,0.15701532,65090
1940,144.0,0.157797925,65432
1950,143.0,0.158577536,65772
1960,146.0,0.159326784,66116
1970,146.0,0.160090572,66448
1980,146.0,0.160875315,66794
1990,146.0,0.161664335,67127
2000,147.0,0.162459341,67466
2010,147.0,0.163271026,67806
2020,150.0,0.164114785,68130
2030,148.0,0.16486104,68469
2040,145.0,0.165643645,68801
2050,146.0,0.166436942,69140
2060,148.0,0.167190467,69472
2070,150.0,0.16798077,69812
2080,151.0,0.168772783,70147
2090,150.0,0.169550256,70468
2100,149.0,0.170370066,70808
2110,147.0,0.171182179,71153
2120,149.0,0.171968633,71473
2130,148.0,0.172728999,71791
2140,148.0,0.173552231,72134
2150,149.0,0.174481948,72465
2160,145.0,0.175280804,72796
2170,147.0,0.176051006,73130
2180,149.0,0.176829762,73456
2190,147.0,0.177679081,73792
2200,148.0,0.178437737,74132
2210,148.0,0.17929903,74462
2220,149.0,0.180094892,74797
2230,146.0,0.180920262,75133
2240,145.0,0.181737935,75470
2250,147.0,0.18254235,75798
2260,147.0,0.183438283,76128
2270,147.0,0.184384251,76467
2280,146.0,0.185130077,76803
2290,146.0,0.185874620001,77139
2300,147.0,0.18660163,77471
2310,146.0,0.187410749,77807
2320,145.0,0.188319084001,78147
2330,146.0,0.189077312001,78483
2340,144.0,0.189870180001,78812
2350,150.0,0.190732756001,79151
2360,149.0,0.191487564001,79492
2370,147.0,0.192262043,79831
2380,147.0,0.193010008,80161
2390,147.0,0.193760539,80493
2400,149.0,0.19455469,80831
2410,146.0,0.195366375001,81164
2420,146.0,0.196172929,81499
2430,142.0,0.196992312,81829
2440,142.0,0.197922457,82160
2450,145.0,0.198834641,82497
2460,143.0,0.199597147,82848
2470,145.0,0.200361363,83186
2480,146.0,0.201144395,83519
2490,144.0,0.20187953,83853
2500,144.0,0.202615521,84184
2510,141.0,0.203387007,84512
2520,142.0,0.20412984,84840
2530,142.0,0.204847442,85176
2540,143.0,0.205581722,85519
2550,147.0,0.206318141,85850
2560,143.0,0.207031894,86183
2570,141.0,0.207737522,86516
2580,144.0,0.208465815,86853
2590,143.0,0.209203516,87184
2600,142.0,0.210015629,87516
2610,143.0,0.210856395,87856
2620,141.0,0.211623177,88193
2630,143.0,0.212427164,88531
2640,143.0,0.213190952,88867
2650,143.0,0.213959872,89197
2660,141.0,0.214770274,89536
2670,141.0,0.21559094,89875
2680,140.0,0.216350879,90201
2690,139.0,0.217180525,90534
2700,141.0,0.217931483,90869
2710,139.0,0.218697409,91203
2720,140.0,0.219450078,91532
2730,139.0,0.220179226,91875
2740,143.0,0.220947718,92213
2750,143.0,0.221689268,92545
2760,142.0,0.222440227,92862
2770,142.0,0.223217272,93195
2780,142.0,0.223975073,93539
2790,140.0,0.224804292,93888
2800,139.0,0.225563804,94220
2810,140.0,0.22630621,94555
2820,139.0,0.22703493,94890
2830,140.0,0.227826516,95220
2840,144.0,0.228556947,95556
2850,145.0,0.229292082,95902
2860,146.0,0.230004124,96249
2870,142.0,0.23078844,96583
2880,142.0,0.231526568999,96925
2890,144.0,0.232247592,97263
2900,144.0,0.23302763,97587
2910,144.0,0.233811518,97935
2920,142.0,0.234615506,98271
2930,146.0,0.235372879,98601
2940,146.0,0.236114001,98935
2950,143.0,0.2368393,99275
2960,143.0,0.237565455,99609
2970,141.0,0.238315558,99942
2980,142.0,0.239068227,100280
2990,144.0,0.239815336,100623
3000,146.0,0.240563301,100952
3010,144.0,0.241319391,101300
3020,142.0,0.242099003,101630
3030,145.0,0.242898714,101959
3040,143.0,0.243689016,102300
3050,141.0,0.244425007,102618
3060,140.0,0.245224718,102954
3070,141.0,0.245998769,103278
3080,141.0,0.246733477,103624
3090,141.0,0.247462625,103951
3100,144.0,0.248220853,104277
3110,144.0,0.248990628,104607
3120,144.0,0.249757837,104935
3130,143.0,0.250512644,105277
3140,140.0,0.251264458,105623
3150,139.0,0.252055188,105951
3160,141.0,0.252799304,106279
3170,146.0,0.25359987,106615
3180,140.0,0.254384613,106951
3190,141.0,0.255155671,107298
3200,141.0,0.256032786999,107637
3210,141.0,0.256788021999,107962
3220,139.0,0.257541546999,108304
3230,141.0,0.258268983999,108643
3240,139.0,0.259010106,108966
3250,142.0,0.259792283,109303
3260,142.0,0.260563342,109647
3270,143.0,0.261330979,109984
3280,143.0,0.262073385,110315
3290,141.0,0.262809803,110653
3300,144.0,0.263588132,110987
3310,146.0,0.264386132,111318
3320,146.0,0.265164461,111655
3330,149.0,0.265927394,111984
3340,145.0,0.26674806,112319
3350,147.0,0.267514842,112646
3360,144.0,0.268287611,112974
3370,143.0,0.269057386,113304
3380,147.0,0.269812621,113638
3390,144.0,0.270564863,113971
3400,143.0,0.271316249,114309
3410,144.0,0.27210142,114637
3420,147.0,0.272894288,114975
3430,149.0,0.273780812,115312
3440,147.0,0.274583515999,115643
3450,146.0,0.275693702999,115983
3460,148.0,0.276471175999,116317
3470,148.0,0.277242661999,116638
3480,150.0,0.27804836,116978
3490,150.0,0.278885276,117316
3500,147.0,0.279764101999,117653
3510,148.0,0.280618553,117988
3520,147.0,0.281488827,118330
3530,148.0,0.282340712,118665
3540,147.0,0.283121606,118989
3550,144.0,0.283894374,119318
3560,145.0,0.284626088,119654
3570,143.0,0.285380467,119994
3580,143.0,0.286201133,120322
3590,144.0,0.287014956999,120653
3600,145.0,0.287768053,120977
3610,146.0,0.288525426,121315
3620,145.0,0.289287503,121642
3630,147.0,0.290049153,121975
3640,145.0,0.290805671,122305
3650,144.0,0.291541661,122628
3660,144.0,0.292308443,122980
3670,147.0,0.293032459,123317
3680,147.0,0.293771443,123662
3690,148.0,0.294494177,123990
3700,147.0,0.295227602,124330
3710,149.0,0.295955467,124667
3720,146.0,0.296671786,124997
3730,145.0,0.297451825,125331
3740,145.0,0.298302426999,125668
3750,147.0,0.299110690999,126012
3760,147.0,0.299872340999,126344
3770,148.0,0.300657511999,126678
3780,145.0,0.301392646999,127013
3790,148.0,0.302153868999,127358
3800,146.0,0.302927920999,127697
3810,147.0,0.303691708999,128032
3820,150.0,0.304510235999,128362
3830,149.0,0.305317643999,128692
3840,150.0,0.306117353999,129014
3850,149.0,0.307013285999,129355
3860,150.0,0.307774935999,129684
3870,150.0,0.308513491999,130012
3880,149.0,0.309271720999,130341
3890,151.0,0.310035508999,130683
3900,148.0,0.310800152,131024
3910,152.0,0.311567361,131363
3920,150.0,0.312322167999,131693
3930,150.0,0.313082534999,132035
3940,153.0,0.313872837999,132362
3950,154.0,0.314622512999,132693
3960,156.0,0.315390577,133035
3970,156.0,0.316146667,133371
3980,156.0,0.316907462,133712
3990,156.0,0.317689211,134052
4000,154.0,0.318488494,134384
4010,153.0,0.319248861,134719
4020,154.0,0.320054559,135055
4030,152.0,0.320843578,135392
4040,152.0,0.321637729,135722
4050,151.0,0.322404938,136062
4060,150.0,0.323161028,136408
4070,151.0,0.32393679,136740
4080,152.0,0.324730941,137072
4090,156.0,0.328945032,137406
4100,152.0,0.329771257,137738
4110,153.0,0.330540177,138074
4120,155.0,0.331337322,138406
4130,155.0,0.332380367,138738
4140,154.0,0.333221132,139081
4150,155.0,0.334210293,139412
4160,155.0,0.335245213,139747
4170,155.0,0.336562811,140081
4180,156.0,0.337770503,140422
4190,154.0,0.338807989,140765
4200,158.0,0.339863009,141099
4210,153.0,0.340626797,141432
4220,156.0,0.341396572,141760
4230,152.0,0.34215865,142101
4240,151.0,0.342936123,142434
4250,152.0,0.343762776,142766
4260,154.0,0.34451459,143105
4270,155.0,0.345261272,143446
4280,154.0,0.346004105,143773
4290,154.0,0.346723845,144108
4300,154.0,0.347460691,144447
4310,152.0,0.348183424,144775
4320,152.0,0.349004945,145107
4330,152.0,0.349796958,145446
4340,153.0,0.350568016,145777
4350,152.0,0.351331804,146112
4360,153.0,0.352122106,146441
4370,151.0,0.353004354,146785
4380,154.0,0.354259943,147111
4390,148.0,0.355040837,147440
4400,148.0,0.355819593,147773
4410,144.0,0.356559005,148097
4420,145.0,0.357277462,148434
4430,149.0,0.357991642,148754
4440,144.0,0.35871181,149088
4450,145.0,0.35957182,149415
4460,146.0,0.360294981,149746
4470,148.0,0.361027978,150078
4480,146.0,0.361768245,150420
4490,145.0,0.36250894,150761
4500,147.0,0.363246214,151104
4510,147.0,0.363976218,151441
4520,148.0,0.364749842,151783
4530,148.0,0.365524321,152115
4540,149.0,0.366294952,152458
4550,148.0,0.367042917,152797
4560,148.0,0.367826804,153136
4570,153.0,0.368628226,153469
4580,150.0,0.369416818,153796
4590,149.0,0.370207976,154138
4600,149.0,0.371014101,154471
4610,151.0,0.371829635,154802
4620,151.0,0.37259941,155135
4630,151.0,0.37336106,155471
4640,154.0,0.374129979999,155802
4650,151.0,0.374968606999,156129
4660,153.0,0.375784995999,156467
4670,154.0,0.376554770999,156799
4680,152.0,0.377326256999,157133
4690,153.0,0.378061819999,157467
4700,153.0,0.378832450999,157799
4710,152.0,0.379589824999,158131
4720,154.0,0.380316406999,158466
4730,151.0,0.381093879999,158811
4740,151.0,0.381901716999,159149
4750,153.0,0.382672774999,159486
4760,154.0,0.383380112999,159815
4770,153.0,0.384112682,160141
4780,152.0,0.384891009999,160489
4790,153.0,0.385641112999,160819
4800,153.0,0.386414309999,161147
4810,152.0,0.387177241999,161486
4820,156.0,0.387925206999,161825
4830,154.0,0.388709521999,162159
4840,153.0,0.389486138999,162495
4850,153.0,0.390250354999,162831
4860,153.0,0.391041085999,163167
4870,153.0,0.391806584999,163486
4880,155.0,0.392815417999,163810
4890,155.0,0.393631807,164142
4900,156.0,0.394435366999,164482
4910,155.0,0.395194022999,164817
4920,153.0,0.395960376999,165154
4930,154.0,0.396798149,165490
4940,154.0,0.397564931,165812
4950,154.0,0.398346681,166152
4960,157.0,0.399132707,166486
4970,156.0,0.399911462999,166824
4980,160.0,0.400690218999,167157
4990,154.0,0.401461704999,167490
