it,funval,time,funcount
0,35.0,0.000601707000015,647
10,38.0,0.00123506100002,1194
20,38.0,0.00189193599999,1742
30,41.0,0.00252400700001,2293
40,44.0,0.00311844400002,2845
50,43.0,0.00371373700003,3395
60,45.0,0.00427567300002,3943
70,45.0,0.00483547100004,4490
80,46.0,0.00541921700002,5035
90,46.0,0.00598286400003,5585
100,46.0,0.00652512800002,6139
110,48.0,0.00708535300001,6695
120,48.0,0.00764472300003,7241
130,48.0,0.00821179100001,7799
140,47.0,0.00876902300001,8348
150,49.0,0.009338657,8896
160,49.0,0.009896744,9444
170,48.0,0.010438153,9995
180,47.0,0.010991964,10538
190,48.0,0.011535939,11082
200,48.0,0.012079914,11627
210,48.0,0.012610203,12170
220,48.0,0.013137499,12716
230,48.0,0.013729371,13265
240,48.0,0.014314401,13814
250,48.0,0.014842125,14357
260,48.0,0.015368138,14894
270,49.0,0.016007907,15439
280,49.0,0.016538196,15988
290,49.0,0.01706036,16529
300,48.0,0.0175855179999,17083
310,49.0,0.0181367629999,17629
320,49.0,0.0186679079999,18176
330,48.0,0.019218297,18727
340,49.0,0.019766975,19262
350,49.0,0.0202998309999,19805
360,47.0,0.0208647599999,20346
370,48.0,0.0214202809999,20890
380,48.0,0.0219484319999,21443
390,49.0,0.0226151429999,21990
400,47.0,0.0231484259999,22542
410,48.0,0.0236731559999,23087
420,48.0,0.0242214069999,23636
430,48.0,0.024768375,24193
440,48.0,0.0253290279999,24741
450,48.0,0.0258999439999,25285
460,48.0,0.0264999409999,25825
470,48.0,0.027101221,26374
480,49.0,0.027680263,26924
490,48.0,0.028253745,27470
500,48.0,0.02883407,28011
510,48.0,0.029411829,28561
520,49.0,0.030019951,29112
530,50.0,0.03060327,29657
540,49.0,0.031201556,30213
550,50.0,0.031794711,30768
560,50.0,0.032359641,31316
570,49.0,0.032936117,31869
580,50.0,0.033470256,32415
590,50.0,0.034012092,32962
600,50.0,0.034543664,33508
610,49.0,0.035090204,34054
620,50.0,0.035618356,34605
630,49.0,0.036150784,35151
640,49.0,0.036705022,35704
650,49.0,0.037233601,36259
660,50.0,0.037763035,36806
670,50.0,0.038296746,37355
680,49.0,0.038827891,37908
690,50.0,0.039408643,38455
700,50.0,0.039955611,39010
710,50.0,0.040491033,39559
720,50.0,0.041028165,40111
730,50.0,0.041598654,40653
740,50.0,0.0421550299999,41202
750,50.0,0.0426883129999,41757
760,50.0,0.043246828,42310
770,49.0,0.043791657,42859
780,49.0,0.0443480329999,43416
790,49.0,0.045102413,43971
800,49.0,0.0457242209999,44517
810,49.0,0.0463272109999,45063
820,49.0,0.0468977,45612
830,49.0,0.047472038,46159
840,48.0,0.048032264,46698
850,49.0,0.048570252,47238
860,49.0,0.049120641,47794
870,49.0,0.049688992,48343
880,49.0,0.050257342,48898
890,49.0,0.050816712,49441
900,49.0,0.051372661,49989
910,49.0,0.051934169,50543
920,49.0,0.052509362,51092
930,49.0,0.053066166,51645
940,49.0,0.053614417,52188
950,49.0,0.054166089,52739
960,50.0,0.054684404,53286
970,50.0,0.05520614,53835
980,50.0,0.055768931,54380
990,50.0,0.056303498,54924
1000,50.0,0.056851322,55478
1010,50.0,0.057380329,56027
1020,50.0,0.057945258,56578
1030,50.0,0.0585042,57129
1040,50.0,0.05903449,57681
1050,49.0,0.059578037,58225
1060,49.0,0.060105761,58768
1070,50.0,0.060685658,59313
1080,50.0,0.061205684,59866
1090,50.0,0.0617517969999,60419
1100,50.0,0.0623043239999,60972
1110,49.0,0.0628367509999,61524
1120,49.0,0.0633935549999,62065
1130,48.0,0.063970031,62613
1140,49.0,0.064546935,63164
1150,49.0,0.065097324,63706
1160,49.0,0.065687057,64257
1170,49.0,0.066219058,64801
1180,49.0,0.066797245,65346
1190,49.0,0.06734293,65893
1200,49.0,0.067899307,66443
1210,49.0,0.068447558,66985
1220,49.0,0.068988539,67530
1230,50.0,0.069524816,68082
1240,50.0,0.070050402,68636
1250,50.0,0.070576843,69186
1260,49.0,0.071109271,69730
1270,49.0,0.071636139,70279
1280,49.0,0.072213898,70831
1290,48.0,0.072791657,71382
1300,48.0,0.073327078,71931
1310,49.0,0.073870625,72481
1320,49.0,0.074417593,73029
1330,49.0,0.074958146,73575
1340,49.0,0.075497417,74132
1350,49.0,0.076024285,74689
1360,49.0,0.0765768129999,75236
1370,49.0,0.077115228,75783
1380,49.0,0.077651077,76336
1390,49.0,0.078181366,76884
1400,50.0,0.078720636,77432
1410,49.0,0.079285993,77984
1420,50.0,0.079847501,78539
1430,50.0,0.080389337,79092
1440,49.0,0.080952128,79642
1450,50.0,0.081487122,80196
1460,50.0,0.082028958,80750
1470,50.0,0.082605861,81299
1480,50.0,0.083142993,81850
1490,50.0,0.083678842,82395
1500,49.0,0.08422581,82946
1510,50.0,0.084768074,83495
1520,50.0,0.0853146139999,84056
1530,49.0,0.085861154,84598
1540,49.0,0.0864038449999,85152
1550,50.0,0.086932852,85699
1560,49.0,0.087468273,86254
1570,49.0,0.088064421,86810
1580,49.0,0.088619087,87361
1590,49.0,0.08915237,87912
1600,49.0,0.089693778,88462
1610,49.0,0.090233476,89009
1620,49.0,0.090793273,89557
1630,49.0,0.091345373,90105
1640,49.0,0.091880795,90657
1650,49.0,0.092421776,91195
1660,49.0,0.092993121,91744
1670,49.0,0.093549497,92295
1680,49.0,0.09409005,92846
1690,49.0,0.094622905,93395
1700,49.0,0.09517757,93952
1710,49.0,0.095748486,94494
1720,50.0,0.09631983,95038
1730,49.0,0.096919399,95587
1740,49.0,0.097475775,96139
1750,49.0,0.098025309,96697
1760,50.0,0.098584679,97251
1770,49.0,0.099141055,97796
1780,49.0,0.099687168,98346
1790,49.0,0.100254663,98901
1800,49.0,0.100794789,99446
1810,49.0,0.1013486,99992
1820,49.0,0.1019007,100537
1830,49.0,0.102472044,101087
1840,50.0,0.103042961,101645
1850,50.0,0.103590357,102193
1860,50.0,0.104145022,102741
1870,50.0,0.104694983,103289
1880,50.0,0.105229549,103837
1890,50.0,0.105804315,104389
1900,50.0,0.106361547,104935
1910,49.0,0.10690039,105477
1920,50.0,0.107457194,106027
1930,50.0,0.10799903,106581
1940,50.0,0.108555834,107130
1950,50.0,0.109111355,107674
1960,50.0,0.109671581,108221
1970,50.0,0.110210423,108764
1980,50.0,0.11075397,109313
1990,50.0,0.111314196,109859
2000,50.0,0.11185646,110407
2010,50.0,0.112397441,110953
2020,50.0,0.112937139,111494
2030,50.0,0.113472561,112046
2040,50.0,0.11401568,112587
2050,50.0,0.114559227,113139
2060,50.0,0.115086523,113695
2070,50.0,0.11565017,114249
2080,50.0,0.116174045,114791
2090,50.0,0.116690222,115340
2100,50.0,0.117248736,115897
2110,50.0,0.117798698,116451
2120,49.0,0.118346521,116994
2130,50.0,0.118888785,117539
2140,50.0,0.119433187,118086
2150,50.0,0.119973313,118638
2160,49.0,0.120526268,119189
2170,50.0,0.121084355,119735
2180,50.0,0.121616783,120285
2190,49.0,0.122159903,120831
2200,50.0,0.122700029,121375
2210,50.0,0.123228608,121914
2220,50.0,0.123773866,122461
2230,50.0,0.124310143,123006
2240,50.0,0.124861816,123560
2250,50.0,0.125416054,124102
2260,50.0,0.125980983,124658
2270,49.0,0.126530517,125201
2280,50.0,0.127058241,125747
2290,50.0,0.127601788,126297
2300,50.0,0.128130795,126836
2310,49.0,0.128666217,127377
2320,50.0,0.129226442,127935
2330,50.0,0.129769988,128475
2340,50.0,0.130295146,129027
2350,50.0,0.130843397,129577
2360,50.0,0.131371548,130120
2370,50.0,0.131908252,130675
2380,49.0,0.132438542,131220
2390,50.0,0.13297097,131762
2400,50.0,0.133501687,132312
2410,50.0,0.134048228,132866
2420,50.0,0.134608881,133411
2430,50.0,0.135142164,133964
2440,50.0,0.135679724,134508
2450,50.0,0.136207448,135067
2460,50.0,0.136747573,135617
2470,50.0,0.137327043,136170
2480,50.0,0.137883847,136715
2490,50.0,0.138410715,137265
2500,50.0,0.138949558,137813
2510,50.0,0.139483269,138364
2520,50.0,0.140003723,138916
2530,50.0,0.140559671,139467
2540,50.0,0.141149405,140015
2550,50.0,0.141696373,140551
2560,50.0,0.142295515,141096
2570,49.0,0.142842483,141657
2580,49.0,0.143417676,142206
2590,49.0,0.143980895,142758
2600,49.0,0.14454668,143304
2610,49.0,0.145130426,143850
2620,49.0,0.145703909,144399
2630,49.0,0.146236337,144952
2640,49.0,0.146778174,145507
2650,49.0,0.147335406,146053
2660,49.0,0.147863985,146593
2670,49.0,0.148421217,147148
2680,49.0,0.148959204,147694
2690,49.0,0.149592986,148241
2700,49.0,0.150146369,148784
2710,49.0,0.150733537,149331
2720,47.0,0.15132712,149873
2730,48.0,0.15191386,150407
2740,48.0,0.152466815,150957
2750,48.0,0.153026185,151500
2760,47.0,0.153579996,152053
2770,48.0,0.154138083,152602
2780,49.0,0.154707289,153158
2790,49.0,0.155282055,153709
2800,49.0,0.155832444,154262
2810,49.0,0.156485043,154802
2820,49.0,0.157023885,155353
2830,49.0,0.157568287,155889
2840,49.0,0.15812338,156443
2850,49.0,0.158672914,156995
2860,48.0,0.159206197,157541
2870,49.0,0.159753593,158093
2880,49.0,0.160289442,158638
2890,48.0,0.160840686,159189
2900,49.0,0.16141759,159745
2910,48.0,0.161968406,160296
2920,48.0,0.162505111,160854
2930,48.0,0.163070468,161408
2940,49.0,0.163633687,161952
2950,48.0,0.16418878,162498
2960,49.0,0.164726767,163053
2970,48.0,0.165264754,163603
2980,49.0,0.165807873,164147
2990,49.0,0.166361684,164697
3000,48.0,0.166892829,165244
3010,48.0,0.167443218,165798
3020,48.0,0.167992752,166339
3030,49.0,0.16855426,166888
3040,48.0,0.169083694,167432
3050,48.0,0.169663163,167982
3060,48.0,0.170221678,168519
3070,48.0,0.17082082,169068
3080,48.0,0.171402856,169624
3090,49.0,0.171946403,170170
3100,48.0,0.17251176,170719
3110,48.0,0.173067708,171261
3120,49.0,0.173619381,171808
3130,48.0,0.174209542,172352
3140,49.0,0.174770195,172894
3150,48.0,0.175341539,173441
3160,49.0,0.17588252,173986
3170,50.0,0.1764235,174537
3180,50.0,0.176990996,175085
3190,50.0,0.1775478,175636
3200,50.0,0.178107598,176178
3210,50.0,0.178642164,176730
3220,50.0,0.179172026,177287
3230,50.0,0.17972156,177828
3240,50.0,0.180270667,178372
3250,50.0,0.180800957,178924
3260,50.0,0.181330819,179473
3270,50.0,0.181869234,180025
3280,50.0,0.182400807,180569
3290,50.0,0.182966591,181112
3300,50.0,0.183511848,181663
3310,50.0,0.184058388,182212
3320,50.0,0.184586967,182760
3330,50.0,0.18515318,183311
3340,50.0,0.185715543,183865
3350,50.0,0.186284321,184421
3360,50.0,0.186837276,184970
3370,50.0,0.187363289,185518
3380,50.0,0.187911112,186066
3390,50.0,0.188446105,186612
3400,50.0,0.188998633,187158
3410,50.0,0.189559286,187704
3420,50.0,0.190119939,188248
3430,50.0,0.19068102,188787
3440,50.0,0.191223711,189348
3450,50.0,0.191751007,189900
3460,49.0,0.192281297,190453
3470,49.0,0.192858201,191002
3480,49.0,0.193411157,191548
3490,49.0,0.19396454,192093
3500,49.0,0.194544438,192637
3510,49.0,0.195089696,193178
3520,49.0,0.1956264,193733
3530,48.0,0.196180211,194283
3540,48.0,0.196746851,194834
3550,48.0,0.197301089,195385
3560,48.0,0.197835228,195932
3570,47.0,0.198377492,196483
3580,47.0,0.198937717,197030
3590,49.0,0.199484685,197579
3600,48.0,0.200020962,198133
3610,48.0,0.200591023,198679
3620,48.0,0.201164933,199225
3630,48.0,0.201713611,199783
3640,49.0,0.20226229,200342
3650,48.0,0.202837483,200888
3660,48.0,0.203380174,201426
3670,48.0,0.203925004,201976
3680,49.0,0.204489506,202528
3690,49.0,0.205051869,203076
3700,49.0,0.20558558,203611
3710,50.0,0.206120146,204165
3720,50.0,0.206677378,204711
3730,49.0,0.207229478,205261
3740,49.0,0.207761906,205819
3750,49.0,0.20832042,206373
3760,49.0,0.209100458,206929
3770,49.0,0.209720982,207481
3780,49.0,0.210290188,208032
3790,50.0,0.21086752,208581
3800,49.0,0.211447418,209132
3810,49.0,0.212014486,209678
3820,49.0,0.212599943,210225
3830,49.0,0.213183689,210768
3840,49.0,0.213796516,211316
3850,49.0,0.214412764,211866
3860,49.0,0.215026018,212421
3870,49.0,0.215615751,212972
3880,49.0,0.216231571,213526
3890,49.0,0.216837555,214075
3900,49.0,0.217428571,214631
3910,49.0,0.218035838,215186
3920,49.0,0.218634552,215731
3930,49.0,0.219283729,216285
3940,49.0,0.21994146,216836
3950,50.0,0.220547017,217387
3960,49.0,0.221283007,217941
3970,50.0,0.221865042,218483
3980,50.0,0.222459907,219038
3990,50.0,0.22310267,219584
4000,49.0,0.223702667,220123
4010,49.0,0.224302664,220665
4020,49.0,0.224923189,221214
4030,49.0,0.225516344,221757
4040,50.0,0.22609282,222307
4050,49.0,0.226804006,222845
4060,49.0,0.227370219,223399
4070,49.0,0.227992882,223945
4080,48.0,0.228613834,224492
4090,49.0,0.229178336,225024
4100,48.0,0.229772773,225570
4110,49.0,0.230359512,226123
4120,49.0,0.230930856,226671
4130,48.0,0.231501345,227219
4140,49.0,0.232066274,227767
4150,49.0,0.232623934,228317
4160,49.0,0.233194851,228865
4170,49.0,0.233755504,229425
4180,49.0,0.234343955,229983
4190,49.0,0.23492984,230532
4200,50.0,0.23552385,231076
4210,49.0,0.236075095,231626
4220,49.0,0.236641735,232175
4230,49.0,0.237212652,232728
4240,48.0,0.237775015,233278
4250,50.0,0.238315996,233830
4260,49.0,0.238865102,234369
4270,49.0,0.239413353,234915
4280,50.0,0.239969729,235472
4290,49.0,0.240517552,236021
4300,49.0,0.241065803,236565
4310,49.0,0.241600369,237111
4320,49.0,0.242213196,237655
4330,49.0,0.242752466,238203
4340,49.0,0.243303711,238751
4350,49.0,0.243848541,239301
4360,50.0,0.24446094,239853
4370,49.0,0.245030574,240400
4380,49.0,0.245645539,240944
4390,49.0,0.251148149,241496
4400,49.0,0.251680576,242045
4410,49.0,0.252219846,242592
4420,49.0,0.252753129,243140
4430,50.0,0.253287267,243687
4440,49.0,0.253819694,244230
4450,49.0,0.254345707,244778
4460,49.0,0.254874713,245328
4470,49.0,0.25543451,245882
4480,49.0,0.255961806,246440
4490,49.0,0.256493806,246986
4500,50.0,0.257032221,247529
4510,50.0,0.257564221,248076
4520,50.0,0.258100925,248627
4530,50.0,0.258632925,249172
4540,50.0,0.25918588,249725
4550,50.0,0.259737552,250265
4560,50.0,0.260304192,250815
4570,50.0,0.26083833,251360
4580,49.0,0.261364771,251902
4590,50.0,0.261911311,252453
4600,50.0,0.26245443,253000
4610,50.0,0.262994128,253546
4620,50.0,0.263544089,254090
4630,50.0,0.264110729,254644
4640,50.0,0.26465171,255196
4650,50.0,0.265188414,255744
4660,50.0,0.265717848,256302
4670,50.0,0.266243434,256845
4680,50.0,0.26677244,257396
4690,50.0,0.267319408,257950
4700,50.0,0.267852691,258494
4710,50.0,0.268378277,259033
4720,50.0,0.2689663,259582
4730,50.0,0.269537217,260131
4740,50.0,0.270073921,260686
4750,50.0,0.270614902,261230
4760,50.0,0.271170423,261784
4770,50.0,0.271711404,262330
4780,50.0,0.272271201,262878
4790,50.0,0.272810898,263433
4800,50.0,0.273390795,263975
4810,50.0,0.273935197,264528
4820,50.0,0.274468052,265074
4830,50.0,0.27503512,265627
4840,50.0,0.275570969,266177
4850,50.0,0.276128201,266727
4860,50.0,0.276723494,267278
4870,50.0,0.277262764,267825
4880,50.0,0.277823417,268374
4890,50.0,0.278400321,268918
4900,50.0,0.278954559,269468
4910,50.0,0.279492547,270015
4920,50.0,0.280027541,270563
4930,49.0,0.280615564,271107
4940,50.0,0.281161249,271658
4950,50.0,0.281719764,272210
4960,50.0,0.282284694,272758
4970,50.0,0.282823537,273314
4980,50.0,0.283358103,273859
4990,50.0,0.283878129,274412
