it,funval,time,funcount
0,278.0,0.00542434999988,776
10,282.0,0.0109449210004,1481
20,277.0,0.0164573670008,2180
30,287.0,0.0219116520002,2882
40,281.0,0.0275404190006,3585
50,285.0,0.0331234270006,4280
60,286.0,0.0385131370003,4990
70,291.0,0.0443039850006,5703
80,286.0,0.0497082350012,6403
90,288.0,0.0550928130015,7102
100,288.0,0.0603401140015,7794
110,289.0,0.065720415002,8496
120,288.0,0.0710305810026,9192
130,292.0,0.0762937050031,9888
140,287.0,0.0815136360034,10588
150,291.0,0.0870406220038,11287
160,293.0,0.0920206400042,11985
170,290.0,0.0969886840039,12683
180,291.0,0.102041830004,13388
190,294.0,0.107161690004,14072
200,295.0,0.112270432004,14789
210,293.0,0.117251733004,15470
220,297.0,0.122676083004,16167
230,294.0,0.127623172005,16855
240,293.0,0.132861065004,17557
250,302.0,0.137839800004,18250
260,298.0,0.143241484004,18934
270,303.0,0.148345521004,19640
280,300.0,0.153153622004,20334
290,300.0,0.158555306003,21029
300,301.0,0.163423706003,21735
310,300.0,0.168265164003,22437
320,299.0,0.173170770004,23131
330,299.0,0.177925414004,23835
340,300.0,0.183012345004,24531
350,300.0,0.187947459003,25249
360,300.0,0.192477586003,25952
370,299.0,0.197153543003,26643
380,298.0,0.201684953003,27337
390,301.0,0.206238174002,28053
400,298.0,0.210734088003,28757
410,300.0,0.215328790003,29457
420,299.0,0.220029978002,30173
430,298.0,0.224622114002,30873
440,300.0,0.229256160002,31577
450,304.0,0.233980014003,32266
460,303.0,0.239098164002,32968
470,301.0,0.243785668002,33675
480,304.0,0.248379943002,34371
490,303.0,0.253118765002,35066
500,303.0,0.257834066002,35767
510,304.0,0.262871389003,36475
520,301.0,0.267499021003,37170
530,298.0,0.272188235002,37870
540,302.0,0.276867613003,38581
550,298.0,0.281715914002,39265
560,296.0,0.286404273002,39963
570,300.0,0.290898905002,40655
580,299.0,0.295163032002,41342
590,297.0,0.299348899002,42045
600,297.0,0.303671187003,42745
610,294.0,0.308006732003,43439
620,300.0,0.312396161004,44127
630,300.0,0.316677394004,44833
640,301.0,0.321046296004,45538
650,300.0,0.325744491004,46235
660,301.0,0.330117241005,46939
670,300.0,0.334421995005,47639
680,300.0,0.338941003005,48343
690,304.0,0.343685384006,49056
700,303.0,0.348026916006,49755
710,305.0,0.352397101006,50455
720,308.0,0.356786530007,51167
730,308.0,0.360995917006,51855
740,309.0,0.365227115007,52543
750,309.0,0.369415119007,53237
760,308.0,0.373695924008,53937
770,306.0,0.377954064007,54622
780,306.0,0.382252404007,55324
790,308.0,0.386586238007,56017
800,308.0,0.391148867007,56708
810,308.0,0.395579778007,57415
820,308.0,0.399805416007,58116
830,312.0,0.404514302008,58798
840,311.0,0.408855834008,59495
850,312.0,0.413300858008,60190
860,311.0,0.417662489009,60884
870,313.0,0.422006159009,61586
880,311.0,0.426707347009,62286
890,312.0,0.431259285009,63003
900,309.0,0.435677794009,63703
910,314.0,0.440147194009,64399
920,311.0,0.44461445601,65096
930,309.0,0.449094976009,65804
940,310.0,0.471666923009,66507
950,308.0,0.47619063601,67201
960,311.0,0.48055098501,67903
970,310.0,0.48501781901,68615
980,314.0,0.48952699101,69320
990,311.0,0.49408577101,70009
1000,310.0,0.49873820701,70702
1010,313.0,0.50399363301,71404
1020,310.0,0.50855198501,72093
1030,309.0,0.513132148009,72786
1040,309.0,0.517337686009,73482
1050,309.0,0.52176902601,74184
1060,306.0,0.52623757101,74879
1070,311.0,0.53118252101,75575
1080,309.0,0.535783639009,76280
1090,307.0,0.54032360201,76989
1100,311.0,0.544880244011,77693
1110,309.0,0.549299182011,78392
1120,314.0,0.553855824011,79093
1130,310.0,0.558435558011,79793
1140,307.0,0.562788637011,80496
1150,309.0,0.567327317011,81201
1160,312.0,0.571686811011,81894
1170,311.0,0.576335398012,82593
1180,311.0,0.580664528013,83290
1190,311.0,0.584898720012,83993
1200,312.0,0.589224857013,84699
1210,313.0,0.593549711012,85386
1220,317.0,0.597974636013,86088
1230,316.0,0.602243040013,86799
1240,314.0,0.606614080012,87504
1250,315.0,0.611284049012,88184
1260,315.0,0.615502417012,88871
1270,315.0,0.619798618012,89564
1280,316.0,0.624575074012,90277
1290,322.0,0.628894368012,90976
1300,321.0,0.633643454012,91662
1310,323.0,0.638011929012,92361
1320,319.0,0.642277339011,93062
1330,317.0,0.646719370012,93766
1340,320.0,0.651024552012,94454
1350,320.0,0.655330162012,95162
1360,320.0,0.659758080012,95862
1370,321.0,0.664083361011,96558
1380,322.0,0.668455685011,97258
1390,325.0,0.672800639011,97961
1400,328.0,0.677092991011,98659
1410,326.0,0.681347710011,99378
1420,322.0,0.685575486012,100081
1430,324.0,0.689884944012,100783
1440,326.0,0.694183283013,101484
1450,328.0,0.698504288012,102184
1460,326.0,0.702866775012,102898
1470,326.0,0.707573523012,103591
1480,329.0,0.711866303012,104298
1490,329.0,0.716608974012,104994
1500,328.0,0.720912872012,105674
1510,330.0,0.725249700013,106385
1520,331.0,0.729944045013,107071
1530,326.0,0.734282583013,107770
1540,329.0,0.738589048013,108458
1550,330.0,0.742941272013,109158
1560,333.0,0.747387579013,109869
1570,326.0,0.752077648013,110569
1580,326.0,0.756415331013,111266
1590,327.0,0.760828281013,111972
1600,328.0,0.765610295014,112665
1610,326.0,0.769992454014,113352
1620,326.0,0.774478106014,114058
1630,331.0,0.779576584014,114739
1640,328.0,0.784016048014,115435
1650,322.0,0.788387516013,116133
1660,324.0,0.792890701013,116828
1670,325.0,0.797176211013,117518
1680,327.0,0.801930428013,118226
1690,324.0,0.806219359013,118931
1700,324.0,0.810885052013,119632
1710,321.0,0.815593082013,120332
1720,327.0,0.820030408013,121024
1730,321.0,0.824405297013,121726
1740,325.0,0.829137276013,122414
1750,318.0,0.833807245013,123106
1760,323.0,0.838310857013,123805
1770,319.0,0.842736209013,124506
1780,318.0,0.847736327013,125205
1790,320.0,0.852225399013,125896
1800,320.0,0.857097221014,126595
1810,318.0,0.861612808014,127298
1820,321.0,0.866004376014,128001
1830,317.0,0.870182117014,128696
1840,318.0,0.874556151014,129409
1850,323.0,0.879149570014,130113
1860,323.0,0.883861022015,130815
1870,319.0,0.888639188015,131516
1880,320.0,0.893083784014,132240
1890,322.0,0.897497162015,132937
1900,319.0,0.902032420015,133647
1910,324.0,0.906572383014,134340
1920,328.0,0.910973787015,135040
1930,323.0,0.915526152015,135736
1940,322.0,0.919940813015,136443
1950,325.0,0.924704438015,137142
1960,323.0,0.929231999015,137835
1970,323.0,0.933707387016,138533
1980,322.0,0.938671155015,139228
1990,325.0,0.943322735015,139909
2000,322.0,0.947870396016,140611
2010,323.0,0.952206369016,141301
2020,324.0,0.956853673016,142010
2030,325.0,0.961323073016,142705
2040,322.0,0.966000313016,143406
2050,331.0,0.970512479016,144086
2060,324.0,0.974963490016,144784
2070,325.0,0.979486347016,145485
2080,326.0,0.983757317016,146179
2090,325.0,0.988222013016,146863
2100,325.0,0.992586638015,147555
2110,326.0,0.996909353015,148251
2120,329.0,1.00139329302,148946
2130,328.0,1.00624971901,149632
2140,330.0,1.01058740201,150327
2150,332.0,1.01489044601,151018
2160,330.0,1.01942741601,151704
2170,331.0,1.02397721501,152410
2180,333.0,1.02838503301,153102
2190,333.0,1.03290233101,153800
2200,334.0,1.03745811701,154499
2210,333.0,1.04186550801,155204
2220,331.0,1.04634046801,155900
2230,333.0,1.05079575601,156596
2240,329.0,1.05521298301,157294
2250,337.0,1.05962764401,157986
2260,328.0,1.06408207601,158676
2270,326.0,1.06852923901,159380
2280,330.0,1.07302002201,160084
2290,331.0,1.07744622901,160782
2300,333.0,1.08205333401,161487
2310,327.0,1.08672073801,162179
2320,327.0,1.09124445001,162875
2330,326.0,1.09618426901,163565
2340,329.0,1.10072893602,164251
2350,329.0,1.10525607002,164927
2360,335.0,1.10969767302,165636
2370,335.0,1.11434454902,166331
2380,341.0,1.11895336402,167019
2390,335.0,1.12350316302,167714
2400,332.0,1.12814961202,168407
2410,332.0,1.13572719402,169094
2420,332.0,1.14016879702,169783
2430,333.0,1.14516036202,170483
2440,337.0,1.14983931202,171188
2450,333.0,1.15445283202,171880
2460,332.0,1.15901888202,172575
2470,331.0,1.16351223102,173284
2480,339.0,1.16833957702,173981
2490,332.0,1.17292487202,174672
2500,335.0,1.17771073502,175374
2510,330.0,1.18228106202,176076
2520,332.0,1.18691938502,176773
2530,333.0,1.19149527102,177455
2540,335.0,1.19598006702,178156
2550,337.0,1.20058161202,178840
2560,335.0,1.20508522402,179554
2570,335.0,1.20962775302,180254
2580,334.0,1.21432808602,180954
2590,333.0,1.21873676002,181653
2600,330.0,1.22326688702,182363
2610,330.0,1.22780129002,183053
2620,333.0,1.23248964902,183738
2630,332.0,1.23699711002,184445
2640,333.0,1.24129630402,185129
2650,335.0,1.24599449902,185826
2660,339.0,1.25070466802,186529
2670,329.0,1.25530022602,187233
2680,332.0,1.26041452702,187922
2690,335.0,1.26483389202,188621
2700,338.0,1.26933023402,189314
2710,335.0,1.27384838702,190003
2720,337.0,1.27839391002,190705
2730,336.0,1.28289709402,191406
2740,331.0,1.28739728502,192099
2750,333.0,1.29220282102,192795
2760,332.0,1.29690572002,193475
2770,330.0,1.30140805002,194161
2780,334.0,1.30592663102,194856
2790,333.0,1.31071121202,195560
2800,332.0,1.31537091802,196249
2810,330.0,1.32006740202,196949
2820,329.0,1.32454065202,197628
2830,330.0,1.32926108502,198335
2840,333.0,1.33411964902,199030
2850,332.0,1.33859033202,199717
2860,333.0,1.34297291902,200434
2870,333.0,1.34742050902,201114
2880,331.0,1.35217344302,201818
2890,335.0,1.35670357002,202523
2900,334.0,1.36107247202,203208
2910,333.0,1.36548670502,203915
2920,334.0,1.36991847202,204607
2930,336.0,1.37453113602,205304
2940,337.0,1.37923275202,206009
2950,338.0,1.38372995002,206706
2960,339.0,1.38821089702,207399
2970,338.0,1.39273546502,208101
2980,336.0,1.39779887602,208786
2990,332.0,1.40232258802,209460
3000,329.0,1.40693311402,210155
3010,335.0,1.41119638602,210849
3020,332.0,1.41624055202,211542
3030,339.0,1.42075656602,212226
3040,338.0,1.42539275102,212938
3050,335.0,1.42980527402,213638
3060,333.0,1.43430332702,214342
3070,333.0,1.43885611902,215050
3080,333.0,1.44357911802,215749
3090,332.0,1.44811737102,216449
3100,332.0,1.45259104802,217152
3110,335.0,1.45714170302,217843
3120,332.0,1.46146912302,218552
3130,331.0,1.46590516702,219244
3140,336.0,1.47022146702,219934
3150,333.0,1.47471567102,220624
3160,334.0,1.47947587502,221326
3170,339.0,1.48383408602,222015
3180,336.0,1.48867468902,222722
3190,329.0,1.49294480302,223415
3200,333.0,1.49742489402,224123
3210,326.0,1.50178182202,224822
3220,326.0,1.50628543402,225511
3230,324.0,1.51073174102,226202
3240,322.0,1.51519429902,226905
3250,322.0,1.51953412002,227602
3260,327.0,1.52387009202,228303
3270,319.0,1.52828347002,229001
3280,322.0,1.53262072602,229690
3290,326.0,1.53692676302,230375
3300,323.0,1.54144491602,231076
3310,319.0,1.54590875602,231779
3320,322.0,1.55084258802,232476
3330,318.0,1.55530429102,233160
3340,318.0,1.56012565002,233865
3350,321.0,1.56483239802,234559
3360,318.0,1.56941897502,235253
3370,318.0,1.57397732702,235954
3380,313.0,1.57875292702,236648
3390,319.0,1.58317656802,237350
3400,316.0,1.58753777302,238054
3410,315.0,1.59235015102,238749
3420,315.0,1.59685376302,239452
3430,318.0,1.60161311202,240157
3440,315.0,1.60598800102,240854
3450,317.0,1.61030515702,241549
3460,317.0,1.61466037402,242238
3470,318.0,1.61892492902,242932
3480,315.0,1.62314714602,243639
3490,317.0,1.62742153702,244341
3500,317.0,1.63172629102,245039
3510,316.0,1.63607637602,245740
3520,315.0,1.64046708802,246433
3530,317.0,1.64488517002,247140
3540,317.0,1.64916811402,247847
3550,317.0,1.65343694502,248537
3560,320.0,1.65766429302,249227
3570,321.0,1.66244930102,249916
3580,322.0,1.66678313602,250627
3590,320.0,1.67111654302,251327
3600,324.0,1.67559449602,252042
3610,319.0,1.68041756502,252735
3620,321.0,1.68493614502,253416
3630,324.0,1.68946327802,254107
3640,322.0,1.69383346302,254809
3650,322.0,1.69832809502,255523
3660,317.0,1.70290740202,256224
3670,321.0,1.70744394402,256921
3680,321.0,1.71175211902,257611
3690,317.0,1.71628181802,258318
3700,313.0,1.72066269402,259015
3710,315.0,1.72510087602,259708
3720,314.0,1.72944925102,260400
3730,312.0,1.73410339802,261100
3740,317.0,1.73860444402,261796
3750,312.0,1.74310720202,262497
3760,314.0,1.74781010002,263187
3770,314.0,1.75220936502,263885
3780,314.0,1.75671255002,264581
3790,312.0,1.76128715302,265271
3800,312.0,1.76569240502,265972
3810,315.0,1.77027898202,266672
3820,316.0,1.77465515402,267369
3830,316.0,1.77908777602,268074
3840,310.0,1.78347635002,268774
3850,309.0,1.79150467802,269487
3860,310.0,1.79634827502,270189
3870,312.0,1.80133256902,270891
3880,319.0,1.80589391402,271594
3890,314.0,1.81033252302,272278
3900,313.0,1.81486265002,272984
3910,315.0,1.81958051702,273698
3920,313.0,1.82421627402,274393
3930,315.0,1.82905131702,275101
3940,316.0,1.83363361802,275792
3950,313.0,1.83864656502,276496
3960,315.0,1.84318225202,277210
3970,317.0,1.84766833102,277906
3980,320.0,1.85201328402,278590
3990,322.0,1.85637149502,279288
4000,320.0,1.86088622702,279973
4010,320.0,1.86533766602,280684
4020,318.0,1.86969887002,281378
4030,323.0,1.87425422802,282081
4040,321.0,1.87900930102,282779
4050,320.0,1.88360571502,283470
4060,322.0,1.88807768102,284164
4070,323.0,1.89303032902,284871
4080,337.0,1.89746081302,285570
4090,329.0,1.90224710502,286271
4100,326.0,1.90703553402,286968
4110,329.0,1.91138861302,287667
4120,325.0,1.91569849902,288372
4130,331.0,1.92010417902,289074
4140,327.0,1.92461805502,289776
4150,329.0,1.92895744802,290487
4160,327.0,1.93331694202,291192
4170,328.0,1.93767429702,291897
4180,332.0,1.94240071702,292586
4190,329.0,1.94687225502,293275
4200,330.0,1.95143488302,293973
4210,333.0,1.95584398402,294646
4220,328.0,1.96029242902,295357
4230,330.0,1.96468185903,296060
4240,330.0,1.96899131703,296757
4250,330.0,1.97334781702,297453
4260,330.0,1.97813325302,298158
4270,328.0,1.98247221902,298861
4280,330.0,1.98722301502,299565
4290,328.0,1.99169070403,300266
4300,331.0,1.99600358302,300963
4310,331.0,2.00053841502,301657
4320,331.0,2.00488379602,302348
4330,331.0,2.00965383602,303058
4340,330.0,2.01397313002,303760
4350,334.0,2.01829712902,304458
4360,334.0,2.02283281602,305143
4370,335.0,2.02759045402,305833
4380,342.0,2.03181138802,306526
4390,332.0,2.03621835102,307232
4400,337.0,2.04099138502,307918
4410,334.0,2.04544496202,308604
4420,330.0,2.04990538202,309279
4430,334.0,2.05445389802,309981
4440,335.0,2.05900027602,310697
4450,334.0,2.06362491402,311389
4460,335.0,2.06821063602,312088
4470,337.0,2.07269585902,312783
4480,340.0,2.07713190202,313493
4490,342.0,2.08165219302,314192
4500,340.0,2.08610876402,314909
4510,340.0,2.09046184202,315599
4520,337.0,2.09508648102,316297
4530,340.0,2.09958196802,317003
4540,344.0,2.10415913702,317715
4550,348.0,2.10852761102,318423
4560,343.0,2.11289993402,319113
4570,349.0,2.11715636402,319812
4580,343.0,2.12156247102,320504
4590,345.0,2.12617256902,321222
4600,345.0,2.13066634502,321935
4610,350.0,2.13530723402,322643
4620,338.0,2.13959103302,323337
4630,342.0,2.14398602102,324039
4640,341.0,2.14848578502,324736
4650,340.0,2.15291327502,325440
4660,335.0,2.15736856302,326151
4670,339.0,2.16187431302,326849
4680,336.0,2.16627956602,327554
4690,336.0,2.17111589302,328258
4700,340.0,2.17551943502,328962
4710,337.0,2.18009745902,329661
4720,339.0,2.18460064402,330349
4730,341.0,2.18924538202,331051
4740,340.0,2.19371007902,331746
4750,340.0,2.19816109102,332471
4760,341.0,2.20265572302,333160
4770,340.0,2.20719098202,333859
4780,340.0,2.21161077502,334567
4790,338.0,2.21612336802,335269
4800,338.0,2.22073389402,335972
4810,337.0,2.22515026502,336657
4820,338.0,2.22984204502,337359
4830,336.0,2.23471429402,338055
4840,337.0,2.23981362702,338750
4850,336.0,2.24452764502,339443
4860,333.0,2.24962740502,340142
4870,334.0,2.25429480902,340846
4880,336.0,2.25882194302,341534
4890,331.0,2.26330716602,342235
4900,331.0,2.26791084902,342934
4910,328.0,2.27251410502,343647
4920,331.0,2.27706219402,344345
4930,329.0,2.28177364602,345036
4940,329.0,2.28616949002,345757
4950,326.0,2.29044815702,346457
4960,329.0,2.29483673102,347147
4970,324.0,2.29926892502,347852
4980,325.0,2.30359249602,348556
4990,324.0,2.30792846802,349252
