it,funval,time,funcount
0,119.0,0.00286784000014,742
10,125.0,0.00572798200005,1366
20,126.0,0.00859282800002,1998
30,129.0,0.011453398,2637
40,128.0,0.0142237329999,3274
50,134.0,0.0171292069999,3910
60,137.0,0.0199474389999,4534
70,138.0,0.0226968189997,5155
80,139.0,0.0254637329997,5801
90,137.0,0.0282161069997,6431
100,139.0,0.0309770339998,7052
110,138.0,0.0336789449998,7680
120,138.0,0.0364946119998,8309
130,140.0,0.0391370789998,8957
140,137.0,0.0418043499999,9593
150,142.0,0.0444895829999,10211
160,143.0,0.04713034,10842
170,146.0,0.0497681029999,11483
180,144.0,0.0523635289999,12116
190,143.0,0.0548725679998,12739
200,144.0,0.0573568039999,13359
210,146.0,0.0598170909998,13985
220,148.0,0.0622748119997,14612
230,147.0,0.0647581929998,15246
240,147.0,0.0672531199998,15875
250,145.0,0.0697758439999,16503
260,147.0,0.0722181690001,17120
270,148.0,0.074828135,17764
280,147.0,0.0773016789999,18394
290,147.0,0.0798765779998,19025
300,146.0,0.0823419969997,19652
310,146.0,0.0848424839996,20287
320,148.0,0.0873130349996,20916
330,147.0,0.0899589229996,21540
340,145.0,0.0925757309994,22163
350,147.0,0.0950219059996,22787
360,146.0,0.0974372899996,23404
370,144.0,0.100057947,24044
380,143.0,0.10273762,24688
390,142.0,0.105253074,25321
400,147.0,0.107765534,25946
410,148.0,0.110582056,26575
420,147.0,0.113075273,27203
430,150.0,0.115590727,27840
440,151.0,0.118050159,28455
450,152.0,0.12054081,29087
460,151.0,0.123025901,29722
470,152.0,0.125423323,30357
480,152.0,0.127854102,30986
490,150.0,0.130297282,31607
500,151.0,0.133112948,32243
510,151.0,0.135708801,32878
520,151.0,0.138302515,33510
530,154.0,0.140669146,34143
540,151.0,0.143186311,34771
550,153.0,0.145690219,35400
560,150.0,0.148163763,36038
570,152.0,0.150533388,36651
580,153.0,0.153102299,37285
590,153.0,0.155711837,37922
600,152.0,0.158437269,38548
610,152.0,0.160897556,39181
620,156.0,0.163271885,39795
630,155.0,0.165673584,40436
640,153.0,0.168083408,41064
650,153.0,0.170506917,41696
660,153.0,0.172889798999,42327
670,155.0,0.175387291999,42966
680,154.0,0.177737244999,43601
690,153.0,0.180280924999,44231
700,155.0,0.182758318,44857
710,156.0,0.185352887999,45494
720,157.0,0.187831563999,46131
730,159.0,0.190312377999,46766
740,156.0,0.192758552,47398
750,160.0,0.19518591,48034
760,160.0,0.197622676,48657
770,158.0,0.200084673,49286
780,159.0,0.202628352999,49925
790,159.0,0.205159203,50561
800,159.0,0.2076614,51176
810,158.0,0.21026153,51806
820,157.0,0.212753891,52429
830,157.0,0.215212467,53060
840,157.0,0.2176116,53681
850,158.0,0.219954711,54312
860,159.0,0.222333744,54940
870,159.0,0.224696954,55572
880,159.0,0.227025952,56195
890,160.0,0.229408406,56844
900,159.0,0.231994423,57473
910,159.0,0.234379871,58107
920,160.0,0.23703474,58729
930,159.0,0.239420188,59368
940,161.0,0.241976269,60004
950,158.0,0.244352309,60634
960,160.0,0.246729631,61250
970,159.0,0.249156562,61874
980,156.0,0.251601881,62517
990,159.0,0.253987329,63152
1000,155.0,0.256324879,63781
1010,155.0,0.258672694,64403
1020,154.0,0.261006823,65035
1030,153.0,0.263361908,65668
1040,153.0,0.265680215,66288
1050,155.0,0.268053259999,66919
1060,154.0,0.270478051999,67551
1070,155.0,0.272843399999,68173
1080,154.0,0.275183943999,68803
1090,153.0,0.277591629999,69427
1100,158.0,0.280054909999,70063
1110,154.0,0.282649051999,70688
1120,153.0,0.285248753999,71324
1130,154.0,0.287813815999,71960
1140,155.0,0.290362626999,72574
1150,154.0,0.292991836999,73208
1160,154.0,0.295625750999,73840
1170,154.0,0.298244697999,74462
1180,153.0,0.300840978999,75095
1190,156.0,0.303419725999,75718
1200,156.0,0.306001465999,76354
1210,158.0,0.308588338999,76970
1220,155.0,0.311192744999,77605
1230,155.0,0.313893800999,78233
1240,154.0,0.316533274999,78865
1250,154.0,0.319115014999,79487
1260,155.0,0.321693761999,80109
1270,154.0,0.324313562999,80753
1280,155.0,0.326889315999,81378
1290,155.0,0.329495860999,82004
1300,152.0,0.332096418,82636
1310,153.0,0.334675164999,83258
1320,153.0,0.337315922,83874
1330,150.0,0.339927171,84512
1340,153.0,0.342590593,85135
1350,155.0,0.345133416999,85763
1360,155.0,0.347722854999,86393
1370,158.0,0.350179720999,87024
1380,154.0,0.352640863999,87646
1390,153.0,0.355118684999,88281
1400,155.0,0.357617032999,88920
1410,152.0,0.360149592999,89556
1420,155.0,0.362704390999,90199
1430,150.0,0.365201883999,90822
1440,150.0,0.367720759999,91449
1450,153.0,0.370213120999,92070
1460,154.0,0.372714462999,92705
1470,153.0,0.375265839999,93335
1480,155.0,0.377737672999,93970
1490,155.0,0.380166313999,94598
1500,157.0,0.382698445999,95221
1510,156.0,0.385137349999,95848
1520,156.0,0.387733202999,96469
1530,155.0,0.390325207999,97097
1540,152.0,0.392893690999,97730
1550,151.0,0.395859891999,98356
1560,151.0,0.398303072999,98982
1570,152.0,0.400742404999,99613
1580,152.0,0.403149663,100241
1590,152.0,0.405662979,100876
1600,155.0,0.40829561,101502
1610,152.0,0.410784978,102151
1620,150.0,0.413225165999,102781
1630,155.0,0.415729072999,103422
1640,153.0,0.418306108999,104052
1650,154.0,0.420884855999,104681
1660,153.0,0.423357972999,105320
1670,151.0,0.426020539999,105947
1680,154.0,0.428474839999,106567
1690,154.0,0.430926573999,107209
1700,153.0,0.433287645999,107831
1710,149.0,0.435705167999,108458
1720,154.0,0.438191541999,109091
1730,152.0,0.440545770999,109721
1740,155.0,0.442959443999,110358
1750,153.0,0.445370978999,110981
1760,152.0,0.447825705999,111614
1770,150.0,0.450285992999,112258
1780,150.0,0.452693250999,112892
1790,149.0,0.455162090999,113527
1800,151.0,0.457612113999,114171
1810,152.0,0.460007824999,114809
1820,152.0,0.462999256999,115448
1830,150.0,0.465403093999,116082
1840,147.0,0.467856110999,116711
1850,149.0,0.470319819999,117344
1860,148.0,0.472774974999,117976
1870,148.0,0.475226708999,118606
1880,151.0,0.477674593999,119236
1890,150.0,0.480107082999,119861
1900,151.0,0.482605430999,120485
1910,148.0,0.485051604999,121121
1920,150.0,0.487510180999,121758
1930,150.0,0.489979020999,122387
1940,149.0,0.492456840999,123010
1950,153.0,0.49492953,123631
1960,152.0,0.497335504999,124257
1970,149.0,0.499834707999,124904
1980,150.0,0.502276605999,125550
1990,148.0,0.504784362999,126180
2000,152.0,0.507310935999,126808
2010,151.0,0.509793032999,127426
2020,150.0,0.512301644999,128066
2030,150.0,0.514825223999,128710
2040,149.0,0.517254292999,129323
2050,149.0,0.519692769999,129962
2060,150.0,0.522159471999,130590
2070,146.0,0.524635581999,131217
2080,145.0,0.527115112999,131844
2090,147.0,0.529602341999,132468
2100,147.0,0.532042529999,133100
2110,148.0,0.534477157999,133734
2120,148.0,0.536964814999,134355
2130,149.0,0.539370789999,134993
2140,147.0,0.541910192999,135617
2150,148.0,0.544300771999,136246
2160,152.0,0.546700331999,136881
2170,147.0,0.549226904999,137500
2180,146.0,0.551683342999,138143
2190,146.0,0.554203073999,138774
2200,147.0,0.556627865999,139410
2210,147.0,0.559085587,140039
2220,144.0,0.561558276,140674
2230,145.0,0.564042512,141311
2240,145.0,0.566573362,141944
2250,142.0,0.569002858,142571
2260,145.0,0.571523443999,143193
2270,140.0,0.574041892,143831
2280,141.0,0.576547081999,144468
2290,141.0,0.579008224999,145107
2300,139.0,0.581409067999,145737
2310,141.0,0.583867216999,146369
2320,147.0,0.586364282999,147003
2330,142.0,0.588859636999,147644
2340,146.0,0.591356702999,148283
2350,145.0,0.593855905999,148902
2360,145.0,0.596400868999,149544
2370,143.0,0.598918033999,150171
2380,141.0,0.601551092999,150811
2390,145.0,0.604039177999,151437
2400,148.0,0.606572593999,152065
2410,144.0,0.609068375999,152694
2420,144.0,0.611571000999,153333
2430,145.0,0.614067211,153966
2440,145.0,0.61656727,154601
2450,145.0,0.619059631,155229
2460,149.0,0.621522484,155854
2470,146.0,0.623965237,156490
2480,148.0,0.626432366,157120
2490,148.0,0.629034634,157739
2500,149.0,0.631476104,158379
2510,151.0,0.633914153,159018
2520,152.0,0.636344076,159639
2530,149.0,0.638759887,160262
2540,150.0,0.641169711,160891
2550,150.0,0.64358595,161521
2560,148.0,0.645988076,162150
2570,150.0,0.648415006,162784
2580,150.0,0.650883419,163415
2590,149.0,0.653276564,164047
2600,146.0,0.655748826,164675
2610,144.0,0.658197994,165301
2620,144.0,0.660642458,165930
2630,146.0,0.663103601,166568
2640,146.0,0.665526682,167202
2650,144.0,0.668008779,167834
2660,145.0,0.670386956,168466
2670,151.0,0.672760857,169101
2680,147.0,0.675196341,169743
2690,149.0,0.677586065,170370
2700,147.0,0.680057899,171006
2710,148.0,0.682520324,171641
2720,146.0,0.684992586,172276
2730,152.0,0.687433629,172914
2740,152.0,0.689866119,173541
2750,152.0,0.692313576,174180
2760,156.0,0.694730243,174802
2770,152.0,0.697167437,175426
2780,149.0,0.699626014,176052
2790,149.0,0.702126501,176684
2800,149.0,0.70457909,177323
2810,151.0,0.70699875,177949
2820,152.0,0.709397027,178581
2830,155.0,0.71178333,179216
2840,152.0,0.714185457,179840
2850,151.0,0.716644461,180468
2860,151.0,0.719079944,181120
2870,145.0,0.721531678,181743
2880,150.0,0.723956898,182365
2890,150.0,0.726385967,182989
2900,151.0,0.728865071,183611
2910,149.0,0.731292857,184237
2920,148.0,0.733738604,184862
2930,148.0,0.73617708,185490
2940,148.0,0.738638223,186132
2950,146.0,0.741095944,186756
2960,147.0,0.743648176,187388
2970,148.0,0.746146097,188019
2980,144.0,0.748639313,188649
2990,144.0,0.751159472,189279
3000,146.0,0.75365782,189911
3010,142.0,0.756157879,190540
3020,145.0,0.758651095,191173
3030,143.0,0.761149016,191807
3040,147.0,0.76366276,192450
3050,148.0,0.766125613,193075
3060,148.0,0.768547411,193703
3070,146.0,0.771019245,194325
3080,148.0,0.773426503,194945
3090,149.0,0.775867546,195577
3100,146.0,0.778280791,196210
3110,147.0,0.780687194,196843
3120,149.0,0.783142349,197462
3130,146.0,0.785597505,198098
3140,146.0,0.7881074,198733
3150,150.0,0.790539462,199370
3160,148.0,0.793075016,200007
3170,150.0,0.795498097,200642
3180,151.0,0.797858741,201272
3190,150.0,0.800230504,201902
3200,150.0,0.802654441,202531
3210,150.0,0.805173317,203172
3220,151.0,0.807533533,203805
3230,150.0,0.809878781999,204452
3240,151.0,0.812336075999,205076
3250,154.0,0.814825443999,205707
3260,151.0,0.817282309999,206344
3270,152.0,0.819752004999,206978
3280,151.0,0.822196468999,207608
3290,148.0,0.824685409,208233
3300,150.0,0.827123886,208857
3310,150.0,0.829592725999,209498
3320,150.0,0.83624786,210117
3330,149.0,0.838662815999,210774
3340,153.0,0.841676485999,211424
3350,150.0,0.844213322999,212056
3360,149.0,0.846724500999,212694
3370,149.0,0.849251500999,213331
3380,145.0,0.851823404999,213949
3390,149.0,0.854355964999,214580
3400,147.0,0.856918032999,215228
3410,146.0,0.859470264999,215858
3420,144.0,0.862021214999,216486
3430,146.0,0.864576013999,217116
3440,148.0,0.867073079999,217750
3450,144.0,0.869672781999,218376
3460,145.0,0.872174122999,219010
3470,147.0,0.874647667,219641
3480,150.0,0.877396192,220267
3490,149.0,0.879868881,220902
3500,151.0,0.882265875,221529
3510,150.0,0.884759091,222171
3520,150.0,0.8873156,222814
3530,150.0,0.889793420999,223450
3540,150.0,0.892430755999,224086
3550,149.0,0.895088617999,224714
3560,147.0,0.897528804999,225333
3570,146.0,0.899959155999,225956
3580,148.0,0.902411744999,226587
3590,148.0,0.904855780999,227222
3600,147.0,0.907365247999,227850
3610,149.0,0.909843924999,228480
3620,145.0,0.912237069999,229103
3630,147.0,0.914643472999,229734
3640,142.0,0.917060566999,230361
3650,144.0,0.919492200999,230987
3660,145.0,0.921941368999,231608
3670,144.0,0.924446131999,232231
3680,145.0,0.926994942999,232866
3690,145.0,0.929530924999,233500
3700,147.0,0.932007462999,234130
3710,145.0,0.934566965999,234780
3720,146.0,0.937055050999,235406
3730,147.0,0.939606000999,236044
3740,145.0,0.942196293999,236668
3750,148.0,0.944685661999,237305
3760,147.0,0.947193418999,237929
3770,150.0,0.949690055999,238555
3780,148.0,0.952181133999,239192
3790,155.0,0.954822317999,239818
3800,150.0,0.957303559999,240465
3810,151.0,0.959848949999,241095
3820,155.0,0.962340027999,241722
3830,152.0,0.964778931999,242350
3840,153.0,0.967221256999,242982
3850,153.0,0.969683681999,243605
3860,152.0,0.972166206999,244234
3870,151.0,0.974663271999,244872
3880,150.0,0.977106879999,245497
3890,152.0,0.979551771999,246126
3900,152.0,0.982009920999,246755
3910,152.0,0.984437705999,247378
3920,153.0,0.986912104999,248014
3930,155.0,0.989401472999,248637
3940,152.0,0.991865181998,249262
3950,152.0,0.994354121999,249891
3960,153.0,0.996791742999,250515
3970,154.0,0.999196862999,251130
3980,150.0,1.00159343,251759
3990,151.0,1.00399684,252388
4000,150.0,1.00642206,253038
4010,152.0,1.00896916,253673
4020,152.0,1.011531229,254297
4030,153.0,1.013982535,254939
4040,152.0,1.016479172,255555
4050,154.0,1.018973672,256181
4060,153.0,1.021550708,256809
4070,155.0,1.024086262,257437
4080,152.0,1.026596584,258065
4090,153.0,1.029082531,258693
4100,155.0,1.031522291,259309
4110,156.0,1.034048009,259938
4120,155.0,1.036665244,260570
4130,158.0,1.039147769,261200
4140,158.0,1.041626018,261843
4150,157.0,1.044034132,262465
4160,155.0,1.046500407,263099
4170,155.0,1.04899234,263734
4180,154.0,1.051430389,264360
4190,154.0,1.053852187,264999
4200,154.0,1.056268853,265626
4210,153.0,1.058738548,266256
4220,157.0,1.061238179,266886
4230,154.0,1.063666392,267518
4240,155.0,1.066074505,268141
4250,153.0,1.068520251,268775
4260,154.0,1.070915962,269392
4270,154.0,1.073324931,270013
4280,154.0,1.075751006,270644
4290,156.0,1.078262611,271288
4300,153.0,1.080750268,271920
4310,158.0,1.083287533,272566
4320,155.0,1.085784598,273189
4330,152.0,1.088291071,273814
4340,153.0,1.090788563,274440
4350,154.0,1.093260397,275068
4360,153.0,1.095762594,275706
4370,153.0,1.098204919,276341
4380,152.0,1.100695997,276960
4390,153.0,1.10318066,277591
4400,154.0,1.105676443,278222
4410,152.0,1.108108932,278848
4420,155.0,1.110634222,279473
4430,154.0,1.113074838,280101
4440,154.0,1.115483379,280740
4450,155.0,1.117896625,281360
4460,154.0,1.120366321,281992
4470,154.0,1.122825325,282618
4480,154.0,1.12526594,283250
4490,153.0,1.127698002,283868
4500,155.0,1.130156578,284488
4510,152.0,1.132585647,285115
4520,155.0,1.135069455,285747
4530,157.0,1.137519906,286381
4540,156.0,1.139949402,287011
4550,152.0,1.142316033,287647
4560,152.0,1.144792999,288289
4570,155.0,1.147300756,288947
4580,156.0,1.149804663,289577
4590,156.0,1.152271792,290208
4600,156.0,1.154723098,290836
4610,155.0,1.157200919,291469
4620,155.0,1.159654792,292093
4630,158.0,1.16209113,292718
4640,153.0,1.164542437,293351
4650,154.0,1.166971505,293965
4660,152.0,1.169456168,294602
4670,158.0,1.171912606,295216
4680,156.0,1.174342529,295842
4690,157.0,1.176783999,296468
4700,157.0,1.179210929,297097
4710,157.0,1.181693454,297730
4720,158.0,1.184158446,298372
4730,158.0,1.186621299,299011
4740,157.0,1.189058065,299650
4750,160.0,1.191505523,300289
4760,160.0,1.194004727,300917
4770,160.0,1.196520609,301550
4780,157.0,1.199018529,302165
4790,155.0,1.20156563,302808
4800,156.0,1.204085361,303440
4810,153.0,1.206612789,304064
4820,154.0,1.209096597,304694
4830,153.0,1.211624025,305317
4840,154.0,1.214160007,305940
4850,155.0,1.216672896,306567
4860,151.0,1.219155849,307196
4870,152.0,1.221725187,307829
4880,150.0,1.224237648,308459
4890,148.0,1.22681554,309093
4900,149.0,1.229369911,309722
4910,145.0,1.231878095,310344
4920,150.0,1.234363186,310981
4930,152.0,1.23687308,311608
4940,151.0,1.239318827,312239
4950,151.0,1.241834281,312869
4960,153.0,1.24430526,313500
4970,153.0,1.246810451,314126
4980,154.0,1.24927587,314756
4990,153.0,1.251761816,315399
