it,funval,time,funcount
0,64.0,0.000480681999989,432
10,65.0,0.000968205999925,768
20,70.0,0.00147069799993,1112
30,67.0,0.00196249899989,1453
40,71.0,0.00243847699994,1795
50,71.0,0.00294909399997,2134
60,71.0,0.00343832900001,2460
70,72.0,0.00394039299999,2793
80,76.0,0.00439498799994,3120
90,78.0,0.00488294000002,3457
100,81.0,0.00534737099997,3801
110,79.0,0.00581992799994,4146
120,78.0,0.00630146499998,4481
130,77.0,0.00674408500004,4805
140,79.0,0.00723845100003,5142
150,78.0,0.00767807900002,5472
160,78.0,0.00814293799999,5804
170,79.0,0.00858256499998,6142
180,78.0,0.00901919900002,6459
190,76.0,0.00948106399994,6787
200,78.0,0.00995960699993,7126
210,76.0,0.010414629,7463
220,79.0,0.0108850470001,7806
230,79.0,0.011370433,8149
240,78.0,0.0118468390001,8483
250,76.0,0.0123463370001,8811
260,77.0,0.0128449800001,9147
270,81.0,0.0133402020001,9487
280,79.0,0.013841411,9818
290,78.0,0.0143255150001,10151
300,81.0,0.0148117570001,10483
310,82.0,0.0152791820001,10826
320,83.0,0.0157359160002,11167
330,81.0,0.0166207290001,11503
340,81.0,0.0170671980001,11850
350,82.0,0.0175106740001,12192
360,82.0,0.0179798090001,12532
370,84.0,0.0184391080001,12875
380,84.0,0.0188744590001,13219
390,85.0,0.0192986910001,13553
400,84.0,0.0197464440001,13904
410,85.0,0.0201817950002,14251
420,85.0,0.0206197120002,14589
430,86.0,0.0210760170002,14931
440,85.0,0.0215177820002,15270
450,85.0,0.0219501390002,15597
460,84.0,0.0223713770001,15933
470,86.0,0.0227968920002,16279
480,85.0,0.0232275390002,16618
490,84.0,0.0236620340002,16942
500,84.0,0.0241033720001,17280
510,85.0,0.0245498420001,17618
520,84.0,0.0250014440001,17947
530,84.0,0.025487685,18285
540,84.0,0.0261176180001,18619
550,85.0,0.026562804,18955
560,85.0,0.0270088460001,19281
570,86.0,0.027466007,19613
580,85.0,0.0279099100001,19955
590,84.0,0.0284017110001,20287
600,84.0,0.0288447600001,20629
610,84.0,0.029302777,20961
620,86.0,0.029774479,21292
630,85.0,0.0302230870001,21622
640,84.0,0.0306584380002,21956
650,85.0,0.0311079020001,22289
660,85.0,0.0315744720002,22628
670,83.0,0.0320029800002,22971
680,85.0,0.0324353370003,23307
690,83.0,0.0328706870002,23651
700,84.0,0.0333287030003,23988
710,83.0,0.0338136610003,24317
720,82.0,0.0342772370003,24657
730,84.0,0.0347314040004,24993
740,84.0,0.0351714590003,25340
750,86.0,0.0355961180002,25667
760,84.0,0.0360353180002,25998
770,84.0,0.0364749450002,26334
780,86.0,0.0369295400002,26667
790,87.0,0.0373477850002,26998
800,85.0,0.0378117890002,27340
810,85.0,0.0382458570002,27664
820,86.0,0.0386889060002,28001
830,86.0,0.0391281050001,28345
840,87.0,0.0395651670001,28677
850,87.0,0.0400035110001,29015
860,85.0,0.0404384340001,29348
870,87.0,0.040902866,29690
880,87.0,0.0413707180001,30023
890,87.0,0.041809918,30354
900,87.0,0.042255532,30684
910,88.0,0.042701574,31018
920,88.0,0.0431347860001,31350
930,87.0,0.0435975060001,31693
940,87.0,0.0440662140001,32033
950,90.0,0.0445118280001,32359
960,90.0,0.0449497450001,32691
970,88.0,0.0454111830001,33032
980,89.0,0.0459021290001,33370
990,88.0,0.0463798170001,33707
1000,92.0,0.0468151670001,34033
1010,88.0,0.0472667680001,34375
1020,89.0,0.047706823,34697
1030,88.0,0.048142174,35026
1040,91.0,0.0485920649999,35363
1050,90.0,0.0490346859999,35700
1060,90.0,0.049466188,36033
1070,91.0,0.049928053,36376
1080,90.0,0.050368108,36712
1090,89.0,0.05079576,37041
1100,89.0,0.0512460790001,37380
1110,90.0,0.0517019570001,37707
1120,87.0,0.0521475710001,38038
1130,88.0,0.0526735840001,38370
1140,89.0,0.0531102180001,38704
1150,88.0,0.0535472800001,39050
1160,87.0,0.054097242,39379
1170,87.0,0.0545338759999,39714
1180,87.0,0.0549632399999,40052
1190,87.0,0.0554067159999,40377
1200,86.0,0.0558356519998,40720
1210,84.0,0.0562778449998,41066
1220,87.0,0.0567401379998,41400
1230,88.0,0.0571985819997,41739
1240,86.0,0.0576565989998,42077
1250,85.0,0.0581124769998,42406
1260,85.0,0.0585576639997,42746
1270,84.0,0.0590058439997,43086
1280,83.0,0.0596396249997,43419
1290,84.0,0.0601010619997,43750
1300,84.0,0.0605509529997,44079
1310,83.0,0.0610200889997,44421
1320,84.0,0.0614866579997,44758
1330,82.0,0.0619348389997,45102
1340,82.0,0.0624236459996,45425
1350,82.0,0.0628735369996,45759
1360,81.0,0.0633328359996,46104
1370,82.0,0.0638224989997,46453
1380,81.0,0.0643048919997,46778
1390,83.0,0.0650892079997,47107
1400,83.0,0.0655934109997,47447
1410,82.0,0.0660539929997,47777
1420,84.0,0.0665098709997,48119
1430,83.0,0.0669674599997,48465
1440,82.0,0.0674246209996,48805
1450,83.0,0.0678578339997,49145
1460,84.0,0.0683017379997,49485
1470,85.0,0.0687349499997,49822
1480,86.0,0.0691685899997,50162
1490,84.0,0.0696065059997,50495
1500,81.0,0.0700512649996,50830
1510,82.0,0.0704827669997,51167
1520,84.0,0.0709194009996,51498
1530,82.0,0.0713688639996,51836
1540,84.0,0.0718050699996,52177
1550,83.0,0.0722566709996,52524
1560,84.0,0.0727010019997,52858
1570,84.0,0.0731367809997,53189
1580,85.0,0.0735691379997,53522
1590,86.0,0.0740010669997,53855
1600,86.0,0.0744518129998,54192
1610,85.0,0.0749038419998,54528
1620,84.0,0.0753237969998,54862
1630,86.0,0.0757668449999,55190
1640,86.0,0.0761885099998,55541
1650,86.0,0.0766200119999,55872
1660,86.0,0.0770527969999,56209
1670,85.0,0.0774954169998,56559
1680,86.0,0.0779341889997,56887
1690,88.0,0.0783742439997,57230
1700,86.0,0.0788134439997,57561
1710,86.0,0.0794130129998,57899
1720,87.0,0.0798449419998,58236
1730,86.0,0.0802777269997,58567
1740,88.0,0.0807353149997,58900
1750,87.0,0.0811569809998,59237
1760,85.0,0.0815996019998,59571
1770,85.0,0.0820242609998,59901
1780,86.0,0.0824980999997,60240
1790,86.0,0.0829565439998,60579
1800,87.0,0.0834111389997,60924
1810,84.0,0.0838554699998,61259
1820,86.0,0.0843053599998,61593
1830,86.0,0.0847603829998,61931
1840,87.0,0.0851927399998,62273
1850,87.0,0.0856503289998,62625
1860,88.0,0.0860715669997,62957
1870,87.0,0.0864859619998,63289
1880,87.0,0.0869272989997,63625
1890,86.0,0.0874019939997,63975
1900,84.0,0.0878766889997,64313
1910,85.0,0.0883535219997,64659
1920,87.0,0.0887948599997,64993
1930,83.0,0.0892639959997,65323
1940,85.0,0.0896963529997,65657
1950,83.0,0.0901385459997,65994
1960,84.0,0.0906944949998,66336
1970,87.0,0.0911495169998,66675
1980,86.0,0.0916130929999,67020
1990,84.0,0.0920634119999,67363
2000,82.0,0.0925051769999,67702
2010,86.0,0.092943948,68040
2020,83.0,0.093401109,68372
2030,86.0,0.093821492,68704
2040,85.0,0.0942782249999,69041
2050,87.0,0.09470545,69376
2060,86.0,0.095123267,69717
2070,87.0,0.0955509200001,70054
2080,87.0,0.095968737,70395
2090,85.0,0.096424615,70732
2100,87.0,0.0968569720001,71063
2110,87.0,0.097309857,71387
2120,87.0,0.0977678730001,71726
2130,85.0,0.0981972370001,72072
2140,88.0,0.0986295940002,72411
2150,87.0,0.0990705040001,72741
2160,85.0,0.0994874660001,73078
2170,87.0,0.0999275210002,73413
2180,88.0,0.100342772,73745
2190,87.0,0.100810625,74087
2200,87.0,0.101278049,74433
2210,86.0,0.101708268,74764
2220,88.0,0.10213592,75106
2230,90.0,0.102574691,75449
2240,88.0,0.103011325,75793
2250,85.0,0.103468913,76129
2260,89.0,0.103905974,76474
2270,89.0,0.104351588,76804
2280,85.0,0.104808321,77135
2290,84.0,0.105234691,77468
2300,85.0,0.10568501,77804
2310,86.0,0.106114374001,78138
2320,85.0,0.106549297,78469
2330,84.0,0.106993201,78803
2340,85.0,0.107520497001,79150
2350,85.0,0.107996475001,79489
2360,85.0,0.108419851,79827
2370,83.0,0.108856056,80163
2380,85.0,0.109282853,80509
2390,84.0,0.109716065,80841
2400,84.0,0.110148422,81194
2410,83.0,0.110590187,81529
2420,85.0,0.111026821,81858
2430,88.0,0.111523326,82199
2440,88.0,0.111977921,82540
2450,86.0,0.112411989,82870
2460,89.0,0.112848622,83206
2470,88.0,0.113272426001,83547
2480,89.0,0.113688960001,83870
2490,89.0,0.114176485,84204
2500,89.0,0.114623382001,84539
2510,87.0,0.115082681001,84886
2520,84.0,0.115515038001,85216
2530,87.0,0.115943119001,85557
2540,88.0,0.116372911001,85885
2550,89.0,0.116819808001,86220
2560,88.0,0.117253876001,86558
2570,89.0,0.117676824001,86891
2580,88.0,0.118123721001,87227
2590,87.0,0.118544104001,87562
2600,89.0,0.119010245001,87899
2610,89.0,0.119443458001,88229
2620,88.0,0.119877525001,88574
2630,87.0,0.120310737001,88906
2640,87.0,0.120832901001,89245
2650,87.0,0.121376448001,89585
2660,87.0,0.121834465001,89912
2670,90.0,0.122293337001,90250
2680,88.0,0.122757341001,90578
2690,88.0,0.123236740001,90925
2700,87.0,0.123689625001,91255
2710,88.0,0.124159188001,91589
2720,87.0,0.124639014001,91919
2730,89.0,0.125082490001,92252
2740,88.0,0.125505866001,92592
2750,88.0,0.125982699001,92929
2760,87.0,0.126409924001,93266
2770,87.0,0.126832017001,93591
2780,88.0,0.127269078001,93919
2790,87.0,0.127708705001,94256
2800,87.0,0.128149188001,94587
2810,87.0,0.128583256001,94919
2820,88.0,0.129034002001,95253
2830,87.0,0.129471063001,95593
2840,88.0,0.129908124001,95925
2850,87.0,0.130358443001,96261
2860,88.0,0.130850672001,96602
2870,87.0,0.131473762001,96940
2880,87.0,0.131960004001,97270
2890,88.0,0.132435981001,97604
2900,87.0,0.132875609001,97940
2910,86.0,0.133352870001,98271
2920,87.0,0.133788220001,98607
2930,90.0,0.134235117001,98948
2940,90.0,0.134760702001,99285
2950,89.0,0.135220001001,99614
2960,90.0,0.135681439001,99936
2970,88.0,0.136129191001,100286
2980,87.0,0.136614149001,100615
2990,86.0,0.137128616001,100965
3000,86.0,0.137647359001,101303
3010,86.0,0.142571354001,101637
3020,89.0,0.143048615001,101968
3030,86.0,0.143502355001,102303
3040,86.0,0.143944548001,102624
3050,86.0,0.144406840001,102957
3060,87.0,0.144855875001,103291
3070,86.0,0.145312181001,103646
3080,87.0,0.145770197001,103980
3090,86.0,0.146242326001,104316
3100,86.0,0.146802123001,104661
3110,85.0,0.147251586001,104996
3120,83.0,0.147697200001,105333
3130,83.0,0.148411808001,105668
3140,83.0,0.148854001001,105998
3150,85.0,0.149303464001,106326
3160,86.0,0.149746512001,106668
3170,87.0,0.150213082001,107007
3180,85.0,0.150686493001,107337
3190,86.0,0.151142371001,107677
3200,84.0,0.151581998001,108012
3210,86.0,0.152013500001,108354
3220,87.0,0.152493754001,108689
3230,86.0,0.152919269001,109023
3240,86.0,0.153370443001,109365
3250,88.0,0.153809643001,109696
3260,86.0,0.154382270001,110046
3270,88.0,0.154848839001,110378
3280,86.0,0.155295308001,110712
3290,87.0,0.155743916001,111050
3300,86.0,0.156188675001,111389
3310,87.0,0.156653106001,111729
3320,89.0,0.157094444001,112061
3330,90.0,0.157555454001,112400
3340,90.0,0.158026727001,112733
3350,89.0,0.158480039001,113059
3360,90.0,0.158937200001,113391
3370,91.0,0.159394361001,113714
3380,93.0,0.159859648001,114052
3390,90.0,0.160318092001,114380
3400,91.0,0.160767127001,114710
3410,90.0,0.161193924001,115053
3420,90.0,0.161648947001,115391
3430,89.0,0.162115517001,115735
3440,90.0,0.162556855001,116064
3450,88.0,0.162984507001,116400
3460,87.0,0.163410022001,116735
3470,88.0,0.163874881001,117080
3480,86.0,0.164336319001,117413
3490,88.0,0.164750715001,117743
3500,85.0,0.165229258001,118082
3510,84.0,0.165679577001,118425
3520,83.0,0.166114500001,118744
3530,83.0,0.166581497001,119076
3540,82.0,0.167028822001,119393
3550,82.0,0.167475291001,119725
3560,83.0,0.167911924001,120053
3570,83.0,0.168359677001,120374
3580,83.0,0.168796311001,120714
3590,84.0,0.169241498001,121052
3600,83.0,0.169676849001,121387
3610,84.0,0.170137004001,121725
3620,84.0,0.170573210001,122064
3630,84.0,0.171012837001,122404
3640,83.0,0.171472991001,122738
3650,80.0,0.171922455001,123067
3660,80.0,0.172375767001,123405
3670,81.0,0.172810262001,123750
3680,78.0,0.173254594001,124082
3690,79.0,0.173707051001,124422
3700,79.0,0.174175331001,124753
3710,78.0,0.174635486001,125096
3720,80.0,0.175073403001,125423
3730,82.0,0.175536551001,125767
3740,81.0,0.175967197001,126101
3750,80.0,0.176391001001,126439
3760,79.0,0.176850728001,126773
3770,79.0,0.177294632001,127106
3780,80.0,0.177753076001,127452
3790,78.0,0.178214941001,127788
3800,80.0,0.178685359001,128124
3810,80.0,0.179144230001,128471
3820,81.0,0.179631327001,128815
3830,80.0,0.180112436001,129161
3840,81.0,0.180561472001,129495
3850,85.0,0.181045147001,129832
3860,86.0,0.181507440001,130168
3870,87.0,0.181970160001,130514
3880,87.0,0.182439296001,130852
3890,85.0,0.182893463001,131182
3900,86.0,0.183331380001,131521
3910,85.0,0.183756895001,131849
3920,88.0,0.184210207001,132185
3930,88.0,0.184650262001,132530
3940,87.0,0.185111699001,132862
3950,87.0,0.185541918001,133196
3960,85.0,0.185972565001,133532
3970,85.0,0.186420318001,133863
3980,87.0,0.186867643001,134196
3990,88.0,0.187340199001,134534
4000,86.0,0.187817887001,134873
4010,86.0,0.188242119001,135213
4020,87.0,0.188726650001,135559
4030,87.0,0.189194502001,135895
4040,87.0,0.189669624001,136234
4050,86.0,0.190102409001,136578
4060,86.0,0.190601907001,136908
4070,86.0,0.191050514001,137246
4080,86.0,0.191562415001,137574
4090,85.0,0.192024708001,137918
4100,84.0,0.192510949001,138248
4110,85.0,0.192968966001,138582
4120,83.0,0.193425699001,138919
4130,84.0,0.193893552001,139254
4140,84.0,0.194389629001,139584
4150,84.0,0.194833105001,139927
4160,83.0,0.195298819001,140252
4170,81.0,0.195799173001,140598
4180,82.0,0.196268736001,140934
4190,84.0,0.196724187001,141276
4200,85.0,0.197170657001,141604
4210,86.0,0.197631667001,141944
4220,86.0,0.198074288001,142278
4230,85.0,0.198530593001,142623
4240,88.0,0.198982622001,142949
4250,85.0,0.199484259001,143269
4260,87.0,0.199936716001,143609
4270,86.0,0.200367790001,143947
4280,85.0,0.200804424001,144282
4290,85.0,0.201247900001,144614
4300,84.0,0.201680685001,144946
4310,85.0,0.202137846001,145282
4320,83.0,0.202589019001,145627
4330,85.0,0.203021376001,145979
4340,84.0,0.203471267001,146308
4350,85.0,0.203919019001,146657
4360,84.0,0.204384305001,146995
4370,85.0,0.204835906001,147334
4380,85.0,0.205305896001,147683
4390,87.0,0.205745523001,148022
4400,86.0,0.206209099001,148355
4410,85.0,0.206671819001,148690
4420,87.0,0.207159343001,149027
4430,84.0,0.207626767001,149367
4440,86.0,0.208074519001,149703
4450,84.0,0.208577867001,150039
4460,85.0,0.209034600001,150371
4470,88.0,0.209507584001,150706
4480,88.0,0.209995536001,151035
4490,91.0,0.210456546001,151374
4500,91.0,0.210913707001,151710
4510,88.0,0.211370868001,152049
4520,88.0,0.211866945001,152391
4530,89.0,0.212304434001,152729
4540,89.0,0.212738929001,153061
4550,90.0,0.213185399001,153403
4560,90.0,0.213955174001,153736
4570,91.0,0.214419605001,154069
4580,91.0,0.214897293001,154404
4590,89.0,0.215344618001,154733
4600,90.0,0.215820168001,155068
4610,87.0,0.216262788001,155400
4620,87.0,0.216713107001,155746
4630,86.0,0.217189940001,156082
4640,87.0,0.217638121001,156422
4650,87.0,0.218070050001,156757
4660,85.0,0.21852935,157081
4670,86.0,0.218957858001,157420
4680,85.0,0.219401334001,157757
4690,86.0,0.219844382,158082
4700,86.0,0.220288285,158420
4710,86.0,0.220787784,158755
4720,86.0,0.22128044,159100
4730,85.0,0.221770102,159437
4740,85.0,0.222254632,159775
4750,86.0,0.222696398,160112
4760,88.0,0.223174941,160450
4770,87.0,0.223621411,160787
4780,87.0,0.224055478,161130
4790,86.0,0.224479709,161455
4800,88.0,0.224900947,161799
4810,89.0,0.225334587,162125
4820,87.0,0.22577507,162444
4830,87.0,0.226219829,162791
4840,86.0,0.22666245,163128
4850,86.0,0.227141421,163466
4860,85.0,0.227659309,163805
4870,85.0,0.228157524,164132
4880,84.0,0.228683965,164460
4890,86.0,0.229202708,164795
4900,84.0,0.229778328,165134
4910,85.0,0.230289801,165465
4920,83.0,0.230802557,165800
4930,83.0,0.231332419,166138
4940,83.0,0.231849451,166479
4950,85.0,0.232367767,166811
4960,87.0,0.232910886,167135
4970,88.0,0.233485652,167460
4980,86.0,0.233994132,167788
4990,83.0,0.23451929,168130
