it,funval,time,funcount
0,152.0,0.287103913,999
10,174.0,0.538185767,2100
20,182.0,0.732091713,3201
30,184.0,0.921232323,4302
40,183.0,1.100499711,5403
50,184.0,1.278432822,6504
60,184.0,1.502962137,7605
70,185.0,1.705568253,8706
80,185.0,1.883604856,9807
90,185.0,2.066801091,10908
100,185.0,2.248855493,12009
110,186.0,2.429424656,13110
120,186.0,2.610142642,14211
130,186.0,2.790331194,15312
140,186.0,2.968318189,16413
150,186.0,3.14890959,17514
160,186.0,3.329710113,18615
170,186.0,3.509206295,19716
180,186.0,3.6858851,20817
190,186.0,3.868688321,21918
200,185.0,4.054116904,23019
210,185.0,4.234077518,24120
220,186.0,4.414990514,25221
230,186.0,4.592706805,26322
240,186.0,4.767868725,27423
250,186.0,4.94678672,28524
260,186.0,5.126110558,29625
270,186.0,5.30362799,30726
280,186.0,5.484996864,31827
290,186.0,5.66248992,32928
300,186.0,5.840115548,34029
310,186.0,6.020635104,35130
320,185.0,6.197027809,36231
330,186.0,6.376135682,37332
340,187.0,6.553669365,38433
350,187.0,6.733155711,39534
360,187.0,6.914987305,40635
370,187.0,7.089371325,41736
380,188.0,7.266852835,42837
390,187.0,7.448559127,43938
400,188.0,7.626308774,45039
410,188.0,7.802403833,46140
420,188.0,7.977529402,47241
430,188.0,8.154974988,48342
440,188.0,8.331617443,49443
450,188.0,8.510364805,50544
460,188.0,8.691658412,51645
470,188.0,8.870457948,52746
480,187.0,9.047992913,53847
490,188.0,9.226698365,54948
500,188.0,9.402263562,56049
510,187.0,9.57978356,57150
520,189.0,9.759262636,58251
530,189.0,9.935951705,59352
540,188.0,10.113478974,60453
550,188.0,10.292125837,61554
560,189.0,10.471723373,62655
570,190.0,10.646403329,63756
580,190.0,10.821933458,64857
590,190.0,10.996648909,65958
600,189.0,11.170807983,67059
610,190.0,11.345840324,68160
620,190.0,11.520480507,69261
630,189.0,11.69412768,70362
640,190.0,11.865837158,71463
650,190.0,12.04017157,72564
660,190.0,12.215485307,73665
670,190.0,12.389854787,74766
680,190.0,12.566066168,75867
690,191.0,12.742178332,76968
700,191.0,12.916555081,78069
710,190.0,13.088959067,79170
720,190.0,13.261385291,80271
730,189.0,13.432824065,81372
740,190.0,13.6048932,82473
750,190.0,13.779470091,83574
760,189.0,13.953555609,84675
770,190.0,14.128284317,85776
780,190.0,14.302486156,86877
790,190.0,14.473983091,87978
800,190.0,14.648990628,89079
810,189.0,14.826164655,90180
820,190.0,15.000511897,91281
830,190.0,15.171806552,92382
840,191.0,15.347799402,93483
850,191.0,15.523850413,94584
860,191.0,15.700210616,95685
870,191.0,15.873107686,96786
880,191.0,16.047945445,97887
890,190.0,16.222794751,98988
900,191.0,16.397567079,100089
910,191.0,16.571753095,101190
920,191.0,16.746712308,102291
930,191.0,16.919310021,103392
940,190.0,17.091289776,104493
950,190.0,17.261451578,105594
960,191.0,17.433803818,106695
970,191.0,17.606151782,107796
980,191.0,17.777876229,108897
990,191.0,17.95119582,109998
1000,191.0,18.121367459,111099
1010,190.0,18.29623943,112200
1020,191.0,18.467602082,113301
1030,191.0,18.641986957,114402
1040,192.0,18.816301269,115503
1050,191.0,18.987445818,116604
1060,190.0,19.157809472,117705
1070,191.0,19.333560697,118806
1080,191.0,19.509461174,119907
1090,191.0,19.686044612,121008
1100,191.0,19.859434766,122109
1110,190.0,20.033749934,123210
1120,191.0,20.209667945,124311
1130,191.0,20.38449202,125412
1140,191.0,20.558776396,126513
1150,191.0,20.732295274,127614
1160,191.0,20.90619519,128715
1170,191.0,21.081208714,129816
1180,191.0,21.256176052,130917
1190,191.0,21.43121994,132018
1200,192.0,21.606630754,133119
1210,191.0,21.77908777,134220
1220,190.0,21.95275205,135321
1230,191.0,22.127659944,136422
1240,190.0,22.303205468,137523
1250,190.0,22.476595195,138624
1260,191.0,22.651532597,139725
1270,191.0,22.826263015,140826
1280,191.0,23.000904482,141927
1290,191.0,23.177700891,143028
1300,191.0,23.353792956,144129
1310,191.0,23.527988808,145230
1320,192.0,23.705126485,146331
1330,192.0,23.876909092,147432
1340,191.0,24.050344578,148533
1350,192.0,24.221794471,149634
1360,192.0,24.394716773,150735
1370,192.0,24.568767651,151836
1380,192.0,24.746795273,152937
1390,191.0,24.920662688,154038
1400,191.0,25.095697168,155139
1410,192.0,25.272337484,156240
1420,191.0,25.446520079,157341
1430,192.0,25.620718498,158442
1440,192.0,25.79505462,159543
1450,192.0,25.96730679,160644
1460,192.0,26.141274703,161745
1470,191.0,26.315681816,162846
1480,192.0,26.49027453,163947
1490,192.0,26.664385279,165048
1500,192.0,26.838453263,166149
1510,192.0,27.015191939,167250
1520,192.0,27.187957293,168351
1530,192.0,27.36090055,169452
1540,192.0,27.534265901,170553
1550,192.0,27.7068572,171654
1560,192.0,27.878286138,172755
1570,192.0,28.049363118,173856
1580,192.0,28.220627837,174957
1590,191.0,28.393063042,176058
1600,192.0,28.566296247,177159
1610,191.0,28.738159252,178260
1620,192.0,28.914522022,179361
1630,191.0,29.088989007,180462
1640,192.0,29.262707599,181563
1650,192.0,29.437311432,182664
1660,192.0,29.612378841,183765
1670,192.0,29.786614038,184866
1680,192.0,29.960046102,185967
1690,192.0,30.134763691,187068
1700,192.0,30.309205872,188169
1710,192.0,30.485295798,189270
1720,192.0,30.663392272,190371
1730,192.0,30.840506855,191472
1740,191.0,31.015024303,192573
1750,192.0,31.191097979,193674
1760,192.0,31.366809433,194775
1770,192.0,31.542351108,195876
1780,192.0,31.716419948,196977
1790,192.0,31.889836189,198078
1800,194.0,32.065592546,199179
1810,192.0,32.242308984,200280
1820,191.0,32.41722757,201381
1830,192.0,32.591547869,202482
1840,192.0,32.766165387,203583
1850,191.0,32.938961104,204684
1860,191.0,33.111846628,205785
1870,191.0,33.286771201,206886
1880,191.0,33.461881803,207987
1890,192.0,33.637090337,209088
1900,192.0,33.810690896,210189
1910,192.0,33.984945764,211290
1920,192.0,34.160364703,212391
1930,192.0,34.335673735,213492
1940,191.0,34.509877285,214593
1950,191.0,34.683184475,215694
1960,192.0,34.857560797,216795
1970,192.0,35.032413951,217896
1980,191.0,35.209758611,218997
1990,191.0,35.385083894,220098
2000,191.0,35.560160283,221199
2010,192.0,35.733798048,222300
2020,193.0,35.905861195,223401
2030,192.0,36.080576645,224502
2040,192.0,36.257091659,225603
2050,191.0,36.428766925,226704
2060,192.0,36.602476109,227805
2070,192.0,36.777712868,228906
2080,192.0,36.954176991,230007
2090,192.0,37.130654372,231108
2100,192.0,37.305542594,232209
2110,192.0,37.476646944,233310
2120,192.0,37.648853783,234411
2130,192.0,37.821612293,235512
2140,192.0,37.996377779,236613
2150,192.0,38.174478102,237714
2160,191.0,38.35472567,238815
2170,192.0,38.527589812,239916
2180,191.0,38.700769133,241017
2190,192.0,38.875567976,242118
2200,191.0,39.04874687,243219
2210,192.0,39.223200169,244320
2220,193.0,39.393760544,245421
2230,192.0,39.566485271,246522
2240,191.0,39.738978637,247623
2250,191.0,39.916077825,248724
2260,191.0,40.088696921,249825
2270,192.0,40.257056167,250926
2280,192.0,40.428981182,252027
2290,192.0,40.603649591,253128
2300,192.0,40.778749501,254229
2310,192.0,40.95160295,255330
2320,192.0,41.123847422,256431
2330,191.0,41.298481619,257532
2340,191.0,41.472227153,258633
2350,192.0,41.648324777,259734
2360,192.0,41.821894118,260835
2370,191.0,41.998140138,261936
2380,192.0,42.170194732,263037
2390,192.0,42.340527168,264138
2400,193.0,42.513159093,265239
2410,192.0,42.6875089,266340
2420,192.0,42.862146518,267441
2430,192.0,43.034382437,268542
2440,191.0,43.206031616,269643
2450,192.0,43.380384417,270744
2460,192.0,43.555862372,271845
2470,192.0,43.72929743,272946
2480,192.0,43.904558138,274047
2490,192.0,44.079353132,275148
2500,192.0,44.253311209,276249
2510,192.0,44.428118177,277350
2520,192.0,44.603133412,278451
2530,192.0,44.77858357,279552
2540,192.0,44.953681342,280653
2550,191.0,45.126518968,281754
2560,192.0,45.301461929,282855
2570,191.0,45.474856788,283956
2580,192.0,45.648603177,285057
2590,192.0,45.822493257,286158
2600,192.0,45.997010705,287259
2610,191.0,46.171749249,288360
2620,192.0,46.347462414,289461
2630,192.0,46.520452285,290562
2640,191.0,46.692407236,291663
2650,191.0,46.862072961,292764
2660,191.0,47.036345791,293865
2670,192.0,47.213112692,294966
2680,191.0,47.385573556,296067
2690,192.0,47.560320653,297168
2700,191.0,47.734613583,298269
2710,191.0,47.907682142,299370
2720,192.0,48.081953261,300471
2730,192.0,48.256284252,301572
2740,192.0,48.430715314,302673
2750,192.0,48.606167611,303774
2760,192.0,48.781407791,304875
2770,192.0,48.95840648,305976
2780,193.0,49.135498397,307077
2790,193.0,49.310385764,308178
2800,192.0,49.49414479,309279
2810,194.0,49.667188973,310380
2820,192.0,49.840310989,311481
2830,193.0,50.013714828,312582
2840,193.0,50.187329927,313683
2850,193.0,50.360509676,314784
2860,193.0,50.534571673,315885
2870,192.0,50.709462889,316986
2880,193.0,50.883692954,318087
2890,193.0,51.055428519,319188
2900,193.0,51.227025525,320289
2910,192.0,51.399743409,321390
2920,192.0,51.573801984,322491
2930,193.0,51.747507319,323592
2940,192.0,51.920900039,324693
2950,193.0,52.093925405,325794
2960,193.0,52.267384839,326895
2970,193.0,52.441560164,327996
2980,193.0,52.616906831,329097
2990,192.0,52.790432124,330198
3000,193.0,52.964110516,331299
3010,193.0,53.138530458,332400
3020,193.0,53.313008989,333501
3030,193.0,53.486114326,334602
3040,193.0,53.660317448,335703
3050,192.0,53.835638027,336804
3060,193.0,54.010127249,337905
3070,193.0,54.184861089,339006
3080,193.0,54.360454083,340107
3090,193.0,54.534773099,341208
3100,194.0,54.710626962,342309
3110,194.0,54.884645338,343410
3120,194.0,55.057626656,344511
3130,193.0,55.228593301,345612
3140,194.0,55.400221953,346713
3150,194.0,55.572652454,347814
3160,193.0,55.748789423,348915
3170,194.0,55.922096613,350016
3180,194.0,56.096906575,351117
3190,194.0,56.271092591,352218
3200,193.0,56.444433993,353319
3210,194.0,56.619278167,354420
3220,194.0,56.794791618,355521
3230,194.0,56.968895097,356622
3240,194.0,57.143244477,357723
3250,194.0,57.317115313,358824
3260,193.0,57.490114165,359925
3270,193.0,57.664041451,361026
3280,194.0,57.836648145,362127
3290,193.0,58.007782858,363228
3300,193.0,58.181421051,364329
3310,193.0,58.35301934,365430
3320,193.0,58.526644703,366531
3330,195.0,58.700937633,367632
3340,194.0,58.872393513,368733
3350,194.0,59.046606899,369834
3360,193.0,59.219795628,370935
3370,194.0,59.39326105,372036
3380,194.0,59.566344577,373137
3390,194.0,59.739156117,374238
3400,193.0,59.915812256,375339
3410,194.0,60.089229352,376440
3420,193.0,60.260701483,377541
3430,194.0,60.433276103,378642
3440,194.0,60.609186843,379743
3450,193.0,60.78163274,380844
3460,193.0,60.955645129,381945
3470,193.0,61.127994804,383046
3480,194.0,61.30236129,384147
3490,194.0,61.479953989,385248
3500,193.0,61.657568498,386349
3510,194.0,61.831426505,387450
3520,193.0,62.005503897,388551
3530,194.0,62.179971736,389652
3540,193.0,62.354702154,390753
3550,193.0,62.529734068,391854
3560,194.0,62.703195213,392955
3570,194.0,62.876578097,394056
3580,194.0,63.049921209,395157
3590,194.0,63.223636807,396258
3600,194.0,63.397499518,397359
3610,194.0,63.574561927,398460
3620,193.0,63.748856567,399561
3630,193.0,63.923860256,400662
3640,194.0,64.096054265,401763
3650,193.0,64.267451129,402864
3660,193.0,64.440598376,403965
3670,194.0,64.614312691,405066
3680,194.0,64.787358584,406167
3690,194.0,64.963729479,407268
3700,194.0,65.137786772,408369
3710,194.0,65.314484394,409470
3720,194.0,65.48650948,410571
3730,195.0,65.66080412,411672
3740,193.0,65.835151361,412773
3750,193.0,66.009635879,413874
3760,193.0,66.18253295,414975
3770,193.0,66.35477058,416076
3780,194.0,66.529748182,417177
3790,193.0,66.70510169,418278
3800,194.0,66.881866881,419379
3810,194.0,67.055949833,420480
3820,194.0,67.232220657,421581
3830,194.0,67.40778457,422682
3840,194.0,67.580934811,423783
3850,194.0,67.7542219,424884
3860,193.0,67.930162576,425985
3870,194.0,68.103455653,427086
3880,194.0,68.278772812,428187
3890,194.0,68.453395889,429288
3900,193.0,68.62839359,430389
3910,193.0,68.802875542,431490
3920,193.0,68.977700044,432591
3930,193.0,69.153582132,433692
3940,194.0,69.328304853,434793
3950,193.0,69.502622586,435894
3960,193.0,69.677495413,436995
3970,194.0,69.851093407,438096
3980,194.0,70.025994459,439197
3990,193.0,70.19820087,440298
4000,193.0,70.374059437,441399
4010,195.0,70.547097633,442500
4020,193.0,70.72176091,443601
4030,194.0,70.896351058,444702
4040,193.0,71.068854688,445803
4050,193.0,71.239262391,446904
4060,193.0,71.41317642,448005
4070,194.0,71.58524983,449106
4080,194.0,71.757668784,450207
4090,193.0,71.931730781,451308
4100,193.0,72.104035552,452409
4110,194.0,72.275132632,453510
4120,194.0,72.447859069,454611
4130,194.0,72.624159829,455712
4140,194.0,72.798368083,456813
4150,193.0,72.970587751,457914
4160,193.0,73.142901076,459015
4170,194.0,73.315426089,460116
4180,193.0,73.490040186,461217
4190,193.0,73.663985433,462318
4200,193.0,73.83623803,463419
4210,194.0,74.011403372,464520
4220,194.0,74.185384542,465621
4230,194.0,74.361546742,466722
4240,193.0,74.536422134,467823
4250,194.0,74.708165396,468924
4260,194.0,74.880887984,470025
4270,194.0,75.051428259,471126
4280,193.0,75.22456567,472227
4290,194.0,75.397696239,473328
4300,194.0,75.571778336,474429
4310,194.0,75.744686525,475530
4320,195.0,75.916122734,476631
4330,194.0,76.089870406,477732
4340,194.0,76.26452513,478833
4350,195.0,76.437936667,479934
4360,195.0,76.60914237,481035
4370,195.0,76.781678501,482136
4380,195.0,76.951873661,483237
4390,196.0,77.123361615,484338
4400,196.0,77.295476936,485439
4410,195.0,77.466894328,486540
4420,194.0,77.636690059,487641
4430,195.0,77.808422203,488742
4440,195.0,77.981975721,489843
4450,195.0,78.155246987,490944
4460,195.0,78.327722819,492045
4470,194.0,78.500152892,493146
4480,195.0,78.675174115,494247
4490,195.0,78.851501389,495348
4500,194.0,79.022515504,496449
4510,195.0,79.194726619,497550
4520,194.0,79.36784222,498651
4530,195.0,79.537244083,499752
4540,195.0,79.710185629,500853
4550,196.0,79.887954093,501954
4560,194.0,80.058969918,503055
4570,194.0,80.231197284,504156
4580,194.0,80.401663148,505257
4590,195.0,80.572423237,506358
4600,195.0,80.74509579,507459
4610,195.0,80.91611632,508560
4620,195.0,81.088205126,509661
4630,195.0,81.260024083,510762
4640,195.0,81.435659415,511863
4650,195.0,81.607814935,512964
4660,195.0,81.781997102,514065
4670,195.0,81.954890751,515166
4680,195.0,82.127654822,516267
4690,195.0,82.30254561,517368
4700,195.0,82.478482437,518469
4710,195.0,82.652766813,519570
4720,196.0,82.82661926,520671
4730,195.0,82.998513485,521772
4740,195.0,83.173753238,522873
4750,195.0,83.347479955,523974
4760,195.0,83.525150915,525075
4770,195.0,83.697465094,526176
4780,195.0,83.86960137,527277
4790,196.0,84.043105708,528378
4800,195.0,84.217149743,529479
4810,196.0,84.393372242,530580
4820,196.0,84.568539294,531681
4830,195.0,84.743737992,532782
4840,195.0,84.916973763,533883
4850,195.0,85.092288782,534984
4860,195.0,85.265973161,536085
4870,196.0,85.44113337,537186
4880,195.0,85.615055524,538287
4890,195.0,85.789360428,539388
4900,195.0,85.96345236,540489
4910,196.0,86.137921483,541590
4920,196.0,86.310155264,542691
4930,195.0,86.484377631,543792
4940,195.0,86.658698358,544893
4950,195.0,86.831340547,545994
4960,196.0,87.011030029,547095
4970,196.0,87.191498694,548196
4980,197.0,87.379946079,549297
4990,195.0,87.559281891,550398
