it,funval,time,funcount
0,119.0,0.00209806499993,676
10,119.0,0.00421708499994,1248
20,129.0,0.00631985399991,1825
30,124.0,0.00891014699982,2401
40,128.0,0.0110993019998,2972
50,127.0,0.0131481869998,3538
60,129.0,0.0152376989997,4113
70,130.0,0.0175269249999,4679
80,131.0,0.0196074559997,5238
90,131.0,0.0216341029998,5813
100,131.0,0.0237069369998,6397
110,132.0,0.0256938119999,6975
120,134.0,0.0277649349998,7546
130,132.0,0.0296748319997,8098
140,136.0,0.0316197969996,8684
150,135.0,0.0336721029996,9266
160,134.0,0.0356773669996,9828
170,134.0,0.0376313129996,10396
180,137.0,0.0396695069994,10978
190,136.0,0.0415973659995,11561
200,137.0,0.0435547329994,12144
210,134.0,0.0454898619994,12715
220,136.0,0.0474194319995,13290
230,134.0,0.0493353169995,13866
240,140.0,0.0512559059996,14441
250,137.0,0.0531884699997,15017
260,136.0,0.0550765569997,15587
270,135.0,0.0569612239997,16158
280,138.0,0.0588300669997,16737
290,138.0,0.0607369709999,17313
300,137.0,0.062678516,17886
310,142.0,0.0645892690002,18465
320,141.0,0.0665316690001,19045
330,141.0,0.0684749240002,19627
340,142.0,0.0703959410002,20205
350,141.0,0.0723216620004,20789
360,139.0,0.0742550800005,21371
370,138.0,0.0761713930005,21961
380,140.0,0.0780603360006,22527
390,138.0,0.0801481380006,23106
400,140.0,0.0820593190008,23693
410,140.0,0.0839106290007,24261
420,144.0,0.0858012830008,24837
430,145.0,0.087758651001,25408
440,146.0,0.089764343001,25982
450,146.0,0.0916549970011,26584
460,142.0,0.0935212750012,27166
470,146.0,0.0954281790011,27744
480,144.0,0.0972850480011,28336
490,144.0,0.0991286600013,28906
500,144.0,0.100996220001,29485
510,146.0,0.102844108001,30063
520,144.0,0.104621861001,30631
530,146.0,0.106429978001,31207
540,147.0,0.108262471001,31784
550,147.0,0.110139440001,32363
560,148.0,0.112004862001,32949
570,150.0,0.113910483001,33533
580,151.0,0.115806268001,34108
590,148.0,0.117737121001,34684
600,152.0,0.119589713001,35256
610,147.0,0.121475663001,35840
620,151.0,0.123387700001,36412
630,146.0,0.125342073001,36990
640,146.0,0.127267794001,37560
650,148.0,0.129200785001,38135
660,148.0,0.131128645001,38714
670,149.0,0.133060353001,39301
680,148.0,0.134939032001,39866
690,148.0,0.136827547001,40449
700,148.0,0.138741721001,41019
710,145.0,0.140682837001,41598
720,147.0,0.142759519001,42171
730,147.0,0.144837057001,42753
740,150.0,0.146820084001,43335
750,152.0,0.148706461001,43913
760,150.0,0.150563758001,44476
770,153.0,0.152404804001,45047
780,152.0,0.154255686001,45628
790,153.0,0.156112555001,46205
800,149.0,0.158087883001,46775
810,150.0,0.160105977001,47356
820,149.0,0.162054792001,47936
830,150.0,0.163979658001,48506
840,150.0,0.165864324001,49095
850,151.0,0.167726324001,49680
860,151.0,0.169579772001,50258
870,150.0,0.171450325001,50833
880,153.0,0.173293509001,51419
890,150.0,0.175167056001,51997
900,154.0,0.177023070001,52563
910,153.0,0.178897045,53137
920,150.0,0.180738946,53713
930,150.0,0.186479331001,54298
940,150.0,0.188315245,54867
950,150.0,0.190180667001,55454
960,149.0,0.192030266001,56030
970,148.0,0.194055630001,56624
980,149.0,0.195907794001,57186
990,151.0,0.197795026001,57755
1000,152.0,0.199719892001,58331
1010,150.0,0.201636632001,58894
1020,148.0,0.203537549001,59483
1030,151.0,0.205414945001,60049
1040,150.0,0.207354351001,60618
1050,149.0,0.209282210001,61196
1060,149.0,0.211198951001,61789
1070,152.0,0.213077631001,62378
1080,154.0,0.214948184001,62944
1090,152.0,0.216836700001,63532
1100,151.0,0.218704261001,64099
1110,156.0,0.220564979001,64663
1120,148.0,0.222420138001,65231
1130,149.0,0.224315495001,65799
1140,150.0,0.226189898001,66370
1150,148.0,0.228068149001,66935
1160,148.0,0.229957091001,67514
1170,149.0,0.231819520001,68100
1180,147.0,0.233665698001,68658
1190,146.0,0.235514869001,69236
1200,148.0,0.237369172001,69820
1210,148.0,0.239229890001,70398
1220,146.0,0.241152617001,70982
1230,146.0,0.243087747001,71561
1240,150.0,0.244972413001,72124
1250,152.0,0.246828426001,72685
1260,150.0,0.248683585001,73273
1270,149.0,0.250504959001,73865
1280,152.0,0.252316069001,74442
1290,149.0,0.254175504001,75027
1300,151.0,0.256012701001,75617
1310,150.0,0.257892235001,76181
1320,149.0,0.259752953001,76764
1330,148.0,0.261618803001,77340
1340,148.0,0.263516299,77938
1350,147.0,0.26537274,78515
1360,147.0,0.267223622001,79094
1370,146.0,0.269086906,79674
1380,149.0,0.270972855001,80252
1390,147.0,0.272878904,80841
1400,148.0,0.274757156001,81405
1410,147.0,0.276648237,81977
1420,146.0,0.278568398001,82560
1430,147.0,0.28043382,83138
1440,149.0,0.282303091,83710
1450,148.0,0.284172362,84293
1460,150.0,0.286079267001,84866
1470,149.0,0.28794084,85449
1480,149.0,0.289790439,86032
1490,148.0,0.291640893,86601
1500,148.0,0.293510164,87173
1510,147.0,0.295364467,87755
1520,150.0,0.297191827,88324
1530,147.0,0.299054683,88904
1540,149.0,0.300940632,89482
1550,148.0,0.302815463,90061
1560,147.0,0.304666344,90629
1570,148.0,0.306513805,91212
1580,149.0,0.308336889,91798
1590,148.0,0.310164678,92382
1600,149.0,0.312026679,92946
1610,151.0,0.313869007,93538
1620,148.0,0.315764365,94118
1630,148.0,0.317755945,94684
1640,150.0,0.319718444,95264
1650,149.0,0.321625349,95849
1660,151.0,0.323515575,96439
1670,150.0,0.325408794,97026
1680,149.0,0.327287045,97610
1690,151.0,0.329184541,98188
1700,149.0,0.331037134,98765
1710,148.0,0.33285979,99328
1720,148.0,0.334699125,99914
1730,152.0,0.336590633,100480
1740,151.0,0.33840046,101055
1750,149.0,0.340215418,101626
1760,147.0,0.342061596,102207
1770,150.0,0.343977909,102778
1780,150.0,0.345854878,103348
1790,148.0,0.347753657001,103920
1800,144.0,0.349690924001,104504
1810,146.0,0.351599539001,105095
1820,147.0,0.353490620001,105675
1830,147.0,0.355376997001,106250
1840,148.0,0.357294593001,106834
1850,145.0,0.359160870001,107408
1860,147.0,0.361048102001,107990
1870,145.0,0.362966125001,108570
1880,147.0,0.364885859001,109146
1890,143.0,0.366874018001,109718
1900,145.0,0.368774080001,110290
1910,145.0,0.370664305001,110872
1920,151.0,0.372575486001,111449
1930,152.0,0.374467850001,112036
1940,151.0,0.376373899001,112617
1950,158.0,0.378255144001,113204
1960,154.0,0.380120566001,113785
1970,152.0,0.381953914001,114353
1980,155.0,0.383798381001,114945
1990,151.0,0.385672783001,115524
2000,151.0,0.387538632001,116108
2010,150.0,0.389430141001,116688
2020,152.0,0.391310530001,117262
2030,149.0,0.393188782001,117841
2040,147.0,0.395067461001,118425
2050,149.0,0.396982063001,118996
2060,144.0,0.398930877001,119567
2070,148.0,0.400856170001,120142
2080,143.0,0.402841762001,120720
2090,143.0,0.405099770001,121291
2100,143.0,0.407052434001,121868
2110,142.0,0.409175302001,122441
2120,148.0,0.411130959001,123014
2130,149.0,0.413242281001,123585
2140,149.0,0.415179121001,124163
2150,147.0,0.417124514001,124749
2160,150.0,0.418994213001,125347
2170,150.0,0.420889998001,125933
2180,151.0,0.422723774001,126505
2190,154.0,0.424558833002,127085
2200,152.0,0.426422117001,127654
2210,150.0,0.428316619001,128231
2220,152.0,0.430176909001,128807
2230,153.0,0.432090228001,129390
2240,155.0,0.433987297002,129971
2250,155.0,0.435850581001,130538
2260,154.0,0.437704028001,131120
2270,156.0,0.439553627001,131698
2280,153.0,0.441397239001,132278
2290,153.0,0.443222889001,132852
2300,155.0,0.445085745001,133441
2310,152.0,0.447001202001,134031
2320,153.0,0.448878599001,134607
2330,149.0,0.450712802001,135182
2340,152.0,0.452596613001,135742
2350,152.0,0.454503518001,136338
2360,150.0,0.456698233001,136910
2370,151.0,0.458536285001,137483
2380,152.0,0.460421807001,138065
2390,154.0,0.462298776001,138647
2400,151.0,0.464113307001,139225
2410,153.0,0.465956491001,139802
2420,151.0,0.467831321001,140372
2430,149.0,0.469735232001,140961
2440,148.0,0.471556178001,141524
2450,151.0,0.473584963001,142107
2460,146.0,0.475380250001,142686
2470,148.0,0.477314524001,143264
2480,150.0,0.479181657001,143834
2490,150.0,0.481077442001,144426
2500,149.0,0.482891118001,144994
2510,153.0,0.484745421001,145570
2520,153.0,0.486607421001,146142
2530,150.0,0.488520313001,146703
2540,151.0,0.490383596001,147291
2550,153.0,0.492333694001,147876
2560,152.0,0.49420938,148450
2570,151.0,0.496062828001,149023
2580,153.0,0.497864957001,149602
2590,151.0,0.499722681001,150182
2600,150.0,0.501570569,150770
2610,157.0,0.503400068,151339
2620,152.0,0.505217165,151924
2630,151.0,0.507026137,152508
2640,148.0,0.508823562,153089
2650,150.0,0.510642798,153663
2660,148.0,0.512421834,154219
2670,146.0,0.514253899001,154804
2680,152.0,0.516062015,155389
2690,149.0,0.517888948001,155970
2700,150.0,0.519688939001,156510
2710,149.0,0.521530412001,157094
2720,154.0,0.523480082001,157681
2730,152.0,0.525372018001,158263
2740,153.0,0.527245138001,158834
2750,146.0,0.529126811,159399
2760,149.0,0.531017037,159975
2770,150.0,0.532939764,160539
2780,146.0,0.534858215,161121
2790,152.0,0.536740316,161703
2800,154.0,0.538595046,162288
2810,151.0,0.540475863,162864
2820,152.0,0.542386616,163447
2830,152.0,0.544247761,164037
2840,155.0,0.546084958,164610
2850,156.0,0.547952518,165181
2860,153.0,0.549915017,165763
2870,150.0,0.551759911,166342
2880,148.0,0.553615925,166924
2890,149.0,0.555468518,167489
2900,148.0,0.557378843,168063
2910,149.0,0.559225448,168632
2920,150.0,0.561212324,169225
2930,152.0,0.563099984,169795
2940,150.0,0.56504666,170381
2950,149.0,0.566938168,170949
2960,148.0,0.568972512,171524
2970,152.0,0.570926458,172087
2980,150.0,0.5728757,172670
2990,148.0,0.574775762,173258
3000,149.0,0.576685233,173834
3010,146.0,0.578553649,174407
3020,146.0,0.580473383,174978
3030,146.0,0.58235078,175562
3040,146.0,0.584232453,176154
3050,146.0,0.58609873,176732
3060,145.0,0.58797185,177292
3070,145.0,0.589873623,177877
3080,147.0,0.591769836,178448
3090,145.0,0.593647232,179042
3100,147.0,0.595542589,179616
3110,147.0,0.597442651,180190
3120,149.0,0.599333305,180772
3130,152.0,0.601281263999,181343
3140,148.0,0.603138559999,181915
3150,150.0,0.60508823,182495
3160,149.0,0.60709606,183054
3170,151.0,0.609025629999,183622
3180,151.0,0.610941086999,184210
3190,155.0,0.612967734,184790
3200,151.0,0.614846840999,185367
3210,153.0,0.616910265999,185936
3220,152.0,0.618853948999,186517
3230,149.0,0.620719370999,187101
3240,147.0,0.622613445999,187695
3250,150.0,0.624522060999,188265
3260,149.0,0.626431530999,188844
3270,148.0,0.628361527999,189422
3280,149.0,0.630286821999,190008
3290,150.0,0.632164645999,190589
3300,146.0,0.634101912999,191160
3310,144.0,0.635994704999,191736
3320,146.0,0.637881509999,192320
3330,147.0,0.639778577999,192894
3340,148.0,0.641750913999,193488
3350,150.0,0.643686043999,194074
3360,149.0,0.645646832999,194656
3370,146.0,0.647674762999,195214
3380,148.0,0.649827567999,195812
3390,147.0,0.651837108999,196387
3400,145.0,0.653863327999,196972
3410,147.0,0.655883559999,197550
3420,147.0,0.657963236999,198130
3430,145.0,0.659995015999,198705
3440,145.0,0.662084955999,199292
3450,146.0,0.664134695999,199857
3460,143.0,0.666254998999,200432
3470,145.0,0.668308587999,201011
3480,147.0,0.670341221999,201567
3490,149.0,0.672368295999,202136
3500,144.0,0.674718675999,202711
3510,147.0,0.676750882999,203296
3520,149.0,0.678816873999,203867
3530,155.0,0.680956420999,204452
3540,154.0,0.683154129998,205038
3550,158.0,0.685178210999,205627
3560,153.0,0.687188606999,206198
3570,153.0,0.689107057999,206778
3580,151.0,0.691116171999,207366
3590,152.0,0.692990574998,207957
3600,154.0,0.694888926999,208530
3610,153.0,0.696789844998,209095
3620,152.0,0.698700169998,209672
3630,158.0,0.700598520998,210269
3640,155.0,0.702450257998,210855
3650,154.0,0.704376833998,211436
3660,156.0,0.706285448998,212006
3670,156.0,0.708193207998,212570
3680,156.0,0.710065044998,213125
3690,155.0,0.711947572998,213716
3700,155.0,0.713828389998,214301
3710,152.0,0.715731872998,214868
3720,152.0,0.717685391998,215455
3730,152.0,0.719576045998,216009
3740,151.0,0.721446598998,216582
3750,151.0,0.723335113998,217154
3760,151.0,0.725227904998,217730
3770,153.0,0.727108721998,218304
3780,151.0,0.729007500998,218885
3790,149.0,0.730910983998,219471
3800,147.0,0.732734068998,220040
3810,154.0,0.734546034998,220615
3820,149.0,0.736360992998,221200
3830,153.0,0.738213585998,221784
3840,154.0,0.740006306998,222340
3850,150.0,0.741884557998,222931
3860,151.0,0.743774355998,223516
3870,151.0,0.745594018998,224088
3880,150.0,0.747597999998,224669
3890,150.0,0.749457434998,225235
3900,147.0,0.751310026998,225822
3910,148.0,0.753186139998,226404
3920,149.0,0.755120841998,226971
3930,146.0,0.757106433998,227567
3940,147.0,0.759052681998,228157
3950,147.0,0.760982679998,228735
3960,144.0,0.762882313998,229292
3970,143.0,0.764781947998,229877
3980,146.0,0.766918501998,230459
3990,144.0,0.768882283998,231051
4000,141.0,0.770787476998,231629
4010,143.0,0.772733724998,232216
4020,145.0,0.774587172998,232786
4030,147.0,0.776673263998,233373
4040,149.0,0.778545100998,233953
4050,150.0,0.780698760998,234542
4060,149.0,0.782570597998,235117
4070,151.0,0.784523260998,235685
4080,152.0,0.786433585998,236261
4090,148.0,0.788325949998,236823
4100,154.0,0.790219168998,237395
4110,148.0,0.792101696998,237984
4120,152.0,0.794056498998,238573
4130,154.0,0.795920637998,239159
4140,155.0,0.797870306998,239744
4150,152.0,0.799709641998,240324
4160,153.0,0.801876986998,240895
4170,151.0,0.803729578998,241470
4180,154.0,0.805735698998,242039
4190,154.0,0.807551940998,242597
4200,152.0,0.809468252998,243178
4210,154.0,0.811353346998,243771
4220,152.0,0.813288047998,244363
4230,153.0,0.815188537998,244946
4240,152.0,0.817101856998,245520
4250,156.0,0.818998069998,246091
4260,152.0,0.820911815998,246672
4270,150.0,0.822890565998,247270
4280,152.0,0.824745295998,247856
4290,150.0,0.826623974998,248448
4300,149.0,0.828540287998,249023
4310,150.0,0.830418966998,249611
4320,150.0,0.832318172998,250205
4330,146.0,0.834232774998,250785
4340,148.0,0.836102045998,251355
4350,148.0,0.837969178998,251935
4360,148.0,0.839866674998,252533
4370,145.0,0.841765452998,253105
4380,149.0,0.843662948998,253676
4390,147.0,0.845539489998,254267
4400,147.0,0.847449815998,254845
4410,147.0,0.849306256998,255416
4420,148.0,0.851228128998,255994
4430,147.0,0.853205595998,256585
4440,147.0,0.855138158998,257160
4450,150.0,0.857071577998,257742
4460,149.0,0.858963941998,258308
4470,150.0,0.860867852998,258898
4480,150.0,0.862751235998,259475
4490,151.0,0.864626065998,260054
4500,151.0,0.866530404998,260622
4510,151.0,0.868422768998,261218
4520,151.0,0.870294177998,261795
4530,157.0,0.872166869998,262376
4540,152.0,0.874099432998,262934
4550,150.0,0.876011041998,263503
4560,150.0,0.877950019998,264077
4570,155.0,0.879850936998,264642
4580,150.0,0.881775374998,265228
4590,153.0,0.883760966998,265788
4600,149.0,0.885691391998,266359
4610,151.0,0.887692807998,266945
4620,149.0,0.889585598998,267519
4630,149.0,0.891440329998,268100
4640,152.0,0.893284369998,268683
4650,155.0,0.895411087998,269256
4660,150.0,0.897338519998,269828
4670,148.0,0.899291610998,270387
4680,149.0,0.901214337998,270970
4690,149.0,0.903181113998,271547
4700,151.0,0.905127789999,272123
4710,142.0,0.907087722999,272697
4720,144.0,0.909066472999,273272
4730,143.0,0.911043512999,273840
4740,144.0,0.913009432999,274413
4750,145.0,0.914974924999,274985
4760,143.0,0.920985158999,275557
4770,139.0,0.922972033999,276151
4780,144.0,0.924935387999,276726
4790,141.0,0.926878642999,277291
4800,143.0,0.928797093999,277872
4810,144.0,0.930746763999,278455
4820,142.0,0.932690445999,279037
4830,143.0,0.934675182999,279618
4840,140.0,0.936612021999,280189
4850,139.0,0.938529617999,280761
4860,141.0,0.940488267999,281337
4870,140.0,0.942461885999,281899
4880,139.0,0.944440207999,282481
4890,137.0,0.946436919999,283058
4900,140.0,0.948394287999,283617
4910,139.0,0.950343529999,284196
4920,143.0,0.952294054999,284790
4930,142.0,0.954233887999,285373
4940,143.0,0.956214775999,285961
4950,138.0,0.958285042999,286553
4960,140.0,0.960252246999,287145
4970,144.0,0.962253662999,287734
4980,141.0,0.964213167999,288315
4990,142.0,0.966175238999,288876
