it,funval,time,funcount
0,37.0,0.000644472999994,737
10,38.0,0.001280393,1365
20,43.0,0.001904766,2007
30,43.0,0.00251844799999,2628
40,44.0,0.00314453199999,3258
50,43.0,0.00374281799998,3890
60,46.0,0.00447239399998,4530
70,46.0,0.00511857799998,5163
80,46.0,0.00598115399998,5809
90,45.0,0.00658029599998,6448
100,47.0,0.00720766199998,7069
110,45.0,0.00781107999998,7691
120,46.0,0.00841107699998,8319
130,47.0,0.00903416699998,8953
140,47.0,0.00963544699997,9588
150,48.0,0.010237155,10214
160,47.0,0.010830737,10843
170,47.0,0.011431161,11481
180,45.0,0.0120422769999,12117
190,44.0,0.0126251679999,12750
200,45.0,0.013220033,13389
210,45.0,0.013870493,14028
220,45.0,0.0144773329999,14661
230,44.0,0.0151008509999,15286
240,44.0,0.015699992,15916
250,45.0,0.0162935739999,16570
260,46.0,0.0168602139999,17203
270,45.0,0.0174709019999,17830
280,46.0,0.0180756029999,18451
290,46.0,0.0186653369999,19085
300,47.0,0.0192631959999,19722
310,47.0,0.0198935569999,20368
320,46.0,0.0206209949999,21005
330,45.0,0.0212624749999,21640
340,44.0,0.0219454369999,22272
350,43.0,0.0225770799998,22905
360,45.0,0.0232330999998,23544
370,46.0,0.0238651709998,24180
380,46.0,0.0245746469998,24797
390,46.0,0.0251917499998,25433
400,46.0,0.0258032939998,26061
410,46.0,0.0264426349999,26693
420,47.0,0.0270687189999,27329
430,45.0,0.0276336479999,27958
440,46.0,0.0282019989999,28587
450,46.0,0.0287797579998,29210
460,47.0,0.0293438319999,29838
470,47.0,0.0299416909999,30475
480,47.0,0.0305386949999,31097
490,46.0,0.0311117499999,31730
500,46.0,0.0317036209999,32360
510,47.0,0.0322788139999,33000
520,47.0,0.0328424599999,33624
530,46.0,0.0334116659999,34246
540,48.0,0.0340240649999,34893
550,48.0,0.0346480109999,35530
560,50.0,0.0352244869999,36159
570,47.0,0.0358039569998,36792
580,48.0,0.0363701689998,37425
590,49.0,0.0369504939998,38054
600,48.0,0.0375466419998,38695
610,49.0,0.0381154209998,39324
620,48.0,0.0387013059998,39958
630,47.0,0.0392816309998,40580
640,47.0,0.0398816279998,41226
650,47.0,0.0404533999998,41848
660,47.0,0.0410581009998,42483
670,46.0,0.0416657959998,43115
680,48.0,0.0422508249998,43750
690,46.0,0.0428452619998,44371
700,46.0,0.0434409829998,45002
710,46.0,0.0440178869999,45635
720,47.0,0.0446174559999,46268
730,46.0,0.0451840959999,46898
740,45.0,0.0457712629999,47515
750,45.0,0.0463729709999,48151
760,45.0,0.0469579999999,48781
770,47.0,0.0475665499999,49423
780,46.0,0.0481733889999,50048
790,45.0,0.0487520029999,50676
800,47.0,0.0493644019999,51305
810,47.0,0.0499579839999,51919
820,47.0,0.0505823569999,52556
830,46.0,0.0512849909999,53190
840,47.0,0.0519345959999,53817
850,47.0,0.0525457109999,54445
860,46.0,0.0531243249999,55088
870,46.0,0.0537478429999,55727
880,47.0,0.0543940269999,56360
890,49.0,0.0550624489999,56991
900,47.0,0.0556654389999,57625
910,47.0,0.0563389919999,58255
920,47.0,0.0569693519999,58868
930,45.0,0.0579495319999,59490
940,46.0,0.0586081179999,60131
950,46.0,0.0592376229999,60764
960,48.0,0.0598979189999,61392
970,47.0,0.0605257139999,62013
980,46.0,0.0611911419999,62627
990,46.0,0.0620169399999,63253
1000,46.0,0.0626310489999,63876
1010,46.0,0.0632323289999,64508
1020,45.0,0.0640153609999,65144
1030,46.0,0.0646658209999,65771
1040,47.0,0.0653060179999,66401
1050,46.0,0.0659141409999,67039
1060,45.0,0.0665338099999,67687
1070,45.0,0.0671551899999,68311
1080,44.0,0.0678680869999,68944
1090,45.0,0.0685253899999,69586
1100,46.0,0.0691775609999,70217
1110,46.0,0.0699255259999,70850
1120,44.0,0.0705490439999,71468
1130,44.0,0.0711939449999,72101
1140,43.0,0.0720928709999,72730
1150,45.0,0.0727099739999,73372
1160,45.0,0.0733014169999,74009
1170,46.0,0.0738975649999,74657
1180,46.0,0.0745125299999,75292
1190,46.0,0.0751304879999,75927
1200,47.0,0.0757300579999,76557
1210,47.0,0.0763257779999,77182
1220,47.0,0.0769266299999,77806
1230,48.0,0.0775386009999,78434
1240,47.0,0.0781364599999,79055
1250,47.0,0.0787445819999,79682
1260,48.0,0.0793385919999,80303
1270,46.0,0.0799582609999,80935
1280,48.0,0.0805732259999,81572
1290,48.0,0.0811561169999,82202
1300,48.0,0.0817437119999,82838
1310,49.0,0.0823313069999,83475
1320,49.0,0.0829159089999,84110
1330,49.0,0.0835013659999,84731
1340,49.0,0.0841060679999,85361
1350,49.0,0.0847612329999,85980
1360,49.0,0.0855301529999,86613
1370,49.0,0.0861233079999,87258
1380,47.0,0.0867147519999,87892
1390,49.0,0.0873241569999,88528
1400,47.0,0.0879211599999,89165
1410,49.0,0.0885104649999,89798
1420,49.0,0.0890946389999,90435
1430,49.0,0.0896895039999,91070
1440,49.0,0.0902783819999,91704
1450,48.0,0.0908599899999,92344
1460,48.0,0.0914740999999,92966
1470,47.0,0.0920578459999,93587
1480,48.0,0.0926527109999,94216
1490,48.0,0.0932911969999,94850
1500,46.0,0.0938976089999,95493
1510,46.0,0.0945048759999,96124
1520,47.0,0.0950843459999,96742
1530,47.0,0.0956869079999,97375
1540,47.0,0.0962877609999,98025
1550,46.0,0.0968757839999,98657
1560,47.0,0.0974599579999,99285
1570,47.0,0.0982177589999,99908
1580,47.0,0.0988267369999,100536
1590,48.0,0.0994335759999,101176
1600,47.0,0.100051962,101816
1610,47.0,0.100648538,102451
1620,48.0,0.101245114,103075
1630,46.0,0.101859223,103709
1640,48.0,0.102455799,104336
1650,48.0,0.103056223,104967
1660,50.0,0.103613882,105593
1670,48.0,0.104188647,106233
1680,48.0,0.104767689,106855
1690,48.0,0.105332191,107485
1700,48.0,0.105950577,108130
1710,47.0,0.106555278,108770
1720,48.0,0.107171954,109393
1730,48.0,0.107748857,110018
1740,48.0,0.108330893,110639
1750,49.0,0.108912501,111275
1760,47.0,0.109497958,111915
1770,49.0,0.110092823,112548
1780,47.0,0.110675286,113178
1790,47.0,0.111264164,113820
1800,50.0,0.111851759,114466
1810,48.0,0.112430801,115089
1820,47.0,0.11300129,115720
1830,49.0,0.113596155,116359
1840,48.0,0.114194442,116989
1850,48.0,0.11479059,117618
1860,47.0,0.1153846,118245
1870,47.0,0.115969629,118885
1880,49.0,0.116573047,119511
1890,48.0,0.117173472,120135
1900,48.0,0.117770904,120770
1910,48.0,0.118508605,121413
1920,48.0,0.119131267,122042
1930,47.0,0.11973383,122679
1940,46.0,0.120368467,123313
1950,47.0,0.12095649,123945
1960,47.0,0.12159412,124578
1970,48.0,0.122188985,125208
1980,47.0,0.122807799,125836
1990,47.0,0.12343816,126458
2000,48.0,0.124018912,127100
2010,47.0,0.124604796,127721
2020,47.0,0.125227031,128347
2030,46.0,0.12583216,128973
2040,46.0,0.126424459,129604
2050,45.0,0.127035147,130241
2060,47.0,0.127629585,130880
2070,47.0,0.128215897,131516
2080,48.0,0.128824448,132141
2090,48.0,0.129402207,132770
2100,49.0,0.129976545,133407
2110,49.0,0.1305295,134030
2120,48.0,0.131088015,134658
2130,48.0,0.131661498,135307
2140,48.0,0.132245244,135938
2150,46.0,0.132840537,136562
2160,47.0,0.133443528,137178
2170,47.0,0.13402428,137810
2180,48.0,0.134619573,138435
2190,47.0,0.13519776,139051
2200,48.0,0.135815719,139689
2210,49.0,0.136419137,140311
2220,47.0,0.137018278,140942
2230,47.0,0.137611433,141585
2240,47.0,0.138223404,142211
2250,47.0,0.138839225,142833
2260,49.0,0.139450341,143473
2270,48.0,0.140070865,144102
2280,48.0,0.140679415,144735
2290,49.0,0.141262733,145378
2300,46.0,0.141860164,146023
2310,47.0,0.142437496,146653
2320,47.0,0.143045191,147289
2330,48.0,0.143644333,147932
2340,48.0,0.144227652,148569
2350,48.0,0.144807977,149205
2360,49.0,0.145389585,149837
2370,49.0,0.145980602,150481
2380,48.0,0.146569052,151108
2390,48.0,0.147213525,151747
2400,48.0,0.147838326,152366
2410,47.0,0.14843148,152998
2420,48.0,0.149024207,153620
2430,48.0,0.149623776,154252
2440,49.0,0.150210088,154888
2450,47.0,0.150833178,155524
2460,48.0,0.151421628,156148
2470,48.0,0.152031461,156784
2480,48.0,0.152628464,157428
2490,48.0,0.153192966,158063
2500,48.0,0.153774574,158696
2510,47.0,0.154352761,159327
2520,49.0,0.154925816,159955
2530,48.0,0.155524958,160590
2540,48.0,0.156103572,161216
2550,49.0,0.156677054,161856
2560,50.0,0.157249254,162485
2570,50.0,0.157816322,163125
2580,49.0,0.158384245,163753
2590,47.0,0.158979965,164392
2600,48.0,0.159588087,165015
2610,50.0,0.160232988,165642
2620,48.0,0.160821438,166275
2630,47.0,0.161417586,166912
2640,47.0,0.162018865,167532
2650,47.0,0.1626009,168164
2660,47.0,0.163210733,168793
2670,47.0,0.163786782,169416
2680,47.0,0.164360692,170053
2690,48.0,0.164961545,170681
2700,47.0,0.165557693,171306
2710,48.0,0.166149137,171952
2720,48.0,0.166732883,172580
2730,49.0,0.167328176,173215
2740,49.0,0.167909784,173844
2750,49.0,0.168474286,174485
2760,48.0,0.169059315,175108
2770,48.0,0.169628093,175738
2780,48.0,0.17020072,176368
2790,47.0,0.170785322,176989
2800,48.0,0.17137591,177619
2810,46.0,0.171954097,178242
2820,47.0,0.172535705,178876
2830,47.0,0.173171197,179493
2840,47.0,0.17377376,180129
2850,47.0,0.174369053,180754
2860,48.0,0.17499642,181389
2870,48.0,0.175603687,182022
2880,47.0,0.176240035,182643
2890,47.0,0.176863553,183265
2900,46.0,0.177497762,183884
2910,45.0,0.178161907,184526
2920,46.0,0.178812795,185158
2930,47.0,0.179451281,185803
2940,46.0,0.180098319,186437
2950,44.0,0.180798387,187079
2960,46.0,0.181431313,187708
2970,43.0,0.182080918,188348
2980,44.0,0.182700159,188981
2990,44.0,0.183306998,189608
3000,45.0,0.183906568,190249
3010,45.0,0.184515118,190870
3020,43.0,0.185145906,191504
3030,44.0,0.185743764,192115
3040,46.0,0.186363006,192741
3050,47.0,0.186974122,193373
3060,46.0,0.187743041,193993
3070,46.0,0.188375967,194631
3080,46.0,0.189254794,195273
3090,47.0,0.189854363,195899
3100,48.0,0.190432977,196519
3110,47.0,0.191041954,197154
3120,47.0,0.191657774,197777
3130,49.0,0.192300109,198407
3140,49.0,0.19295228,199035
3150,48.0,0.193557836,199665
3160,48.0,0.194177077,200294
3170,48.0,0.194866881,200928
3180,49.0,0.195585766,201566
3190,49.0,0.196205435,202198
3200,49.0,0.196894811,202811
3210,47.0,0.197646197,203441
3220,47.0,0.1982834,204068
3230,46.0,0.198888101,204688
3240,46.0,0.199468854,205308
3250,47.0,0.200089806,205935
3260,46.0,0.200673125,206569
3270,46.0,0.201366778,207213
3280,48.0,0.201950952,207830
3290,49.0,0.202583879,208460
3300,48.0,0.203203548,209109
3310,49.0,0.20380996,209731
3320,49.0,0.204442886,210357
3330,48.0,0.205186147,210974
3340,49.0,0.205760485,211607
3350,47.0,0.206350219,212235
3360,46.0,0.206966039,212861
3370,47.0,0.207553634,213494
3380,47.0,0.20814465,214135
3390,46.0,0.208730962,214782
3400,49.0,0.209348492,215419
3410,48.0,0.209933093,216047
3420,46.0,0.210542498,216668
3430,46.0,0.211164305,217281
3440,46.0,0.211775421,217897
3450,47.0,0.212357884,218527
3460,47.0,0.21295617,219153
3470,47.0,0.21356472,219774
3480,47.0,0.214180113,220412
3490,47.0,0.214791229,221023
3500,47.0,0.215368561,221660
3510,47.0,0.21598994,222286
3520,47.0,0.216589082,222909
3530,48.0,0.217187796,223539
3540,47.0,0.217802334,224164
3550,47.0,0.218415161,224793
3560,47.0,0.219037396,225430
3570,47.0,0.2196344,226056
3580,47.0,0.220231831,226694
3590,48.0,0.220823275,227316
3600,48.0,0.221410442,227941
3610,48.0,0.222013433,228571
3620,47.0,0.222585632,229203
3630,48.0,0.223172371,229844
3640,49.0,0.223740721,230461
3650,48.0,0.224327888,231087
3660,47.0,0.224906503,231716
3670,49.0,0.225560385,232333
3680,48.0,0.226177488,232970
3690,47.0,0.226757813,233600
3700,48.0,0.227380476,234235
3710,47.0,0.227983039,234863
3720,47.0,0.228592017,235479
3730,46.0,0.229198001,236105
3740,47.0,0.229799281,236738
3750,48.0,0.230400988,237361
3760,48.0,0.230989866,237974
3770,48.0,0.231578316,238599
3780,49.0,0.232173181,239236
3790,49.0,0.232745808,239864
3800,47.0,0.233324423,240500
3810,47.0,0.233928269,241131
3820,46.0,0.234511588,241769
3830,46.0,0.235144087,242409
3840,46.0,0.235726978,243033
3850,47.0,0.236504024,243665
3860,48.0,0.237138661,244295
3870,47.0,0.237804517,244932
3880,47.0,0.238386125,245566
3890,48.0,0.238966878,246202
3900,48.0,0.239549769,246842
3910,48.0,0.240147201,247478
3920,46.0,0.240791247,248105
3930,46.0,0.241408778,248737
3940,46.0,0.242001932,249372
3950,45.0,0.24259637,249994
3960,45.0,0.243186104,250627
3970,49.0,0.243850677,251241
3980,47.0,0.244451957,251864
3990,48.0,0.245063929,252488
4000,48.0,0.250812011,253117
4010,47.0,0.25141714,253740
4020,48.0,0.252012432,254372
4030,49.0,0.252606869,254995
4040,50.0,0.253207294,255627
4050,47.0,0.253811995,256252
4060,49.0,0.254401728,256892
4070,49.0,0.25498975,257517
4080,49.0,0.255590175,258142
4090,47.0,0.256181191,258770
4100,47.0,0.256777339,259402
4110,48.0,0.257422239,260042
4120,49.0,0.258020526,260677
4130,48.0,0.258608121,261300
4140,46.0,0.259206835,261935
4150,46.0,0.259860716,262563
4160,48.0,0.26052315,263197
4170,48.0,0.261235192,263837
4180,48.0,0.261834762,264477
4190,46.0,0.262437753,265109
4200,48.0,0.263059988,265734
4210,45.0,0.263667255,266380
4220,47.0,0.264321137,267011
4230,45.0,0.264931825,267637
4240,47.0,0.265534388,268264
4250,46.0,0.266183565,268893
4260,45.0,0.266821196,269527
4270,45.0,0.267437016,270165
4280,45.0,0.268068659,270799
4290,45.0,0.268705862,271431
4300,47.0,0.269422181,272066
4310,43.0,0.270108564,272692
4320,46.0,0.270708561,273328
4330,47.0,0.27132096,273966
4340,46.0,0.271941056,274602
4350,46.0,0.272674908,275229
4360,48.0,0.273333066,275842
4370,48.0,0.274302983,276473
4380,48.0,0.274896993,277095
4390,48.0,0.275478601,277726
4400,48.0,0.276492566,278356
4410,48.0,0.277072035,278993
4420,48.0,0.277646373,279636
4430,49.0,0.278272029,280273
4440,49.0,0.278852354,280923
4450,49.0,0.279421987,281556
4460,48.0,0.280045933,282185
4470,47.0,0.28067501,282812
4480,48.0,0.281257474,283431
4490,47.0,0.281843358,284062
4500,47.0,0.282621258,284694
4510,47.0,0.283211847,285327
4520,47.0,0.283963661,285959
4530,48.0,0.284574777,286577
4540,49.0,0.285169215,287212
4550,48.0,0.285766219,287843
4560,48.0,0.286337991,288477
4570,49.0,0.286933284,289104
4580,48.0,0.287514037,289740
4590,47.0,0.288109757,290370
4600,47.0,0.288713603,291007
4610,48.0,0.289276394,291645
4620,49.0,0.289866983,292269
4630,48.0,0.290616659,292893
4640,49.0,0.291212807,293512
4650,48.0,0.291800402,294149
4660,47.0,0.292438032,294794
4670,47.0,0.293050858,295421
4680,49.0,0.293629472,296067
4690,49.0,0.29423289,296700
4700,48.0,0.294928681,297327
4710,47.0,0.295567595,297962
4720,46.0,0.296178711,298605
4730,45.0,0.296777425,299237
4740,47.0,0.297388969,299876
4750,48.0,0.297984262,300506
4760,48.0,0.298587252,301140
4770,48.0,0.299181262,301772
4780,48.0,0.299821458,302402
4790,48.0,0.300432574,303038
4800,48.0,0.301042834,303678
4810,48.0,0.301633423,304300
4820,48.0,0.302229144,304923
4830,48.0,0.302854801,305562
4840,47.0,0.303442824,306194
4850,47.0,0.304051802,306820
4860,47.0,0.304653082,307442
4870,48.0,0.305255217,308070
4880,47.0,0.305841529,308701
4890,48.0,0.306430407,309344
4900,48.0,0.30701287,309972
4910,48.0,0.307607308,310604
4920,47.0,0.308210727,311242
4930,47.0,0.308822271,311878
4940,47.0,0.30944921,312500
4950,48.0,0.3100522,313121
4960,47.0,0.310640223,313751
4970,48.0,0.311267162,314380
4980,48.0,0.311855185,315003
4990,47.0,0.312446629,315644
