it,funval,time,funcount
0,34.0,0.000313896999998,436
10,39.0,0.000631216000002,763
20,40.0,0.000947250999999,1088
30,41.0,0.001258155,1418
40,41.0,0.00157290800001,1751
50,42.0,0.00186542200001,2089
60,43.0,0.00215408700001,2420
70,44.0,0.00244788400001,2765
80,45.0,0.00273227300001,3099
90,46.0,0.00305044700001,3437
100,47.0,0.00334125100001,3777
110,47.0,0.00362863400001,4107
120,47.0,0.003936544,4429
130,49.0,0.00422435399999,4765
140,47.0,0.00453696799998,5108
150,47.0,0.00484915499999,5444
160,46.0,0.005133972,5775
170,46.0,0.00541707799999,6112
180,47.0,0.00573182999999,6443
190,47.0,0.00601322599999,6770
200,46.0,0.00630445699998,7116
210,47.0,0.00658884699997,7459
220,47.0,0.00689119699997,7799
230,47.0,0.00718114599997,8133
240,47.0,0.00747237799996,8473
250,46.0,0.00776061599996,8810
260,46.0,0.00804842699996,9151
270,47.0,0.00833452699996,9493
280,47.0,0.00862832499996,9820
290,45.0,0.00891399699996,10161
300,46.0,0.00920266299997,10494
310,46.0,0.00948576899997,10830
320,46.0,0.00977144099997,11160
330,46.0,0.01006866,11500
340,46.0,0.01036203,11825
350,45.0,0.010654545,12161
360,45.0,0.010945349,12497
370,46.0,0.011239147,12837
380,45.0,0.011526529,13178
390,46.0,0.011827169,13503
400,46.0,0.012123104,13840
410,44.0,0.012407921,14164
420,43.0,0.01269787,14502
430,44.0,0.0130836119999,14831
440,44.0,0.013373561,15158
450,45.0,0.0136579499999,15491
460,46.0,0.0139376349999,15826
470,45.0,0.0142241619999,16163
480,46.0,0.0145128279999,16494
490,46.0,0.0148617929999,16834
500,46.0,0.0151893749999,17158
510,46.0,0.0155267929999,17488
520,44.0,0.0159655649999,17828
530,44.0,0.0162649219999,18164
540,46.0,0.0165771089999,18511
550,46.0,0.0168709069999,18847
560,46.0,0.0171664149999,19183
570,46.0,0.0174905759999,19519
580,46.0,0.017784373,19858
590,46.0,0.018067906,20202
600,47.0,0.018369402,20544
610,46.0,0.018655074,20885
620,47.0,0.018943739,21219
630,45.0,0.0192478,21561
640,46.0,0.019538604,21900
650,45.0,0.019831546,22237
660,45.0,0.020158273,22577
670,45.0,0.020465756,22921
680,45.0,0.020751428,23251
690,45.0,0.021056772,23586
700,45.0,0.021366393,23929
710,45.0,0.021702101,24259
720,47.0,0.022010439,24600
730,47.0,0.02232006,24941
740,47.0,0.022598034,25274
750,47.0,0.022882423,25610
760,49.0,0.023213426,25951
770,46.0,0.023510217,26289
780,46.0,0.023807863,26627
790,47.0,0.024107648,26977
800,47.0,0.024399735,27309
810,46.0,0.024687118,27652
820,46.0,0.024976212,27992
830,46.0,0.025268726,28321
840,47.0,0.025575353,28657
850,47.0,0.02588027,28994
860,46.0,0.02618989,29322
870,46.0,0.026493096,29657
880,46.0,0.026818967,29987
890,47.0,0.027123884,30332
900,46.0,0.027424524,30666
910,46.0,0.027718749,31014
920,47.0,0.028014685,31342
930,46.0,0.028300357,31693
940,47.0,0.028583035,32021
950,48.0,0.028872984,32355
960,46.0,0.029151814,32690
970,47.0,0.029434492,33030
980,48.0,0.029740263,33366
990,45.0,0.030024653,33710
1000,46.0,0.03031674,34050
1010,47.0,0.030599846,34390
1020,44.0,0.030888512,34731
1030,44.0,0.031184876,35060
1040,45.0,0.031505616,35394
1050,44.0,0.031793854,35730
1060,43.0,0.032085513,36072
1070,45.0,0.032372041,36410
1080,45.0,0.032718012,36742
1090,45.0,0.033024211,37072
1100,46.0,0.033427488,37403
1110,46.0,0.033770893,37735
1120,45.0,0.034072816,38069
1130,46.0,0.034370462,38413
1140,47.0,0.03466597,38756
1150,47.0,0.034965327,39097
1160,46.0,0.03524715,39433
1170,45.0,0.035536671,39775
1180,45.0,0.035825765,40114
1190,42.0,0.036120845,40444
1200,44.0,0.036412932,40777
1210,43.0,0.036719559,41097
1220,44.0,0.037028752,41425
1230,45.0,0.037337945,41761
1240,43.0,0.037646711,42096
1250,42.0,0.037940509,42438
1260,44.0,0.038225754,42777
1270,45.0,0.038525967,43098
1280,44.0,0.038819337,43430
1290,45.0,0.039146919,43760
1300,45.0,0.039470652,44086
1310,45.0,0.039821755,44419
1320,43.0,0.040149337,44754
1330,44.0,0.040495309,45086
1340,44.0,0.040876776,45418
1350,42.0,0.041236432,45767
1360,44.0,0.041570857,46106
1370,43.0,0.041895873,46448
1380,46.0,0.042276912,46784
1390,44.0,0.042585677,47116
1400,45.0,0.042881612,47455
1410,44.0,0.043204918,47797
1420,45.0,0.043504275,48119
1430,44.0,0.043833996,48452
1440,47.0,0.044153025,48788
1450,46.0,0.044476759,49119
1460,45.0,0.044788518,49457
1470,47.0,0.045100704,49796
1480,46.0,0.04540562,50128
1490,46.0,0.045696424,50468
1500,46.0,0.045987228,50800
1510,46.0,0.046301981,51132
1520,46.0,0.046609035,51467
1530,46.0,0.046965698,51795
1540,46.0,0.047329203,52129
1550,46.0,0.047685866,52468
1560,48.0,0.048044239,52816
1570,46.0,0.048370539,53153
1580,47.0,0.04870924,53487
1590,46.0,0.049042382,53829
1600,46.0,0.049380656,54167
1610,45.0,0.049719357,54499
1620,47.0,0.050071743,54840
1630,46.0,0.050403601,55179
1640,46.0,0.050735887,55516
1650,45.0,0.05108699,55849
1660,44.0,0.051417138,56190
1670,45.0,0.051757122,56519
1680,44.0,0.052103521,56851
1690,45.0,0.052455907,57189
1700,46.0,0.052787766,57526
1710,45.0,0.053124329,57868
1720,45.0,0.053460036,58201
1730,45.0,0.053819264,58540
1740,45.0,0.054155399,58875
1750,43.0,0.054524892,59206
1760,43.0,0.054875996,59545
1770,43.0,0.055224106,59883
1780,45.0,0.055531161,60219
1790,44.0,0.055848907,60553
1800,46.0,0.0561581,60895
1810,46.0,0.056448049,61240
1820,46.0,0.05675767,61578
1830,46.0,0.057083114,61912
1840,45.0,0.057398722,62247
1850,45.0,0.057772918,62579
1860,45.0,0.058074414,62920
1870,45.0,0.058387028,63257
1880,44.0,0.058688095,63594
1890,44.0,0.058994294,63925
1900,45.0,0.059326153,64257
1910,42.0,0.059641334,64583
1920,42.0,0.059943257,64913
1930,45.0,0.060273405,65253
1940,44.0,0.06058217,65589
1950,42.0,0.060923437,65927
1960,45.0,0.06123263,66258
1970,44.0,0.061558502,66607
1980,44.0,0.061885657,66934
1990,45.0,0.062181165,67283
2000,45.0,0.062470686,67617
2010,45.0,0.062784156,67956
2020,45.0,0.063085651,68273
2030,46.0,0.063381587,68597
2040,45.0,0.063660844,68930
2050,45.0,0.063943523,69273
2060,47.0,0.064259558,69608
2070,47.0,0.064567468,69947
2080,47.0,0.064907025,70281
2090,45.0,0.065212797,70627
2100,47.0,0.065520279,70962
2110,48.0,0.0658098,71310
2120,47.0,0.066113861,71647
2130,47.0,0.066408514,71979
2140,46.0,0.06671001,72317
2150,46.0,0.06701963,72652
2160,46.0,0.067315994,72983
2170,45.0,0.067610647,73315
2180,44.0,0.068014779,73633
2190,44.0,0.068336374,73972
2200,45.0,0.068658396,74309
2210,45.0,0.068976142,74635
2220,47.0,0.069289612,74964
2230,44.0,0.06963259,75292
2240,44.0,0.069967442,75631
2250,44.0,0.070278345,75961
2260,44.0,0.070579412,76299
2270,46.0,0.070884756,76635
2280,45.0,0.071203785,76977
2290,47.0,0.07152538,77318
2300,48.0,0.07182046,77653
2310,46.0,0.072105704,78004
2320,47.0,0.072412331,78333
2330,46.0,0.072710832,78677
2340,45.0,0.073048678,79015
2350,45.0,0.073349318,79347
2360,45.0,0.073661932,79688
2370,46.0,0.073987376,80014
2380,45.0,0.074274331,80353
2390,46.0,0.07455872,80678
2400,45.0,0.074856367,81009
2410,47.0,0.075140328,81331
2420,46.0,0.075435409,81666
2430,46.0,0.075804045,82001
2440,45.0,0.076123501,82341
2450,46.0,0.076430983,82683
2460,46.0,0.076736327,83030
2470,47.0,0.077046375,83364
2480,46.0,0.077350436,83699
2490,47.0,0.077671175,84036
2500,47.0,0.077980368,84381
2510,46.0,0.078266895,84720
2520,46.0,0.078547007,85053
2530,48.0,0.078862615,85391
2540,47.0,0.0791662490001,85720
2550,46.0,0.0795049500001,86054
2560,46.0,0.0798167090001,86391
2570,47.0,0.0801203420001,86726
2580,46.0,0.0804350950001,87075
2590,46.0,0.0807558350001,87410
2600,46.0,0.0810748640001,87740
2610,46.0,0.0813891890001,88081
2620,45.0,0.0816761440001,88411
2630,46.0,0.0819699420001,88727
2640,46.0,0.0822654500001,89059
2650,46.0,0.0825669450001,89385
2660,45.0,0.0828658740001,89710
2670,45.0,0.0831938840001,90032
2680,44.0,0.0834923860001,90372
2690,44.0,0.0838105590001,90710
2700,42.0,0.0841197520001,91054
2710,43.0,0.0844259510001,91384
2720,43.0,0.0847466910001,91715
2730,46.0,0.0850588780001,92048
2740,44.0,0.0853672160001,92389
2750,43.0,0.0856614410001,92733
2760,43.0,0.0859650740001,93067
2770,43.0,0.0862751230001,93404
2780,43.0,0.0865787570001,93738
2790,44.0,0.0868691340001,94074
2800,44.0,0.0871595100001,94402
2810,45.0,0.0874691310001,94741
2820,44.0,0.0877620730001,95078
2830,45.0,0.0880524500001,95412
2840,44.0,0.0883428270001,95753
2850,44.0,0.0886306370001,96083
2860,45.0,0.0889235790001,96420
2870,45.0,0.0892314890001,96757
2880,46.0,0.0895419650001,97099
2890,46.0,0.0898464540001,97434
2900,45.0,0.0901415340001,97763
2910,46.0,0.0904515830001,98094
2920,44.0,0.0907620590001,98423
2930,45.0,0.0911589210001,98749
2940,44.0,0.0914856480001,99089
2950,43.0,0.0917862880001,99431
2960,44.0,0.0921502210001,99769
2970,45.0,0.0924855010001,100105
2980,45.0,0.0927741670001,100452
2990,44.0,0.093082077,100795
3000,45.0,0.093386566,101137
3010,43.0,0.093698753,101474
3020,46.0,0.094012223,101802
3030,44.0,0.0943363840001,102138
3040,44.0,0.0946477150001,102476
3050,45.0,0.094976152,102809
3060,46.0,0.095272943,103152
3070,48.0,0.095569734,103488
3080,47.0,0.095885342,103828
3090,47.0,0.096179995,104178
3100,48.0,0.096485339,104507
3110,47.0,0.096785979,104842
3120,47.0,0.097084908,105174
3130,49.0,0.097381271,105518
3140,48.0,0.097673358,105845
3150,49.0,0.097971004,106178
3160,48.0,0.098269078,106507
3170,46.0,0.098555178,106838
3180,47.0,0.104054367,107176
3190,47.0,0.10434346,107503
3200,48.0,0.104685582,107836
3210,48.0,0.104976386,108185
3220,48.0,0.105254788,108525
3230,47.0,0.105539605,108859
3240,49.0,0.105847942,109187
3250,49.0,0.106160984,109522
3260,49.0,0.106474026,109855
3270,49.0,0.106799469,110183
3280,49.0,0.107115932,110512
3290,47.0,0.10741871,110847
3300,46.0,0.107757411,111194
3310,48.0,0.10806746,111512
3320,46.0,0.108373232,111844
3330,47.0,0.108664464,112175
3340,46.0,0.108964676,112513
3350,47.0,0.109253342,112854
3360,47.0,0.109572371,113194
3370,48.0,0.109857188,113530
3380,47.0,0.110156973,113856
3390,46.0,0.110451198,114179
3400,47.0,0.110768944,114510
3410,45.0,0.111052478,114838
3420,46.0,0.111357394,115180
3430,46.0,0.11165162,115515
3440,45.0,0.11195055,115842
3450,47.0,0.112264874,116173
3460,45.0,0.112558671,116499
3470,46.0,0.112878555,116843
3480,46.0,0.113179195,117182
3490,46.0,0.113466578,117512
3500,47.0,0.113769784,117845
3510,47.0,0.114066575,118178
3520,47.0,0.114358235,118511
3530,46.0,0.114674698,118851
3540,46.0,0.114984746,119191
3550,45.0,0.115266141,119517
3560,45.0,0.115562076,119857
3570,47.0,0.115852025,120190
3580,46.0,0.116268986,120524
3590,45.0,0.116594857,120860
3600,47.0,0.116892504,121193
3610,47.0,0.117185874,121524
3620,47.0,0.117477106,121842
3630,48.0,0.117770476,122183
3640,48.0,0.118057859,122530
3650,48.0,0.118368335,122864
3660,49.0,0.118660849,123200
3670,49.0,0.118939679,123530
3680,50.0,0.119217225,123862
3690,49.0,0.119516582,124203
3700,50.0,0.119800971,124540
3710,49.0,0.120087498,124872
3720,48.0,0.120386427,125208
3730,47.0,0.120673383,125538
3740,47.0,0.120980865,125880
3750,47.0,0.121302032,126222
3760,47.0,0.121585993,126544
3770,48.0,0.121868671,126877
3780,48.0,0.122161185,127211
3790,48.0,0.122446429,127551
3800,48.0,0.12273595,127887
3810,48.0,0.12301649,128231
3820,49.0,0.123335946,128568
3830,49.0,0.123618197,128892
3840,48.0,0.12389831,129230
3850,48.0,0.124185265,129562
3860,48.0,0.124469654,129896
3870,48.0,0.12475276,130238
3880,49.0,0.125063236,130573
3890,49.0,0.125383548,130910
3900,49.0,0.125691458,131240
3910,49.0,0.126007921,131580
3920,48.0,0.126305567,131919
3930,48.0,0.126626307,132270
3940,48.0,0.126915401,132607
3950,48.0,0.127225449,132933
3960,47.0,0.127514542,133270
3970,48.0,0.127800642,133601
3980,48.0,0.128085886,133926
3990,47.0,0.128389947,134261
4000,48.0,0.128687166,134599
4010,45.0,0.129011755,134939
4020,46.0,0.129330784,135271
4030,45.0,0.129634417,135615
4040,46.0,0.129926931,135950
4050,47.0,0.130222011,136284
4060,47.0,0.130520085,136625
4070,47.0,0.130815593,136971
4080,46.0,0.13112949,137305
4090,46.0,0.131416872,137648
4100,45.0,0.131706393,137980
4110,46.0,0.132001046,138315
4120,47.0,0.13229185,138654
4130,47.0,0.132579233,138983
4140,48.0,0.132893985,139315
4150,47.0,0.13318821,139650
4160,47.0,0.133492698,139986
4170,47.0,0.133785212,140326
4180,46.0,0.134079009,140660
4190,46.0,0.13436853,140996
4200,47.0,0.134657196,141320
4210,47.0,0.134959546,141648
4220,48.0,0.135251205,141981
4230,47.0,0.135577932,142318
4240,47.0,0.135873012,142662
4250,48.0,0.136159967,142987
4260,48.0,0.136459752,143325
4270,47.0,0.13674799,143657
4280,47.0,0.137040077,143978
4290,46.0,0.13735825,144314
4300,46.0,0.137702083,144647
4310,46.0,0.138034369,144978
4320,46.0,0.138364945,145313
4330,46.0,0.138703646,145664
4340,45.0,0.139043202,146006
4350,47.0,0.139392167,146338
4360,47.0,0.139820247,146670
4370,47.0,0.14012217,147004
4380,47.0,0.140413829,147333
4390,47.0,0.140702495,147672
4400,47.0,0.141042052,148004
4410,46.0,0.141333283,148343
4420,46.0,0.141624514,148687
4430,47.0,0.141940977,149017
4440,47.0,0.14223734,149351
4450,47.0,0.142525151,149689
4460,47.0,0.142848029,150029
4470,48.0,0.143129852,150362
4480,47.0,0.143421084,150693
4490,48.0,0.143712316,151019
4500,48.0,0.144033911,151356
4510,48.0,0.144371329,151680
4520,45.0,0.144670258,152016
4530,45.0,0.144962773,152363
4540,46.0,0.14524759,152694
4550,48.0,0.145568757,153023
4560,47.0,0.145875812,153361
4570,47.0,0.146166616,153693
4580,49.0,0.146465973,154035
4590,47.0,0.146755494,154369
4600,47.0,0.147056562,154704
4610,45.0,0.147349932,155047
4620,47.0,0.14764544,155387
4630,48.0,0.147972167,155719
4640,48.0,0.148279649,156064
4650,46.0,0.148577723,156399
4660,48.0,0.148899318,156732
4670,46.0,0.149217064,157076
4680,45.0,0.149515565,157419
4690,45.0,0.149836304,157758
4700,44.0,0.150138655,158086
4710,45.0,0.150439722,158425
4720,45.0,0.150731381,158754
4730,46.0,0.151027317,159084
4740,47.0,0.151325819,159414
4750,46.0,0.151648269,159751
4760,46.0,0.151975852,160079
4770,47.0,0.15237357,160427
4780,46.0,0.152674638,160767
4790,46.0,0.152963304,161107
4800,47.0,0.153296018,161433
4810,47.0,0.153583401,161769
4820,49.0,0.153864796,162085
4830,49.0,0.154313831,162417
4840,48.0,0.154612761,162753
4850,48.0,0.154924947,163085
4860,48.0,0.155230292,163408
4870,48.0,0.155534781,163732
4880,49.0,0.155849106,164056
4890,48.0,0.156176261,164390
4900,49.0,0.156486309,164731
4910,47.0,0.156800206,165063
4920,47.0,0.157106834,165404
4930,47.0,0.157418593,165747
4940,49.0,0.15773078,166085
4950,47.0,0.15804425,166428
4960,47.0,0.158353443,166750
4970,45.0,0.158651517,167093
4980,45.0,0.158952584,167432
4990,45.0,0.159279311,167769
