it,funval,time,funcount
0,67.0,0.000878399000044,669
10,68.0,0.00175209400004,1249
20,68.0,0.00260654500005,1837
30,73.0,0.00347254200005,2403
40,77.0,0.00434196000003,2996
50,76.0,0.00521736600012,3578
60,75.0,0.00607181700013,4155
70,80.0,0.00693482100007,4728
80,77.0,0.00780466700007,5302
90,78.0,0.0086338860001,5880
100,80.0,0.00946866400011,6459
110,79.0,0.01030558,7040
120,79.0,0.01111641,7638
130,82.0,0.011933227,8224
140,83.0,0.0127470499999,8806
150,79.0,0.0135459059999,9389
160,81.0,0.0144320029998,9961
170,81.0,0.0152278649998,10535
180,80.0,0.0160583669998,11108
190,81.0,0.0168927179998,11687
200,83.0,0.0177150949997,12268
210,80.0,0.0185049699998,12843
220,81.0,0.0193004049997,13414
230,80.0,0.0201540009997,14004
240,80.0,0.0210063129997,14591
250,81.0,0.0218351039997,15183
260,81.0,0.0226373809998,15741
270,82.0,0.0234636069998,16309
280,83.0,0.0242521979998,16890
290,82.0,0.0250826999998,17459
300,81.0,0.0259315909997,18039
310,82.0,0.0267372889997,18596
320,83.0,0.0275121959996,19167
330,83.0,0.0283067749996,19742
340,85.0,0.0291787589996,20324
350,82.0,0.0299759039996,20909
360,82.0,0.0307743319995,21482
370,80.0,0.0316078269994,22054
380,81.0,0.0324319149994,22626
390,83.0,0.0332175129994,23211
400,82.0,0.0339984069994,23797
410,81.0,0.0348066709994,24392
420,79.0,0.0355944069994,24981
430,81.0,0.0363941179994,25565
440,78.0,0.0371946849995,26155
450,81.0,0.0379948229994,26724
460,79.0,0.0387864089994,27295
470,78.0,0.0395835539994,27882
480,78.0,0.0404166209994,28463
490,80.0,0.0412124829994,29041
500,81.0,0.0420019309994,29637
510,80.0,0.0428153259994,30211
520,78.0,0.0436240179994,30788
530,82.0,0.0444134659995,31354
540,82.0,0.0452726209995,31927
550,83.0,0.0461026959995,32507
560,83.0,0.0470379729995,33066
570,83.0,0.0478522239996,33648
580,80.0,0.0486344009996,34219
590,80.0,0.0494345399997,34788
600,82.0,0.0502376719996,35365
610,80.0,0.0510322509997,35921
620,79.0,0.0518452189997,36502
630,81.0,0.0528638879997,37078
640,83.0,0.0536422159997,37660
650,80.0,0.0544072869998,38233
660,80.0,0.0551757789998,38815
670,80.0,0.0559793389998,39392
680,79.0,0.0567863199999,39973
690,81.0,0.05765531,40555
700,81.0,0.0585243009999,41127
710,84.0,0.059450598,41700
720,85.0,0.060294357,42291
730,86.0,0.061109463,42884
740,83.0,0.061910884,43452
750,84.0,0.062728984,44020
760,81.0,0.0635949810001,44597
770,84.0,0.064476801,45177
780,83.0,0.0653398039999,45766
790,81.0,0.066144219,46335
800,83.0,0.0669328109999,46911
810,82.0,0.0678360139999,47490
820,79.0,0.0686883259999,48056
830,79.0,0.0695269539999,48636
840,81.0,0.0703326519998,49205
850,82.0,0.0711490409998,49789
860,84.0,0.0719483249998,50355
870,82.0,0.0727506009998,50932
880,81.0,0.0735456079998,51518
890,84.0,0.0743675569998,52090
900,82.0,0.0752121709999,52676
910,83.0,0.0760341199998,53261
920,81.0,0.0768363969999,53825
930,84.0,0.0776202849999,54410
940,83.0,0.0784439449999,54989
950,85.0,0.0792436559999,55565
960,83.0,0.0800224119999,56125
970,90.0,0.0808477819999,56705
980,88.0,0.0816218339999,57285
990,86.0,0.0824095709999,57865
1000,85.0,0.0832340859998,58446
1010,85.0,0.0840278099998,59018
1020,88.0,0.0848707139999,59602
1030,84.0,0.085677695,60187
1040,86.0,0.086643763,60771
1050,88.0,0.087820237,61341
1060,87.0,0.088628074,61929
1070,84.0,0.089450878,62514
1080,86.0,0.090242463,63095
1090,85.0,0.0910177980001,63686
1100,88.0,0.091814515,64264
1110,88.0,0.092674098,64846
1120,88.0,0.0934708149999,65421
1130,87.0,0.0942269049999,66007
1140,88.0,0.0950890529999,66568
1150,87.0,0.0958934679999,67136
1160,87.0,0.0966824879999,67716
1170,85.0,0.097477067,68295
1180,90.0,0.0982425650001,68861
1190,88.0,0.0990401380001,69442
1200,85.0,0.0998475460001,70031
1210,85.0,0.100631006,70611
1220,84.0,0.101442691,71190
1230,85.0,0.102253948,71757
1240,84.0,0.103279887,72340
1250,84.0,0.104125784,72924
1260,84.0,0.104929344,73497
1270,81.0,0.10578294,74081
1280,83.0,0.106600612,74651
1290,83.0,0.107405027,75229
1300,84.0,0.108181217,75804
1310,83.0,0.108967671,76375
1320,86.0,0.109740012,76954
1330,85.0,0.110515775,77530
1340,83.0,0.111300091,78104
1350,82.0,0.112095526,78693
1360,86.0,0.112928166,79285
1370,84.0,0.113754391,79871
1380,83.0,0.11454726,80452
1390,83.0,0.115380328,81037
1400,82.0,0.116171058,81628
1410,81.0,0.116953236,82197
1420,80.0,0.117735413,82775
1430,83.0,0.118954224,83362
1440,84.0,0.119783871,83929
1450,86.0,0.120592135,84499
1460,83.0,0.121425631,85076
1470,83.0,0.122274094,85655
1480,86.0,0.123057127,86238
1490,84.0,0.123846574,86822
1500,84.0,0.124613783,87401
1510,87.0,0.125416488,87973
1520,81.0,0.126178993,88521
1530,85.0,0.126982981,89114
1540,83.0,0.127798942,89692
1550,83.0,0.12859181,90284
1560,84.0,0.129370566,90867
1570,83.0,0.130139486,91435
1580,83.0,0.130901991,92021
1590,81.0,0.131759007,92598
1600,84.0,0.132561284,93162
1610,84.0,0.13336185,93743
1620,80.0,0.134181661,94324
1630,81.0,0.134964693,94890
1640,83.0,0.135740883,95464
1650,85.0,0.136520067,96018
1660,84.0,0.137296685,96577
1670,82.0,0.138091692,97154
1680,82.0,0.138858473,97730
1690,82.0,0.139641078,98306
1700,84.0,0.140441216,98875
1710,84.0,0.141223821,99454
1720,83.0,0.142076561,100027
1730,83.0,0.142860449,100590
1740,85.0,0.143658022,101175
1750,81.0,0.14444191,101743
1760,81.0,0.1452181,102295
1770,81.0,0.146039621,102873
1780,82.0,0.146902625,103457
1790,78.0,0.147725857,104032
1800,79.0,0.14852685,104615
1810,78.0,0.149355642,105205
1820,80.0,0.150168611,105789
1830,77.0,0.151003817,106366
1840,79.0,0.151858695,106951
1850,79.0,0.152684065,107520
1860,79.0,0.153509862,108103
1870,82.0,0.154344213,108675
1880,83.0,0.155131094,109270
1890,82.0,0.15593722,109853
1900,83.0,0.156736931,110414
1910,80.0,0.157528517,111009
1920,85.0,0.158313688,111574
1930,86.0,0.15912238,112133
1940,84.0,0.159894721,112731
1950,83.0,0.160933918,113320
1960,83.0,0.161706259,113898
1970,84.0,0.162507681,114485
1980,85.0,0.163315518,115059
1990,83.0,0.164089142,115639
2000,82.0,0.164921782,116213
2010,84.0,0.165757416,116784
2020,88.0,0.166532751,117365
2030,85.0,0.167351706,117942
2040,82.0,0.168124902,118527
2050,80.0,0.16888142,119111
2060,80.0,0.16967942,119688
2070,80.0,0.170479559,120262
2080,84.0,0.171278842,120844
2090,82.0,0.172112337,121422
2100,83.0,0.172914614,122010
2110,84.0,0.173819527,122583
2120,83.0,0.17460256,123162
2130,83.0,0.175394145,123746
2140,82.0,0.176194284,124319
2150,84.0,0.176991429,124894
2160,82.0,0.177786009,125486
2170,82.0,0.178577595,126077
2180,82.0,0.179366187,126652
2190,82.0,0.180153068,127237
2200,82.0,0.18104729,127818
2210,78.0,0.1818872,128404
2220,81.0,0.182726683,128983
2230,80.0,0.183598668,129563
2240,81.0,0.184391964,130145
2250,78.0,0.185319116,130727
2260,79.0,0.186134222,131307
2270,83.0,0.18691811,131884
2280,86.0,0.187735354,132458
2290,81.0,0.188550888,133023
2300,88.0,0.189352737,133605
2310,87.0,0.190148172,134176
2320,86.0,0.191033841,134744
2330,85.0,0.191824143,135311
2340,86.0,0.19262642,135886
2350,87.0,0.193441099,136460
2360,86.0,0.194248507,137044
2370,88.0,0.195045224,137626
2380,85.0,0.195834671,138201
2390,85.0,0.196663035,138759
2400,83.0,0.197503373,139334
2410,83.0,0.198282557,139905
2420,84.0,0.199088683,140476
2430,85.0,0.199904217,141058
2440,84.0,0.200799723,141660
2450,84.0,0.201646048,142247
2460,84.0,0.20247655,142834
2470,84.0,0.203309618,143398
2480,83.0,0.204134988,143967
2490,83.0,0.205284519,144541
2500,82.0,0.206188577,145124
2510,86.0,0.206999834,145705
2520,84.0,0.20782606,146289
2530,85.0,0.208640738,146873
2540,85.0,0.209436173,147446
2550,85.0,0.210214501,148019
2560,85.0,0.211034739,148629
2570,85.0,0.211828035,149205
2580,84.0,0.212642713,149774
2590,85.0,0.213452687,150359
2600,87.0,0.214258813,150937
2610,87.0,0.215072209,151517
2620,84.0,0.215854386,152105
2630,84.0,0.216630149,152680
2640,83.0,0.217436274,153257
2650,86.0,0.218289442,153844
2660,84.0,0.219108397,154416
2670,88.0,0.219979098,154990
2680,84.0,0.220804896,155571
2690,86.0,0.221588356,156164
2700,85.0,0.222378658,156745
2710,83.0,0.223189487,157318
2720,82.0,0.223982783,157887
2730,82.0,0.224758545,158450
2740,80.0,0.225529604,159024
2750,81.0,0.226311354,159600
2760,81.0,0.227116196,160170
2770,79.0,0.227935579,160744
2780,80.0,0.22874983,161326
2790,77.0,0.229557239,161917
2800,81.0,0.230401426,162486
2810,79.0,0.23119515,163067
2820,80.0,0.231994861,163645
2830,80.0,0.232830495,164216
2840,81.0,0.233648595,164785
2850,81.0,0.234456431,165362
2860,79.0,0.235221502,165954
2870,80.0,0.235981441,166520
2880,83.0,0.236755921,167091
2890,82.0,0.23751415,167671
2900,84.0,0.238293762,168236
2910,85.0,0.239064820001,168798
2920,85.0,0.239831602001,169385
2930,83.0,0.240622760001,169967
2940,83.0,0.241420761001,170542
2950,82.0,0.242249125001,171115
2960,82.0,0.243011630001,171682
2970,84.0,0.243805781001,172243
2980,82.0,0.244607203001,172810
2990,83.0,0.245431290001,173397
3000,86.0,0.246219026001,173968
3010,84.0,0.247006762001,174543
3020,85.0,0.247835981001,175126
3030,83.0,0.248587794001,175715
3040,84.0,0.249339608001,176298
3050,85.0,0.250150866001,176890
3060,84.0,0.250892416001,177489
3070,87.0,0.251667323001,178084
3080,82.0,0.252457198001,178679
3090,83.0,0.253239803001,179258
3100,85.0,0.254019414001,179846
3110,82.0,0.254798170001,180420
3120,81.0,0.255616698001,180997
3130,82.0,0.256440785001,181584
3140,82.0,0.257230232001,182155
3150,83.0,0.258032081001,182732
3160,82.0,0.258856168001,183308
3170,83.0,0.259650320001,183872
3180,82.0,0.260717742001,184454
3190,80.0,0.261514032001,185033
3200,82.0,0.262316737001,185612
3210,80.0,0.263097203,186211
3220,79.0,0.263902046,186797
3230,81.0,0.264714159,187361
3240,79.0,0.265524561,187955
3250,80.0,0.266349503,188535
3260,80.0,0.267162471,189112
3270,80.0,0.26795705,189682
3280,80.0,0.268745214,190265
3290,82.0,0.269550057,190840
3300,81.0,0.270364308,191414
3310,82.0,0.271182408,191995
3320,84.0,0.271968006,192563
3330,87.0,0.272746334,193154
3340,85.0,0.27349601,193729
3350,87.0,0.274333782001,194304
3360,85.0,0.275096715,194883
3370,85.0,0.275875899,195457
3380,83.0,0.276644819,196030
3390,84.0,0.277438542,196612
3400,84.0,0.278230127,197194
3410,85.0,0.279044805,197778
3420,83.0,0.279978799,198359
3430,83.0,0.280788346,198930
3440,84.0,0.281549996,199524
3450,82.0,0.282352701,200092
3460,83.0,0.283182775,200674
3470,82.0,0.283978637,201255
3480,82.0,0.284779631,201829
3490,83.0,0.285604146,202403
3500,83.0,0.286421391,202972
3510,83.0,0.287225806,203549
3520,83.0,0.28808325,204121
3530,84.0,0.288860295,204697
3540,83.0,0.289744681,205277
3550,87.0,0.290810392,205860
3560,86.0,0.291585299,206442
3570,86.0,0.292332836,207015
3580,84.0,0.293101756,207594
3590,86.0,0.29387538,208160
3600,86.0,0.294661406,208726
3610,85.0,0.295488914,209292
3620,83.0,0.296285203,209864
3630,84.0,0.297056689,210431
3640,86.0,0.29791114,211005
3650,83.0,0.298712562,211576
3660,82.0,0.299496449,212163
3670,82.0,0.300340636,212748
3680,84.0,0.301159591,213328
3690,81.0,0.301982823,213907
3700,81.0,0.302831714,214484
3710,81.0,0.303615602,215054
3720,79.0,0.304396497,215629
3730,79.0,0.305187227,216222
3740,80.0,0.306013025,216802
3750,82.0,0.306803328,217394
3760,83.0,0.307568827,217970
3770,83.0,0.30834459,218558
3780,84.0,0.309116931,219151
3790,81.0,0.309909371,219731
3800,82.0,0.310678718,220314
3810,79.0,0.311486554,220896
3820,81.0,0.312293535,221483
3830,84.0,0.313171934,222075
3840,81.0,0.313971645,222642
3850,82.0,0.314776916,223230
3860,81.0,0.315598437,223802
3870,81.0,0.316466145,224384
3880,80.0,0.317332142,224956
3890,83.0,0.318252878,225532
3900,81.0,0.319106046,226100
3910,83.0,0.319980169,226677
3920,82.0,0.320854719,227260
3930,81.0,0.321659134,227844
3940,84.0,0.322479373,228427
3950,86.0,0.323313723,228991
3960,85.0,0.324107875,229549
3970,85.0,0.324902027,230120
3980,84.0,0.325719271,230690
3990,85.0,0.326522831,231277
4000,84.0,0.327351195,231854
4010,85.0,0.328172717,232439
4020,84.0,0.328990817,233031
4030,83.0,0.329838425,233605
4040,84.0,0.330673203,234179
4050,86.0,0.331495152,234755
4060,81.0,0.332304699,235322
4070,80.0,0.333104838,235887
4080,83.0,0.33399735,236466
4090,85.0,0.334826568,237044
4100,82.0,0.335634404,237623
4110,80.0,0.336431122,238195
4120,79.0,0.337228267,238767
4130,81.0,0.338039952,239343
4140,79.0,0.338876868,239929
4150,78.0,0.339750563,240518
4160,81.0,0.340587052,241096
4170,77.0,0.341559962,241664
4180,80.0,0.342451618,242251
4190,77.0,0.34328212,242834
4200,77.0,0.344107063,243420
4210,77.0,0.344932433,244002
4220,78.0,0.345803562,244578
4230,79.0,0.346669131,245156
4240,81.0,0.347531707,245725
4250,81.0,0.34834553,246283
4260,79.0,0.349252154,246870
4270,79.0,0.350060846,247458
4280,83.0,0.35086911,248036
4290,82.0,0.351684644,248615
4300,81.0,0.352531397,249199
4310,83.0,0.35339996,249763
4320,81.0,0.354264247,250348
4330,80.0,0.355150771,250942
4340,84.0,0.355985977,251503
4350,81.0,0.35679253,252088
4360,84.0,0.357587109,252658
4370,85.0,0.35839409,253242
4380,84.0,0.359211334,253827
4390,84.0,0.360079897,254388
4400,82.0,0.360927932,254962
4410,81.0,0.361773402,255549
4420,83.0,0.362601338,256132
4430,83.0,0.36340447,256718
4440,85.0,0.364193062,257279
4450,86.0,0.365001754,257842
4460,83.0,0.365807024,258403
4470,82.0,0.366630683,258960
4480,83.0,0.36746033,259540
4490,84.0,0.368303234,260108
4500,83.0,0.369119196,260690
4510,83.0,0.369950553,261278
4520,84.0,0.370793029,261862
4530,85.0,0.371608563,262439
4540,83.0,0.372411267,263011
4550,83.0,0.373208412,263601
4560,84.0,0.373989734,264195
4570,81.0,0.37480313,264773
4580,83.0,0.375961642,265341
4590,83.0,0.376734411,265915
4600,82.0,0.377548662,266493
4610,84.0,0.378341103,267094
4620,82.0,0.379187,267665
4630,83.0,0.379985001,268240
4640,83.0,0.380765468,268816
4650,85.0,0.38154123,269385
4660,82.0,0.382323835,269948
4670,84.0,0.383166311,270533
4680,84.0,0.383958324,271101
4690,84.0,0.38472981,271664
4700,86.0,0.385505572,272231
4710,88.0,0.386300579,272821
4720,85.0,0.387104566001,273400
4730,83.0,0.387891020001,273976
4740,84.0,0.388692014001,274547
4750,85.0,0.389557155,275114
4760,85.0,0.390379104,275687
4770,85.0,0.391171545,276260
4780,83.0,0.39212735,276837
4790,83.0,0.393113518001,277413
4800,90.0,0.393986357001,277983
4810,86.0,0.394764258001,278548
4820,84.0,0.395574233001,279113
4830,86.0,0.396365818001,279685
4840,86.0,0.397179214001,280254
4850,86.0,0.397987905001,280827
4860,84.0,0.398787616001,281381
4870,84.0,0.399619401001,281959
4880,84.0,0.400443916001,282543
4890,85.0,0.401241061001,283142
4900,87.0,0.402042910001,283712
4910,88.0,0.402870419001,284290
4920,87.0,0.403704770001,284877
4930,86.0,0.404486519001,285440
4940,86.0,0.405269124001,286039
4950,88.0,0.406046597001,286599
4960,87.0,0.406851013001,287193
4970,85.0,0.407731978001,287785
4980,87.0,0.408529123001,288359
4990,85.0,0.409383574001,288937
