it,funval,time,funcount
0,61.0,0.000743688999933,286
10,61.0,0.0011751909999,478
20,66.0,0.00159771199992,667
30,67.0,0.0020488859999,852
40,69.0,0.00246884099988,1040
50,69.0,0.00292471899991,1228
60,72.0,0.00334253599988,1418
70,73.0,0.00378686799991,1606
80,74.0,0.00419741499991,1798
90,74.0,0.00460325799986,1987
100,73.0,0.00503133799987,2168
110,75.0,0.00545129399984,2351
120,75.0,0.00585927499981,2539
130,75.0,0.0062595579999,2727
140,73.0,0.00666668299982,2909
150,75.0,0.00710844799971,3096
160,79.0,0.00751086999969,3284
170,79.0,0.00790003399959,3473
180,79.0,0.00832512099964,3664
190,79.0,0.00874721399964,3849
200,79.0,0.0091470699997,4032
210,79.0,0.00956317599969,4215
220,81.0,0.00995020199969,4401
230,78.0,0.0103556169997,4592
240,79.0,0.0107443539997,4778
250,81.0,0.0111459199998,4964
260,81.0,0.0115547559998,5150
270,82.0,0.0119524739998,5340
280,82.0,0.0123856869998,5532
290,82.0,0.0128347229999,5719
300,83.0,0.0132362889998,5905
310,84.0,0.0136164729998,6089
320,84.0,0.0140167559998,6276
330,84.0,0.0144076309999,6464
340,85.0,0.014813046,6651
350,84.0,0.015233001,6834
360,85.0,0.0156230209999,7018
370,85.0,0.0160481079999,7210
380,87.0,0.016435561,7391
390,86.0,0.016820876,7574
400,86.0,0.017209185,7764
410,88.0,0.0176077579999,7956
420,87.0,0.0180195879999,8149
430,86.0,0.0184147389999,8338
440,87.0,0.0189467389999,8526
450,88.0,0.019363701,8710
460,88.0,0.0197498719999,8901
470,88.0,0.020133904,9084
480,88.0,0.0205846499999,9272
490,88.0,0.0209725309999,9460
500,88.0,0.0213659719999,9645
510,87.0,0.021771815,9831
520,88.0,0.022153709,10020
530,88.0,0.0225681050001,10204
540,87.0,0.0229884870001,10390
550,87.0,0.0233725200001,10579
560,87.0,0.0238348130001,10767
570,87.0,0.0243296080001,10957
580,87.0,0.0247478530001,11150
590,87.0,0.0251374450002,11337
600,85.0,0.0255377280001,11521
610,86.0,0.0259260370001,11709
620,88.0,0.0263288860001,11891
630,86.0,0.0267295960001,12077
640,87.0,0.0271264580001,12262
650,85.0,0.0275173330001,12449
660,88.0,0.0279060700001,12632
670,87.0,0.0282965170001,12820
680,88.0,0.028690813,13006
690,87.0,0.0290833980001,13197
700,88.0,0.0294682850001,13391
710,88.0,0.0298565940001,13575
720,88.0,0.0304095490002,13758
730,88.0,0.0307991410002,13950
740,88.0,0.0311912990003,14141
750,89.0,0.0315890160002,14326
760,89.0,0.0319957140002,14522
770,88.0,0.0324045500003,14712
780,89.0,0.0328031230002,14899
790,89.0,0.0332016950002,15088
800,88.0,0.0337084630003,15271
810,88.0,0.0341344050003,15460
820,88.0,0.0345492280003,15650
830,88.0,0.0349918480002,15842
840,88.0,0.0353891370003,16036
850,88.0,0.0357731690003,16221
860,88.0,0.0361503590003,16411
870,89.0,0.0365262660004,16598
880,88.0,0.0369278320003,16782
890,88.0,0.0373118640002,16969
900,88.0,0.0376988900002,17158
910,87.0,0.0381295370003,17345
920,87.0,0.0385246880003,17533
930,87.0,0.0389232600003,17726
940,87.0,0.0393090030003,17912
950,87.0,0.0397032990003,18101
960,88.0,0.0400907530003,18284
970,86.0,0.0404871880003,18469
980,87.0,0.0408729310003,18653
990,87.0,0.0413129860003,18838
1000,87.0,0.0416983020003,19027
1010,88.0,0.0420789130003,19216
1020,88.0,0.0424642280003,19403
1030,88.0,0.0428649390003,19592
1040,87.0,0.0432493980004,19774
1050,88.0,0.0436342860004,19961
1060,88.0,0.0440127590003,20149
1070,88.0,0.0444168910004,20341
1080,88.0,0.0448210230005,20529
1090,87.0,0.0452157460005,20719
1100,87.0,0.0456335630005,20906
1110,89.0,0.0460257210005,21093
1120,89.0,0.0464110360006,21283
1130,89.0,0.0468395440005,21470
1140,90.0,0.0473723990006,21658
1150,89.0,0.0477662680005,21847
1160,90.0,0.0481725380005,22029
1170,90.0,0.0485762420005,22214
1180,90.0,0.0489872170006,22400
1190,90.0,0.0493849350006,22590
1200,92.0,0.0497817970006,22778
1210,90.0,0.0501863570006,22969
1220,91.0,0.0505909170006,23153
1230,91.0,0.0509835020006,23345
1240,90.0,0.0513812190005,23531
1250,90.0,0.0517656790005,23715
1260,89.0,0.0521505660005,23901
1270,88.0,0.0525829230005,24093
1280,89.0,0.0529921860004,24283
1290,88.0,0.0533886210004,24468
1300,88.0,0.0537709430005,24659
1310,88.0,0.0542071490004,24841
1320,88.0,0.0546125640003,25030
1330,89.0,0.0550175510003,25219
1340,89.0,0.0554221110003,25405
1350,88.0,0.0558390720003,25588
1360,85.0,0.0562778430003,25778
1370,86.0,0.0566764150003,25970
1380,87.0,0.0570818300002,26155
1390,86.0,0.0574932330003,26344
1400,88.0,0.0579063450003,26532
1410,86.0,0.0583156090004,26718
1420,86.0,0.0587595130004,26908
1430,85.0,0.0591888760003,27103
1440,86.0,0.0595720530004,27291
1450,85.0,0.0599586520003,27481
1460,86.0,0.0603525200003,27670
1470,87.0,0.0607386910003,27853
1480,86.0,0.0611757520003,28034
1490,85.0,0.0615918580003,28223
1500,84.0,0.0619801670003,28412
1510,84.0,0.0624976270003,28599
1520,85.0,0.0628808040003,28779
1530,86.0,0.0633007590003,28963
1540,85.0,0.0637309780003,29149
1550,86.0,0.0641312610004,29336
1560,87.0,0.0645199970004,29523
1570,87.0,0.0649450840004,29711
1580,87.0,0.0653428010004,29897
1590,88.0,0.0657362420003,30088
1600,88.0,0.0661189910003,30272
1610,87.0,0.0665244060002,30457
1620,89.0,0.0669221240003,30640
1630,88.0,0.0673091500003,30827
1640,89.0,0.0677308160002,31013
1650,90.0,0.0681345210002,31204
1660,91.0,0.0685301000002,31394
1670,90.0,0.0689278180002,31577
1680,90.0,0.0693349440002,31763
1690,90.0,0.0697724330001,31950
1700,90.0,0.0701722880002,32141
1710,89.0,0.0705657280002,32331
1720,90.0,0.0709566030002,32523
1730,90.0,0.0713556030003,32712
1740,89.0,0.0718084870002,32898
1750,90.0,0.0722027830002,33088
1760,90.0,0.0726171790002,33274
1770,89.0,0.0730166070002,33464
1780,89.0,0.0734511020001,33652
1790,89.0,0.0738355620001,33845
1800,89.0,0.0742751890001,34028
1810,90.0,0.0746673470001,34212
1820,90.0,0.075063353,34401
1830,90.0,0.075452517,34590
1840,90.0,0.075846813,34777
1850,89.0,0.076234694,34969
1860,88.0,0.0766533660001,35155
1870,90.0,0.077081874,35341
1880,88.0,0.077474887,35529
1890,89.0,0.077861485,35721
1900,89.0,0.078260058,35910
1910,90.0,0.07864409,36094
1920,89.0,0.079055492,36274
1930,89.0,0.079470743,36464
1940,89.0,0.079867177,36651
1950,89.0,0.080260617,36832
1960,88.0,0.080651064,37020
1970,88.0,0.08107444,37208
1980,88.0,0.0814653149999,37401
1990,88.0,0.0818574729999,37590
2000,88.0,0.0823248979999,37776
2010,87.0,0.0827110679999,37965
2020,88.0,0.0830985209999,38147
2030,87.0,0.0835159109998,38325
2040,87.0,0.0839097799999,38512
2050,89.0,0.0842955229998,38697
2060,87.0,0.0846744229998,38883
2070,88.0,0.0850601659998,39072
2080,89.0,0.0854660089998,39259
2090,90.0,0.0858615879998,39446
2100,90.0,0.0862635809999,39638
2110,91.0,0.0866544559999,39825
2120,90.0,0.0870521729998,40011
2130,90.0,0.0875597969998,40202
2140,92.0,0.0879912989998,40387
2150,93.0,0.0884108269998,40578
2160,92.0,0.0888098269999,40770
2170,92.0,0.0892977789998,40957
2180,92.0,0.0896959239998,41145
2190,92.0,0.0900979179997,41334
2200,91.0,0.0904849439997,41523
2210,91.0,0.0908783849998,41712
2220,91.0,0.0912863659997,41900
2230,92.0,0.0917452369997,42087
2240,92.0,0.0922254909997,42270
2250,91.0,0.0926227799996,42460
2260,91.0,0.0930098059996,42651
2270,91.0,0.0934314709996,42839
2280,88.0,0.0938433009995,43028
2290,89.0,0.0942662499996,43216
2300,88.0,0.0946588349996,43403
2310,88.0,0.0950621119995,43592
2320,87.0,0.0954777899994,43775
2330,88.0,0.0958733689994,43963
2340,88.0,0.0962727969994,44152
2350,89.0,0.0966841989994,44343
2360,88.0,0.0970806329993,44535
2370,88.0,0.0974907519993,44721
2380,89.0,0.0978739289993,44910
2390,88.0,0.0982528299994,45097
2400,90.0,0.0986539679994,45287
2410,89.0,0.0991034319994,45475
2420,89.0,0.0995118409994,45661
2430,89.0,0.0999121239994,45847
2440,88.0,0.100320959999,46036
2450,89.0,0.100721242999,46220
2460,88.0,0.101108268999,46410
2470,88.0,0.101545329999,46596
2480,88.0,0.101942191999,46786
2490,88.0,0.102337342999,46979
2500,88.0,0.102733348999,47161
2510,87.0,0.103166988999,47350
2520,88.0,0.103594213999,47536
2530,88.0,0.104006471999,47728
2540,90.0,0.104397773999,47909
2550,88.0,0.104779667999,48096
2560,88.0,0.105167120999,48283
2570,88.0,0.105558422999,48472
2580,88.0,0.105971535999,48648
2590,88.0,0.106361127999,48842
2600,88.0,0.106743021999,49033
2610,88.0,0.107123632999,49223
2620,86.0,0.107523915999,49409
2630,87.0,0.107933607999,49589
2640,86.0,0.108344582999,49777
2650,86.0,0.108748714999,49962
2660,86.0,0.109185347999,50144
2670,86.0,0.109604447999,50330
2680,86.0,0.110032956999,50520
2690,88.0,0.110432812999,50702
2700,87.0,0.110844215999,50892
2710,86.0,0.111254335999,51076
2720,86.0,0.111680277999,51265
2730,85.0,0.112081415999,51447
2740,85.0,0.112508212999,51633
2750,86.0,0.112926457999,51820
2760,86.0,0.113343418999,52004
2770,86.0,0.113761662999,52193
2780,86.0,0.114182473999,52383
2790,85.0,0.114601573999,52569
2800,86.0,0.115009982999,52755
2810,88.0,0.115409838999,52939
2820,87.0,0.115821668999,53127
2830,87.0,0.116233070999,53310
2840,87.0,0.116629077999,53494
2850,86.0,0.117026794999,53679
2860,87.0,0.117419379999,53867
2870,86.0,0.117820945999,54055
2880,85.0,0.118237906999,54242
2890,84.0,0.118662566999,54423
2900,85.0,0.119050875999,54610
2910,85.0,0.119441322999,54796
2920,86.0,0.119857856999,54981
2930,86.0,0.120266264999,55169
2940,86.0,0.120662698999,55357
2950,86.0,0.121054428999,55543
2960,84.0,0.121437177999,55722
2970,84.0,0.121820354999,55914
2980,84.0,0.122236461999,56102
2990,85.0,0.122708163999,56289
3000,86.0,0.123170883999,56475
3010,85.0,0.123632748999,56662
3020,85.0,0.124133102999,56843
3030,86.0,0.124592829999,57031
3040,87.0,0.125050418999,57220
3050,85.0,0.125510573999,57407
3060,87.0,0.125985695999,57591
3070,87.0,0.126448843999,57782
3080,86.0,0.126930808999,57973
3090,87.0,0.127382409999,58156
3100,86.0,0.127862235999,58344
3110,86.0,0.128353608999,58533
3120,87.0,0.128810768999,58724
3130,86.0,0.129267074999,58915
3140,86.0,0.129739203999,59103
3150,86.0,0.130232287999,59292
3160,87.0,0.130785243999,59477
3170,86.0,0.131236844999,59665
3180,86.0,0.131725224999,59851
3190,88.0,0.132181530999,60036
3200,87.0,0.132670765999,60223
3210,86.0,0.133133058999,60411
3220,87.0,0.133598344999,60598
3230,86.0,0.134058498999,60789
3240,85.0,0.134516087999,60981
3250,86.0,0.134962557999,61164
3260,86.0,0.135456496999,61355
3270,86.0,0.135953001999,61537
3280,85.0,0.136429407999,61731
3290,88.0,0.136879298999,61918
3300,88.0,0.137449786999,62101
3310,86.0,0.137936027999,62291
3320,86.0,0.138417564999,62474
3330,84.0,0.138876863999,62661
3340,85.0,0.139337873999,62844
3350,85.0,0.139791612999,63035
3360,85.0,0.140238937999,63223
3370,84.0,0.140697809999,63415
3380,84.0,0.141182339999,63601
3390,86.0,0.141724603999,63787
3400,86.0,0.142193311999,63980
3410,86.0,0.142685539999,64169
3420,87.0,0.143159378999,64357
3430,87.0,0.143632362999,64543
3440,88.0,0.144089523999,64731
3450,87.0,0.144549677999,64916
3460,87.0,0.145002561999,65106
3470,86.0,0.145482387999,65294
3480,87.0,0.145945535999,65477
3490,89.0,0.146356082999,65665
3500,87.0,0.146791005999,65846
3510,87.0,0.147169905999,66038
3520,86.0,0.147558214999,66228
3530,86.0,0.147973037999,66417
3540,87.0,0.148363912999,66601
3550,87.0,0.148738535999,66784
3560,88.0,0.149158918999,66977
3570,87.0,0.149579301999,67162
3580,86.0,0.149978729999,67350
3590,88.0,0.150465825999,67535
3600,87.0,0.150871240999,67715
3610,88.0,0.151260405999,67901
3620,88.0,0.151669241999,68089
3630,89.0,0.152071234999,68274
3640,87.0,0.152469807999,68458
3650,88.0,0.152912000999,68642
3660,88.0,0.153330244999,68829
3670,88.0,0.153754048999,69008
3680,89.0,0.154144068999,69194
3690,89.0,0.154554187999,69383
3700,89.0,0.154983978999,69570
3710,90.0,0.155399229999,69756
3720,89.0,0.155964158999,69938
3730,89.0,0.156367862999,70131
3740,88.0,0.156769428999,70319
3750,90.0,0.157164151999,70505
3760,89.0,0.157638846999,70693
3770,90.0,0.158039557999,70884
3780,90.0,0.158478757999,71071
3790,90.0,0.158879467999,71257
3800,90.0,0.159257940999,71442
3810,90.0,0.160336053999,71630
3820,89.0,0.160825715999,71813
3830,89.0,0.161218301999,72004
3840,89.0,0.161627137999,72191
3850,89.0,0.162024427999,72380
3860,91.0,0.162422144999,72565
3870,91.0,0.162808314999,72753
3880,89.0,0.163230835999,72943
3890,90.0,0.163641382999,73129
3900,90.0,0.164018572999,73315
3910,90.0,0.164410302999,73501
3920,90.0,0.164809730999,73693
3930,89.0,0.165177512999,73882
3940,90.0,0.165578222999,74069
3950,89.0,0.165975939999,74259
3960,88.0,0.166359972999,74448
3970,89.0,0.166758117999,74634
3980,90.0,0.167170802999,74828
3990,90.0,0.167556973999,75019
4000,90.0,0.167926892999,75208
4010,90.0,0.168300661999,75399
4020,90.0,0.168683410999,75583
4030,89.0,0.169072575999,75767
4040,90.0,0.169482267999,75954
4050,90.0,0.169856036999,76146
4060,89.0,0.170231943999,76333
4070,90.0,0.170616830999,76520
4080,89.0,0.171023955999,76709
4090,90.0,0.171413119999,76898
4100,88.0,0.171808698999,77085
4110,88.0,0.172230792999,77273
4120,87.0,0.172613541999,77462
4130,88.0,0.172990731999,77648
4140,87.0,0.173388448999,77834
4150,88.0,0.173793863999,78017
4160,87.0,0.174170626999,78200
4170,88.0,0.174576469999,78386
4180,87.0,0.175019090999,78571
4190,88.0,0.175402695999,78757
4200,87.0,0.175788865999,78945
4210,87.0,0.176169049999,79132
4220,87.0,0.176571470999,79324
4230,89.0,0.176950798999,79512
4240,87.0,0.177348943999,79698
4250,87.0,0.177768898999,79882
4260,88.0,0.178156351999,80064
4270,88.0,0.178541667999,80246
4280,88.0,0.178917574999,80426
4290,88.0,0.179301606999,80610
4300,88.0,0.179682217999,80798
4310,88.0,0.180055130999,80982
4320,89.0,0.180430610999,81164
4330,88.0,0.180841157999,81354
4340,89.0,0.182056975999,81542
4350,88.0,0.182529104999,81730
4360,89.0,0.182980278999,81916
4370,89.0,0.183386549999,82103
4380,88.0,0.183799235999,82292
4390,88.0,0.184196525999,82482
4400,87.0,0.184593387999,82669
4410,88.0,0.185021040999,82854
4420,85.0,0.185469220999,83044
4430,87.0,0.185888320999,83226
4440,88.0,0.186294590999,83413
4450,87.0,0.186693163999,83600
4460,89.0,0.187130224999,83788
4470,89.0,0.187569851999,83974
4480,91.0,0.187996221999,84161
4490,90.0,0.188411899999,84348
4500,89.0,0.188860507999,84534
4510,89.0,0.189288588999,84721
4520,89.0,0.189667488999,84909
4530,89.0,0.190088726999,85096
4540,90.0,0.190502266999,85280
4550,90.0,0.191430700999,85463
4560,89.0,0.191836970999,85646
4570,91.0,0.192229555999,85837
4580,89.0,0.192654215999,86021
4590,90.0,0.193063906999,86209
4600,88.0,0.193467182999,86397
4610,86.0,0.193859767999,86584
4620,87.0,0.194255774999,86774
4630,88.0,0.194656057999,86959
4640,88.0,0.195053774999,87150
4650,90.0,0.195454057999,87339
4660,90.0,0.195833386999,87531
4670,91.0,0.196220411999,87723
4680,89.0,0.196614279999,87911
4690,90.0,0.196989758999,88097
4700,89.0,0.197387475999,88284
4710,89.0,0.197782199999,88465
4720,90.0,0.198181199999,88646
4730,89.0,0.198588325999,88838
4740,90.0,0.199196875999,89019
4750,89.0,0.200189029999,89214
4760,90.0,0.200587174999,89401
4770,91.0,0.201067428999,89593
4780,91.0,0.201486955999,89780
4790,91.0,0.201897502999,89971
4800,91.0,0.202339695999,90159
4810,92.0,0.202736129999,90350
4820,91.0,0.203147959999,90539
4830,92.0,0.203538834999,90723
4840,92.0,0.203945959999,90914
4850,93.0,0.204390291999,91100
4860,93.0,0.204800411999,91286
4870,92.0,0.205194279999,91475
4880,92.0,0.205591568999,91659
4890,92.0,0.205992279999,91850
4900,92.0,0.206383581999,92037
4910,93.0,0.206823208999,92220
4920,93.0,0.207243591999,92406
4930,94.0,0.207622919999,92594
4940,93.0,0.208112154999,92780
4950,92.0,0.208525694999,92964
4960,93.0,0.208901174999,93152
4970,92.0,0.209296753999,93338
4980,92.0,0.209697036999,93528
4990,93.0,0.210075509999,93713
