it,funval,time,funcount
0,36.0,0.000455450000004,583
10,37.0,0.000946395,1075
20,40.0,0.00147967799998,1560
30,40.0,0.00196164299996,2040
40,44.0,0.00244745599994,2523
50,43.0,0.00291701899994,3002
60,43.0,0.00336776499992,3481
70,45.0,0.00382962999993,3971
80,45.0,0.00441551399993,4454
90,46.0,0.00485685099991,4930
100,45.0,0.00529262899991,5397
110,46.0,0.0057288349999,5867
120,45.0,0.00617829899988,6344
130,46.0,0.0066457239999,6828
140,46.0,0.0070913379999,7324
150,46.0,0.00753224899989,7801
160,46.0,0.00799839099989,8292
170,45.0,0.00844058399989,8775
180,49.0,0.00888277699988,9262
190,46.0,0.00932411499988,9749
200,47.0,0.00976887399989,10217
210,45.0,0.0102247519999,10708
220,44.0,0.0106973089999,11191
230,45.0,0.0111591739999,11688
240,45.0,0.0116458429999,12179
250,46.0,0.0120957339999,12670
260,45.0,0.0125383549999,13152
270,44.0,0.0130049239999,13647
280,43.0,0.0134612289999,14140
290,45.0,0.013919672,14618
300,45.0,0.014397788,15091
310,47.0,0.01483656,15582
320,47.0,0.0152804639999,16069
330,47.0,0.0157265059999,16558
340,46.0,0.0161648499999,17046
350,46.0,0.0166267149999,17527
360,47.0,0.0170770339999,18012
370,48.0,0.0175093909999,18496
380,47.0,0.0179443139999,18981
390,49.0,0.0183783819999,19466
400,49.0,0.0188090279999,19957
410,47.0,0.0192580629999,20439
420,47.0,0.0196998279999,20928
430,47.0,0.0201552789999,21409
440,46.0,0.0206269799999,21890
450,48.0,0.0210845679999,22374
460,46.0,0.0215271889999,22876
470,46.0,0.0219595459999,23348
480,46.0,0.0224209839999,23841
490,47.0,0.0228610389998,24323
500,46.0,0.0233387269999,24810
510,45.0,0.0238023029999,25299
520,47.0,0.0242692999998,25796
530,47.0,0.0247401449998,26275
540,47.0,0.0253405689998,26752
550,48.0,0.0257853279998,27236
560,47.0,0.0262253829999,27719
570,46.0,0.0266881029999,28203
580,48.0,0.0271508229999,28694
590,48.0,0.0276212419998,29163
600,47.0,0.0280745539999,29648
610,48.0,0.0285282929999,30132
620,46.0,0.0289781829999,30618
630,46.0,0.0294494559999,31110
640,47.0,0.0298989189999,31584
650,50.0,0.0303560799999,32059
660,48.0,0.0307995559999,32536
670,48.0,0.0312639869999,33020
680,48.0,0.0317262799999,33510
690,47.0,0.0321723219999,33985
700,46.0,0.0326085279999,34475
710,47.0,0.0330306209999,34956
720,48.0,0.0334702479999,35440
730,47.0,0.0338983279999,35921
740,46.0,0.0343336789999,36404
750,47.0,0.0347891289999,36893
760,47.0,0.0352189209999,37371
770,48.0,0.0356636799999,37853
780,48.0,0.0361340979999,38349
790,48.0,0.0366134969999,38838
800,47.0,0.0371138509999,39332
810,49.0,0.0376086449999,39819
820,49.0,0.0380837669999,40293
830,47.0,0.0386063589999,40773
840,47.0,0.0391058579999,41261
850,49.0,0.0396151919999,41743
860,48.0,0.0401057099999,42245
870,48.0,0.0405851079999,42725
880,48.0,0.0410439789999,43223
890,49.0,0.0415250879999,43722
900,48.0,0.0419865249999,44196
910,48.0,0.0424719109999,44680
920,47.0,0.0429111109999,45161
930,48.0,0.0433533039999,45641
940,48.0,0.0437899369999,46124
950,48.0,0.0442385449999,46602
960,49.0,0.0447102459999,47092
970,48.0,0.0451614199999,47571
980,47.0,0.0456006199999,48047
990,48.0,0.0460372529999,48526
1000,50.0,0.0464871439999,49015
1010,48.0,0.0469207839999,49491
1020,47.0,0.0473638329999,49981
1030,48.0,0.0478496469999,50458
1040,47.0,0.0482764449999,50942
1050,48.0,0.0487293289999,51427
1060,47.0,0.049163396,51927
1070,49.0,0.049600885,52417
1080,49.0,0.0500379459999,52906
1090,46.0,0.0504767179999,53402
1100,47.0,0.0509163449999,53890
1110,47.0,0.0513679469999,54384
1120,46.0,0.0518268179999,54873
1130,45.0,0.0522873999999,55355
1140,46.0,0.0527616669999,55833
1150,44.0,0.0532299469999,56320
1160,45.0,0.0536875349999,56794
1170,45.0,0.0541425579999,57265
1180,45.0,0.0545980079999,57747
1190,46.0,0.0550603009999,58235
1200,45.0,0.0555110469999,58726
1210,44.0,0.0559823209999,59206
1220,45.0,0.0564330669999,59690
1230,45.0,0.0569103279999,60166
1240,46.0,0.0573610749999,60656
1250,45.0,0.0578627119999,61152
1260,45.0,0.0583078989999,61622
1270,47.0,0.0587701919999,62105
1280,48.0,0.0592153779999,62590
1290,46.0,0.0596952039999,63063
1300,46.0,0.0601399629999,63551
1310,46.0,0.0605898529999,64032
1320,46.0,0.0610307639999,64512
1330,45.0,0.0615011819999,64998
1340,46.0,0.0619583429999,65493
1350,48.0,0.0624197799999,65978
1360,48.0,0.0629179959999,66453
1370,48.0,0.0633486429999,66932
1380,50.0,0.0637908359999,67402
1390,47.0,0.0642621089999,67883
1400,47.0,0.0647068679999,68354
1410,47.0,0.0651469229999,68828
1420,46.0,0.0655968139999,69308
1430,46.0,0.0660544019999,69799
1440,46.0,0.0665154119999,70283
1450,47.0,0.0669537569999,70764
1460,47.0,0.067400227,71241
1470,46.0,0.067868935,71731
1480,45.0,0.06831626,72212
1490,47.0,0.0687802639999,72709
1500,47.0,0.069240419,73186
1510,47.0,0.06971212,73676
1520,48.0,0.070165432,74151
1530,46.0,0.070627298,74632
1540,48.0,0.071081038,75117
1550,47.0,0.07152879,75591
1560,46.0,0.071972694,76076
1570,46.0,0.072425579,76558
1580,45.0,0.072896853,77044
1590,45.0,0.073331349,77516
1600,46.0,0.073778674,77986
1610,45.0,0.074247382,78474
1620,46.0,0.074701977,78950
1630,47.0,0.075164698,79425
1640,47.0,0.075624853,79910
1650,47.0,0.0760828689999,80389
1660,48.0,0.0765327599999,80882
1670,46.0,0.0769882099999,81349
1680,47.0,0.0774611949999,81837
1690,47.0,0.0779277639999,82328
1700,47.0,0.0783695289999,82805
1710,48.0,0.0788420859999,83294
1720,48.0,0.0792958259999,83772
1730,47.0,0.0797730859999,84262
1740,47.0,0.0802080089999,84741
1750,46.0,0.0806497749999,85234
1760,48.0,0.0810975269999,85724
1770,48.0,0.0815726499999,86222
1780,48.0,0.0820537599999,86719
1790,47.0,0.0825177629999,87213
1800,50.0,0.0829800559999,87686
1810,48.0,0.0834701459999,88172
1820,48.0,0.0839217469999,88647
1830,47.0,0.0843737759999,89128
1840,47.0,0.0848707089999,89631
1850,47.0,0.0853518189998,90097
1860,47.0,0.0858145399998,90572
1870,48.0,0.0862669959998,91047
1880,45.0,0.0867339929998,91526
1890,48.0,0.0871907259998,92003
1900,47.0,0.0876320639998,92482
1910,47.0,0.0880845199998,92957
1920,48.0,0.0885314179998,93442
1930,49.0,0.0889766039998,93928
1940,49.0,0.0894081049998,94417
1950,48.0,0.0898408899999,94905
1960,46.0,0.0902903529999,95380
1970,47.0,0.0907261309999,95861
1980,46.0,0.0911978319999,96345
1990,46.0,0.0916254849999,96826
2000,47.0,0.0920616909999,97304
2010,47.0,0.0925107259999,97795
2020,46.0,0.0929640379998,98275
2030,45.0,0.0934327449999,98755
2040,47.0,0.0939027349999,99235
2050,48.0,0.0943466379999,99723
2060,48.0,0.0948119239999,100206
2070,48.0,0.0952656639999,100694
2080,47.0,0.0957253909999,101176
2090,48.0,0.0961923869999,101654
2100,48.0,0.0966345799999,102147
2110,48.0,0.0971024329999,102630
2120,48.0,0.0975711409999,103120
2130,46.0,0.0980180389999,103594
2140,47.0,0.0984739169999,104077
2150,48.0,0.0989233799999,104553
2160,47.0,0.0993578749999,105030
2170,49.0,0.0998116149999,105521
2180,47.0,0.100270487,106007
2190,48.0,0.100735345,106485
2200,48.0,0.101171978,106943
2210,48.0,0.101613316,107417
2220,48.0,0.102061496,107901
2230,47.0,0.102495991,108381
2240,47.0,0.102948021,108879
2250,47.0,0.103396201,109373
2260,48.0,0.103878593,109851
2270,46.0,0.104332761,110340
2280,45.0,0.104807028,110814
2290,45.0,0.105388208,111292
2300,48.0,0.105847935,111775
2310,47.0,0.106308517,112256
2320,48.0,0.106763112,112734
2330,48.0,0.107214713,113214
2340,47.0,0.107684704,113705
2350,47.0,0.108134168,114192
2360,48.0,0.108580638,114669
2370,47.0,0.109035233,115140
2380,48.0,0.10948042,115624
2390,48.0,0.109916199,116105
2400,48.0,0.110341713,116604
2410,49.0,0.110781768,117088
2420,49.0,0.111212415,117573
2430,48.0,0.111654608,118048
2440,48.0,0.112088248,118526
2450,48.0,0.112554817,119010
2460,48.0,0.112997011,119490
2470,49.0,0.113437493,119959
2480,49.0,0.113900213,120443
2490,49.0,0.114342406,120924
2500,48.0,0.114800422,121407
2510,48.0,0.115243898,121888
2520,48.0,0.115769483,122366
2530,48.0,0.116209538,122850
2540,48.0,0.116741538,123341
2550,47.0,0.117189718,123828
2560,47.0,0.117645596,124312
2570,47.0,0.118136969,124799
2580,46.0,0.11858686,125270
2590,46.0,0.11904958,125765
2600,46.0,0.119493483,126269
2610,46.0,0.11994765,126746
2620,46.0,0.120407805,127217
2630,47.0,0.12085513,127712
2640,47.0,0.121286632,128205
2650,47.0,0.121717707,128687
2660,49.0,0.122166315,129172
2670,47.0,0.122607226,129663
2680,47.0,0.123043005,130143
2690,47.0,0.123515133,130624
2700,47.0,0.12396759,131103
2710,49.0,0.124431594,131592
2720,48.0,0.124903723,132080
2730,47.0,0.125351476,132563
2740,48.0,0.125806499,133050
2750,47.0,0.12624912,133541
2760,48.0,0.12669559,134029
2770,47.0,0.12715831,134516
2780,47.0,0.127584679,135010
2790,47.0,0.128039274,135490
2800,48.0,0.128489164,135972
2810,46.0,0.128933067,136458
2820,46.0,0.129432138,136948
2830,47.0,0.129903411,137433
2840,44.0,0.130349881,137908
2850,45.0,0.13080362,138390
2860,43.0,0.131276604,138880
2870,45.0,0.131753865,139360
2880,46.0,0.13222856,139858
2890,47.0,0.132678023,140339
2900,46.0,0.133157849,140814
2910,46.0,0.133605601,141293
2920,46.0,0.134056347,141785
2930,47.0,0.134528475,142268
2940,47.0,0.135004025,142742
2950,46.0,0.135472305,143215
2960,46.0,0.135918347,143704
2970,46.0,0.136378501,144190
2980,46.0,0.1368378,144674
2990,45.0,0.137318482,145163
3000,47.0,0.137800874,145644
3010,44.0,0.138248199,146114
3020,44.0,0.138694241,146594
3030,44.0,0.139152257,147068
3040,45.0,0.139652183,147550
3050,46.0,0.140101646,148031
3060,47.0,0.140546833,148507
3070,47.0,0.140988598,148979
3080,46.0,0.141445331,149472
3090,46.0,0.141890945,149956
3100,46.0,0.142357515,150445
3110,48.0,0.142803129,150927
3120,46.0,0.143255158,151409
3130,48.0,0.1437213,151892
3140,47.0,0.144151946,152372
3150,47.0,0.144607396,152842
3160,47.0,0.145053438,153331
3170,47.0,0.145491782,153817
3180,47.0,0.145942955,154297
3190,47.0,0.146413801,154777
3200,48.0,0.146887212,155257
3210,48.0,0.147346083,155738
3220,48.0,0.147795974,156225
3230,47.0,0.148341659,156707
3240,48.0,0.148804807,157191
3250,48.0,0.149263678,157666
3260,49.0,0.149718273,158146
3270,47.0,0.150155762,158637
3280,46.0,0.150605225,159129
3290,47.0,0.15108163,159611
3300,48.0,0.15155889,160089
3310,47.0,0.152043421,160577
3320,46.0,0.152511701,161068
3330,47.0,0.152967152,161538
3340,46.0,0.153425168,162034
3350,44.0,0.153890882,162525
3360,45.0,0.154425021,163012
3370,45.0,0.154879188,163494
3380,46.0,0.155348323,163973
3390,46.0,0.155805057,164451
3400,45.0,0.156273765,164940
3410,45.0,0.156730498,165423
3420,47.0,0.157166276,165904
3430,47.0,0.157613174,166389
3440,47.0,0.158052801,166879
3450,48.0,0.158506541,167357
3460,48.0,0.158953866,167835
3470,47.0,0.159390072,168320
3480,48.0,0.159833548,168822
3490,47.0,0.160291565,169312
3500,46.0,0.160748299,169786
3510,46.0,0.161214869,170271
3520,48.0,0.161678873,170758
3530,47.0,0.162110803,171223
3540,48.0,0.162547437,171708
3550,48.0,0.162997756,172176
3560,48.0,0.163473734,172661
3570,48.0,0.163916355,173145
3580,47.0,0.164346147,173626
3590,46.0,0.164780215,174109
3600,46.0,0.170296938,174596
3610,45.0,0.170760514,175084
3620,46.0,0.171208694,175566
3630,48.0,0.171646611,176042
3640,46.0,0.172143971,176507
3650,48.0,0.172610968,176982
3660,48.0,0.173072833,177467
3670,48.0,0.173545817,177940
3680,48.0,0.174015807,178413
3690,47.0,0.174458001,178885
3700,46.0,0.174896345,179362
3710,46.0,0.175341532,179835
3720,45.0,0.175787146,180324
3730,46.0,0.176237465,180805
3740,46.0,0.176710876,181282
3750,46.0,0.177160767,181753
3760,47.0,0.177669674,182236
3770,49.0,0.178113578,182728
3780,47.0,0.178571594,183214
3790,46.0,0.179036025,183691
3800,47.0,0.179492331,184166
3810,47.0,0.179956335,184664
3820,46.0,0.180450702,185155
3830,46.0,0.180905725,185648
3840,47.0,0.181382131,186135
3850,48.0,0.181864951,186606
3860,47.0,0.182311848,187085
3870,47.0,0.182768153,187560
3880,46.0,0.183911269,188046
3890,46.0,0.184372706,188542
3900,47.0,0.184934214,189025
3910,46.0,0.185369992,189511
3920,45.0,0.185848963,189979
3930,49.0,0.186312539,190466
3940,48.0,0.18677526,190952
3950,47.0,0.187242685,191446
3960,46.0,0.187813602,191924
3970,47.0,0.188305403,192411
3980,48.0,0.188768978,192903
3990,47.0,0.189227422,193385
4000,48.0,0.189682444,193869
4010,49.0,0.190114801,194356
4020,48.0,0.190566403,194833
4030,46.0,0.191017577,195322
4040,48.0,0.191499114,195807
4050,48.0,0.191963117,196287
4060,47.0,0.192410015,196765
4070,49.0,0.192847504,197255
4080,49.0,0.193289697,197745
4090,47.0,0.193907228,198222
4100,47.0,0.194355836,198714
4110,47.0,0.194804016,199191
4120,46.0,0.195261177,199688
4130,47.0,0.195736727,200163
4140,47.0,0.196195171,200643
4150,48.0,0.196652332,201128
4160,49.0,0.197089394,201602
4170,47.0,0.19756024,202088
4180,48.0,0.198010559,202560
4190,47.0,0.198449758,203046
4200,46.0,0.198903925,203523
4210,46.0,0.199562938,204009
4220,47.0,0.20004362,204501
4230,46.0,0.200531572,204980
4240,48.0,0.200998569,205474
4250,46.0,0.201468559,205956
4260,47.0,0.201941116,206432
4270,47.0,0.202439332,206921
4280,46.0,0.20291531,207415
4290,46.0,0.203388722,207913
4300,47.0,0.203852725,208401
4310,49.0,0.204297056,208889
4320,48.0,0.204724281,209370
4330,48.0,0.205177166,209851
4340,49.0,0.205629195,210348
4350,49.0,0.206071816,210820
4360,48.0,0.206540096,211307
4370,48.0,0.206974163,211793
4380,48.0,0.207400532,212265
4390,46.0,0.207858121,212747
4400,46.0,0.208328539,213241
4410,48.0,0.208764745,213713
4420,47.0,0.209206083,214197
4430,47.0,0.209667948,214690
4440,46.0,0.210403083,215176
4450,46.0,0.210837578,215650
4460,45.0,0.211319971,216120
4470,47.0,0.211779698,216602
4480,46.0,0.212232154,217078
4490,46.0,0.212700006,217552
4500,46.0,0.213183681,218031
4510,48.0,0.213646829,218514
4520,47.0,0.214102279,218992
4530,49.0,0.214558157,219489
4540,49.0,0.215008475,219966
4550,48.0,0.215436128,220456
4560,46.0,0.215892861,220942
4570,46.0,0.216348311,221418
4580,47.0,0.216817873,221905
4590,47.0,0.217295133,222375
4600,47.0,0.2177694,222860
4610,47.0,0.218245378,223353
4620,47.0,0.218708098,223835
4630,47.0,0.219205458,224310
4640,48.0,0.219697259,224789
4650,48.0,0.220148433,225270
4660,46.0,0.220606877,225748
4670,45.0,0.22105634,226230
4680,46.0,0.22152291,226717
4690,47.0,0.221981354,227208
4700,48.0,0.22243766,227696
4710,47.0,0.222911927,228180
4720,49.0,0.223375075,228664
4730,48.0,0.223948557,229145
4740,48.0,0.224421969,229635
4750,48.0,0.224897947,230108
4760,48.0,0.225383761,230604
4770,48.0,0.225817829,231088
4780,47.0,0.226273279,231577
4790,47.0,0.226727019,232054
4800,48.0,0.227179903,232548
4810,50.0,0.227631504,233026
4820,47.0,0.228104915,233503
4830,48.0,0.228574478,234004
4840,48.0,0.229030356,234490
4850,46.0,0.229509327,234968
4860,48.0,0.229960073,235450
4870,48.0,0.230430491,235935
4880,48.0,0.23090262,236420
4890,48.0,0.2313307,236904
4900,49.0,0.231784867,237371
4910,48.0,0.232212948,237848
4920,48.0,0.232647444,238341
4930,49.0,0.233089209,238837
4940,46.0,0.233527553,239315
4950,48.0,0.233986852,239805
4960,48.0,0.234438881,240292
4970,48.0,0.234895614,240783
4980,48.0,0.235372447,241268
4990,48.0,0.235851418,241763
